{"pageCount": 1095, "count": 10942, "pageNo": 12, "subShopInfo": {"cardNumFive": "", "isSupportYj": "", "cityName": null, "districtName": null, "shopinfo": {"mid": null, "good_flag": null, "new_flag": null, "short_name": null, "short_name_pinyin": null, "status": null, "address": "", "name": "", "id": null}, "mid": null, "shopId": null, "netid": null, "province": 901, "district": null, "zipcode": null, "telephone": null, "posDate": null, "destineTel": null, "togoTel": null, "trafficWay": null, "signBuilding": null, "businessArea": null, "selfRoom": null, "businessTime": null, "stall": null, "consume": null, "serviceFei": null, "favourable": null, "shopMemo": "1", "appraise": null, "website": null, "memo": null, "payTypes": "", "shopTypes": "", "consumeTypes": null, "cookTypes": null, "orderNum": null, "card4no": null, "card4noAcc": null, "district2": null, "searchScope": null, "status": null, "address": "", "name": null, "id": null, "pageNo": 11, "pageCount": null, "pageSize": 10, "ids": null, "endTime": null, "startTime": null}, "list": [{"cardNumFive": null, "isSupportYj": null, "cityName": null, "districtName": null, "shopinfo": {"mid": "888888858130012", "good_flag": "1", "new_flag": "2", "short_name": "\u7231\u831c\u831c\u91ccIceason", "short_name_pinyin": "aiqianqianliiceason", "status": null, "address": null, "name": null, "id": "31145"}, "mid": "888888858130012", "shopId": "31145", "netid": null, "province": 901, "district": 601, "zipcode": null, "telephone": "64127015", "posDate": "20070810", "destineTel": null, "togoTel": null, "trafficWay": "\u5730\u94c1\u4e00\u53f7\u7ebf \u6caa\u8398\u7ebf", "signBuilding": null, "businessArea": null, "selfRoom": null, "businessTime": null, "stall": null, "consume": null, "serviceFei": null, "favourable": null, "shopMemo": "\u65e5\u5f0f\u62b9\u8336\u53e3\u5473\u51b0\u6dc7\u6dcb \u6bd4\u5229\u65f6\u5de7\u514b\u529b", "appraise": null, "website": null, "memo": null, "payTypes": "\u6749\u5fb7\u5361", "shopTypes": "\u9910\u996e,\u4f11\u95f2", "consumeTypes": "\u597d\u53cb\u5c0f\u805a \u6d6a\u6f2b\u7ea6\u4f1a \u4f11\u95f2\u5c31\u9910", "cookTypes": null, "orderNum": 1000, "card4no": null, "card4noAcc": null, "district2": 409, "searchScope": null, "status": 1, "address": "\u6caa\u95f5\u8def7388\u53f71\u697c", "name": "\u7231\u831c\u831c\u91ccIceason \u5357\u65b9\u5546\u57ce\u5e97", "id": 132268, "pageNo": 0, "pageCount": null, "pageSize": 10, "ids": null, "endTime": null, "startTime": null}, {"cardNumFive": null, "isSupportYj": null, "cityName": null, "districtName": null, "shopinfo": {"mid": "888888858130012", "good_flag": "1", "new_flag": "2", "short_name": "\u7231\u831c\u831c\u91ccIceason", "short_name_pinyin": "aiqianqianliiceason", "status": null, "address": null, "name": null, "id": "31145"}, "mid": "888888858130012", "shopId": "31145", "netid": null, "province": 901, "district": 601, "zipcode": null, "telephone": null, "posDate": "20090203", "destineTel": null, "togoTel": null, "trafficWay": "\u516c\u4ea420 37 \u5730\u94c1\u4e8c\u53f7\u7ebf", "signBuilding": null, "businessArea": null, "selfRoom": null, "businessTime": null, "stall": null, "consume": null, "serviceFei": null, "favourable": null, "shopMemo": null, "appraise": null, "website": null, "memo": null, "payTypes": "\u6749\u5fb7\u5361", "shopTypes": "\u9910\u996e,\u4f11\u95f2", "consumeTypes": null, "cookTypes": null, "orderNum": 1000, "card4no": null, "card4noAcc": null, "district2": 404, "searchScope": null, "status": 1, "address": "\u5357\u4eac\u897f\u8def1678\u5f0459\u53f7", "name": "\u7231\u831c\u831c\u91ccIceason \u5357\u4eac\u897f\u8def\u5e97", "id": 132269, "pageNo": 0, "pageCount": null, "pageSize": 10, "ids": null, "endTime": null, "startTime": null}, {"cardNumFive": null, "isSupportYj": null, "cityName": null, "districtName": null, "shopinfo": {"mid": "888888858130012", "good_flag": "1", "new_flag": "2", "short_name": "\u7231\u831c\u831c\u91ccIceason", "short_name_pinyin": "aiqianqianliiceason", "status": null, "address": null, "name": null, "id": "31145"}, "mid": "888888858130012", "shopId": "31145", "netid": null, "province": 901, "district": 601, "zipcode": null, "telephone": null, "posDate": "20090203", "destineTel": null, "togoTel": null, "trafficWay": "\u516c\u4ea4584 \u96a7\u9053\u4e09\u7ebf \u5730\u94c1\u4e8c\u53f7\u7ebf", "signBuilding": null, "businessArea": null, "selfRoom": null, "businessTime": null, "stall": null, "consume": null, "serviceFei": null, "favourable": null, "shopMemo": null, "appraise": null, "website": null, "memo": null, "payTypes": "\u6749\u5fb7\u5361", "shopTypes": "\u9910\u996e,\u4f11\u95f2", "consumeTypes": null, "cookTypes": null, "orderNum": 1000, "card4no": null, "card4noAcc": null, "district2": 418, "searchScope": null, "status": 1, "address": "\u6d66\u4e1c\u5357\u8def1111\u53f710\u697c", "name": "\u7231\u831c\u831c\u91ccIceason \u6d66\u4e1c\u5357\u8def\u5e97", "id": 132270, "pageNo": 0, "pageCount": null, "pageSize": 10, "ids": null, "endTime": null, "startTime": null}, {"cardNumFive": null, "isSupportYj": null, "cityName": null, "districtName": null, "shopinfo": {"mid": "888888858130012", "good_flag": "1", "new_flag": "2", "short_name": "\u7231\u831c\u831c\u91ccIceason", "short_name_pinyin": "aiqianqianliiceason", "status": null, "address": null, "name": null, "id": "31145"}, "mid": "888888858130012", "shopId": "31145", "netid": null, "province": 901, "district": 601, "zipcode": null, "telephone": null, "posDate": "20080523", "destineTel": null, "togoTel": null, "trafficWay": "\u516c\u4ea4985 \u5730\u94c1\u4e8c\u53f7\u7ebf", "signBuilding": null, "businessArea": null, "selfRoom": null, "businessTime": null, "stall": null, "consume": null, "serviceFei": null, "favourable": null, "shopMemo": null, "appraise": null, "website": null, "memo": null, "payTypes": "\u6749\u5fb7\u5361", "shopTypes": "\u9910\u996e,\u4f11\u95f2", "consumeTypes": "\u597d\u53cb\u5c0f\u805a \u6d6a\u6f2b\u7ea6\u4f1a \u4f11\u95f2\u5c31\u9910", "cookTypes": null, "orderNum": 1000, "card4no": null, "card4noAcc": null, "district2": 418, "searchScope": null, "status": 1, "address": "\u4e16\u7eaa\u5927\u90531\u53f7\u4e1c\u65b9\u660e\u73e00\u7c73\u5927\u5385", "name": "\u7231\u831c\u831c\u91ccIceason \u4e16\u7eaa\u5927\u9053\u5e97", "id": 132271, "pageNo": 0, "pageCount": null, "pageSize": 10, "ids": null, "endTime": null, "startTime": null}, {"cardNumFive": null, "isSupportYj": null, "cityName": null, "districtName": null, "shopinfo": {"mid": "888888858130012", "good_flag": "1", "new_flag": "2", "short_name": "\u7231\u831c\u831c\u91ccIceason", "short_name_pinyin": "aiqianqianliiceason", "status": null, "address": null, "name": null, "id": "31145"}, "mid": "888888858130012", "shopId": "31145", "netid": null, "province": 901, "district": 601, "zipcode": null, "telephone": null, "posDate": "20080812", "destineTel": null, "togoTel": null, "trafficWay": "\u516c\u4ea4937 817 910", "signBuilding": null, "businessArea": null, "selfRoom": null, "businessTime": null, "stall": null, "consume": null, "serviceFei": null, "favourable": null, "shopMemo": null, "appraise": null, "website": null, "memo": null, "payTypes": "\u6749\u5fb7\u5361", "shopTypes": "\u9910\u996e,\u4f11\u95f2", "consumeTypes": null, "cookTypes": null, "orderNum": 1000, "card4no": null, "card4noAcc": null, "district2": 407, "searchScope": null, "status": 1, "address": "\u56db\u5e73\u8def2500\u53f7B1\u5c42G09-B01-1-013B", "name": "\u7231\u831c\u831c\u91ccIceason \u56db\u5e73\u5e97", "id": 132274, "pageNo": 0, "pageCount": null, "pageSize": 10, "ids": null, "endTime": null, "startTime": null}, {"cardNumFive": null, "isSupportYj": null, "cityName": null, "districtName": null, "shopinfo": {"mid": "888888858130012", "good_flag": "1", "new_flag": "2", "short_name": "\u7231\u831c\u831c\u91ccIceason", "short_name_pinyin": "aiqianqianliiceason", "status": null, "address": null, "name": null, "id": "31145"}, "mid": "888888858130012", "shopId": "31145", "netid": null, "province": 901, "district": 601, "zipcode": null, "telephone": null, "posDate": "20080531", "destineTel": null, "togoTel": null, "trafficWay": "\u516c\u4ea437 921 \u5730\u94c1\u4e8c\u53f7\u7ebf", "signBuilding": null, "businessArea": null, "selfRoom": null, "businessTime": null, "stall": null, "consume": null, "serviceFei": null, "favourable": null, "shopMemo": null, "appraise": null, "website": null, "memo": null, "payTypes": "\u6749\u5fb7\u5361", "shopTypes": "\u9910\u996e,\u4f11\u95f2", "consumeTypes": "\u597d\u53cb\u5c0f\u805a \u6d6a\u6f2b\u7ea6\u4f1a \u4f11\u95f2\u5c31\u9910", "cookTypes": null, "orderNum": 1000, "card4no": null, "card4noAcc": null, "district2": 401, "searchScope": null, "status": 1, "address": "\u5434\u6c5f\u8def166\u53f71\u5c42", "name": "\u7231\u831c\u831c\u91ccIceason \u5434\u6c5f\u8def\u5e97", "id": 132276, "pageNo": 0, "pageCount": null, "pageSize": 10, "ids": null, "endTime": null, "startTime": null}, {"cardNumFive": null, "isSupportYj": null, "cityName": null, "districtName": null, "shopinfo": {"mid": "888888858130012", "good_flag": "1", "new_flag": "2", "short_name": "\u7231\u831c\u831c\u91ccIceason", "short_name_pinyin": "aiqianqianliiceason", "status": null, "address": null, "name": null, "id": "31145"}, "mid": "888888858130012", "shopId": "31145", "netid": null, "province": 901, "district": 601, "zipcode": null, "telephone": null, "posDate": "20080612", "destineTel": null, "togoTel": null, "trafficWay": "\u516c\u4ea476 112 945", "signBuilding": null, "businessArea": null, "selfRoom": null, "businessTime": null, "stall": null, "consume": null, "serviceFei": null, "favourable": null, "shopMemo": null, "appraise": null, "website": null, "memo": null, "payTypes": "\u6749\u5fb7\u5361", "shopTypes": "\u9910\u996e,\u4f11\u95f2", "consumeTypes": "\u597d\u53cb\u5c0f\u805a \u6d6a\u6f2b\u7ea6\u4f1a \u4f11\u95f2\u5c31\u9910", "cookTypes": null, "orderNum": 1000, "card4no": null, "card4noAcc": null, "district2": 406, "searchScope": null, "status": 1, "address": "\u65b0\u534e\u8def160\u53f71\u697c", "name": "\u7231\u831c\u831c\u91ccIceason \u65b0\u534e\u8def\u5e97", "id": 132277, "pageNo": 0, "pageCount": null, "pageSize": 10, "ids": null, "endTime": null, "startTime": null}, {"cardNumFive": null, "isSupportYj": null, "cityName": null, "districtName": null, "shopinfo": {"mid": "888888858130046", "good_flag": "2", "new_flag": "1", "short_name": "\u7231\u831c\u831c\u91ccIceason", "short_name_pinyin": "aiqianqianliiceason", "status": null, "address": null, "name": null, "id": "31146"}, "mid": "888888858130046", "shopId": "31146", "netid": null, "province": 901, "district": 601, "zipcode": null, "telephone": null, "posDate": "20100118", "destineTel": null, "togoTel": null, "trafficWay": null, "signBuilding": null, "businessArea": null, "selfRoom": null, "businessTime": null, "stall": null, "consume": null, "serviceFei": null, "favourable": null, "shopMemo": null, "appraise": null, "website": null, "memo": null, "payTypes": "\u6749\u5fb7\u5361", "shopTypes": "\u9910\u996e,\u4f11\u95f2", "consumeTypes": null, "cookTypes": null, "orderNum": 1000, "card4no": null, "card4noAcc": null, "district2": 418, "searchScope": null, "status": 1, "address": "\u5f20\u6768\u5317\u8def801\u53f7\u4e00\u5c42F11-114\u53f7", "name": "\u7231\u831c\u831c\u91ccIceason \u5f20\u6768\u5317\u8def\u5e97", "id": 132278, "pageNo": 0, "pageCount": null, "pageSize": 10, "ids": null, "endTime": null, "startTime": null}, {"cardNumFive": null, "isSupportYj": null, "cityName": null, "districtName": null, "shopinfo": {"mid": "888888858130012", "good_flag": "1", "new_flag": "2", "short_name": "\u7231\u831c\u831c\u91ccIceason", "short_name_pinyin": "aiqianqianliiceason", "status": null, "address": null, "name": null, "id": "31145"}, "mid": "888888858130012", "shopId": "31145", "netid": null, "province": 901, "district": 601, "zipcode": null, "telephone": null, "posDate": "20070810", "destineTel": null, "togoTel": null, "trafficWay": "\u516c\u4ea443 \u5357\u820d\u7ebf", "signBuilding": null, "businessArea": null, "selfRoom": null, "businessTime": null, "stall": null, "consume": null, "serviceFei": null, "favourable": null, "shopMemo": "\u91d1\u67aa\u9c7c\u756a\u8304\u9762", "appraise": null, "website": null, "memo": null, "payTypes": "\u6749\u5fb7\u5361", "shopTypes": "\u9910\u996e,\u4f11\u95f2", "consumeTypes": "\u597d\u53cb\u5c0f\u805a \u6d6a\u6f2b\u7ea6\u4f1a \u4f11\u95f2\u5c31\u9910", "cookTypes": null, "orderNum": 1000, "card4no": null, "card4noAcc": null, "district2": 401, "searchScope": null, "status": 1, "address": "\u8087\u5609\u6d5c\u8def376\u53f7", "name": "\u7231\u831c\u831c\u91ccIceason \u8087\u5609\u6d5c\u8def\u5e97", "id": 132279, "pageNo": 0, "pageCount": null, "pageSize": 10, "ids": null, "endTime": null, "startTime": null}, {"cardNumFive": null, "isSupportYj": null, "cityName": null, "districtName": null, "shopinfo": {"mid": "888888858130012", "good_flag": null, "new_flag": null, "short_name": "\u7231\u831c\u831c\u91ccIceason", "short_name_pinyin": "aiqianqianliiceason", "status": null, "address": null, "name": null, "id": "37721"}, "mid": "888888858130012", "shopId": "37721", "netid": null, "province": 901, "district": 601, "zipcode": null, "telephone": null, "posDate": null, "destineTel": null, "togoTel": null, "trafficWay": null, "signBuilding": null, "businessArea": null, "selfRoom": null, "businessTime": null, "stall": null, "consume": null, "serviceFei": null, "favourable": null, "shopMemo": null, "appraise": null, "website": null, "memo": null, "payTypes": "\u6749\u5fb7\u5361", "shopTypes": "\u9910\u996e", "consumeTypes": null, "cookTypes": null, "orderNum": 1000, "card4no": null, "card4noAcc": null, "district2": 411, "searchScope": null, "status": 1, "address": "\u91d1\u6c99\u6c5f\u897f\u8def1063\u53f71\u697c20\u53f7\u5546\u94fa", "name": "\u7231\u831c\u831c\u91ccIceason \u6c5f\u6865\u4e07\u8fbe\u5e97", "id": 159971, "pageNo": 0, "pageCount": null, "pageSize": 10, "ids": null, "endTime": null, "startTime": null}], "pageLimit": 110, "size": 10}