{"pageCount": 1095, "count": 10942, "pageNo": 14, "subShopInfo": {"cardNumFive": "", "isSupportYj": "", "cityName": null, "districtName": null, "shopinfo": {"mid": null, "good_flag": null, "new_flag": null, "short_name": null, "short_name_pinyin": null, "status": null, "address": "", "name": "", "id": null}, "mid": null, "shopId": null, "netid": null, "province": 901, "district": null, "zipcode": null, "telephone": null, "posDate": null, "destineTel": null, "togoTel": null, "trafficWay": null, "signBuilding": null, "businessArea": null, "selfRoom": null, "businessTime": null, "stall": null, "consume": null, "serviceFei": null, "favourable": null, "shopMemo": "1", "appraise": null, "website": null, "memo": null, "payTypes": "", "shopTypes": "", "consumeTypes": null, "cookTypes": null, "orderNum": null, "card4no": null, "card4noAcc": null, "district2": null, "searchScope": null, "status": null, "address": "", "name": null, "id": null, "pageNo": 13, "pageCount": null, "pageSize": 10, "ids": null, "endTime": null, "startTime": null}, "list": [{"cardNumFive": null, "isSupportYj": null, "cityName": null, "districtName": null, "shopinfo": {"mid": "888888858130012", "good_flag": "1", "new_flag": "2", "short_name": "\u7231\u831c\u831c\u91ccIceason", "short_name_pinyin": "aiqianqianliiceason", "status": null, "address": null, "name": null, "id": "31145"}, "mid": "888888858130012", "shopId": "31145", "netid": null, "province": 901, "district": 601, "zipcode": null, "telephone": "22057717", "posDate": null, "destineTel": null, "togoTel": null, "trafficWay": null, "signBuilding": null, "businessArea": null, "selfRoom": null, "businessTime": null, "stall": null, "consume": null, "serviceFei": null, "favourable": null, "shopMemo": null, "appraise": null, "website": null, "memo": null, "payTypes": "\u6749\u5fb7\u5361", "shopTypes": "\u9910\u996e", "consumeTypes": null, "cookTypes": null, "orderNum": 1000, "card4no": null, "card4noAcc": null, "district2": 404, "searchScope": null, "status": 1, "address": "\u8f68\u9053\u4ea4\u901a\u4e8c\u53f7\u7ebf\u9759\u5b89\u5bfa\u7ad95\u53f7\u51fa\u53e3", "name": "\u7231\u831c\u831c\u91ccIceason \u9759\u5b89\u5730\u94c1\u5e97", "id": 180567, "pageNo": 0, "pageCount": null, "pageSize": 10, "ids": null, "endTime": null, "startTime": null}, {"cardNumFive": null, "isSupportYj": null, "cityName": null, "districtName": null, "shopinfo": {"mid": "888888858130012", "good_flag": "1", "new_flag": "2", "short_name": "\u7231\u831c\u831c\u91ccIceason", "short_name_pinyin": "aiqianqianliiceason", "status": null, "address": null, "name": null, "id": "31145"}, "mid": "888888858130012", "shopId": "31145", "netid": null, "province": 901, "district": 601, "zipcode": null, "telephone": "34682506", "posDate": null, "destineTel": null, "togoTel": null, "trafficWay": null, "signBuilding": null, "businessArea": null, "selfRoom": null, "businessTime": null, "stall": null, "consume": null, "serviceFei": null, "favourable": null, "shopMemo": null, "appraise": null, "website": null, "memo": null, "payTypes": "\u6749\u5fb7\u5361", "shopTypes": "\u9910\u996e", "consumeTypes": null, "cookTypes": null, "orderNum": 1000, "card4no": null, "card4noAcc": null, "district2": 409, "searchScope": null, "status": 1, "address": "\u6caa\u95f5\u8def6088\u53f7\u5730\u4e0b1\u697c", "name": "\u7231\u831c\u831c\u91ccIceason \u8398\u5e84\u9f99\u4e4b\u68a6\u5e97", "id": 180568, "pageNo": 0, "pageCount": null, "pageSize": 10, "ids": null, "endTime": null, "startTime": null}, {"cardNumFive": null, "isSupportYj": null, "cityName": null, "districtName": null, "shopinfo": {"mid": "888888858130012", "good_flag": "1", "new_flag": "2", "short_name": "\u7231\u831c\u831c\u91ccIceason", "short_name_pinyin": "aiqianqianliiceason", "status": null, "address": null, "name": null, "id": "31145"}, "mid": "888888858130012", "shopId": "31145", "netid": null, "province": 901, "district": 601, "zipcode": null, "telephone": "50902031", "posDate": null, "destineTel": null, "togoTel": null, "trafficWay": null, "signBuilding": null, "businessArea": null, "selfRoom": null, "businessTime": null, "stall": null, "consume": null, "serviceFei": null, "favourable": null, "shopMemo": null, "appraise": null, "website": null, "memo": null, "payTypes": "\u6749\u5fb7\u5361", "shopTypes": "\u9910\u996e", "consumeTypes": null, "cookTypes": null, "orderNum": 1000, "card4no": null, "card4noAcc": null, "district2": 418, "searchScope": null, "status": 1, "address": "\u6caa\u5357\u8def2420\u53f71\u697c", "name": "\u7231\u831c\u831c\u91ccIceason \u4e1c\u90ca\u767e\u8054\u5e97", "id": 180569, "pageNo": 0, "pageCount": null, "pageSize": 10, "ids": null, "endTime": null, "startTime": null}, {"cardNumFive": null, "isSupportYj": null, "cityName": null, "districtName": null, "shopinfo": {"mid": "888888858130012", "good_flag": "1", "new_flag": "2", "short_name": "\u7231\u831c\u831c\u91ccIceason", "short_name_pinyin": "aiqianqianliiceason", "status": null, "address": null, "name": null, "id": "31145"}, "mid": "888888858130012", "shopId": "31145", "netid": null, "province": 901, "district": 601, "zipcode": null, "telephone": "33865756", "posDate": null, "destineTel": null, "togoTel": null, "trafficWay": null, "signBuilding": null, "businessArea": null, "selfRoom": null, "businessTime": null, "stall": null, "consume": null, "serviceFei": null, "favourable": null, "shopMemo": null, "appraise": null, "website": null, "memo": null, "payTypes": "\u6749\u5fb7\u5361", "shopTypes": "\u9910\u996e", "consumeTypes": null, "cookTypes": null, "orderNum": 1000, "card4no": null, "card4noAcc": null, "district2": 417, "searchScope": null, "status": 1, "address": "\u6caa\u9752\u5e73\u516c\u8def2888\u53f71\u697c", "name": "\u7231\u831c\u831c\u91ccIceason \u5965\u7279\u83b1\u65af\u5e97", "id": 180570, "pageNo": 0, "pageCount": null, "pageSize": 10, "ids": null, "endTime": null, "startTime": null}, {"cardNumFive": null, "isSupportYj": null, "cityName": null, "districtName": null, "shopinfo": {"mid": "888888858130012", "good_flag": "1", "new_flag": "2", "short_name": "\u7231\u831c\u831c\u91ccIceason", "short_name_pinyin": "aiqianqianliiceason", "status": null, "address": null, "name": null, "id": "31145"}, "mid": "888888858130012", "shopId": "31145", "netid": null, "province": 901, "district": 601, "zipcode": null, "telephone": "62586352", "posDate": null, "destineTel": null, "togoTel": null, "trafficWay": null, "signBuilding": null, "businessArea": null, "selfRoom": null, "businessTime": null, "stall": null, "consume": null, "serviceFei": null, "favourable": null, "shopMemo": null, "appraise": null, "website": null, "memo": null, "payTypes": "\u6749\u5fb7\u5361", "shopTypes": "\u9910\u996e", "consumeTypes": null, "cookTypes": null, "orderNum": 1000, "card4no": null, "card4noAcc": null, "district2": 404, "searchScope": null, "status": 1, "address": "\u4e07\u822a\u6e21\u8def50\u53f71\u697c", "name": "\u7231\u831c\u831c\u91ccIceason \u4e07\u822a\u6e21\u8def\u4f46", "id": 180571, "pageNo": 0, "pageCount": null, "pageSize": 10, "ids": null, "endTime": null, "startTime": null}, {"cardNumFive": null, "isSupportYj": null, "cityName": null, "districtName": null, "shopinfo": {"mid": "888888858130012", "good_flag": "1", "new_flag": "2", "short_name": "\u7231\u831c\u831c\u91ccIceason", "short_name_pinyin": "aiqianqianliiceason", "status": null, "address": null, "name": null, "id": "31145"}, "mid": "888888858130012", "shopId": "31145", "netid": null, "province": 901, "district": 601, "zipcode": null, "telephone": "53860895", "posDate": null, "destineTel": null, "togoTel": null, "trafficWay": null, "signBuilding": null, "businessArea": null, "selfRoom": null, "businessTime": null, "stall": null, "consume": null, "serviceFei": null, "favourable": null, "shopMemo": null, "appraise": null, "website": null, "memo": null, "payTypes": "\u6749\u5fb7\u5361", "shopTypes": "\u9910\u996e", "consumeTypes": null, "cookTypes": null, "orderNum": 1000, "card4no": null, "card4noAcc": null, "district2": 401, "searchScope": null, "status": 1, "address": "\u5357\u4eac\u4e1c\u8def300\u53f7", "name": "\u7231\u831c\u831c\u91ccIceason \u5357\u4eac\u4e1c\u8def\u5e97", "id": 180572, "pageNo": 0, "pageCount": null, "pageSize": 10, "ids": null, "endTime": null, "startTime": null}, {"cardNumFive": null, "isSupportYj": null, "cityName": null, "districtName": null, "shopinfo": {"mid": "888888858130012", "good_flag": "1", "new_flag": "2", "short_name": "\u7231\u831c\u831c\u91ccIceason", "short_name_pinyin": "aiqianqianliiceason", "status": null, "address": null, "name": null, "id": "31145"}, "mid": "888888858130012", "shopId": "31145", "netid": null, "province": 901, "district": 601, "zipcode": null, "telephone": "50120691", "posDate": null, "destineTel": null, "togoTel": null, "trafficWay": null, "signBuilding": null, "businessArea": null, "selfRoom": null, "businessTime": null, "stall": null, "consume": null, "serviceFei": null, "favourable": null, "shopMemo": null, "appraise": null, "website": null, "memo": null, "payTypes": "\u6749\u5fb7\u5361", "shopTypes": "\u9910\u996e", "consumeTypes": null, "cookTypes": null, "orderNum": 1000, "card4no": null, "card4noAcc": null, "district2": 418, "searchScope": null, "status": 1, "address": "\u4e16\u7eaa\u5927\u90538\u53f7", "name": "\u7231\u831c\u831c\u91ccIceason \u56fd\u91d1\u4e2d\u5fc3\u5e97", "id": 180574, "pageNo": 0, "pageCount": null, "pageSize": 10, "ids": null, "endTime": null, "startTime": null}, {"cardNumFive": null, "isSupportYj": null, "cityName": null, "districtName": null, "shopinfo": {"mid": "888888858130012", "good_flag": "1", "new_flag": "2", "short_name": "\u7231\u831c\u831c\u91ccIceason", "short_name_pinyin": "aiqianqianliiceason", "status": null, "address": null, "name": null, "id": "31145"}, "mid": "888888858130012", "shopId": "31145", "netid": null, "province": 901, "district": 601, "zipcode": null, "telephone": "58362346", "posDate": null, "destineTel": null, "togoTel": null, "trafficWay": null, "signBuilding": null, "businessArea": null, "selfRoom": null, "businessTime": null, "stall": null, "consume": null, "serviceFei": null, "favourable": null, "shopMemo": null, "appraise": null, "website": null, "memo": null, "payTypes": "\u6749\u5fb7\u5361", "shopTypes": "\u9910\u996e", "consumeTypes": null, "cookTypes": null, "orderNum": 1000, "card4no": null, "card4noAcc": null, "district2": 418, "searchScope": null, "status": 1, "address": "\u5f20\u626c\u8def501\u53f710\u697c", "name": "\u7231\u831c\u831c\u91ccIceason \u516b\u4f70\u4f34\u5e97", "id": 180575, "pageNo": 0, "pageCount": null, "pageSize": 10, "ids": null, "endTime": null, "startTime": null}, {"cardNumFive": null, "isSupportYj": null, "cityName": null, "districtName": null, "shopinfo": {"mid": "888888858130012", "good_flag": "1", "new_flag": "2", "short_name": "\u7231\u831c\u831c\u91ccIceason", "short_name_pinyin": "aiqianqianliiceason", "status": null, "address": null, "name": null, "id": "31145"}, "mid": "888888858130012", "shopId": "31145", "netid": null, "province": 901, "district": 601, "zipcode": null, "telephone": "33875877", "posDate": null, "destineTel": null, "togoTel": null, "trafficWay": null, "signBuilding": null, "businessArea": null, "selfRoom": null, "businessTime": null, "stall": null, "consume": null, "serviceFei": null, "favourable": null, "shopMemo": null, "appraise": null, "website": null, "memo": null, "payTypes": "\u6749\u5fb7\u5361", "shopTypes": "\u9910\u996e", "consumeTypes": null, "cookTypes": null, "orderNum": 1000, "card4no": null, "card4noAcc": null, "district2": 408, "searchScope": null, "status": 1, "address": "\u56db\u5ddd\u5317\u8def1368\u53f7", "name": "\u7231\u831c\u831c\u91ccIceason \u58f9\u4e30\u5e7f\u573a\u5e97", "id": 180576, "pageNo": 0, "pageCount": null, "pageSize": 10, "ids": null, "endTime": null, "startTime": null}, {"cardNumFive": null, "isSupportYj": null, "cityName": null, "districtName": null, "shopinfo": {"mid": "888888858130012", "good_flag": "1", "new_flag": "2", "short_name": "\u7231\u831c\u831c\u91ccIceason", "short_name_pinyin": "aiqianqianliiceason", "status": null, "address": null, "name": null, "id": "31145"}, "mid": "888888858130012", "shopId": "31145", "netid": null, "province": 901, "district": 601, "zipcode": null, "telephone": "36120510", "posDate": null, "destineTel": null, "togoTel": null, "trafficWay": null, "signBuilding": null, "businessArea": null, "selfRoom": null, "businessTime": null, "stall": null, "consume": null, "serviceFei": null, "favourable": null, "shopMemo": null, "appraise": null, "website": null, "memo": null, "payTypes": "\u6749\u5fb7\u5361", "shopTypes": "\u9910\u996e", "consumeTypes": null, "cookTypes": null, "orderNum": 1000, "card4no": null, "card4noAcc": null, "district2": 408, "searchScope": null, "status": 1, "address": "\u56db\u5ddd\u5317\u8def1687\u53f7", "name": "\u7231\u831c\u831c\u91ccIceason \u5609\u6770\u56fd\u9645\u5e97", "id": 180577, "pageNo": 0, "pageCount": null, "pageSize": 10, "ids": null, "endTime": null, "startTime": null}], "pageLimit": 130, "size": 10}