{"pageCount": 1095, "count": 10942, "pageNo": 18, "subShopInfo": {"cardNumFive": "", "isSupportYj": "", "cityName": null, "districtName": null, "shopinfo": {"mid": null, "good_flag": null, "new_flag": null, "short_name": null, "short_name_pinyin": null, "status": null, "address": "", "name": "", "id": null}, "mid": null, "shopId": null, "netid": null, "province": 901, "district": null, "zipcode": null, "telephone": null, "posDate": null, "destineTel": null, "togoTel": null, "trafficWay": null, "signBuilding": null, "businessArea": null, "selfRoom": null, "businessTime": null, "stall": null, "consume": null, "serviceFei": null, "favourable": null, "shopMemo": "1", "appraise": null, "website": null, "memo": null, "payTypes": "", "shopTypes": "", "consumeTypes": null, "cookTypes": null, "orderNum": null, "card4no": null, "card4noAcc": null, "district2": null, "searchScope": null, "status": null, "address": "", "name": null, "id": null, "pageNo": 17, "pageCount": null, "pageSize": 10, "ids": null, "endTime": null, "startTime": null}, "list": [{"cardNumFive": null, "isSupportYj": null, "cityName": null, "districtName": null, "shopinfo": {"mid": "888888854410157", "good_flag": null, "new_flag": null, "short_name": "\u7231\u68ee\u724c", "short_name_pinyin": "aisenpai", "status": null, "address": null, "name": null, "id": "36171"}, "mid": "888888854410157", "shopId": "36171", "netid": null, "province": 901, "district": 601, "zipcode": null, "telephone": "64042593", "posDate": "20100818", "destineTel": null, "togoTel": null, "trafficWay": null, "signBuilding": null, "businessArea": null, "selfRoom": null, "businessTime": null, "stall": null, "consume": null, "serviceFei": null, "favourable": null, "shopMemo": null, "appraise": null, "website": null, "memo": null, "payTypes": "\u6749\u5fb7\u5361", "shopTypes": "\u96f6\u552e", "consumeTypes": null, "cookTypes": null, "orderNum": 1000, "card4no": null, "card4noAcc": null, "district2": 403, "searchScope": null, "status": 1, "address": "\u4e2d\u5c71\u897f\u8def1277\u53f7-115\u5ba4", "name": "\u7231\u68ee\u724c \u4e2d\u5c71\u897f\u8def\u5e97", "id": 150991, "pageNo": 0, "pageCount": null, "pageSize": 10, "ids": null, "endTime": null, "startTime": null}, {"cardNumFive": null, "isSupportYj": null, "cityName": null, "districtName": null, "shopinfo": {"mid": "888888854410157", "good_flag": null, "new_flag": null, "short_name": "\u7231\u68ee\u724c", "short_name_pinyin": "aisenpai", "status": null, "address": null, "name": null, "id": "36342"}, "mid": "888888854410157", "shopId": "36342", "netid": null, "province": 901, "district": 601, "zipcode": null, "telephone": null, "posDate": "20100824", "destineTel": null, "togoTel": null, "trafficWay": null, "signBuilding": null, "businessArea": null, "selfRoom": null, "businessTime": null, "stall": null, "consume": null, "serviceFei": null, "favourable": null, "shopMemo": null, "appraise": null, "website": null, "memo": null, "payTypes": "\u6749\u5fb7\u5361", "shopTypes": "\u96f6\u552e", "consumeTypes": null, "cookTypes": null, "orderNum": 1000, "card4no": null, "card4noAcc": null, "district2": 409, "searchScope": null, "status": 1, "address": "\u5e99\u6cfe\u8def20\u53f7101\u5ba4", "name": "\u7231\u68ee\u724c \u5e99\u6cfe\u5e97", "id": 151281, "pageNo": 0, "pageCount": null, "pageSize": 10, "ids": null, "endTime": null, "startTime": null}, {"cardNumFive": null, "isSupportYj": null, "cityName": null, "districtName": null, "shopinfo": {"mid": "888888854410157", "good_flag": null, "new_flag": null, "short_name": "\u7231\u68ee\u724c", "short_name_pinyin": "aisenpai", "status": null, "address": null, "name": null, "id": "36342"}, "mid": "888888854410157", "shopId": "36342", "netid": null, "province": 901, "district": 601, "zipcode": null, "telephone": null, "posDate": "20100919", "destineTel": null, "togoTel": null, "trafficWay": null, "signBuilding": null, "businessArea": null, "selfRoom": null, "businessTime": null, "stall": null, "consume": null, "serviceFei": null, "favourable": null, "shopMemo": null, "appraise": null, "website": null, "memo": null, "payTypes": "\u6749\u5fb7\u5361", "shopTypes": "\u96f6\u552e", "consumeTypes": null, "cookTypes": null, "orderNum": 1000, "card4no": null, "card4noAcc": null, "district2": 418, "searchScope": null, "status": 1, "address": "\u5fb7\u5e73\u8def1151\u53f7", "name": "\u7231\u68ee\u724c \u5fb7\u5e73\u5e97", "id": 151392, "pageNo": 0, "pageCount": null, "pageSize": 10, "ids": null, "endTime": null, "startTime": null}, {"cardNumFive": null, "isSupportYj": null, "cityName": null, "districtName": null, "shopinfo": {"mid": "888888854410157", "good_flag": null, "new_flag": null, "short_name": "\u7231\u68ee\u724c", "short_name_pinyin": "aisenpai", "status": null, "address": null, "name": null, "id": "36342"}, "mid": "888888854410157", "shopId": "36342", "netid": null, "province": 901, "district": 601, "zipcode": null, "telephone": null, "posDate": "20100919", "destineTel": null, "togoTel": null, "trafficWay": null, "signBuilding": null, "businessArea": null, "selfRoom": null, "businessTime": null, "stall": null, "consume": null, "serviceFei": null, "favourable": null, "shopMemo": null, "appraise": null, "website": null, "memo": null, "payTypes": "\u6749\u5fb7\u5361", "shopTypes": "\u96f6\u552e", "consumeTypes": null, "cookTypes": null, "orderNum": 1000, "card4no": null, "card4noAcc": null, "district2": 418, "searchScope": null, "status": 1, "address": "\u4e1c\u5efa\u8def378\u53f7", "name": "\u7231\u68ee\u724c \u4e1c\u5efa\u5e97", "id": 151393, "pageNo": 0, "pageCount": null, "pageSize": 10, "ids": null, "endTime": null, "startTime": null}, {"cardNumFive": null, "isSupportYj": null, "cityName": null, "districtName": null, "shopinfo": {"mid": "888888854410157", "good_flag": null, "new_flag": null, "short_name": "\u7231\u68ee\u724c", "short_name_pinyin": "aisenpai", "status": null, "address": null, "name": null, "id": "36342"}, "mid": "888888854410157", "shopId": "36342", "netid": null, "province": 901, "district": 601, "zipcode": null, "telephone": null, "posDate": "20100919", "destineTel": null, "togoTel": null, "trafficWay": null, "signBuilding": null, "businessArea": null, "selfRoom": null, "businessTime": null, "stall": null, "consume": null, "serviceFei": null, "favourable": null, "shopMemo": null, "appraise": null, "website": null, "memo": null, "payTypes": "\u6749\u5fb7\u5361", "shopTypes": "\u96f6\u552e", "consumeTypes": null, "cookTypes": null, "orderNum": 1000, "card4no": null, "card4noAcc": null, "district2": 408, "searchScope": null, "status": 1, "address": "\u6c34\u7535\u8def298\u53f7103\u5ba4", "name": "\u7231\u68ee\u724c \u5e7f\u4e2d\u5e97", "id": 151394, "pageNo": 0, "pageCount": null, "pageSize": 10, "ids": null, "endTime": null, "startTime": null}, {"cardNumFive": null, "isSupportYj": null, "cityName": null, "districtName": null, "shopinfo": {"mid": "888888854410157", "good_flag": null, "new_flag": null, "short_name": "\u7231\u68ee\u724c", "short_name_pinyin": "aisenpai", "status": null, "address": null, "name": null, "id": "36474"}, "mid": "888888854410157", "shopId": "36474", "netid": null, "province": 901, "district": 601, "zipcode": null, "telephone": null, "posDate": "20100913", "destineTel": null, "togoTel": null, "trafficWay": null, "signBuilding": null, "businessArea": null, "selfRoom": null, "businessTime": null, "stall": null, "consume": null, "serviceFei": null, "favourable": null, "shopMemo": null, "appraise": null, "website": null, "memo": null, "payTypes": "\u6749\u5fb7\u5361", "shopTypes": "\u96f6\u552e", "consumeTypes": null, "cookTypes": null, "orderNum": 1000, "card4no": null, "card4noAcc": null, "district2": 418, "searchScope": null, "status": 1, "address": "\u9526\u5b89\u897f\u8def78\u53f7", "name": "\u7231\u68ee\u724c \u9526\u5b89\u5e97", "id": 151704, "pageNo": 0, "pageCount": null, "pageSize": 10, "ids": null, "endTime": null, "startTime": null}, {"cardNumFive": null, "isSupportYj": null, "cityName": null, "districtName": null, "shopinfo": {"mid": "888888854410157", "good_flag": null, "new_flag": null, "short_name": "\u7231\u68ee\u724c", "short_name_pinyin": "aisenpai", "status": null, "address": null, "name": null, "id": "37715"}, "mid": "888888854410157", "shopId": "37715", "netid": null, "province": 901, "district": 601, "zipcode": null, "telephone": null, "posDate": null, "destineTel": null, "togoTel": null, "trafficWay": null, "signBuilding": null, "businessArea": null, "selfRoom": null, "businessTime": null, "stall": null, "consume": null, "serviceFei": null, "favourable": null, "shopMemo": null, "appraise": null, "website": null, "memo": null, "payTypes": "\u6749\u5fb7\u5361", "shopTypes": "\u96f6\u552e", "consumeTypes": null, "cookTypes": null, "orderNum": 1000, "card4no": null, "card4noAcc": null, "district2": 401, "searchScope": null, "status": 1, "address": "\u4eba\u6c11\u8def1018\u53f7124\u5546\u94fa", "name": "\u7231\u68ee\u724c \u5927\u5883\u5e97", "id": 159944, "pageNo": 0, "pageCount": null, "pageSize": 10, "ids": null, "endTime": null, "startTime": null}, {"cardNumFive": null, "isSupportYj": null, "cityName": null, "districtName": null, "shopinfo": {"mid": "888888854410157", "good_flag": null, "new_flag": null, "short_name": "\u7231\u68ee\u724c", "short_name_pinyin": "aisenpai", "status": null, "address": null, "name": null, "id": "37715"}, "mid": "888888854410157", "shopId": "37715", "netid": null, "province": 901, "district": 601, "zipcode": null, "telephone": null, "posDate": null, "destineTel": null, "togoTel": null, "trafficWay": null, "signBuilding": null, "businessArea": null, "selfRoom": null, "businessTime": null, "stall": null, "consume": null, "serviceFei": null, "favourable": null, "shopMemo": null, "appraise": null, "website": null, "memo": null, "payTypes": "\u6749\u5fb7\u5361", "shopTypes": "\u96f6\u552e", "consumeTypes": null, "cookTypes": null, "orderNum": 1000, "card4no": null, "card4noAcc": null, "district2": 407, "searchScope": null, "status": 1, "address": "\u56fd\u548c\u8def580\u53f7\u5e02\u573aM05\u53f7", "name": "\u7231\u68ee\u724c \u56fd\u548c\u5e97", "id": 159945, "pageNo": 0, "pageCount": null, "pageSize": 10, "ids": null, "endTime": null, "startTime": null}, {"cardNumFive": null, "isSupportYj": null, "cityName": null, "districtName": null, "shopinfo": {"mid": "888888854410157", "good_flag": null, "new_flag": null, "short_name": "\u7231\u68ee\u724c", "short_name_pinyin": "aisenpai", "status": null, "address": null, "name": null, "id": "37715"}, "mid": "888888854410157", "shopId": "37715", "netid": null, "province": 901, "district": 601, "zipcode": null, "telephone": null, "posDate": null, "destineTel": null, "togoTel": null, "trafficWay": null, "signBuilding": null, "businessArea": null, "selfRoom": null, "businessTime": null, "stall": null, "consume": null, "serviceFei": null, "favourable": null, "shopMemo": null, "appraise": null, "website": null, "memo": null, "payTypes": "\u6749\u5fb7\u5361", "shopTypes": "\u96f6\u552e", "consumeTypes": null, "cookTypes": null, "orderNum": 1000, "card4no": null, "card4noAcc": null, "district2": 407, "searchScope": null, "status": 1, "address": "\u6dde\u5174\u8def163\u53f71\u697c", "name": "\u7231\u68ee\u724c \u6dde\u5174\u5e97", "id": 159947, "pageNo": 0, "pageCount": null, "pageSize": 10, "ids": null, "endTime": null, "startTime": null}, {"cardNumFive": null, "isSupportYj": null, "cityName": null, "districtName": null, "shopinfo": {"mid": "888888854410157", "good_flag": null, "new_flag": null, "short_name": "\u7231\u68ee\u724c", "short_name_pinyin": "aisenpai", "status": null, "address": null, "name": null, "id": "37715"}, "mid": "888888854410157", "shopId": "37715", "netid": null, "province": 901, "district": 601, "zipcode": null, "telephone": null, "posDate": null, "destineTel": null, "togoTel": null, "trafficWay": null, "signBuilding": null, "businessArea": null, "selfRoom": null, "businessTime": null, "stall": null, "consume": null, "serviceFei": null, "favourable": null, "shopMemo": null, "appraise": null, "website": null, "memo": null, "payTypes": "\u6749\u5fb7\u5361", "shopTypes": "\u96f6\u552e", "consumeTypes": null, "cookTypes": null, "orderNum": 1000, "card4no": null, "card4noAcc": null, "district2": 403, "searchScope": null, "status": 1, "address": "\u7530\u6797\u8def1448\u53f7", "name": "\u7231\u68ee\u724c \u7530\u6797\u5e97", "id": 159948, "pageNo": 0, "pageCount": null, "pageSize": 10, "ids": null, "endTime": null, "startTime": null}], "pageLimit": 170, "size": 10}