{"pageCount": 1095, "count": 10942, "pageNo": 11, "subShopInfo": {"cardNumFive": "", "isSupportYj": "", "cityName": null, "districtName": null, "shopinfo": {"mid": null, "good_flag": null, "new_flag": null, "short_name": null, "short_name_pinyin": null, "status": null, "address": "", "name": "", "id": null}, "mid": null, "shopId": null, "netid": null, "province": 901, "district": null, "zipcode": null, "telephone": null, "posDate": null, "destineTel": null, "togoTel": null, "trafficWay": null, "signBuilding": null, "businessArea": null, "selfRoom": null, "businessTime": null, "stall": null, "consume": null, "serviceFei": null, "favourable": null, "shopMemo": "1", "appraise": null, "website": null, "memo": null, "payTypes": "", "shopTypes": "", "consumeTypes": null, "cookTypes": null, "orderNum": null, "card4no": null, "card4noAcc": null, "district2": null, "searchScope": null, "status": null, "address": "", "name": null, "id": null, "pageNo": 10, "pageCount": null, "pageSize": 10, "ids": null, "endTime": null, "startTime": null}, "list": [{"cardNumFive": null, "isSupportYj": null, "cityName": null, "districtName": null, "shopinfo": {"mid": "888888880990019", "good_flag": "2", "new_flag": "2", "short_name": "\u7231\u5eb7\u56fd\u5bbe\u4eba\u4eba\u95e8\u8bca\u90e8", "short_name_pinyin": "aikangguobinrenrenmenzhenbu", "status": null, "address": null, "name": null, "id": "31139"}, "mid": "888888880990019", "shopId": "31139", "netid": null, "province": 901, "district": 601, "zipcode": null, "telephone": "33620666*521", "posDate": "200908", "destineTel": null, "togoTel": null, "trafficWay": "\u516c\u4ea4559\u300199", "signBuilding": null, "businessArea": null, "selfRoom": null, "businessTime": null, "stall": null, "consume": null, "serviceFei": null, "favourable": null, "shopMemo": null, "appraise": null, "website": null, "memo": null, "payTypes": "\u6749\u5fb7\u5361", "shopTypes": "\u5065\u8eab\u573a\u6240", "consumeTypes": null, "cookTypes": null, "orderNum": 1000, "card4no": null, "card4noAcc": null, "district2": 407, "searchScope": null, "status": 1, "address": "\u56fd\u5bbe\u8def36\u53f75\u697c", "name": "\u7231\u5eb7\u56fd\u5bbe\u4eba\u4eba\u95e8\u8bca\u90e8 \u56fd\u5bbe\u8def", "id": 132255, "pageNo": 0, "pageCount": null, "pageSize": 10, "ids": null, "endTime": null, "startTime": null}, {"cardNumFive": null, "isSupportYj": null, "cityName": null, "districtName": null, "shopinfo": {"mid": "888002156910377", "good_flag": null, "new_flag": null, "short_name": "\u827e\u83b1\u4f9d", "short_name_pinyin": "ailaiyi", "status": null, "address": null, "name": null, "id": "37701"}, "mid": "888002156910377", "shopId": "37701", "netid": null, "province": 901, "district": 601, "zipcode": null, "telephone": "37717522", "posDate": null, "destineTel": null, "togoTel": null, "trafficWay": null, "signBuilding": null, "businessArea": null, "selfRoom": null, "businessTime": null, "stall": null, "consume": null, "serviceFei": null, "favourable": null, "shopMemo": null, "appraise": null, "website": null, "memo": null, "payTypes": "\u6749\u5fb7\u5361", "shopTypes": "\u96f6\u552e", "consumeTypes": null, "cookTypes": null, "orderNum": 1000, "card4no": null, "card4noAcc": null, "district2": 412, "searchScope": null, "status": 1, "address": "\u4e2d\u5c71\u4e8c\u8def153\u53f7", "name": "\u827e\u83b1\u4f9d \u4e2d\u5c71\u4e8c\u8def\u5e97", "id": 159865, "pageNo": 0, "pageCount": null, "pageSize": 10, "ids": null, "endTime": null, "startTime": null}, {"cardNumFive": null, "isSupportYj": null, "cityName": null, "districtName": null, "shopinfo": {"mid": "888002156910377", "good_flag": null, "new_flag": null, "short_name": "\u827e\u83b1\u4f9d", "short_name_pinyin": "ailaiyi", "status": null, "address": null, "name": null, "id": "37701"}, "mid": "888002156910377", "shopId": "37701", "netid": null, "province": 901, "district": 601, "zipcode": null, "telephone": "37799589", "posDate": null, "destineTel": null, "togoTel": null, "trafficWay": null, "signBuilding": null, "businessArea": null, "selfRoom": null, "businessTime": null, "stall": null, "consume": null, "serviceFei": null, "favourable": null, "shopMemo": null, "appraise": null, "website": null, "memo": null, "payTypes": "\u6749\u5fb7\u5361", "shopTypes": "\u96f6\u552e", "consumeTypes": null, "cookTypes": null, "orderNum": 1000, "card4no": null, "card4noAcc": null, "district2": 412, "searchScope": null, "status": 1, "address": "\u5f00\u5143\u5730\u4e2d\u6d77\u5546\u4e1a\u5e7f\u573a1029\u53f7", "name": "\u827e\u83b1\u4f9d \u5730\u4e2d\u6d77\u5e97", "id": 159866, "pageNo": 0, "pageCount": null, "pageSize": 10, "ids": null, "endTime": null, "startTime": null}, {"cardNumFive": null, "isSupportYj": null, "cityName": null, "districtName": null, "shopinfo": {"mid": "888002156910377", "good_flag": null, "new_flag": null, "short_name": "\u827e\u83b1\u4f9d", "short_name_pinyin": "ailaiyi", "status": null, "address": null, "name": null, "id": "37701"}, "mid": "888002156910377", "shopId": "37701", "netid": null, "province": 901, "district": 601, "zipcode": null, "telephone": "57725868", "posDate": null, "destineTel": null, "togoTel": null, "trafficWay": null, "signBuilding": null, "businessArea": null, "selfRoom": null, "businessTime": null, "stall": null, "consume": null, "serviceFei": null, "favourable": null, "shopMemo": null, "appraise": null, "website": null, "memo": null, "payTypes": "\u6749\u5fb7\u5361", "shopTypes": "\u96f6\u552e", "consumeTypes": null, "cookTypes": null, "orderNum": 1000, "card4no": null, "card4noAcc": null, "district2": 412, "searchScope": null, "status": 1, "address": "\u5e99\u524d\u885742\u53f7", "name": "\u827e\u83b1\u4f9d \u5e99\u524d\u8857\u5e97", "id": 159867, "pageNo": 0, "pageCount": null, "pageSize": 10, "ids": null, "endTime": null, "startTime": null}, {"cardNumFive": null, "isSupportYj": null, "cityName": null, "districtName": null, "shopinfo": {"mid": "888888880430051", "good_flag": "2", "new_flag": "2", "short_name": "\u7231\u4f26\u773c\u955c", "short_name_pinyin": "ailunyanjing", "status": null, "address": null, "name": null, "id": "31142"}, "mid": "888888880430051", "shopId": "31142", "netid": null, "province": 901, "district": 601, "zipcode": null, "telephone": null, "posDate": "20080523", "destineTel": null, "togoTel": null, "trafficWay": "\u516c\u4ea492B \u5730\u94c1\u4e5d\u53f7\u7ebf", "signBuilding": "\u4e5d\u4ead\u5e7f\u573a", "businessArea": "50\u5e73\u65b9\u7c73", "selfRoom": null, "businessTime": "9:00~21:00", "stall": null, "consume": null, "serviceFei": null, "favourable": null, "shopMemo": null, "appraise": null, "website": null, "memo": null, "payTypes": "\u6749\u5fb7\u5361", "shopTypes": "\u96f6\u552e,\u4e13\u5356", "consumeTypes": null, "cookTypes": null, "orderNum": 1000, "card4no": null, "card4noAcc": null, "district2": 412, "searchScope": null, "status": 1, "address": "\u4e5d\u4ead\u9547\u4e5d\u4ead\u5927\u8857401\u53f7", "name": "\u7231\u4f26\u773c\u955c \u4e5d\u4ead\u5927\u8857\u5e97", "id": 132258, "pageNo": 0, "pageCount": null, "pageSize": 10, "ids": null, "endTime": null, "startTime": null}, {"cardNumFive": null, "isSupportYj": null, "cityName": null, "districtName": null, "shopinfo": {"mid": "888888858130012", "good_flag": "1", "new_flag": "2", "short_name": "\u7231\u831c\u831c\u91ccIceason", "short_name_pinyin": "aiqianqianliiceason", "status": null, "address": null, "name": null, "id": "31145"}, "mid": "888888858130012", "shopId": "31145", "netid": null, "province": 901, "district": 601, "zipcode": null, "telephone": "61392112", "posDate": "20080812", "destineTel": null, "togoTel": null, "trafficWay": "\u516c\u4ea4827 807", "signBuilding": null, "businessArea": null, "selfRoom": null, "businessTime": null, "stall": null, "consume": null, "serviceFei": null, "favourable": null, "shopMemo": null, "appraise": null, "website": null, "memo": null, "payTypes": ",,\u6749\u5fb7\u5361", "shopTypes": "\u9910\u996e,\u4f11\u95f2", "consumeTypes": null, "cookTypes": null, "orderNum": 1000, "card4no": null, "card4noAcc": null, "district2": 406, "searchScope": null, "status": 1, "address": "\u771f\u5149\u8def1288\u53f7\u767e\u8054\u4e2d\u73af\u8d2d\u7269\u5e7f\u573a\u4e00\u697cA\u533a", "name": "\u7231\u831c\u831c\u91ccIceason \u767e\u8054\u5e97", "id": 132261, "pageNo": 0, "pageCount": null, "pageSize": 10, "ids": null, "endTime": null, "startTime": null}, {"cardNumFive": null, "isSupportYj": null, "cityName": null, "districtName": null, "shopinfo": {"mid": "888888858130012", "good_flag": "1", "new_flag": "2", "short_name": "\u7231\u831c\u831c\u91ccIceason", "short_name_pinyin": "aiqianqianliiceason", "status": null, "address": null, "name": null, "id": "31145"}, "mid": "888888858130012", "shopId": "31145", "netid": null, "province": 901, "district": 601, "zipcode": null, "telephone": "33820915", "posDate": "20070810", "destineTel": null, "togoTel": null, "trafficWay": "\u516c\u4ea4984 936", "signBuilding": null, "businessArea": null, "selfRoom": null, "businessTime": null, "stall": null, "consume": null, "serviceFei": null, "favourable": null, "shopMemo": "\u70ed\u5e26\u98ce\u60c5", "appraise": null, "website": null, "memo": null, "payTypes": "\u6749\u5fb7\u5361", "shopTypes": "\u9910\u996e,\u4f11\u95f2", "consumeTypes": "\u597d\u53cb\u5c0f\u805a \u6d6a\u6f2b\u7ea6\u4f1a \u4f11\u95f2\u5c31\u9910", "cookTypes": null, "orderNum": 1000, "card4no": null, "card4noAcc": null, "district2": 418, "searchScope": null, "status": 1, "address": "\u78a7\u4e91\u8def633\u53f7\u78a7\u4e91\u4f53\u80b2\u4f11\u95f2\u4e2d\u5fc31\u697c11-12", "name": "\u7231\u831c\u831c\u91ccIceason \u78a7\u4e91\u8def\u5e97", "id": 132262, "pageNo": 0, "pageCount": null, "pageSize": 10, "ids": null, "endTime": null, "startTime": null}, {"cardNumFive": null, "isSupportYj": null, "cityName": null, "districtName": null, "shopinfo": {"mid": "888888858130012", "good_flag": "1", "new_flag": "2", "short_name": "\u7231\u831c\u831c\u91ccIceason", "short_name_pinyin": "aiqianqianliiceason", "status": null, "address": null, "name": null, "id": "31145"}, "mid": "888888858130012", "shopId": "31145", "netid": null, "province": 901, "district": 601, "zipcode": null, "telephone": null, "posDate": "20071212", "destineTel": null, "togoTel": null, "trafficWay": null, "signBuilding": null, "businessArea": null, "selfRoom": null, "businessTime": null, "stall": null, "consume": null, "serviceFei": null, "favourable": null, "shopMemo": null, "appraise": null, "website": null, "memo": null, "payTypes": "\u6749\u5fb7\u5361", "shopTypes": "\u9910\u996e,\u4f11\u95f2", "consumeTypes": "\u597d\u53cb\u5c0f\u805a \u6d6a\u6f2b\u7ea6\u4f1a \u4f11\u95f2\u5c31\u9910", "cookTypes": null, "orderNum": 1000, "card4no": null, "card4noAcc": null, "district2": 407, "searchScope": null, "status": 1, "address": "\u4e1c\u65b9\u5546\u53a6\u5730\u4e0b1\u5c42", "name": "\u7231\u831c\u831c\u91ccIceason \u4e1c\u65b9\u5546\u53a6\u5e97", "id": 132263, "pageNo": 0, "pageCount": null, "pageSize": 10, "ids": null, "endTime": null, "startTime": null}, {"cardNumFive": null, "isSupportYj": null, "cityName": null, "districtName": null, "shopinfo": {"mid": "888888858130012", "good_flag": "1", "new_flag": "2", "short_name": "\u7231\u831c\u831c\u91ccIceason", "short_name_pinyin": "aiqianqianliiceason", "status": null, "address": null, "name": null, "id": "31145"}, "mid": "888888858130012", "shopId": "31145", "netid": null, "province": 901, "district": 601, "zipcode": null, "telephone": "64485650", "posDate": "20070810", "destineTel": null, "togoTel": null, "trafficWay": "\u5730\u94c1\u4e00\u53f7\u7ebf \u516c\u4ea4572 830 50", "signBuilding": null, "businessArea": null, "selfRoom": null, "businessTime": null, "stall": null, "consume": null, "serviceFei": null, "favourable": null, "shopMemo": "0\u5ea6\u4e0d\u878d\u5316\u51b0\u6fc0\u51cc", "appraise": null, "website": null, "memo": null, "payTypes": "\u6749\u5fb7\u5361", "shopTypes": "\u9910\u996e,\u4f11\u95f2", "consumeTypes": "\u597d\u53cb\u5c0f\u805a \u6d6a\u6f2b\u7ea6\u4f1a \u4f11\u95f2\u5c31\u9910", "cookTypes": null, "orderNum": 1000, "card4no": null, "card4noAcc": null, "district2": 403, "searchScope": null, "status": 1, "address": "\u6e2f\u6c47\u5e7f\u573a\u540e\u8857\u54c8\u6839\u8fbe\u65af\u65c1", "name": "\u7231\u831c\u831c\u91ccIceason \u6e2f\u6c47\u5e97", "id": 132264, "pageNo": 0, "pageCount": null, "pageSize": 10, "ids": null, "endTime": null, "startTime": null}, {"cardNumFive": null, "isSupportYj": null, "cityName": null, "districtName": null, "shopinfo": {"mid": "888888858130046", "good_flag": "2", "new_flag": "1", "short_name": "\u7231\u831c\u831c\u91ccIceason", "short_name_pinyin": "aiqianqianliiceason", "status": null, "address": null, "name": null, "id": "31146"}, "mid": "888888858130046", "shopId": "31146", "netid": null, "province": 901, "district": 601, "zipcode": null, "telephone": null, "posDate": "20100118", "destineTel": null, "togoTel": null, "trafficWay": null, "signBuilding": null, "businessArea": null, "selfRoom": null, "businessTime": null, "stall": null, "consume": null, "serviceFei": null, "favourable": null, "shopMemo": null, "appraise": null, "website": null, "memo": null, "payTypes": "\u6749\u5fb7\u5361", "shopTypes": "\u9910\u996e,\u4f11\u95f2", "consumeTypes": null, "cookTypes": null, "orderNum": 1000, "card4no": null, "card4noAcc": null, "district2": 403, "searchScope": null, "status": 1, "address": "\u6e2f\u6c47\u5e7f\u573a5\u697cNO.539", "name": "\u7231\u831c\u831c\u91ccIceason \u6e2f\u6c47\u4e8c\u5e97", "id": 132265, "pageNo": 0, "pageCount": null, "pageSize": 10, "ids": null, "endTime": null, "startTime": null}], "pageLimit": 100, "size": 10}