{"pageCount": 1095, "count": 10942, "pageNo": 15, "subShopInfo": {"cardNumFive": "", "isSupportYj": "", "cityName": null, "districtName": null, "shopinfo": {"mid": null, "good_flag": null, "new_flag": null, "short_name": null, "short_name_pinyin": null, "status": null, "address": "", "name": "", "id": null}, "mid": null, "shopId": null, "netid": null, "province": 901, "district": null, "zipcode": null, "telephone": null, "posDate": null, "destineTel": null, "togoTel": null, "trafficWay": null, "signBuilding": null, "businessArea": null, "selfRoom": null, "businessTime": null, "stall": null, "consume": null, "serviceFei": null, "favourable": null, "shopMemo": "1", "appraise": null, "website": null, "memo": null, "payTypes": "", "shopTypes": "", "consumeTypes": null, "cookTypes": null, "orderNum": null, "card4no": null, "card4noAcc": null, "district2": null, "searchScope": null, "status": null, "address": "", "name": null, "id": null, "pageNo": 14, "pageCount": null, "pageSize": 10, "ids": null, "endTime": null, "startTime": null}, "list": [{"cardNumFive": null, "isSupportYj": null, "cityName": null, "districtName": null, "shopinfo": {"mid": "888888858130012", "good_flag": "1", "new_flag": "2", "short_name": "\u7231\u831c\u831c\u91ccIceason", "short_name_pinyin": "aiqianqianliiceason", "status": null, "address": null, "name": null, "id": "31145"}, "mid": "888888858130012", "shopId": "31145", "netid": null, "province": 901, "district": 601, "zipcode": null, "telephone": "67855195", "posDate": null, "destineTel": null, "togoTel": null, "trafficWay": null, "signBuilding": null, "businessArea": null, "selfRoom": null, "businessTime": null, "stall": null, "consume": null, "serviceFei": null, "favourable": null, "shopMemo": null, "appraise": null, "website": null, "memo": null, "payTypes": "\u6749\u5fb7\u5361", "shopTypes": "\u9910\u996e", "consumeTypes": null, "cookTypes": null, "orderNum": 1000, "card4no": null, "card4noAcc": null, "district2": 412, "searchScope": null, "status": 1, "address": "\u677e\u6c47\u4e2d\u8def568\u53f7", "name": "\u7231\u831c\u831c\u91ccIceason \u677e\u6c47\u4e2d\u8def\u5e97", "id": 180578, "pageNo": 0, "pageCount": null, "pageSize": 10, "ids": null, "endTime": null, "startTime": null}, {"cardNumFive": null, "isSupportYj": null, "cityName": null, "districtName": null, "shopinfo": {"mid": "888888858130012", "good_flag": "1", "new_flag": "2", "short_name": "\u7231\u831c\u831c\u91ccIceason", "short_name_pinyin": "aiqianqianliiceason", "status": null, "address": null, "name": null, "id": "31145"}, "mid": "888888858130012", "shopId": "31145", "netid": null, "province": 901, "district": 601, "zipcode": null, "telephone": "33812763", "posDate": null, "destineTel": null, "togoTel": null, "trafficWay": null, "signBuilding": null, "businessArea": null, "selfRoom": null, "businessTime": null, "stall": null, "consume": null, "serviceFei": null, "favourable": null, "shopMemo": null, "appraise": null, "website": null, "memo": null, "payTypes": "\u6749\u5fb7\u5361", "shopTypes": "\u9910\u996e", "consumeTypes": null, "cookTypes": null, "orderNum": 1000, "card4no": null, "card4noAcc": null, "district2": 407, "searchScope": null, "status": 1, "address": "\u6dde\u6caa\u8def8\u53f7", "name": "\u7231\u831c\u831c\u91ccIceason \u767e\u8054\u53c8\u4e00\u57ce\u5e97", "id": 180579, "pageNo": 0, "pageCount": null, "pageSize": 10, "ids": null, "endTime": null, "startTime": null}, {"cardNumFive": null, "isSupportYj": null, "cityName": null, "districtName": null, "shopinfo": {"mid": "888888858130012", "good_flag": "1", "new_flag": "2", "short_name": "\u7231\u831c\u831c\u91ccIceason", "short_name_pinyin": "aiqianqianliiceason", "status": null, "address": null, "name": null, "id": "31145"}, "mid": "888888858130012", "shopId": "31145", "netid": null, "province": 901, "district": 601, "zipcode": null, "telephone": "67291017", "posDate": null, "destineTel": null, "togoTel": null, "trafficWay": null, "signBuilding": null, "businessArea": null, "selfRoom": null, "businessTime": null, "stall": null, "consume": null, "serviceFei": null, "favourable": null, "shopMemo": null, "appraise": null, "website": null, "memo": null, "payTypes": "\u6749\u5fb7\u5361", "shopTypes": "\u9910\u996e", "consumeTypes": null, "cookTypes": null, "orderNum": 1000, "card4no": null, "card4noAcc": null, "district2": 414, "searchScope": null, "status": 1, "address": "\u536b\u6e05\u897f\u8def168\u5f0499\u53f71\u697c", "name": "\u7231\u831c\u831c\u91ccIceason \u767e\u8054\u91d1\u5c71\u5e97", "id": 180581, "pageNo": 0, "pageCount": null, "pageSize": 10, "ids": null, "endTime": null, "startTime": null}, {"cardNumFive": null, "isSupportYj": null, "cityName": null, "districtName": null, "shopinfo": {"mid": "888888858130012", "good_flag": "1", "new_flag": "2", "short_name": "\u7231\u831c\u831c\u91ccIceason", "short_name_pinyin": "aiqianqianliiceason", "status": null, "address": null, "name": null, "id": "31145"}, "mid": "888888858130012", "shopId": "31145", "netid": null, "province": 901, "district": 601, "zipcode": null, "telephone": "50156930", "posDate": null, "destineTel": null, "togoTel": null, "trafficWay": null, "signBuilding": null, "businessArea": null, "selfRoom": null, "businessTime": null, "stall": null, "consume": null, "serviceFei": null, "favourable": null, "shopMemo": null, "appraise": null, "website": null, "memo": null, "payTypes": "\u6749\u5fb7\u5361", "shopTypes": "\u9910\u996e", "consumeTypes": null, "cookTypes": null, "orderNum": 1000, "card4no": null, "card4noAcc": null, "district2": 418, "searchScope": null, "status": 1, "address": "\u5f20\u6768\u8def501\u53f72\u697c201\u5ba4", "name": "\u7231\u831c\u831c\u91ccIceason \u516b\u4f70\u4f34\u4e8c\u5e97", "id": 180582, "pageNo": 0, "pageCount": null, "pageSize": 10, "ids": null, "endTime": null, "startTime": null}, {"cardNumFive": null, "isSupportYj": null, "cityName": null, "districtName": null, "shopinfo": {"mid": "888888858130012", "good_flag": "1", "new_flag": "2", "short_name": "\u7231\u831c\u831c\u91ccIceason", "short_name_pinyin": "aiqianqianliiceason", "status": null, "address": null, "name": null, "id": "31145"}, "mid": "888888858130012", "shopId": "31145", "netid": null, "province": 901, "district": 601, "zipcode": null, "telephone": "65560855", "posDate": null, "destineTel": null, "togoTel": null, "trafficWay": null, "signBuilding": null, "businessArea": null, "selfRoom": null, "businessTime": null, "stall": null, "consume": null, "serviceFei": null, "favourable": null, "shopMemo": null, "appraise": null, "website": null, "memo": null, "payTypes": "\u6749\u5fb7\u5361", "shopTypes": "\u9910\u996e", "consumeTypes": null, "cookTypes": null, "orderNum": 1000, "card4no": null, "card4noAcc": null, "district2": 407, "searchScope": null, "status": 1, "address": "\u90af\u90f8\u8def600\u53f71\u697c\u4e2d\u5ead", "name": "\u7231\u831c\u831c\u91ccIceason \u4e07\u8fbe\u5e97", "id": 181816, "pageNo": 0, "pageCount": null, "pageSize": 10, "ids": null, "endTime": null, "startTime": null}, {"cardNumFive": null, "isSupportYj": null, "cityName": null, "districtName": null, "shopinfo": {"mid": "888888858130012", "good_flag": "1", "new_flag": "2", "short_name": "\u7231\u831c\u831c\u91ccIceason", "short_name_pinyin": "aiqianqianliiceason", "status": null, "address": null, "name": null, "id": "31145"}, "mid": "888888858130012", "shopId": "31145", "netid": null, "province": 901, "district": 601, "zipcode": null, "telephone": null, "posDate": null, "destineTel": null, "togoTel": null, "trafficWay": null, "signBuilding": null, "businessArea": null, "selfRoom": null, "businessTime": null, "stall": null, "consume": null, "serviceFei": null, "favourable": null, "shopMemo": null, "appraise": null, "website": null, "memo": null, "payTypes": "\u6749\u5fb7\u5361", "shopTypes": "\u9910\u996e", "consumeTypes": null, "cookTypes": null, "orderNum": 1000, "card4no": null, "card4noAcc": null, "district2": 409, "searchScope": null, "status": 1, "address": "\u8679\u6885\u8def201\u53f7", "name": "\u7231\u831c\u831c\u91ccIceason \u9526\u6c5f\u4e50\u56ed\u5e97", "id": 184190, "pageNo": 0, "pageCount": null, "pageSize": 10, "ids": null, "endTime": null, "startTime": null}, {"cardNumFive": null, "isSupportYj": null, "cityName": null, "districtName": null, "shopinfo": {"mid": "888888858130012", "good_flag": "1", "new_flag": "2", "short_name": "\u7231\u831c\u831c\u91ccIceason", "short_name_pinyin": "aiqianqianliiceason", "status": null, "address": null, "name": null, "id": "31145"}, "mid": "888888858130012", "shopId": "31145", "netid": null, "province": 901, "district": 601, "zipcode": null, "telephone": "58380280", "posDate": null, "destineTel": null, "togoTel": null, "trafficWay": null, "signBuilding": null, "businessArea": null, "selfRoom": null, "businessTime": null, "stall": null, "consume": null, "serviceFei": null, "favourable": null, "shopMemo": null, "appraise": null, "website": null, "memo": null, "payTypes": "\u6749\u5fb7\u5361", "shopTypes": "\u9910\u996e", "consumeTypes": null, "cookTypes": null, "orderNum": 1000, "card4no": null, "card4noAcc": null, "district2": 418, "searchScope": null, "status": 1, "address": "\u82b3\u7538\u8def260-262\u53f7", "name": "\u7231\u831c\u831c\u91ccIceason \u8054\u6d0b\u5e7f\u573a\u5e97", "id": 184191, "pageNo": 0, "pageCount": null, "pageSize": 10, "ids": null, "endTime": null, "startTime": null}, {"cardNumFive": null, "isSupportYj": null, "cityName": null, "districtName": null, "shopinfo": {"mid": "888888858130012", "good_flag": "1", "new_flag": "2", "short_name": "\u7231\u831c\u831c\u91ccIceason", "short_name_pinyin": "aiqianqianliiceason", "status": null, "address": null, "name": null, "id": "31145"}, "mid": "888888858130012", "shopId": "31145", "netid": null, "province": 901, "district": 601, "zipcode": null, "telephone": null, "posDate": null, "destineTel": null, "togoTel": null, "trafficWay": null, "signBuilding": null, "businessArea": null, "selfRoom": null, "businessTime": null, "stall": null, "consume": null, "serviceFei": null, "favourable": null, "shopMemo": null, "appraise": null, "website": null, "memo": null, "payTypes": "\u6749\u5fb7\u5361", "shopTypes": "\u9910\u996e", "consumeTypes": null, "cookTypes": null, "orderNum": 1000, "card4no": null, "card4noAcc": null, "district2": 418, "searchScope": null, "status": 1, "address": "\u4e16\u535a\u5927\u90531368\u53f7", "name": "\u7231\u831c\u831c\u91ccIceason \u4e16\u535a\u6e90\u5e97", "id": 184192, "pageNo": 0, "pageCount": null, "pageSize": 10, "ids": null, "endTime": null, "startTime": null}, {"cardNumFive": null, "isSupportYj": null, "cityName": null, "districtName": null, "shopinfo": {"mid": "888002154220001", "good_flag": null, "new_flag": null, "short_name": "\u7231\u68ee", "short_name_pinyin": "aisen", "status": null, "address": null, "name": null, "id": "43242"}, "mid": "888002154220001", "shopId": "43242", "netid": null, "province": 901, "district": 601, "zipcode": null, "telephone": null, "posDate": null, "destineTel": null, "togoTel": null, "trafficWay": null, "signBuilding": null, "businessArea": null, "selfRoom": null, "businessTime": null, "stall": null, "consume": null, "serviceFei": null, "favourable": null, "shopMemo": null, "appraise": null, "website": null, "memo": null, "payTypes": "\u6749\u5fb7\u5361", "shopTypes": "\u96f6\u552e", "consumeTypes": null, "cookTypes": null, "orderNum": 1000, "card4no": null, "card4noAcc": null, "district2": 407, "searchScope": null, "status": 1, "address": "\u6566\u5316\u8def168\u53f735\u53f7\u644a\u4f4d", "name": "\u7231\u68ee \u6566\u5316\u8def\u5e97", "id": 193569, "pageNo": 0, "pageCount": null, "pageSize": 10, "ids": null, "endTime": null, "startTime": null}, {"cardNumFive": null, "isSupportYj": null, "cityName": null, "districtName": null, "shopinfo": {"mid": "888002154220001", "good_flag": null, "new_flag": null, "short_name": "\u7231\u68ee", "short_name_pinyin": "aisen", "status": null, "address": null, "name": null, "id": "43242"}, "mid": "888002154220001", "shopId": "43242", "netid": null, "province": 901, "district": 601, "zipcode": null, "telephone": null, "posDate": null, "destineTel": null, "togoTel": null, "trafficWay": null, "signBuilding": null, "businessArea": null, "selfRoom": null, "businessTime": null, "stall": null, "consume": null, "serviceFei": null, "favourable": null, "shopMemo": null, "appraise": null, "website": null, "memo": null, "payTypes": "\u6749\u5fb7\u5361", "shopTypes": "\u96f6\u552e", "consumeTypes": null, "cookTypes": null, "orderNum": 1000, "card4no": null, "card4noAcc": null, "district2": 407, "searchScope": null, "status": 1, "address": "\u8fbd\u6e90\u897f\u8def101\u53f7206\u53f7\u644a\u4f4d", "name": "\u7231\u68ee \u8fbd\u6e90\u897f\u8def\u5e97", "id": 193570, "pageNo": 0, "pageCount": null, "pageSize": 10, "ids": null, "endTime": null, "startTime": null}], "pageLimit": 140, "size": 10}