{"pageCount": 1095, "count": 10942, "pageNo": 25, "subShopInfo": {"cardNumFive": "", "isSupportYj": "", "cityName": null, "districtName": null, "shopinfo": {"mid": null, "good_flag": null, "new_flag": null, "short_name": null, "short_name_pinyin": null, "status": null, "address": "", "name": "", "id": null}, "mid": null, "shopId": null, "netid": null, "province": 901, "district": null, "zipcode": null, "telephone": null, "posDate": null, "destineTel": null, "togoTel": null, "trafficWay": null, "signBuilding": null, "businessArea": null, "selfRoom": null, "businessTime": null, "stall": null, "consume": null, "serviceFei": null, "favourable": null, "shopMemo": "1", "appraise": null, "website": null, "memo": null, "payTypes": "", "shopTypes": "", "consumeTypes": null, "cookTypes": null, "orderNum": null, "card4no": null, "card4noAcc": null, "district2": null, "searchScope": null, "status": null, "address": "", "name": null, "id": null, "pageNo": 24, "pageCount": null, "pageSize": 10, "ids": null, "endTime": null, "startTime": null}, "list": [{"cardNumFive": null, "isSupportYj": null, "cityName": null, "districtName": null, "shopinfo": {"mid": "888002158130044", "good_flag": null, "new_flag": "2", "short_name": "\u7231\u831c\u831c\u91ccIceason", "short_name_pinyin": "aixixiliIceason", "status": null, "address": null, "name": null, "id": "43234"}, "mid": "888002158130044", "shopId": "43234", "netid": null, "province": 901, "district": 601, "zipcode": null, "telephone": null, "posDate": null, "destineTel": null, "togoTel": null, "trafficWay": null, "signBuilding": null, "businessArea": null, "selfRoom": null, "businessTime": null, "stall": null, "consume": null, "serviceFei": null, "favourable": null, "shopMemo": null, "appraise": null, "website": null, "memo": null, "payTypes": "\u6749\u5fb7\u5361", "shopTypes": "\u9910\u996e", "consumeTypes": null, "cookTypes": null, "orderNum": 1000, "card4no": null, "card4noAcc": null, "district2": 418, "searchScope": null, "status": 1, "address": "\u91d1\u9ad8\u8def1882\u53f7\u91d1\u6865\u592a\u8302\u5546\u4e1a\u5e7f\u573a1\u5c42123\u53f7", "name": "\u7231\u831c\u831c\u91ccIceason \u91d1\u6865\u592a\u8302\u5546\u4e1a\u5e7f\u573a\u5e97", "id": 202094, "pageNo": 0, "pageCount": null, "pageSize": 10, "ids": null, "endTime": null, "startTime": null}, {"cardNumFive": null, "isSupportYj": null, "cityName": null, "districtName": null, "shopinfo": {"mid": "888002158130044", "good_flag": null, "new_flag": "2", "short_name": "\u7231\u831c\u831c\u91ccIceason", "short_name_pinyin": "aixixiliIceason", "status": null, "address": null, "name": null, "id": "43234"}, "mid": "888002158130044", "shopId": "43234", "netid": null, "province": 901, "district": 601, "zipcode": null, "telephone": null, "posDate": null, "destineTel": null, "togoTel": null, "trafficWay": null, "signBuilding": null, "businessArea": null, "selfRoom": null, "businessTime": null, "stall": null, "consume": null, "serviceFei": null, "favourable": null, "shopMemo": null, "appraise": null, "website": null, "memo": null, "payTypes": "\u6749\u5fb7\u5361,", "shopTypes": "\u9910\u996e", "consumeTypes": null, "cookTypes": null, "orderNum": null, "card4no": null, "card4noAcc": null, "district2": 418, "searchScope": null, "status": 1, "address": "\u5f20\u6768\u8def982\u53f7\u5730\u4e0b2\u5c4218\u5ba4G59-B02-1-020C", "name": "\u5f20\u6768\u8def\u5e97", "id": 375966517595996160, "pageNo": 0, "pageCount": null, "pageSize": 10, "ids": null, "endTime": null, "startTime": null}, {"cardNumFive": null, "isSupportYj": null, "cityName": null, "districtName": null, "shopinfo": {"mid": "888002158130044", "good_flag": null, "new_flag": "2", "short_name": "\u7231\u831c\u831c\u91ccIceason", "short_name_pinyin": "aixixiliIceason", "status": null, "address": null, "name": null, "id": "43234"}, "mid": "888002158130044", "shopId": "43234", "netid": null, "province": 901, "district": 601, "zipcode": null, "telephone": null, "posDate": null, "destineTel": null, "togoTel": null, "trafficWay": null, "signBuilding": null, "businessArea": null, "selfRoom": null, "businessTime": null, "stall": null, "consume": null, "serviceFei": null, "favourable": null, "shopMemo": null, "appraise": null, "website": null, "memo": null, "payTypes": "\u6749\u5fb7\u5361,", "shopTypes": "\u9910\u996e", "consumeTypes": null, "cookTypes": null, "orderNum": null, "card4no": null, "card4noAcc": null, "district2": 403, "searchScope": null, "status": 1, "address": "\u6f15\u5b9d\u8def33\u53f7\u65e5\u6708\u5149\u4e2d\u5fc32F", "name": "\u6f15\u5b9d\u8def\u5e97", "id": 418057334871293952, "pageNo": 0, "pageCount": null, "pageSize": 10, "ids": null, "endTime": null, "startTime": null}, {"cardNumFive": null, "isSupportYj": null, "cityName": null, "districtName": null, "shopinfo": {"mid": "888002158130044", "good_flag": null, "new_flag": "2", "short_name": "\u7231\u831c\u831c\u91ccIceason", "short_name_pinyin": "aixixiliIceason", "status": null, "address": null, "name": null, "id": "43234"}, "mid": "888002158130044", "shopId": "43234", "netid": null, "province": 901, "district": 601, "zipcode": null, "telephone": null, "posDate": null, "destineTel": null, "togoTel": null, "trafficWay": null, "signBuilding": null, "businessArea": null, "selfRoom": null, "businessTime": null, "stall": null, "consume": null, "serviceFei": null, "favourable": null, "shopMemo": null, "appraise": null, "website": null, "memo": null, "payTypes": "\u6749\u5fb7\u5361,", "shopTypes": "\u9910\u996e", "consumeTypes": null, "cookTypes": null, "orderNum": null, "card4no": null, "card4noAcc": null, "district2": 411, "searchScope": null, "status": 1, "address": "\u963f\u514b\u82cf\u8def1099\u53f7\u5609\u5b9a\u5b9d\u9f99\u57ce\u5e02\u5e7f\u573a\u4e00\u5c42M1-1F-1001-2\u53f7\u5546\u94fa", "name": "\u5609\u5b9a\u5b9d\u9f99\u5e97", "id": 418057383994982400, "pageNo": 0, "pageCount": null, "pageSize": 10, "ids": null, "endTime": null, "startTime": null}, {"cardNumFive": null, "isSupportYj": null, "cityName": null, "districtName": null, "shopinfo": {"mid": "888002153311218", "good_flag": "2", "new_flag": "2", "short_name": "\u7231\u7259\u9f7f\u79d1", "short_name_pinyin": "aiyachike", "status": null, "address": null, "name": null, "id": "565224384264929280"}, "mid": "888002153311218", "shopId": "565224384264929280", "netid": null, "province": 901, "district": 601, "zipcode": null, "telephone": null, "posDate": null, "destineTel": null, "togoTel": null, "trafficWay": null, "signBuilding": null, "businessArea": null, "selfRoom": null, "businessTime": null, "stall": null, "consume": null, "serviceFei": null, "favourable": null, "shopMemo": null, "appraise": null, "website": null, "memo": null, "payTypes": "\u6749\u5fb7\u5361,", "shopTypes": null, "consumeTypes": null, "cookTypes": null, "orderNum": null, "card4no": null, "card4noAcc": null, "district2": 411, "searchScope": null, "status": 1, "address": "\u58a8\u7389\u8def28\u53f7401-402\u5ba4", "name": "\u7231\u7259\u9f7f\u79d1", "id": 565224382322966528, "pageNo": 0, "pageCount": null, "pageSize": 10, "ids": null, "endTime": null, "startTime": null}, {"cardNumFive": null, "isSupportYj": null, "cityName": null, "districtName": null, "shopinfo": {"mid": "888002159420017", "good_flag": null, "new_flag": null, "short_name": "\u7231\u77e5\u4e66\u5e97", "short_name_pinyin": "aizhishudian", "status": null, "address": null, "name": null, "id": "37706"}, "mid": "888002159420017", "shopId": "37706", "netid": null, "province": 901, "district": 601, "zipcode": null, "telephone": null, "posDate": null, "destineTel": null, "togoTel": null, "trafficWay": null, "signBuilding": null, "businessArea": null, "selfRoom": null, "businessTime": null, "stall": null, "consume": null, "serviceFei": null, "favourable": null, "shopMemo": null, "appraise": null, "website": null, "memo": null, "payTypes": "\u6749\u5fb7\u5361", "shopTypes": "\u6559\u80b2\u57f9\u8bad", "consumeTypes": null, "cookTypes": null, "orderNum": 1000, "card4no": null, "card4noAcc": null, "district2": 403, "searchScope": null, "status": 1, "address": "\u5730\u94c1\u4e00\u53f7\u7ebf\u5f90\u5bb6\u6c47\u7ad9\u4e0e\u4e5d\u53f7\u7ebf\u6362\u4e58\u901a\u9053", "name": "\u7231\u77e5\u4e66\u5e97 \u5f90\u5bb6\u6c47\u5e97", "id": 159906, "pageNo": 0, "pageCount": null, "pageSize": 10, "ids": null, "endTime": null, "startTime": null}, {"cardNumFive": null, "isSupportYj": null, "cityName": null, "districtName": null, "shopinfo": {"mid": "888002159420017", "good_flag": null, "new_flag": null, "short_name": "\u7231\u77e5\u4e66\u5e97", "short_name_pinyin": "aizhishudian", "status": null, "address": null, "name": null, "id": "37706"}, "mid": "888002159420017", "shopId": "37706", "netid": null, "province": 901, "district": 601, "zipcode": null, "telephone": null, "posDate": null, "destineTel": null, "togoTel": null, "trafficWay": null, "signBuilding": null, "businessArea": null, "selfRoom": null, "businessTime": null, "stall": null, "consume": null, "serviceFei": null, "favourable": null, "shopMemo": null, "appraise": null, "website": null, "memo": null, "payTypes": "\u6749\u5fb7\u5361", "shopTypes": "\u6559\u80b2\u57f9\u8bad", "consumeTypes": null, "cookTypes": null, "orderNum": 1000, "card4no": null, "card4noAcc": null, "district2": 418, "searchScope": null, "status": 1, "address": "\u5730\u94c1\u56db\u53f7\u7ebf\u5858\u6865\u7ad9", "name": "\u7231\u77e5\u4e66\u5e97 \u5858\u6865\u5e97", "id": 159907, "pageNo": 0, "pageCount": null, "pageSize": 10, "ids": null, "endTime": null, "startTime": null}, {"cardNumFive": null, "isSupportYj": null, "cityName": null, "districtName": null, "shopinfo": {"mid": "888002159420017", "good_flag": null, "new_flag": null, "short_name": "\u7231\u77e5\u4e66\u5e97", "short_name_pinyin": "aizhishudian", "status": null, "address": null, "name": null, "id": "37706"}, "mid": "888002159420017", "shopId": "37706", "netid": null, "province": 901, "district": 601, "zipcode": null, "telephone": null, "posDate": null, "destineTel": null, "togoTel": null, "trafficWay": null, "signBuilding": null, "businessArea": null, "selfRoom": null, "businessTime": null, "stall": null, "consume": null, "serviceFei": null, "favourable": null, "shopMemo": null, "appraise": null, "website": null, "memo": null, "payTypes": "\u6749\u5fb7\u5361", "shopTypes": "\u6559\u80b2\u57f9\u8bad", "consumeTypes": null, "cookTypes": null, "orderNum": 1000, "card4no": null, "card4noAcc": null, "district2": 406, "searchScope": null, "status": 1, "address": "\u5730\u94c1\u4e8c\u53f7\u7ebf\u5a01\u5b81\u7ad9\u5385", "name": "\u7231\u77e5\u4e66\u5e97 \u5a01\u5b81\u5e97", "id": 159908, "pageNo": 0, "pageCount": null, "pageSize": 10, "ids": null, "endTime": null, "startTime": null}, {"cardNumFive": null, "isSupportYj": null, "cityName": null, "districtName": null, "shopinfo": {"mid": "888002159420017", "good_flag": null, "new_flag": null, "short_name": "\u7231\u77e5\u4e66\u5e97", "short_name_pinyin": "aizhishudian", "status": null, "address": null, "name": null, "id": "37706"}, "mid": "888002159420017", "shopId": "37706", "netid": null, "province": 901, "district": 601, "zipcode": null, "telephone": null, "posDate": null, "destineTel": null, "togoTel": null, "trafficWay": null, "signBuilding": null, "businessArea": null, "selfRoom": null, "businessTime": null, "stall": null, "consume": null, "serviceFei": null, "favourable": null, "shopMemo": null, "appraise": null, "website": null, "memo": null, "payTypes": "\u6749\u5fb7\u5361", "shopTypes": "\u6559\u80b2\u57f9\u8bad", "consumeTypes": null, "cookTypes": null, "orderNum": 1000, "card4no": null, "card4noAcc": null, "district2": 418, "searchScope": null, "status": 1, "address": "\u5730\u94c12\u53f7\u7ebf\u4e1c\u660c\u8def\u7ad9\u5385", "name": "\u7231\u77e5\u4e66\u5e97 \u4e1c\u660c\u5e97", "id": 159909, "pageNo": 0, "pageCount": null, "pageSize": 10, "ids": null, "endTime": null, "startTime": null}, {"cardNumFive": null, "isSupportYj": null, "cityName": null, "districtName": null, "shopinfo": {"mid": "888002159420017", "good_flag": null, "new_flag": null, "short_name": "\u7231\u77e5\u4e66\u5e97", "short_name_pinyin": "aizhishudian", "status": null, "address": null, "name": null, "id": "37706"}, "mid": "888002159420017", "shopId": "37706", "netid": null, "province": 901, "district": 601, "zipcode": null, "telephone": null, "posDate": null, "destineTel": null, "togoTel": null, "trafficWay": null, "signBuilding": null, "businessArea": null, "selfRoom": null, "businessTime": null, "stall": null, "consume": null, "serviceFei": null, "favourable": null, "shopMemo": null, "appraise": null, "website": null, "memo": null, "payTypes": "\u6749\u5fb7\u5361", "shopTypes": "\u6559\u80b2\u57f9\u8bad", "consumeTypes": null, "cookTypes": null, "orderNum": 1000, "card4no": null, "card4noAcc": null, "district2": 401, "searchScope": null, "status": 1, "address": "\u5730\u94c12\u53f7\u7ebf\u4eba\u6c11\u5e7f\u573a\u7ad9\u4e0b", "name": "\u7231\u77e5\u4e66\u5e97 \u4eba\u6c11\u5e7f\u573a\u5e97", "id": 159911, "pageNo": 0, "pageCount": null, "pageSize": 10, "ids": null, "endTime": null, "startTime": null}], "pageLimit": 240, "size": 10}