{"pageCount": 1095, "count": 10942, "pageNo": 27, "subShopInfo": {"cardNumFive": "", "isSupportYj": "", "cityName": null, "districtName": null, "shopinfo": {"mid": null, "good_flag": null, "new_flag": null, "short_name": null, "short_name_pinyin": null, "status": null, "address": "", "name": "", "id": null}, "mid": null, "shopId": null, "netid": null, "province": 901, "district": null, "zipcode": null, "telephone": null, "posDate": null, "destineTel": null, "togoTel": null, "trafficWay": null, "signBuilding": null, "businessArea": null, "selfRoom": null, "businessTime": null, "stall": null, "consume": null, "serviceFei": null, "favourable": null, "shopMemo": "1", "appraise": null, "website": null, "memo": null, "payTypes": "", "shopTypes": "", "consumeTypes": null, "cookTypes": null, "orderNum": null, "card4no": null, "card4noAcc": null, "district2": null, "searchScope": null, "status": null, "address": "", "name": null, "id": null, "pageNo": 26, "pageCount": null, "pageSize": 10, "ids": null, "endTime": null, "startTime": null}, "list": [{"cardNumFive": null, "isSupportYj": null, "cityName": null, "districtName": null, "shopinfo": {"mid": "888002156911316", "good_flag": "2", "new_flag": "1", "short_name": "\u963f\u739b\u65bd", "short_name_pinyin": "amashi", "status": null, "address": null, "name": null, "id": "31112"}, "mid": "888002156911316", "shopId": "31112", "netid": null, "province": 901, "district": 601, "zipcode": null, "telephone": null, "posDate": "20100202", "destineTel": null, "togoTel": null, "trafficWay": null, "signBuilding": null, "businessArea": null, "selfRoom": null, "businessTime": null, "stall": null, "consume": null, "serviceFei": null, "favourable": null, "shopMemo": null, "appraise": null, "website": null, "memo": null, "payTypes": "\u6749\u5fb7\u5361", "shopTypes": "\u670d\u9970\u5bb6\u7eba", "consumeTypes": null, "cookTypes": null, "orderNum": 1000, "card4no": null, "card4noAcc": null, "district2": 418, "searchScope": null, "status": 1, "address": "\u60e0\u5357\u9547\u5357\u95e8\u5927\u885760\u5f0410\u53f7", "name": "\u963f\u739b\u65bd \u91d1\u6c47\u5e97", "id": 132174, "pageNo": 0, "pageCount": null, "pageSize": 10, "ids": null, "endTime": null, "startTime": null}, {"cardNumFive": null, "isSupportYj": null, "cityName": null, "districtName": null, "shopinfo": {"mid": "888002156911316", "good_flag": "2", "new_flag": "1", "short_name": "\u963f\u739b\u65bd", "short_name_pinyin": "amashi", "status": null, "address": null, "name": null, "id": "31112"}, "mid": "888002156911316", "shopId": "31112", "netid": null, "province": 901, "district": 601, "zipcode": null, "telephone": null, "posDate": "20100202", "destineTel": null, "togoTel": null, "trafficWay": null, "signBuilding": null, "businessArea": null, "selfRoom": null, "businessTime": null, "stall": null, "consume": null, "serviceFei": null, "favourable": null, "shopMemo": null, "appraise": null, "website": null, "memo": null, "payTypes": "\u6749\u5fb7\u5361", "shopTypes": "\u670d\u9970\u5bb6\u7eba", "consumeTypes": null, "cookTypes": null, "orderNum": 1000, "card4no": null, "card4noAcc": null, "district2": 409, "searchScope": null, "status": 1, "address": "\u4f73\u5b9d\u4e00\u67511-51\u53f7\u5e95\u5c42105#-5", "name": "\u963f\u739b\u65bd \u4e03\u5b9d\u5e97", "id": 132176, "pageNo": 0, "pageCount": null, "pageSize": 10, "ids": null, "endTime": null, "startTime": null}, {"cardNumFive": null, "isSupportYj": null, "cityName": null, "districtName": null, "shopinfo": {"mid": "888002156911310", "good_flag": "2", "new_flag": "1", "short_name": "\u963f\u739b\u65bd", "short_name_pinyin": "amashi", "status": null, "address": null, "name": null, "id": "31113"}, "mid": "888002156911310", "shopId": "31113", "netid": null, "province": 901, "district": 601, "zipcode": null, "telephone": null, "posDate": "20100202", "destineTel": null, "togoTel": null, "trafficWay": null, "signBuilding": null, "businessArea": null, "selfRoom": null, "businessTime": null, "stall": null, "consume": null, "serviceFei": null, "favourable": null, "shopMemo": null, "appraise": null, "website": null, "memo": null, "payTypes": "\u6749\u5fb7\u5361", "shopTypes": "\u670d\u9970\u5bb6\u7eba", "consumeTypes": null, "cookTypes": null, "orderNum": 1000, "card4no": null, "card4noAcc": null, "district2": 417, "searchScope": null, "status": 1, "address": "\u57ce\u4e2d\u4e1c\u8def253-257\u53f7", "name": "\u963f\u739b\u65bd \u9752\u6d66\u5e97", "id": 132177, "pageNo": 0, "pageCount": null, "pageSize": 10, "ids": null, "endTime": null, "startTime": null}, {"cardNumFive": null, "isSupportYj": null, "cityName": null, "districtName": null, "shopinfo": {"mid": "888002156911310", "good_flag": "2", "new_flag": "1", "short_name": "\u963f\u739b\u65bd", "short_name_pinyin": "amashi", "status": null, "address": null, "name": null, "id": "31113"}, "mid": "888002156911310", "shopId": "31113", "netid": null, "province": 901, "district": 601, "zipcode": null, "telephone": null, "posDate": "20100202", "destineTel": null, "togoTel": null, "trafficWay": null, "signBuilding": null, "businessArea": null, "selfRoom": null, "businessTime": null, "stall": null, "consume": null, "serviceFei": null, "favourable": null, "shopMemo": null, "appraise": null, "website": null, "memo": null, "payTypes": "\u6749\u5fb7\u5361", "shopTypes": "\u670d\u9970\u5bb6\u7eba", "consumeTypes": null, "cookTypes": null, "orderNum": 1000, "card4no": null, "card4noAcc": null, "district2": 412, "searchScope": null, "status": 1, "address": "\u4e2d\u5c71\u4e8c\u8def157\u53f7", "name": "\u963f\u739b\u65bd \u677e\u6c5f\u5e97", "id": 132178, "pageNo": 0, "pageCount": null, "pageSize": 10, "ids": null, "endTime": null, "startTime": null}, {"cardNumFive": null, "isSupportYj": null, "cityName": null, "districtName": null, "shopinfo": {"mid": "888002156911310", "good_flag": "2", "new_flag": "1", "short_name": "\u963f\u739b\u65bd", "short_name_pinyin": "amashi", "status": null, "address": null, "name": null, "id": "31113"}, "mid": "888002156911310", "shopId": "31113", "netid": null, "province": 901, "district": 601, "zipcode": null, "telephone": null, "posDate": "20100202", "destineTel": null, "togoTel": null, "trafficWay": null, "signBuilding": null, "businessArea": null, "selfRoom": null, "businessTime": null, "stall": null, "consume": null, "serviceFei": null, "favourable": null, "shopMemo": null, "appraise": null, "website": null, "memo": null, "payTypes": "\u6749\u5fb7\u5361", "shopTypes": "\u670d\u9970\u5bb6\u7eba", "consumeTypes": null, "cookTypes": null, "orderNum": 1000, "card4no": null, "card4noAcc": null, "district2": 412, "searchScope": null, "status": 1, "address": "\u65b0\u677e\u6c5f\u8def925\u5f041097\u5ba4", "name": "\u963f\u739b\u65bd \u677e\u6c5f\u4e8c\u5e97", "id": 132179, "pageNo": 0, "pageCount": null, "pageSize": 10, "ids": null, "endTime": null, "startTime": null}, {"cardNumFive": null, "isSupportYj": null, "cityName": null, "districtName": null, "shopinfo": {"mid": "888002156911316", "good_flag": "2", "new_flag": "1", "short_name": "\u963f\u739b\u65bd", "short_name_pinyin": "amashi", "status": null, "address": null, "name": null, "id": "31112"}, "mid": "888002156911316", "shopId": "31112", "netid": null, "province": 901, "district": 601, "zipcode": null, "telephone": null, "posDate": "20100202", "destineTel": null, "togoTel": null, "trafficWay": null, "signBuilding": null, "businessArea": null, "selfRoom": null, "businessTime": null, "stall": null, "consume": null, "serviceFei": null, "favourable": null, "shopMemo": null, "appraise": null, "website": null, "memo": null, "payTypes": "\u6749\u5fb7\u5361", "shopTypes": "\u670d\u9970\u5bb6\u7eba", "consumeTypes": null, "cookTypes": null, "orderNum": 1000, "card4no": null, "card4noAcc": null, "district2": 418, "searchScope": null, "status": 1, "address": "\u60e0\u5357\u9547\u897f\u95e8\u5927\u885752-54\u53f7", "name": "\u963f\u739b\u65bd \u8dc3\u8fdb\u5e97", "id": 132182, "pageNo": 0, "pageCount": null, "pageSize": 10, "ids": null, "endTime": null, "startTime": null}, {"cardNumFive": null, "isSupportYj": null, "cityName": null, "districtName": null, "shopinfo": {"mid": "888888854410178", "good_flag": null, "new_flag": null, "short_name": "\u963f\u660e\u98df\u54c1", "short_name_pinyin": "amingshipin", "status": null, "address": null, "name": null, "id": "31116"}, "mid": "888888854410178", "shopId": "31116", "netid": null, "province": 901, "district": 601, "zipcode": null, "telephone": null, "posDate": "20091228", "destineTel": null, "togoTel": null, "trafficWay": null, "signBuilding": null, "businessArea": null, "selfRoom": null, "businessTime": null, "stall": null, "consume": null, "serviceFei": null, "favourable": null, "shopMemo": null, "appraise": null, "website": null, "memo": null, "payTypes": "\u6749\u5fb7\u5361", "shopTypes": "\u96f6\u552e,\u4e13\u5356", "consumeTypes": null, "cookTypes": null, "orderNum": 1000, "card4no": null, "card4noAcc": null, "district2": 418, "searchScope": null, "status": 1, "address": "\u6d66\u4e1c\u535a\u5174\u8def572\u53f7", "name": "\u963f\u660e\u98df\u54c1 \u535a\u5174\u8def\u4e13\u5356\u5e97", "id": 132187, "pageNo": 0, "pageCount": null, "pageSize": 10, "ids": null, "endTime": null, "startTime": null}, {"cardNumFive": null, "isSupportYj": null, "cityName": null, "districtName": null, "shopinfo": {"mid": "888888854410178", "good_flag": null, "new_flag": null, "short_name": "\u963f\u660e\u98df\u54c1", "short_name_pinyin": "amingshipin", "status": null, "address": null, "name": null, "id": "31116"}, "mid": "888888854410178", "shopId": "31116", "netid": null, "province": 901, "district": 601, "zipcode": null, "telephone": null, "posDate": "20091228", "destineTel": null, "togoTel": null, "trafficWay": null, "signBuilding": null, "businessArea": null, "selfRoom": null, "businessTime": null, "stall": null, "consume": null, "serviceFei": null, "favourable": null, "shopMemo": null, "appraise": null, "website": null, "memo": null, "payTypes": "\u6749\u5fb7\u5361", "shopTypes": "\u96f6\u552e,\u4e13\u5356", "consumeTypes": null, "cookTypes": null, "orderNum": 1000, "card4no": null, "card4noAcc": null, "district2": 407, "searchScope": null, "status": 1, "address": "\u5927\u8fde\u8def\u8fbd\u6e90\u897f\u8def", "name": "\u963f\u660e\u98df\u54c1 \u6d77\u4e0a\u6d77\u4e13\u5356\u5e97", "id": 132190, "pageNo": 0, "pageCount": null, "pageSize": 10, "ids": null, "endTime": null, "startTime": null}, {"cardNumFive": null, "isSupportYj": null, "cityName": null, "districtName": null, "shopinfo": {"mid": "888888854410178", "good_flag": null, "new_flag": null, "short_name": "\u963f\u660e\u98df\u54c1", "short_name_pinyin": "amingshipin", "status": null, "address": null, "name": null, "id": "31116"}, "mid": "888888854410178", "shopId": "31116", "netid": null, "province": 901, "district": 601, "zipcode": null, "telephone": "13321891223", "posDate": "200909", "destineTel": null, "togoTel": null, "trafficWay": "\u516c\u4ea457\u300171\u3001127", "signBuilding": null, "businessArea": null, "selfRoom": null, "businessTime": null, "stall": null, "consume": null, "serviceFei": null, "favourable": null, "shopMemo": null, "appraise": null, "website": null, "memo": null, "payTypes": "\u6749\u5fb7\u5361", "shopTypes": "\u96f6\u552e,\u4e13\u5356", "consumeTypes": null, "cookTypes": null, "orderNum": 1000, "card4no": null, "card4noAcc": null, "district2": 406, "searchScope": null, "status": 1, "address": "\u5ef6\u5b89\u897f\u8def726\u53f717\u697cJ\u5ea7", "name": "\u963f\u660e\u98df\u54c1 \u534e\u654f\u5e97", "id": 132191, "pageNo": 0, "pageCount": null, "pageSize": 10, "ids": null, "endTime": null, "startTime": null}, {"cardNumFive": null, "isSupportYj": null, "cityName": null, "districtName": null, "shopinfo": {"mid": "888888854410178", "good_flag": null, "new_flag": null, "short_name": "\u963f\u660e\u98df\u54c1", "short_name_pinyin": "amingshipin", "status": null, "address": null, "name": null, "id": "31116"}, "mid": "888888854410178", "shopId": "31116", "netid": null, "province": 901, "district": 601, "zipcode": null, "telephone": null, "posDate": "20091228", "destineTel": null, "togoTel": null, "trafficWay": null, "signBuilding": null, "businessArea": null, "selfRoom": null, "businessTime": null, "stall": null, "consume": null, "serviceFei": null, "favourable": null, "shopMemo": null, "appraise": null, "website": null, "memo": null, "payTypes": "\u6749\u5fb7\u5361", "shopTypes": "\u96f6\u552e,\u4e13\u5356", "consumeTypes": null, "cookTypes": null, "orderNum": 1000, "card4no": null, "card4noAcc": null, "district2": 406, "searchScope": null, "status": 1, "address": "\u5929\u5c71\u8def900\u53f7\u5730\u4e0b\u4e8c\u5c42", "name": "\u963f\u660e\u98df\u54c1 \u6c47\u91d1\u4e13\u5356\u5e97", "id": 132192, "pageNo": 0, "pageCount": null, "pageSize": 10, "ids": null, "endTime": null, "startTime": null}], "pageLimit": 260, "size": 10}