{"pageCount": 1095, "count": 10942, "pageNo": 28, "subShopInfo": {"cardNumFive": "", "isSupportYj": "", "cityName": null, "districtName": null, "shopinfo": {"mid": null, "good_flag": null, "new_flag": null, "short_name": null, "short_name_pinyin": null, "status": null, "address": "", "name": "", "id": null}, "mid": null, "shopId": null, "netid": null, "province": 901, "district": null, "zipcode": null, "telephone": null, "posDate": null, "destineTel": null, "togoTel": null, "trafficWay": null, "signBuilding": null, "businessArea": null, "selfRoom": null, "businessTime": null, "stall": null, "consume": null, "serviceFei": null, "favourable": null, "shopMemo": "1", "appraise": null, "website": null, "memo": null, "payTypes": "", "shopTypes": "", "consumeTypes": null, "cookTypes": null, "orderNum": null, "card4no": null, "card4noAcc": null, "district2": null, "searchScope": null, "status": null, "address": "", "name": null, "id": null, "pageNo": 27, "pageCount": null, "pageSize": 10, "ids": null, "endTime": null, "startTime": null}, "list": [{"cardNumFive": null, "isSupportYj": null, "cityName": null, "districtName": null, "shopinfo": {"mid": "888888854410178", "good_flag": null, "new_flag": null, "short_name": "\u963f\u660e\u98df\u54c1", "short_name_pinyin": "amingshipin", "status": null, "address": null, "name": null, "id": "31116"}, "mid": "888888854410178", "shopId": "31116", "netid": null, "province": 901, "district": 601, "zipcode": null, "telephone": "52388090", "posDate": "20100713", "destineTel": null, "togoTel": null, "trafficWay": null, "signBuilding": null, "businessArea": null, "selfRoom": null, "businessTime": null, "stall": null, "consume": null, "serviceFei": null, "favourable": null, "shopMemo": null, "appraise": null, "website": null, "memo": null, "payTypes": "\u6749\u5fb7\u5361", "shopTypes": "\u96f6\u552e,\u4e13\u5356", "consumeTypes": null, "cookTypes": null, "orderNum": 1000, "card4no": null, "card4noAcc": null, "district2": 401, "searchScope": null, "status": 1, "address": "\u91d1\u9675\u4e1c\u8def328\u53f7", "name": "\u963f\u660e\u98df\u54c1 \u91d1\u9675\u4e1c\u8def\u5e97", "id": 132193, "pageNo": 0, "pageCount": null, "pageSize": 10, "ids": null, "endTime": null, "startTime": null}, {"cardNumFive": null, "isSupportYj": null, "cityName": null, "districtName": null, "shopinfo": {"mid": "888888854410178", "good_flag": null, "new_flag": null, "short_name": "\u963f\u660e\u98df\u54c1", "short_name_pinyin": "amingshipin", "status": null, "address": null, "name": null, "id": "31116"}, "mid": "888888854410178", "shopId": "31116", "netid": null, "province": 901, "district": 601, "zipcode": null, "telephone": null, "posDate": "20091228", "destineTel": null, "togoTel": null, "trafficWay": null, "signBuilding": null, "businessArea": null, "selfRoom": null, "businessTime": null, "stall": null, "consume": null, "serviceFei": null, "favourable": null, "shopMemo": null, "appraise": null, "website": null, "memo": null, "payTypes": "\u6749\u5fb7\u5361", "shopTypes": "\u96f6\u552e,\u4e13\u5356", "consumeTypes": null, "cookTypes": null, "orderNum": 1000, "card4no": null, "card4noAcc": null, "district2": 418, "searchScope": null, "status": 1, "address": "\u5f20\u626c\u8def3611\u53f7A1141", "name": "\u963f\u660e\u98df\u54c1 \u91d1\u6865\u56fd\u9645\u5546\u52a1\u5e7f\u573a\u4e13\u5356\u5e97", "id": 132194, "pageNo": 0, "pageCount": null, "pageSize": 10, "ids": null, "endTime": null, "startTime": null}, {"cardNumFive": null, "isSupportYj": null, "cityName": null, "districtName": null, "shopinfo": {"mid": "888888854410178", "good_flag": null, "new_flag": null, "short_name": "\u963f\u660e\u98df\u54c1", "short_name_pinyin": "amingshipin", "status": null, "address": null, "name": null, "id": "31116"}, "mid": "888888854410178", "shopId": "31116", "netid": null, "province": 901, "district": 601, "zipcode": null, "telephone": null, "posDate": null, "destineTel": null, "togoTel": null, "trafficWay": null, "signBuilding": null, "businessArea": null, "selfRoom": null, "businessTime": null, "stall": null, "consume": null, "serviceFei": null, "favourable": null, "shopMemo": null, "appraise": null, "website": null, "memo": null, "payTypes": "\u6749\u5fb7\u5361", "shopTypes": "\u96f6\u552e,\u4e13\u5356", "consumeTypes": null, "cookTypes": null, "orderNum": 1000, "card4no": null, "card4noAcc": null, "district2": 403, "searchScope": null, "status": 1, "address": "\u51ef\u8fdb\u8def259\u53f7", "name": "\u963f\u660e\u98df\u54c1 \u51ef\u8fdb\u8def\u5e97", "id": 132195, "pageNo": 0, "pageCount": null, "pageSize": 10, "ids": null, "endTime": null, "startTime": null}, {"cardNumFive": null, "isSupportYj": null, "cityName": null, "districtName": null, "shopinfo": {"mid": "888888854410178", "good_flag": null, "new_flag": null, "short_name": "\u963f\u660e\u98df\u54c1", "short_name_pinyin": "amingshipin", "status": null, "address": null, "name": null, "id": "31116"}, "mid": "888888854410178", "shopId": "31116", "netid": null, "province": 901, "district": 601, "zipcode": null, "telephone": "13774275449", "posDate": "200909", "destineTel": null, "togoTel": null, "trafficWay": "\u516c\u4ea4119\u3001630", "signBuilding": null, "businessArea": null, "selfRoom": null, "businessTime": null, "stall": null, "consume": null, "serviceFei": null, "favourable": null, "shopMemo": null, "appraise": null, "website": null, "memo": null, "payTypes": "\u6749\u5fb7\u5361", "shopTypes": "\u96f6\u552e,\u4e13\u5356", "consumeTypes": null, "cookTypes": null, "orderNum": 1000, "card4no": null, "card4noAcc": null, "district2": 418, "searchScope": null, "status": 1, "address": "\u5f20\u6768\u8def601\u53f71\u697c", "name": "\u963f\u660e\u98df\u54c1 \u6d66\u4e1c\u56fd\u9645\u98df\u54c1\u57ce\u5e97", "id": 132199, "pageNo": 0, "pageCount": null, "pageSize": 10, "ids": null, "endTime": null, "startTime": null}, {"cardNumFive": null, "isSupportYj": null, "cityName": null, "districtName": null, "shopinfo": {"mid": "888888854410178", "good_flag": null, "new_flag": null, "short_name": "\u963f\u660e\u98df\u54c1", "short_name_pinyin": "amingshipin", "status": null, "address": null, "name": null, "id": "31116"}, "mid": "888888854410178", "shopId": "31116", "netid": null, "province": 901, "district": 601, "zipcode": null, "telephone": null, "posDate": null, "destineTel": null, "togoTel": null, "trafficWay": null, "signBuilding": null, "businessArea": null, "selfRoom": null, "businessTime": null, "stall": null, "consume": null, "serviceFei": null, "favourable": null, "shopMemo": null, "appraise": null, "website": null, "memo": null, "payTypes": "\u6749\u5fb7\u5361", "shopTypes": "\u96f6\u552e,\u4e13\u5356", "consumeTypes": null, "cookTypes": null, "orderNum": 1000, "card4no": null, "card4noAcc": null, "district2": 418, "searchScope": null, "status": 1, "address": "\u6d66\u4e1c\u5357\u8def1288\u53f7\u534e\u878d\u5927\u53a63\u697c", "name": "\u963f\u660e\u98df\u54c1 \u6d66\u4e1c\u5357\u8def\u5e97", "id": 132200, "pageNo": 0, "pageCount": null, "pageSize": 10, "ids": null, "endTime": null, "startTime": null}, {"cardNumFive": null, "isSupportYj": null, "cityName": null, "districtName": null, "shopinfo": {"mid": "888888854410178", "good_flag": null, "new_flag": null, "short_name": "\u963f\u660e\u98df\u54c1", "short_name_pinyin": "amingshipin", "status": null, "address": null, "name": null, "id": "31116"}, "mid": "888888854410178", "shopId": "31116", "netid": null, "province": 901, "district": 601, "zipcode": null, "telephone": null, "posDate": null, "destineTel": null, "togoTel": null, "trafficWay": null, "signBuilding": null, "businessArea": null, "selfRoom": null, "businessTime": null, "stall": null, "consume": null, "serviceFei": null, "favourable": null, "shopMemo": null, "appraise": null, "website": null, "memo": null, "payTypes": "\u6749\u5fb7\u5361", "shopTypes": "\u96f6\u552e,\u4e13\u5356", "consumeTypes": null, "cookTypes": null, "orderNum": 1000, "card4no": null, "card4noAcc": null, "district2": 414, "searchScope": null, "status": 1, "address": "\u536b\u6e05\u897f\u8def477\u53f72\u697c", "name": "\u963f\u660e\u98df\u54c1 \u536b\u6e05\u897f\u8def\u5e97", "id": 132205, "pageNo": 0, "pageCount": null, "pageSize": 10, "ids": null, "endTime": null, "startTime": null}, {"cardNumFive": null, "isSupportYj": null, "cityName": null, "districtName": null, "shopinfo": {"mid": "888888854410178", "good_flag": null, "new_flag": null, "short_name": "\u963f\u660e\u98df\u54c1", "short_name_pinyin": "amingshipin", "status": null, "address": null, "name": null, "id": "31116"}, "mid": "888888854410178", "shopId": "31116", "netid": null, "province": 901, "district": 601, "zipcode": null, "telephone": null, "posDate": "20100111", "destineTel": null, "togoTel": null, "trafficWay": null, "signBuilding": null, "businessArea": null, "selfRoom": null, "businessTime": null, "stall": null, "consume": null, "serviceFei": null, "favourable": null, "shopMemo": null, "appraise": null, "website": null, "memo": null, "payTypes": "\u6749\u5fb7\u5361", "shopTypes": "\u96f6\u552e,\u4e13\u5356", "consumeTypes": null, "cookTypes": null, "orderNum": 1000, "card4no": null, "card4noAcc": null, "district2": 418, "searchScope": null, "status": 1, "address": "\u6d66\u5174\u8def\u8857\u9053\u535a\u5174\u8def903\u53f7\u5e95\u5c42", "name": "\u963f\u660e\u98df\u54c1 \u65b0\u4fa8\u535a\u5174\u8def\u4e13\u5356\u5e97", "id": 132209, "pageNo": 0, "pageCount": null, "pageSize": 10, "ids": null, "endTime": null, "startTime": null}, {"cardNumFive": null, "isSupportYj": null, "cityName": null, "districtName": null, "shopinfo": {"mid": "888888854410178", "good_flag": null, "new_flag": null, "short_name": "\u963f\u660e\u98df\u54c1", "short_name_pinyin": "amingshipin", "status": null, "address": null, "name": null, "id": "31116"}, "mid": "888888854410178", "shopId": "31116", "netid": null, "province": 901, "district": 601, "zipcode": null, "telephone": null, "posDate": "20100111", "destineTel": null, "togoTel": null, "trafficWay": null, "signBuilding": null, "businessArea": null, "selfRoom": null, "businessTime": null, "stall": null, "consume": null, "serviceFei": null, "favourable": null, "shopMemo": null, "appraise": null, "website": null, "memo": null, "payTypes": "\u6749\u5fb7\u5361", "shopTypes": "\u96f6\u552e,\u4e13\u5356", "consumeTypes": null, "cookTypes": null, "orderNum": 1000, "card4no": null, "card4noAcc": null, "district2": 418, "searchScope": null, "status": 1, "address": "\u6caa\u4e1c\u8857\u9053\u6d66\u4e1c\u5927\u90532879\u53f7", "name": "\u963f\u660e\u98df\u54c1 \u65b0\u4fa8\u6caa\u4e1c\u8def\u4e13\u5356\u5e97", "id": 132210, "pageNo": 0, "pageCount": null, "pageSize": 10, "ids": null, "endTime": null, "startTime": null}, {"cardNumFive": null, "isSupportYj": null, "cityName": null, "districtName": null, "shopinfo": {"mid": "888888854410178", "good_flag": null, "new_flag": null, "short_name": "\u963f\u660e\u98df\u54c1", "short_name_pinyin": "amingshipin", "status": null, "address": null, "name": null, "id": "31116"}, "mid": "888888854410178", "shopId": "31116", "netid": null, "province": 901, "district": 601, "zipcode": null, "telephone": null, "posDate": null, "destineTel": null, "togoTel": null, "trafficWay": null, "signBuilding": null, "businessArea": null, "selfRoom": null, "businessTime": null, "stall": null, "consume": null, "serviceFei": null, "favourable": null, "shopMemo": null, "appraise": null, "website": null, "memo": null, "payTypes": "\u6749\u5fb7\u5361", "shopTypes": "\u96f6\u552e,\u4e13\u5356", "consumeTypes": null, "cookTypes": null, "orderNum": 1000, "card4no": null, "card4noAcc": null, "district2": 407, "searchScope": null, "status": 1, "address": "\u6bb7\u884c\u8def610\u53f7", "name": "\u963f\u660e\u98df\u54c1 \u6bb7\u884c\u8def\u5e97", "id": 132212, "pageNo": 0, "pageCount": null, "pageSize": 10, "ids": null, "endTime": null, "startTime": null}, {"cardNumFive": null, "isSupportYj": null, "cityName": null, "districtName": null, "shopinfo": {"mid": "888888854410178", "good_flag": null, "new_flag": null, "short_name": "\u963f\u660e\u98df\u54c1", "short_name_pinyin": "amingshipin", "status": null, "address": null, "name": null, "id": "31116"}, "mid": "888888854410178", "shopId": "31116", "netid": null, "province": 901, "district": 601, "zipcode": null, "telephone": "13801689363", "posDate": "200909", "destineTel": null, "togoTel": null, "trafficWay": "\u516c\u4ea4\u8398\u7eaa\u7ebf\u300174\u8def", "signBuilding": null, "businessArea": null, "selfRoom": null, "businessTime": null, "stall": null, "consume": null, "serviceFei": null, "favourable": null, "shopMemo": null, "appraise": null, "website": null, "memo": null, "payTypes": "\u6749\u5fb7\u5361", "shopTypes": "\u96f6\u552e,\u4e13\u5356", "consumeTypes": null, "cookTypes": null, "orderNum": 1000, "card4no": null, "card4noAcc": null, "district2": 409, "searchScope": null, "status": 1, "address": "\u5b8f\u6d66\u8def369\u53f7", "name": "\u963f\u660e\u98df\u54c1 \u8bf8\u7fdf\u5e97", "id": 132213, "pageNo": 0, "pageCount": null, "pageSize": 10, "ids": null, "endTime": null, "startTime": null}], "pageLimit": 270, "size": 10}