{"pageCount": 1095, "count": 10942, "pageNo": 24, "subShopInfo": {"cardNumFive": "", "isSupportYj": "", "cityName": null, "districtName": null, "shopinfo": {"mid": null, "good_flag": null, "new_flag": null, "short_name": null, "short_name_pinyin": null, "status": null, "address": "", "name": "", "id": null}, "mid": null, "shopId": null, "netid": null, "province": 901, "district": null, "zipcode": null, "telephone": null, "posDate": null, "destineTel": null, "togoTel": null, "trafficWay": null, "signBuilding": null, "businessArea": null, "selfRoom": null, "businessTime": null, "stall": null, "consume": null, "serviceFei": null, "favourable": null, "shopMemo": "1", "appraise": null, "website": null, "memo": null, "payTypes": "", "shopTypes": "", "consumeTypes": null, "cookTypes": null, "orderNum": null, "card4no": null, "card4noAcc": null, "district2": null, "searchScope": null, "status": null, "address": "", "name": null, "id": null, "pageNo": 23, "pageCount": null, "pageSize": 10, "ids": null, "endTime": null, "startTime": null}, "list": [{"cardNumFive": null, "isSupportYj": null, "cityName": null, "districtName": null, "shopinfo": {"mid": "888888854410157", "good_flag": null, "new_flag": null, "short_name": "\u7231\u68ee\u724c", "short_name_pinyin": "aisenpai", "status": null, "address": null, "name": null, "id": "31149"}, "mid": "888888854410157", "shopId": "31149", "netid": null, "province": 901, "district": 601, "zipcode": null, "telephone": null, "posDate": null, "destineTel": null, "togoTel": null, "trafficWay": null, "signBuilding": null, "businessArea": null, "selfRoom": null, "businessTime": null, "stall": null, "consume": null, "serviceFei": null, "favourable": null, "shopMemo": null, "appraise": null, "website": null, "memo": null, "payTypes": "\u6749\u5fb7\u5361", "shopTypes": "\u96f6\u552e", "consumeTypes": null, "cookTypes": null, "orderNum": 1000, "card4no": null, "card4noAcc": null, "district2": 407, "searchScope": null, "status": 1, "address": "\u56fd\u548c\u8def115-116\u53f732\u53f7\u644a\u4f4d", "name": "\u7231\u68ee\u724c \u56fd\u548c\u4e8c\u5e97", "id": 172419, "pageNo": 0, "pageCount": null, "pageSize": 10, "ids": null, "endTime": null, "startTime": null}, {"cardNumFive": null, "isSupportYj": null, "cityName": null, "districtName": null, "shopinfo": {"mid": "888888854410157", "good_flag": null, "new_flag": null, "short_name": "\u7231\u68ee\u724c", "short_name_pinyin": "aisenpai", "status": null, "address": null, "name": null, "id": "31149"}, "mid": "888888854410157", "shopId": "31149", "netid": null, "province": 901, "district": 601, "zipcode": null, "telephone": null, "posDate": null, "destineTel": null, "togoTel": null, "trafficWay": null, "signBuilding": null, "businessArea": null, "selfRoom": null, "businessTime": null, "stall": null, "consume": null, "serviceFei": null, "favourable": null, "shopMemo": null, "appraise": null, "website": null, "memo": null, "payTypes": "\u6749\u5fb7\u5361", "shopTypes": "\u96f6\u552e", "consumeTypes": null, "cookTypes": null, "orderNum": 1000, "card4no": null, "card4noAcc": null, "district2": 418, "searchScope": null, "status": 1, "address": "\u9f99\u9633\u8def1880\u5f0429\u53f7101\u5ba4", "name": "\u7231\u68ee\u724c \u9f99\u9633\u5e97", "id": 172420, "pageNo": 0, "pageCount": null, "pageSize": 10, "ids": null, "endTime": null, "startTime": null}, {"cardNumFive": null, "isSupportYj": null, "cityName": null, "districtName": null, "shopinfo": {"mid": "888888854410157", "good_flag": null, "new_flag": null, "short_name": "\u7231\u68ee\u724c", "short_name_pinyin": "aisenpai", "status": null, "address": null, "name": null, "id": "31149"}, "mid": "888888854410157", "shopId": "31149", "netid": null, "province": 901, "district": 601, "zipcode": null, "telephone": null, "posDate": null, "destineTel": null, "togoTel": null, "trafficWay": null, "signBuilding": null, "businessArea": null, "selfRoom": null, "businessTime": null, "stall": null, "consume": null, "serviceFei": null, "favourable": null, "shopMemo": null, "appraise": null, "website": null, "memo": null, "payTypes": "\u6749\u5fb7\u5361", "shopTypes": "\u96f6\u552e", "consumeTypes": null, "cookTypes": null, "orderNum": 1000, "card4no": null, "card4noAcc": null, "district2": 409, "searchScope": null, "status": 1, "address": "\u822a\u4e2d\u8def405\u53f7", "name": "\u7231\u68ee\u724c \u822a\u4e2d\u5e97", "id": 172421, "pageNo": 0, "pageCount": null, "pageSize": 10, "ids": null, "endTime": null, "startTime": null}, {"cardNumFive": null, "isSupportYj": null, "cityName": null, "districtName": null, "shopinfo": {"mid": "888888854410157", "good_flag": null, "new_flag": null, "short_name": "\u7231\u68ee\u724c", "short_name_pinyin": "aisenpai", "status": null, "address": null, "name": null, "id": "31149"}, "mid": "888888854410157", "shopId": "31149", "netid": null, "province": 901, "district": 601, "zipcode": null, "telephone": null, "posDate": null, "destineTel": null, "togoTel": null, "trafficWay": null, "signBuilding": null, "businessArea": null, "selfRoom": null, "businessTime": null, "stall": null, "consume": null, "serviceFei": null, "favourable": null, "shopMemo": null, "appraise": null, "website": null, "memo": null, "payTypes": "\u6749\u5fb7\u5361", "shopTypes": "\u96f6\u552e", "consumeTypes": null, "cookTypes": null, "orderNum": 1000, "card4no": null, "card4noAcc": null, "district2": 405, "searchScope": null, "status": 1, "address": "\u6d1b\u5ddd\u8def310\u53f7", "name": "\u7231\u68ee\u724c \u6d1b\u5ddd\u5e97", "id": 172422, "pageNo": 0, "pageCount": null, "pageSize": 10, "ids": null, "endTime": null, "startTime": null}, {"cardNumFive": null, "isSupportYj": null, "cityName": null, "districtName": null, "shopinfo": {"mid": "888888880430061", "good_flag": "2", "new_flag": "2", "short_name": "\u7231\u89c6\u773c\u955c", "short_name_pinyin": "aishiyanjing", "status": null, "address": null, "name": null, "id": "31150"}, "mid": "888888880430061", "shopId": "31150", "netid": null, "province": 901, "district": 601, "zipcode": null, "telephone": "65495291", "posDate": "20080723", "destineTel": null, "togoTel": null, "trafficWay": "\u516c\u4ea4145 \u5730\u94c1\u516b\u53f7\u7ebf", "signBuilding": null, "businessArea": null, "selfRoom": null, "businessTime": null, "stall": null, "consume": null, "serviceFei": null, "favourable": null, "shopMemo": null, "appraise": null, "website": null, "memo": null, "payTypes": "\u6749\u5fb7\u5361", "shopTypes": "\u96f6\u552e,\u4e13\u5356", "consumeTypes": null, "cookTypes": null, "orderNum": 1000, "card4no": null, "card4noAcc": null, "district2": 407, "searchScope": null, "status": 1, "address": "\u9756\u5b87\u4e1c\u8def256\u53f7", "name": "\u7231\u89c6\u773c\u955c \u9756\u5b87\u4e1c\u8def\u5e97", "id": 132309, "pageNo": 0, "pageCount": null, "pageSize": 10, "ids": null, "endTime": null, "startTime": null}, {"cardNumFive": null, "isSupportYj": null, "cityName": null, "districtName": null, "shopinfo": {"mid": "888002158130044", "good_flag": null, "new_flag": "2", "short_name": "\u7231\u831c\u831c\u91ccIceason", "short_name_pinyin": "aixixiliIceason", "status": null, "address": null, "name": null, "id": "43234"}, "mid": "888002158130044", "shopId": "43234", "netid": null, "province": 901, "district": 601, "zipcode": null, "telephone": null, "posDate": null, "destineTel": null, "togoTel": null, "trafficWay": null, "signBuilding": null, "businessArea": null, "selfRoom": null, "businessTime": null, "stall": null, "consume": null, "serviceFei": null, "favourable": null, "shopMemo": null, "appraise": null, "website": null, "memo": null, "payTypes": "\u6749\u5fb7\u5361", "shopTypes": "\u9910\u996e", "consumeTypes": null, "cookTypes": null, "orderNum": 1000, "card4no": null, "card4noAcc": null, "district2": 407, "searchScope": null, "status": 1, "address": "\u6dde\u6caa\u8def77\u53f7\u4e07\u8fbe\u5e7f\u573a\u5730\u4e0b\u4e00\u5c42146\u53f7", "name": "\u7231\u831c\u831c\u91ccIceason \u6dde\u6caa\u8def\u5e97", "id": 193541, "pageNo": 0, "pageCount": null, "pageSize": 10, "ids": null, "endTime": null, "startTime": null}, {"cardNumFive": null, "isSupportYj": null, "cityName": null, "districtName": null, "shopinfo": {"mid": "888002158130044", "good_flag": null, "new_flag": "2", "short_name": "\u7231\u831c\u831c\u91ccIceason", "short_name_pinyin": "aixixiliIceason", "status": null, "address": null, "name": null, "id": "43234"}, "mid": "888002158130044", "shopId": "43234", "netid": null, "province": 901, "district": 601, "zipcode": null, "telephone": null, "posDate": null, "destineTel": null, "togoTel": null, "trafficWay": null, "signBuilding": null, "businessArea": null, "selfRoom": null, "businessTime": null, "stall": null, "consume": null, "serviceFei": null, "favourable": null, "shopMemo": null, "appraise": null, "website": null, "memo": null, "payTypes": "\u6749\u5fb7\u5361", "shopTypes": "\u9910\u996e", "consumeTypes": null, "cookTypes": null, "orderNum": 1000, "card4no": null, "card4noAcc": null, "district2": 409, "searchScope": null, "status": 1, "address": "\u8fd0\u4e50\u8def569\u5f041\u53f7102\u5355\u5143", "name": "\u7231\u831c\u831c\u91ccIceason \u8fd0\u4e50\u8def\u5e97", "id": 193544, "pageNo": 0, "pageCount": null, "pageSize": 10, "ids": null, "endTime": null, "startTime": null}, {"cardNumFive": null, "isSupportYj": null, "cityName": null, "districtName": null, "shopinfo": {"mid": "888002158130044", "good_flag": null, "new_flag": "2", "short_name": "\u7231\u831c\u831c\u91ccIceason", "short_name_pinyin": "aixixiliIceason", "status": null, "address": null, "name": null, "id": "43234"}, "mid": "888002158130044", "shopId": "43234", "netid": null, "province": 901, "district": 601, "zipcode": null, "telephone": null, "posDate": null, "destineTel": null, "togoTel": null, "trafficWay": null, "signBuilding": null, "businessArea": null, "selfRoom": null, "businessTime": null, "stall": null, "consume": null, "serviceFei": null, "favourable": null, "shopMemo": null, "appraise": null, "website": null, "memo": null, "payTypes": "\u6749\u5fb7\u5361", "shopTypes": "\u9910\u996e", "consumeTypes": null, "cookTypes": null, "orderNum": 1000, "card4no": null, "card4noAcc": null, "district2": 416, "searchScope": null, "status": 1, "address": "\u7261\u4e39\u6c5f\u8def318\u53f7D\u697cD115\u5355\u5143\u5546\u94fa", "name": "\u7231\u831c\u831c\u91ccIceason \u7261\u4e39\u6c5f\u8def\u5e97", "id": 193545, "pageNo": 0, "pageCount": null, "pageSize": 10, "ids": null, "endTime": null, "startTime": null}, {"cardNumFive": null, "isSupportYj": null, "cityName": null, "districtName": null, "shopinfo": {"mid": "888002158130044", "good_flag": null, "new_flag": "2", "short_name": "\u7231\u831c\u831c\u91ccIceason", "short_name_pinyin": "aixixiliIceason", "status": null, "address": null, "name": null, "id": "43234"}, "mid": "888002158130044", "shopId": "43234", "netid": null, "province": 901, "district": 601, "zipcode": null, "telephone": null, "posDate": null, "destineTel": null, "togoTel": null, "trafficWay": null, "signBuilding": null, "businessArea": null, "selfRoom": null, "businessTime": null, "stall": null, "consume": null, "serviceFei": null, "favourable": null, "shopMemo": null, "appraise": null, "website": null, "memo": null, "payTypes": "\u6749\u5fb7\u5361", "shopTypes": "\u9910\u996e", "consumeTypes": null, "cookTypes": null, "orderNum": 1000, "card4no": null, "card4noAcc": null, "district2": 405, "searchScope": null, "status": 1, "address": "\u771f\u5317\u8def818\u53f7\u8fd1\u94c1\u57ce\u5e02\u5e7f\u573a\u5317\u533a\u5730\u4e0b\u4e8c\u5c42N-B2-02-C\u5546\u94fa", "name": "\u7231\u831c\u831c\u91ccIceason \u8fd1\u94c1\u57ce\u5e02\u5e7f\u573a\u5e97", "id": 193546, "pageNo": 0, "pageCount": null, "pageSize": 10, "ids": null, "endTime": null, "startTime": null}, {"cardNumFive": null, "isSupportYj": null, "cityName": null, "districtName": null, "shopinfo": {"mid": "888002158130044", "good_flag": null, "new_flag": "2", "short_name": "\u7231\u831c\u831c\u91ccIceason", "short_name_pinyin": "aixixiliIceason", "status": null, "address": null, "name": null, "id": "43234"}, "mid": "888002158130044", "shopId": "43234", "netid": null, "province": 901, "district": 601, "zipcode": null, "telephone": null, "posDate": null, "destineTel": null, "togoTel": null, "trafficWay": null, "signBuilding": null, "businessArea": null, "selfRoom": null, "businessTime": null, "stall": null, "consume": null, "serviceFei": null, "favourable": null, "shopMemo": null, "appraise": null, "website": null, "memo": null, "payTypes": "\u6749\u5fb7\u5361", "shopTypes": "\u9910\u996e", "consumeTypes": null, "cookTypes": null, "orderNum": 1000, "card4no": null, "card4noAcc": null, "district2": 401, "searchScope": null, "status": 1, "address": "\u5357\u4eac\u4e1c\u8def635\u53f7\u6c38\u5b89\u767e\u8d271\u5c42B15-1F-0-108S\u5ba4\u573a\u5730", "name": "\u7231\u831c\u831c\u91ccIceason \u6c38\u5b89\u767e\u8d27\u5e97", "id": 193548, "pageNo": 0, "pageCount": null, "pageSize": 10, "ids": null, "endTime": null, "startTime": null}], "pageLimit": 230, "size": 10}