{"pageCount": 1095, "count": 10942, "pageNo": 29, "subShopInfo": {"cardNumFive": "", "isSupportYj": "", "cityName": null, "districtName": null, "shopinfo": {"mid": null, "good_flag": null, "new_flag": null, "short_name": null, "short_name_pinyin": null, "status": null, "address": "", "name": "", "id": null}, "mid": null, "shopId": null, "netid": null, "province": 901, "district": null, "zipcode": null, "telephone": null, "posDate": null, "destineTel": null, "togoTel": null, "trafficWay": null, "signBuilding": null, "businessArea": null, "selfRoom": null, "businessTime": null, "stall": null, "consume": null, "serviceFei": null, "favourable": null, "shopMemo": "1", "appraise": null, "website": null, "memo": null, "payTypes": "", "shopTypes": "", "consumeTypes": null, "cookTypes": null, "orderNum": null, "card4no": null, "card4noAcc": null, "district2": null, "searchScope": null, "status": null, "address": "", "name": null, "id": null, "pageNo": 28, "pageCount": null, "pageSize": 10, "ids": null, "endTime": null, "startTime": null}, "list": [{"cardNumFive": null, "isSupportYj": null, "cityName": null, "districtName": null, "shopinfo": {"mid": "888888854410178", "good_flag": null, "new_flag": null, "short_name": "\u963f\u660e\u98df\u54c1", "short_name_pinyin": "amingshipin", "status": null, "address": null, "name": null, "id": "36375"}, "mid": "888888854410178", "shopId": "36375", "netid": null, "province": 901, "district": 601, "zipcode": null, "telephone": null, "posDate": "20100906", "destineTel": null, "togoTel": null, "trafficWay": null, "signBuilding": null, "businessArea": null, "selfRoom": null, "businessTime": null, "stall": null, "consume": null, "serviceFei": null, "favourable": null, "shopMemo": null, "appraise": null, "website": null, "memo": null, "payTypes": "\u6749\u5fb7\u5361", "shopTypes": "\u96f6\u552e", "consumeTypes": null, "cookTypes": null, "orderNum": 1000, "card4no": null, "card4noAcc": null, "district2": 418, "searchScope": null, "status": 1, "address": "\u5357\u6c47\u60e0\u5357\u9547\u57ce\u4e1c\u8def378-392\u53f7", "name": "\u963f\u660e\u98df\u54c1 \u57ce\u4e1c\u5e97", "id": 151381, "pageNo": 0, "pageCount": null, "pageSize": 10, "ids": null, "endTime": null, "startTime": null}, {"cardNumFive": null, "isSupportYj": null, "cityName": null, "districtName": null, "shopinfo": {"mid": "888888854410178", "good_flag": null, "new_flag": null, "short_name": "\u963f\u660e\u98df\u54c1", "short_name_pinyin": "amingshipin", "status": null, "address": null, "name": null, "id": "36375"}, "mid": "888888854410178", "shopId": "36375", "netid": null, "province": 901, "district": 601, "zipcode": null, "telephone": null, "posDate": "20100906", "destineTel": null, "togoTel": null, "trafficWay": null, "signBuilding": null, "businessArea": null, "selfRoom": null, "businessTime": null, "stall": null, "consume": null, "serviceFei": null, "favourable": null, "shopMemo": null, "appraise": null, "website": null, "memo": null, "payTypes": "\u6749\u5fb7\u5361", "shopTypes": "\u96f6\u552e", "consumeTypes": null, "cookTypes": null, "orderNum": 1000, "card4no": null, "card4noAcc": null, "district2": 409, "searchScope": null, "status": 1, "address": "\u7eaa\u7fdf\u8def9\u53f7", "name": "\u963f\u660e\u98df\u54c1 \u7eaa\u7fdf\u5e97", "id": 151384, "pageNo": 0, "pageCount": null, "pageSize": 10, "ids": null, "endTime": null, "startTime": null}, {"cardNumFive": null, "isSupportYj": null, "cityName": null, "districtName": null, "shopinfo": {"mid": "888888854410178", "good_flag": null, "new_flag": null, "short_name": "\u963f\u660e\u98df\u54c1", "short_name_pinyin": "amingshipin", "status": null, "address": null, "name": null, "id": "36375"}, "mid": "888888854410178", "shopId": "36375", "netid": null, "province": 901, "district": 601, "zipcode": null, "telephone": null, "posDate": "20100906", "destineTel": null, "togoTel": null, "trafficWay": null, "signBuilding": null, "businessArea": null, "selfRoom": null, "businessTime": null, "stall": null, "consume": null, "serviceFei": null, "favourable": null, "shopMemo": null, "appraise": null, "website": null, "memo": null, "payTypes": "\u6749\u5fb7\u5361", "shopTypes": "\u96f6\u552e", "consumeTypes": null, "cookTypes": null, "orderNum": 1000, "card4no": null, "card4noAcc": null, "district2": 410, "searchScope": null, "status": 1, "address": "\u82b7\u6c5f\u4e2d\u8def311\u53f7", "name": "\u963f\u660e\u98df\u54c1 \u82b7\u6c5f\u5e97", "id": 151387, "pageNo": 0, "pageCount": null, "pageSize": 10, "ids": null, "endTime": null, "startTime": null}, {"cardNumFive": null, "isSupportYj": null, "cityName": null, "districtName": null, "shopinfo": {"mid": "888002154411198", "good_flag": null, "new_flag": null, "short_name": "\u963f\u660e\u98df\u54c1", "short_name_pinyin": "amingshipin", "status": null, "address": null, "name": null, "id": "37433"}, "mid": "888002154411198", "shopId": "37433", "netid": null, "province": 901, "district": 601, "zipcode": null, "telephone": null, "posDate": null, "destineTel": null, "togoTel": null, "trafficWay": null, "signBuilding": null, "businessArea": null, "selfRoom": null, "businessTime": null, "stall": null, "consume": null, "serviceFei": null, "favourable": null, "shopMemo": null, "appraise": null, "website": null, "memo": null, "payTypes": "\u6749\u5fb7\u5361", "shopTypes": "\u96f6\u552e", "consumeTypes": null, "cookTypes": null, "orderNum": 1000, "card4no": null, "card4noAcc": null, "district2": 408, "searchScope": null, "status": 1, "address": "\u8f66\u7ad9\u5317\u8def35\u53f7", "name": "\u963f\u660e\u98df\u54c1 \u8f66\u7ad9\u5317\u8def\u4e13\u5356\u5e97", "id": 158751, "pageNo": 0, "pageCount": null, "pageSize": 10, "ids": null, "endTime": null, "startTime": null}, {"cardNumFive": null, "isSupportYj": null, "cityName": null, "districtName": null, "shopinfo": {"mid": "888888859120101", "good_flag": "2", "new_flag": "2", "short_name": "\u5b89\u5fb7\u5927\u836f\u623f", "short_name_pinyin": "andedayaofang", "status": null, "address": null, "name": null, "id": "31153"}, "mid": "888888859120101", "shopId": "31153", "netid": null, "province": 901, "district": 601, "zipcode": null, "telephone": "54711554", "posDate": null, "destineTel": null, "togoTel": null, "trafficWay": "\u7533\u95f5\u7ebf \u4e1c\u5e73\u7ebf \u8398\u8377\u7ebf", "signBuilding": null, "businessArea": "100\u5e73\u65b9\u7c73", "selfRoom": null, "businessTime": null, "stall": null, "consume": null, "serviceFei": null, "favourable": null, "shopMemo": null, "appraise": null, "website": null, "memo": null, "payTypes": "\u6749\u5fb7\u5361", "shopTypes": "\u836f\u5e97", "consumeTypes": null, "cookTypes": null, "orderNum": 1000, "card4no": null, "card4noAcc": null, "district2": 409, "searchScope": null, "status": 1, "address": "\u6caa\u95f5\u8def131\u53f7", "name": "\u5b89\u5fb7\u5927\u836f\u623f \u6caa\u95f5\u8def\u5e97", "id": 132314, "pageNo": 0, "pageCount": null, "pageSize": 10, "ids": null, "endTime": null, "startTime": null}, {"cardNumFive": null, "isSupportYj": null, "cityName": null, "districtName": null, "shopinfo": {"mid": "888888859120101", "good_flag": "2", "new_flag": "2", "short_name": "\u5b89\u5fb7\u5927\u836f\u623f", "short_name_pinyin": "andedayaofang", "status": null, "address": null, "name": null, "id": "31153"}, "mid": "888888859120101", "shopId": "31153", "netid": null, "province": 901, "district": 601, "zipcode": null, "telephone": "64306505", "posDate": null, "destineTel": null, "togoTel": null, "trafficWay": "\u7533\u95f5\u7ebf \u4e1c\u5e73\u7ebf", "signBuilding": null, "businessArea": "100\u5e73\u65b9\u7c73", "selfRoom": null, "businessTime": null, "stall": null, "consume": null, "serviceFei": null, "favourable": null, "shopMemo": null, "appraise": null, "website": null, "memo": null, "payTypes": "\u6749\u5fb7\u5361", "shopTypes": "\u836f\u5e97", "consumeTypes": null, "cookTypes": null, "orderNum": 1000, "card4no": null, "card4noAcc": null, "district2": 409, "searchScope": null, "status": 1, "address": "\u6c5f\u5ddd\u8def502\u53f7", "name": "\u5b89\u5fb7\u5927\u836f\u623f \u745e\u4e3d\u8def\u5e97", "id": 132320, "pageNo": 0, "pageCount": null, "pageSize": 10, "ids": null, "endTime": null, "startTime": null}, {"cardNumFive": null, "isSupportYj": null, "cityName": null, "districtName": null, "shopinfo": {"mid": "888888856910317", "good_flag": "2", "new_flag": "2", "short_name": "\u5b89\u8fea\u4e54\u4f0a\u65af", "short_name_pinyin": "andiqiaoyisi", "status": null, "address": null, "name": null, "id": "31154"}, "mid": "888888856910317", "shopId": "31154", "netid": null, "province": 901, "district": 601, "zipcode": null, "telephone": "59616331", "posDate": "200908", "destineTel": null, "togoTel": null, "trafficWay": "\u516c\u4ea4", "signBuilding": null, "businessArea": null, "selfRoom": null, "businessTime": null, "stall": null, "consume": null, "serviceFei": null, "favourable": null, "shopMemo": null, "appraise": null, "website": null, "memo": null, "payTypes": "\u6749\u5fb7\u5361", "shopTypes": "\u4e13\u5356", "consumeTypes": null, "cookTypes": null, "orderNum": 1000, "card4no": null, "card4noAcc": null, "district2": 415, "searchScope": null, "status": 1, "address": "\u516b\u4e00\u8def517\u53f7", "name": "\u5b89\u8fea\u4e54\u4f0a\u65af \u516b\u4e00\u8def\u5e97", "id": 132322, "pageNo": 0, "pageCount": null, "pageSize": 10, "ids": null, "endTime": null, "startTime": null}, {"cardNumFive": null, "isSupportYj": null, "cityName": null, "districtName": null, "shopinfo": {"mid": "888002175380119", "good_flag": null, "new_flag": null, "short_name": "\u5b89\u5409\u9ec4\u5e3d\u5b50", "short_name_pinyin": "anjihuangmaozi", "status": null, "address": null, "name": null, "id": "39655"}, "mid": "888002175380119", "shopId": "39655", "netid": null, "province": 901, "district": 601, "zipcode": null, "telephone": null, "posDate": null, "destineTel": null, "togoTel": null, "trafficWay": null, "signBuilding": null, "businessArea": null, "selfRoom": null, "businessTime": null, "stall": null, "consume": null, "serviceFei": null, "favourable": null, "shopMemo": null, "appraise": null, "website": null, "memo": null, "payTypes": "\u6749\u5fb7\u5361", "shopTypes": "\u5176\u4ed6", "consumeTypes": null, "cookTypes": null, "orderNum": 1000, "card4no": null, "card4noAcc": null, "district2": 412, "searchScope": null, "status": 1, "address": "\u6c5f\u5b66\u8def913\u53f7", "name": "\u5b89\u5409\u9ec4\u5e3d\u5b50 \u65b0\u677e\u6c5f\u8def\u5e97", "id": 170060, "pageNo": 0, "pageCount": null, "pageSize": 10, "ids": null, "endTime": null, "startTime": null}, {"cardNumFive": null, "isSupportYj": null, "cityName": null, "districtName": null, "shopinfo": {"mid": "888888858120011", "good_flag": "2", "new_flag": "2", "short_name": "\u5b89\u7a33\u9152\u5bb6", "short_name_pinyin": "anwenjiujia", "status": null, "address": null, "name": null, "id": "31158"}, "mid": "888888858120011", "shopId": "31158", "netid": null, "province": 901, "district": 601, "zipcode": "200235", "telephone": "64364429", "posDate": "20060920", "destineTel": "64364429", "togoTel": "64364429", "trafficWay": "\u516c\u4ea443/ 93/104/122/712/725/755", "signBuilding": null, "businessArea": null, "selfRoom": "\u65e0", "businessTime": "11:00~21:30", "stall": "\u65e0", "consume": "57\u5143", "serviceFei": null, "favourable": null, "shopMemo": "\u6c34\u679c\u8272\u62c9 \u7389\u7c73\u70d9 \u7f8e\u6781\u9e2d\u4e0b\u5df4 \u7f8a\u8089\u7172 \u76d0\u70ac\u867e", "appraise": null, "website": null, "memo": null, "payTypes": "\u6749\u5fb7\u5361", "shopTypes": "\u9910\u996e", "consumeTypes": "\u5bb6\u4eba\u56e2\u805a \u597d\u53cb\u5c0f\u805a \u6d6a\u6f2b\u7ea6\u4f1a \u4f11\u95f2\u5c31\u9910 \u5546\u52a1\u5bb4\u8bf7", "cookTypes": "\u5bb6\u5e38,\u672c\u5e2e\u83dc", "orderNum": 1000, "card4no": null, "card4noAcc": null, "district2": 403, "searchScope": null, "status": 1, "address": "\u5eb7\u5065\u8def98\u53f7", "name": "\u5b89\u7a33\u9152\u5bb6 \u5eb7\u5065\u8def\u5e97", "id": 132330, "pageNo": 0, "pageCount": null, "pageSize": 10, "ids": null, "endTime": null, "startTime": null}, {"cardNumFive": null, "isSupportYj": null, "cityName": null, "districtName": null, "shopinfo": {"mid": "888002154410217", "good_flag": null, "new_flag": null, "short_name": "\u5b89\u6613\u5ba2", "short_name_pinyin": "anyike", "status": null, "address": null, "name": null, "id": "39485"}, "mid": "888002154410217", "shopId": "39485", "netid": null, "province": 901, "district": 601, "zipcode": null, "telephone": null, "posDate": null, "destineTel": null, "togoTel": null, "trafficWay": null, "signBuilding": null, "businessArea": null, "selfRoom": null, "businessTime": null, "stall": null, "consume": null, "serviceFei": null, "favourable": null, "shopMemo": null, "appraise": null, "website": null, "memo": null, "payTypes": "\u6749\u5fb7\u5361", "shopTypes": "\u9762\u5305\u897f\u997c", "consumeTypes": null, "cookTypes": null, "orderNum": 1000, "card4no": null, "card4noAcc": null, "district2": 409, "searchScope": null, "status": 1, "address": "\u9f99\u8317\u8def1676\u53f7205-207\u5546\u94fa", "name": "\u5b89\u6613\u5ba2 \u9f99\u8317\u8def\u5e97", "id": 169243, "pageNo": 0, "pageCount": null, "pageSize": 10, "ids": null, "endTime": null, "startTime": null}], "pageLimit": 280, "size": 10}