{"pageCount": 1095, "count": 10942, "pageNo": 34, "subShopInfo": {"cardNumFive": "", "isSupportYj": "", "cityName": null, "districtName": null, "shopinfo": {"mid": null, "good_flag": null, "new_flag": null, "short_name": null, "short_name_pinyin": null, "status": null, "address": "", "name": "", "id": null}, "mid": null, "shopId": null, "netid": null, "province": 901, "district": null, "zipcode": null, "telephone": null, "posDate": null, "destineTel": null, "togoTel": null, "trafficWay": null, "signBuilding": null, "businessArea": null, "selfRoom": null, "businessTime": null, "stall": null, "consume": null, "serviceFei": null, "favourable": null, "shopMemo": "1", "appraise": null, "website": null, "memo": null, "payTypes": "", "shopTypes": "", "consumeTypes": null, "cookTypes": null, "orderNum": null, "card4no": null, "card4noAcc": null, "district2": null, "searchScope": null, "status": null, "address": "", "name": null, "id": null, "pageNo": 33, "pageCount": null, "pageSize": 10, "ids": null, "endTime": null, "startTime": null}, "list": [{"cardNumFive": null, "isSupportYj": null, "cityName": null, "districtName": null, "shopinfo": {"mid": "888002159771039", "good_flag": "2", "new_flag": "2", "short_name": "\u4f70\u8349\u96c6", "short_name_pinyin": "baicaoji", "status": null, "address": null, "name": null, "id": "565224357027119104"}, "mid": "888002159771039", "shopId": "565224357027119104", "netid": null, "province": 901, "district": 601, "zipcode": null, "telephone": null, "posDate": null, "destineTel": null, "togoTel": null, "trafficWay": null, "signBuilding": null, "businessArea": null, "selfRoom": null, "businessTime": null, "stall": null, "consume": null, "serviceFei": null, "favourable": null, "shopMemo": null, "appraise": null, "website": null, "memo": null, "payTypes": "\u6749\u5fb7\u5361,", "shopTypes": null, "consumeTypes": null, "cookTypes": null, "orderNum": null, "card4no": null, "card4noAcc": null, "district2": 404, "searchScope": null, "status": 1, "address": "\u5171\u548c\u65b0\u8def1988\u53f7\u5927\u5b81\u56fd\u96452\u5ea7\u4e00\u697c", "name": "\u5927\u5b81\u5e97", "id": 565224356590911488, "pageNo": 0, "pageCount": null, "pageSize": 10, "ids": null, "endTime": null, "startTime": null}, {"cardNumFive": null, "isSupportYj": null, "cityName": null, "districtName": null, "shopinfo": {"mid": "888002159771039", "good_flag": "2", "new_flag": "2", "short_name": "\u4f70\u8349\u96c6", "short_name_pinyin": "baicaoji", "status": null, "address": null, "name": null, "id": "565224357027119104"}, "mid": "888002159771039", "shopId": "565224357027119104", "netid": null, "province": 901, "district": 601, "zipcode": null, "telephone": null, "posDate": null, "destineTel": null, "togoTel": null, "trafficWay": null, "signBuilding": null, "businessArea": null, "selfRoom": null, "businessTime": null, "stall": null, "consume": null, "serviceFei": null, "favourable": null, "shopMemo": null, "appraise": null, "website": null, "memo": null, "payTypes": "\u6749\u5fb7\u5361,", "shopTypes": null, "consumeTypes": null, "cookTypes": null, "orderNum": null, "card4no": null, "card4noAcc": null, "district2": 407, "searchScope": null, "status": 1, "address": "\u7fd4\u6bb7\u8def1099\u53f7\u5730\u4e0b\u4e00\u5c4252\u53f7", "name": "\u5408\u751f\u5e7f\u573a\u5e97", "id": 565224357203279872, "pageNo": 0, "pageCount": null, "pageSize": 10, "ids": null, "endTime": null, "startTime": null}, {"cardNumFive": null, "isSupportYj": null, "cityName": null, "districtName": null, "shopinfo": {"mid": "888002159771039", "good_flag": "2", "new_flag": "2", "short_name": "\u4f70\u8349\u96c6", "short_name_pinyin": "baicaoji", "status": null, "address": null, "name": null, "id": "565224357027119104"}, "mid": "888002159771039", "shopId": "565224357027119104", "netid": null, "province": 901, "district": 601, "zipcode": null, "telephone": null, "posDate": null, "destineTel": null, "togoTel": null, "trafficWay": null, "signBuilding": null, "businessArea": null, "selfRoom": null, "businessTime": null, "stall": null, "consume": null, "serviceFei": null, "favourable": null, "shopMemo": null, "appraise": null, "website": null, "memo": null, "payTypes": "\u6749\u5fb7\u5361,", "shopTypes": null, "consumeTypes": null, "cookTypes": null, "orderNum": null, "card4no": null, "card4noAcc": null, "district2": 409, "searchScope": null, "status": 1, "address": "\u822a\u5357\u516c\u8def5639\u53f72\u5c42035\u5546\u94fa", "name": "\u5b9d\u9f99\u57ce\u5e02\u5e7f\u573a\u5e97", "id": 565224357572378624, "pageNo": 0, "pageCount": null, "pageSize": 10, "ids": null, "endTime": null, "startTime": null}, {"cardNumFive": null, "isSupportYj": null, "cityName": null, "districtName": null, "shopinfo": {"mid": "888002159771039", "good_flag": "2", "new_flag": "2", "short_name": "\u4f70\u8349\u96c6", "short_name_pinyin": "baicaoji", "status": null, "address": null, "name": null, "id": "565224357027119104"}, "mid": "888002159771039", "shopId": "565224357027119104", "netid": null, "province": 901, "district": 601, "zipcode": null, "telephone": null, "posDate": null, "destineTel": null, "togoTel": null, "trafficWay": null, "signBuilding": null, "businessArea": null, "selfRoom": null, "businessTime": null, "stall": null, "consume": null, "serviceFei": null, "favourable": null, "shopMemo": null, "appraise": null, "website": null, "memo": null, "payTypes": "\u6749\u5fb7\u5361,", "shopTypes": null, "consumeTypes": null, "cookTypes": null, "orderNum": null, "card4no": null, "card4noAcc": null, "district2": 409, "searchScope": null, "status": 1, "address": "\u6caa\u95f5\u8def7388\u53f7\u767e\u8054\u5357\u65b9\u8d2d\u7269\u4e2d\u5fc3F1", "name": "\u5357\u65b9\u5546\u57ce\u5e97", "id": 565224357924700160, "pageNo": 0, "pageCount": null, "pageSize": 10, "ids": null, "endTime": null, "startTime": null}, {"cardNumFive": null, "isSupportYj": null, "cityName": null, "districtName": null, "shopinfo": {"mid": "888002159771039", "good_flag": "2", "new_flag": "2", "short_name": "\u4f70\u8349\u96c6", "short_name_pinyin": "baicaoji", "status": null, "address": null, "name": null, "id": "565224357027119104"}, "mid": "888002159771039", "shopId": "565224357027119104", "netid": null, "province": 901, "district": 601, "zipcode": null, "telephone": null, "posDate": null, "destineTel": null, "togoTel": null, "trafficWay": null, "signBuilding": null, "businessArea": null, "selfRoom": null, "businessTime": null, "stall": null, "consume": null, "serviceFei": null, "favourable": null, "shopMemo": null, "appraise": null, "website": null, "memo": null, "payTypes": "\u6749\u5fb7\u5361,", "shopTypes": null, "consumeTypes": null, "cookTypes": null, "orderNum": null, "card4no": null, "card4noAcc": null, "district2": 406, "searchScope": null, "status": 1, "address": "\u957f\u5b81\u8def1123\u53f7\u957f\u5b81\u6765\u798f\u58eb\u5e7f\u573a(E)B1\u5c4211\u53f7", "name": "\u957f\u5b81\u6765\u798f\u58eb\u5e97", "id": 565224358268633088, "pageNo": 0, "pageCount": null, "pageSize": 10, "ids": null, "endTime": null, "startTime": null}, {"cardNumFive": null, "isSupportYj": null, "cityName": null, "districtName": null, "shopinfo": {"mid": "888888858130030", "good_flag": "2", "new_flag": "2", "short_name": "\u767e\u4e50\u95e8", "short_name_pinyin": "bailemen", "status": null, "address": null, "name": null, "id": "31193"}, "mid": "888888858130030", "shopId": "31193", "netid": null, "province": 901, "district": 601, "zipcode": null, "telephone": "62498866", "posDate": "20080726", "destineTel": null, "togoTel": null, "trafficWay": "\u516c\u4ea493 830 824", "signBuilding": "\u767e\u4e50\u95e8\u821e\u5385", "businessArea": null, "selfRoom": null, "businessTime": "16:00~02:00", "stall": "\u6709", "consume": null, "serviceFei": null, "favourable": null, "shopMemo": null, "appraise": null, "website": null, "memo": null, "payTypes": "\u6749\u5fb7\u5361", "shopTypes": "\u4f11\u95f2", "consumeTypes": null, "cookTypes": null, "orderNum": 1000, "card4no": null, "card4noAcc": null, "district2": 404, "searchScope": null, "status": 1, "address": "\u611a\u56ed\u8def218\u53f7", "name": "\u767e\u4e50\u95e8 \u611a\u56ed\u8def", "id": 132412, "pageNo": 0, "pageCount": null, "pageSize": 10, "ids": null, "endTime": null, "startTime": null}, {"cardNumFive": null, "isSupportYj": null, "cityName": null, "districtName": null, "shopinfo": {"mid": "888002178320015", "good_flag": "2", "new_flag": "2", "short_name": "\u767e\u4e3d\u5bab", "short_name_pinyin": "bailigong", "status": null, "address": null, "name": null, "id": "552801570887041024"}, "mid": "888002178320015", "shopId": "552801570887041024", "netid": null, "province": 901, "district": 601, "zipcode": null, "telephone": null, "posDate": null, "destineTel": null, "togoTel": null, "trafficWay": null, "signBuilding": null, "businessArea": null, "selfRoom": null, "businessTime": null, "stall": null, "consume": null, "serviceFei": null, "favourable": null, "shopMemo": null, "appraise": null, "website": null, "memo": null, "payTypes": "", "shopTypes": null, "consumeTypes": null, "cookTypes": null, "orderNum": null, "card4no": null, "card4noAcc": null, "district2": 401, "searchScope": null, "status": 1, "address": "\u6dee\u6d77\u4e2d\u8def999\u53f7\u73af\u8d38\u5e7f\u573a501", "name": "\u73af\u8d38\u5e7f\u573a\u5e97", "id": 552801570153037824, "pageNo": 0, "pageCount": null, "pageSize": 10, "ids": null, "endTime": null, "startTime": null}, {"cardNumFive": null, "isSupportYj": null, "cityName": null, "districtName": null, "shopinfo": {"mid": "888888853110010", "good_flag": "1", "new_flag": "2", "short_name": "\u767e\u76db", "short_name_pinyin": "baisheng", "status": null, "address": null, "name": null, "id": "31202"}, "mid": "888888853110010", "shopId": "31202", "netid": null, "province": 901, "district": 601, "zipcode": "200021", "telephone": "64158818", "posDate": "20070118", "destineTel": "64158818", "togoTel": "64158818", "trafficWay": "\u5730\u94c11\u53f7\u7ebf\u9655\u897f\u5357\u8def\u7ad92\u53f7\u51fa\u53e3\uff1b\u516c\u4ea4911\uff0c02\uff0c926\uff0c920\uff0c42, 128\u8def\u7b49", "signBuilding": null, "businessArea": "28000\u5e73\u65b9\u7c73", "selfRoom": "\u65e0", "businessTime": "10:30~22:00", "stall": "\u65e0", "consume": null, "serviceFei": null, "favourable": null, "shopMemo": null, "appraise": null, "website": null, "memo": null, "payTypes": "\u6749\u5fb7\u5361   \u5361\u62bc\u91d1\u6d88\u8d39", "shopTypes": "\u767e\u8d27", "consumeTypes": null, "cookTypes": null, "orderNum": 1000, "card4no": null, "card4noAcc": null, "district2": 401, "searchScope": null, "status": 1, "address": "\u6dee\u6d77\u4e2d\u8def918\u53f7", "name": "\u767e\u76db \u6dee\u6d77\u5e97", "id": 132423, "pageNo": 0, "pageCount": null, "pageSize": 10, "ids": null, "endTime": null, "startTime": null}, {"cardNumFive": null, "isSupportYj": null, "cityName": null, "districtName": null, "shopinfo": {"mid": "888888853110082", "good_flag": "1", "new_flag": "2", "short_name": "\u767e\u76db", "short_name_pinyin": "baisheng", "status": null, "address": null, "name": null, "id": "31203"}, "mid": "888888853110082", "shopId": "31203", "netid": null, "province": 901, "district": 601, "zipcode": null, "telephone": "34633388", "posDate": "20081211", "destineTel": null, "togoTel": null, "trafficWay": "\u5730\u94c11\u53f7\u30015\u53f7\u7ebf\u8398\u5e84\u7ad9\uff08\u5357\u5e7f\u573a\u51fa\u53e3\uff09\uff1b\u516c\u4ea4\u5f90\u95f5\u7ebf\u3001\u677e\u8398\u7ebf\u3001\u4e1c\u576a\u7ebf\u3001\u8398\u83cf\u7ebf\u3001\u8398\u6d77\u7ebf", "signBuilding": null, "businessArea": null, "selfRoom": null, "businessTime": null, "stall": null, "consume": null, "serviceFei": null, "favourable": null, "shopMemo": null, "appraise": null, "website": null, "memo": null, "payTypes": "\u6749\u5fb7\u5361   \u5361\u62bc\u91d1\u6d88\u8d39", "shopTypes": "\u767e\u8d27", "consumeTypes": null, "cookTypes": null, "orderNum": 1000, "card4no": null, "card4noAcc": null, "district2": 409, "searchScope": null, "status": 1, "address": "\u90fd\u5e02\u8def5001\u53f7", "name": "\u767e\u76db \u8398\u5e84\u5e97", "id": 132424, "pageNo": 0, "pageCount": null, "pageSize": 10, "ids": null, "endTime": null, "startTime": null}, {"cardNumFive": null, "isSupportYj": null, "cityName": null, "districtName": null, "shopinfo": {"mid": "888002153110156", "good_flag": null, "new_flag": null, "short_name": "\u767e\u76db", "short_name_pinyin": "baisheng", "status": null, "address": null, "name": null, "id": "38702"}, "mid": "888002153110156", "shopId": "38702", "netid": null, "province": 901, "district": 601, "zipcode": null, "telephone": "62298001", "posDate": null, "destineTel": null, "togoTel": null, "trafficWay": null, "signBuilding": null, "businessArea": null, "selfRoom": null, "businessTime": null, "stall": null, "consume": null, "serviceFei": null, "favourable": null, "shopMemo": null, "appraise": null, "website": null, "memo": null, "payTypes": "\u6749\u5fb7\u5361   \u5361\u62bc\u91d1\u6d88\u8d39", "shopTypes": "\u767e\u8d27", "consumeTypes": null, "cookTypes": null, "orderNum": 1000, "card4no": null, "card4noAcc": null, "district2": 406, "searchScope": null, "status": 1, "address": "\u5929\u5c71\u8def789\u53f7", "name": "\u767e\u76db \u5929\u5c71\u5e97", "id": 164128, "pageNo": 0, "pageCount": null, "pageSize": 10, "ids": null, "endTime": null, "startTime": null}], "pageLimit": 330, "size": 10}