{"pageCount": 1095, "count": 10942, "pageNo": 31, "subShopInfo": {"cardNumFive": "", "isSupportYj": "", "cityName": null, "districtName": null, "shopinfo": {"mid": null, "good_flag": null, "new_flag": null, "short_name": null, "short_name_pinyin": null, "status": null, "address": "", "name": "", "id": null}, "mid": null, "shopId": null, "netid": null, "province": 901, "district": null, "zipcode": null, "telephone": null, "posDate": null, "destineTel": null, "togoTel": null, "trafficWay": null, "signBuilding": null, "businessArea": null, "selfRoom": null, "businessTime": null, "stall": null, "consume": null, "serviceFei": null, "favourable": null, "shopMemo": "1", "appraise": null, "website": null, "memo": null, "payTypes": "", "shopTypes": "", "consumeTypes": null, "cookTypes": null, "orderNum": null, "card4no": null, "card4noAcc": null, "district2": null, "searchScope": null, "status": null, "address": "", "name": null, "id": null, "pageNo": 30, "pageCount": null, "pageSize": 10, "ids": null, "endTime": null, "startTime": null}, "list": [{"cardNumFive": null, "isSupportYj": null, "cityName": null, "districtName": null, "shopinfo": {"mid": "888002154410218", "good_flag": null, "new_flag": null, "short_name": "\u6fb3\u95e8\u8389\u83b2\u997c\u5c4b", "short_name_pinyin": "aomenlilianbingwu", "status": null, "address": null, "name": null, "id": "39285"}, "mid": "888002154410218", "shopId": "39285", "netid": null, "province": 901, "district": 601, "zipcode": null, "telephone": "64596325", "posDate": null, "destineTel": null, "togoTel": null, "trafficWay": null, "signBuilding": null, "businessArea": null, "selfRoom": null, "businessTime": null, "stall": null, "consume": null, "serviceFei": null, "favourable": null, "shopMemo": null, "appraise": null, "website": null, "memo": null, "payTypes": "\u6749\u5fb7\u5361", "shopTypes": "\u9762\u5305\u897f\u997c", "consumeTypes": null, "cookTypes": null, "orderNum": 1000, "card4no": null, "card4noAcc": null, "district2": 409, "searchScope": null, "status": 1, "address": "\u4e03\u8398\u8def3655\u53f71\u697c", "name": "\u6fb3\u95e8\u8389\u83b2\u997c\u5c4b \u4e03\u5b9d\u5e97", "id": 168530, "pageNo": 0, "pageCount": null, "pageSize": 10, "ids": null, "endTime": null, "startTime": null}, {"cardNumFive": null, "isSupportYj": null, "cityName": null, "districtName": null, "shopinfo": {"mid": "888002154410218", "good_flag": null, "new_flag": null, "short_name": "\u6fb3\u95e8\u8389\u83b2\u997c\u5c4b", "short_name_pinyin": "aomenlilianbingwu", "status": null, "address": null, "name": null, "id": "39285"}, "mid": "888002154410218", "shopId": "39285", "netid": null, "province": 901, "district": 601, "zipcode": null, "telephone": "63256143", "posDate": null, "destineTel": null, "togoTel": null, "trafficWay": null, "signBuilding": null, "businessArea": null, "selfRoom": null, "businessTime": null, "stall": null, "consume": null, "serviceFei": null, "favourable": null, "shopMemo": null, "appraise": null, "website": null, "memo": null, "payTypes": "\u6749\u5fb7\u5361", "shopTypes": "\u9762\u5305\u897f\u997c", "consumeTypes": null, "cookTypes": null, "orderNum": 1000, "card4no": null, "card4noAcc": null, "district2": 408, "searchScope": null, "status": 1, "address": "\u56db\u5ddd\u5317\u8def1688\u53f7", "name": "\u6fb3\u95e8\u8389\u83b2\u997c\u5c4b \u8679\u53e3\u603b\u5e97", "id": 168531, "pageNo": 0, "pageCount": null, "pageSize": 10, "ids": null, "endTime": null, "startTime": null}, {"cardNumFive": null, "isSupportYj": null, "cityName": null, "districtName": null, "shopinfo": {"mid": "888002154410218", "good_flag": null, "new_flag": null, "short_name": "\u6fb3\u95e8\u8389\u83b2\u997c\u5c4b", "short_name_pinyin": "aomenlilianbingwu", "status": null, "address": null, "name": null, "id": "39285"}, "mid": "888002154410218", "shopId": "39285", "netid": null, "province": 901, "district": 601, "zipcode": null, "telephone": "69000237", "posDate": null, "destineTel": null, "togoTel": null, "trafficWay": null, "signBuilding": null, "businessArea": null, "selfRoom": null, "businessTime": null, "stall": null, "consume": null, "serviceFei": null, "favourable": null, "shopMemo": null, "appraise": null, "website": null, "memo": null, "payTypes": "\u6749\u5fb7\u5361", "shopTypes": "\u9762\u5305\u897f\u997c", "consumeTypes": null, "cookTypes": null, "orderNum": 1000, "card4no": null, "card4noAcc": null, "district2": 411, "searchScope": null, "status": 1, "address": "\u91d1\u6c99\u6c5f\u897f\u8def1063\u53f71\u697c18\u53f7", "name": "\u6fb3\u95e8\u8389\u83b2\u997c\u5c4b \u6c5f\u6865\u5e97", "id": 168532, "pageNo": 0, "pageCount": null, "pageSize": 10, "ids": null, "endTime": null, "startTime": null}, {"cardNumFive": null, "isSupportYj": null, "cityName": null, "districtName": null, "shopinfo": {"mid": "888002154410218", "good_flag": null, "new_flag": null, "short_name": "\u6fb3\u95e8\u8389\u83b2\u997c\u5c4b", "short_name_pinyin": "aomenlilianbingwu", "status": null, "address": null, "name": null, "id": "39285"}, "mid": "888002154410218", "shopId": "39285", "netid": null, "province": 901, "district": 601, "zipcode": null, "telephone": "33536216", "posDate": null, "destineTel": null, "togoTel": null, "trafficWay": null, "signBuilding": null, "businessArea": null, "selfRoom": null, "businessTime": null, "stall": null, "consume": null, "serviceFei": null, "favourable": null, "shopMemo": null, "appraise": null, "website": null, "memo": null, "payTypes": "\u6749\u5fb7\u5361", "shopTypes": "\u9762\u5305\u897f\u997c", "consumeTypes": null, "cookTypes": null, "orderNum": 1000, "card4no": null, "card4noAcc": null, "district2": 404, "searchScope": null, "status": 1, "address": "\u5434\u6c5f\u8def169\u53f7", "name": "\u6fb3\u95e8\u8389\u83b2\u997c\u5c4b \u5434\u6c5f\u8def\u5e97", "id": 168533, "pageNo": 0, "pageCount": null, "pageSize": 10, "ids": null, "endTime": null, "startTime": null}, {"cardNumFive": null, "isSupportYj": null, "cityName": null, "districtName": null, "shopinfo": {"mid": "888002154410218", "good_flag": null, "new_flag": null, "short_name": "\u6fb3\u95e8\u8389\u83b2\u997c\u5c4b", "short_name_pinyin": "aomenlilianbingwu", "status": null, "address": null, "name": null, "id": "39285"}, "mid": "888002154410218", "shopId": "39285", "netid": null, "province": 901, "district": 601, "zipcode": null, "telephone": "68976292", "posDate": null, "destineTel": null, "togoTel": null, "trafficWay": null, "signBuilding": null, "businessArea": null, "selfRoom": null, "businessTime": null, "stall": null, "consume": null, "serviceFei": null, "favourable": null, "shopMemo": null, "appraise": null, "website": null, "memo": null, "payTypes": "\u6749\u5fb7\u5361", "shopTypes": "\u9762\u5305\u897f\u997c", "consumeTypes": null, "cookTypes": null, "orderNum": 1000, "card4no": null, "card4noAcc": null, "district2": 418, "searchScope": null, "status": 1, "address": "\u4e1c\u9756\u8def1881\u53f7", "name": "\u6fb3\u95e8\u8389\u83b2\u997c\u5c4b \u9ad8\u884c\u5e97", "id": 168534, "pageNo": 0, "pageCount": null, "pageSize": 10, "ids": null, "endTime": null, "startTime": null}, {"cardNumFive": null, "isSupportYj": null, "cityName": null, "districtName": null, "shopinfo": {"mid": "888002154410218", "good_flag": null, "new_flag": null, "short_name": "\u6fb3\u95e8\u8389\u83b2\u997c\u5c4b", "short_name_pinyin": "aomenlilianbingwu", "status": null, "address": null, "name": null, "id": "39285"}, "mid": "888002154410218", "shopId": "39285", "netid": null, "province": 901, "district": 601, "zipcode": null, "telephone": "26031000-35177", "posDate": null, "destineTel": null, "togoTel": null, "trafficWay": null, "signBuilding": null, "businessArea": null, "selfRoom": null, "businessTime": null, "stall": null, "consume": null, "serviceFei": null, "favourable": null, "shopMemo": null, "appraise": null, "website": null, "memo": null, "payTypes": "\u6749\u5fb7\u5361", "shopTypes": "\u9762\u5305\u897f\u997c", "consumeTypes": null, "cookTypes": null, "orderNum": 1000, "card4no": null, "card4noAcc": null, "district2": 407, "searchScope": null, "status": 1, "address": "\u8f68\u9053\u4ea4\u901a3\u53f7\u7ebf\u8d64\u5cf0\u7ad92\u697c", "name": "\u6fb3\u95e8\u8389\u83b2\u997c\u5c4b \u8d64\u5cf0\u5e97", "id": 183295, "pageNo": 0, "pageCount": null, "pageSize": 10, "ids": null, "endTime": null, "startTime": null}, {"cardNumFive": null, "isSupportYj": null, "cityName": null, "districtName": null, "shopinfo": {"mid": "888002154410218", "good_flag": null, "new_flag": null, "short_name": "\u6fb3\u95e8\u8389\u83b2\u997c\u5c4b", "short_name_pinyin": "aomenlilianbingwu", "status": null, "address": null, "name": null, "id": "39285"}, "mid": "888002154410218", "shopId": "39285", "netid": null, "province": 901, "district": 601, "zipcode": null, "telephone": "26031198", "posDate": null, "destineTel": null, "togoTel": null, "trafficWay": null, "signBuilding": null, "businessArea": null, "selfRoom": null, "businessTime": null, "stall": null, "consume": null, "serviceFei": null, "favourable": null, "shopMemo": null, "appraise": null, "website": null, "memo": null, "payTypes": "\u6749\u5fb7\u5361", "shopTypes": "\u9762\u5305\u897f\u997c", "consumeTypes": null, "cookTypes": null, "orderNum": 1000, "card4no": null, "card4noAcc": null, "district2": 407, "searchScope": null, "status": 1, "address": "\u8f68\u9053\u4ea4\u901a3\u53f7\u7ebf\u6c5f\u6e7e\u7ad9", "name": "\u6fb3\u95e8\u8389\u83b2\u997c\u5c4b \u6c5f\u6e7e\u8f7b\u8f68\u5e97", "id": 183297, "pageNo": 0, "pageCount": null, "pageSize": 10, "ids": null, "endTime": null, "startTime": null}, {"cardNumFive": null, "isSupportYj": null, "cityName": null, "districtName": null, "shopinfo": {"mid": "888002154410218", "good_flag": null, "new_flag": null, "short_name": "\u6fb3\u95e8\u8389\u83b2\u997c\u5c4b", "short_name_pinyin": "aomenlilianbingwu", "status": null, "address": null, "name": null, "id": "39285"}, "mid": "888002154410218", "shopId": "39285", "netid": null, "province": 901, "district": 601, "zipcode": null, "telephone": "36538222", "posDate": null, "destineTel": null, "togoTel": null, "trafficWay": null, "signBuilding": null, "businessArea": null, "selfRoom": null, "businessTime": null, "stall": null, "consume": null, "serviceFei": null, "favourable": null, "shopMemo": null, "appraise": null, "website": null, "memo": null, "payTypes": "\u6749\u5fb7\u5361", "shopTypes": "\u9762\u5305\u897f\u997c", "consumeTypes": null, "cookTypes": null, "orderNum": 1000, "card4no": null, "card4noAcc": null, "district2": 414, "searchScope": null, "status": 1, "address": "\u91d1\u96f6\u8def10\u5f041\u53f7\u5546\u94fa", "name": "\u6fb3\u95e8\u8389\u83b2\u997c\u5c4b \u91d1\u5c71\u6b65\u884c\u8857\u5e97", "id": 183299, "pageNo": 0, "pageCount": null, "pageSize": 10, "ids": null, "endTime": null, "startTime": null}, {"cardNumFive": null, "isSupportYj": null, "cityName": null, "districtName": null, "shopinfo": {"mid": "888002154410218", "good_flag": null, "new_flag": null, "short_name": "\u6fb3\u95e8\u8389\u83b2\u997c\u5c4b", "short_name_pinyin": "aomenlilianbingwu", "status": null, "address": null, "name": null, "id": "39285"}, "mid": "888002154410218", "shopId": "39285", "netid": null, "province": 901, "district": 601, "zipcode": null, "telephone": null, "posDate": null, "destineTel": null, "togoTel": null, "trafficWay": null, "signBuilding": null, "businessArea": null, "selfRoom": null, "businessTime": null, "stall": null, "consume": null, "serviceFei": null, "favourable": null, "shopMemo": null, "appraise": null, "website": null, "memo": null, "payTypes": "\u6749\u5fb7\u5361", "shopTypes": "\u9762\u5305\u897f\u997c", "consumeTypes": null, "cookTypes": null, "orderNum": 1000, "card4no": null, "card4noAcc": null, "district2": 418, "searchScope": null, "status": 1, "address": "\u4e16\u535a\u5927\u9053\u8def1368\u53f7", "name": "\u6fb3\u95e8\u8389\u83b2\u997c\u5c4b \u4e16\u535a\u6e90\u5e97", "id": 183301, "pageNo": 0, "pageCount": null, "pageSize": 10, "ids": null, "endTime": null, "startTime": null}, {"cardNumFive": null, "isSupportYj": null, "cityName": null, "districtName": null, "shopinfo": {"mid": "888002153110012", "good_flag": "2", "new_flag": "2", "short_name": "\u5965\u7279\u83b1\u65af", "short_name_pinyin": "aotelaisi", "status": null, "address": null, "name": null, "id": "439449393783898112"}, "mid": "888002153110012", "shopId": "439449393783898112", "netid": null, "province": 901, "district": 601, "zipcode": "", "telephone": "", "posDate": "", "destineTel": "", "togoTel": "", "trafficWay": "", "signBuilding": "", "businessArea": "", "selfRoom": "", "businessTime": "", "stall": "", "consume": "", "serviceFei": null, "favourable": "", "shopMemo": "", "appraise": "", "website": "", "memo": "", "payTypes": "\u6749\u5fb7\u5361", "shopTypes": "\u767e\u8d27", "consumeTypes": null, "cookTypes": null, "orderNum": null, "card4no": null, "card4noAcc": null, "district2": 417, "searchScope": null, "status": 1, "address": "\u6caa\u9752\u5e73\u516c\u8def2888\u53f7", "name": "\u5965\u7279\u83b1\u65af", "id": 439449392454303744, "pageNo": 0, "pageCount": null, "pageSize": 10, "ids": null, "endTime": null, "startTime": null}], "pageLimit": 300, "size": 10}