{"pageCount": 1095, "count": 10942, "pageNo": 32, "subShopInfo": {"cardNumFive": "", "isSupportYj": "", "cityName": null, "districtName": null, "shopinfo": {"mid": null, "good_flag": null, "new_flag": null, "short_name": null, "short_name_pinyin": null, "status": null, "address": "", "name": "", "id": null}, "mid": null, "shopId": null, "netid": null, "province": 901, "district": null, "zipcode": null, "telephone": null, "posDate": null, "destineTel": null, "togoTel": null, "trafficWay": null, "signBuilding": null, "businessArea": null, "selfRoom": null, "businessTime": null, "stall": null, "consume": null, "serviceFei": null, "favourable": null, "shopMemo": "1", "appraise": null, "website": null, "memo": null, "payTypes": "", "shopTypes": "", "consumeTypes": null, "cookTypes": null, "orderNum": null, "card4no": null, "card4noAcc": null, "district2": null, "searchScope": null, "status": null, "address": "", "name": null, "id": null, "pageNo": 31, "pageCount": null, "pageSize": 10, "ids": null, "endTime": null, "startTime": null}, "list": [{"cardNumFive": null, "isSupportYj": null, "cityName": null, "districtName": null, "shopinfo": {"mid": "888888857190047", "good_flag": "2", "new_flag": "1", "short_name": "\u6fb3\u897f\u5974", "short_name_pinyin": "aoxinu", "status": null, "address": null, "name": null, "id": "31176"}, "mid": "888888857190047", "shopId": "31176", "netid": null, "province": 901, "district": 601, "zipcode": null, "telephone": null, "posDate": "20100111", "destineTel": null, "togoTel": null, "trafficWay": null, "signBuilding": null, "businessArea": null, "selfRoom": null, "businessTime": null, "stall": null, "consume": null, "serviceFei": null, "favourable": null, "shopMemo": null, "appraise": null, "website": null, "memo": null, "payTypes": "\u6749\u5fb7\u5361", "shopTypes": "\u4e13\u5356", "consumeTypes": null, "cookTypes": null, "orderNum": 1000, "card4no": null, "card4noAcc": null, "district2": 418, "searchScope": null, "status": 1, "address": "\u65b0\u5ddd\u8def727-729-731\u53f7", "name": "\u6fb3\u897f\u5974 \u5ddd\u6c99\u5e97", "id": 132362, "pageNo": 0, "pageCount": null, "pageSize": 10, "ids": null, "endTime": null, "startTime": null}, {"cardNumFive": null, "isSupportYj": null, "cityName": null, "districtName": null, "shopinfo": {"mid": "888888857190047", "good_flag": "2", "new_flag": "1", "short_name": "\u6fb3\u897f\u5974", "short_name_pinyin": "aoxinu", "status": null, "address": null, "name": null, "id": "31176"}, "mid": "888888857190047", "shopId": "31176", "netid": null, "province": 901, "district": 601, "zipcode": null, "telephone": "34073223", "posDate": "20100111", "destineTel": null, "togoTel": null, "trafficWay": null, "signBuilding": null, "businessArea": null, "selfRoom": null, "businessTime": null, "stall": null, "consume": null, "serviceFei": null, "favourable": null, "shopMemo": null, "appraise": null, "website": null, "memo": null, "payTypes": "\u6749\u5fb7\u5361", "shopTypes": "\u4e13\u5356", "consumeTypes": null, "cookTypes": null, "orderNum": 1000, "card4no": null, "card4noAcc": null, "district2": 409, "searchScope": null, "status": 1, "address": "\u6625\u4e2d\u8def368\u53f7\u5e95\u697c", "name": "\u6fb3\u897f\u5974 \u6625\u4e2d\u8def\u516c\u53f8\u5927\u5385\u7279\u5356", "id": 132363, "pageNo": 0, "pageCount": null, "pageSize": 10, "ids": null, "endTime": null, "startTime": null}, {"cardNumFive": null, "isSupportYj": null, "cityName": null, "districtName": null, "shopinfo": {"mid": "888888857190047", "good_flag": "2", "new_flag": "1", "short_name": "\u6fb3\u897f\u5974", "short_name_pinyin": "aoxinu", "status": null, "address": null, "name": null, "id": "31176"}, "mid": "888888857190047", "shopId": "31176", "netid": null, "province": 901, "district": 601, "zipcode": null, "telephone": "55237903", "posDate": "20100111", "destineTel": null, "togoTel": null, "trafficWay": null, "signBuilding": null, "businessArea": null, "selfRoom": null, "businessTime": null, "stall": null, "consume": null, "serviceFei": null, "favourable": null, "shopMemo": null, "appraise": null, "website": null, "memo": null, "payTypes": "\u6749\u5fb7\u5361", "shopTypes": "\u4e13\u5356", "consumeTypes": null, "cookTypes": null, "orderNum": 1000, "card4no": null, "card4noAcc": null, "district2": 407, "searchScope": null, "status": 1, "address": "\u56fd\u987a\u4e1c\u8def232\u53f7", "name": "\u6fb3\u897f\u5974 \u56fd\u987a\u8def\u5e97", "id": 132365, "pageNo": 0, "pageCount": null, "pageSize": 10, "ids": null, "endTime": null, "startTime": null}, {"cardNumFive": null, "isSupportYj": null, "cityName": null, "districtName": null, "shopinfo": {"mid": "888888857190047", "good_flag": "2", "new_flag": "1", "short_name": "\u6fb3\u897f\u5974", "short_name_pinyin": "aoxinu", "status": null, "address": null, "name": null, "id": "31176"}, "mid": "888888857190047", "shopId": "31176", "netid": null, "province": 901, "district": 601, "zipcode": null, "telephone": "32502338", "posDate": "20100111", "destineTel": null, "togoTel": null, "trafficWay": null, "signBuilding": null, "businessArea": null, "selfRoom": null, "businessTime": null, "stall": null, "consume": null, "serviceFei": null, "favourable": null, "shopMemo": null, "appraise": null, "website": null, "memo": null, "payTypes": "\u6749\u5fb7\u5361", "shopTypes": "\u4e13\u5356", "consumeTypes": null, "cookTypes": null, "orderNum": 1000, "card4no": null, "card4noAcc": null, "district2": 406, "searchScope": null, "status": 1, "address": "\u5929\u5c71\u8def919\u53f71\u697c109\u5546\u94fa", "name": "\u6fb3\u897f\u5974 \u8679\u6865\u5929\u90fd\u5e97", "id": 132367, "pageNo": 0, "pageCount": null, "pageSize": 10, "ids": null, "endTime": null, "startTime": null}, {"cardNumFive": null, "isSupportYj": null, "cityName": null, "districtName": null, "shopinfo": {"mid": "888888857190047", "good_flag": "2", "new_flag": "1", "short_name": "\u6fb3\u897f\u5974", "short_name_pinyin": "aoxinu", "status": null, "address": null, "name": null, "id": "31176"}, "mid": "888888857190047", "shopId": "31176", "netid": null, "province": 901, "district": 601, "zipcode": null, "telephone": "65025686", "posDate": "20100111", "destineTel": null, "togoTel": null, "trafficWay": null, "signBuilding": null, "businessArea": null, "selfRoom": null, "businessTime": null, "stall": null, "consume": null, "serviceFei": null, "favourable": null, "shopMemo": null, "appraise": null, "website": null, "memo": null, "payTypes": "\u6749\u5fb7\u5361", "shopTypes": "\u4e13\u5356", "consumeTypes": null, "cookTypes": null, "orderNum": 1000, "card4no": null, "card4noAcc": null, "district2": 408, "searchScope": null, "status": 1, "address": "\u4e34\u5e73\u8def298-300\u53f7", "name": "\u6fb3\u897f\u5974 \u4e34\u5e73\u8def\u5e97", "id": 132368, "pageNo": 0, "pageCount": null, "pageSize": 10, "ids": null, "endTime": null, "startTime": null}, {"cardNumFive": null, "isSupportYj": null, "cityName": null, "districtName": null, "shopinfo": {"mid": "888888857190047", "good_flag": "2", "new_flag": "1", "short_name": "\u6fb3\u897f\u5974", "short_name_pinyin": "aoxinu", "status": null, "address": null, "name": null, "id": "31176"}, "mid": "888888857190047", "shopId": "31176", "netid": null, "province": 901, "district": 601, "zipcode": null, "telephone": "56103259", "posDate": "20100111", "destineTel": null, "togoTel": null, "trafficWay": null, "signBuilding": null, "businessArea": null, "selfRoom": null, "businessTime": null, "stall": null, "consume": null, "serviceFei": null, "favourable": null, "shopMemo": null, "appraise": null, "website": null, "memo": null, "payTypes": "\u6749\u5fb7\u5361", "shopTypes": "\u4e13\u5356", "consumeTypes": null, "cookTypes": null, "orderNum": 1000, "card4no": null, "card4noAcc": null, "district2": 416, "searchScope": null, "status": 1, "address": "\u7261\u4e39\u6c5f\u8def1588\u53f7", "name": "\u6fb3\u897f\u5974 \u7261\u4e39\u6c5f\u8def\u5e97", "id": 132369, "pageNo": 0, "pageCount": null, "pageSize": 10, "ids": null, "endTime": null, "startTime": null}, {"cardNumFive": null, "isSupportYj": null, "cityName": null, "districtName": null, "shopinfo": {"mid": "888888857190047", "good_flag": "2", "new_flag": "1", "short_name": "\u6fb3\u897f\u5974", "short_name_pinyin": "aoxinu", "status": null, "address": null, "name": null, "id": "31176"}, "mid": "888888857190047", "shopId": "31176", "netid": null, "province": 901, "district": 601, "zipcode": null, "telephone": null, "posDate": "20100111", "destineTel": null, "togoTel": null, "trafficWay": null, "signBuilding": null, "businessArea": null, "selfRoom": null, "businessTime": null, "stall": null, "consume": null, "serviceFei": null, "favourable": null, "shopMemo": null, "appraise": null, "website": null, "memo": null, "payTypes": "\u6749\u5fb7\u5361", "shopTypes": "\u4e13\u5356", "consumeTypes": null, "cookTypes": null, "orderNum": 1000, "card4no": null, "card4noAcc": null, "district2": 417, "searchScope": null, "status": 1, "address": "\u9752\u6d66\u57ce\u4e2d\u4e1c\u8def337\u53f7", "name": "\u6fb3\u897f\u5974 \u9752\u6d66\u57ce\u57ce\u4e2d\u4e1c\u8def\u5e97", "id": 132370, "pageNo": 0, "pageCount": null, "pageSize": 10, "ids": null, "endTime": null, "startTime": null}, {"cardNumFive": null, "isSupportYj": null, "cityName": null, "districtName": null, "shopinfo": {"mid": "888888857190047", "good_flag": "2", "new_flag": "1", "short_name": "\u6fb3\u897f\u5974", "short_name_pinyin": "aoxinu", "status": null, "address": null, "name": null, "id": "31176"}, "mid": "888888857190047", "shopId": "31176", "netid": null, "province": 901, "district": 601, "zipcode": null, "telephone": "57719961", "posDate": "20100111", "destineTel": null, "togoTel": null, "trafficWay": null, "signBuilding": null, "businessArea": null, "selfRoom": null, "businessTime": null, "stall": null, "consume": null, "serviceFei": null, "favourable": null, "shopMemo": null, "appraise": null, "website": null, "memo": null, "payTypes": "\u6749\u5fb7\u5361", "shopTypes": "\u4e13\u5356", "consumeTypes": null, "cookTypes": null, "orderNum": 1000, "card4no": null, "card4noAcc": null, "district2": 412, "searchScope": null, "status": 1, "address": "\u677e\u6c5f\u4e2d\u5c71\u4e2d\u8def469-471\u53f7", "name": "\u6fb3\u897f\u5974 \u677e\u6c5f\u5e97", "id": 132371, "pageNo": 0, "pageCount": null, "pageSize": 10, "ids": null, "endTime": null, "startTime": null}, {"cardNumFive": null, "isSupportYj": null, "cityName": null, "districtName": null, "shopinfo": {"mid": "888888857190047", "good_flag": "2", "new_flag": "1", "short_name": "\u6fb3\u897f\u5974", "short_name_pinyin": "aoxinu", "status": null, "address": null, "name": null, "id": "31176"}, "mid": "888888857190047", "shopId": "31176", "netid": null, "province": 901, "district": 601, "zipcode": null, "telephone": "65437096", "posDate": "20100111", "destineTel": null, "togoTel": null, "trafficWay": null, "signBuilding": null, "businessArea": null, "selfRoom": null, "businessTime": null, "stall": null, "consume": null, "serviceFei": null, "favourable": null, "shopMemo": null, "appraise": null, "website": null, "memo": null, "payTypes": "\u6749\u5fb7\u5361", "shopTypes": "\u4e13\u5356", "consumeTypes": null, "cookTypes": null, "orderNum": 1000, "card4no": null, "card4noAcc": null, "district2": 407, "searchScope": null, "status": 1, "address": "\u5ef6\u5409\u4e2d\u8def377\u53f7", "name": "\u6fb3\u897f\u5974 \u5ef6\u5409\u8def\u5e97", "id": 132373, "pageNo": 0, "pageCount": null, "pageSize": 10, "ids": null, "endTime": null, "startTime": null}, {"cardNumFive": null, "isSupportYj": null, "cityName": null, "districtName": null, "shopinfo": {"mid": "888888853990145", "good_flag": "2", "new_flag": "1", "short_name": "\u50b2\u8fd0\u6c47", "short_name_pinyin": "aoyunhui", "status": null, "address": null, "name": null, "id": "31161"}, "mid": "888888853990145", "shopId": "31161", "netid": null, "province": 901, "district": 601, "zipcode": null, "telephone": null, "posDate": "20100118", "destineTel": null, "togoTel": null, "trafficWay": null, "signBuilding": null, "businessArea": null, "selfRoom": null, "businessTime": "10:00~21:00", "stall": null, "consume": null, "serviceFei": null, "favourable": null, "shopMemo": null, "appraise": null, "website": null, "memo": null, "payTypes": "\u6749\u5fb7\u5361", "shopTypes": "\u4e13\u5356", "consumeTypes": null, "cookTypes": null, "orderNum": 1000, "card4no": null, "card4noAcc": null, "district2": 413, "searchScope": null, "status": 1, "address": "\u5949\u8d24\u5357\u6865\u9547\u5357\u4e2d\u8def80\u53f7\u91d1\u53f6\u5927\u53a6\u5730\u4e0b\u4e00\u5c42\u6ed4\u535a\u8fd0\u52a8\u57ce", "name": "\u50b2\u8fd0\u6c47 \u5357\u6865\u91d1\u53f6\u5e97", "id": 132339, "pageNo": 0, "pageCount": null, "pageSize": 10, "ids": null, "endTime": null, "startTime": null}], "pageLimit": 310, "size": 10}