{"pageCount": 1095, "count": 10942, "pageNo": 33, "subShopInfo": {"cardNumFive": "", "isSupportYj": "", "cityName": null, "districtName": null, "shopinfo": {"mid": null, "good_flag": null, "new_flag": null, "short_name": null, "short_name_pinyin": null, "status": null, "address": "", "name": "", "id": null}, "mid": null, "shopId": null, "netid": null, "province": 901, "district": null, "zipcode": null, "telephone": null, "posDate": null, "destineTel": null, "togoTel": null, "trafficWay": null, "signBuilding": null, "businessArea": null, "selfRoom": null, "businessTime": null, "stall": null, "consume": null, "serviceFei": null, "favourable": null, "shopMemo": "1", "appraise": null, "website": null, "memo": null, "payTypes": "", "shopTypes": "", "consumeTypes": null, "cookTypes": null, "orderNum": null, "card4no": null, "card4noAcc": null, "district2": null, "searchScope": null, "status": null, "address": "", "name": null, "id": null, "pageNo": 32, "pageCount": null, "pageSize": 10, "ids": null, "endTime": null, "startTime": null}, "list": [{"cardNumFive": null, "isSupportYj": null, "cityName": null, "districtName": null, "shopinfo": {"mid": "888888859770067", "good_flag": "2", "new_flag": "2", "short_name": "\u4f70\u8349\u96c6", "short_name_pinyin": "baicaoji", "status": null, "address": null, "name": null, "id": "31217"}, "mid": "888888859770067", "shopId": "31217", "netid": null, "province": 901, "district": 601, "zipcode": null, "telephone": "61096965\uff1b25012094", "posDate": "200910", "destineTel": null, "togoTel": null, "trafficWay": null, "signBuilding": null, "businessArea": null, "selfRoom": null, "businessTime": "7:30~20:00", "stall": null, "consume": null, "serviceFei": null, "favourable": null, "shopMemo": null, "appraise": null, "website": null, "memo": null, "payTypes": "\u6749\u5fb7\u5361", "shopTypes": "\u4e13\u5356", "consumeTypes": null, "cookTypes": null, "orderNum": 1000, "card4no": null, "card4noAcc": null, "district2": 418, "searchScope": null, "status": 1, "address": "\u4e1c\u65b9\u8def796\u53f7\u9646\u5bb6\u563496\u5e7f\u573a", "name": "\u4f70\u8349\u96c6 96\u5e7f\u573a\u5e97", "id": 132682, "pageNo": 0, "pageCount": null, "pageSize": 10, "ids": null, "endTime": null, "startTime": null}, {"cardNumFive": null, "isSupportYj": null, "cityName": null, "districtName": null, "shopinfo": {"mid": "888888859770030", "good_flag": "2", "new_flag": "2", "short_name": "\u4f70\u8349\u96c6", "short_name_pinyin": "baicaoji", "status": null, "address": null, "name": null, "id": "31219"}, "mid": "888888859770030", "shopId": "31219", "netid": null, "province": 901, "district": 601, "zipcode": null, "telephone": "59612552", "posDate": null, "destineTel": null, "togoTel": null, "trafficWay": null, "signBuilding": null, "businessArea": "100\u5e73\u65b9\u7c73", "selfRoom": null, "businessTime": "24\u5c0f\u65f6", "stall": null, "consume": null, "serviceFei": null, "favourable": null, "shopMemo": null, "appraise": null, "website": null, "memo": null, "payTypes": "\u6749\u5fb7\u5361", "shopTypes": "\u4e13\u5356", "consumeTypes": null, "cookTypes": null, "orderNum": 1000, "card4no": null, "card4noAcc": null, "district2": 415, "searchScope": null, "status": 1, "address": "\u5bcc\u6c11\u885727\u53f7103", "name": "\u4f70\u8349\u96c6 \u5bcc\u6c11\u8857\u5e97", "id": 132684, "pageNo": 0, "pageCount": null, "pageSize": 10, "ids": null, "endTime": null, "startTime": null}, {"cardNumFive": null, "isSupportYj": null, "cityName": null, "districtName": null, "shopinfo": {"mid": "888888859770067", "good_flag": "2", "new_flag": "2", "short_name": "\u4f70\u8349\u96c6", "short_name_pinyin": "baicaoji", "status": null, "address": null, "name": null, "id": "31217"}, "mid": "888888859770067", "shopId": "31217", "netid": null, "province": 901, "district": 601, "zipcode": null, "telephone": "63404199\uff1b25012094", "posDate": "200910", "destineTel": null, "togoTel": null, "trafficWay": null, "signBuilding": null, "businessArea": null, "selfRoom": null, "businessTime": null, "stall": null, "consume": null, "serviceFei": null, "favourable": null, "shopMemo": null, "appraise": null, "website": null, "memo": null, "payTypes": "\u6749\u5fb7\u5361", "shopTypes": "\u4e13\u5356", "consumeTypes": null, "cookTypes": null, "orderNum": 1000, "card4no": null, "card4noAcc": null, "district2": 401, "searchScope": null, "status": 1, "address": "\u897f\u85cf\u4e2d\u8def268\u53f7L2-SPK4", "name": "\u4f70\u8349\u96c6 \u6765\u798f\u58eb\u5e97", "id": 132687, "pageNo": 0, "pageCount": null, "pageSize": 10, "ids": null, "endTime": null, "startTime": null}, {"cardNumFive": null, "isSupportYj": null, "cityName": null, "districtName": null, "shopinfo": {"mid": "888888859770067", "good_flag": "2", "new_flag": "2", "short_name": "\u4f70\u8349\u96c6", "short_name_pinyin": "baicaoji", "status": null, "address": null, "name": null, "id": "31217"}, "mid": "888888859770067", "shopId": "31217", "netid": null, "province": 901, "district": 601, "zipcode": null, "telephone": "64267300\uff1b25012094", "posDate": "200910", "destineTel": null, "togoTel": null, "trafficWay": null, "signBuilding": null, "businessArea": null, "selfRoom": null, "businessTime": null, "stall": null, "consume": null, "serviceFei": null, "favourable": null, "shopMemo": null, "appraise": null, "website": null, "memo": null, "payTypes": "\u6749\u5fb7\u5361", "shopTypes": "\u4e13\u5356", "consumeTypes": null, "cookTypes": null, "orderNum": 1000, "card4no": null, "card4noAcc": null, "district2": 403, "searchScope": null, "status": 1, "address": "\u8087\u5bb6\u6d5c\u8def1111\u53f72-1B\u5546\u94fa", "name": "\u4f70\u8349\u96c6 \u7f8e\u7f57\u57ce\u5e97", "id": 132689, "pageNo": 0, "pageCount": null, "pageSize": 10, "ids": null, "endTime": null, "startTime": null}, {"cardNumFive": null, "isSupportYj": null, "cityName": null, "districtName": null, "shopinfo": {"mid": "888888859770067", "good_flag": "2", "new_flag": "2", "short_name": "\u4f70\u8349\u96c6", "short_name_pinyin": "baicaoji", "status": null, "address": null, "name": null, "id": "31217"}, "mid": "888888859770067", "shopId": "31217", "netid": null, "province": 901, "district": 601, "zipcode": null, "telephone": "52137005\uff1b25012094", "posDate": "200910", "destineTel": null, "togoTel": null, "trafficWay": null, "signBuilding": null, "businessArea": null, "selfRoom": null, "businessTime": null, "stall": null, "consume": null, "serviceFei": null, "favourable": null, "shopMemo": null, "appraise": null, "website": null, "memo": null, "payTypes": "\u6749\u5fb7\u5361", "shopTypes": "\u4e13\u5356", "consumeTypes": null, "cookTypes": null, "orderNum": 1000, "card4no": null, "card4noAcc": null, "district2": 404, "searchScope": null, "status": 1, "address": "\u5357\u4eac\u897f\u8def866\u53f7", "name": "\u4f70\u8349\u96c6 \u5357\u4eac\u897f\u8def\u5e97", "id": 132691, "pageNo": 0, "pageCount": null, "pageSize": 10, "ids": null, "endTime": null, "startTime": null}, {"cardNumFive": null, "isSupportYj": null, "cityName": null, "districtName": null, "shopinfo": {"mid": "888888859770067", "good_flag": "2", "new_flag": "2", "short_name": "\u4f70\u8349\u96c6", "short_name_pinyin": "baicaoji", "status": null, "address": null, "name": null, "id": "31217"}, "mid": "888888859770067", "shopId": "31217", "netid": null, "province": 901, "district": 601, "zipcode": null, "telephone": "56711603\uff1b25012094", "posDate": "200910", "destineTel": null, "togoTel": null, "trafficWay": null, "signBuilding": null, "businessArea": null, "selfRoom": null, "businessTime": null, "stall": null, "consume": null, "serviceFei": null, "favourable": null, "shopMemo": null, "appraise": null, "website": null, "memo": null, "payTypes": "\u6749\u5fb7\u5361", "shopTypes": "\u4e13\u5356", "consumeTypes": null, "cookTypes": null, "orderNum": 1000, "card4no": null, "card4noAcc": null, "district2": 408, "searchScope": null, "status": 1, "address": "\u56db\u5ddd\u5317\u8def2118\u53f7119\u5546\u94fa", "name": "\u4f70\u8349\u96c6 \u56db\u5ddd\u5317\u8def\u5e97", "id": 132694, "pageNo": 0, "pageCount": null, "pageSize": 10, "ids": null, "endTime": null, "startTime": null}, {"cardNumFive": null, "isSupportYj": null, "cityName": null, "districtName": null, "shopinfo": {"mid": "888888859770067", "good_flag": "2", "new_flag": "2", "short_name": "\u4f70\u8349\u96c6", "short_name_pinyin": "baicaoji", "status": null, "address": null, "name": null, "id": "31217"}, "mid": "888888859770067", "shopId": "31217", "netid": null, "province": 901, "district": 601, "zipcode": null, "telephone": "54481445\uff1b25012094", "posDate": "200910", "destineTel": null, "togoTel": null, "trafficWay": null, "signBuilding": null, "businessArea": null, "selfRoom": null, "businessTime": null, "stall": null, "consume": null, "serviceFei": null, "favourable": null, "shopMemo": null, "appraise": null, "website": null, "memo": null, "payTypes": "\u6749\u5fb7\u5361", "shopTypes": "\u4e13\u5356", "consumeTypes": null, "cookTypes": null, "orderNum": 1000, "card4no": null, "card4noAcc": null, "district2": 403, "searchScope": null, "status": 1, "address": "\u7530\u6797\u8def68\u53f7", "name": "\u4f70\u8349\u96c6 \u7530\u6797\u8def\u5e97", "id": 132696, "pageNo": 0, "pageCount": null, "pageSize": 10, "ids": null, "endTime": null, "startTime": null}, {"cardNumFive": null, "isSupportYj": null, "cityName": null, "districtName": null, "shopinfo": {"mid": "888888859770067", "good_flag": "2", "new_flag": "2", "short_name": "\u4f70\u8349\u96c6", "short_name_pinyin": "baicaoji", "status": null, "address": null, "name": null, "id": "31217"}, "mid": "888888859770067", "shopId": "31217", "netid": null, "province": 901, "district": 601, "zipcode": null, "telephone": "61392152", "posDate": null, "destineTel": null, "togoTel": null, "trafficWay": null, "signBuilding": null, "businessArea": null, "selfRoom": null, "businessTime": null, "stall": null, "consume": null, "serviceFei": null, "favourable": null, "shopMemo": null, "appraise": null, "website": null, "memo": null, "payTypes": "\u6749\u5fb7\u5361", "shopTypes": "\u4e13\u5356", "consumeTypes": null, "cookTypes": null, "orderNum": 1000, "card4no": null, "card4noAcc": null, "district2": 405, "searchScope": null, "status": 1, "address": "\u771f\u5149\u8def1288\u53f7B1\u697c", "name": "\u4f70\u8349\u96c6 \u6885\u5ddd\u5e97", "id": 168501, "pageNo": 0, "pageCount": null, "pageSize": 10, "ids": null, "endTime": null, "startTime": null}, {"cardNumFive": null, "isSupportYj": null, "cityName": null, "districtName": null, "shopinfo": {"mid": "888002159771039", "good_flag": "2", "new_flag": "2", "short_name": "\u4f70\u8349\u96c6", "short_name_pinyin": "baicaoji", "status": null, "address": null, "name": null, "id": "565224357027119104"}, "mid": "888002159771039", "shopId": "565224357027119104", "netid": null, "province": 901, "district": 601, "zipcode": null, "telephone": null, "posDate": null, "destineTel": null, "togoTel": null, "trafficWay": null, "signBuilding": null, "businessArea": null, "selfRoom": null, "businessTime": null, "stall": null, "consume": null, "serviceFei": null, "favourable": null, "shopMemo": null, "appraise": null, "website": null, "memo": null, "payTypes": "\u6749\u5fb7\u5361,", "shopTypes": null, "consumeTypes": null, "cookTypes": null, "orderNum": null, "card4no": null, "card4noAcc": null, "district2": 411, "searchScope": null, "status": 1, "address": "\u91d1\u6c99\u6c5f\u897f\u8def\u6c5f\u6865\u4e07\u8fbe\u767e\u8d27\u4e00\u697c\u4f70\u8349\u96c6", "name": "\u6c5f\u6865\u4e13\u5356\u5e97", "id": 565224355097739264, "pageNo": 0, "pageCount": null, "pageSize": 10, "ids": null, "endTime": null, "startTime": null}, {"cardNumFive": null, "isSupportYj": null, "cityName": null, "districtName": null, "shopinfo": {"mid": "888002159771039", "good_flag": "2", "new_flag": "2", "short_name": "\u4f70\u8349\u96c6", "short_name_pinyin": "baicaoji", "status": null, "address": null, "name": null, "id": "565224357027119104"}, "mid": "888002159771039", "shopId": "565224357027119104", "netid": null, "province": 901, "district": 601, "zipcode": null, "telephone": null, "posDate": null, "destineTel": null, "togoTel": null, "trafficWay": null, "signBuilding": null, "businessArea": null, "selfRoom": null, "businessTime": null, "stall": null, "consume": null, "serviceFei": null, "favourable": null, "shopMemo": null, "appraise": null, "website": null, "memo": null, "payTypes": "\u6749\u5fb7\u5361,", "shopTypes": null, "consumeTypes": null, "cookTypes": null, "orderNum": null, "card4no": null, "card4noAcc": null, "district2": 412, "searchScope": null, "status": 1, "address": "\u5e7f\u5bcc\u6797\u8def678\u53f71123\u5ba4", "name": "\u4e07\u8fbe\u5e97", "id": 565224356246978560, "pageNo": 0, "pageCount": null, "pageSize": 10, "ids": null, "endTime": null, "startTime": null}], "pageLimit": 320, "size": 10}