{"pageCount": 1095, "count": 10942, "pageNo": 30, "subShopInfo": {"cardNumFive": "", "isSupportYj": "", "cityName": null, "districtName": null, "shopinfo": {"mid": null, "good_flag": null, "new_flag": null, "short_name": null, "short_name_pinyin": null, "status": null, "address": "", "name": "", "id": null}, "mid": null, "shopId": null, "netid": null, "province": 901, "district": null, "zipcode": null, "telephone": null, "posDate": null, "destineTel": null, "togoTel": null, "trafficWay": null, "signBuilding": null, "businessArea": null, "selfRoom": null, "businessTime": null, "stall": null, "consume": null, "serviceFei": null, "favourable": null, "shopMemo": "1", "appraise": null, "website": null, "memo": null, "payTypes": "", "shopTypes": "", "consumeTypes": null, "cookTypes": null, "orderNum": null, "card4no": null, "card4noAcc": null, "district2": null, "searchScope": null, "status": null, "address": "", "name": null, "id": null, "pageNo": 29, "pageCount": null, "pageSize": 10, "ids": null, "endTime": null, "startTime": null}, "list": [{"cardNumFive": null, "isSupportYj": null, "cityName": null, "districtName": null, "shopinfo": {"mid": "888002159210003", "good_flag": "2", "new_flag": "2", "short_name": "\u6fb3\u5fb7\u60c5", "short_name_pinyin": "aodeqing", "status": null, "address": null, "name": null, "id": "31167"}, "mid": "888002159210003", "shopId": "31167", "netid": null, "province": 901, "district": 601, "zipcode": null, "telephone": "65390025\u300165431855", "posDate": "200911", "destineTel": null, "togoTel": null, "trafficWay": null, "signBuilding": null, "businessArea": null, "selfRoom": null, "businessTime": null, "stall": null, "consume": null, "serviceFei": null, "favourable": null, "shopMemo": null, "appraise": null, "website": null, "memo": null, "payTypes": "\u6749\u5fb7\u5361", "shopTypes": "\u4e13\u5356", "consumeTypes": null, "cookTypes": null, "orderNum": 1000, "card4no": null, "card4noAcc": null, "district2": 404, "searchScope": null, "status": 1, "address": "\u6cf0\u5dde\u8def200\u53f7", "name": "\u6fb3\u5fb7\u60c5 \u6cf0\u5dde\u8def\u5e97", "id": 132352, "pageNo": 0, "pageCount": null, "pageSize": 10, "ids": null, "endTime": null, "startTime": null}, {"cardNumFive": null, "isSupportYj": null, "cityName": null, "districtName": null, "shopinfo": {"mid": "888888858120589", "good_flag": "2", "new_flag": "2", "short_name": "\u6fb3\u95e8\u8c46\u635e", "short_name_pinyin": "aomendoulao", "status": null, "address": null, "name": null, "id": "31170"}, "mid": "888888858120589", "shopId": "31170", "netid": null, "province": 901, "district": 601, "zipcode": null, "telephone": "33870277", "posDate": "20090206", "destineTel": null, "togoTel": null, "trafficWay": "\u516c\u4ea446 916 \u5730\u94c1\u4e00\u53f7\u7ebf", "signBuilding": null, "businessArea": "500", "selfRoom": null, "businessTime": "9:00~21:00", "stall": "\u6709", "consume": null, "serviceFei": null, "favourable": null, "shopMemo": null, "appraise": null, "website": null, "memo": null, "payTypes": "\u6749\u5fb7\u5361", "shopTypes": "\u9910\u996e", "consumeTypes": null, "cookTypes": null, "orderNum": 1000, "card4no": null, "card4noAcc": null, "district2": 405, "searchScope": null, "status": 1, "address": "\u5171\u548c\u65b0\u8def1978\u53f7C\u533a\u5927\u5b81\u8def\u5927\u5b81\u56fd\u96459\u680b3\u697c", "name": "\u6fb3\u95e8\u8c46\u635e \u5927\u5b81\u56fd\u9645\u5e97", "id": 132355, "pageNo": 0, "pageCount": null, "pageSize": 10, "ids": null, "endTime": null, "startTime": null}, {"cardNumFive": null, "isSupportYj": null, "cityName": null, "districtName": null, "shopinfo": {"mid": "888888858120586", "good_flag": "2", "new_flag": "2", "short_name": "\u6fb3\u95e8\u8c46\u635e", "short_name_pinyin": "aomendoulao", "status": null, "address": null, "name": null, "id": "31174"}, "mid": "888888858120586", "shopId": "31174", "netid": null, "province": 901, "district": 601, "zipcode": null, "telephone": "55669177", "posDate": "20090206", "destineTel": null, "togoTel": null, "trafficWay": "\u516c\u4ea4817 942", "signBuilding": null, "businessArea": null, "selfRoom": null, "businessTime": "9:00~21:30", "stall": "\u6709", "consume": null, "serviceFei": null, "favourable": null, "shopMemo": null, "appraise": null, "website": null, "memo": null, "payTypes": "\u6749\u5fb7\u5361", "shopTypes": "\u9910\u996e", "consumeTypes": null, "cookTypes": null, "orderNum": 1000, "card4no": null, "card4noAcc": null, "district2": 407, "searchScope": null, "status": 1, "address": "\u90af\u90f8\u8def600\u53f7\u4e07\u8fbe\u5e7f\u573a\u7b2c\u4e00\u98df\u54c14\u697c", "name": "\u6fb3\u95e8\u8c46\u635e \u4e07\u8fbe\u5e7f\u573a\u5e97", "id": 132359, "pageNo": 0, "pageCount": null, "pageSize": 10, "ids": null, "endTime": null, "startTime": null}, {"cardNumFive": null, "isSupportYj": null, "cityName": null, "districtName": null, "shopinfo": {"mid": "888888858120629", "good_flag": "2", "new_flag": "2", "short_name": "\u6fb3\u95e8\u8c46\u635e", "short_name_pinyin": "aomendoulao", "status": null, "address": null, "name": null, "id": "31175"}, "mid": "888888858120629", "shopId": "31175", "netid": null, "province": 901, "district": 601, "zipcode": null, "telephone": "52186066", "posDate": null, "destineTel": null, "togoTel": null, "trafficWay": null, "signBuilding": null, "businessArea": null, "selfRoom": null, "businessTime": null, "stall": null, "consume": null, "serviceFei": null, "favourable": null, "shopMemo": null, "appraise": null, "website": null, "memo": null, "payTypes": "\u6749\u5fb7\u5361", "shopTypes": "\u9910\u996e", "consumeTypes": null, "cookTypes": null, "orderNum": 1000, "card4no": null, "card4noAcc": null, "district2": 406, "searchScope": null, "status": 1, "address": "\u4ed9\u971e\u8def88\u53f7\u4ef2\u76db\u91d1\u878d\u4e2d\u5fc3\u4e8c\u697c", "name": "\u6fb3\u95e8\u8c46\u635e \u4ed9\u971e\u8def\u5e97", "id": 132360, "pageNo": 0, "pageCount": null, "pageSize": 10, "ids": null, "endTime": null, "startTime": null}, {"cardNumFive": null, "isSupportYj": null, "cityName": null, "districtName": null, "shopinfo": {"mid": "888888858120587", "good_flag": null, "new_flag": null, "short_name": "\u6fb3\u95e8\u8c46\u635e", "short_name_pinyin": "aomendoulao", "status": null, "address": null, "name": null, "id": "36199"}, "mid": "888888858120587", "shopId": "36199", "netid": null, "province": 901, "district": 601, "zipcode": null, "telephone": "62116277", "posDate": "20100720", "destineTel": null, "togoTel": null, "trafficWay": null, "signBuilding": null, "businessArea": null, "selfRoom": null, "businessTime": null, "stall": null, "consume": null, "serviceFei": null, "favourable": null, "shopMemo": null, "appraise": null, "website": null, "memo": null, "payTypes": "\u6749\u5fb7\u5361", "shopTypes": "\u9910\u996e", "consumeTypes": null, "cookTypes": null, "orderNum": 1000, "card4no": null, "card4noAcc": null, "district2": 406, "searchScope": null, "status": 1, "address": "\u957f\u5b81\u8def1018\u53f7\u9f99\u4e4b\u68a68\u697c", "name": "\u6fb3\u95e8\u8c46\u635e \u9f99\u4e4b\u68a6\u5e97", "id": 150786, "pageNo": 0, "pageCount": null, "pageSize": 10, "ids": null, "endTime": null, "startTime": null}, {"cardNumFive": null, "isSupportYj": null, "cityName": null, "districtName": null, "shopinfo": {"mid": "888002154410218", "good_flag": null, "new_flag": null, "short_name": "\u6fb3\u95e8\u8389\u83b2\u997c\u5c4b", "short_name_pinyin": "aomenlilianbingwu", "status": null, "address": null, "name": null, "id": "39285"}, "mid": "888002154410218", "shopId": "39285", "netid": null, "province": 901, "district": 601, "zipcode": null, "telephone": "51925157", "posDate": null, "destineTel": null, "togoTel": null, "trafficWay": null, "signBuilding": null, "businessArea": null, "selfRoom": null, "businessTime": null, "stall": null, "consume": null, "serviceFei": null, "favourable": null, "shopMemo": null, "appraise": null, "website": null, "memo": null, "payTypes": "\u6749\u5fb7\u5361", "shopTypes": "\u9762\u5305\u897f\u997c", "consumeTypes": null, "cookTypes": null, "orderNum": 1000, "card4no": null, "card4noAcc": null, "district2": 418, "searchScope": null, "status": 1, "address": "\u6d66\u5efa\u8def118\u53f7", "name": "\u6fb3\u95e8\u8389\u83b2\u997c\u5c4b \u6d66\u4e1c\u5df4\u9ece\u6625\u5929\u5e97", "id": 168519, "pageNo": 0, "pageCount": null, "pageSize": 10, "ids": null, "endTime": null, "startTime": null}, {"cardNumFive": null, "isSupportYj": null, "cityName": null, "districtName": null, "shopinfo": {"mid": "888002154410218", "good_flag": null, "new_flag": null, "short_name": "\u6fb3\u95e8\u8389\u83b2\u997c\u5c4b", "short_name_pinyin": "aomenlilianbingwu", "status": null, "address": null, "name": null, "id": "39285"}, "mid": "888002154410218", "shopId": "39285", "netid": null, "province": 901, "district": 601, "zipcode": null, "telephone": "57720582", "posDate": null, "destineTel": null, "togoTel": null, "trafficWay": null, "signBuilding": null, "businessArea": null, "selfRoom": null, "businessTime": null, "stall": null, "consume": null, "serviceFei": null, "favourable": null, "shopMemo": null, "appraise": null, "website": null, "memo": null, "payTypes": "\u6749\u5fb7\u5361", "shopTypes": "\u9762\u5305\u897f\u997c", "consumeTypes": null, "cookTypes": null, "orderNum": 1000, "card4no": null, "card4noAcc": null, "district2": 412, "searchScope": null, "status": 1, "address": "\u5609\u677e\u5357\u8def310\u53f7", "name": "\u6fb3\u95e8\u8389\u83b2\u997c\u5c4b \u5609\u677e\u5357\u8def\u5e97", "id": 168522, "pageNo": 0, "pageCount": null, "pageSize": 10, "ids": null, "endTime": null, "startTime": null}, {"cardNumFive": null, "isSupportYj": null, "cityName": null, "districtName": null, "shopinfo": {"mid": "888002154410218", "good_flag": null, "new_flag": null, "short_name": "\u6fb3\u95e8\u8389\u83b2\u997c\u5c4b", "short_name_pinyin": "aomenlilianbingwu", "status": null, "address": null, "name": null, "id": "39285"}, "mid": "888002154410218", "shopId": "39285", "netid": null, "province": 901, "district": 601, "zipcode": null, "telephone": "56387966", "posDate": null, "destineTel": null, "togoTel": null, "trafficWay": null, "signBuilding": null, "businessArea": null, "selfRoom": null, "businessTime": null, "stall": null, "consume": null, "serviceFei": null, "favourable": null, "shopMemo": null, "appraise": null, "website": null, "memo": null, "payTypes": "\u6749\u5fb7\u5361", "shopTypes": "\u9762\u5305\u897f\u997c", "consumeTypes": null, "cookTypes": null, "orderNum": 1000, "card4no": null, "card4noAcc": null, "district2": 410, "searchScope": null, "status": 1, "address": "\u6d1b\u5ddd\u4e1c\u8def277\u53f7", "name": "\u6fb3\u95e8\u8389\u83b2\u997c\u5c4b \u6d1b\u5ddd\u5e97", "id": 168526, "pageNo": 0, "pageCount": null, "pageSize": 10, "ids": null, "endTime": null, "startTime": null}, {"cardNumFive": null, "isSupportYj": null, "cityName": null, "districtName": null, "shopinfo": {"mid": "888002154410218", "good_flag": null, "new_flag": null, "short_name": "\u6fb3\u95e8\u8389\u83b2\u997c\u5c4b", "short_name_pinyin": "aomenlilianbingwu", "status": null, "address": null, "name": null, "id": "39285"}, "mid": "888002154410218", "shopId": "39285", "netid": null, "province": 901, "district": 601, "zipcode": null, "telephone": "58355017", "posDate": null, "destineTel": null, "togoTel": null, "trafficWay": null, "signBuilding": null, "businessArea": null, "selfRoom": null, "businessTime": null, "stall": null, "consume": null, "serviceFei": null, "favourable": null, "shopMemo": null, "appraise": null, "website": null, "memo": null, "payTypes": "\u6749\u5fb7\u5361", "shopTypes": "\u9762\u5305\u897f\u997c", "consumeTypes": null, "cookTypes": null, "orderNum": 1000, "card4no": null, "card4noAcc": null, "district2": 418, "searchScope": null, "status": 1, "address": "\u5f20\u6768\u8def579\u53f71\u697c", "name": "\u6fb3\u95e8\u8389\u83b2\u997c\u5c4b \u5f20\u6768\u5e97", "id": 168527, "pageNo": 0, "pageCount": null, "pageSize": 10, "ids": null, "endTime": null, "startTime": null}, {"cardNumFive": null, "isSupportYj": null, "cityName": null, "districtName": null, "shopinfo": {"mid": "888002154410218", "good_flag": null, "new_flag": null, "short_name": "\u6fb3\u95e8\u8389\u83b2\u997c\u5c4b", "short_name_pinyin": "aomenlilianbingwu", "status": null, "address": null, "name": null, "id": "39285"}, "mid": "888002154410218", "shopId": "39285", "netid": null, "province": 901, "district": 601, "zipcode": null, "telephone": "56092973", "posDate": null, "destineTel": null, "togoTel": null, "trafficWay": null, "signBuilding": null, "businessArea": null, "selfRoom": null, "businessTime": null, "stall": null, "consume": null, "serviceFei": null, "favourable": null, "shopMemo": null, "appraise": null, "website": null, "memo": null, "payTypes": "\u6749\u5fb7\u5361", "shopTypes": "\u9762\u5305\u897f\u997c", "consumeTypes": null, "cookTypes": null, "orderNum": 1000, "card4no": null, "card4noAcc": null, "district2": 408, "searchScope": null, "status": 1, "address": "\u897f\u6c5f\u6e7e\u8def388\u53f7", "name": "\u6fb3\u95e8\u8389\u83b2\u997c\u5c4b \u8679\u53e3\u9f99\u4e4b\u68a6\u5e97", "id": 168529, "pageNo": 0, "pageCount": null, "pageSize": 10, "ids": null, "endTime": null, "startTime": null}], "pageLimit": 290, "size": 10}