{"pageCount": 1095, "count": 10942, "pageNo": 39, "subShopInfo": {"cardNumFive": "", "isSupportYj": "", "cityName": null, "districtName": null, "shopinfo": {"mid": null, "good_flag": null, "new_flag": null, "short_name": null, "short_name_pinyin": null, "status": null, "address": "", "name": "", "id": null}, "mid": null, "shopId": null, "netid": null, "province": 901, "district": null, "zipcode": null, "telephone": null, "posDate": null, "destineTel": null, "togoTel": null, "trafficWay": null, "signBuilding": null, "businessArea": null, "selfRoom": null, "businessTime": null, "stall": null, "consume": null, "serviceFei": null, "favourable": null, "shopMemo": "1", "appraise": null, "website": null, "memo": null, "payTypes": "", "shopTypes": "", "consumeTypes": null, "cookTypes": null, "orderNum": null, "card4no": null, "card4noAcc": null, "district2": null, "searchScope": null, "status": null, "address": "", "name": null, "id": null, "pageNo": 38, "pageCount": null, "pageSize": 10, "ids": null, "endTime": null, "startTime": null}, "list": [{"cardNumFive": null, "isSupportYj": null, "cityName": null, "districtName": null, "shopinfo": {"mid": "888888854410019", "good_flag": null, "new_flag": null, "short_name": "\u767e\u5473\u6797", "short_name_pinyin": "baiweilin", "status": null, "address": null, "name": null, "id": "31213"}, "mid": "888888854410019", "shopId": "31213", "netid": null, "province": 901, "district": 601, "zipcode": null, "telephone": "8008203001;63362828", "posDate": "20070528", "destineTel": null, "togoTel": null, "trafficWay": null, "signBuilding": null, "businessArea": "10\u5e73\u65b9\u7c73\u5de6\u53f3", "selfRoom": "\u65e0", "businessTime": null, "stall": null, "consume": "10\u5143", "serviceFei": null, "favourable": null, "shopMemo": null, "appraise": null, "website": null, "memo": null, "payTypes": "\u6749\u5fb7\u5361", "shopTypes": "\u96f6\u552e,\u4f11\u95f2", "consumeTypes": null, "cookTypes": null, "orderNum": 1000, "card4no": null, "card4noAcc": null, "district2": 413, "searchScope": null, "status": 1, "address": "\u5858\u5916\u9547\u891a\u805a\u8def60-1\u53f7", "name": "\u767e\u5473\u6797 \u5949\u8d24\u5858\u5916\u9547\u5e97", "id": 132492, "pageNo": 0, "pageCount": null, "pageSize": 10, "ids": null, "endTime": null, "startTime": null}, {"cardNumFive": null, "isSupportYj": null, "cityName": null, "districtName": null, "shopinfo": {"mid": "888888854410019", "good_flag": null, "new_flag": null, "short_name": "\u767e\u5473\u6797", "short_name_pinyin": "baiweilin", "status": null, "address": null, "name": null, "id": "31213"}, "mid": "888888854410019", "shopId": "31213", "netid": null, "province": 901, "district": 601, "zipcode": null, "telephone": "8008203001;63362828", "posDate": "20080613", "destineTel": null, "togoTel": null, "trafficWay": null, "signBuilding": null, "businessArea": null, "selfRoom": null, "businessTime": null, "stall": null, "consume": null, "serviceFei": null, "favourable": null, "shopMemo": null, "appraise": null, "website": null, "memo": null, "payTypes": "\u6749\u5fb7\u5361", "shopTypes": "\u96f6\u552e,\u4f11\u95f2", "consumeTypes": null, "cookTypes": null, "orderNum": 1000, "card4no": null, "card4noAcc": null, "district2": 413, "searchScope": null, "status": 1, "address": "\u5934\u6865\u4e2d\u8def110\u53f7", "name": "\u767e\u5473\u6797 \u5949\u8d24\u5934\u6865\u4e8c\u5e97", "id": 132493, "pageNo": 0, "pageCount": null, "pageSize": 10, "ids": null, "endTime": null, "startTime": null}, {"cardNumFive": null, "isSupportYj": null, "cityName": null, "districtName": null, "shopinfo": {"mid": "888888854410019", "good_flag": null, "new_flag": null, "short_name": "\u767e\u5473\u6797", "short_name_pinyin": "baiweilin", "status": null, "address": null, "name": null, "id": "31213"}, "mid": "888888854410019", "shopId": "31213", "netid": null, "province": 901, "district": 601, "zipcode": null, "telephone": "8008203001;63362828", "posDate": "20070820", "destineTel": null, "togoTel": null, "trafficWay": "\u5858\u6d2a\u7ebf \u8398\u56e2\u7ebf", "signBuilding": null, "businessArea": null, "selfRoom": null, "businessTime": null, "stall": null, "consume": null, "serviceFei": null, "favourable": null, "shopMemo": null, "appraise": null, "website": null, "memo": null, "payTypes": "\u6749\u5fb7\u5361", "shopTypes": "\u96f6\u552e,\u4f11\u95f2", "consumeTypes": null, "cookTypes": null, "orderNum": 1000, "card4no": null, "card4noAcc": null, "district2": 413, "searchScope": null, "status": 1, "address": "\u5934\u6865\u9547\u5934\u6865\u4e1c\u8def652\u53f7", "name": "\u767e\u5473\u6797 \u5949\u8d24\u5934\u6865\u9547\u5e97", "id": 132494, "pageNo": 0, "pageCount": null, "pageSize": 10, "ids": null, "endTime": null, "startTime": null}, {"cardNumFive": null, "isSupportYj": null, "cityName": null, "districtName": null, "shopinfo": {"mid": "888002154411144", "good_flag": "2", "new_flag": "1", "short_name": "\u767e\u5473\u6797", "short_name_pinyin": "baiweilin", "status": null, "address": null, "name": null, "id": "31214"}, "mid": "888002154411144", "shopId": "31214", "netid": null, "province": 901, "district": 601, "zipcode": null, "telephone": null, "posDate": "20100202", "destineTel": null, "togoTel": null, "trafficWay": null, "signBuilding": null, "businessArea": null, "selfRoom": null, "businessTime": null, "stall": null, "consume": null, "serviceFei": null, "favourable": null, "shopMemo": null, "appraise": null, "website": null, "memo": null, "payTypes": "\u6749\u5fb7\u5361", "shopTypes": "\u96f6\u552e,\u4f11\u95f2", "consumeTypes": null, "cookTypes": null, "orderNum": 1000, "card4no": null, "card4noAcc": null, "district2": 406, "searchScope": null, "status": 1, "address": "\u957f\u5b81\u533a\u8299\u84c9\u6c5f\u8def381\u53f7", "name": "\u767e\u5473\u6797 \u8299\u84c9\u6c5f\u8def\u5e97", "id": 132495, "pageNo": 0, "pageCount": null, "pageSize": 10, "ids": null, "endTime": null, "startTime": null}, {"cardNumFive": null, "isSupportYj": null, "cityName": null, "districtName": null, "shopinfo": {"mid": "888888854410019", "good_flag": null, "new_flag": null, "short_name": "\u767e\u5473\u6797", "short_name_pinyin": "baiweilin", "status": null, "address": null, "name": null, "id": "31213"}, "mid": "888888854410019", "shopId": "31213", "netid": null, "province": 901, "district": 601, "zipcode": null, "telephone": "8008203001;63362828", "posDate": "20070524", "destineTel": null, "togoTel": null, "trafficWay": "\u516c\u4ea4971", "signBuilding": null, "businessArea": "10\u5e73\u65b9\u7c73\u5de6\u53f3", "selfRoom": null, "businessTime": null, "stall": "\u65e0", "consume": "10\u5143", "serviceFei": null, "favourable": null, "shopMemo": null, "appraise": null, "website": null, "memo": null, "payTypes": "\u6749\u5fb7\u5361", "shopTypes": "\u96f6\u552e,\u4f11\u95f2", "consumeTypes": null, "cookTypes": null, "orderNum": 1000, "card4no": null, "card4noAcc": null, "district2": 418, "searchScope": null, "status": 1, "address": "\u9ad8\u6865\u6e05\u6eaa\u8def289\u53f7", "name": "\u767e\u5473\u6797 \u9ad8\u6865\u6e05\u6eaa\u8def\u5e97", "id": 132498, "pageNo": 0, "pageCount": null, "pageSize": 10, "ids": null, "endTime": null, "startTime": null}, {"cardNumFive": null, "isSupportYj": null, "cityName": null, "districtName": null, "shopinfo": {"mid": "888888854410019", "good_flag": null, "new_flag": null, "short_name": "\u767e\u5473\u6797", "short_name_pinyin": "baiweilin", "status": null, "address": null, "name": null, "id": "31213"}, "mid": "888888854410019", "shopId": "31213", "netid": null, "province": 901, "district": 601, "zipcode": null, "telephone": "8008203001;63362828", "posDate": "20090117", "destineTel": null, "togoTel": null, "trafficWay": "\u516c\u4ea4118\u8def04\u8def110\u8def", "signBuilding": null, "businessArea": null, "selfRoom": null, "businessTime": null, "stall": null, "consume": null, "serviceFei": null, "favourable": null, "shopMemo": null, "appraise": null, "website": null, "memo": null, "payTypes": "\u6749\u5fb7\u5361", "shopTypes": "\u96f6\u552e,\u4f11\u95f2", "consumeTypes": null, "cookTypes": null, "orderNum": 1000, "card4no": null, "card4noAcc": null, "district2": 407, "searchScope": null, "status": 1, "address": "\u5171\u5eb7\u4e1c\u8def283\u53f7", "name": "\u767e\u5473\u6797 \u5171\u5eb7\u4e1c\u8def\u5e97", "id": 132500, "pageNo": 0, "pageCount": null, "pageSize": 10, "ids": null, "endTime": null, "startTime": null}, {"cardNumFive": null, "isSupportYj": null, "cityName": null, "districtName": null, "shopinfo": {"mid": "888888854410019", "good_flag": null, "new_flag": null, "short_name": "\u767e\u5473\u6797", "short_name_pinyin": "baiweilin", "status": null, "address": null, "name": null, "id": "31213"}, "mid": "888888854410019", "shopId": "31213", "netid": null, "province": 901, "district": 601, "zipcode": null, "telephone": null, "posDate": "20100118", "destineTel": null, "togoTel": null, "trafficWay": null, "signBuilding": null, "businessArea": null, "selfRoom": null, "businessTime": null, "stall": null, "consume": null, "serviceFei": null, "favourable": null, "shopMemo": null, "appraise": null, "website": null, "memo": null, "payTypes": "\u6749\u5fb7\u5361", "shopTypes": "\u96f6\u552e,\u4f11\u95f2", "consumeTypes": null, "cookTypes": null, "orderNum": 1000, "card4no": null, "card4noAcc": null, "district2": 416, "searchScope": null, "status": 1, "address": "\u5b9d\u5c71\u53e4\u83b2\u8def358\u5f04\u4f11\u95f2\u8857B\u533a-11\u53f7", "name": "\u767e\u5473\u6797 \u53e4\u83b2\u8def\u5e97", "id": 132501, "pageNo": 0, "pageCount": null, "pageSize": 10, "ids": null, "endTime": null, "startTime": null}, {"cardNumFive": null, "isSupportYj": null, "cityName": null, "districtName": null, "shopinfo": {"mid": "888888854410019", "good_flag": null, "new_flag": null, "short_name": "\u767e\u5473\u6797", "short_name_pinyin": "baiweilin", "status": null, "address": null, "name": null, "id": "31213"}, "mid": "888888854410019", "shopId": "31213", "netid": null, "province": 901, "district": 601, "zipcode": null, "telephone": null, "posDate": "20100628", "destineTel": null, "togoTel": null, "trafficWay": null, "signBuilding": null, "businessArea": null, "selfRoom": null, "businessTime": null, "stall": null, "consume": null, "serviceFei": null, "favourable": null, "shopMemo": null, "appraise": null, "website": null, "memo": null, "payTypes": "\u6749\u5fb7\u5361", "shopTypes": "\u96f6\u552e,\u4f11\u95f2", "consumeTypes": null, "cookTypes": null, "orderNum": 1000, "card4no": null, "card4noAcc": null, "district2": 412, "searchScope": null, "status": 1, "address": "\u8c37\u9633\u5357\u8def40\u53f7", "name": "\u767e\u5473\u6797 \u8c37\u9633\u8def\u5e97", "id": 132502, "pageNo": 0, "pageCount": null, "pageSize": 10, "ids": null, "endTime": null, "startTime": null}, {"cardNumFive": null, "isSupportYj": null, "cityName": null, "districtName": null, "shopinfo": {"mid": "888888854410019", "good_flag": null, "new_flag": null, "short_name": "\u767e\u5473\u6797", "short_name_pinyin": "baiweilin", "status": null, "address": null, "name": null, "id": "31213"}, "mid": "888888854410019", "shopId": "31213", "netid": null, "province": 901, "district": 601, "zipcode": null, "telephone": "8008203001;63362828", "posDate": "20080729", "destineTel": null, "togoTel": null, "trafficWay": null, "signBuilding": null, "businessArea": null, "selfRoom": null, "businessTime": null, "stall": null, "consume": null, "serviceFei": null, "favourable": null, "shopMemo": null, "appraise": null, "website": null, "memo": null, "payTypes": "\u6749\u5fb7\u5361", "shopTypes": "\u96f6\u552e,\u4f11\u95f2", "consumeTypes": null, "cookTypes": null, "orderNum": 1000, "card4no": null, "card4noAcc": null, "district2": 416, "searchScope": null, "status": 1, "address": "\u6c34\u4ea7\u897f\u8def1028\u53f7", "name": "\u767e\u5473\u6797 \u987e\u6625\u5e97", "id": 132503, "pageNo": 0, "pageCount": null, "pageSize": 10, "ids": null, "endTime": null, "startTime": null}, {"cardNumFive": null, "isSupportYj": null, "cityName": null, "districtName": null, "shopinfo": {"mid": "888888854410019", "good_flag": null, "new_flag": null, "short_name": "\u767e\u5473\u6797", "short_name_pinyin": "baiweilin", "status": null, "address": null, "name": null, "id": "31213"}, "mid": "888888854410019", "shopId": "31213", "netid": null, "province": 901, "district": 601, "zipcode": null, "telephone": "8008203001;63362828", "posDate": "20090117", "destineTel": null, "togoTel": null, "trafficWay": "\u516c\u4ea4\u5468\u5eb72\u8def451\u8def", "signBuilding": null, "businessArea": null, "selfRoom": null, "businessTime": null, "stall": null, "consume": null, "serviceFei": null, "favourable": null, "shopMemo": null, "appraise": null, "website": null, "memo": null, "payTypes": "\u6749\u5fb7\u5361", "shopTypes": "\u96f6\u552e,\u4f11\u95f2", "consumeTypes": null, "cookTypes": null, "orderNum": 1000, "card4no": null, "card4noAcc": null, "district2": 418, "searchScope": null, "status": 1, "address": "\u5468\u6d66\u9547\u5173\u5cb3\u8def156\u53f7", "name": "\u767e\u5473\u6797 \u5173\u5cb3\u8def\u5e97", "id": 132504, "pageNo": 0, "pageCount": null, "pageSize": 10, "ids": null, "endTime": null, "startTime": null}], "pageLimit": 380, "size": 10}