{"pageCount": 1095, "count": 10942, "pageNo": 48, "subShopInfo": {"cardNumFive": "", "isSupportYj": "", "cityName": null, "districtName": null, "shopinfo": {"mid": null, "good_flag": null, "new_flag": null, "short_name": null, "short_name_pinyin": null, "status": null, "address": "", "name": "", "id": null}, "mid": null, "shopId": null, "netid": null, "province": 901, "district": null, "zipcode": null, "telephone": null, "posDate": null, "destineTel": null, "togoTel": null, "trafficWay": null, "signBuilding": null, "businessArea": null, "selfRoom": null, "businessTime": null, "stall": null, "consume": null, "serviceFei": null, "favourable": null, "shopMemo": "1", "appraise": null, "website": null, "memo": null, "payTypes": "", "shopTypes": "", "consumeTypes": null, "cookTypes": null, "orderNum": null, "card4no": null, "card4noAcc": null, "district2": null, "searchScope": null, "status": null, "address": "", "name": null, "id": null, "pageNo": 47, "pageCount": null, "pageSize": 10, "ids": null, "endTime": null, "startTime": null}, "list": [{"cardNumFive": null, "isSupportYj": null, "cityName": null, "districtName": null, "shopinfo": {"mid": "888888854410019", "good_flag": null, "new_flag": null, "short_name": "\u767e\u5473\u6797", "short_name_pinyin": "baiweilin", "status": null, "address": null, "name": null, "id": "31213"}, "mid": "888888854410019", "shopId": "31213", "netid": null, "province": 901, "district": 601, "zipcode": null, "telephone": "8008203001;63362828", "posDate": "20080418", "destineTel": null, "togoTel": null, "trafficWay": "\u516c\u4ea4\u677e\u9f99\u7ebf \u6caa\u677e\u7ebf", "signBuilding": null, "businessArea": null, "selfRoom": null, "businessTime": null, "stall": null, "consume": null, "serviceFei": null, "favourable": null, "shopMemo": null, "appraise": null, "website": null, "memo": null, "payTypes": "\u6749\u5fb7\u5361", "shopTypes": "\u96f6\u552e,\u4f11\u95f2", "consumeTypes": null, "cookTypes": null, "orderNum": 1000, "card4no": null, "card4noAcc": null, "district2": 412, "searchScope": null, "status": 1, "address": "\u4eba\u6c11\u5317\u8def68\u53f7", "name": "\u767e\u5473\u6797 \u677e\u6c5f\u4eba\u6c11\u5317\u8def\u5e97", "id": 132616, "pageNo": 0, "pageCount": null, "pageSize": 10, "ids": null, "endTime": null, "startTime": null}, {"cardNumFive": null, "isSupportYj": null, "cityName": null, "districtName": null, "shopinfo": {"mid": "888888854410019", "good_flag": null, "new_flag": null, "short_name": "\u767e\u5473\u6797", "short_name_pinyin": "baiweilin", "status": null, "address": null, "name": null, "id": "31213"}, "mid": "888888854410019", "shopId": "31213", "netid": null, "province": 901, "district": 601, "zipcode": null, "telephone": "8008203001;63362828", "posDate": "20070820", "destineTel": null, "togoTel": null, "trafficWay": "\u516c\u4ea4581 \u5f90\u5ddd\u7ebf", "signBuilding": null, "businessArea": null, "selfRoom": null, "businessTime": null, "stall": null, "consume": null, "serviceFei": null, "favourable": null, "shopMemo": null, "appraise": null, "website": null, "memo": null, "payTypes": "\u6749\u5fb7\u5361", "shopTypes": "\u96f6\u552e,\u4f11\u95f2", "consumeTypes": null, "cookTypes": null, "orderNum": 1000, "card4no": null, "card4noAcc": null, "district2": 412, "searchScope": null, "status": 1, "address": "\u65b0\u6865\u9547\u4e2d\u5fc3\u8def34\u53f7", "name": "\u767e\u5473\u6797 \u677e\u6c5f\u65b0\u6865\u9547\u5e97", "id": 132617, "pageNo": 0, "pageCount": null, "pageSize": 10, "ids": null, "endTime": null, "startTime": null}, {"cardNumFive": null, "isSupportYj": null, "cityName": null, "districtName": null, "shopinfo": {"mid": "888888854410019", "good_flag": null, "new_flag": null, "short_name": "\u767e\u5473\u6797", "short_name_pinyin": "baiweilin", "status": null, "address": null, "name": null, "id": "31213"}, "mid": "888888854410019", "shopId": "31213", "netid": null, "province": 901, "district": 601, "zipcode": null, "telephone": "8008203001;63362828", "posDate": "20071205", "destineTel": null, "togoTel": null, "trafficWay": null, "signBuilding": null, "businessArea": null, "selfRoom": null, "businessTime": null, "stall": null, "consume": null, "serviceFei": null, "favourable": null, "shopMemo": null, "appraise": null, "website": null, "memo": null, "payTypes": "\u6749\u5fb7\u5361", "shopTypes": "\u96f6\u552e,\u4f11\u95f2", "consumeTypes": null, "cookTypes": null, "orderNum": 1000, "card4no": null, "card4noAcc": null, "district2": 416, "searchScope": null, "status": 1, "address": "\u5434\u51c7\u9547\u51c7\u6ee8\u8def189\u53f7", "name": "\u767e\u5473\u6797 \u51c7\u6ee8\u8def\u5e97", "id": 132618, "pageNo": 0, "pageCount": null, "pageSize": 10, "ids": null, "endTime": null, "startTime": null}, {"cardNumFive": null, "isSupportYj": null, "cityName": null, "districtName": null, "shopinfo": {"mid": "888888854410019", "good_flag": null, "new_flag": null, "short_name": "\u767e\u5473\u6797", "short_name_pinyin": "baiweilin", "status": null, "address": null, "name": null, "id": "31213"}, "mid": "888888854410019", "shopId": "31213", "netid": null, "province": 901, "district": 601, "zipcode": null, "telephone": null, "posDate": "20100525", "destineTel": null, "togoTel": null, "trafficWay": null, "signBuilding": null, "businessArea": null, "selfRoom": null, "businessTime": null, "stall": null, "consume": null, "serviceFei": null, "favourable": null, "shopMemo": null, "appraise": null, "website": null, "memo": null, "payTypes": "\u6749\u5fb7\u5361", "shopTypes": "\u96f6\u552e,\u4f11\u95f2", "consumeTypes": null, "cookTypes": null, "orderNum": 1000, "card4no": null, "card4noAcc": null, "district2": 411, "searchScope": null, "status": 1, "address": "\u5854\u57ce\u8def327\u53f7", "name": "\u767e\u5473\u6797 \u5854\u57ce\u8def\u5e97", "id": 132619, "pageNo": 0, "pageCount": null, "pageSize": 10, "ids": null, "endTime": null, "startTime": null}, {"cardNumFive": null, "isSupportYj": null, "cityName": null, "districtName": null, "shopinfo": {"mid": "888888854410019", "good_flag": null, "new_flag": null, "short_name": "\u767e\u5473\u6797", "short_name_pinyin": "baiweilin", "status": null, "address": null, "name": null, "id": "31213"}, "mid": "888888854410019", "shopId": "31213", "netid": null, "province": 901, "district": 601, "zipcode": null, "telephone": "8008203001;63362828", "posDate": "20070820", "destineTel": null, "togoTel": null, "trafficWay": "\u65c5\u6e3810\u53f7\u7ebf \u516c\u4ea4123", "signBuilding": null, "businessArea": null, "selfRoom": null, "businessTime": null, "stall": null, "consume": null, "serviceFei": null, "favourable": null, "shopMemo": null, "appraise": null, "website": null, "memo": null, "payTypes": "\u6749\u5fb7\u5361", "shopTypes": "\u96f6\u552e,\u4f11\u95f2", "consumeTypes": null, "cookTypes": null, "orderNum": 1000, "card4no": null, "card4noAcc": null, "district2": 408, "searchScope": null, "status": 1, "address": "\u5858\u6cbd\u8def401\u53f7", "name": "\u767e\u5473\u6797 \u5858\u6cbd\u8def\u5e97", "id": 132621, "pageNo": 0, "pageCount": null, "pageSize": 10, "ids": null, "endTime": null, "startTime": null}, {"cardNumFive": null, "isSupportYj": null, "cityName": null, "districtName": null, "shopinfo": {"mid": "888888854410019", "good_flag": null, "new_flag": null, "short_name": "\u767e\u5473\u6797", "short_name_pinyin": "baiweilin", "status": null, "address": null, "name": null, "id": "31213"}, "mid": "888888854410019", "shopId": "31213", "netid": null, "province": 901, "district": 601, "zipcode": null, "telephone": null, "posDate": "20100709", "destineTel": null, "togoTel": null, "trafficWay": null, "signBuilding": null, "businessArea": null, "selfRoom": null, "businessTime": null, "stall": null, "consume": null, "serviceFei": null, "favourable": null, "shopMemo": null, "appraise": null, "website": null, "memo": null, "payTypes": "\u6749\u5fb7\u5361", "shopTypes": "\u96f6\u552e,\u4f11\u95f2", "consumeTypes": null, "cookTypes": null, "orderNum": 1000, "card4no": null, "card4noAcc": null, "district2": 407, "searchScope": null, "status": 1, "address": "\u6768\u6d66\u533a\u901a\u6cb3\u8def", "name": "\u767e\u5473\u6797 \u901a\u6cb3\u8def\u534e\u8054\u5409\u4e70\u76db\u5e97", "id": 132624, "pageNo": 0, "pageCount": null, "pageSize": 10, "ids": null, "endTime": null, "startTime": null}, {"cardNumFive": null, "isSupportYj": null, "cityName": null, "districtName": null, "shopinfo": {"mid": "888888854410019", "good_flag": null, "new_flag": null, "short_name": "\u767e\u5473\u6797", "short_name_pinyin": "baiweilin", "status": null, "address": null, "name": null, "id": "31213"}, "mid": "888888854410019", "shopId": "31213", "netid": null, "province": 901, "district": 601, "zipcode": null, "telephone": "8008203001;63362828", "posDate": "20070521", "destineTel": null, "togoTel": null, "trafficWay": "\u65c5\u6e385\u53f7\u7ebf 952B\u7ebf", "signBuilding": null, "businessArea": "10\u5e73\u65b9\u7c73\u5de6\u53f3", "selfRoom": null, "businessTime": null, "stall": "\u65e0", "consume": "10\u5143", "serviceFei": null, "favourable": null, "shopMemo": null, "appraise": null, "website": null, "memo": null, "payTypes": "\u6749\u5fb7\u5361", "shopTypes": "\u96f6\u552e,\u4f11\u95f2", "consumeTypes": null, "cookTypes": null, "orderNum": 1000, "card4no": null, "card4noAcc": null, "district2": 416, "searchScope": null, "status": 1, "address": "\u540c\u6cf0\u5317\u8def138\u53f7", "name": "\u767e\u5473\u6797 \u540c\u6cf0\u5317\u8def\u5e97", "id": 132625, "pageNo": 0, "pageCount": null, "pageSize": 10, "ids": null, "endTime": null, "startTime": null}, {"cardNumFive": null, "isSupportYj": null, "cityName": null, "districtName": null, "shopinfo": {"mid": "888888854410019", "good_flag": null, "new_flag": null, "short_name": "\u767e\u5473\u6797", "short_name_pinyin": "baiweilin", "status": null, "address": null, "name": null, "id": "31213"}, "mid": "888888854410019", "shopId": "31213", "netid": null, "province": 901, "district": 601, "zipcode": null, "telephone": null, "posDate": "200911", "destineTel": null, "togoTel": null, "trafficWay": null, "signBuilding": null, "businessArea": null, "selfRoom": null, "businessTime": null, "stall": null, "consume": null, "serviceFei": null, "favourable": null, "shopMemo": null, "appraise": null, "website": null, "memo": null, "payTypes": "\u6749\u5fb7\u5361", "shopTypes": "\u96f6\u552e,\u4f11\u95f2", "consumeTypes": null, "cookTypes": null, "orderNum": 1000, "card4no": null, "card4noAcc": null, "district2": 409, "searchScope": null, "status": 1, "address": "\u56fe\u95e8\u8def23\u53f7-1", "name": "\u767e\u5473\u6797 \u56fe\u95e8\u8def\u5e97", "id": 132626, "pageNo": 0, "pageCount": null, "pageSize": 10, "ids": null, "endTime": null, "startTime": null}, {"cardNumFive": null, "isSupportYj": null, "cityName": null, "districtName": null, "shopinfo": {"mid": "888888854410019", "good_flag": null, "new_flag": null, "short_name": "\u767e\u5473\u6797", "short_name_pinyin": "baiweilin", "status": null, "address": null, "name": null, "id": "31213"}, "mid": "888888854410019", "shopId": "31213", "netid": null, "province": 901, "district": 601, "zipcode": null, "telephone": "8008203001;63362828", "posDate": "20080513", "destineTel": null, "togoTel": null, "trafficWay": "\u516c\u4ea4\u5357\u4e09\u7ebf \u9f99\u4e1c\u4e13\u7ebf", "signBuilding": null, "businessArea": null, "selfRoom": null, "businessTime": null, "stall": null, "consume": null, "serviceFei": null, "favourable": null, "shopMemo": null, "appraise": null, "website": null, "memo": null, "payTypes": "\u6749\u5fb7\u5361", "shopTypes": "\u96f6\u552e,\u4f11\u95f2", "consumeTypes": null, "cookTypes": null, "orderNum": 1000, "card4no": null, "card4noAcc": null, "district2": 418, "searchScope": null, "status": 1, "address": "\u5357\u6c47\u4e07\u7965\u9547\u4e09\u4e09\u516c\u8def131\u53f7", "name": "\u767e\u5473\u6797 \u4e07\u7965\u5e97", "id": 132628, "pageNo": 0, "pageCount": null, "pageSize": 10, "ids": null, "endTime": null, "startTime": null}, {"cardNumFive": null, "isSupportYj": null, "cityName": null, "districtName": null, "shopinfo": {"mid": "888888854410019", "good_flag": null, "new_flag": null, "short_name": "\u767e\u5473\u6797", "short_name_pinyin": "baiweilin", "status": null, "address": null, "name": null, "id": "31213"}, "mid": "888888854410019", "shopId": "31213", "netid": null, "province": 901, "district": 601, "zipcode": null, "telephone": "8008203001;63362828", "posDate": "20070524", "destineTel": null, "togoTel": null, "trafficWay": "\u516c\u4ea4938 454 451", "signBuilding": null, "businessArea": "10\u5e73\u65b9\u7c73\u5de6\u53f3", "selfRoom": "\u65e0", "businessTime": null, "stall": null, "consume": "10\u5143", "serviceFei": null, "favourable": null, "shopMemo": null, "appraise": null, "website": null, "memo": null, "payTypes": "\u6749\u5fb7\u5361", "shopTypes": "\u96f6\u552e,\u4f11\u95f2", "consumeTypes": null, "cookTypes": null, "orderNum": 1000, "card4no": null, "card4noAcc": null, "district2": 418, "searchScope": null, "status": 1, "address": "\u6f4d\u574a\u8def81\u53f7", "name": "\u767e\u5473\u6797 \u6f4d\u574a\u8def\u5e97", "id": 132630, "pageNo": 0, "pageCount": null, "pageSize": 10, "ids": null, "endTime": null, "startTime": null}], "pageLimit": 470, "size": 10}