{"pageCount": 1095, "count": 10942, "pageNo": 46, "subShopInfo": {"cardNumFive": "", "isSupportYj": "", "cityName": null, "districtName": null, "shopinfo": {"mid": null, "good_flag": null, "new_flag": null, "short_name": null, "short_name_pinyin": null, "status": null, "address": "", "name": "", "id": null}, "mid": null, "shopId": null, "netid": null, "province": 901, "district": null, "zipcode": null, "telephone": null, "posDate": null, "destineTel": null, "togoTel": null, "trafficWay": null, "signBuilding": null, "businessArea": null, "selfRoom": null, "businessTime": null, "stall": null, "consume": null, "serviceFei": null, "favourable": null, "shopMemo": "1", "appraise": null, "website": null, "memo": null, "payTypes": "", "shopTypes": "", "consumeTypes": null, "cookTypes": null, "orderNum": null, "card4no": null, "card4noAcc": null, "district2": null, "searchScope": null, "status": null, "address": "", "name": null, "id": null, "pageNo": 45, "pageCount": null, "pageSize": 10, "ids": null, "endTime": null, "startTime": null}, "list": [{"cardNumFive": null, "isSupportYj": null, "cityName": null, "districtName": null, "shopinfo": {"mid": "888888854410019", "good_flag": null, "new_flag": null, "short_name": "\u767e\u5473\u6797", "short_name_pinyin": "baiweilin", "status": null, "address": null, "name": null, "id": "31213"}, "mid": "888888854410019", "shopId": "31213", "netid": null, "province": 901, "district": 601, "zipcode": null, "telephone": "8008203001;63362828", "posDate": "20070820", "destineTel": null, "togoTel": null, "trafficWay": "\u516c\u4ea4451 \u65c5\u6e382\u53f7\u7ebf", "signBuilding": null, "businessArea": null, "selfRoom": null, "businessTime": null, "stall": null, "consume": null, "serviceFei": null, "favourable": null, "shopMemo": null, "appraise": null, "website": null, "memo": null, "payTypes": "\u6749\u5fb7\u5361", "shopTypes": "\u96f6\u552e,\u4f11\u95f2", "consumeTypes": null, "cookTypes": null, "orderNum": 1000, "card4no": null, "card4noAcc": null, "district2": 418, "searchScope": null, "status": 1, "address": "\u5317\u8521\u9547\u5317\u4e2d\u8def256\u53f7", "name": "\u767e\u5473\u6797 \u6d66\u4e1c\u65b0\u533a\u5317\u8521\u9547\u5e97", "id": 132590, "pageNo": 0, "pageCount": null, "pageSize": 10, "ids": null, "endTime": null, "startTime": null}, {"cardNumFive": null, "isSupportYj": null, "cityName": null, "districtName": null, "shopinfo": {"mid": "888888854410019", "good_flag": null, "new_flag": null, "short_name": "\u767e\u5473\u6797", "short_name_pinyin": "baiweilin", "status": null, "address": null, "name": null, "id": "31213"}, "mid": "888888854410019", "shopId": "31213", "netid": null, "province": 901, "district": 601, "zipcode": null, "telephone": null, "posDate": "20100202", "destineTel": null, "togoTel": null, "trafficWay": null, "signBuilding": null, "businessArea": null, "selfRoom": null, "businessTime": null, "stall": null, "consume": null, "serviceFei": null, "favourable": null, "shopMemo": null, "appraise": null, "website": null, "memo": null, "payTypes": "\u6749\u5fb7\u5361", "shopTypes": "\u96f6\u552e,\u4f11\u95f2", "consumeTypes": null, "cookTypes": null, "orderNum": 1000, "card4no": null, "card4noAcc": null, "district2": 417, "searchScope": null, "status": 1, "address": "\u9752\u6d66\u533a\u9752\u5b89\u8def129\u53f7", "name": "\u767e\u5473\u6797 \u9752\u5b89\u8def\u5e97", "id": 132593, "pageNo": 0, "pageCount": null, "pageSize": 10, "ids": null, "endTime": null, "startTime": null}, {"cardNumFive": null, "isSupportYj": null, "cityName": null, "districtName": null, "shopinfo": {"mid": "888002154411144", "good_flag": "2", "new_flag": "1", "short_name": "\u767e\u5473\u6797", "short_name_pinyin": "baiweilin", "status": null, "address": null, "name": null, "id": "31214"}, "mid": "888002154411144", "shopId": "31214", "netid": null, "province": 901, "district": 601, "zipcode": null, "telephone": null, "posDate": "20100202", "destineTel": null, "togoTel": null, "trafficWay": null, "signBuilding": null, "businessArea": null, "selfRoom": null, "businessTime": null, "stall": null, "consume": null, "serviceFei": null, "favourable": null, "shopMemo": null, "appraise": null, "website": null, "memo": null, "payTypes": "\u6749\u5fb7\u5361", "shopTypes": "\u96f6\u552e,\u4f11\u95f2", "consumeTypes": null, "cookTypes": null, "orderNum": 1000, "card4no": null, "card4noAcc": null, "district2": 409, "searchScope": null, "status": 1, "address": "\u95f5\u884c\u533a\u9752\u5e74\u8def300\u53f7", "name": "\u767e\u5473\u6797 \u9752\u5e74\u8def\u5e97", "id": 132594, "pageNo": 0, "pageCount": null, "pageSize": 10, "ids": null, "endTime": null, "startTime": null}, {"cardNumFive": null, "isSupportYj": null, "cityName": null, "districtName": null, "shopinfo": {"mid": "888888854410019", "good_flag": null, "new_flag": null, "short_name": "\u767e\u5473\u6797", "short_name_pinyin": "baiweilin", "status": null, "address": null, "name": null, "id": "31213"}, "mid": "888888854410019", "shopId": "31213", "netid": null, "province": 901, "district": 601, "zipcode": null, "telephone": "8008203001;63362828", "posDate": "20070820", "destineTel": null, "togoTel": null, "trafficWay": "\u5357\u9752\u7ebf \u677e\u9752\u7ebf", "signBuilding": null, "businessArea": null, "selfRoom": null, "businessTime": null, "stall": null, "consume": null, "serviceFei": null, "favourable": null, "shopMemo": null, "appraise": null, "website": null, "memo": null, "payTypes": "\u6749\u5fb7\u5361", "shopTypes": "\u96f6\u552e,\u4f11\u95f2", "consumeTypes": null, "cookTypes": null, "orderNum": 1000, "card4no": null, "card4noAcc": null, "district2": 417, "searchScope": null, "status": 1, "address": "\u57ce\u4e2d\u4e1c\u8def201\u53f7", "name": "\u767e\u5473\u6797 \u9752\u6d66\u57ce\u4e2d\u4e1c\u8def\u4e8c\u5e97", "id": 132595, "pageNo": 0, "pageCount": null, "pageSize": 10, "ids": null, "endTime": null, "startTime": null}, {"cardNumFive": null, "isSupportYj": null, "cityName": null, "districtName": null, "shopinfo": {"mid": "888888854410019", "good_flag": null, "new_flag": null, "short_name": "\u767e\u5473\u6797", "short_name_pinyin": "baiweilin", "status": null, "address": null, "name": null, "id": "31213"}, "mid": "888888854410019", "shopId": "31213", "netid": null, "province": 901, "district": 601, "zipcode": null, "telephone": "8008203001;63362828", "posDate": "20070522", "destineTel": null, "togoTel": null, "trafficWay": "\u77f3\u9752\u7ebf \u5357\u9752\u7ebf", "signBuilding": null, "businessArea": "10\u5e73\u65b9\u7c73\u5de6\u53f3", "selfRoom": null, "businessTime": null, "stall": "\u65e0", "consume": "10\u5143", "serviceFei": null, "favourable": null, "shopMemo": null, "appraise": null, "website": null, "memo": null, "payTypes": "\u6749\u5fb7\u5361", "shopTypes": "\u96f6\u552e,\u4f11\u95f2", "consumeTypes": null, "cookTypes": null, "orderNum": 1000, "card4no": null, "card4noAcc": null, "district2": 417, "searchScope": null, "status": 1, "address": "\u57ce\u4e2d\u4e1c\u8def372\u53f7", "name": "\u767e\u5473\u6797 \u9752\u6d66\u57ce\u4e2d\u8def\u5e97", "id": 132596, "pageNo": 0, "pageCount": null, "pageSize": 10, "ids": null, "endTime": null, "startTime": null}, {"cardNumFive": null, "isSupportYj": null, "cityName": null, "districtName": null, "shopinfo": {"mid": "888888854410019", "good_flag": null, "new_flag": null, "short_name": "\u767e\u5473\u6797", "short_name_pinyin": "baiweilin", "status": null, "address": null, "name": null, "id": "31213"}, "mid": "888888854410019", "shopId": "31213", "netid": null, "province": 901, "district": 601, "zipcode": null, "telephone": "8008203001;63362828", "posDate": "20071224", "destineTel": null, "togoTel": null, "trafficWay": "\u4e0a\u6731\u7ebf \u4e0a\u6731\u7ebf\u533a\u95f4", "signBuilding": null, "businessArea": null, "selfRoom": null, "businessTime": null, "stall": null, "consume": null, "serviceFei": null, "favourable": null, "shopMemo": null, "appraise": null, "website": null, "memo": null, "payTypes": "\u6749\u5fb7\u5361", "shopTypes": "\u96f6\u552e,\u4f11\u95f2", "consumeTypes": null, "cookTypes": null, "orderNum": 1000, "card4no": null, "card4noAcc": null, "district2": 417, "searchScope": null, "status": 1, "address": "\u6d66\u4ed3\u8def753\u53f7", "name": "\u767e\u5473\u6797 \u9752\u6d66\u6d66\u4ed3\u8def\u5e97", "id": 132597, "pageNo": 0, "pageCount": null, "pageSize": 10, "ids": null, "endTime": null, "startTime": null}, {"cardNumFive": null, "isSupportYj": null, "cityName": null, "districtName": null, "shopinfo": {"mid": "888888854410019", "good_flag": null, "new_flag": null, "short_name": "\u767e\u5473\u6797", "short_name_pinyin": "baiweilin", "status": null, "address": null, "name": null, "id": "31213"}, "mid": "888888854410019", "shopId": "31213", "netid": null, "province": 901, "district": 601, "zipcode": null, "telephone": "8008203001;63362828", "posDate": "20070524", "destineTel": null, "togoTel": null, "trafficWay": "\u516c\u4ea4985 \u5730\u94c1\u4e8c\u53f7\u7ebf \u96a7\u9053\u4e09\u7ebf", "signBuilding": null, "businessArea": "10\u5e73\u65b9\u7c73\u5de6\u53f3", "selfRoom": "\u65e0", "businessTime": null, "stall": null, "consume": "10\u5143", "serviceFei": null, "favourable": null, "shopMemo": null, "appraise": null, "website": null, "memo": null, "payTypes": "\u6749\u5fb7\u5361", "shopTypes": "\u96f6\u552e,\u4f11\u95f2", "consumeTypes": null, "cookTypes": null, "orderNum": 1000, "card4no": null, "card4noAcc": null, "district2": 418, "searchScope": null, "status": 1, "address": "\u4e73\u5c71\u8def75\u53f7", "name": "\u767e\u5473\u6797 \u4e73\u5c71\u8def\u5e97", "id": 132599, "pageNo": 0, "pageCount": null, "pageSize": 10, "ids": null, "endTime": null, "startTime": null}, {"cardNumFive": null, "isSupportYj": null, "cityName": null, "districtName": null, "shopinfo": {"mid": "888888854410019", "good_flag": null, "new_flag": null, "short_name": "\u767e\u5473\u6797", "short_name_pinyin": "baiweilin", "status": null, "address": null, "name": null, "id": "31213"}, "mid": "888888854410019", "shopId": "31213", "netid": null, "province": 901, "district": 601, "zipcode": null, "telephone": null, "posDate": "20100111", "destineTel": null, "togoTel": null, "trafficWay": null, "signBuilding": null, "businessArea": null, "selfRoom": null, "businessTime": null, "stall": null, "consume": null, "serviceFei": null, "favourable": null, "shopMemo": null, "appraise": null, "website": null, "memo": null, "payTypes": "\u6749\u5fb7\u5361", "shopTypes": "\u96f6\u552e,\u4f11\u95f2", "consumeTypes": null, "cookTypes": null, "orderNum": 1000, "card4no": null, "card4noAcc": null, "district2": 401, "searchScope": null, "status": 1, "address": "\u745e\u91d1\u4e8c\u8def181\u53f7\uff0812\u5ea7\uff09", "name": "\u767e\u5473\u6797 \u745e\u91d1\u4e8c\u8def\u5e97", "id": 132600, "pageNo": 0, "pageCount": null, "pageSize": 10, "ids": null, "endTime": null, "startTime": null}, {"cardNumFive": null, "isSupportYj": null, "cityName": null, "districtName": null, "shopinfo": {"mid": "888888854410019", "good_flag": null, "new_flag": null, "short_name": "\u767e\u5473\u6797", "short_name_pinyin": "baiweilin", "status": null, "address": null, "name": null, "id": "31213"}, "mid": "888888854410019", "shopId": "31213", "netid": null, "province": 901, "district": 601, "zipcode": null, "telephone": null, "posDate": "200911", "destineTel": null, "togoTel": null, "trafficWay": null, "signBuilding": null, "businessArea": null, "selfRoom": null, "businessTime": null, "stall": null, "consume": null, "serviceFei": null, "favourable": null, "shopMemo": null, "appraise": null, "website": null, "memo": null, "payTypes": "\u6749\u5fb7\u5361", "shopTypes": "\u96f6\u552e,\u4f11\u95f2", "consumeTypes": null, "cookTypes": null, "orderNum": 1000, "card4no": null, "card4noAcc": null, "district2": 417, "searchScope": null, "status": 1, "address": "\u5546\u8521\u8def7\u53f7", "name": "\u767e\u5473\u6797 \u5546\u8521\u5e97", "id": 132602, "pageNo": 0, "pageCount": null, "pageSize": 10, "ids": null, "endTime": null, "startTime": null}, {"cardNumFive": null, "isSupportYj": null, "cityName": null, "districtName": null, "shopinfo": {"mid": "888888854410019", "good_flag": null, "new_flag": null, "short_name": "\u767e\u5473\u6797", "short_name_pinyin": "baiweilin", "status": null, "address": null, "name": null, "id": "31213"}, "mid": "888888854410019", "shopId": "31213", "netid": null, "province": 901, "district": 601, "zipcode": null, "telephone": null, "posDate": "20071123", "destineTel": null, "togoTel": null, "trafficWay": "\u516c\u4ea4973 \u4e07\u91ce\u7ebf", "signBuilding": null, "businessArea": null, "selfRoom": null, "businessTime": null, "stall": null, "consume": null, "serviceFei": null, "favourable": null, "shopMemo": null, "appraise": null, "website": null, "memo": null, "payTypes": "\u6749\u5fb7\u5361", "shopTypes": "\u4f11\u95f2,\u96f6\u552e", "consumeTypes": null, "cookTypes": null, "orderNum": 1000, "card4no": null, "card4noAcc": null, "district2": 418, "searchScope": null, "status": 1, "address": "\u4e0a\u6d66\u8def371\uff0d375\u53f7", "name": "\u767e\u5473\u6797 \u4e0a\u6d66\u8def\u5e97", "id": 132603, "pageNo": 0, "pageCount": null, "pageSize": 10, "ids": null, "endTime": null, "startTime": null}], "pageLimit": 450, "size": 10}