{"pageCount": 1095, "count": 10942, "pageNo": 59, "subShopInfo": {"cardNumFive": "", "isSupportYj": "", "cityName": null, "districtName": null, "shopinfo": {"mid": null, "good_flag": null, "new_flag": null, "short_name": null, "short_name_pinyin": null, "status": null, "address": "", "name": "", "id": null}, "mid": null, "shopId": null, "netid": null, "province": 901, "district": null, "zipcode": null, "telephone": null, "posDate": null, "destineTel": null, "togoTel": null, "trafficWay": null, "signBuilding": null, "businessArea": null, "selfRoom": null, "businessTime": null, "stall": null, "consume": null, "serviceFei": null, "favourable": null, "shopMemo": "1", "appraise": null, "website": null, "memo": null, "payTypes": "", "shopTypes": "", "consumeTypes": null, "cookTypes": null, "orderNum": null, "card4no": null, "card4noAcc": null, "district2": null, "searchScope": null, "status": null, "address": "", "name": null, "id": null, "pageNo": 58, "pageCount": null, "pageSize": 10, "ids": null, "endTime": null, "startTime": null}, "list": [{"cardNumFive": null, "isSupportYj": null, "cityName": null, "districtName": null, "shopinfo": {"mid": "888888854410019", "good_flag": null, "new_flag": null, "short_name": "\u767e\u5473\u6797", "short_name_pinyin": "baiweilin", "status": null, "address": null, "name": null, "id": "38124"}, "mid": "888888854410019", "shopId": "38124", "netid": null, "province": 901, "district": 601, "zipcode": null, "telephone": null, "posDate": null, "destineTel": null, "togoTel": null, "trafficWay": null, "signBuilding": null, "businessArea": null, "selfRoom": null, "businessTime": null, "stall": null, "consume": null, "serviceFei": null, "favourable": null, "shopMemo": null, "appraise": null, "website": null, "memo": null, "payTypes": "\u6749\u5fb7\u5361", "shopTypes": "\u96f6\u552e", "consumeTypes": null, "cookTypes": null, "orderNum": 1000, "card4no": null, "card4noAcc": null, "district2": 416, "searchScope": null, "status": 1, "address": "\u957f\u4e34\u8def18\u53f7", "name": "\u767e\u5473\u6797 \u957f\u4e34\u5e97", "id": 162261, "pageNo": 0, "pageCount": null, "pageSize": 10, "ids": null, "endTime": null, "startTime": null}, {"cardNumFive": null, "isSupportYj": null, "cityName": null, "districtName": null, "shopinfo": {"mid": "888888854410019", "good_flag": null, "new_flag": null, "short_name": "\u767e\u5473\u6797", "short_name_pinyin": "baiweilin", "status": null, "address": null, "name": null, "id": "38124"}, "mid": "888888854410019", "shopId": "38124", "netid": null, "province": 901, "district": 601, "zipcode": null, "telephone": null, "posDate": null, "destineTel": null, "togoTel": null, "trafficWay": null, "signBuilding": null, "businessArea": null, "selfRoom": null, "businessTime": null, "stall": null, "consume": null, "serviceFei": null, "favourable": null, "shopMemo": null, "appraise": null, "website": null, "memo": null, "payTypes": "\u6749\u5fb7\u5361", "shopTypes": "\u96f6\u552e", "consumeTypes": null, "cookTypes": null, "orderNum": 1000, "card4no": null, "card4noAcc": null, "district2": 408, "searchScope": null, "status": 1, "address": "\u8f66\u7ad9\u5317\u8def458\u53f7", "name": "\u767e\u5473\u6797 \u8f66\u7ad9\u5317\u8def\u5e97", "id": 162262, "pageNo": 0, "pageCount": null, "pageSize": 10, "ids": null, "endTime": null, "startTime": null}, {"cardNumFive": null, "isSupportYj": null, "cityName": null, "districtName": null, "shopinfo": {"mid": "888888854410019", "good_flag": null, "new_flag": null, "short_name": "\u767e\u5473\u6797", "short_name_pinyin": "baiweilin", "status": null, "address": null, "name": null, "id": "38124"}, "mid": "888888854410019", "shopId": "38124", "netid": null, "province": 901, "district": 601, "zipcode": null, "telephone": null, "posDate": null, "destineTel": null, "togoTel": null, "trafficWay": null, "signBuilding": null, "businessArea": null, "selfRoom": null, "businessTime": null, "stall": null, "consume": null, "serviceFei": null, "favourable": null, "shopMemo": null, "appraise": null, "website": null, "memo": null, "payTypes": "\u6749\u5fb7\u5361", "shopTypes": "\u96f6\u552e", "consumeTypes": null, "cookTypes": null, "orderNum": 1000, "card4no": null, "card4noAcc": null, "district2": 415, "searchScope": null, "status": 1, "address": "\u5d07\u660e\u516b\u4e00\u8def633\u53f7", "name": "\u767e\u5473\u6797 \u5d07\u660e\u516b\u4e00\u4e8c\u5e97", "id": 162263, "pageNo": 0, "pageCount": null, "pageSize": 10, "ids": null, "endTime": null, "startTime": null}, {"cardNumFive": null, "isSupportYj": null, "cityName": null, "districtName": null, "shopinfo": {"mid": "888888854410019", "good_flag": null, "new_flag": null, "short_name": "\u767e\u5473\u6797", "short_name_pinyin": "baiweilin", "status": null, "address": null, "name": null, "id": "38124"}, "mid": "888888854410019", "shopId": "38124", "netid": null, "province": 901, "district": 601, "zipcode": null, "telephone": null, "posDate": null, "destineTel": null, "togoTel": null, "trafficWay": null, "signBuilding": null, "businessArea": null, "selfRoom": null, "businessTime": null, "stall": null, "consume": null, "serviceFei": null, "favourable": null, "shopMemo": null, "appraise": null, "website": null, "memo": null, "payTypes": "\u6749\u5fb7\u5361", "shopTypes": "\u96f6\u552e", "consumeTypes": null, "cookTypes": null, "orderNum": 1000, "card4no": null, "card4noAcc": null, "district2": 415, "searchScope": null, "status": 1, "address": "\u5d07\u660e\u5de5\u519c\u8def149\u53f7", "name": "\u767e\u5473\u6797 \u5d07\u660e\u5821\u9547\u519c\u5de5\u5546\u5e97", "id": 162264, "pageNo": 0, "pageCount": null, "pageSize": 10, "ids": null, "endTime": null, "startTime": null}, {"cardNumFive": null, "isSupportYj": null, "cityName": null, "districtName": null, "shopinfo": {"mid": "888888854410019", "good_flag": null, "new_flag": null, "short_name": "\u767e\u5473\u6797", "short_name_pinyin": "baiweilin", "status": null, "address": null, "name": null, "id": "38124"}, "mid": "888888854410019", "shopId": "38124", "netid": null, "province": 901, "district": 601, "zipcode": null, "telephone": null, "posDate": null, "destineTel": null, "togoTel": null, "trafficWay": null, "signBuilding": null, "businessArea": null, "selfRoom": null, "businessTime": null, "stall": null, "consume": null, "serviceFei": null, "favourable": null, "shopMemo": null, "appraise": null, "website": null, "memo": null, "payTypes": "\u6749\u5fb7\u5361", "shopTypes": "\u96f6\u552e", "consumeTypes": null, "cookTypes": null, "orderNum": 1000, "card4no": null, "card4noAcc": null, "district2": 407, "searchScope": null, "status": 1, "address": "\u6253\u864e\u5c71\u8def74\u53f7", "name": "\u767e\u5473\u6797 \u6253\u864e\u5c71\u8054\u534e\u8d85\u5e02\u5e97", "id": 162265, "pageNo": 0, "pageCount": null, "pageSize": 10, "ids": null, "endTime": null, "startTime": null}, {"cardNumFive": null, "isSupportYj": null, "cityName": null, "districtName": null, "shopinfo": {"mid": "888888854410019", "good_flag": null, "new_flag": null, "short_name": "\u767e\u5473\u6797", "short_name_pinyin": "baiweilin", "status": null, "address": null, "name": null, "id": "38124"}, "mid": "888888854410019", "shopId": "38124", "netid": null, "province": 901, "district": 601, "zipcode": null, "telephone": null, "posDate": null, "destineTel": null, "togoTel": null, "trafficWay": null, "signBuilding": null, "businessArea": null, "selfRoom": null, "businessTime": null, "stall": null, "consume": null, "serviceFei": null, "favourable": null, "shopMemo": null, "appraise": null, "website": null, "memo": null, "payTypes": "\u6749\u5fb7\u5361", "shopTypes": "\u96f6\u552e", "consumeTypes": null, "cookTypes": null, "orderNum": 1000, "card4no": null, "card4noAcc": null, "district2": 408, "searchScope": null, "status": 1, "address": "\u4e1c\u5b9d\u5174\u8def\u8f7b\u8f68\u7ad9A-1", "name": "\u767e\u5473\u6797 \u4e1c\u5b9d\u5174\u5e97", "id": 162266, "pageNo": 0, "pageCount": null, "pageSize": 10, "ids": null, "endTime": null, "startTime": null}, {"cardNumFive": null, "isSupportYj": null, "cityName": null, "districtName": null, "shopinfo": {"mid": "888888854410019", "good_flag": null, "new_flag": null, "short_name": "\u767e\u5473\u6797", "short_name_pinyin": "baiweilin", "status": null, "address": null, "name": null, "id": "38124"}, "mid": "888888854410019", "shopId": "38124", "netid": null, "province": 901, "district": 601, "zipcode": null, "telephone": null, "posDate": null, "destineTel": null, "togoTel": null, "trafficWay": null, "signBuilding": null, "businessArea": null, "selfRoom": null, "businessTime": null, "stall": null, "consume": null, "serviceFei": null, "favourable": null, "shopMemo": null, "appraise": null, "website": null, "memo": null, "payTypes": "\u6749\u5fb7\u5361", "shopTypes": "\u96f6\u552e", "consumeTypes": null, "cookTypes": null, "orderNum": 1000, "card4no": null, "card4noAcc": null, "district2": 416, "searchScope": null, "status": 1, "address": "\u4e1c\u6797\u8def195\u53f7", "name": "\u767e\u5473\u6797 \u4e1c\u6797\u8def\u5e97", "id": 162267, "pageNo": 0, "pageCount": null, "pageSize": 10, "ids": null, "endTime": null, "startTime": null}, {"cardNumFive": null, "isSupportYj": null, "cityName": null, "districtName": null, "shopinfo": {"mid": "888002154411144", "good_flag": "2", "new_flag": "1", "short_name": "\u767e\u5473\u6797", "short_name_pinyin": "baiweilin", "status": null, "address": null, "name": null, "id": "31214"}, "mid": "888002154411144", "shopId": "31214", "netid": null, "province": 901, "district": 601, "zipcode": null, "telephone": null, "posDate": null, "destineTel": null, "togoTel": null, "trafficWay": null, "signBuilding": null, "businessArea": null, "selfRoom": null, "businessTime": null, "stall": null, "consume": null, "serviceFei": null, "favourable": null, "shopMemo": null, "appraise": null, "website": null, "memo": null, "payTypes": "\u6749\u5fb7\u5361", "shopTypes": "\u96f6\u552e", "consumeTypes": null, "cookTypes": null, "orderNum": 1000, "card4no": null, "card4noAcc": null, "district2": 401, "searchScope": null, "status": 1, "address": "\u77bf\u6eaa\u8def897\u53f7", "name": "\u767e\u5473\u6797 \u534e\u8054\u77bf\u6eaa\u5e97", "id": 168537, "pageNo": 0, "pageCount": null, "pageSize": 10, "ids": null, "endTime": null, "startTime": null}, {"cardNumFive": null, "isSupportYj": null, "cityName": null, "districtName": null, "shopinfo": {"mid": "888002154411144", "good_flag": "2", "new_flag": "1", "short_name": "\u767e\u5473\u6797", "short_name_pinyin": "baiweilin", "status": null, "address": null, "name": null, "id": "31214"}, "mid": "888002154411144", "shopId": "31214", "netid": null, "province": 901, "district": 601, "zipcode": null, "telephone": null, "posDate": null, "destineTel": null, "togoTel": null, "trafficWay": null, "signBuilding": null, "businessArea": null, "selfRoom": null, "businessTime": null, "stall": null, "consume": null, "serviceFei": null, "favourable": null, "shopMemo": null, "appraise": null, "website": null, "memo": null, "payTypes": "\u6749\u5fb7\u5361", "shopTypes": "\u96f6\u552e", "consumeTypes": null, "cookTypes": null, "orderNum": 1000, "card4no": null, "card4noAcc": null, "district2": 401, "searchScope": null, "status": 1, "address": "\u5927\u6cbd\u8def543\u53f7", "name": "\u767e\u5473\u6797 \u534e\u8054\u5927\u6cbd\u5e97", "id": 168538, "pageNo": 0, "pageCount": null, "pageSize": 10, "ids": null, "endTime": null, "startTime": null}, {"cardNumFive": null, "isSupportYj": null, "cityName": null, "districtName": null, "shopinfo": {"mid": "888002154411144", "good_flag": "2", "new_flag": "1", "short_name": "\u767e\u5473\u6797", "short_name_pinyin": "baiweilin", "status": null, "address": null, "name": null, "id": "31214"}, "mid": "888002154411144", "shopId": "31214", "netid": null, "province": 901, "district": 601, "zipcode": null, "telephone": null, "posDate": null, "destineTel": null, "togoTel": null, "trafficWay": null, "signBuilding": null, "businessArea": null, "selfRoom": null, "businessTime": null, "stall": null, "consume": null, "serviceFei": null, "favourable": null, "shopMemo": null, "appraise": null, "website": null, "memo": null, "payTypes": "\u6749\u5fb7\u5361", "shopTypes": "\u96f6\u552e", "consumeTypes": null, "cookTypes": null, "orderNum": 1000, "card4no": null, "card4noAcc": null, "district2": 405, "searchScope": null, "status": 1, "address": "\u5b89\u8fdc\u8def395\u53f7", "name": "\u767e\u5473\u6797 \u534e\u8054\u5b89\u8fdc\u5e97", "id": 168539, "pageNo": 0, "pageCount": null, "pageSize": 10, "ids": null, "endTime": null, "startTime": null}], "pageLimit": 580, "size": 10}