{"pageCount": 1095, "count": 10942, "pageNo": 56, "subShopInfo": {"cardNumFive": "", "isSupportYj": "", "cityName": null, "districtName": null, "shopinfo": {"mid": null, "good_flag": null, "new_flag": null, "short_name": null, "short_name_pinyin": null, "status": null, "address": "", "name": "", "id": null}, "mid": null, "shopId": null, "netid": null, "province": 901, "district": null, "zipcode": null, "telephone": null, "posDate": null, "destineTel": null, "togoTel": null, "trafficWay": null, "signBuilding": null, "businessArea": null, "selfRoom": null, "businessTime": null, "stall": null, "consume": null, "serviceFei": null, "favourable": null, "shopMemo": "1", "appraise": null, "website": null, "memo": null, "payTypes": "", "shopTypes": "", "consumeTypes": null, "cookTypes": null, "orderNum": null, "card4no": null, "card4noAcc": null, "district2": null, "searchScope": null, "status": null, "address": "", "name": null, "id": null, "pageNo": 55, "pageCount": null, "pageSize": 10, "ids": null, "endTime": null, "startTime": null}, "list": [{"cardNumFive": null, "isSupportYj": null, "cityName": null, "districtName": null, "shopinfo": {"mid": "888888854410019", "good_flag": null, "new_flag": null, "short_name": "\u767e\u5473\u6797", "short_name_pinyin": "baiweilin", "status": null, "address": null, "name": null, "id": "37725"}, "mid": "888888854410019", "shopId": "37725", "netid": null, "province": 901, "district": 601, "zipcode": null, "telephone": null, "posDate": null, "destineTel": null, "togoTel": null, "trafficWay": null, "signBuilding": null, "businessArea": null, "selfRoom": null, "businessTime": null, "stall": null, "consume": null, "serviceFei": null, "favourable": null, "shopMemo": null, "appraise": null, "website": null, "memo": null, "payTypes": "\u6749\u5fb7\u5361", "shopTypes": "\u96f6\u552e", "consumeTypes": null, "cookTypes": null, "orderNum": 1000, "card4no": null, "card4noAcc": null, "district2": 405, "searchScope": null, "status": 1, "address": "\u9ec4\u9675\u8def89\u53f7", "name": "\u767e\u5473\u6797 \u9ec4\u9675\u8def\u5e97", "id": 159999, "pageNo": 0, "pageCount": null, "pageSize": 10, "ids": null, "endTime": null, "startTime": null}, {"cardNumFive": null, "isSupportYj": null, "cityName": null, "districtName": null, "shopinfo": {"mid": "888888854410019", "good_flag": null, "new_flag": null, "short_name": "\u767e\u5473\u6797", "short_name_pinyin": "baiweilin", "status": null, "address": null, "name": null, "id": "37725"}, "mid": "888888854410019", "shopId": "37725", "netid": null, "province": 901, "district": 601, "zipcode": null, "telephone": null, "posDate": null, "destineTel": null, "togoTel": null, "trafficWay": null, "signBuilding": null, "businessArea": null, "selfRoom": null, "businessTime": null, "stall": null, "consume": null, "serviceFei": null, "favourable": null, "shopMemo": null, "appraise": null, "website": null, "memo": null, "payTypes": "\u6749\u5fb7\u5361", "shopTypes": "\u96f6\u552e", "consumeTypes": null, "cookTypes": null, "orderNum": 1000, "card4no": null, "card4noAcc": null, "district2": 417, "searchScope": null, "status": 1, "address": "\u51e4\u6eaa\u9547\u9752\u6d66\u51e4\u4e2d\u8def", "name": "\u767e\u5473\u6797 \u51e4\u6eaa\u9547\u5e97", "id": 160000, "pageNo": 0, "pageCount": null, "pageSize": 10, "ids": null, "endTime": null, "startTime": null}, {"cardNumFive": null, "isSupportYj": null, "cityName": null, "districtName": null, "shopinfo": {"mid": "888002154411144", "good_flag": null, "new_flag": null, "short_name": "\u767e\u5473\u6797", "short_name_pinyin": "baiweilin", "status": null, "address": null, "name": null, "id": "38106"}, "mid": "888002154411144", "shopId": "38106", "netid": null, "province": 901, "district": 601, "zipcode": null, "telephone": null, "posDate": null, "destineTel": null, "togoTel": null, "trafficWay": null, "signBuilding": null, "businessArea": null, "selfRoom": null, "businessTime": null, "stall": null, "consume": null, "serviceFei": null, "favourable": null, "shopMemo": null, "appraise": null, "website": null, "memo": null, "payTypes": "\u6749\u5fb7\u5361", "shopTypes": "\u96f6\u552e", "consumeTypes": null, "cookTypes": null, "orderNum": 1000, "card4no": null, "card4noAcc": null, "district2": 416, "searchScope": null, "status": 1, "address": "\u53cb\u8c0a\u652f\u8def208\u53f7-2", "name": "\u767e\u5473\u6797 \u53cb\u8c0a\u652f\u8def\u5e97", "id": 162134, "pageNo": 0, "pageCount": null, "pageSize": 10, "ids": null, "endTime": null, "startTime": null}, {"cardNumFive": null, "isSupportYj": null, "cityName": null, "districtName": null, "shopinfo": {"mid": "888002154411144", "good_flag": null, "new_flag": null, "short_name": "\u767e\u5473\u6797", "short_name_pinyin": "baiweilin", "status": null, "address": null, "name": null, "id": "38106"}, "mid": "888002154411144", "shopId": "38106", "netid": null, "province": 901, "district": 601, "zipcode": null, "telephone": null, "posDate": null, "destineTel": null, "togoTel": null, "trafficWay": null, "signBuilding": null, "businessArea": null, "selfRoom": null, "businessTime": null, "stall": null, "consume": null, "serviceFei": null, "favourable": null, "shopMemo": null, "appraise": null, "website": null, "memo": null, "payTypes": "\u6749\u5fb7\u5361", "shopTypes": "\u96f6\u552e", "consumeTypes": null, "cookTypes": null, "orderNum": 1000, "card4no": null, "card4noAcc": null, "district2": 416, "searchScope": null, "status": 1, "address": "\u6708\u6d66\u9547\u9f99\u9547\u8def22\u53f7", "name": "\u767e\u5473\u6797 \u6708\u6d66\u9547\u5e97", "id": 162135, "pageNo": 0, "pageCount": null, "pageSize": 10, "ids": null, "endTime": null, "startTime": null}, {"cardNumFive": null, "isSupportYj": null, "cityName": null, "districtName": null, "shopinfo": {"mid": "888002154411144", "good_flag": null, "new_flag": null, "short_name": "\u767e\u5473\u6797", "short_name_pinyin": "baiweilin", "status": null, "address": null, "name": null, "id": "38106"}, "mid": "888002154411144", "shopId": "38106", "netid": null, "province": 901, "district": 601, "zipcode": null, "telephone": null, "posDate": null, "destineTel": null, "togoTel": null, "trafficWay": null, "signBuilding": null, "businessArea": null, "selfRoom": null, "businessTime": null, "stall": null, "consume": null, "serviceFei": null, "favourable": null, "shopMemo": null, "appraise": null, "website": null, "memo": null, "payTypes": "\u6749\u5fb7\u5361", "shopTypes": "\u96f6\u552e", "consumeTypes": null, "cookTypes": null, "orderNum": 1000, "card4no": null, "card4noAcc": null, "district2": 409, "searchScope": null, "status": 1, "address": "\u66f9\u884c\u9547\u66f9\u5efa\u8def502\u53f7", "name": "\u767e\u5473\u6797 \u66f9\u884c\u9547\u5e97", "id": 162136, "pageNo": 0, "pageCount": null, "pageSize": 10, "ids": null, "endTime": null, "startTime": null}, {"cardNumFive": null, "isSupportYj": null, "cityName": null, "districtName": null, "shopinfo": {"mid": "888002154411144", "good_flag": null, "new_flag": null, "short_name": "\u767e\u5473\u6797", "short_name_pinyin": "baiweilin", "status": null, "address": null, "name": null, "id": "38106"}, "mid": "888002154411144", "shopId": "38106", "netid": null, "province": 901, "district": 601, "zipcode": null, "telephone": null, "posDate": null, "destineTel": null, "togoTel": null, "trafficWay": null, "signBuilding": null, "businessArea": null, "selfRoom": null, "businessTime": null, "stall": null, "consume": null, "serviceFei": null, "favourable": null, "shopMemo": null, "appraise": null, "website": null, "memo": null, "payTypes": "\u6749\u5fb7\u5361", "shopTypes": "\u96f6\u552e", "consumeTypes": null, "cookTypes": null, "orderNum": 1000, "card4no": null, "card4noAcc": null, "district2": 411, "searchScope": null, "status": 1, "address": "\u57ce\u4e2d\u88576\u53f73\u5ba4", "name": "\u767e\u5473\u6797 \u57ce\u4e2d\u8857\u5e97", "id": 162137, "pageNo": 0, "pageCount": null, "pageSize": 10, "ids": null, "endTime": null, "startTime": null}, {"cardNumFive": null, "isSupportYj": null, "cityName": null, "districtName": null, "shopinfo": {"mid": "888002154411144", "good_flag": null, "new_flag": null, "short_name": "\u767e\u5473\u6797", "short_name_pinyin": "baiweilin", "status": null, "address": null, "name": null, "id": "38106"}, "mid": "888002154411144", "shopId": "38106", "netid": null, "province": 901, "district": 601, "zipcode": null, "telephone": null, "posDate": null, "destineTel": null, "togoTel": null, "trafficWay": null, "signBuilding": null, "businessArea": null, "selfRoom": null, "businessTime": null, "stall": null, "consume": null, "serviceFei": null, "favourable": null, "shopMemo": null, "appraise": null, "website": null, "memo": null, "payTypes": "\u6749\u5fb7\u5361", "shopTypes": "\u96f6\u552e", "consumeTypes": null, "cookTypes": null, "orderNum": 1000, "card4no": null, "card4noAcc": null, "district2": 415, "searchScope": null, "status": 1, "address": "\u5821\u9547\u4e2d\u8def88\u53f7", "name": "\u767e\u5473\u6797 \u5821\u9547\u5e97", "id": 162138, "pageNo": 0, "pageCount": null, "pageSize": 10, "ids": null, "endTime": null, "startTime": null}, {"cardNumFive": null, "isSupportYj": null, "cityName": null, "districtName": null, "shopinfo": {"mid": "888002154411144", "good_flag": null, "new_flag": null, "short_name": "\u767e\u5473\u6797", "short_name_pinyin": "baiweilin", "status": null, "address": null, "name": null, "id": "38106"}, "mid": "888002154411144", "shopId": "38106", "netid": null, "province": 901, "district": 601, "zipcode": null, "telephone": null, "posDate": null, "destineTel": null, "togoTel": null, "trafficWay": null, "signBuilding": null, "businessArea": null, "selfRoom": null, "businessTime": null, "stall": null, "consume": null, "serviceFei": null, "favourable": null, "shopMemo": null, "appraise": null, "website": null, "memo": null, "payTypes": "\u6749\u5fb7\u5361", "shopTypes": "\u96f6\u552e", "consumeTypes": null, "cookTypes": null, "orderNum": 1000, "card4no": null, "card4noAcc": null, "district2": 415, "searchScope": null, "status": 1, "address": "\u5e99\u9547\u5927\u8857162\u53f7", "name": "\u767e\u5473\u6797 \u5e99\u9547\u5e97", "id": 162139, "pageNo": 0, "pageCount": null, "pageSize": 10, "ids": null, "endTime": null, "startTime": null}, {"cardNumFive": null, "isSupportYj": null, "cityName": null, "districtName": null, "shopinfo": {"mid": "888002154411144", "good_flag": null, "new_flag": null, "short_name": "\u767e\u5473\u6797", "short_name_pinyin": "baiweilin", "status": null, "address": null, "name": null, "id": "38106"}, "mid": "888002154411144", "shopId": "38106", "netid": null, "province": 901, "district": 601, "zipcode": null, "telephone": null, "posDate": null, "destineTel": null, "togoTel": null, "trafficWay": null, "signBuilding": null, "businessArea": null, "selfRoom": null, "businessTime": null, "stall": null, "consume": null, "serviceFei": null, "favourable": null, "shopMemo": null, "appraise": null, "website": null, "memo": null, "payTypes": "\u6749\u5fb7\u5361", "shopTypes": "\u96f6\u552e", "consumeTypes": null, "cookTypes": null, "orderNum": 1000, "card4no": null, "card4noAcc": null, "district2": 418, "searchScope": null, "status": 1, "address": "\u5fb7\u5dde\u8def392\u53f7", "name": "\u767e\u5473\u6797 \u5fb7\u5dde\u8def\u5e97", "id": 162140, "pageNo": 0, "pageCount": null, "pageSize": 10, "ids": null, "endTime": null, "startTime": null}, {"cardNumFive": null, "isSupportYj": null, "cityName": null, "districtName": null, "shopinfo": {"mid": "888002154411144", "good_flag": null, "new_flag": null, "short_name": "\u767e\u5473\u6797", "short_name_pinyin": "baiweilin", "status": null, "address": null, "name": null, "id": "38106"}, "mid": "888002154411144", "shopId": "38106", "netid": null, "province": 901, "district": 601, "zipcode": null, "telephone": null, "posDate": null, "destineTel": null, "togoTel": null, "trafficWay": null, "signBuilding": null, "businessArea": null, "selfRoom": null, "businessTime": null, "stall": null, "consume": null, "serviceFei": null, "favourable": null, "shopMemo": null, "appraise": null, "website": null, "memo": null, "payTypes": "\u6749\u5fb7\u5361", "shopTypes": "\u96f6\u552e", "consumeTypes": null, "cookTypes": null, "orderNum": 1000, "card4no": null, "card4noAcc": null, "district2": 413, "searchScope": null, "status": 1, "address": "\u897f\u6e21\u9547\u6caa\u676d\u516c\u8def165\u53f7", "name": "\u767e\u5473\u6797 \u897f\u6e21\u9547\u5e97", "id": 162142, "pageNo": 0, "pageCount": null, "pageSize": 10, "ids": null, "endTime": null, "startTime": null}], "pageLimit": 550, "size": 10}