{"pageCount": 1095, "count": 10942, "pageNo": 51, "subShopInfo": {"cardNumFive": "", "isSupportYj": "", "cityName": null, "districtName": null, "shopinfo": {"mid": null, "good_flag": null, "new_flag": null, "short_name": null, "short_name_pinyin": null, "status": null, "address": "", "name": "", "id": null}, "mid": null, "shopId": null, "netid": null, "province": 901, "district": null, "zipcode": null, "telephone": null, "posDate": null, "destineTel": null, "togoTel": null, "trafficWay": null, "signBuilding": null, "businessArea": null, "selfRoom": null, "businessTime": null, "stall": null, "consume": null, "serviceFei": null, "favourable": null, "shopMemo": "1", "appraise": null, "website": null, "memo": null, "payTypes": "", "shopTypes": "", "consumeTypes": null, "cookTypes": null, "orderNum": null, "card4no": null, "card4noAcc": null, "district2": null, "searchScope": null, "status": null, "address": "", "name": null, "id": null, "pageNo": 50, "pageCount": null, "pageSize": 10, "ids": null, "endTime": null, "startTime": null}, "list": [{"cardNumFive": null, "isSupportYj": null, "cityName": null, "districtName": null, "shopinfo": {"mid": "888888854410019", "good_flag": null, "new_flag": null, "short_name": "\u767e\u5473\u6797", "short_name_pinyin": "baiweilin", "status": null, "address": null, "name": null, "id": "31213"}, "mid": "888888854410019", "shopId": "31213", "netid": null, "province": 901, "district": 601, "zipcode": null, "telephone": "8008203001;63362828", "posDate": "20071206", "destineTel": null, "togoTel": null, "trafficWay": "\u516c\u4ea4210 869 \u5730\u94c1\u56db\u53f7\u7ebf", "signBuilding": null, "businessArea": null, "selfRoom": null, "businessTime": null, "stall": null, "consume": null, "serviceFei": null, "favourable": null, "shopMemo": null, "appraise": null, "website": null, "memo": null, "payTypes": "\u6749\u5fb7\u5361", "shopTypes": "\u96f6\u552e,\u4f11\u95f2", "consumeTypes": null, "cookTypes": null, "orderNum": 1000, "card4no": null, "card4noAcc": null, "district2": 410, "searchScope": null, "status": 1, "address": "\u4e2d\u534e\u65b0\u8def626\u53f7", "name": "\u767e\u5473\u6797 \u4e2d\u534e\u65b0\u8def\u5e97", "id": 132670, "pageNo": 0, "pageCount": null, "pageSize": 10, "ids": null, "endTime": null, "startTime": null}, {"cardNumFive": null, "isSupportYj": null, "cityName": null, "districtName": null, "shopinfo": {"mid": "888888854410019", "good_flag": null, "new_flag": null, "short_name": "\u767e\u5473\u6797", "short_name_pinyin": "baiweilin", "status": null, "address": null, "name": null, "id": "31213"}, "mid": "888888854410019", "shopId": "31213", "netid": null, "province": 901, "district": 601, "zipcode": null, "telephone": null, "posDate": null, "destineTel": null, "togoTel": null, "trafficWay": null, "signBuilding": null, "businessArea": null, "selfRoom": null, "businessTime": null, "stall": null, "consume": null, "serviceFei": null, "favourable": null, "shopMemo": null, "appraise": null, "website": null, "memo": null, "payTypes": "\u6749\u5fb7\u5361", "shopTypes": "\u96f6\u552e,\u4f11\u95f2", "consumeTypes": null, "cookTypes": null, "orderNum": 1000, "card4no": null, "card4noAcc": null, "district2": 408, "searchScope": null, "status": 1, "address": "\u4e2d\u5c71\u5317\u4e00\u8def642\u53f7", "name": "\u767e\u5473\u6797 \u4e2d\u5c71\u5317\u4e00\u8def\u5e97", "id": 132671, "pageNo": 0, "pageCount": null, "pageSize": 10, "ids": null, "endTime": null, "startTime": null}, {"cardNumFive": null, "isSupportYj": null, "cityName": null, "districtName": null, "shopinfo": {"mid": "888888854410019", "good_flag": null, "new_flag": null, "short_name": "\u767e\u5473\u6797", "short_name_pinyin": "baiweilin", "status": null, "address": null, "name": null, "id": "31213"}, "mid": "888888854410019", "shopId": "31213", "netid": null, "province": 901, "district": 601, "zipcode": null, "telephone": null, "posDate": "20100628", "destineTel": null, "togoTel": null, "trafficWay": null, "signBuilding": null, "businessArea": null, "selfRoom": null, "businessTime": null, "stall": null, "consume": null, "serviceFei": null, "favourable": null, "shopMemo": null, "appraise": null, "website": null, "memo": null, "payTypes": "\u6749\u5fb7\u5361", "shopTypes": "\u96f6\u552e,\u4f11\u95f2", "consumeTypes": null, "cookTypes": null, "orderNum": 1000, "card4no": null, "card4noAcc": null, "district2": 412, "searchScope": null, "status": 1, "address": "\u4e2d\u5c71\u4e1c\u8def142\u53f7", "name": "\u767e\u5473\u6797 \u4e2d\u5c71\u4e1c\u8def\u5e97", "id": 132672, "pageNo": 0, "pageCount": null, "pageSize": 10, "ids": null, "endTime": null, "startTime": null}, {"cardNumFive": null, "isSupportYj": null, "cityName": null, "districtName": null, "shopinfo": {"mid": "888888854410019", "good_flag": null, "new_flag": null, "short_name": "\u767e\u5473\u6797", "short_name_pinyin": "baiweilin", "status": null, "address": null, "name": null, "id": "31213"}, "mid": "888888854410019", "shopId": "31213", "netid": null, "province": 901, "district": 601, "zipcode": null, "telephone": "8008203001;63362828", "posDate": "20071205", "destineTel": null, "togoTel": null, "trafficWay": "\u516c\u4ea4537 870", "signBuilding": null, "businessArea": null, "selfRoom": null, "businessTime": null, "stall": null, "consume": null, "serviceFei": null, "favourable": null, "shopMemo": null, "appraise": null, "website": null, "memo": null, "payTypes": "\u6749\u5fb7\u5361", "shopTypes": "\u96f6\u552e,\u4f11\u95f2", "consumeTypes": null, "cookTypes": null, "orderNum": 1000, "card4no": null, "card4noAcc": null, "district2": 407, "searchScope": null, "status": 1, "address": "\u4e2d\u539f\u8def288\u53f7-013", "name": "\u767e\u5473\u6797 \u4e2d\u539f\u5e97", "id": 132673, "pageNo": 0, "pageCount": null, "pageSize": 10, "ids": null, "endTime": null, "startTime": null}, {"cardNumFive": null, "isSupportYj": null, "cityName": null, "districtName": null, "shopinfo": {"mid": "888888854410019", "good_flag": null, "new_flag": null, "short_name": "\u767e\u5473\u6797", "short_name_pinyin": "baiweilin", "status": null, "address": null, "name": null, "id": "31213"}, "mid": "888888854410019", "shopId": "31213", "netid": null, "province": 901, "district": 601, "zipcode": null, "telephone": "8008203001;63362828", "posDate": "20071206", "destineTel": null, "togoTel": null, "trafficWay": "\u4e0a\u6731\u7ebf \u4e0a\u6731\u7ebf\u533a\u95f4", "signBuilding": null, "businessArea": null, "selfRoom": null, "businessTime": null, "stall": null, "consume": null, "serviceFei": null, "favourable": null, "shopMemo": null, "appraise": null, "website": null, "memo": null, "payTypes": "\u6749\u5fb7\u5361", "shopTypes": "\u96f6\u552e,\u4f11\u95f2", "consumeTypes": null, "cookTypes": null, "orderNum": 1000, "card4no": null, "card4noAcc": null, "district2": 414, "searchScope": null, "status": 1, "address": "\u6731\u6cfe\u9547\u516c\u56ed\u8def313\u53f7", "name": "\u767e\u5473\u6797 \u6731\u6cfe\u9547\u5e97", "id": 132676, "pageNo": 0, "pageCount": null, "pageSize": 10, "ids": null, "endTime": null, "startTime": null}, {"cardNumFive": null, "isSupportYj": null, "cityName": null, "districtName": null, "shopinfo": {"mid": "888888854410019", "good_flag": null, "new_flag": null, "short_name": "\u767e\u5473\u6797", "short_name_pinyin": "baiweilin", "status": null, "address": null, "name": null, "id": "31213"}, "mid": "888888854410019", "shopId": "31213", "netid": null, "province": 901, "district": 601, "zipcode": null, "telephone": null, "posDate": "20100628", "destineTel": null, "togoTel": null, "trafficWay": null, "signBuilding": null, "businessArea": null, "selfRoom": null, "businessTime": null, "stall": null, "consume": null, "serviceFei": null, "favourable": null, "shopMemo": null, "appraise": null, "website": null, "memo": null, "payTypes": "\u6749\u5fb7\u5361", "shopTypes": "\u96f6\u552e,\u4f11\u95f2", "consumeTypes": null, "cookTypes": null, "orderNum": 1000, "card4no": null, "card4noAcc": null, "district2": 418, "searchScope": null, "status": 1, "address": "\u4e1c\u795d\u516c\u8def1320\u5f0452\u53f7", "name": "\u767e\u5473\u6797 \u795d\u6865\u4e8c\u5e97", "id": 132678, "pageNo": 0, "pageCount": null, "pageSize": 10, "ids": null, "endTime": null, "startTime": null}, {"cardNumFive": null, "isSupportYj": null, "cityName": null, "districtName": null, "shopinfo": {"mid": "888888854410019", "good_flag": null, "new_flag": null, "short_name": "\u767e\u5473\u6797", "short_name_pinyin": "baiweilin", "status": null, "address": null, "name": null, "id": "36170"}, "mid": "888888854410019", "shopId": "36170", "netid": null, "province": 901, "district": 601, "zipcode": null, "telephone": null, "posDate": "20100805", "destineTel": null, "togoTel": null, "trafficWay": null, "signBuilding": null, "businessArea": null, "selfRoom": null, "businessTime": null, "stall": null, "consume": null, "serviceFei": null, "favourable": null, "shopMemo": null, "appraise": null, "website": null, "memo": null, "payTypes": "\u6749\u5fb7\u5361", "shopTypes": "\u96f6\u552e", "consumeTypes": null, "cookTypes": null, "orderNum": 1000, "card4no": null, "card4noAcc": null, "district2": 411, "searchScope": null, "status": 1, "address": "\u5510\u884c\u9547\u5609\u884c\u516c\u8def3178\u5f0419\u53f7", "name": "\u767e\u5473\u6797 \u5609\u884c\u516c\u8def\u5e97", "id": 150724, "pageNo": 0, "pageCount": null, "pageSize": 10, "ids": null, "endTime": null, "startTime": null}, {"cardNumFive": null, "isSupportYj": null, "cityName": null, "districtName": null, "shopinfo": {"mid": "888888854410019", "good_flag": null, "new_flag": null, "short_name": "\u767e\u5473\u6797", "short_name_pinyin": "baiweilin", "status": null, "address": null, "name": null, "id": "36170"}, "mid": "888888854410019", "shopId": "36170", "netid": null, "province": 901, "district": 601, "zipcode": null, "telephone": null, "posDate": "20100805", "destineTel": null, "togoTel": null, "trafficWay": null, "signBuilding": null, "businessArea": null, "selfRoom": null, "businessTime": null, "stall": null, "consume": null, "serviceFei": null, "favourable": null, "shopMemo": null, "appraise": null, "website": null, "memo": null, "payTypes": "\u6749\u5fb7\u5361", "shopTypes": "\u96f6\u552e", "consumeTypes": null, "cookTypes": null, "orderNum": 1000, "card4no": null, "card4noAcc": null, "district2": 416, "searchScope": null, "status": 1, "address": "\u7075\u77f3\u8def737\u5f0466\u53f7", "name": "\u767e\u5473\u6797 \u7075\u77f3\u8def\u5e97", "id": 150725, "pageNo": 0, "pageCount": null, "pageSize": 10, "ids": null, "endTime": null, "startTime": null}, {"cardNumFive": null, "isSupportYj": null, "cityName": null, "districtName": null, "shopinfo": {"mid": "888888854410019", "good_flag": null, "new_flag": null, "short_name": "\u767e\u5473\u6797", "short_name_pinyin": "baiweilin", "status": null, "address": null, "name": null, "id": "36170"}, "mid": "888888854410019", "shopId": "36170", "netid": null, "province": 901, "district": 601, "zipcode": null, "telephone": null, "posDate": "20100810", "destineTel": null, "togoTel": null, "trafficWay": null, "signBuilding": null, "businessArea": null, "selfRoom": null, "businessTime": null, "stall": null, "consume": null, "serviceFei": null, "favourable": null, "shopMemo": null, "appraise": null, "website": null, "memo": null, "payTypes": "\u6749\u5fb7\u5361", "shopTypes": "\u96f6\u552e", "consumeTypes": null, "cookTypes": null, "orderNum": 1000, "card4no": null, "card4noAcc": null, "district2": 408, "searchScope": null, "status": 1, "address": "\u8f66\u7ad9\u5357\u8def301-\u4e19", "name": "\u767e\u5473\u6797 \u8f66\u7ad9\u5357\u8def\u5e97", "id": 150823, "pageNo": 0, "pageCount": null, "pageSize": 10, "ids": null, "endTime": null, "startTime": null}, {"cardNumFive": null, "isSupportYj": null, "cityName": null, "districtName": null, "shopinfo": {"mid": "888888854410019", "good_flag": null, "new_flag": null, "short_name": "\u767e\u5473\u6797", "short_name_pinyin": "baiweilin", "status": null, "address": null, "name": null, "id": "36170"}, "mid": "888888854410019", "shopId": "36170", "netid": null, "province": 901, "district": 601, "zipcode": null, "telephone": null, "posDate": "20100805", "destineTel": null, "togoTel": null, "trafficWay": null, "signBuilding": null, "businessArea": null, "selfRoom": null, "businessTime": null, "stall": null, "consume": null, "serviceFei": null, "favourable": null, "shopMemo": null, "appraise": null, "website": null, "memo": null, "payTypes": "\u6749\u5fb7\u5361", "shopTypes": "\u96f6\u552e", "consumeTypes": null, "cookTypes": null, "orderNum": 1000, "card4no": null, "card4noAcc": null, "district2": 416, "searchScope": null, "status": 1, "address": "\u7f57\u7ecf\u9547\u9648\u9547\u8def101\u53f7", "name": "\u767e\u5473\u6797 \u9648\u9547\u8def\u5e97", "id": 150824, "pageNo": 0, "pageCount": null, "pageSize": 10, "ids": null, "endTime": null, "startTime": null}], "pageLimit": 500, "size": 10}