{"pageCount": 1095, "count": 10942, "pageNo": 66, "subShopInfo": {"cardNumFive": "", "isSupportYj": "", "cityName": null, "districtName": null, "shopinfo": {"mid": null, "good_flag": null, "new_flag": null, "short_name": null, "short_name_pinyin": null, "status": null, "address": "", "name": "", "id": null}, "mid": null, "shopId": null, "netid": null, "province": 901, "district": null, "zipcode": null, "telephone": null, "posDate": null, "destineTel": null, "togoTel": null, "trafficWay": null, "signBuilding": null, "businessArea": null, "selfRoom": null, "businessTime": null, "stall": null, "consume": null, "serviceFei": null, "favourable": null, "shopMemo": "1", "appraise": null, "website": null, "memo": null, "payTypes": "", "shopTypes": "", "consumeTypes": null, "cookTypes": null, "orderNum": null, "card4no": null, "card4noAcc": null, "district2": null, "searchScope": null, "status": null, "address": "", "name": null, "id": null, "pageNo": 65, "pageCount": null, "pageSize": 10, "ids": null, "endTime": null, "startTime": null}, "list": [{"cardNumFive": null, "isSupportYj": null, "cityName": null, "districtName": null, "shopinfo": {"mid": "888002154410130", "good_flag": null, "new_flag": "2", "short_name": "\u5df4\u9ece\u8d1d\u751c", "short_name_pinyin": "balibeitian", "status": null, "address": null, "name": null, "id": "43557"}, "mid": "888002154410130", "shopId": "43557", "netid": null, "province": 901, "district": 601, "zipcode": null, "telephone": null, "posDate": null, "destineTel": null, "togoTel": null, "trafficWay": null, "signBuilding": null, "businessArea": null, "selfRoom": null, "businessTime": null, "stall": null, "consume": null, "serviceFei": null, "favourable": null, "shopMemo": null, "appraise": null, "website": null, "memo": null, "payTypes": "\u6749\u5fb7\u5361", "shopTypes": "\u9762\u5305\u897f\u997c", "consumeTypes": null, "cookTypes": null, "orderNum": 1000, "card4no": null, "card4noAcc": null, "district2": 418, "searchScope": null, "status": 1, "address": "\u82b3\u7538\u8def199\u53f735\u53f7\uff08\u5927\u62c7\u6307\u5e7f\u573a\uff09", "name": "\u5df4\u9ece\u8d1d\u751c \u82b3\u7538\u8def\u5e97", "id": 198606, "pageNo": 0, "pageCount": null, "pageSize": 10, "ids": null, "endTime": null, "startTime": null}, {"cardNumFive": null, "isSupportYj": null, "cityName": null, "districtName": null, "shopinfo": {"mid": "888002154410130", "good_flag": null, "new_flag": "2", "short_name": "\u5df4\u9ece\u8d1d\u751c", "short_name_pinyin": "balibeitian", "status": null, "address": null, "name": null, "id": "43557"}, "mid": "888002154410130", "shopId": "43557", "netid": null, "province": 901, "district": 601, "zipcode": null, "telephone": null, "posDate": null, "destineTel": null, "togoTel": null, "trafficWay": null, "signBuilding": null, "businessArea": null, "selfRoom": null, "businessTime": null, "stall": null, "consume": null, "serviceFei": null, "favourable": null, "shopMemo": null, "appraise": null, "website": null, "memo": null, "payTypes": "\u6749\u5fb7\u5361", "shopTypes": "\u9762\u5305\u897f\u997c", "consumeTypes": null, "cookTypes": null, "orderNum": 1000, "card4no": null, "card4noAcc": null, "district2": 404, "searchScope": null, "status": 1, "address": "\u5171\u548c\u65b0\u8def1928\u53f71\u5c42101\u5ba4", "name": "\u5df4\u9ece\u8d1d\u751c \u5171\u548c\u65b0\u8def\u5e97", "id": 198607, "pageNo": 0, "pageCount": null, "pageSize": 10, "ids": null, "endTime": null, "startTime": null}, {"cardNumFive": null, "isSupportYj": null, "cityName": null, "districtName": null, "shopinfo": {"mid": "888002154410130", "good_flag": null, "new_flag": "2", "short_name": "\u5df4\u9ece\u8d1d\u751c", "short_name_pinyin": "balibeitian", "status": null, "address": null, "name": null, "id": "43557"}, "mid": "888002154410130", "shopId": "43557", "netid": null, "province": 901, "district": 601, "zipcode": null, "telephone": null, "posDate": null, "destineTel": null, "togoTel": null, "trafficWay": null, "signBuilding": null, "businessArea": null, "selfRoom": null, "businessTime": null, "stall": null, "consume": null, "serviceFei": null, "favourable": null, "shopMemo": null, "appraise": null, "website": null, "memo": null, "payTypes": "\u6749\u5fb7\u5361", "shopTypes": "\u9762\u5305\u897f\u997c", "consumeTypes": null, "cookTypes": null, "orderNum": 1000, "card4no": null, "card4noAcc": null, "district2": 409, "searchScope": null, "status": 1, "address": "\u5434\u4e2d\u8def1799\u53f7A\u5ea75\u697c", "name": "\u5df4\u9ece\u8d1d\u751c \u4e07\u8c61\u57ce\u5e97", "id": 202061, "pageNo": 0, "pageCount": null, "pageSize": 10, "ids": null, "endTime": null, "startTime": null}, {"cardNumFive": null, "isSupportYj": null, "cityName": null, "districtName": null, "shopinfo": {"mid": "888002154410130", "good_flag": null, "new_flag": "2", "short_name": "\u5df4\u9ece\u8d1d\u751c", "short_name_pinyin": "balibeitian", "status": null, "address": null, "name": null, "id": "43557"}, "mid": "888002154410130", "shopId": "43557", "netid": null, "province": 901, "district": 601, "zipcode": null, "telephone": null, "posDate": null, "destineTel": null, "togoTel": null, "trafficWay": null, "signBuilding": null, "businessArea": null, "selfRoom": null, "businessTime": null, "stall": null, "consume": null, "serviceFei": null, "favourable": null, "shopMemo": null, "appraise": null, "website": null, "memo": null, "payTypes": "\u6749\u5fb7\u5361", "shopTypes": "\u9762\u5305\u897f\u997c", "consumeTypes": null, "cookTypes": null, "orderNum": 1000, "card4no": null, "card4noAcc": null, "district2": 405, "searchScope": null, "status": 1, "address": "\u4e2d\u5c71\u5317\u8def3300\u53f7B2\u5c42B2172\u94fa", "name": "\u5df4\u9ece\u8d1d\u751c \u73af\u7403\u6e2f\u5e97", "id": 202062, "pageNo": 0, "pageCount": null, "pageSize": 10, "ids": null, "endTime": null, "startTime": null}, {"cardNumFive": null, "isSupportYj": null, "cityName": null, "districtName": null, "shopinfo": {"mid": "888002154410130", "good_flag": null, "new_flag": "2", "short_name": "\u5df4\u9ece\u8d1d\u751c", "short_name_pinyin": "balibeitian", "status": null, "address": null, "name": null, "id": "43557"}, "mid": "888002154410130", "shopId": "43557", "netid": null, "province": 901, "district": 601, "zipcode": null, "telephone": null, "posDate": null, "destineTel": null, "togoTel": null, "trafficWay": null, "signBuilding": null, "businessArea": null, "selfRoom": null, "businessTime": null, "stall": null, "consume": null, "serviceFei": null, "favourable": null, "shopMemo": null, "appraise": null, "website": null, "memo": null, "payTypes": "\u6749\u5fb7\u5361", "shopTypes": "\u9762\u5305\u897f\u997c", "consumeTypes": null, "cookTypes": null, "orderNum": 1000, "card4no": null, "card4noAcc": null, "district2": 409, "searchScope": null, "status": 1, "address": "\u6f15\u5b9d\u8def3366\u53f7B1\u5c42124A\u53f7", "name": "\u5df4\u9ece\u8d1d\u751c \u4e03\u5b9d\u4e07\u79d1\u5e7f\u573a\u5e97", "id": 202085, "pageNo": 0, "pageCount": null, "pageSize": 10, "ids": null, "endTime": null, "startTime": null}, {"cardNumFive": null, "isSupportYj": null, "cityName": null, "districtName": null, "shopinfo": {"mid": "888002154410130", "good_flag": null, "new_flag": "2", "short_name": "\u5df4\u9ece\u8d1d\u751c", "short_name_pinyin": "balibeitian", "status": null, "address": null, "name": null, "id": "43557"}, "mid": "888002154410130", "shopId": "43557", "netid": null, "province": 901, "district": 601, "zipcode": null, "telephone": null, "posDate": null, "destineTel": null, "togoTel": null, "trafficWay": null, "signBuilding": null, "businessArea": null, "selfRoom": null, "businessTime": null, "stall": null, "consume": null, "serviceFei": null, "favourable": null, "shopMemo": null, "appraise": null, "website": null, "memo": null, "payTypes": "\u6749\u5fb7\u5361", "shopTypes": "\u9762\u5305\u897f\u997c", "consumeTypes": null, "cookTypes": null, "orderNum": 1000, "card4no": null, "card4noAcc": null, "district2": 418, "searchScope": null, "status": 1, "address": "\u6caa\u5357\u8def3459\u53f7\u4e07\u8fbe\u767e\u8d271\u697c1F-A001\u5ba4", "name": "\u5df4\u9ece\u8d1d\u751c \u4e07\u5343\u767e\u8d27\u5e97", "id": 202130, "pageNo": 0, "pageCount": null, "pageSize": 10, "ids": null, "endTime": null, "startTime": null}, {"cardNumFive": null, "isSupportYj": null, "cityName": null, "districtName": null, "shopinfo": {"mid": "888002154410130", "good_flag": null, "new_flag": "2", "short_name": "\u5df4\u9ece\u8d1d\u751c", "short_name_pinyin": "balibeitian", "status": null, "address": null, "name": null, "id": "43557"}, "mid": "888002154410130", "shopId": "43557", "netid": null, "province": 901, "district": 601, "zipcode": null, "telephone": null, "posDate": null, "destineTel": null, "togoTel": null, "trafficWay": null, "signBuilding": null, "businessArea": null, "selfRoom": null, "businessTime": null, "stall": null, "consume": null, "serviceFei": null, "favourable": null, "shopMemo": null, "appraise": null, "website": null, "memo": null, "payTypes": "\u6749\u5fb7\u5361,", "shopTypes": "\u9762\u5305\u897f\u997c", "consumeTypes": null, "cookTypes": null, "orderNum": null, "card4no": null, "card4noAcc": null, "district2": 409, "searchScope": null, "status": 1, "address": "\u6f15\u5b9d\u8def33\u53f7\u65e5\u6708\u5149\u4e2d\u5fc3B2-45", "name": "\u6f15\u5b9d\u8def\u5e97", "id": 418057335697571840, "pageNo": 0, "pageCount": null, "pageSize": 10, "ids": null, "endTime": null, "startTime": null}, {"cardNumFive": null, "isSupportYj": null, "cityName": null, "districtName": null, "shopinfo": {"mid": "888002154620149", "good_flag": "2", "new_flag": "2", "short_name": "\u5df4\u9ece\u8d1d\u751c", "short_name_pinyin": "balibeitian", "status": null, "address": null, "name": null, "id": "503957920380092416"}, "mid": "888002154620149", "shopId": "503957920380092416", "netid": null, "province": 901, "district": 601, "zipcode": null, "telephone": null, "posDate": null, "destineTel": null, "togoTel": null, "trafficWay": null, "signBuilding": null, "businessArea": null, "selfRoom": null, "businessTime": null, "stall": null, "consume": null, "serviceFei": null, "favourable": null, "shopMemo": null, "appraise": null, "website": null, "memo": null, "payTypes": "", "shopTypes": null, "consumeTypes": null, "cookTypes": null, "orderNum": null, "card4no": null, "card4noAcc": null, "district2": 418, "searchScope": null, "status": 1, "address": "\u5e74\u5bb6\u6d5c\u4e1c\u8def238\u53f7\u4e00\u5c42137\u5ba4", "name": "\u5df4\u9ece\u8d1d\u751c", "id": 503957919033720832, "pageNo": 0, "pageCount": null, "pageSize": 10, "ids": null, "endTime": null, "startTime": null}, {"cardNumFive": null, "isSupportYj": null, "cityName": null, "districtName": null, "shopinfo": {"mid": "888002158122944", "good_flag": "2", "new_flag": "2", "short_name": "\u5df4\u9ece\u8d1d\u751c", "short_name_pinyin": "balibeitian", "status": null, "address": null, "name": null, "id": "565224393643393024"}, "mid": "888002158122944", "shopId": "565224393643393024", "netid": null, "province": 901, "district": 601, "zipcode": null, "telephone": null, "posDate": null, "destineTel": null, "togoTel": null, "trafficWay": null, "signBuilding": null, "businessArea": null, "selfRoom": null, "businessTime": null, "stall": null, "consume": null, "serviceFei": null, "favourable": null, "shopMemo": null, "appraise": null, "website": null, "memo": null, "payTypes": "\u6749\u5fb7\u5361,", "shopTypes": null, "consumeTypes": null, "cookTypes": null, "orderNum": null, "card4no": null, "card4noAcc": null, "district2": 406, "searchScope": null, "status": 1, "address": "\u4e2d\u5c71\u897f\u8def262\u53f732\u5e62F1-08", "name": "\u4e2d\u5c71\u897f\u8def\u5e97", "id": 565224391701430272, "pageNo": 0, "pageCount": null, "pageSize": 10, "ids": null, "endTime": null, "startTime": null}, {"cardNumFive": null, "isSupportYj": null, "cityName": null, "districtName": null, "shopinfo": {"mid": "888002154620154", "good_flag": "2", "new_flag": "2", "short_name": "\u5df4\u9ece\u8d1d\u751c", "short_name_pinyin": "balibeitian", "status": null, "address": null, "name": null, "id": "565224397149831168"}, "mid": "888002154620154", "shopId": "565224397149831168", "netid": null, "province": 901, "district": 601, "zipcode": null, "telephone": null, "posDate": null, "destineTel": null, "togoTel": null, "trafficWay": null, "signBuilding": null, "businessArea": null, "selfRoom": null, "businessTime": null, "stall": null, "consume": null, "serviceFei": null, "favourable": null, "shopMemo": null, "appraise": null, "website": null, "memo": null, "payTypes": "\u6749\u5fb7\u5361,", "shopTypes": null, "consumeTypes": null, "cookTypes": null, "orderNum": null, "card4no": null, "card4noAcc": null, "district2": 403, "searchScope": null, "status": 1, "address": "\u7530\u6797\u8def105\u53f7103\u5ba4", "name": "\u5df4\u9ece\u8d1d\u751c\u7530\u6797\u8def\u5e97", "id": 565224395207868416, "pageNo": 0, "pageCount": null, "pageSize": 10, "ids": null, "endTime": null, "startTime": null}], "pageLimit": 650, "size": 10}