{"pageCount": 1095, "count": 10942, "pageNo": 68, "subShopInfo": {"cardNumFive": "", "isSupportYj": "", "cityName": null, "districtName": null, "shopinfo": {"mid": null, "good_flag": null, "new_flag": null, "short_name": null, "short_name_pinyin": null, "status": null, "address": "", "name": "", "id": null}, "mid": null, "shopId": null, "netid": null, "province": 901, "district": null, "zipcode": null, "telephone": null, "posDate": null, "destineTel": null, "togoTel": null, "trafficWay": null, "signBuilding": null, "businessArea": null, "selfRoom": null, "businessTime": null, "stall": null, "consume": null, "serviceFei": null, "favourable": null, "shopMemo": "1", "appraise": null, "website": null, "memo": null, "payTypes": "", "shopTypes": "", "consumeTypes": null, "cookTypes": null, "orderNum": null, "card4no": null, "card4noAcc": null, "district2": null, "searchScope": null, "status": null, "address": "", "name": null, "id": null, "pageNo": 67, "pageCount": null, "pageSize": 10, "ids": null, "endTime": null, "startTime": null}, "list": [{"cardNumFive": null, "isSupportYj": null, "cityName": null, "districtName": null, "shopinfo": {"mid": "888888858120550", "good_flag": "1", "new_flag": "2", "short_name": "\u68d2\u7ea6\u7ff0", "short_name_pinyin": "bangyuehan", "status": null, "address": null, "name": null, "id": "31235"}, "mid": "888888858120550", "shopId": "31235", "netid": null, "province": 901, "district": 601, "zipcode": null, "telephone": "62321055", "posDate": "20080313", "destineTel": null, "togoTel": null, "trafficWay": "\u516c\u4ea4136 824 837", "signBuilding": null, "businessArea": null, "selfRoom": null, "businessTime": "10:00~22:00", "stall": "\u6709", "consume": "70\u5143", "serviceFei": null, "favourable": null, "shopMemo": null, "appraise": null, "website": null, "memo": null, "payTypes": "\u6749\u5fb7\u5361", "shopTypes": "\u9910\u996e", "consumeTypes": "\u597d\u53cb\u5c0f\u805a \u6d6a\u6f2b\u7ea6\u4f1a \u4f11\u95f2\u5c31\u9910", "cookTypes": null, "orderNum": 1000, "card4no": null, "card4noAcc": null, "district2": 406, "searchScope": null, "status": 1, "address": "\u6b66\u5b81\u5357\u8def419\u53f7", "name": "\u68d2\u7ea6\u7ff0 \u8fbe\u5b89\u5e97", "id": 132718, "pageNo": 0, "pageCount": null, "pageSize": 10, "ids": null, "endTime": null, "startTime": null}, {"cardNumFive": null, "isSupportYj": null, "cityName": null, "districtName": null, "shopinfo": {"mid": "888888858120550", "good_flag": "1", "new_flag": "2", "short_name": "\u68d2\u7ea6\u7ff0", "short_name_pinyin": "bangyuehan", "status": null, "address": null, "name": null, "id": "31235"}, "mid": "888888858120550", "shopId": "31235", "netid": null, "province": 901, "district": 601, "zipcode": null, "telephone": "63034964", "posDate": "20080318", "destineTel": null, "togoTel": null, "trafficWay": "\u516c\u4ea4\u96a7\u9053\u516b\u7ebf 89 933", "signBuilding": null, "businessArea": null, "selfRoom": null, "businessTime": "10:00~22:00", "stall": "\u6709", "consume": "70\u5143", "serviceFei": null, "favourable": null, "shopMemo": null, "appraise": null, "website": null, "memo": null, "payTypes": "\u6749\u5fb7\u5361", "shopTypes": "\u9910\u996e", "consumeTypes": "\u597d\u53cb\u5c0f\u805a,\u6d6a\u6f2b\u7ea6\u4f1a,\u4f11\u95f2\u5c31\u9910", "cookTypes": null, "orderNum": 1000, "card4no": null, "card4noAcc": null, "district2": 401, "searchScope": null, "status": 1, "address": "\u4e3d\u56ed\u8def1009\u53f7", "name": "\u68d2\u7ea6\u7ff0 \u5927\u540c\u5e97", "id": 132721, "pageNo": 0, "pageCount": null, "pageSize": 10, "ids": null, "endTime": null, "startTime": null}, {"cardNumFive": null, "isSupportYj": null, "cityName": null, "districtName": null, "shopinfo": {"mid": "888888858120791", "good_flag": "2", "new_flag": "1", "short_name": "\u68d2\u7ea6\u7ff0", "short_name_pinyin": "bangyuehan", "status": null, "address": null, "name": null, "id": "31236"}, "mid": "888888858120791", "shopId": "31236", "netid": null, "province": 901, "district": 601, "zipcode": null, "telephone": null, "posDate": "20100223", "destineTel": null, "togoTel": null, "trafficWay": null, "signBuilding": null, "businessArea": null, "selfRoom": null, "businessTime": null, "stall": null, "consume": null, "serviceFei": null, "favourable": null, "shopMemo": null, "appraise": null, "website": null, "memo": null, "payTypes": "\u6749\u5fb7\u5361", "shopTypes": "\u9910\u996e", "consumeTypes": null, "cookTypes": null, "orderNum": 1000, "card4no": null, "card4noAcc": null, "district2": 409, "searchScope": null, "status": 1, "address": "\u90fd\u5e02\u8def5001\u53f7\u4ef2\u76db\u4e16\u754c\u5546\u57ce4\u697c", "name": "\u68d2\u7ea6\u7ff0 \u90fd\u5e02\u8def\u5e97", "id": 132723, "pageNo": 0, "pageCount": null, "pageSize": 10, "ids": null, "endTime": null, "startTime": null}, {"cardNumFive": null, "isSupportYj": null, "cityName": null, "districtName": null, "shopinfo": {"mid": "888888858120550", "good_flag": "1", "new_flag": "2", "short_name": "\u68d2\u7ea6\u7ff0", "short_name_pinyin": "bangyuehan", "status": null, "address": null, "name": null, "id": "31235"}, "mid": "888888858120550", "shopId": "31235", "netid": null, "province": 901, "district": 601, "zipcode": null, "telephone": "021-62777272", "posDate": "20080313", "destineTel": null, "togoTel": null, "trafficWay": "\u516c\u4ea424 112 837", "signBuilding": null, "businessArea": null, "selfRoom": null, "businessTime": "10:00~22:00", "stall": "\u6709", "consume": "70\u5143", "serviceFei": null, "favourable": null, "shopMemo": null, "appraise": null, "website": null, "memo": null, "payTypes": "\u6749\u5fb7\u5361", "shopTypes": "\u9910\u996e", "consumeTypes": "\u4f11\u95f2\u5c31\u9910 \u597d\u53cb\u5c0f\u805a \u6d6a\u6f2b\u7ea6\u4f1a", "cookTypes": null, "orderNum": 1000, "card4no": null, "card4noAcc": null, "district2": 404, "searchScope": null, "status": 1, "address": "\u6c5f\u5b81\u8def1226\u53f7", "name": "\u68d2\u7ea6\u7ff0 \u6c5f\u5b81\u5e97", "id": 132734, "pageNo": 0, "pageCount": null, "pageSize": 10, "ids": null, "endTime": null, "startTime": null}, {"cardNumFive": null, "isSupportYj": null, "cityName": null, "districtName": null, "shopinfo": {"mid": "888888858120550", "good_flag": "1", "new_flag": "2", "short_name": "\u68d2\u7ea6\u7ff0", "short_name_pinyin": "bangyuehan", "status": null, "address": null, "name": null, "id": "31235"}, "mid": "888888858120550", "shopId": "31235", "netid": null, "province": 901, "district": 601, "zipcode": null, "telephone": "021-65167272", "posDate": "20080314", "destineTel": null, "togoTel": null, "trafficWay": "\u516c\u4ea4502 537 \u5730\u94c1\u4e09\u53f7\u7ebf", "signBuilding": null, "businessArea": null, "selfRoom": null, "businessTime": "10:00~22:00", "stall": "\u6709", "consume": "70\u5143", "serviceFei": null, "favourable": null, "shopMemo": null, "appraise": null, "website": null, "memo": null, "payTypes": "\u6749\u5fb7\u5361", "shopTypes": "\u9910\u996e", "consumeTypes": "\u4f11\u95f2\u5c31\u9910 \u597d\u53cb\u5c0f\u805a \u6d6a\u6f2b\u7ea6\u4f1a", "cookTypes": null, "orderNum": 1000, "card4no": null, "card4noAcc": null, "district2": 406, "searchScope": null, "status": 1, "address": "\u9038\u4ed9\u8def580\u53f7", "name": "\u68d2\u7ea6\u7ff0 \u6c5f\u6e7e\u5e97", "id": 132735, "pageNo": 0, "pageCount": null, "pageSize": 10, "ids": null, "endTime": null, "startTime": null}, {"cardNumFive": null, "isSupportYj": null, "cityName": null, "districtName": null, "shopinfo": {"mid": "888888858120554", "good_flag": "1", "new_flag": "2", "short_name": "\u68d2\u7ea6\u7ff0", "short_name_pinyin": "bangyuehan", "status": null, "address": null, "name": null, "id": "31239"}, "mid": "888888858120554", "shopId": "31239", "netid": null, "province": 901, "district": 601, "zipcode": null, "telephone": "021-62217272", "posDate": "20080324", "destineTel": null, "togoTel": null, "trafficWay": "\u516c\u4ea4989", "signBuilding": null, "businessArea": null, "selfRoom": null, "businessTime": "10:00~22:00", "stall": "\u6709", "consume": "70\u5143", "serviceFei": null, "favourable": null, "shopMemo": null, "appraise": null, "website": null, "memo": null, "payTypes": "\u6749\u5fb7\u5361", "shopTypes": "\u9910\u996e", "consumeTypes": "\u4f11\u95f2\u5c31\u9910 \u597d\u53cb\u5c0f\u805a \u6d6a\u6f2b\u7ea6\u4f1a", "cookTypes": null, "orderNum": 1000, "card4no": null, "card4noAcc": null, "district2": 418, "searchScope": null, "status": 1, "address": "\u91d1\u4e30\u8def441\u53f7", "name": "\u68d2\u7ea6\u7ff0 \u91d1\u4e30\u5e97", "id": 132736, "pageNo": 0, "pageCount": null, "pageSize": 10, "ids": null, "endTime": null, "startTime": null}, {"cardNumFive": null, "isSupportYj": null, "cityName": null, "districtName": null, "shopinfo": {"mid": "888888858120550", "good_flag": "1", "new_flag": "2", "short_name": "\u68d2\u7ea6\u7ff0", "short_name_pinyin": "bangyuehan", "status": null, "address": null, "name": null, "id": "31235"}, "mid": "888888858120550", "shopId": "31235", "netid": null, "province": 901, "district": 601, "zipcode": null, "telephone": "021-58347272", "posDate": "20080322", "destineTel": null, "togoTel": null, "trafficWay": "\u5730\u94c1\u516d\u53f7\u7ebf \u65b0\u5ddd\u7ebf 791", "signBuilding": null, "businessArea": null, "selfRoom": null, "businessTime": "10:00~22:00", "stall": "\u6709", "consume": "70\u5143", "serviceFei": null, "favourable": null, "shopMemo": null, "appraise": null, "website": null, "memo": null, "payTypes": "\u6749\u5fb7\u5361", "shopTypes": "\u9910\u996e", "consumeTypes": "\u4f11\u95f2\u5c31\u9910 \u597d\u53cb\u5c0f\u805a \u6d6a\u6f2b\u7ea6\u4f1a", "cookTypes": null, "orderNum": 1000, "card4no": null, "card4noAcc": null, "district2": 418, "searchScope": null, "status": 1, "address": "\u91d1\u6865\u8def1088\u53f7B\u5ea7101\u5ba4", "name": "\u68d2\u7ea6\u7ff0 \u91d1\u6865\u4e2d\u60e0\u5e97", "id": 132737, "pageNo": 0, "pageCount": null, "pageSize": 10, "ids": null, "endTime": null, "startTime": null}, {"cardNumFive": null, "isSupportYj": null, "cityName": null, "districtName": null, "shopinfo": {"mid": "888888858120550", "good_flag": "1", "new_flag": "2", "short_name": "\u68d2\u7ea6\u7ff0", "short_name_pinyin": "bangyuehan", "status": null, "address": null, "name": null, "id": "31235"}, "mid": "888888858120550", "shopId": "31235", "netid": null, "province": 901, "district": 601, "zipcode": null, "telephone": "021-55967272", "posDate": "20080314", "destineTel": null, "togoTel": null, "trafficWay": "\u516c\u4ea4123 \u5730\u94c1\u516b\u53f7\u7ebf", "signBuilding": null, "businessArea": null, "selfRoom": null, "businessTime": "10:00~22:00", "stall": "\u6709", "consume": "70\u5143", "serviceFei": null, "favourable": null, "shopMemo": null, "appraise": null, "website": null, "memo": null, "payTypes": "\u6749\u5fb7\u5361", "shopTypes": "\u9910\u996e", "consumeTypes": "\u4f11\u95f2\u5c31\u9910 \u597d\u53cb\u5c0f\u805a \u6d6a\u6f2b\u7ea6\u4f1a", "cookTypes": null, "orderNum": 1000, "card4no": null, "card4noAcc": null, "district2": 408, "searchScope": null, "status": 1, "address": "\u5927\u8fde\u8def1228\u53f7", "name": "\u68d2\u7ea6\u7ff0 \u63a7\u6c5f\u5e97", "id": 132738, "pageNo": 0, "pageCount": null, "pageSize": 10, "ids": null, "endTime": null, "startTime": null}, {"cardNumFive": null, "isSupportYj": null, "cityName": null, "districtName": null, "shopinfo": {"mid": "888888858120550", "good_flag": "1", "new_flag": "2", "short_name": "\u68d2\u7ea6\u7ff0", "short_name_pinyin": "bangyuehan", "status": null, "address": null, "name": null, "id": "31235"}, "mid": "888888858120550", "shopId": "31235", "netid": null, "province": 901, "district": 601, "zipcode": null, "telephone": "021-63617272", "posDate": "20080313", "destineTel": null, "togoTel": null, "trafficWay": "\u65c5\u6e3810\u53f7\u7ebf \u5730\u94c1\u4e00\u53f7\u7ebf \u516c\u4ea4108", "signBuilding": null, "businessArea": null, "selfRoom": null, "businessTime": "10:00~22:00", "stall": "\u6709", "consume": "70\u5143", "serviceFei": null, "favourable": null, "shopMemo": null, "appraise": null, "website": null, "memo": null, "payTypes": "\u6749\u5fb7\u5361", "shopTypes": "\u9910\u996e", "consumeTypes": "\u4f11\u95f2\u5c31\u9910 \u597d\u53cb\u5c0f\u805a \u6d6a\u6f2b\u7ea6\u4f1a", "cookTypes": null, "orderNum": 1000, "card4no": null, "card4noAcc": null, "district2": 401, "searchScope": null, "status": 1, "address": "\u897f\u85cf\u4e2d\u8def268\u53f7", "name": "\u68d2\u7ea6\u7ff0 \u6765\u798f\u58eb\u5e97", "id": 132739, "pageNo": 0, "pageCount": null, "pageSize": 10, "ids": null, "endTime": null, "startTime": null}, {"cardNumFive": null, "isSupportYj": null, "cityName": null, "districtName": null, "shopinfo": {"mid": "888888858120550", "good_flag": "1", "new_flag": "2", "short_name": "\u68d2\u7ea6\u7ff0", "short_name_pinyin": "bangyuehan", "status": null, "address": null, "name": null, "id": "31235"}, "mid": "888888858120550", "shopId": "31235", "netid": null, "province": 901, "district": 601, "zipcode": null, "telephone": "021-64617272", "posDate": "20080314", "destineTel": null, "togoTel": null, "trafficWay": "\u516c\u4ea4748 87 \u8398\u7eaa\u7ebf", "signBuilding": null, "businessArea": null, "selfRoom": null, "businessTime": "10:00~22:00", "stall": "\u6709", "consume": "70\u5143", "serviceFei": null, "favourable": null, "shopMemo": null, "appraise": null, "website": null, "memo": null, "payTypes": "\u6749\u5fb7\u5361", "shopTypes": "\u9910\u996e", "consumeTypes": "\u4f11\u95f2\u5c31\u9910 \u597d\u53cb\u5c0f\u805a \u6d6a\u6f2b\u7ea6\u4f1a", "cookTypes": null, "orderNum": 1000, "card4no": null, "card4noAcc": null, "district2": 409, "searchScope": null, "status": 1, "address": "\u4e03\u8398\u8def3655\u53f7", "name": "\u68d2\u7ea6\u7ff0 \u4e03\u5b9d\u9f99\u57ce\u5e97", "id": 132742, "pageNo": 0, "pageCount": null, "pageSize": 10, "ids": null, "endTime": null, "startTime": null}], "pageLimit": 670, "size": 10}