{"pageCount": 1095, "count": 10942, "pageNo": 63, "subShopInfo": {"cardNumFive": "", "isSupportYj": "", "cityName": null, "districtName": null, "shopinfo": {"mid": null, "good_flag": null, "new_flag": null, "short_name": null, "short_name_pinyin": null, "status": null, "address": "", "name": "", "id": null}, "mid": null, "shopId": null, "netid": null, "province": 901, "district": null, "zipcode": null, "telephone": null, "posDate": null, "destineTel": null, "togoTel": null, "trafficWay": null, "signBuilding": null, "businessArea": null, "selfRoom": null, "businessTime": null, "stall": null, "consume": null, "serviceFei": null, "favourable": null, "shopMemo": "1", "appraise": null, "website": null, "memo": null, "payTypes": "", "shopTypes": "", "consumeTypes": null, "cookTypes": null, "orderNum": null, "card4no": null, "card4noAcc": null, "district2": null, "searchScope": null, "status": null, "address": "", "name": null, "id": null, "pageNo": 62, "pageCount": null, "pageSize": 10, "ids": null, "endTime": null, "startTime": null}, "list": [{"cardNumFive": null, "isSupportYj": null, "cityName": null, "districtName": null, "shopinfo": {"mid": "888888854410137", "good_flag": null, "new_flag": null, "short_name": "\u5df4\u9ece\u8d1d\u751c", "short_name_pinyin": "balibeitian", "status": null, "address": null, "name": null, "id": "39215"}, "mid": "888888854410137", "shopId": "39215", "netid": null, "province": 901, "district": 601, "zipcode": null, "telephone": "66313792", "posDate": null, "destineTel": null, "togoTel": null, "trafficWay": null, "signBuilding": null, "businessArea": null, "selfRoom": null, "businessTime": null, "stall": null, "consume": null, "serviceFei": null, "favourable": null, "shopMemo": null, "appraise": null, "website": null, "memo": null, "payTypes": "\u6749\u5fb7\u5361", "shopTypes": "\u9762\u5305\u897f\u997c", "consumeTypes": null, "cookTypes": null, "orderNum": 1000, "card4no": null, "card4noAcc": null, "district2": 410, "searchScope": null, "status": 1, "address": "\u5171\u548c\u65b0\u8def1978\u53f7", "name": "\u5df4\u9ece\u8d1d\u751c \u5927\u5b81\u56fd\u9645\u5e97", "id": 167288, "pageNo": 0, "pageCount": null, "pageSize": 10, "ids": null, "endTime": null, "startTime": null}, {"cardNumFive": null, "isSupportYj": null, "cityName": null, "districtName": null, "shopinfo": {"mid": "888888854410137", "good_flag": null, "new_flag": null, "short_name": "\u5df4\u9ece\u8d1d\u751c", "short_name_pinyin": "balibeitian", "status": null, "address": null, "name": null, "id": "39215"}, "mid": "888888854410137", "shopId": "39215", "netid": null, "province": 901, "district": 601, "zipcode": null, "telephone": "34323099", "posDate": null, "destineTel": null, "togoTel": null, "trafficWay": null, "signBuilding": null, "businessArea": null, "selfRoom": null, "businessTime": null, "stall": null, "consume": null, "serviceFei": null, "favourable": null, "shopMemo": null, "appraise": null, "website": null, "memo": null, "payTypes": "\u6749\u5fb7\u5361", "shopTypes": "\u9762\u5305\u897f\u997c", "consumeTypes": null, "cookTypes": null, "orderNum": 1000, "card4no": null, "card4noAcc": null, "district2": 409, "searchScope": null, "status": 1, "address": "\u8679\u6cc9\u8def1051\u5f049\u53f7", "name": "\u5df4\u9ece\u8d1d\u751c \u8679\u6cc9\u8def\u5e97", "id": 167289, "pageNo": 0, "pageCount": null, "pageSize": 10, "ids": null, "endTime": null, "startTime": null}, {"cardNumFive": null, "isSupportYj": null, "cityName": null, "districtName": null, "shopinfo": {"mid": "888888854410137", "good_flag": null, "new_flag": null, "short_name": "\u5df4\u9ece\u8d1d\u751c", "short_name_pinyin": "balibeitian", "status": null, "address": null, "name": null, "id": "39215"}, "mid": "888888854410137", "shopId": "39215", "netid": null, "province": 901, "district": 601, "zipcode": null, "telephone": "55660739", "posDate": null, "destineTel": null, "togoTel": null, "trafficWay": null, "signBuilding": null, "businessArea": null, "selfRoom": null, "businessTime": null, "stall": null, "consume": null, "serviceFei": null, "favourable": null, "shopMemo": null, "appraise": null, "website": null, "memo": null, "payTypes": "\u6749\u5fb7\u5361", "shopTypes": "\u9762\u5305\u897f\u997c", "consumeTypes": null, "cookTypes": null, "orderNum": 1000, "card4no": null, "card4noAcc": null, "district2": 407, "searchScope": null, "status": 1, "address": "\u51c7\u6caa\u8def111\u53f7", "name": "\u5df4\u9ece\u8d1d\u751c \u4e94\u89d2\u573a\u5e97", "id": 167290, "pageNo": 0, "pageCount": null, "pageSize": 10, "ids": null, "endTime": null, "startTime": null}, {"cardNumFive": null, "isSupportYj": null, "cityName": null, "districtName": null, "shopinfo": {"mid": "888888854410137", "good_flag": null, "new_flag": null, "short_name": "\u5df4\u9ece\u8d1d\u751c", "short_name_pinyin": "balibeitian", "status": null, "address": null, "name": null, "id": "39215"}, "mid": "888888854410137", "shopId": "39215", "netid": null, "province": 901, "district": 601, "zipcode": null, "telephone": "50338028", "posDate": null, "destineTel": null, "togoTel": null, "trafficWay": null, "signBuilding": null, "businessArea": null, "selfRoom": null, "businessTime": null, "stall": null, "consume": null, "serviceFei": null, "favourable": null, "shopMemo": null, "appraise": null, "website": null, "memo": null, "payTypes": "\u6749\u5fb7\u5361", "shopTypes": "\u9762\u5305\u897f\u997c", "consumeTypes": null, "cookTypes": null, "orderNum": 1000, "card4no": null, "card4noAcc": null, "district2": 418, "searchScope": null, "status": 1, "address": "\u82b3\u7538\u8def199\u53f7", "name": "\u5df4\u9ece\u8d1d\u751c \u82b3\u7538\u5e97", "id": 167296, "pageNo": 0, "pageCount": null, "pageSize": 10, "ids": null, "endTime": null, "startTime": null}, {"cardNumFive": null, "isSupportYj": null, "cityName": null, "districtName": null, "shopinfo": {"mid": "888888854410137", "good_flag": "2", "new_flag": "1", "short_name": "\u5df4\u9ece\u8d1d\u751c", "short_name_pinyin": "balibeitian", "status": null, "address": null, "name": null, "id": "31179"}, "mid": "888888854410137", "shopId": "31179", "netid": null, "province": 901, "district": 601, "zipcode": null, "telephone": null, "posDate": null, "destineTel": null, "togoTel": null, "trafficWay": null, "signBuilding": null, "businessArea": null, "selfRoom": null, "businessTime": null, "stall": null, "consume": null, "serviceFei": null, "favourable": null, "shopMemo": null, "appraise": null, "website": null, "memo": null, "payTypes": "\u6749\u5fb7\u5361", "shopTypes": "\u9762\u5305\u897f\u997c", "consumeTypes": null, "cookTypes": null, "orderNum": 1000, "card4no": null, "card4noAcc": null, "district2": 408, "searchScope": null, "status": 1, "address": "\u66f2\u9633\u8def800\u53f71\u697c", "name": "\u5df4\u9ece\u8d1d\u751c \u66f2\u9633\u8def\u5e97", "id": 181467, "pageNo": 0, "pageCount": null, "pageSize": 10, "ids": null, "endTime": null, "startTime": null}, {"cardNumFive": null, "isSupportYj": null, "cityName": null, "districtName": null, "shopinfo": {"mid": "888888854410137", "good_flag": "2", "new_flag": "1", "short_name": "\u5df4\u9ece\u8d1d\u751c", "short_name_pinyin": "balibeitian", "status": null, "address": null, "name": null, "id": "31179"}, "mid": "888888854410137", "shopId": "31179", "netid": null, "province": 901, "district": 601, "zipcode": null, "telephone": "60830989", "posDate": null, "destineTel": null, "togoTel": null, "trafficWay": null, "signBuilding": null, "businessArea": null, "selfRoom": null, "businessTime": null, "stall": null, "consume": null, "serviceFei": null, "favourable": null, "shopMemo": null, "appraise": null, "website": null, "memo": null, "payTypes": "\u6749\u5fb7\u5361", "shopTypes": "\u9762\u5305\u897f\u997c", "consumeTypes": null, "cookTypes": null, "orderNum": 1000, "card4no": null, "card4noAcc": null, "district2": 408, "searchScope": null, "status": 1, "address": "\u897f\u6c5f\u6e7e\u8def388\u53f7", "name": "\u5df4\u9ece\u8d1d\u751c \u8679\u53e3\u9f99\u4e4b\u68a6\u5e97", "id": 181468, "pageNo": 0, "pageCount": null, "pageSize": 10, "ids": null, "endTime": null, "startTime": null}, {"cardNumFive": null, "isSupportYj": null, "cityName": null, "districtName": null, "shopinfo": {"mid": "888888854410137", "good_flag": "2", "new_flag": "1", "short_name": "\u5df4\u9ece\u8d1d\u751c", "short_name_pinyin": "balibeitian", "status": null, "address": null, "name": null, "id": "31179"}, "mid": "888888854410137", "shopId": "31179", "netid": null, "province": 901, "district": 601, "zipcode": null, "telephone": null, "posDate": null, "destineTel": null, "togoTel": null, "trafficWay": null, "signBuilding": null, "businessArea": null, "selfRoom": null, "businessTime": null, "stall": null, "consume": null, "serviceFei": null, "favourable": null, "shopMemo": null, "appraise": null, "website": null, "memo": null, "payTypes": "\u6749\u5fb7\u5361", "shopTypes": "\u9762\u5305\u897f\u997c", "consumeTypes": null, "cookTypes": null, "orderNum": 1000, "card4no": null, "card4noAcc": null, "district2": 418, "searchScope": null, "status": 1, "address": "\u5f20\u6768\u8def601\u53f7", "name": "\u5df4\u9ece\u8d1d\u751c \u534e\u8bda\u5927\u53a6\u5e97", "id": 181469, "pageNo": 0, "pageCount": null, "pageSize": 10, "ids": null, "endTime": null, "startTime": null}, {"cardNumFive": null, "isSupportYj": null, "cityName": null, "districtName": null, "shopinfo": {"mid": "888888854410137", "good_flag": "2", "new_flag": "1", "short_name": "\u5df4\u9ece\u8d1d\u751c", "short_name_pinyin": "balibeitian", "status": null, "address": null, "name": null, "id": "31179"}, "mid": "888888854410137", "shopId": "31179", "netid": null, "province": 901, "district": 601, "zipcode": null, "telephone": null, "posDate": null, "destineTel": null, "togoTel": null, "trafficWay": null, "signBuilding": null, "businessArea": null, "selfRoom": null, "businessTime": null, "stall": null, "consume": null, "serviceFei": null, "favourable": null, "shopMemo": null, "appraise": null, "website": null, "memo": null, "payTypes": "\u6749\u5fb7\u5361", "shopTypes": "\u9762\u5305\u897f\u997c", "consumeTypes": null, "cookTypes": null, "orderNum": 1000, "card4no": null, "card4noAcc": null, "district2": 405, "searchScope": null, "status": 1, "address": "\u4e2d\u5c71\u5317\u8def3300\u53f7", "name": "\u5df4\u9ece\u8d1d\u751c \u6708\u661f\u73af\u7403\u6e2f\u5e97", "id": 181470, "pageNo": 0, "pageCount": null, "pageSize": 10, "ids": null, "endTime": null, "startTime": null}, {"cardNumFive": null, "isSupportYj": null, "cityName": null, "districtName": null, "shopinfo": {"mid": "888888854410137", "good_flag": "2", "new_flag": "1", "short_name": "\u5df4\u9ece\u8d1d\u751c", "short_name_pinyin": "balibeitian", "status": null, "address": null, "name": null, "id": "31179"}, "mid": "888888854410137", "shopId": "31179", "netid": null, "province": 901, "district": 601, "zipcode": null, "telephone": "67711331", "posDate": null, "destineTel": null, "togoTel": null, "trafficWay": null, "signBuilding": null, "businessArea": null, "selfRoom": null, "businessTime": null, "stall": null, "consume": null, "serviceFei": null, "favourable": null, "shopMemo": null, "appraise": null, "website": null, "memo": null, "payTypes": "\u6749\u5fb7\u5361", "shopTypes": "\u9762\u5305\u897f\u997c", "consumeTypes": null, "cookTypes": null, "orderNum": 1000, "card4no": null, "card4noAcc": null, "district2": 405, "searchScope": null, "status": 1, "address": "\u8363\u4e50\u4e2d\u8def8\u53f7", "name": "\u5df4\u9ece\u8d1d\u751c \u8363\u4e50\u8def\u5e97", "id": 183266, "pageNo": 0, "pageCount": null, "pageSize": 10, "ids": null, "endTime": null, "startTime": null}, {"cardNumFive": null, "isSupportYj": null, "cityName": null, "districtName": null, "shopinfo": {"mid": "888888854410137", "good_flag": "2", "new_flag": "1", "short_name": "\u5df4\u9ece\u8d1d\u751c", "short_name_pinyin": "balibeitian", "status": null, "address": null, "name": null, "id": "31179"}, "mid": "888888854410137", "shopId": "31179", "netid": null, "province": 901, "district": 601, "zipcode": null, "telephone": null, "posDate": null, "destineTel": null, "togoTel": null, "trafficWay": null, "signBuilding": null, "businessArea": null, "selfRoom": null, "businessTime": null, "stall": null, "consume": null, "serviceFei": null, "favourable": null, "shopMemo": null, "appraise": null, "website": null, "memo": null, "payTypes": "\u6749\u5fb7\u5361", "shopTypes": "\u9762\u5305\u897f\u997c", "consumeTypes": null, "cookTypes": null, "orderNum": 1000, "card4no": null, "card4noAcc": null, "district2": 412, "searchScope": null, "status": 1, "address": "\u65b0\u5357\u8def983\u53f71\u697c", "name": "\u5df4\u9ece\u8d1d\u751c \u65b0\u5357\u8def\u5e97", "id": 183267, "pageNo": 0, "pageCount": null, "pageSize": 10, "ids": null, "endTime": null, "startTime": null}], "pageLimit": 620, "size": 10}