{"pageCount": 1095, "count": 10942, "pageNo": 67, "subShopInfo": {"cardNumFive": "", "isSupportYj": "", "cityName": null, "districtName": null, "shopinfo": {"mid": null, "good_flag": null, "new_flag": null, "short_name": null, "short_name_pinyin": null, "status": null, "address": "", "name": "", "id": null}, "mid": null, "shopId": null, "netid": null, "province": 901, "district": null, "zipcode": null, "telephone": null, "posDate": null, "destineTel": null, "togoTel": null, "trafficWay": null, "signBuilding": null, "businessArea": null, "selfRoom": null, "businessTime": null, "stall": null, "consume": null, "serviceFei": null, "favourable": null, "shopMemo": "1", "appraise": null, "website": null, "memo": null, "payTypes": "", "shopTypes": "", "consumeTypes": null, "cookTypes": null, "orderNum": null, "card4no": null, "card4noAcc": null, "district2": null, "searchScope": null, "status": null, "address": "", "name": null, "id": null, "pageNo": 66, "pageCount": null, "pageSize": 10, "ids": null, "endTime": null, "startTime": null}, "list": [{"cardNumFive": null, "isSupportYj": null, "cityName": null, "districtName": null, "shopinfo": {"mid": "888888853110106", "good_flag": "2", "new_flag": "2", "short_name": "\u5df4\u9ece\u6625\u5929", "short_name_pinyin": "balichuntian", "status": null, "address": null, "name": null, "id": "31180"}, "mid": "888888853110106", "shopId": "31180", "netid": null, "province": 901, "district": 601, "zipcode": null, "telephone": null, "posDate": "20100118", "destineTel": null, "togoTel": null, "trafficWay": null, "signBuilding": null, "businessArea": null, "selfRoom": null, "businessTime": null, "stall": null, "consume": null, "serviceFei": null, "favourable": null, "shopMemo": null, "appraise": null, "website": null, "memo": null, "payTypes": "\u6749\u5fb7\u5361", "shopTypes": "\u767e\u8d27", "consumeTypes": null, "cookTypes": null, "orderNum": 1000, "card4no": null, "card4noAcc": null, "district2": 416, "searchScope": null, "status": 1, "address": "\u5b9d\u5c71\u533a\u771f\u534e\u8def888\u53f7", "name": "\u5df4\u9ece\u6625\u5929 \u5b9d\u5c71\u5e97", "id": 132383, "pageNo": 0, "pageCount": null, "pageSize": 10, "ids": null, "endTime": null, "startTime": null}, {"cardNumFive": null, "isSupportYj": null, "cityName": null, "districtName": null, "shopinfo": {"mid": "888888853110106", "good_flag": "2", "new_flag": "2", "short_name": "\u5df4\u9ece\u6625\u5929", "short_name_pinyin": "balichuntian", "status": null, "address": null, "name": null, "id": "31180"}, "mid": "888888853110106", "shopId": "31180", "netid": null, "province": 901, "district": 601, "zipcode": null, "telephone": null, "posDate": null, "destineTel": null, "togoTel": null, "trafficWay": null, "signBuilding": null, "businessArea": null, "selfRoom": null, "businessTime": null, "stall": null, "consume": null, "serviceFei": null, "favourable": null, "shopMemo": null, "appraise": null, "website": null, "memo": null, "payTypes": "\u6749\u5fb7\u5361,", "shopTypes": "\u767e\u8d27", "consumeTypes": null, "cookTypes": null, "orderNum": null, "card4no": null, "card4noAcc": null, "district2": 404, "searchScope": null, "status": 1, "address": "\u957f\u5bff\u8def155\u53f7", "name": "\u9655\u897f\u8def\u5e97", "id": 401434285422149632, "pageNo": 0, "pageCount": null, "pageSize": 10, "ids": null, "endTime": null, "startTime": null}, {"cardNumFive": null, "isSupportYj": null, "cityName": null, "districtName": null, "shopinfo": {"mid": "888888853110106", "good_flag": "2", "new_flag": "2", "short_name": "\u5df4\u9ece\u6625\u5929", "short_name_pinyin": "balichuntian", "status": null, "address": null, "name": null, "id": "31180"}, "mid": "888888853110106", "shopId": "31180", "netid": null, "province": 901, "district": 601, "zipcode": null, "telephone": null, "posDate": null, "destineTel": null, "togoTel": null, "trafficWay": null, "signBuilding": null, "businessArea": null, "selfRoom": null, "businessTime": null, "stall": null, "consume": null, "serviceFei": null, "favourable": null, "shopMemo": null, "appraise": null, "website": null, "memo": null, "payTypes": "\u6749\u5fb7\u5361,", "shopTypes": "\u767e\u8d27", "consumeTypes": null, "cookTypes": null, "orderNum": null, "card4no": null, "card4noAcc": null, "district2": 409, "searchScope": null, "status": 1, "address": "\u4e03\u8398\u8def3755\u53f7", "name": "\u4e03\u5b9d\u5e97", "id": 401434285761888256, "pageNo": 0, "pageCount": null, "pageSize": 10, "ids": null, "endTime": null, "startTime": null}, {"cardNumFive": null, "isSupportYj": null, "cityName": null, "districtName": null, "shopinfo": {"mid": "888888853110106", "good_flag": "2", "new_flag": "2", "short_name": "\u5df4\u9ece\u6625\u5929", "short_name_pinyin": "balichuntian", "status": null, "address": null, "name": null, "id": "31180"}, "mid": "888888853110106", "shopId": "31180", "netid": null, "province": 901, "district": 601, "zipcode": null, "telephone": null, "posDate": null, "destineTel": null, "togoTel": null, "trafficWay": null, "signBuilding": null, "businessArea": null, "selfRoom": null, "businessTime": null, "stall": null, "consume": null, "serviceFei": null, "favourable": null, "shopMemo": null, "appraise": null, "website": null, "memo": null, "payTypes": "\u6749\u5fb7\u5361,", "shopTypes": "\u767e\u8d27", "consumeTypes": null, "cookTypes": null, "orderNum": null, "card4no": null, "card4noAcc": null, "district2": 407, "searchScope": null, "status": 1, "address": "\u6dde\u6caa\u8def1\u53f7", "name": "\u4e94\u89d2\u573a\u5e97", "id": 401434286382645248, "pageNo": 0, "pageCount": null, "pageSize": 10, "ids": null, "endTime": null, "startTime": null}, {"cardNumFive": null, "isSupportYj": null, "cityName": null, "districtName": null, "shopinfo": {"mid": "888888853110106", "good_flag": "2", "new_flag": "2", "short_name": "\u5df4\u9ece\u6625\u5929", "short_name_pinyin": "balichuntian", "status": null, "address": null, "name": null, "id": "31180"}, "mid": "888888853110106", "shopId": "31180", "netid": null, "province": 901, "district": 601, "zipcode": null, "telephone": null, "posDate": null, "destineTel": null, "togoTel": null, "trafficWay": null, "signBuilding": null, "businessArea": null, "selfRoom": null, "businessTime": null, "stall": null, "consume": null, "serviceFei": null, "favourable": null, "shopMemo": null, "appraise": null, "website": null, "memo": null, "payTypes": "\u6749\u5fb7\u5361,", "shopTypes": "\u767e\u8d27", "consumeTypes": null, "cookTypes": null, "orderNum": null, "card4no": null, "card4noAcc": null, "district2": 408, "searchScope": null, "status": 1, "address": "\u56db\u5ddd\u5317\u8def1688\u53f7", "name": "\u8679\u53e3\u5e97", "id": 401434286802075648, "pageNo": 0, "pageCount": null, "pageSize": 10, "ids": null, "endTime": null, "startTime": null}, {"cardNumFive": null, "isSupportYj": null, "cityName": null, "districtName": null, "shopinfo": {"mid": "888888853110106", "good_flag": "2", "new_flag": "2", "short_name": "\u5df4\u9ece\u6625\u5929", "short_name_pinyin": "balichuntian", "status": null, "address": null, "name": null, "id": "31180"}, "mid": "888888853110106", "shopId": "31180", "netid": null, "province": 901, "district": 601, "zipcode": null, "telephone": null, "posDate": null, "destineTel": null, "togoTel": null, "trafficWay": null, "signBuilding": null, "businessArea": null, "selfRoom": null, "businessTime": null, "stall": null, "consume": null, "serviceFei": null, "favourable": null, "shopMemo": null, "appraise": null, "website": null, "memo": null, "payTypes": "\u6749\u5fb7\u5361,", "shopTypes": "\u767e\u8d27", "consumeTypes": null, "cookTypes": null, "orderNum": null, "card4no": null, "card4noAcc": null, "district2": 406, "searchScope": null, "status": 1, "address": "\u5b9a\u897f\u8def1328\u53f7", "name": "\u957f\u5b81\u5e97", "id": 401434287238283264, "pageNo": 0, "pageCount": null, "pageSize": 10, "ids": null, "endTime": null, "startTime": null}, {"cardNumFive": null, "isSupportYj": null, "cityName": null, "districtName": null, "shopinfo": {"mid": "888888853110106", "good_flag": "2", "new_flag": "2", "short_name": "\u5df4\u9ece\u6625\u5929", "short_name_pinyin": "balichuntian", "status": null, "address": null, "name": null, "id": "31180"}, "mid": "888888853110106", "shopId": "31180", "netid": null, "province": 901, "district": 601, "zipcode": null, "telephone": null, "posDate": null, "destineTel": null, "togoTel": null, "trafficWay": null, "signBuilding": null, "businessArea": null, "selfRoom": null, "businessTime": null, "stall": null, "consume": null, "serviceFei": null, "favourable": null, "shopMemo": null, "appraise": null, "website": null, "memo": null, "payTypes": "\u6749\u5fb7\u5361,", "shopTypes": "\u767e\u8d27", "consumeTypes": null, "cookTypes": null, "orderNum": null, "card4no": null, "card4noAcc": null, "district2": 401, "searchScope": null, "status": 1, "address": "\u6dee\u6d77\u4e2d\u8def939\u53f7", "name": "\u6dee\u6d77\u5e97", "id": 401434287594799104, "pageNo": 0, "pageCount": null, "pageSize": 10, "ids": null, "endTime": null, "startTime": null}, {"cardNumFive": null, "isSupportYj": null, "cityName": null, "districtName": null, "shopinfo": {"mid": "888002180430131", "good_flag": null, "new_flag": null, "short_name": "\u5df4\u9ece\u4e09\u57ce", "short_name_pinyin": "balisancheng", "status": null, "address": null, "name": null, "id": "42351"}, "mid": "888002180430131", "shopId": "42351", "netid": null, "province": 901, "district": 601, "zipcode": null, "telephone": null, "posDate": null, "destineTel": null, "togoTel": null, "trafficWay": null, "signBuilding": null, "businessArea": null, "selfRoom": null, "businessTime": null, "stall": null, "consume": null, "serviceFei": null, "favourable": null, "shopMemo": null, "appraise": null, "website": null, "memo": null, "payTypes": "\u6749\u5fb7\u5361", "shopTypes": "\u9910\u996e", "consumeTypes": null, "cookTypes": null, "orderNum": 1000, "card4no": null, "card4noAcc": null, "district2": 409, "searchScope": null, "status": 1, "address": "\u6caa\u95f5\u8def7388\u53f74\u697c", "name": "\u5df4\u9ece\u4e09\u57ce \u6caa\u95f5\u8def\u5e97", "id": 188910, "pageNo": 0, "pageCount": null, "pageSize": 10, "ids": null, "endTime": null, "startTime": null}, {"cardNumFive": null, "isSupportYj": null, "cityName": null, "districtName": null, "shopinfo": {"mid": "888002156610025", "good_flag": "1", "new_flag": "1", "short_name": "\u68d2\u7403\u624b", "short_name_pinyin": "bangqiushou", "status": null, "address": null, "name": null, "id": "31233"}, "mid": "888002156610025", "shopId": "31233", "netid": null, "province": 901, "district": 601, "zipcode": null, "telephone": null, "posDate": "20091207", "destineTel": null, "togoTel": null, "trafficWay": null, "signBuilding": null, "businessArea": null, "selfRoom": null, "businessTime": null, "stall": null, "consume": null, "serviceFei": null, "favourable": null, "shopMemo": null, "appraise": null, "website": null, "memo": null, "payTypes": "\u6749\u5fb7\u5361", "shopTypes": "\u670d\u9970\u5bb6\u7eba", "consumeTypes": null, "cookTypes": null, "orderNum": 1000, "card4no": null, "card4noAcc": null, "district2": 405, "searchScope": null, "status": 1, "address": "\u6b66\u5b81\u8def24\u53f7\u5bb6\u4e50\u798f2\u697c", "name": "\u68d2\u7403\u624b \u6b66\u5b81\u8def\u5e97", "id": 132713, "pageNo": 0, "pageCount": null, "pageSize": 10, "ids": null, "endTime": null, "startTime": null}, {"cardNumFive": null, "isSupportYj": null, "cityName": null, "districtName": null, "shopinfo": {"mid": "888888858120550", "good_flag": "1", "new_flag": "2", "short_name": "\u68d2\u7ea6\u7ff0", "short_name_pinyin": "bangyuehan", "status": null, "address": null, "name": null, "id": "31235"}, "mid": "888888858120550", "shopId": "31235", "netid": null, "province": 901, "district": 601, "zipcode": null, "telephone": "021-61360072", "posDate": "20080319", "destineTel": null, "togoTel": null, "trafficWay": "\u516c\u4ea4162 703 703B", "signBuilding": null, "businessArea": null, "selfRoom": null, "businessTime": "10:00~22:00", "stall": "\u6709", "consume": "70\u5143", "serviceFei": null, "favourable": null, "shopMemo": null, "appraise": null, "website": null, "memo": null, "payTypes": "\u6749\u5fb7\u5361", "shopTypes": "\u9910\u996e", "consumeTypes": "\u4f11\u95f2\u5c31\u9910 \u597d\u53cb\u5c0f\u805a \u6d6a\u6f2b\u7ea6\u4f1a", "cookTypes": null, "orderNum": 1000, "card4no": null, "card4noAcc": null, "district2": 409, "searchScope": null, "status": 1, "address": "\u5174\u6885\u8def1221-1223\u53f7\u5546\u57d4", "name": "\u68d2\u7ea6\u7ff0 \u6625\u7533\u666f\u57ce\u5e97", "id": 132717, "pageNo": 0, "pageCount": null, "pageSize": 10, "ids": null, "endTime": null, "startTime": null}], "pageLimit": 660, "size": 10}