{"pageCount": 1095, "count": 10942, "pageNo": 64, "subShopInfo": {"cardNumFive": "", "isSupportYj": "", "cityName": null, "districtName": null, "shopinfo": {"mid": null, "good_flag": null, "new_flag": null, "short_name": null, "short_name_pinyin": null, "status": null, "address": "", "name": "", "id": null}, "mid": null, "shopId": null, "netid": null, "province": 901, "district": null, "zipcode": null, "telephone": null, "posDate": null, "destineTel": null, "togoTel": null, "trafficWay": null, "signBuilding": null, "businessArea": null, "selfRoom": null, "businessTime": null, "stall": null, "consume": null, "serviceFei": null, "favourable": null, "shopMemo": "1", "appraise": null, "website": null, "memo": null, "payTypes": "", "shopTypes": "", "consumeTypes": null, "cookTypes": null, "orderNum": null, "card4no": null, "card4noAcc": null, "district2": null, "searchScope": null, "status": null, "address": "", "name": null, "id": null, "pageNo": 63, "pageCount": null, "pageSize": 10, "ids": null, "endTime": null, "startTime": null}, "list": [{"cardNumFive": null, "isSupportYj": null, "cityName": null, "districtName": null, "shopinfo": {"mid": "888888854410137", "good_flag": "2", "new_flag": "1", "short_name": "\u5df4\u9ece\u8d1d\u751c", "short_name_pinyin": "balibeitian", "status": null, "address": null, "name": null, "id": "31179"}, "mid": "888888854410137", "shopId": "31179", "netid": null, "province": 901, "district": 601, "zipcode": null, "telephone": "34091975", "posDate": null, "destineTel": null, "togoTel": null, "trafficWay": null, "signBuilding": null, "businessArea": null, "selfRoom": null, "businessTime": null, "stall": null, "consume": null, "serviceFei": null, "favourable": null, "shopMemo": null, "appraise": null, "website": null, "memo": null, "payTypes": "\u6749\u5fb7\u5361", "shopTypes": "\u9762\u5305\u897f\u997c", "consumeTypes": null, "cookTypes": null, "orderNum": 1000, "card4no": null, "card4noAcc": null, "district2": 409, "searchScope": null, "status": 1, "address": "\u8679\u4e95\u8def288\u53f71\u697c", "name": "\u5df4\u9ece\u8d1d\u751c \u8679\u4e95\u8def\u5e97", "id": 183268, "pageNo": 0, "pageCount": null, "pageSize": 10, "ids": null, "endTime": null, "startTime": null}, {"cardNumFive": null, "isSupportYj": null, "cityName": null, "districtName": null, "shopinfo": {"mid": "888888854410137", "good_flag": "2", "new_flag": "1", "short_name": "\u5df4\u9ece\u8d1d\u751c", "short_name_pinyin": "balibeitian", "status": null, "address": null, "name": null, "id": "31179"}, "mid": "888888854410137", "shopId": "31179", "netid": null, "province": 901, "district": 601, "zipcode": null, "telephone": "69503753", "posDate": null, "destineTel": null, "togoTel": null, "trafficWay": null, "signBuilding": null, "businessArea": null, "selfRoom": null, "businessTime": null, "stall": null, "consume": null, "serviceFei": null, "favourable": null, "shopMemo": null, "appraise": null, "website": null, "memo": null, "payTypes": "\u6749\u5fb7\u5361", "shopTypes": "\u9762\u5305\u897f\u997c", "consumeTypes": null, "cookTypes": null, "orderNum": 1000, "card4no": null, "card4noAcc": null, "district2": 411, "searchScope": null, "status": 1, "address": "\u58a8\u7389\u5357\u8def1055\u53f7118\u5ba4", "name": "\u5df4\u9ece\u8d1d\u751c \u5b89\u4ead\u5e97", "id": 183269, "pageNo": 0, "pageCount": null, "pageSize": 10, "ids": null, "endTime": null, "startTime": null}, {"cardNumFive": null, "isSupportYj": null, "cityName": null, "districtName": null, "shopinfo": {"mid": "888888854410137", "good_flag": "2", "new_flag": "1", "short_name": "\u5df4\u9ece\u8d1d\u751c", "short_name_pinyin": "balibeitian", "status": null, "address": null, "name": null, "id": "31179"}, "mid": "888888854410137", "shopId": "31179", "netid": null, "province": 901, "district": 601, "zipcode": null, "telephone": null, "posDate": null, "destineTel": null, "togoTel": null, "trafficWay": null, "signBuilding": null, "businessArea": null, "selfRoom": null, "businessTime": null, "stall": null, "consume": null, "serviceFei": null, "favourable": null, "shopMemo": null, "appraise": null, "website": null, "memo": null, "payTypes": "\u6749\u5fb7\u5361", "shopTypes": "\u9762\u5305\u897f\u997c", "consumeTypes": null, "cookTypes": null, "orderNum": 1000, "card4no": null, "card4noAcc": null, "district2": 407, "searchScope": null, "status": 1, "address": "\u8346\u5dde\u8def399\u53f7", "name": "\u5df4\u9ece\u8d1d\u751c \u5b9d\u5730\u5e7f\u573a\u5e97", "id": 183270, "pageNo": 0, "pageCount": null, "pageSize": 10, "ids": null, "endTime": null, "startTime": null}, {"cardNumFive": null, "isSupportYj": null, "cityName": null, "districtName": null, "shopinfo": {"mid": "888888854410137", "good_flag": "2", "new_flag": "1", "short_name": "\u5df4\u9ece\u8d1d\u751c", "short_name_pinyin": "balibeitian", "status": null, "address": null, "name": null, "id": "31179"}, "mid": "888888854410137", "shopId": "31179", "netid": null, "province": 901, "district": 601, "zipcode": null, "telephone": "52401205", "posDate": null, "destineTel": null, "togoTel": null, "trafficWay": null, "signBuilding": null, "businessArea": null, "selfRoom": null, "businessTime": null, "stall": null, "consume": null, "serviceFei": null, "favourable": null, "shopMemo": null, "appraise": null, "website": null, "memo": null, "payTypes": "\u6749\u5fb7\u5361", "shopTypes": "\u9762\u5305\u897f\u997c", "consumeTypes": null, "cookTypes": null, "orderNum": 1000, "card4no": null, "card4noAcc": null, "district2": 405, "searchScope": null, "status": 1, "address": "\u66f9\u6768\u8def2212\u53f71\u697c", "name": "\u5df4\u9ece\u8d1d\u751c \u66f9\u6768\u8def\u5e97", "id": 183271, "pageNo": 0, "pageCount": null, "pageSize": 10, "ids": null, "endTime": null, "startTime": null}, {"cardNumFive": null, "isSupportYj": null, "cityName": null, "districtName": null, "shopinfo": {"mid": "888888854410137", "good_flag": "2", "new_flag": "1", "short_name": "\u5df4\u9ece\u8d1d\u751c", "short_name_pinyin": "balibeitian", "status": null, "address": null, "name": null, "id": "31179"}, "mid": "888888854410137", "shopId": "31179", "netid": null, "province": 901, "district": 601, "zipcode": null, "telephone": "32300207", "posDate": null, "destineTel": null, "togoTel": null, "trafficWay": null, "signBuilding": null, "businessArea": null, "selfRoom": null, "businessTime": null, "stall": null, "consume": null, "serviceFei": null, "favourable": null, "shopMemo": null, "appraise": null, "website": null, "memo": null, "payTypes": "\u6749\u5fb7\u5361", "shopTypes": "\u9762\u5305\u897f\u997c", "consumeTypes": null, "cookTypes": null, "orderNum": 1000, "card4no": null, "card4noAcc": null, "district2": 406, "searchScope": null, "status": 1, "address": "\u9ec4\u91d1\u57ce\u9053604\u53f7", "name": "\u5df4\u9ece\u8d1d\u751c \u9ec4\u91d1\u57ce\u9053\u5e97", "id": 183272, "pageNo": 0, "pageCount": null, "pageSize": 10, "ids": null, "endTime": null, "startTime": null}, {"cardNumFive": null, "isSupportYj": null, "cityName": null, "districtName": null, "shopinfo": {"mid": "888888854410137", "good_flag": "2", "new_flag": "1", "short_name": "\u5df4\u9ece\u8d1d\u751c", "short_name_pinyin": "balibeitian", "status": null, "address": null, "name": null, "id": "31179"}, "mid": "888888854410137", "shopId": "31179", "netid": null, "province": 901, "district": 601, "zipcode": null, "telephone": "20233883", "posDate": null, "destineTel": null, "togoTel": null, "trafficWay": null, "signBuilding": null, "businessArea": null, "selfRoom": null, "businessTime": null, "stall": null, "consume": null, "serviceFei": null, "favourable": null, "shopMemo": null, "appraise": null, "website": null, "memo": null, "payTypes": "\u6749\u5fb7\u5361", "shopTypes": "\u9762\u5305\u897f\u997c", "consumeTypes": null, "cookTypes": null, "orderNum": 1000, "card4no": null, "card4noAcc": null, "district2": 418, "searchScope": null, "status": 1, "address": "\u5f20\u6768\u8def3611\u5f041\u53f7\u697c103\u53f7", "name": "\u5df4\u9ece\u8d1d\u751c \u91d1\u6865\u5e97", "id": 183273, "pageNo": 0, "pageCount": null, "pageSize": 10, "ids": null, "endTime": null, "startTime": null}, {"cardNumFive": null, "isSupportYj": null, "cityName": null, "districtName": null, "shopinfo": {"mid": "888888854410137", "good_flag": "2", "new_flag": "1", "short_name": "\u5df4\u9ece\u8d1d\u751c", "short_name_pinyin": "balibeitian", "status": null, "address": null, "name": null, "id": "31179"}, "mid": "888888854410137", "shopId": "31179", "netid": null, "province": 901, "district": 601, "zipcode": null, "telephone": null, "posDate": null, "destineTel": null, "togoTel": null, "trafficWay": null, "signBuilding": null, "businessArea": null, "selfRoom": null, "businessTime": null, "stall": null, "consume": null, "serviceFei": null, "favourable": null, "shopMemo": null, "appraise": null, "website": null, "memo": null, "payTypes": "\u6749\u5fb7\u5361", "shopTypes": "\u9762\u5305\u897f\u997c", "consumeTypes": null, "cookTypes": null, "orderNum": 1000, "card4no": null, "card4noAcc": null, "district2": 414, "searchScope": null, "status": 1, "address": "\u536b\u6e05\u897f\u8def358\u53f7", "name": "\u5df4\u9ece\u8d1d\u751c \u91d1\u5c71\u6613\u521d\u83b2\u82b1\u5e97", "id": 183274, "pageNo": 0, "pageCount": null, "pageSize": 10, "ids": null, "endTime": null, "startTime": null}, {"cardNumFive": null, "isSupportYj": null, "cityName": null, "districtName": null, "shopinfo": {"mid": "888888854410137", "good_flag": "2", "new_flag": "1", "short_name": "\u5df4\u9ece\u8d1d\u751c", "short_name_pinyin": "balibeitian", "status": null, "address": null, "name": null, "id": "31179"}, "mid": "888888854410137", "shopId": "31179", "netid": null, "province": 901, "district": 601, "zipcode": null, "telephone": null, "posDate": null, "destineTel": null, "togoTel": null, "trafficWay": null, "signBuilding": null, "businessArea": null, "selfRoom": null, "businessTime": null, "stall": null, "consume": null, "serviceFei": null, "favourable": null, "shopMemo": null, "appraise": null, "website": null, "memo": null, "payTypes": "\u6749\u5fb7\u5361", "shopTypes": "\u9762\u5305\u897f\u997c", "consumeTypes": null, "cookTypes": null, "orderNum": 1000, "card4no": null, "card4noAcc": null, "district2": 408, "searchScope": null, "status": 1, "address": "\u4e34\u5e73\u8def123\u53f7", "name": "\u5df4\u9ece\u8d1d\u751c \u4e34\u5e73\u5e97", "id": 183275, "pageNo": 0, "pageCount": null, "pageSize": 10, "ids": null, "endTime": null, "startTime": null}, {"cardNumFive": null, "isSupportYj": null, "cityName": null, "districtName": null, "shopinfo": {"mid": "888888854410137", "good_flag": "2", "new_flag": "1", "short_name": "\u5df4\u9ece\u8d1d\u751c", "short_name_pinyin": "balibeitian", "status": null, "address": null, "name": null, "id": "31179"}, "mid": "888888854410137", "shopId": "31179", "netid": null, "province": 901, "district": 601, "zipcode": null, "telephone": "50450788", "posDate": null, "destineTel": null, "togoTel": null, "trafficWay": null, "signBuilding": null, "businessArea": null, "selfRoom": null, "businessTime": null, "stall": null, "consume": null, "serviceFei": null, "favourable": null, "shopMemo": null, "appraise": null, "website": null, "memo": null, "payTypes": "\u6749\u5fb7\u5361", "shopTypes": "\u9762\u5305\u897f\u997c", "consumeTypes": null, "cookTypes": null, "orderNum": 1000, "card4no": null, "card4noAcc": null, "district2": 418, "searchScope": null, "status": 1, "address": "\u6885\u82b1\u8def983\u53f7", "name": "\u5df4\u9ece\u8d1d\u751c \u6885\u82b1\u8def\u5e97", "id": 183276, "pageNo": 0, "pageCount": null, "pageSize": 10, "ids": null, "endTime": null, "startTime": null}, {"cardNumFive": null, "isSupportYj": null, "cityName": null, "districtName": null, "shopinfo": {"mid": "888888854410137", "good_flag": "2", "new_flag": "1", "short_name": "\u5df4\u9ece\u8d1d\u751c", "short_name_pinyin": "balibeitian", "status": null, "address": null, "name": null, "id": "31179"}, "mid": "888888854410137", "shopId": "31179", "netid": null, "province": 901, "district": 601, "zipcode": null, "telephone": null, "posDate": null, "destineTel": null, "togoTel": null, "trafficWay": null, "signBuilding": null, "businessArea": null, "selfRoom": null, "businessTime": null, "stall": null, "consume": null, "serviceFei": null, "favourable": null, "shopMemo": null, "appraise": null, "website": null, "memo": null, "payTypes": "\u6749\u5fb7\u5361", "shopTypes": "\u9762\u5305\u897f\u997c", "consumeTypes": null, "cookTypes": null, "orderNum": 1000, "card4no": null, "card4noAcc": null, "district2": 417, "searchScope": null, "status": 1, "address": "\u516c\u56ed\u8def518\u53f7", "name": "\u5df4\u9ece\u8d1d\u751c \u9752\u6d66\u516c\u56ed\u5e97", "id": 183277, "pageNo": 0, "pageCount": null, "pageSize": 10, "ids": null, "endTime": null, "startTime": null}], "pageLimit": 630, "size": 10}