{"pageCount": 1095, "count": 10942, "pageNo": 69, "subShopInfo": {"cardNumFive": "", "isSupportYj": "", "cityName": null, "districtName": null, "shopinfo": {"mid": null, "good_flag": null, "new_flag": null, "short_name": null, "short_name_pinyin": null, "status": null, "address": "", "name": "", "id": null}, "mid": null, "shopId": null, "netid": null, "province": 901, "district": null, "zipcode": null, "telephone": null, "posDate": null, "destineTel": null, "togoTel": null, "trafficWay": null, "signBuilding": null, "businessArea": null, "selfRoom": null, "businessTime": null, "stall": null, "consume": null, "serviceFei": null, "favourable": null, "shopMemo": "1", "appraise": null, "website": null, "memo": null, "payTypes": "", "shopTypes": "", "consumeTypes": null, "cookTypes": null, "orderNum": null, "card4no": null, "card4noAcc": null, "district2": null, "searchScope": null, "status": null, "address": "", "name": null, "id": null, "pageNo": 68, "pageCount": null, "pageSize": 10, "ids": null, "endTime": null, "startTime": null}, "list": [{"cardNumFive": null, "isSupportYj": null, "cityName": null, "districtName": null, "shopinfo": {"mid": "888888858120550", "good_flag": "1", "new_flag": "2", "short_name": "\u68d2\u7ea6\u7ff0", "short_name_pinyin": "bangyuehan", "status": null, "address": null, "name": null, "id": "31235"}, "mid": "888888858120550", "shopId": "31235", "netid": null, "province": 901, "district": 601, "zipcode": null, "telephone": "021-50857272", "posDate": "20080319", "destineTel": null, "togoTel": null, "trafficWay": "\u516c\u4ea4572 780", "signBuilding": null, "businessArea": null, "selfRoom": null, "businessTime": "10:00~22:00", "stall": "\u6709", "consume": "70\u5143", "serviceFei": null, "favourable": null, "shopMemo": null, "appraise": null, "website": null, "memo": null, "payTypes": "\u6749\u5fb7\u5361", "shopTypes": "\u9910\u996e", "consumeTypes": "\u4f11\u95f2\u5c31\u9910 \u597d\u53cb\u5c0f\u805a \u6d6a\u6f2b\u7ea6\u4f1a", "cookTypes": null, "orderNum": 1000, "card4no": null, "card4noAcc": null, "district2": 418, "searchScope": null, "status": 1, "address": "\u5fa1\u6865\u8def290\u53f7", "name": "\u68d2\u7ea6\u7ff0 \u4e09\u6797\u672a\u6765\u57df\u5e97", "id": 132744, "pageNo": 0, "pageCount": null, "pageSize": 10, "ids": null, "endTime": null, "startTime": null}, {"cardNumFive": null, "isSupportYj": null, "cityName": null, "districtName": null, "shopinfo": {"mid": "888888858120550", "good_flag": "1", "new_flag": "2", "short_name": "\u68d2\u7ea6\u7ff0", "short_name_pinyin": "bangyuehan", "status": null, "address": null, "name": null, "id": "31235"}, "mid": "888888858120550", "shopId": "31235", "netid": null, "province": 901, "district": 601, "zipcode": null, "telephone": "021-50461818", "posDate": "20080317", "destineTel": null, "togoTel": null, "trafficWay": "\u5730\u94c1\u516d\u53f7\u7ebf \u6cf0\u9ad8\u7ebf", "signBuilding": null, "businessArea": null, "selfRoom": null, "businessTime": "10:00~22:00", "stall": "\u6709", "consume": "70\u5143", "serviceFei": null, "favourable": null, "shopMemo": null, "appraise": null, "website": null, "memo": null, "payTypes": "\u6749\u5fb7\u5361", "shopTypes": "\u9910\u996e", "consumeTypes": "\u4f11\u95f2\u5c31\u9910 \u597d\u53cb\u5c0f\u805a \u6d6a\u6f2b\u7ea6\u4f1a", "cookTypes": null, "orderNum": 1000, "card4no": null, "card4noAcc": null, "district2": 418, "searchScope": null, "status": 1, "address": "\u534e\u4eac\u8def8\u53f7\u4e09\u8054\u5927\u53a61\u697c", "name": "\u68d2\u7ea6\u7ff0 \u5916\u9ad8\u6865\u5e97", "id": 132748, "pageNo": 0, "pageCount": null, "pageSize": 10, "ids": null, "endTime": null, "startTime": null}, {"cardNumFive": null, "isSupportYj": null, "cityName": null, "districtName": null, "shopinfo": {"mid": "888888858120550", "good_flag": null, "new_flag": null, "short_name": "\u68d2\u7ea6\u7ff0", "short_name_pinyin": "bangyuehan", "status": null, "address": null, "name": null, "id": "39224"}, "mid": "888888858120550", "shopId": "39224", "netid": null, "province": 901, "district": 601, "zipcode": null, "telephone": null, "posDate": null, "destineTel": null, "togoTel": null, "trafficWay": null, "signBuilding": null, "businessArea": null, "selfRoom": null, "businessTime": null, "stall": null, "consume": null, "serviceFei": null, "favourable": null, "shopMemo": null, "appraise": null, "website": null, "memo": null, "payTypes": "\u6749\u5fb7\u5361", "shopTypes": "\u9910\u996e", "consumeTypes": null, "cookTypes": null, "orderNum": 1000, "card4no": null, "card4noAcc": null, "district2": 418, "searchScope": null, "status": 1, "address": "\u5ce8\u5c71\u8def99\u5f04100\u53f72\u53f7\u697c1\u697c05\u5ba4", "name": "\u68d2\u7ea6\u7ff0 \u5ce8\u5c71\u8def\u5e97", "id": 167375, "pageNo": 0, "pageCount": null, "pageSize": 10, "ids": null, "endTime": null, "startTime": null}, {"cardNumFive": null, "isSupportYj": null, "cityName": null, "districtName": null, "shopinfo": {"mid": "888888858120550", "good_flag": "1", "new_flag": "2", "short_name": "\u68d2\u7ea6\u7ff0", "short_name_pinyin": "bangyuehan", "status": null, "address": null, "name": null, "id": "31235"}, "mid": "888888858120550", "shopId": "31235", "netid": null, "province": 901, "district": 601, "zipcode": null, "telephone": null, "posDate": null, "destineTel": null, "togoTel": null, "trafficWay": null, "signBuilding": null, "businessArea": null, "selfRoom": null, "businessTime": null, "stall": null, "consume": null, "serviceFei": null, "favourable": null, "shopMemo": null, "appraise": null, "website": null, "memo": null, "payTypes": "\u6749\u5fb7\u5361", "shopTypes": "\u9910\u996e", "consumeTypes": null, "cookTypes": null, "orderNum": 1000, "card4no": null, "card4noAcc": null, "district2": 412, "searchScope": null, "status": 1, "address": "\u4e5d\u4ead\u9547\u6caa\u4ead\u5317\u8def350\u5f0430\u53f7", "name": "\u68d2\u7ea6\u7ff0 \u6caa\u4ead\u5317\u8def\u5e97", "id": 170709, "pageNo": 0, "pageCount": null, "pageSize": 10, "ids": null, "endTime": null, "startTime": null}, {"cardNumFive": null, "isSupportYj": null, "cityName": null, "districtName": null, "shopinfo": {"mid": "888002158120550", "good_flag": null, "new_flag": null, "short_name": "\u68d2\u7ea6\u7ff0", "short_name_pinyin": "bangyuehan", "status": null, "address": null, "name": null, "id": "43243"}, "mid": "888002158120550", "shopId": "43243", "netid": null, "province": 901, "district": 601, "zipcode": null, "telephone": null, "posDate": null, "destineTel": null, "togoTel": null, "trafficWay": null, "signBuilding": null, "businessArea": null, "selfRoom": null, "businessTime": null, "stall": null, "consume": null, "serviceFei": null, "favourable": null, "shopMemo": null, "appraise": null, "website": null, "memo": null, "payTypes": "\u6749\u5fb7\u5361", "shopTypes": "\u9910\u996e", "consumeTypes": null, "cookTypes": null, "orderNum": 1000, "card4no": null, "card4noAcc": null, "district2": 417, "searchScope": null, "status": 1, "address": "\u6dc0\u5c71\u6e56\u5927\u9053152\u5f04135\u53f7\u543e\u60a61\u697c", "name": "\u68d2\u7ea6\u7ff0 \u9752\u6d66\u543e\u60a6\u5e97", "id": 193572, "pageNo": 0, "pageCount": null, "pageSize": 10, "ids": null, "endTime": null, "startTime": null}, {"cardNumFive": null, "isSupportYj": null, "cityName": null, "districtName": null, "shopinfo": {"mid": "888002158120550", "good_flag": null, "new_flag": null, "short_name": "\u68d2\u7ea6\u7ff0", "short_name_pinyin": "bangyuehan", "status": null, "address": null, "name": null, "id": "43243"}, "mid": "888002158120550", "shopId": "43243", "netid": null, "province": 901, "district": 601, "zipcode": null, "telephone": null, "posDate": null, "destineTel": null, "togoTel": null, "trafficWay": null, "signBuilding": null, "businessArea": null, "selfRoom": null, "businessTime": null, "stall": null, "consume": null, "serviceFei": null, "favourable": null, "shopMemo": null, "appraise": null, "website": null, "memo": null, "payTypes": "\u6749\u5fb7\u5361", "shopTypes": "\u9910\u996e", "consumeTypes": null, "cookTypes": null, "orderNum": 1000, "card4no": null, "card4noAcc": null, "district2": 403, "searchScope": null, "status": 1, "address": "\u6842\u5e73\u8def391\u53f7", "name": "\u68d2\u7ea6\u7ff0 \u6f15\u6cb3\u6cfe\u5e97", "id": 193578, "pageNo": 0, "pageCount": null, "pageSize": 10, "ids": null, "endTime": null, "startTime": null}, {"cardNumFive": null, "isSupportYj": null, "cityName": null, "districtName": null, "shopinfo": {"mid": "888002158120550", "good_flag": null, "new_flag": null, "short_name": "\u68d2\u7ea6\u7ff0", "short_name_pinyin": "bangyuehan", "status": null, "address": null, "name": null, "id": "43243"}, "mid": "888002158120550", "shopId": "43243", "netid": null, "province": 901, "district": 601, "zipcode": null, "telephone": null, "posDate": null, "destineTel": null, "togoTel": null, "trafficWay": null, "signBuilding": null, "businessArea": null, "selfRoom": null, "businessTime": null, "stall": null, "consume": null, "serviceFei": null, "favourable": null, "shopMemo": null, "appraise": null, "website": null, "memo": null, "payTypes": "\u6749\u5fb7\u5361", "shopTypes": "\u9910\u996e", "consumeTypes": null, "cookTypes": null, "orderNum": 1000, "card4no": null, "card4noAcc": null, "district2": 418, "searchScope": null, "status": 1, "address": "\u5f20\u6768\u5317\u8def5736\u53f7", "name": "\u68d2\u7ea6\u7ff0 \u5f20\u626c\u5317\u8def\u5e97", "id": 196837, "pageNo": 0, "pageCount": null, "pageSize": 10, "ids": null, "endTime": null, "startTime": null}, {"cardNumFive": null, "isSupportYj": null, "cityName": null, "districtName": null, "shopinfo": {"mid": "888888856910312", "good_flag": "2", "new_flag": "2", "short_name": "\u5b9d\u8d1d\u56ed", "short_name_pinyin": "baobeiyuan", "status": null, "address": null, "name": null, "id": "31245"}, "mid": "888888856910312", "shopId": "31245", "netid": null, "province": 901, "district": 601, "zipcode": null, "telephone": "65874068", "posDate": null, "destineTel": null, "togoTel": null, "trafficWay": "18\u3001502\u3001952", "signBuilding": null, "businessArea": null, "selfRoom": null, "businessTime": null, "stall": null, "consume": null, "serviceFei": null, "favourable": null, "shopMemo": null, "appraise": null, "website": null, "memo": null, "payTypes": "\u6749\u5fb7\u5361", "shopTypes": "\u4e13\u5356", "consumeTypes": null, "cookTypes": null, "orderNum": 1000, "card4no": null, "card4noAcc": null, "district2": 407, "searchScope": null, "status": 1, "address": "\u4e1c\u6c5f\u6e7e\u8def207\u53f7", "name": "\u5b9d\u8d1d\u56ed \u4e1c\u6c5f\u6e7e\u8def\u5e97", "id": 132759, "pageNo": 0, "pageCount": null, "pageSize": 10, "ids": null, "endTime": null, "startTime": null}, {"cardNumFive": null, "isSupportYj": null, "cityName": null, "districtName": null, "shopinfo": {"mid": "888888856910312", "good_flag": "2", "new_flag": "2", "short_name": "\u5b9d\u8d1d\u56ed", "short_name_pinyin": "baobeiyuan", "status": null, "address": null, "name": null, "id": "31245"}, "mid": "888888856910312", "shopId": "31245", "netid": null, "province": 901, "district": 601, "zipcode": null, "telephone": "65874068", "posDate": null, "destineTel": null, "togoTel": null, "trafficWay": "206\u300104\u3001912", "signBuilding": null, "businessArea": null, "selfRoom": null, "businessTime": null, "stall": null, "consume": null, "serviceFei": null, "favourable": null, "shopMemo": null, "appraise": null, "website": null, "memo": null, "payTypes": "\u6749\u5fb7\u5361", "shopTypes": "\u4e13\u5356", "consumeTypes": null, "cookTypes": null, "orderNum": 1000, "card4no": null, "card4noAcc": null, "district2": 410, "searchScope": null, "status": 1, "address": "\u4e34\u6c7e\u8def541\u53f7", "name": "\u5b9d\u8d1d\u56ed \u4e34\u6c7e\u8def\u5e97", "id": 132760, "pageNo": 0, "pageCount": null, "pageSize": 10, "ids": null, "endTime": null, "startTime": null}, {"cardNumFive": null, "isSupportYj": null, "cityName": null, "districtName": null, "shopinfo": {"mid": "888888856910312", "good_flag": "2", "new_flag": "2", "short_name": "\u5b9d\u8d1d\u56ed", "short_name_pinyin": "baobeiyuan", "status": null, "address": null, "name": null, "id": "31245"}, "mid": "888888856910312", "shopId": "31245", "netid": null, "province": 901, "district": 601, "zipcode": null, "telephone": "65874068", "posDate": null, "destineTel": null, "togoTel": null, "trafficWay": "21\u3001854\u3001991", "signBuilding": null, "businessArea": null, "selfRoom": null, "businessTime": null, "stall": null, "consume": null, "serviceFei": null, "favourable": null, "shopMemo": null, "appraise": null, "website": null, "memo": null, "payTypes": "\u6749\u5fb7\u5361", "shopTypes": "\u4e13\u5356", "consumeTypes": null, "cookTypes": null, "orderNum": 1000, "card4no": null, "card4noAcc": null, "district2": 408, "searchScope": null, "status": 1, "address": "\u56db\u5ddd\u5317\u8def2305\u53f7", "name": "\u5b9d\u8d1d\u56ed \u56db\u5ddd\u5317\u8def\u5e97", "id": 132761, "pageNo": 0, "pageCount": null, "pageSize": 10, "ids": null, "endTime": null, "startTime": null}], "pageLimit": 680, "size": 10}