{"pageCount": 1095, "count": 10942, "pageNo": 65, "subShopInfo": {"cardNumFive": "", "isSupportYj": "", "cityName": null, "districtName": null, "shopinfo": {"mid": null, "good_flag": null, "new_flag": null, "short_name": null, "short_name_pinyin": null, "status": null, "address": "", "name": "", "id": null}, "mid": null, "shopId": null, "netid": null, "province": 901, "district": null, "zipcode": null, "telephone": null, "posDate": null, "destineTel": null, "togoTel": null, "trafficWay": null, "signBuilding": null, "businessArea": null, "selfRoom": null, "businessTime": null, "stall": null, "consume": null, "serviceFei": null, "favourable": null, "shopMemo": "1", "appraise": null, "website": null, "memo": null, "payTypes": "", "shopTypes": "", "consumeTypes": null, "cookTypes": null, "orderNum": null, "card4no": null, "card4noAcc": null, "district2": null, "searchScope": null, "status": null, "address": "", "name": null, "id": null, "pageNo": 64, "pageCount": null, "pageSize": 10, "ids": null, "endTime": null, "startTime": null}, "list": [{"cardNumFive": null, "isSupportYj": null, "cityName": null, "districtName": null, "shopinfo": {"mid": "888888854410137", "good_flag": "2", "new_flag": "1", "short_name": "\u5df4\u9ece\u8d1d\u751c", "short_name_pinyin": "balibeitian", "status": null, "address": null, "name": null, "id": "31179"}, "mid": "888888854410137", "shopId": "31179", "netid": null, "province": 901, "district": 601, "zipcode": null, "telephone": null, "posDate": null, "destineTel": null, "togoTel": null, "trafficWay": null, "signBuilding": null, "businessArea": null, "selfRoom": null, "businessTime": null, "stall": null, "consume": null, "serviceFei": null, "favourable": null, "shopMemo": null, "appraise": null, "website": null, "memo": null, "payTypes": "\u6749\u5fb7\u5361", "shopTypes": "\u9762\u5305\u897f\u997c", "consumeTypes": null, "cookTypes": null, "orderNum": 1000, "card4no": null, "card4noAcc": null, "district2": 418, "searchScope": null, "status": 1, "address": "\u5546\u57ce\u8def327\u53f7", "name": "\u5df4\u9ece\u8d1d\u751c \u5546\u57ce\u8def\u5e97", "id": 183278, "pageNo": 0, "pageCount": null, "pageSize": 10, "ids": null, "endTime": null, "startTime": null}, {"cardNumFive": null, "isSupportYj": null, "cityName": null, "districtName": null, "shopinfo": {"mid": "888888854410137", "good_flag": "2", "new_flag": "1", "short_name": "\u5df4\u9ece\u8d1d\u751c", "short_name_pinyin": "balibeitian", "status": null, "address": null, "name": null, "id": "31179"}, "mid": "888888854410137", "shopId": "31179", "netid": null, "province": 901, "district": 601, "zipcode": null, "telephone": "56960993", "posDate": null, "destineTel": null, "togoTel": null, "trafficWay": null, "signBuilding": null, "businessArea": null, "selfRoom": null, "businessTime": null, "stall": null, "consume": null, "serviceFei": null, "favourable": null, "shopMemo": null, "appraise": null, "website": null, "memo": null, "payTypes": "\u6749\u5fb7\u5361", "shopTypes": "\u9762\u5305\u897f\u997c", "consumeTypes": null, "cookTypes": null, "orderNum": 1000, "card4no": null, "card4noAcc": null, "district2": 408, "searchScope": null, "status": 1, "address": "\u56db\u5ddd\u5317\u8def1885\u53f7", "name": "\u5df4\u9ece\u8d1d\u751c \u56db\u5ddd\u5317\u8def", "id": 183279, "pageNo": 0, "pageCount": null, "pageSize": 10, "ids": null, "endTime": null, "startTime": null}, {"cardNumFive": null, "isSupportYj": null, "cityName": null, "districtName": null, "shopinfo": {"mid": "888888854410137", "good_flag": "2", "new_flag": "1", "short_name": "\u5df4\u9ece\u8d1d\u751c", "short_name_pinyin": "balibeitian", "status": null, "address": null, "name": null, "id": "31179"}, "mid": "888888854410137", "shopId": "31179", "netid": null, "province": 901, "district": 601, "zipcode": null, "telephone": "36120261", "posDate": null, "destineTel": null, "togoTel": null, "trafficWay": null, "signBuilding": null, "businessArea": null, "selfRoom": null, "businessTime": null, "stall": null, "consume": null, "serviceFei": null, "favourable": null, "shopMemo": null, "appraise": null, "website": null, "memo": null, "payTypes": "\u6749\u5fb7\u5361", "shopTypes": "\u9762\u5305\u897f\u997c", "consumeTypes": null, "cookTypes": null, "orderNum": 1000, "card4no": null, "card4noAcc": null, "district2": 410, "searchScope": null, "status": 1, "address": "\u897f\u85cf\u5317\u8def166\u53f7", "name": "\u5df4\u9ece\u8d1d\u751c \u897f\u85cf\u5317\u8def\u5e97", "id": 183280, "pageNo": 0, "pageCount": null, "pageSize": 10, "ids": null, "endTime": null, "startTime": null}, {"cardNumFive": null, "isSupportYj": null, "cityName": null, "districtName": null, "shopinfo": {"mid": "888888854410137", "good_flag": "2", "new_flag": "1", "short_name": "\u5df4\u9ece\u8d1d\u751c", "short_name_pinyin": "balibeitian", "status": null, "address": null, "name": null, "id": "31179"}, "mid": "888888854410137", "shopId": "31179", "netid": null, "province": 901, "district": 601, "zipcode": null, "telephone": "34633553", "posDate": null, "destineTel": null, "togoTel": null, "trafficWay": null, "signBuilding": null, "businessArea": null, "selfRoom": null, "businessTime": null, "stall": null, "consume": null, "serviceFei": null, "favourable": null, "shopMemo": null, "appraise": null, "website": null, "memo": null, "payTypes": "\u6749\u5fb7\u5361", "shopTypes": "\u9762\u5305\u897f\u997c", "consumeTypes": null, "cookTypes": null, "orderNum": 1000, "card4no": null, "card4noAcc": null, "district2": 409, "searchScope": null, "status": 1, "address": "\u90fd\u5e02\u8def5001\u53f7", "name": "\u5df4\u9ece\u8d1d\u751c \u8398\u6731\u5e97", "id": 183281, "pageNo": 0, "pageCount": null, "pageSize": 10, "ids": null, "endTime": null, "startTime": null}, {"cardNumFive": null, "isSupportYj": null, "cityName": null, "districtName": null, "shopinfo": {"mid": "888888854410137", "good_flag": "2", "new_flag": "1", "short_name": "\u5df4\u9ece\u8d1d\u751c", "short_name_pinyin": "balibeitian", "status": null, "address": null, "name": null, "id": "31179"}, "mid": "888888854410137", "shopId": "31179", "netid": null, "province": 901, "district": 601, "zipcode": null, "telephone": "60293238", "posDate": null, "destineTel": null, "togoTel": null, "trafficWay": null, "signBuilding": null, "businessArea": null, "selfRoom": null, "businessTime": null, "stall": null, "consume": null, "serviceFei": null, "favourable": null, "shopMemo": null, "appraise": null, "website": null, "memo": null, "payTypes": "\u6749\u5fb7\u5361", "shopTypes": "\u9762\u5305\u897f\u997c", "consumeTypes": null, "cookTypes": null, "orderNum": 1000, "card4no": null, "card4noAcc": null, "district2": 403, "searchScope": null, "status": 1, "address": "\u5b9c\u5c71\u8def455\u53f7B2\u697c14-15\u5ba4", "name": "\u5df4\u9ece\u8d1d\u751c \u5b9c\u5c71\u5e97", "id": 183282, "pageNo": 0, "pageCount": null, "pageSize": 10, "ids": null, "endTime": null, "startTime": null}, {"cardNumFive": null, "isSupportYj": null, "cityName": null, "districtName": null, "shopinfo": {"mid": "888888854410137", "good_flag": "2", "new_flag": "1", "short_name": "\u5df4\u9ece\u8d1d\u751c", "short_name_pinyin": "balibeitian", "status": null, "address": null, "name": null, "id": "31179"}, "mid": "888888854410137", "shopId": "31179", "netid": null, "province": 901, "district": 601, "zipcode": null, "telephone": "58876199", "posDate": null, "destineTel": null, "togoTel": null, "trafficWay": null, "signBuilding": null, "businessArea": null, "selfRoom": null, "businessTime": null, "stall": null, "consume": null, "serviceFei": null, "favourable": null, "shopMemo": null, "appraise": null, "website": null, "memo": null, "payTypes": "\u6749\u5fb7\u5361", "shopTypes": "\u9762\u5305\u897f\u997c", "consumeTypes": null, "cookTypes": null, "orderNum": 1000, "card4no": null, "card4noAcc": null, "district2": 418, "searchScope": null, "status": 1, "address": "\u9646\u5bb6\u5634\u897f\u8def168\u53f7", "name": "\u5df4\u9ece\u8d1d\u751c \u6b63\u5927\u5e7f\u573a\u5e97", "id": 183283, "pageNo": 0, "pageCount": null, "pageSize": 10, "ids": null, "endTime": null, "startTime": null}, {"cardNumFive": null, "isSupportYj": null, "cityName": null, "districtName": null, "shopinfo": {"mid": "888002154410130", "good_flag": null, "new_flag": "2", "short_name": "\u5df4\u9ece\u8d1d\u751c", "short_name_pinyin": "balibeitian", "status": null, "address": null, "name": null, "id": "43557"}, "mid": "888002154410130", "shopId": "43557", "netid": null, "province": 901, "district": 601, "zipcode": null, "telephone": null, "posDate": null, "destineTel": null, "togoTel": null, "trafficWay": null, "signBuilding": null, "businessArea": null, "selfRoom": null, "businessTime": null, "stall": null, "consume": null, "serviceFei": null, "favourable": null, "shopMemo": null, "appraise": null, "website": null, "memo": null, "payTypes": "\u6749\u5fb7\u5361", "shopTypes": "\u9762\u5305\u897f\u997c", "consumeTypes": null, "cookTypes": null, "orderNum": 1000, "card4no": null, "card4noAcc": null, "district2": 410, "searchScope": null, "status": 1, "address": "\u65b9\u8363\u8def777\u5f0410\u53f7\u5927\u5b81\u4e2d\u5fc3\u5e7f\u573a1\u671f9\u53f7\u697c101-108\u5355\u5143", "name": "\u5df4\u9ece\u8d1d\u751c \u5927\u5b81\u4e2d\u5fc3\u5e7f\u573a\u5e97", "id": 197998, "pageNo": 0, "pageCount": null, "pageSize": 10, "ids": null, "endTime": null, "startTime": null}, {"cardNumFive": null, "isSupportYj": null, "cityName": null, "districtName": null, "shopinfo": {"mid": "888002154410130", "good_flag": null, "new_flag": "2", "short_name": "\u5df4\u9ece\u8d1d\u751c", "short_name_pinyin": "balibeitian", "status": null, "address": null, "name": null, "id": "43557"}, "mid": "888002154410130", "shopId": "43557", "netid": null, "province": 901, "district": 601, "zipcode": null, "telephone": null, "posDate": null, "destineTel": null, "togoTel": null, "trafficWay": null, "signBuilding": null, "businessArea": null, "selfRoom": null, "businessTime": null, "stall": null, "consume": null, "serviceFei": null, "favourable": null, "shopMemo": null, "appraise": null, "website": null, "memo": null, "payTypes": "\u6749\u5fb7\u5361", "shopTypes": "\u9762\u5305\u897f\u997c", "consumeTypes": null, "cookTypes": null, "orderNum": 1000, "card4no": null, "card4noAcc": null, "district2": 409, "searchScope": null, "status": 1, "address": "\u8679\u6cc9\u8def1078\u53f7\u897f\u9910\u5385\u5185", "name": "\u5df4\u9ece\u8d1d\u751c \u8679\u6cc9\u5e97", "id": 198582, "pageNo": 0, "pageCount": null, "pageSize": 10, "ids": null, "endTime": null, "startTime": null}, {"cardNumFive": null, "isSupportYj": null, "cityName": null, "districtName": null, "shopinfo": {"mid": "888002154410130", "good_flag": null, "new_flag": "2", "short_name": "\u5df4\u9ece\u8d1d\u751c", "short_name_pinyin": "balibeitian", "status": null, "address": null, "name": null, "id": "43557"}, "mid": "888002154410130", "shopId": "43557", "netid": null, "province": 901, "district": 601, "zipcode": null, "telephone": null, "posDate": null, "destineTel": null, "togoTel": null, "trafficWay": null, "signBuilding": null, "businessArea": null, "selfRoom": null, "businessTime": null, "stall": null, "consume": null, "serviceFei": null, "favourable": null, "shopMemo": null, "appraise": null, "website": null, "memo": null, "payTypes": "\u6749\u5fb7\u5361", "shopTypes": "\u9762\u5305\u897f\u997c", "consumeTypes": null, "cookTypes": null, "orderNum": 1000, "card4no": null, "card4noAcc": null, "district2": 406, "searchScope": null, "status": 1, "address": "\u6c34\u57ce\u5357\u8def12\u53f7\uff08\u540d\u90fd\u57ce\u5bf9\u9762\uff09", "name": "\u5df4\u9ece\u8d1d\u751c \u6c34\u57ce\u5357\u8def\u5e97", "id": 198604, "pageNo": 0, "pageCount": null, "pageSize": 10, "ids": null, "endTime": null, "startTime": null}, {"cardNumFive": null, "isSupportYj": null, "cityName": null, "districtName": null, "shopinfo": {"mid": "888002154410130", "good_flag": null, "new_flag": "2", "short_name": "\u5df4\u9ece\u8d1d\u751c", "short_name_pinyin": "balibeitian", "status": null, "address": null, "name": null, "id": "43557"}, "mid": "888002154410130", "shopId": "43557", "netid": null, "province": 901, "district": 601, "zipcode": null, "telephone": null, "posDate": null, "destineTel": null, "togoTel": null, "trafficWay": null, "signBuilding": null, "businessArea": null, "selfRoom": null, "businessTime": null, "stall": null, "consume": null, "serviceFei": null, "favourable": null, "shopMemo": null, "appraise": null, "website": null, "memo": null, "payTypes": "\u6749\u5fb7\u5361", "shopTypes": "\u9762\u5305\u897f\u997c", "consumeTypes": null, "cookTypes": null, "orderNum": 1000, "card4no": null, "card4noAcc": null, "district2": 409, "searchScope": null, "status": 1, "address": "\u6caa\u95f5\u8def7388\u53f7\u767e\u8054\u5357\u65b9\u8d2d\u7269\u4e2d\u5fc31\u697c\uff08\u8fd1\u83b2\u82b1\u8def\uff09", "name": "\u5df4\u9ece\u8d1d\u751c \u6caa\u95f5\u8def\u5e97", "id": 198605, "pageNo": 0, "pageCount": null, "pageSize": 10, "ids": null, "endTime": null, "startTime": null}], "pageLimit": 640, "size": 10}