{"pageCount": 1095, "count": 10942, "pageNo": 73, "subShopInfo": {"cardNumFive": "", "isSupportYj": "", "cityName": null, "districtName": null, "shopinfo": {"mid": null, "good_flag": null, "new_flag": null, "short_name": null, "short_name_pinyin": null, "status": null, "address": "", "name": "", "id": null}, "mid": null, "shopId": null, "netid": null, "province": 901, "district": null, "zipcode": null, "telephone": null, "posDate": null, "destineTel": null, "togoTel": null, "trafficWay": null, "signBuilding": null, "businessArea": null, "selfRoom": null, "businessTime": null, "stall": null, "consume": null, "serviceFei": null, "favourable": null, "shopMemo": "1", "appraise": null, "website": null, "memo": null, "payTypes": "", "shopTypes": "", "consumeTypes": null, "cookTypes": null, "orderNum": null, "card4no": null, "card4noAcc": null, "district2": null, "searchScope": null, "status": null, "address": "", "name": null, "id": null, "pageNo": 72, "pageCount": null, "pageSize": 10, "ids": null, "endTime": null, "startTime": null}, "list": [{"cardNumFive": null, "isSupportYj": null, "cityName": null, "districtName": null, "shopinfo": {"mid": "888002158122441", "good_flag": null, "new_flag": null, "short_name": "\u5b9d\u5bff\u53f8", "short_name_pinyin": "baoshousi", "status": null, "address": null, "name": null, "id": "39921"}, "mid": "888002158122441", "shopId": "39921", "netid": null, "province": 901, "district": 601, "zipcode": null, "telephone": null, "posDate": null, "destineTel": null, "togoTel": null, "trafficWay": null, "signBuilding": null, "businessArea": null, "selfRoom": null, "businessTime": null, "stall": null, "consume": null, "serviceFei": null, "favourable": null, "shopMemo": null, "appraise": null, "website": null, "memo": null, "payTypes": "\u6749\u5fb7\u5361", "shopTypes": "\u9910\u996e", "consumeTypes": null, "cookTypes": null, "orderNum": 1000, "card4no": null, "card4noAcc": null, "district2": 407, "searchScope": null, "status": 1, "address": "\u56fd\u987a\u8def591\u53f7", "name": "\u5b9d\u5bff\u53f8 \u590d\u65e6\u5e97", "id": 172431, "pageNo": 0, "pageCount": null, "pageSize": 10, "ids": null, "endTime": null, "startTime": null}, {"cardNumFive": null, "isSupportYj": null, "cityName": null, "districtName": null, "shopinfo": {"mid": "888002158122441", "good_flag": null, "new_flag": null, "short_name": "\u5b9d\u5bff\u53f8", "short_name_pinyin": "baoshousi", "status": null, "address": null, "name": null, "id": "39921"}, "mid": "888002158122441", "shopId": "39921", "netid": null, "province": 901, "district": 601, "zipcode": null, "telephone": null, "posDate": null, "destineTel": null, "togoTel": null, "trafficWay": null, "signBuilding": null, "businessArea": null, "selfRoom": null, "businessTime": null, "stall": null, "consume": null, "serviceFei": null, "favourable": null, "shopMemo": null, "appraise": null, "website": null, "memo": null, "payTypes": "\u6749\u5fb7\u5361", "shopTypes": "\u9910\u996e", "consumeTypes": null, "cookTypes": null, "orderNum": 1000, "card4no": null, "card4noAcc": null, "district2": 407, "searchScope": null, "status": 1, "address": "\u56fd\u6d4e\u8def16\u53f7", "name": "\u5b9d\u5bff\u53f8 \u4e94\u89d2\u573a\u5e97", "id": 172432, "pageNo": 0, "pageCount": null, "pageSize": 10, "ids": null, "endTime": null, "startTime": null}, {"cardNumFive": null, "isSupportYj": null, "cityName": null, "districtName": null, "shopinfo": {"mid": "888002158122441", "good_flag": null, "new_flag": null, "short_name": "\u5b9d\u5bff\u53f8", "short_name_pinyin": "baoshousi", "status": null, "address": null, "name": null, "id": "39921"}, "mid": "888002158122441", "shopId": "39921", "netid": null, "province": 901, "district": 601, "zipcode": null, "telephone": null, "posDate": null, "destineTel": null, "togoTel": null, "trafficWay": null, "signBuilding": null, "businessArea": null, "selfRoom": null, "businessTime": null, "stall": null, "consume": null, "serviceFei": null, "favourable": null, "shopMemo": null, "appraise": null, "website": null, "memo": null, "payTypes": "\u6749\u5fb7\u5361", "shopTypes": "\u9910\u996e", "consumeTypes": null, "cookTypes": null, "orderNum": 1000, "card4no": null, "card4noAcc": null, "district2": 418, "searchScope": null, "status": 1, "address": "\u4e1c\u9756\u8def1881\u53f7", "name": "\u5b9d\u5bff\u53f8 \u9ad8\u884c\u5e97", "id": 172434, "pageNo": 0, "pageCount": null, "pageSize": 10, "ids": null, "endTime": null, "startTime": null}, {"cardNumFive": null, "isSupportYj": null, "cityName": null, "districtName": null, "shopinfo": {"mid": "888002156910439", "good_flag": null, "new_flag": null, "short_name": "\u5b9d\u539f\u4f53\u80b2", "short_name_pinyin": "baoyuantiyu", "status": null, "address": null, "name": null, "id": "39488"}, "mid": "888002156910439", "shopId": "39488", "netid": null, "province": 901, "district": 601, "zipcode": null, "telephone": null, "posDate": null, "destineTel": null, "togoTel": null, "trafficWay": null, "signBuilding": null, "businessArea": null, "selfRoom": null, "businessTime": null, "stall": null, "consume": null, "serviceFei": null, "favourable": null, "shopMemo": null, "appraise": null, "website": null, "memo": null, "payTypes": "\u6749\u5fb7\u5361", "shopTypes": "\u4e13\u5356", "consumeTypes": null, "cookTypes": null, "orderNum": 1000, "card4no": null, "card4noAcc": null, "district2": 407, "searchScope": null, "status": 1, "address": "\u5927\u5b66\u8def254\u53f7", "name": "\u5b9d\u539f\u4f53\u80b2 \u521b\u667a\u5929\u5730\u5e97", "id": 169261, "pageNo": 0, "pageCount": null, "pageSize": 10, "ids": null, "endTime": null, "startTime": null}, {"cardNumFive": null, "isSupportYj": null, "cityName": null, "districtName": null, "shopinfo": {"mid": "888002156910439", "good_flag": null, "new_flag": null, "short_name": "\u5b9d\u539f\u4f53\u80b2", "short_name_pinyin": "baoyuantiyu", "status": null, "address": null, "name": null, "id": "39488"}, "mid": "888002156910439", "shopId": "39488", "netid": null, "province": 901, "district": 601, "zipcode": null, "telephone": null, "posDate": null, "destineTel": null, "togoTel": null, "trafficWay": null, "signBuilding": null, "businessArea": null, "selfRoom": null, "businessTime": null, "stall": null, "consume": null, "serviceFei": null, "favourable": null, "shopMemo": null, "appraise": null, "website": null, "memo": null, "payTypes": "\u6749\u5fb7\u5361", "shopTypes": "\u4e13\u5356", "consumeTypes": null, "cookTypes": null, "orderNum": 1000, "card4no": null, "card4noAcc": null, "district2": 418, "searchScope": null, "status": 1, "address": "\u4e16\u7eaa\u5927\u90538\u53f7D\u5ea7\u5730\u4e0b1\u697c", "name": "\u5b9d\u539f\u4f53\u80b2 \u56fd\u91d1\u4e2d\u5fc3\u5e97", "id": 169263, "pageNo": 0, "pageCount": null, "pageSize": 10, "ids": null, "endTime": null, "startTime": null}, {"cardNumFive": null, "isSupportYj": null, "cityName": null, "districtName": null, "shopinfo": {"mid": "888002156910439", "good_flag": null, "new_flag": null, "short_name": "\u5b9d\u539f\u4f53\u80b2", "short_name_pinyin": "baoyuantiyu", "status": null, "address": null, "name": null, "id": "39488"}, "mid": "888002156910439", "shopId": "39488", "netid": null, "province": 901, "district": 601, "zipcode": null, "telephone": null, "posDate": null, "destineTel": null, "togoTel": null, "trafficWay": null, "signBuilding": null, "businessArea": null, "selfRoom": null, "businessTime": null, "stall": null, "consume": null, "serviceFei": null, "favourable": null, "shopMemo": null, "appraise": null, "website": null, "memo": null, "payTypes": "\u6749\u5fb7\u5361", "shopTypes": "\u4e13\u5356", "consumeTypes": null, "cookTypes": null, "orderNum": 1000, "card4no": null, "card4noAcc": null, "district2": 415, "searchScope": null, "status": 1, "address": "\u516b\u4e00\u8def278\u53f7", "name": "\u5b9d\u539f\u4f53\u80b2 \u5d07\u660e\u516b\u4e00\u8def\u5e97", "id": 170040, "pageNo": 0, "pageCount": null, "pageSize": 10, "ids": null, "endTime": null, "startTime": null}, {"cardNumFive": null, "isSupportYj": null, "cityName": null, "districtName": null, "shopinfo": {"mid": "888888856910325", "good_flag": "1", "new_flag": "1", "short_name": "\u9738\u72ee\u817e", "short_name_pinyin": "bashiteng", "status": null, "address": null, "name": null, "id": "31185"}, "mid": "888888856910325", "shopId": "31185", "netid": null, "province": 901, "district": 601, "zipcode": null, "telephone": "62096828*825,68196196", "posDate": "200908", "destineTel": null, "togoTel": null, "trafficWay": "\u516c\u4ea4\u9f99\u6ee8\u7ebf\u3001\u4e1c\u6ce5\u4e13\u7ebf", "signBuilding": null, "businessArea": null, "selfRoom": null, "businessTime": null, "stall": null, "consume": null, "serviceFei": null, "favourable": null, "shopMemo": null, "appraise": null, "website": null, "memo": null, "payTypes": "\u6749\u5fb7\u5361", "shopTypes": "\u670d\u9970\u5bb6\u7eba", "consumeTypes": null, "cookTypes": null, "orderNum": 1000, "card4no": null, "card4noAcc": null, "district2": 418, "searchScope": null, "status": 1, "address": "\u5eb7\u6865\u9547\u79c0\u6cbf\u8def1132-1180\u53f7\u5927\u6da6\u53d158\u53f7\u94fa", "name": "\u9738\u72ee\u817e \u79c0\u6cbf\u8def\u7b2c\u5341\u4e8c\u7ecf\u8425\u90e8", "id": 132407, "pageNo": 0, "pageCount": null, "pageSize": 10, "ids": null, "endTime": null, "startTime": null}, {"cardNumFive": null, "isSupportYj": null, "cityName": null, "districtName": null, "shopinfo": {"mid": "888888854410188", "good_flag": "2", "new_flag": "1", "short_name": "\u5317\u5927\u8352\u7eff\u8272\u98df\u54c1", "short_name_pinyin": "beidahuangluseshipin", "status": null, "address": null, "name": null, "id": "31269"}, "mid": "888888854410188", "shopId": "31269", "netid": null, "province": 901, "district": 601, "zipcode": null, "telephone": null, "posDate": null, "destineTel": null, "togoTel": null, "trafficWay": null, "signBuilding": null, "businessArea": null, "selfRoom": null, "businessTime": null, "stall": null, "consume": null, "serviceFei": null, "favourable": null, "shopMemo": null, "appraise": null, "website": null, "memo": null, "payTypes": "\u6749\u5fb7\u5361", "shopTypes": "\u96f6\u552e", "consumeTypes": null, "cookTypes": null, "orderNum": 1000, "card4no": null, "card4noAcc": null, "district2": 407, "searchScope": null, "status": 1, "address": "\u6768\u6d66\u533a\u8fbd\u9633\u8def526\u53f7301\u5e62\u75326\u53f7", "name": "\u5317\u5927\u8352\u7eff\u8272\u98df\u54c1 \u8fbd\u9633\u8def\u5e97", "id": 132809, "pageNo": 0, "pageCount": null, "pageSize": 10, "ids": null, "endTime": null, "startTime": null}, {"cardNumFive": null, "isSupportYj": null, "cityName": null, "districtName": null, "shopinfo": {"mid": "888002107630006", "good_flag": null, "new_flag": null, "short_name": "\u5317\u4eac\u540c\u4ec1\u5802", "short_name_pinyin": "beijingtongrentang", "status": null, "address": null, "name": null, "id": "39913"}, "mid": "888002107630006", "shopId": "39913", "netid": null, "province": 901, "district": 601, "zipcode": null, "telephone": null, "posDate": null, "destineTel": null, "togoTel": null, "trafficWay": null, "signBuilding": null, "businessArea": null, "selfRoom": null, "businessTime": null, "stall": null, "consume": null, "serviceFei": null, "favourable": null, "shopMemo": null, "appraise": null, "website": null, "memo": null, "payTypes": "\u6749\u5fb7\u5361", "shopTypes": "\u836f\u5e97", "consumeTypes": null, "cookTypes": null, "orderNum": 1000, "card4no": null, "card4noAcc": null, "district2": 418, "searchScope": null, "status": 1, "address": "\u6caa\u5357\u8def2420\u53f7\u5730\u4e0b1\u697c", "name": "\u5317\u4eac\u540c\u4ec1\u5802 \u6caa\u5357\u8def\u5e97", "id": 172359, "pageNo": 0, "pageCount": null, "pageSize": 10, "ids": null, "endTime": null, "startTime": null}, {"cardNumFive": null, "isSupportYj": null, "cityName": null, "districtName": null, "shopinfo": {"mid": "888002107630006", "good_flag": null, "new_flag": null, "short_name": "\u5317\u4eac\u540c\u4ec1\u5802", "short_name_pinyin": "beijingtongrentang", "status": null, "address": null, "name": null, "id": "39913"}, "mid": "888002107630006", "shopId": "39913", "netid": null, "province": 901, "district": 601, "zipcode": null, "telephone": null, "posDate": null, "destineTel": null, "togoTel": null, "trafficWay": null, "signBuilding": null, "businessArea": null, "selfRoom": null, "businessTime": null, "stall": null, "consume": null, "serviceFei": null, "favourable": null, "shopMemo": null, "appraise": null, "website": null, "memo": null, "payTypes": "\u6749\u5fb7\u5361", "shopTypes": "\u836f\u5e97", "consumeTypes": null, "cookTypes": null, "orderNum": 1000, "card4no": null, "card4noAcc": null, "district2": 406, "searchScope": null, "status": 1, "address": "\u6c34\u57ce\u5357\u8def268\u53f73\u697c", "name": "\u5317\u4eac\u540c\u4ec1\u5802 \u6c34\u57ce\u5357\u8def\u5e97", "id": 172360, "pageNo": 0, "pageCount": null, "pageSize": 10, "ids": null, "endTime": null, "startTime": null}], "pageLimit": 720, "size": 10}