{"pageCount": 1095, "count": 10942, "pageNo": 74, "subShopInfo": {"cardNumFive": "", "isSupportYj": "", "cityName": null, "districtName": null, "shopinfo": {"mid": null, "good_flag": null, "new_flag": null, "short_name": null, "short_name_pinyin": null, "status": null, "address": "", "name": "", "id": null}, "mid": null, "shopId": null, "netid": null, "province": 901, "district": null, "zipcode": null, "telephone": null, "posDate": null, "destineTel": null, "togoTel": null, "trafficWay": null, "signBuilding": null, "businessArea": null, "selfRoom": null, "businessTime": null, "stall": null, "consume": null, "serviceFei": null, "favourable": null, "shopMemo": "1", "appraise": null, "website": null, "memo": null, "payTypes": "", "shopTypes": "", "consumeTypes": null, "cookTypes": null, "orderNum": null, "card4no": null, "card4noAcc": null, "district2": null, "searchScope": null, "status": null, "address": "", "name": null, "id": null, "pageNo": 73, "pageCount": null, "pageSize": 10, "ids": null, "endTime": null, "startTime": null}, "list": [{"cardNumFive": null, "isSupportYj": null, "cityName": null, "districtName": null, "shopinfo": {"mid": "888002107630006", "good_flag": null, "new_flag": null, "short_name": "\u5317\u4eac\u540c\u4ec1\u5802", "short_name_pinyin": "beijingtongrentang", "status": null, "address": null, "name": null, "id": "39913"}, "mid": "888002107630006", "shopId": "39913", "netid": null, "province": 901, "district": 601, "zipcode": null, "telephone": null, "posDate": null, "destineTel": null, "togoTel": null, "trafficWay": null, "signBuilding": null, "businessArea": null, "selfRoom": null, "businessTime": null, "stall": null, "consume": null, "serviceFei": null, "favourable": null, "shopMemo": null, "appraise": null, "website": null, "memo": null, "payTypes": "\u6749\u5fb7\u5361", "shopTypes": "\u836f\u5e97", "consumeTypes": null, "cookTypes": null, "orderNum": 1000, "card4no": null, "card4noAcc": null, "district2": 405, "searchScope": null, "status": 1, "address": "\u65b0\u6751\u8def1500\u53f73\u697c", "name": "\u5317\u4eac\u540c\u4ec1\u5802 \u65b0\u6751\u8def\u5e97", "id": 172361, "pageNo": 0, "pageCount": null, "pageSize": 10, "ids": null, "endTime": null, "startTime": null}, {"cardNumFive": null, "isSupportYj": null, "cityName": null, "districtName": null, "shopinfo": {"mid": "888002107630006", "good_flag": null, "new_flag": null, "short_name": "\u5317\u4eac\u540c\u4ec1\u5802", "short_name_pinyin": "beijingtongrentang", "status": null, "address": null, "name": null, "id": "39913"}, "mid": "888002107630006", "shopId": "39913", "netid": null, "province": 901, "district": 601, "zipcode": null, "telephone": null, "posDate": null, "destineTel": null, "togoTel": null, "trafficWay": null, "signBuilding": null, "businessArea": null, "selfRoom": null, "businessTime": null, "stall": null, "consume": null, "serviceFei": null, "favourable": null, "shopMemo": null, "appraise": null, "website": null, "memo": null, "payTypes": "\u6749\u5fb7\u5361", "shopTypes": "\u836f\u5e97", "consumeTypes": null, "cookTypes": null, "orderNum": 1000, "card4no": null, "card4noAcc": null, "district2": 408, "searchScope": null, "status": 1, "address": "\u8f66\u7ad9\u5357\u8def330\u5f042-6\u53f73\u697c", "name": "\u5317\u4eac\u540c\u4ec1\u5802 \u8f66\u7ad9\u5357\u8def\u5e97", "id": 172363, "pageNo": 0, "pageCount": null, "pageSize": 10, "ids": null, "endTime": null, "startTime": null}, {"cardNumFive": null, "isSupportYj": null, "cityName": null, "districtName": null, "shopinfo": {"mid": "888002107630006", "good_flag": null, "new_flag": null, "short_name": "\u5317\u4eac\u540c\u4ec1\u5802", "short_name_pinyin": "beijingtongrentang", "status": null, "address": null, "name": null, "id": "39913"}, "mid": "888002107630006", "shopId": "39913", "netid": null, "province": 901, "district": 601, "zipcode": null, "telephone": null, "posDate": null, "destineTel": null, "togoTel": null, "trafficWay": null, "signBuilding": null, "businessArea": null, "selfRoom": null, "businessTime": null, "stall": null, "consume": null, "serviceFei": null, "favourable": null, "shopMemo": null, "appraise": null, "website": null, "memo": null, "payTypes": "\u6749\u5fb7\u5361", "shopTypes": "\u836f\u5e97", "consumeTypes": null, "cookTypes": null, "orderNum": 1000, "card4no": null, "card4noAcc": null, "district2": 417, "searchScope": null, "status": 1, "address": "\u76c8\u6e2f\u8def555\u53f73\u697c", "name": "\u5317\u4eac\u540c\u4ec1\u5802 \u76c8\u6e2f\u8def\u5e97", "id": 172364, "pageNo": 0, "pageCount": null, "pageSize": 10, "ids": null, "endTime": null, "startTime": null}, {"cardNumFive": null, "isSupportYj": null, "cityName": null, "districtName": null, "shopinfo": {"mid": "888002107630006", "good_flag": null, "new_flag": null, "short_name": "\u5317\u4eac\u540c\u4ec1\u5802", "short_name_pinyin": "beijingtongrentang", "status": null, "address": null, "name": null, "id": "39913"}, "mid": "888002107630006", "shopId": "39913", "netid": null, "province": 901, "district": 601, "zipcode": null, "telephone": null, "posDate": null, "destineTel": null, "togoTel": null, "trafficWay": null, "signBuilding": null, "businessArea": null, "selfRoom": null, "businessTime": null, "stall": null, "consume": null, "serviceFei": null, "favourable": null, "shopMemo": null, "appraise": null, "website": null, "memo": null, "payTypes": "\u6749\u5fb7\u5361", "shopTypes": "\u836f\u5e97", "consumeTypes": null, "cookTypes": null, "orderNum": 1000, "card4no": null, "card4noAcc": null, "district2": 418, "searchScope": null, "status": 1, "address": "\u78a7\u4e91\u8def555\u53f71\u697c", "name": "\u5317\u4eac\u540c\u4ec1\u5802 \u78a7\u4e91\u8def\u5e97", "id": 172365, "pageNo": 0, "pageCount": null, "pageSize": 10, "ids": null, "endTime": null, "startTime": null}, {"cardNumFive": null, "isSupportYj": null, "cityName": null, "districtName": null, "shopinfo": {"mid": "888002107630006", "good_flag": null, "new_flag": null, "short_name": "\u5317\u4eac\u540c\u4ec1\u5802", "short_name_pinyin": "beijingtongrentang", "status": null, "address": null, "name": null, "id": "39913"}, "mid": "888002107630006", "shopId": "39913", "netid": null, "province": 901, "district": 601, "zipcode": null, "telephone": null, "posDate": null, "destineTel": null, "togoTel": null, "trafficWay": null, "signBuilding": null, "businessArea": null, "selfRoom": null, "businessTime": null, "stall": null, "consume": null, "serviceFei": null, "favourable": null, "shopMemo": null, "appraise": null, "website": null, "memo": null, "payTypes": "\u6749\u5fb7\u5361", "shopTypes": "\u836f\u5e97", "consumeTypes": null, "cookTypes": null, "orderNum": 1000, "card4no": null, "card4noAcc": null, "district2": 405, "searchScope": null, "status": 1, "address": "\u6b66\u5b81\u8def24\u53f73\u697c", "name": "\u5317\u4eac\u540c\u4ec1\u5802 \u6b66\u5b81\u8def\u5e97", "id": 172366, "pageNo": 0, "pageCount": null, "pageSize": 10, "ids": null, "endTime": null, "startTime": null}, {"cardNumFive": null, "isSupportYj": null, "cityName": null, "districtName": null, "shopinfo": {"mid": "888002107630006", "good_flag": null, "new_flag": null, "short_name": "\u5317\u4eac\u540c\u4ec1\u5802", "short_name_pinyin": "beijingtongrentang", "status": null, "address": null, "name": null, "id": "39913"}, "mid": "888002107630006", "shopId": "39913", "netid": null, "province": 901, "district": 601, "zipcode": null, "telephone": null, "posDate": null, "destineTel": null, "togoTel": null, "trafficWay": null, "signBuilding": null, "businessArea": null, "selfRoom": null, "businessTime": null, "stall": null, "consume": null, "serviceFei": null, "favourable": null, "shopMemo": null, "appraise": null, "website": null, "memo": null, "payTypes": "\u6749\u5fb7\u5361", "shopTypes": "\u836f\u5e97", "consumeTypes": null, "cookTypes": null, "orderNum": 1000, "card4no": null, "card4noAcc": null, "district2": 416, "searchScope": null, "status": 1, "address": "\u5171\u548c\u65b0\u8def5219\u53f73\u697c", "name": "\u5317\u4eac\u540c\u4ec1\u5802 \u5171\u548c\u65b0\u8def\u5e97", "id": 172368, "pageNo": 0, "pageCount": null, "pageSize": 10, "ids": null, "endTime": null, "startTime": null}, {"cardNumFive": null, "isSupportYj": null, "cityName": null, "districtName": null, "shopinfo": {"mid": "888002107630006", "good_flag": null, "new_flag": null, "short_name": "\u5317\u4eac\u540c\u4ec1\u5802", "short_name_pinyin": "beijingtongrentang", "status": null, "address": null, "name": null, "id": "39913"}, "mid": "888002107630006", "shopId": "39913", "netid": null, "province": 901, "district": 601, "zipcode": null, "telephone": null, "posDate": null, "destineTel": null, "togoTel": null, "trafficWay": null, "signBuilding": null, "businessArea": null, "selfRoom": null, "businessTime": null, "stall": null, "consume": null, "serviceFei": null, "favourable": null, "shopMemo": null, "appraise": null, "website": null, "memo": null, "payTypes": "\u6749\u5fb7\u5361", "shopTypes": "\u836f\u5e97", "consumeTypes": null, "cookTypes": null, "orderNum": 1000, "card4no": null, "card4noAcc": null, "district2": 418, "searchScope": null, "status": 1, "address": "\u4e91\u53f0\u8def453\u5f041-8\u53f7\u5730\u4e0b1\u697c", "name": "\u5317\u4eac\u540c\u4ec1\u5802 \u4e91\u53f0\u8def\u5e97", "id": 172369, "pageNo": 0, "pageCount": null, "pageSize": 10, "ids": null, "endTime": null, "startTime": null}, {"cardNumFive": null, "isSupportYj": null, "cityName": null, "districtName": null, "shopinfo": {"mid": "888002156411020", "good_flag": "2", "new_flag": "2", "short_name": "\u8d1d\u6c81\u513f\u7ae5", "short_name_pinyin": "beiqinertong", "status": null, "address": null, "name": null, "id": "31277"}, "mid": "888002156411020", "shopId": "31277", "netid": null, "province": 901, "district": 601, "zipcode": null, "telephone": "61392328", "posDate": "200911", "destineTel": null, "togoTel": null, "trafficWay": null, "signBuilding": null, "businessArea": null, "selfRoom": null, "businessTime": null, "stall": null, "consume": null, "serviceFei": null, "favourable": null, "shopMemo": null, "appraise": null, "website": null, "memo": null, "payTypes": "\u6749\u5fb7\u5361", "shopTypes": "\u767e\u8d27", "consumeTypes": null, "cookTypes": null, "orderNum": 1000, "card4no": null, "card4noAcc": null, "district2": 405, "searchScope": null, "status": 1, "address": "\u771f\u5149\u8def288\u53f72F", "name": "\u8d1d\u6c81\u513f\u7ae5 \u771f\u5149\u8def\u5e97", "id": 132865, "pageNo": 0, "pageCount": null, "pageSize": 10, "ids": null, "endTime": null, "startTime": null}, {"cardNumFive": null, "isSupportYj": null, "cityName": null, "districtName": null, "shopinfo": {"mid": "888888859120027", "good_flag": "2", "new_flag": "1", "short_name": "\u5317\u7ffc\u56fd\u5927\u836f\u623f", "short_name_pinyin": "beiyiguoda", "status": null, "address": null, "name": null, "id": "31270"}, "mid": "888888859120027", "shopId": "31270", "netid": null, "province": 901, "district": 601, "zipcode": null, "telephone": "56647133", "posDate": "20071025", "destineTel": null, "togoTel": null, "trafficWay": "\u5730\u94c1\u4e09\u53f7\u7ebf \u5b9d\u5c718\u7ebf \u6c5f\u6708\u7ebf", "signBuilding": null, "businessArea": null, "selfRoom": null, "businessTime": null, "stall": null, "consume": null, "serviceFei": null, "favourable": null, "shopMemo": null, "appraise": null, "website": null, "memo": null, "payTypes": "\u6749\u5fb7\u5361", "shopTypes": "\u836f\u5e97", "consumeTypes": null, "cookTypes": null, "orderNum": 1000, "card4no": null, "card4noAcc": null, "district2": 416, "searchScope": null, "status": 1, "address": "\u6708\u6d66\u5b89\u5bb6\u8def20\u53f7", "name": "\u5317\u7ffc\u56fd\u5927\u836f\u623f \u5b89\u5bb6\u5e97", "id": 132810, "pageNo": 0, "pageCount": null, "pageSize": 10, "ids": null, "endTime": null, "startTime": null}, {"cardNumFive": null, "isSupportYj": null, "cityName": null, "districtName": null, "shopinfo": {"mid": "888888859120027", "good_flag": "2", "new_flag": "1", "short_name": "\u5317\u7ffc\u56fd\u5927\u836f\u623f", "short_name_pinyin": "beiyiguoda", "status": null, "address": null, "name": null, "id": "31270"}, "mid": "888888859120027", "shopId": "31270", "netid": null, "province": 901, "district": 601, "zipcode": null, "telephone": "33873760", "posDate": "20080122", "destineTel": null, "togoTel": null, "trafficWay": "\u5730\u94c1\u4e00\u53f7\u7ebf", "signBuilding": null, "businessArea": null, "selfRoom": null, "businessTime": null, "stall": null, "consume": null, "serviceFei": null, "favourable": null, "shopMemo": null, "appraise": null, "website": null, "memo": null, "payTypes": "\u6749\u5fb7\u5361", "shopTypes": "\u836f\u5e97", "consumeTypes": null, "cookTypes": null, "orderNum": 1000, "card4no": null, "card4noAcc": null, "district2": 418, "searchScope": null, "status": 1, "address": "\u957f\u6c5f\u897f\u8def2227\u53f7", "name": "\u5317\u7ffc\u56fd\u5927\u836f\u623f \u5b9d\u957f\u5e97", "id": 132811, "pageNo": 0, "pageCount": null, "pageSize": 10, "ids": null, "endTime": null, "startTime": null}], "pageLimit": 730, "size": 10}