{"pageCount": 1095, "count": 10942, "pageNo": 77, "subShopInfo": {"cardNumFive": "", "isSupportYj": "", "cityName": null, "districtName": null, "shopinfo": {"mid": null, "good_flag": null, "new_flag": null, "short_name": null, "short_name_pinyin": null, "status": null, "address": "", "name": "", "id": null}, "mid": null, "shopId": null, "netid": null, "province": 901, "district": null, "zipcode": null, "telephone": null, "posDate": null, "destineTel": null, "togoTel": null, "trafficWay": null, "signBuilding": null, "businessArea": null, "selfRoom": null, "businessTime": null, "stall": null, "consume": null, "serviceFei": null, "favourable": null, "shopMemo": "1", "appraise": null, "website": null, "memo": null, "payTypes": "", "shopTypes": "", "consumeTypes": null, "cookTypes": null, "orderNum": null, "card4no": null, "card4noAcc": null, "district2": null, "searchScope": null, "status": null, "address": "", "name": null, "id": null, "pageNo": 76, "pageCount": null, "pageSize": 10, "ids": null, "endTime": null, "startTime": null}, "list": [{"cardNumFive": null, "isSupportYj": null, "cityName": null, "districtName": null, "shopinfo": {"mid": "888888859120027", "good_flag": "2", "new_flag": "1", "short_name": "\u5317\u7ffc\u56fd\u5927\u836f\u623f", "short_name_pinyin": "beiyiguoda", "status": null, "address": null, "name": null, "id": "31270"}, "mid": "888888859120027", "shopId": "31270", "netid": null, "province": 901, "district": 601, "zipcode": null, "telephone": "56863706", "posDate": "20070904", "destineTel": null, "togoTel": null, "trafficWay": "\u5317\u534e\u7ebf \u6dde\u5609\u7ebf", "signBuilding": null, "businessArea": null, "selfRoom": null, "businessTime": null, "stall": null, "consume": null, "serviceFei": null, "favourable": null, "shopMemo": null, "appraise": null, "website": null, "memo": null, "payTypes": "\u6749\u5fb7\u5361", "shopTypes": "\u836f\u5e97", "consumeTypes": null, "cookTypes": null, "orderNum": 1000, "card4no": null, "card4noAcc": null, "district2": 416, "searchScope": null, "status": 1, "address": "\u7f57\u5e97\u4ead\u524d\u8857158\u53f7", "name": "\u5317\u7ffc\u56fd\u5927\u836f\u623f \u7f57\u5e97\u5e97", "id": 132832, "pageNo": 0, "pageCount": null, "pageSize": 10, "ids": null, "endTime": null, "startTime": null}, {"cardNumFive": null, "isSupportYj": null, "cityName": null, "districtName": null, "shopinfo": {"mid": "888888859120027", "good_flag": "2", "new_flag": "1", "short_name": "\u5317\u7ffc\u56fd\u5927\u836f\u623f", "short_name_pinyin": "beiyiguoda", "status": null, "address": null, "name": null, "id": "31270"}, "mid": "888888859120027", "shopId": "31270", "netid": null, "province": 901, "district": 601, "zipcode": null, "telephone": "56870167", "posDate": "20070904", "destineTel": null, "togoTel": null, "trafficWay": "\u516c\u4ea4963 861", "signBuilding": null, "businessArea": null, "selfRoom": null, "businessTime": null, "stall": null, "consume": null, "serviceFei": null, "favourable": null, "shopMemo": null, "appraise": null, "website": null, "memo": null, "payTypes": "\u6749\u5fb7\u5361", "shopTypes": "\u836f\u5e97", "consumeTypes": null, "cookTypes": null, "orderNum": 1000, "card4no": null, "card4noAcc": null, "district2": 416, "searchScope": null, "status": 1, "address": "\u7f57\u6cfe\u9648\u884c\u9547\u9648\u9547\u8def18\u53f7", "name": "\u5317\u7ffc\u56fd\u5927\u836f\u623f \u7f57\u6cfe\u5e97", "id": 132833, "pageNo": 0, "pageCount": null, "pageSize": 10, "ids": null, "endTime": null, "startTime": null}, {"cardNumFive": null, "isSupportYj": null, "cityName": null, "districtName": null, "shopinfo": {"mid": "888888859120027", "good_flag": "2", "new_flag": "1", "short_name": "\u5317\u7ffc\u56fd\u5927\u836f\u623f", "short_name_pinyin": "beiyiguoda", "status": null, "address": null, "name": null, "id": "31270"}, "mid": "888888859120027", "shopId": "31270", "netid": null, "province": 901, "district": 601, "zipcode": null, "telephone": "56011250", "posDate": "20070904", "destineTel": null, "togoTel": null, "trafficWay": "\u516c\u4ea4522 \u5317\u534e\u7ebf", "signBuilding": null, "businessArea": null, "selfRoom": null, "businessTime": null, "stall": null, "consume": null, "serviceFei": null, "favourable": null, "shopMemo": null, "appraise": null, "website": null, "memo": null, "payTypes": "\u6749\u5fb7\u5361", "shopTypes": "\u836f\u5e97", "consumeTypes": null, "cookTypes": null, "orderNum": 1000, "card4no": null, "card4noAcc": null, "district2": 416, "searchScope": null, "status": 1, "address": "\u7f57\u5357\u9547\u4e1c\u592a\u8def402--406\u53f7", "name": "\u5317\u7ffc\u56fd\u5927\u836f\u623f \u7f57\u5357\u5e97", "id": 132834, "pageNo": 0, "pageCount": null, "pageSize": 10, "ids": null, "endTime": null, "startTime": null}, {"cardNumFive": null, "isSupportYj": null, "cityName": null, "districtName": null, "shopinfo": {"mid": "888888859120027", "good_flag": "2", "new_flag": "1", "short_name": "\u5317\u7ffc\u56fd\u5927\u836f\u623f", "short_name_pinyin": "beiyiguoda", "status": null, "address": null, "name": null, "id": "31270"}, "mid": "888888859120027", "shopId": "31270", "netid": null, "province": 901, "district": 601, "zipcode": null, "telephone": "56113634", "posDate": "20070904", "destineTel": null, "togoTel": null, "trafficWay": "\u5b9d\u5c711\u7ebf \u5730\u94c1\u4e09\u53f7\u7ebf", "signBuilding": null, "businessArea": null, "selfRoom": null, "businessTime": null, "stall": null, "consume": null, "serviceFei": null, "favourable": null, "shopMemo": null, "appraise": null, "website": null, "memo": null, "payTypes": "\u6749\u5fb7\u5361", "shopTypes": "\u836f\u5e97", "consumeTypes": null, "cookTypes": null, "orderNum": 1000, "card4no": null, "card4noAcc": null, "district2": 416, "searchScope": null, "status": 1, "address": "\u7261\u4e39\u6c5f\u8def1536\u53f7", "name": "\u5317\u7ffc\u56fd\u5927\u836f\u623f \u7261\u4e39\u6c5f\u8def\u95e8\u5e02\u90e8", "id": 132835, "pageNo": 0, "pageCount": null, "pageSize": 10, "ids": null, "endTime": null, "startTime": null}, {"cardNumFive": null, "isSupportYj": null, "cityName": null, "districtName": null, "shopinfo": {"mid": "888888859120027", "good_flag": "2", "new_flag": "1", "short_name": "\u5317\u7ffc\u56fd\u5927\u836f\u623f", "short_name_pinyin": "beiyiguoda", "status": null, "address": null, "name": null, "id": "31270"}, "mid": "888888859120027", "shopId": "31270", "netid": null, "province": 901, "district": 601, "zipcode": null, "telephone": "56695610", "posDate": "20071025", "destineTel": null, "togoTel": null, "trafficWay": "\u516c\u4ea4952B \u5730\u94c1\u4e09\u53f7\u7ebf \u65c5\u6e385\u53f7\u7ebf", "signBuilding": null, "businessArea": null, "selfRoom": null, "businessTime": null, "stall": null, "consume": null, "serviceFei": null, "favourable": null, "shopMemo": null, "appraise": null, "website": null, "memo": null, "payTypes": "\u6749\u5fb7\u5361", "shopTypes": "\u836f\u5e97", "consumeTypes": null, "cookTypes": null, "orderNum": 1000, "card4no": null, "card4noAcc": null, "district2": 416, "searchScope": null, "status": 1, "address": "\u7261\u4e39\u6c5f\u8def1701\u53f7", "name": "\u5317\u7ffc\u56fd\u5927\u836f\u623f \u57f9\u6625\u5e97", "id": 132836, "pageNo": 0, "pageCount": null, "pageSize": 10, "ids": null, "endTime": null, "startTime": null}, {"cardNumFive": null, "isSupportYj": null, "cityName": null, "districtName": null, "shopinfo": {"mid": "888888859120027", "good_flag": "2", "new_flag": "1", "short_name": "\u5317\u7ffc\u56fd\u5927\u836f\u623f", "short_name_pinyin": "beiyiguoda", "status": null, "address": null, "name": null, "id": "31270"}, "mid": "888888859120027", "shopId": "31270", "netid": null, "province": 901, "district": 601, "zipcode": null, "telephone": "62849631", "posDate": "20071010", "destineTel": null, "togoTel": null, "trafficWay": "\u516c\u4ea4727 58", "signBuilding": null, "businessArea": null, "selfRoom": null, "businessTime": null, "stall": null, "consume": null, "serviceFei": null, "favourable": null, "shopMemo": null, "appraise": null, "website": null, "memo": null, "payTypes": "\u6749\u5fb7\u5361", "shopTypes": "\u836f\u5e97", "consumeTypes": null, "cookTypes": null, "orderNum": 1000, "card4no": null, "card4noAcc": null, "district2": 416, "searchScope": null, "status": 1, "address": "\u5357\u5927\u8def506\u5f041\u53f7", "name": "\u5317\u7ffc\u56fd\u5927\u836f\u623f \u7941\u8fde\u5e97", "id": 132837, "pageNo": 0, "pageCount": null, "pageSize": 10, "ids": null, "endTime": null, "startTime": null}, {"cardNumFive": null, "isSupportYj": null, "cityName": null, "districtName": null, "shopinfo": {"mid": "888888859120027", "good_flag": "2", "new_flag": "1", "short_name": "\u5317\u7ffc\u56fd\u5927\u836f\u623f", "short_name_pinyin": "beiyiguoda", "status": null, "address": null, "name": null, "id": "31270"}, "mid": "888888859120027", "shopId": "31270", "netid": null, "province": 901, "district": 601, "zipcode": null, "telephone": "56508813", "posDate": "20080509", "destineTel": null, "togoTel": null, "trafficWay": "\u516c\u4ea468 767B", "signBuilding": null, "businessArea": null, "selfRoom": null, "businessTime": null, "stall": null, "consume": null, "serviceFei": null, "favourable": null, "shopMemo": null, "appraise": null, "website": null, "memo": null, "payTypes": "\u6749\u5fb7\u5361", "shopTypes": "\u836f\u5e97", "consumeTypes": null, "cookTypes": null, "orderNum": 1000, "card4no": null, "card4noAcc": null, "district2": 416, "searchScope": null, "status": 1, "address": "\u5927\u573a\u73af\u9547\u5317\u8def358\u53f7", "name": "\u5317\u7ffc\u56fd\u5927\u836f\u623f \u4e7e\u6eaa\u5e97", "id": 132838, "pageNo": 0, "pageCount": null, "pageSize": 10, "ids": null, "endTime": null, "startTime": null}, {"cardNumFive": null, "isSupportYj": null, "cityName": null, "districtName": null, "shopinfo": {"mid": "888888859120027", "good_flag": "2", "new_flag": "1", "short_name": "\u5317\u7ffc\u56fd\u5927\u836f\u623f", "short_name_pinyin": "beiyiguoda", "status": null, "address": null, "name": null, "id": "31270"}, "mid": "888888859120027", "shopId": "31270", "netid": null, "province": 901, "district": 601, "zipcode": null, "telephone": "56150244", "posDate": "20070517", "destineTel": null, "togoTel": null, "trafficWay": "\u516c\u4ea4861 \u5f6d\u77f3\u7ebf", "signBuilding": null, "businessArea": null, "selfRoom": null, "businessTime": null, "stall": null, "consume": null, "serviceFei": null, "favourable": null, "shopMemo": null, "appraise": null, "website": null, "memo": null, "payTypes": "\u6749\u5fb7\u5361", "shopTypes": "\u836f\u5e97", "consumeTypes": null, "cookTypes": null, "orderNum": 1000, "card4no": null, "card4noAcc": null, "district2": 416, "searchScope": null, "status": 1, "address": "\u76db\u6865\u9547\u76db\u6865\u4e00\u675116\u53f7", "name": "\u5317\u7ffc\u56fd\u5927\u836f\u623f \u76db\u6865\u5e97", "id": 132839, "pageNo": 0, "pageCount": null, "pageSize": 10, "ids": null, "endTime": null, "startTime": null}, {"cardNumFive": null, "isSupportYj": null, "cityName": null, "districtName": null, "shopinfo": {"mid": "888888859120027", "good_flag": "2", "new_flag": "1", "short_name": "\u5317\u7ffc\u56fd\u5927\u836f\u623f", "short_name_pinyin": "beiyiguoda", "status": null, "address": null, "name": null, "id": "31270"}, "mid": "888888859120027", "shopId": "31270", "netid": null, "province": 901, "district": 601, "zipcode": null, "telephone": "66862203", "posDate": "20071026", "destineTel": null, "togoTel": null, "trafficWay": "\u5f6d\u7f57\u7ebf \u5317\u534e\u7ebf \u94b1\u6cf0\u7ebf", "signBuilding": null, "businessArea": null, "selfRoom": null, "businessTime": null, "stall": null, "consume": null, "serviceFei": null, "favourable": null, "shopMemo": null, "appraise": null, "website": null, "memo": null, "payTypes": "\u6749\u5fb7\u5361", "shopTypes": "\u836f\u5e97", "consumeTypes": null, "cookTypes": null, "orderNum": 1000, "card4no": null, "card4noAcc": null, "district2": 416, "searchScope": null, "status": 1, "address": "\u7f57\u5e97\u7f57\u6eaa\u8def204\u53f7", "name": "\u5317\u7ffc\u56fd\u5927\u836f\u623f \u5e02\u4e00\u5e97", "id": 132840, "pageNo": 0, "pageCount": null, "pageSize": 10, "ids": null, "endTime": null, "startTime": null}, {"cardNumFive": null, "isSupportYj": null, "cityName": null, "districtName": null, "shopinfo": {"mid": "888888859120027", "good_flag": "2", "new_flag": "1", "short_name": "\u5317\u7ffc\u56fd\u5927\u836f\u623f", "short_name_pinyin": "beiyiguoda", "status": null, "address": null, "name": null, "id": "31270"}, "mid": "888888859120027", "shopId": "31270", "netid": null, "province": 901, "district": 601, "zipcode": null, "telephone": null, "posDate": null, "destineTel": null, "togoTel": null, "trafficWay": null, "signBuilding": null, "businessArea": null, "selfRoom": null, "businessTime": null, "stall": null, "consume": null, "serviceFei": null, "favourable": null, "shopMemo": null, "appraise": null, "website": null, "memo": null, "payTypes": "\u6749\u5fb7\u5361", "shopTypes": "\u836f\u5e97", "consumeTypes": null, "cookTypes": null, "orderNum": 1000, "card4no": null, "card4noAcc": null, "district2": 416, "searchScope": null, "status": 1, "address": "\u5b9d\u5c71\u533a\u957f\u5174\u5408\u4f5c\u8def816\u53f7106-107\u5ba4", "name": "\u5317\u7ffc\u56fd\u5927\u836f\u623f \u6c34\u82d1\u5e97", "id": 132841, "pageNo": 0, "pageCount": null, "pageSize": 10, "ids": null, "endTime": null, "startTime": null}], "pageLimit": 760, "size": 10}