{"pageCount": 1095, "count": 10942, "pageNo": 70, "subShopInfo": {"cardNumFive": "", "isSupportYj": "", "cityName": null, "districtName": null, "shopinfo": {"mid": null, "good_flag": null, "new_flag": null, "short_name": null, "short_name_pinyin": null, "status": null, "address": "", "name": "", "id": null}, "mid": null, "shopId": null, "netid": null, "province": 901, "district": null, "zipcode": null, "telephone": null, "posDate": null, "destineTel": null, "togoTel": null, "trafficWay": null, "signBuilding": null, "businessArea": null, "selfRoom": null, "businessTime": null, "stall": null, "consume": null, "serviceFei": null, "favourable": null, "shopMemo": "1", "appraise": null, "website": null, "memo": null, "payTypes": "", "shopTypes": "", "consumeTypes": null, "cookTypes": null, "orderNum": null, "card4no": null, "card4noAcc": null, "district2": null, "searchScope": null, "status": null, "address": "", "name": null, "id": null, "pageNo": 69, "pageCount": null, "pageSize": 10, "ids": null, "endTime": null, "startTime": null}, "list": [{"cardNumFive": null, "isSupportYj": null, "cityName": null, "districtName": null, "shopinfo": {"mid": "888888859120033", "good_flag": "2", "new_flag": "2", "short_name": "\u5b9d\u5c9b\u5927\u836f\u623f", "short_name_pinyin": "baodaodayaofang", "status": null, "address": null, "name": null, "id": "31252"}, "mid": "888888859120033", "shopId": "31252", "netid": null, "province": 901, "district": 601, "zipcode": "200061", "telephone": "62030856", "posDate": "20070402", "destineTel": "021-62548820 52903538", "togoTel": null, "trafficWay": "\u516c\u4ea4924 830", "signBuilding": null, "businessArea": "200", "selfRoom": "\u65e0", "businessTime": "24\u5c0f\u65f6", "stall": "\u6709", "consume": null, "serviceFei": null, "favourable": null, "shopMemo": null, "appraise": null, "website": null, "memo": null, "payTypes": ",,\u6749\u5fb7\u5361", "shopTypes": "\u836f\u5e97", "consumeTypes": null, "cookTypes": null, "orderNum": 1000, "card4no": null, "card4noAcc": null, "district2": 407, "searchScope": null, "status": 1, "address": "\u5149\u65b0\u8def143\u53f7", "name": "\u5b9d\u5c9b\u5927\u836f\u623f \u5149\u65b0\u5e97", "id": 132768, "pageNo": 0, "pageCount": null, "pageSize": 10, "ids": null, "endTime": null, "startTime": null}, {"cardNumFive": null, "isSupportYj": null, "cityName": null, "districtName": null, "shopinfo": {"mid": "888888859120033", "good_flag": "2", "new_flag": "2", "short_name": "\u5b9d\u5c9b\u5927\u836f\u623f", "short_name_pinyin": "baodaodayaofang", "status": null, "address": null, "name": null, "id": "31252"}, "mid": "888888859120033", "shopId": "31252", "netid": null, "province": 901, "district": 601, "zipcode": "200333", "telephone": "62548820", "posDate": "20070402", "destineTel": "62548820", "togoTel": "62548820", "trafficWay": "\u516c\u4ea4754", "signBuilding": null, "businessArea": "200", "selfRoom": "\u65e0", "businessTime": "24H", "stall": "\u65e0", "consume": null, "serviceFei": null, "favourable": null, "shopMemo": null, "appraise": null, "website": null, "memo": null, "payTypes": "\u6749\u5fb7\u5361", "shopTypes": "\u836f\u5e97", "consumeTypes": null, "cookTypes": null, "orderNum": 1000, "card4no": null, "card4noAcc": null, "district2": 405, "searchScope": null, "status": 1, "address": "\u5170\u6eaa\u8def235\u53f7", "name": "\u5b9d\u5c9b\u5927\u836f\u623f \u5170\u6eaa\u8def\u603b\u5e97", "id": 132769, "pageNo": 0, "pageCount": null, "pageSize": 10, "ids": null, "endTime": null, "startTime": null}, {"cardNumFive": null, "isSupportYj": null, "cityName": null, "districtName": null, "shopinfo": {"mid": "888888880430032", "good_flag": "2", "new_flag": "2", "short_name": "\u5b9d\u5c9b\u773c\u955c", "short_name_pinyin": "baodaoyanjing", "status": null, "address": null, "name": null, "id": "31253"}, "mid": "888888880430032", "shopId": "31253", "netid": null, "province": 901, "district": 601, "zipcode": null, "telephone": "54158124", "posDate": "20070726", "destineTel": null, "togoTel": null, "trafficWay": "\u516c\u4ea4703 \u4e1c\u95f5\u7ebf", "signBuilding": null, "businessArea": null, "selfRoom": null, "businessTime": null, "stall": null, "consume": null, "serviceFei": null, "favourable": null, "shopMemo": null, "appraise": null, "website": null, "memo": null, "payTypes": "\u6749\u5fb7\u5361", "shopTypes": "\u96f6\u552e,\u4e13\u5356", "consumeTypes": null, "cookTypes": null, "orderNum": 1000, "card4no": null, "card4noAcc": null, "district2": 409, "searchScope": null, "status": 1, "address": "\u8398\u5e84\u817e\u51b2\u8def411\u53f7", "name": "\u5b9d\u5c9b\u773c\u955c \u90fd\u5e02\u5e97", "id": 132770, "pageNo": 0, "pageCount": null, "pageSize": 10, "ids": null, "endTime": null, "startTime": null}, {"cardNumFive": null, "isSupportYj": null, "cityName": null, "districtName": null, "shopinfo": {"mid": "888888880430029", "good_flag": null, "new_flag": null, "short_name": "\u5b9d\u5c9b\u773c\u955c", "short_name_pinyin": "baodaoyanjing", "status": null, "address": null, "name": null, "id": "31254"}, "mid": "888888880430029", "shopId": "31254", "netid": null, "province": 901, "district": 601, "zipcode": null, "telephone": "33829674", "posDate": "20090203", "destineTel": null, "togoTel": null, "trafficWay": "\u516c\u4ea4455 638 \u5730\u94c1\u516d\u53f7\u7ebf", "signBuilding": null, "businessArea": null, "selfRoom": null, "businessTime": null, "stall": null, "consume": null, "serviceFei": null, "favourable": null, "shopMemo": null, "appraise": null, "website": null, "memo": null, "payTypes": "\u6749\u5fb7\u5361", "shopTypes": "\u96f6\u552e,\u4e13\u5356", "consumeTypes": null, "cookTypes": null, "orderNum": 1000, "card4no": null, "card4noAcc": null, "district2": 418, "searchScope": null, "status": 1, "address": "\u5de8\u5cf0\u8def239\u53f7\u5bb6\u4e50\u798fB1-1024\u5b9d\u5c9b\u773c\u955c\u9760\u8fd1\u4e94\u83b2\u8def", "name": "\u5b9d\u5c9b\u773c\u955c \u5bb6\u4e50\u798f\u5de8\u5cf0\u5e97", "id": 132773, "pageNo": 0, "pageCount": null, "pageSize": 10, "ids": null, "endTime": null, "startTime": null}, {"cardNumFive": null, "isSupportYj": null, "cityName": null, "districtName": null, "shopinfo": {"mid": "888888880430027", "good_flag": null, "new_flag": null, "short_name": "\u5b9d\u5c9b\u773c\u955c", "short_name_pinyin": "baodaoyanjing", "status": null, "address": null, "name": null, "id": "31256"}, "mid": "888888880430027", "shopId": "31256", "netid": null, "province": 901, "district": 601, "zipcode": null, "telephone": "64613065", "posDate": "20080411", "destineTel": null, "togoTel": null, "trafficWay": "\u516c\u4ea4925 911 \u6caa\u9752\u4e13\u7ebf", "signBuilding": null, "businessArea": null, "selfRoom": null, "businessTime": null, "stall": null, "consume": null, "serviceFei": null, "favourable": null, "shopMemo": null, "appraise": null, "website": null, "memo": null, "payTypes": "\u6749\u5fb7\u5361", "shopTypes": "\u96f6\u552e,\u4e13\u5356", "consumeTypes": null, "cookTypes": null, "orderNum": 1000, "card4no": null, "card4noAcc": null, "district2": 409, "searchScope": null, "status": 1, "address": "\u4e03\u8398\u8def3655\u53f7\u5609\u8302\u8d2d\u7269\u5e7f\u573a", "name": "\u5b9d\u5c9b\u773c\u955c \u9f99\u57ce\u5e97", "id": 132775, "pageNo": 0, "pageCount": null, "pageSize": 10, "ids": null, "endTime": null, "startTime": null}, {"cardNumFive": null, "isSupportYj": null, "cityName": null, "districtName": null, "shopinfo": {"mid": "888888880430029", "good_flag": null, "new_flag": null, "short_name": "\u5b9d\u5c9b\u773c\u955c", "short_name_pinyin": "baodaoyanjing", "status": null, "address": null, "name": null, "id": "31254"}, "mid": "888888880430029", "shopId": "31254", "netid": null, "province": 901, "district": 601, "zipcode": null, "telephone": "64267088", "posDate": null, "destineTel": null, "togoTel": null, "trafficWay": null, "signBuilding": null, "businessArea": null, "selfRoom": null, "businessTime": null, "stall": null, "consume": null, "serviceFei": null, "favourable": null, "shopMemo": null, "appraise": null, "website": null, "memo": null, "payTypes": "\u6749\u5fb7\u5361", "shopTypes": "\u96f6\u552e,\u4e13\u5356", "consumeTypes": null, "cookTypes": null, "orderNum": 1000, "card4no": null, "card4noAcc": null, "district2": 403, "searchScope": null, "status": 1, "address": "\u8087\u5609\u6d5c\u8def1111\u53f7\u7f8e\u7f57\u57ceA\u533a-32\u5355\u5143", "name": "\u5b9d\u5c9b\u773c\u955c \u7f8e\u7f57\u57ce\u5e97", "id": 132776, "pageNo": 0, "pageCount": null, "pageSize": 10, "ids": null, "endTime": null, "startTime": null}, {"cardNumFive": null, "isSupportYj": null, "cityName": null, "districtName": null, "shopinfo": {"mid": "888888880430029", "good_flag": null, "new_flag": null, "short_name": "\u5b9d\u5c9b\u773c\u955c", "short_name_pinyin": "baodaoyanjing", "status": null, "address": null, "name": null, "id": "31254"}, "mid": "888888880430029", "shopId": "31254", "netid": null, "province": 901, "district": 601, "zipcode": null, "telephone": "39926491", "posDate": "20090203", "destineTel": null, "togoTel": null, "trafficWay": "\u516c\u4ea4517 822 \u6caa\u5510\u4e13\u7ebf", "signBuilding": null, "businessArea": null, "selfRoom": null, "businessTime": null, "stall": null, "consume": null, "serviceFei": null, "favourable": null, "shopMemo": null, "appraise": null, "website": null, "memo": null, "payTypes": "\u6749\u5fb7\u5361", "shopTypes": "\u96f6\u552e,\u4e13\u5356", "consumeTypes": null, "cookTypes": null, "orderNum": 1000, "card4no": null, "card4noAcc": null, "district2": 411, "searchScope": null, "status": 1, "address": "\u5357\u7fd4\u9547\u4e30\u7fd4\u8def3168\u53f7\u5bb6\u4e50\u798f\u4e00\u697c104\u5b9d\u5c9b\u773c\u955c", "name": "\u5b9d\u5c9b\u773c\u955c \u5357\u7fd4\u5bb6\u4e50\u798f\u5e97", "id": 132777, "pageNo": 0, "pageCount": null, "pageSize": 10, "ids": null, "endTime": null, "startTime": null}, {"cardNumFive": null, "isSupportYj": null, "cityName": null, "districtName": null, "shopinfo": {"mid": "888888880430027", "good_flag": null, "new_flag": null, "short_name": "\u5b9d\u5c9b\u773c\u955c", "short_name_pinyin": "baodaoyanjing", "status": null, "address": null, "name": null, "id": "31256"}, "mid": "888888880430027", "shopId": "31256", "netid": null, "province": 901, "district": 601, "zipcode": null, "telephone": null, "posDate": "20100202", "destineTel": null, "togoTel": null, "trafficWay": null, "signBuilding": null, "businessArea": null, "selfRoom": null, "businessTime": null, "stall": null, "consume": null, "serviceFei": null, "favourable": null, "shopMemo": null, "appraise": null, "website": null, "memo": null, "payTypes": "\u6749\u5fb7\u5361", "shopTypes": "\u96f6\u552e,\u4e13\u5356", "consumeTypes": null, "cookTypes": null, "orderNum": 1000, "card4no": null, "card4noAcc": null, "district2": 418, "searchScope": null, "status": 1, "address": "\u6d66\u4e1c\u65b0\u533a\u9646\u5bb6\u5634\u897f\u8def168\u53f7\u6b63\u5927\u5e7f\u573aB2", "name": "\u5b9d\u5c9b\u773c\u955c \u6d66\u4e1c\u6b63\u5927\u5e97", "id": 132778, "pageNo": 0, "pageCount": null, "pageSize": 10, "ids": null, "endTime": null, "startTime": null}, {"cardNumFive": null, "isSupportYj": null, "cityName": null, "districtName": null, "shopinfo": {"mid": "888888880430029", "good_flag": null, "new_flag": null, "short_name": "\u5b9d\u5c9b\u773c\u955c", "short_name_pinyin": "baodaoyanjing", "status": null, "address": null, "name": null, "id": "31254"}, "mid": "888888880430029", "shopId": "31254", "netid": null, "province": 901, "district": 601, "zipcode": null, "telephone": "61241106", "posDate": "20090203", "destineTel": null, "togoTel": null, "trafficWay": "\u516c\u4ea4\u5f90\u6885\u7ebf \u6caa\u5546\u7ebf \u6caa\u9752\u4e13\u7ebf", "signBuilding": null, "businessArea": null, "selfRoom": null, "businessTime": null, "stall": null, "consume": null, "serviceFei": null, "favourable": null, "shopMemo": null, "appraise": null, "website": null, "memo": null, "payTypes": "\u6749\u5fb7\u5361", "shopTypes": "\u96f6\u552e,\u4e13\u5356", "consumeTypes": null, "cookTypes": null, "orderNum": 1000, "card4no": null, "card4noAcc": null, "district2": 417, "searchScope": null, "status": 1, "address": "\u5f90\u6cfe\u9547\u6caa\u9752\u5e73\u516c\u8def1829\u53f7\u5bb6\u4e50\u798f1\u697c", "name": "\u5b9d\u5c9b\u773c\u955c \u5f90\u6cfe\u5bb6\u4e50\u798f\u5e97", "id": 132782, "pageNo": 0, "pageCount": null, "pageSize": 10, "ids": null, "endTime": null, "startTime": null}, {"cardNumFive": null, "isSupportYj": null, "cityName": null, "districtName": null, "shopinfo": {"mid": "888888880430027", "good_flag": null, "new_flag": null, "short_name": "\u5b9d\u5c9b\u773c\u955c", "short_name_pinyin": "baodaoyanjing", "status": null, "address": null, "name": null, "id": "36207"}, "mid": "888888880430027", "shopId": "36207", "netid": null, "province": 901, "district": 601, "zipcode": null, "telephone": "52265700", "posDate": "20100813", "destineTel": null, "togoTel": null, "trafficWay": null, "signBuilding": null, "businessArea": null, "selfRoom": null, "businessTime": null, "stall": null, "consume": null, "serviceFei": null, "favourable": null, "shopMemo": null, "appraise": null, "website": null, "memo": null, "payTypes": "\u6749\u5fb7\u5361", "shopTypes": "\u4e13\u5356", "consumeTypes": null, "cookTypes": null, "orderNum": 1000, "card4no": null, "card4noAcc": null, "district2": 409, "searchScope": null, "status": 1, "address": "\u95f5\u884c\u533a\u7e41\u5174\u8def399\u5f042\u53f7\u5927\u6da6\u53d1\u4e00\u697c08\u53f7", "name": "\u5b9d\u5c9b\u773c\u955c \u534e\u6f15\u5e97", "id": 150807, "pageNo": 0, "pageCount": null, "pageSize": 10, "ids": null, "endTime": null, "startTime": null}], "pageLimit": 690, "size": 10}