{"pageCount": 1095, "count": 10942, "pageNo": 72, "subShopInfo": {"cardNumFive": "", "isSupportYj": "", "cityName": null, "districtName": null, "shopinfo": {"mid": null, "good_flag": null, "new_flag": null, "short_name": null, "short_name_pinyin": null, "status": null, "address": "", "name": "", "id": null}, "mid": null, "shopId": null, "netid": null, "province": 901, "district": null, "zipcode": null, "telephone": null, "posDate": null, "destineTel": null, "togoTel": null, "trafficWay": null, "signBuilding": null, "businessArea": null, "selfRoom": null, "businessTime": null, "stall": null, "consume": null, "serviceFei": null, "favourable": null, "shopMemo": "1", "appraise": null, "website": null, "memo": null, "payTypes": "", "shopTypes": "", "consumeTypes": null, "cookTypes": null, "orderNum": null, "card4no": null, "card4noAcc": null, "district2": null, "searchScope": null, "status": null, "address": "", "name": null, "id": null, "pageNo": 71, "pageCount": null, "pageSize": 10, "ids": null, "endTime": null, "startTime": null}, "list": [{"cardNumFive": null, "isSupportYj": null, "cityName": null, "districtName": null, "shopinfo": {"mid": "888002153110056", "good_flag": null, "new_flag": null, "short_name": "\u5b9d\u5927\u7965", "short_name_pinyin": "baodaxiang", "status": null, "address": null, "name": null, "id": "43442"}, "mid": "888002153110056", "shopId": "43442", "netid": null, "province": 901, "district": 601, "zipcode": null, "telephone": null, "posDate": null, "destineTel": null, "togoTel": null, "trafficWay": null, "signBuilding": null, "businessArea": null, "selfRoom": null, "businessTime": null, "stall": null, "consume": null, "serviceFei": null, "favourable": null, "shopMemo": null, "appraise": null, "website": null, "memo": null, "payTypes": "\u6749\u5fb7\u5361", "shopTypes": "\u767e\u8d27", "consumeTypes": null, "cookTypes": null, "orderNum": 1000, "card4no": null, "card4noAcc": null, "district2": 407, "searchScope": null, "status": 1, "address": "\u90af\u90f8\u8def608\u5f0435-39\u53f7", "name": "\u5b9d\u5927\u7965 \u4e94\u89d2\u573a\u5e97", "id": 196283, "pageNo": 0, "pageCount": null, "pageSize": 10, "ids": null, "endTime": null, "startTime": null}, {"cardNumFive": null, "isSupportYj": null, "cityName": null, "districtName": null, "shopinfo": {"mid": "888002153110305", "good_flag": null, "new_flag": null, "short_name": "\u5b9d\u5927\u7965", "short_name_pinyin": "baodaxiang", "status": null, "address": null, "name": null, "id": "43495"}, "mid": "888002153110305", "shopId": "43495", "netid": null, "province": 901, "district": 601, "zipcode": null, "telephone": null, "posDate": null, "destineTel": null, "togoTel": null, "trafficWay": null, "signBuilding": null, "businessArea": null, "selfRoom": null, "businessTime": null, "stall": null, "consume": null, "serviceFei": null, "favourable": null, "shopMemo": null, "appraise": null, "website": null, "memo": null, "payTypes": "\u6749\u5fb7\u5361", "shopTypes": "\u767e\u8d27", "consumeTypes": null, "cookTypes": null, "orderNum": 1000, "card4no": null, "card4noAcc": null, "district2": 407, "searchScope": null, "status": 1, "address": "\u63a7\u6c5f\u8def1826\u53f7324\u5355\u5143", "name": "\u5b9d\u5927\u7965 \u63a7\u6c5f\u5e97", "id": 196829, "pageNo": 0, "pageCount": null, "pageSize": 10, "ids": null, "endTime": null, "startTime": null}, {"cardNumFive": null, "isSupportYj": null, "cityName": null, "districtName": null, "shopinfo": {"mid": "888888853110054", "good_flag": "2", "new_flag": "2", "short_name": "\u5b9d\u5927\u7965\u9752\u5c11\u5e74\u513f\u7ae5\u8d2d\u7269", "short_name_pinyin": "baodaxiangqingshaonianertonggouwu", "status": null, "address": null, "name": null, "id": "31247"}, "mid": "888888853110054", "shopId": "31247", "netid": null, "province": 901, "district": 601, "zipcode": null, "telephone": "63072300", "posDate": "20080423", "destineTel": null, "togoTel": null, "trafficWay": "\u516c\u4ea4167 537 18", "signBuilding": null, "businessArea": null, "selfRoom": null, "businessTime": null, "stall": null, "consume": null, "serviceFei": null, "favourable": null, "shopMemo": null, "appraise": null, "website": null, "memo": null, "payTypes": "\u6749\u5fb7\u5361", "shopTypes": "\u767e\u8d27", "consumeTypes": null, "cookTypes": null, "orderNum": 1000, "card4no": null, "card4noAcc": null, "district2": 408, "searchScope": null, "status": 1, "address": "\u56db\u5ddd\u5317\u8def1661\u53f7", "name": "\u5b9d\u5927\u7965\u9752\u5c11\u5e74\u513f\u7ae5\u8d2d\u7269 \u8679\u53e3\u5e97", "id": 132763, "pageNo": 0, "pageCount": null, "pageSize": 10, "ids": null, "endTime": null, "startTime": null}, {"cardNumFive": null, "isSupportYj": null, "cityName": null, "districtName": null, "shopinfo": {"mid": "888888853110060", "good_flag": "2", "new_flag": "2", "short_name": "\u5b9d\u5927\u7965\u9752\u5c11\u5e74\u513f\u7ae5\u8d2d\u7269", "short_name_pinyin": "baodaxiangqingshaonianertonggouwu", "status": null, "address": null, "name": null, "id": "31248"}, "mid": "888888853110060", "shopId": "31248", "netid": null, "province": 901, "district": 601, "zipcode": null, "telephone": "63222951", "posDate": "20090323", "destineTel": null, "togoTel": null, "trafficWay": null, "signBuilding": null, "businessArea": "5000", "selfRoom": null, "businessTime": "9:30~22:00", "stall": "\u6709", "consume": null, "serviceFei": null, "favourable": null, "shopMemo": null, "appraise": null, "website": null, "memo": null, "payTypes": "\u6749\u5fb7\u5361", "shopTypes": "\u767e\u8d27", "consumeTypes": null, "cookTypes": null, "orderNum": 1000, "card4no": null, "card4noAcc": null, "district2": 418, "searchScope": null, "status": 1, "address": "\u4e1c\u65b9\u8def796\u53f7B101-B106\u5ba4", "name": "\u5b9d\u5927\u7965\u9752\u5c11\u5e74\u513f\u7ae5\u8d2d\u7269 \u6d66\u4e1c96\u5e7f\u573a\u5e97", "id": 132764, "pageNo": 0, "pageCount": null, "pageSize": 10, "ids": null, "endTime": null, "startTime": null}, {"cardNumFive": null, "isSupportYj": null, "cityName": null, "districtName": null, "shopinfo": {"mid": "888888853110045", "good_flag": "2", "new_flag": "2", "short_name": "\u5b9d\u5927\u7965\u9752\u5c11\u5e74\u513f\u7ae5\u8d2d\u7269", "short_name_pinyin": "baodaxiangqingshaonianertonggouwu", "status": null, "address": null, "name": null, "id": "31250"}, "mid": "888888853110045", "shopId": "31250", "netid": null, "province": 901, "district": 601, "zipcode": null, "telephone": "63225122", "posDate": "20100310", "destineTel": null, "togoTel": null, "trafficWay": null, "signBuilding": null, "businessArea": null, "selfRoom": null, "businessTime": null, "stall": null, "consume": null, "serviceFei": null, "favourable": null, "shopMemo": null, "appraise": null, "website": null, "memo": null, "payTypes": "\u6749\u5fb7\u5361", "shopTypes": "\u767e\u8d27", "consumeTypes": null, "cookTypes": null, "orderNum": 1000, "card4no": null, "card4noAcc": null, "district2": 407, "searchScope": null, "status": 1, "address": "\u56fd\u5bbe\u8def58\u53f7\u4e07\u8fbe\u5e7f\u573a\u4e00\u697c\u548c\u5730\u4e0b\u4e00\u697c", "name": "\u5b9d\u5927\u7965\u9752\u5c11\u5e74\u513f\u7ae5\u8d2d\u7269 \u4e94\u89d2\u573a\u5e97", "id": 132766, "pageNo": 0, "pageCount": null, "pageSize": 10, "ids": null, "endTime": null, "startTime": null}, {"cardNumFive": null, "isSupportYj": null, "cityName": null, "districtName": null, "shopinfo": {"mid": "888002153110154", "good_flag": null, "new_flag": null, "short_name": "\u5b9d\u5927\u7965\u9752\u5c11\u5e74\u513f\u7ae5\u8d2d\u7269", "short_name_pinyin": "baodaxiangqingshaonianertonggouwu", "status": null, "address": null, "name": null, "id": "37692"}, "mid": "888002153110154", "shopId": "37692", "netid": null, "province": 901, "district": 601, "zipcode": null, "telephone": "20230488", "posDate": null, "destineTel": null, "togoTel": null, "trafficWay": null, "signBuilding": null, "businessArea": null, "selfRoom": null, "businessTime": null, "stall": null, "consume": null, "serviceFei": null, "favourable": null, "shopMemo": null, "appraise": null, "website": null, "memo": null, "payTypes": "\u6749\u5fb7\u5361", "shopTypes": "\u767e\u8d27", "consumeTypes": null, "cookTypes": null, "orderNum": 1000, "card4no": null, "card4noAcc": null, "district2": 418, "searchScope": null, "status": 1, "address": "\u6c38\u6cf0\u8def1042\u53f7", "name": "\u5b9d\u5927\u7965\u9752\u5c11\u5e74\u513f\u7ae5\u8d2d\u7269 \u4e09\u6797\u5e97", "id": 159830, "pageNo": 0, "pageCount": null, "pageSize": 10, "ids": null, "endTime": null, "startTime": null}, {"cardNumFive": null, "isSupportYj": null, "cityName": null, "districtName": null, "shopinfo": {"mid": "888002156410022", "good_flag": null, "new_flag": null, "short_name": "\u5b9d\u5927\u7965\u9752\u5c11\u5e74\u513f\u7ae5\u8d2d\u7269", "short_name_pinyin": "baodaxiangqingshaonianertonggouwu", "status": null, "address": null, "name": null, "id": "37699"}, "mid": "888002156410022", "shopId": "37699", "netid": null, "province": 901, "district": 601, "zipcode": null, "telephone": "59976611", "posDate": null, "destineTel": null, "togoTel": null, "trafficWay": null, "signBuilding": null, "businessArea": null, "selfRoom": null, "businessTime": null, "stall": null, "consume": null, "serviceFei": null, "favourable": null, "shopMemo": null, "appraise": null, "website": null, "memo": null, "payTypes": "\u6749\u5fb7\u5361", "shopTypes": "\u767e\u8d27", "consumeTypes": null, "cookTypes": null, "orderNum": 1000, "card4no": null, "card4noAcc": null, "district2": 411, "searchScope": null, "status": 1, "address": "\u91d1\u6c99\u6c5f\u897f\u8def1063\u53f73\u697c", "name": "\u5b9d\u5927\u7965\u9752\u5c11\u5e74\u513f\u7ae5\u8d2d\u7269 \u6c5f\u6865\u5e97", "id": 159862, "pageNo": 0, "pageCount": null, "pageSize": 10, "ids": null, "endTime": null, "startTime": null}, {"cardNumFive": null, "isSupportYj": null, "cityName": null, "districtName": null, "shopinfo": {"mid": "888002153110170", "good_flag": null, "new_flag": null, "short_name": "\u5b9d\u5927\u7965\u9752\u5c11\u5e74\u513f\u7ae5\u8d2d\u7269", "short_name_pinyin": "baodaxiangqingshaonianertonggouwu", "status": null, "address": null, "name": null, "id": "38788"}, "mid": "888002153110170", "shopId": "38788", "netid": null, "province": 901, "district": 601, "zipcode": null, "telephone": "67182172", "posDate": null, "destineTel": null, "togoTel": null, "trafficWay": null, "signBuilding": null, "businessArea": null, "selfRoom": null, "businessTime": null, "stall": null, "consume": null, "serviceFei": null, "favourable": null, "shopMemo": null, "appraise": null, "website": null, "memo": null, "payTypes": "\u6749\u5fb7\u5361", "shopTypes": "\u767e\u8d27", "consumeTypes": null, "cookTypes": null, "orderNum": 1000, "card4no": null, "card4noAcc": null, "district2": 413, "searchScope": null, "status": 1, "address": "\u5357\u6865\u9547\u5357\u5949\u516c\u8def8509\u5f0428\u53f7", "name": "\u5b9d\u5927\u7965\u9752\u5c11\u5e74\u513f\u7ae5\u8d2d\u7269 \u5357\u6865\u5e97", "id": 164437, "pageNo": 0, "pageCount": null, "pageSize": 10, "ids": null, "endTime": null, "startTime": null}, {"cardNumFive": null, "isSupportYj": null, "cityName": null, "districtName": null, "shopinfo": {"mid": "888002153111128", "good_flag": null, "new_flag": null, "short_name": "\u5b9d\u5927\u7965\u9752\u5c11\u5e74\u513f\u7ae5\u8d2d\u7269", "short_name_pinyin": "baodaxiangqingshaonianertonggouwu", "status": null, "address": null, "name": null, "id": "40023"}, "mid": "888002153111128", "shopId": "40023", "netid": null, "province": 901, "district": 601, "zipcode": null, "telephone": "68525060", "posDate": null, "destineTel": null, "togoTel": null, "trafficWay": null, "signBuilding": null, "businessArea": null, "selfRoom": null, "businessTime": null, "stall": null, "consume": null, "serviceFei": null, "favourable": null, "shopMemo": null, "appraise": null, "website": null, "memo": null, "payTypes": "\u6749\u5fb7\u5361", "shopTypes": "\u767e\u8d27", "consumeTypes": null, "cookTypes": null, "orderNum": 1000, "card4no": null, "card4noAcc": null, "district2": 418, "searchScope": null, "status": 1, "address": "\u4e16\u535a\u5927\u90531200\u53f7\u5730\u4e0b\u4e00\u5c42", "name": "\u5b9d\u5927\u7965\u9752\u5c11\u5e74\u513f\u7ae5\u8d2d\u7269 \u4e16\u535a\u5927\u9053\u5e97", "id": 173070, "pageNo": 0, "pageCount": null, "pageSize": 10, "ids": null, "endTime": null, "startTime": null}, {"cardNumFive": null, "isSupportYj": null, "cityName": null, "districtName": null, "shopinfo": {"mid": "888002154510059", "good_flag": null, "new_flag": null, "short_name": "\u5b9d\u5927\u7965\u9752\u5c11\u5e74\u513f\u7ae5\u8d2d\u7269\u4e2d\u5fc3", "short_name_pinyin": "baodaxiangqingshaonianertonggouwuzhongxin", "status": null, "address": null, "name": null, "id": "40657"}, "mid": "888002154510059", "shopId": "40657", "netid": null, "province": 901, "district": 601, "zipcode": null, "telephone": "65878827", "posDate": null, "destineTel": null, "togoTel": null, "trafficWay": null, "signBuilding": null, "businessArea": null, "selfRoom": null, "businessTime": null, "stall": null, "consume": null, "serviceFei": null, "favourable": null, "shopMemo": null, "appraise": null, "website": null, "memo": null, "payTypes": "\u6749\u5fb7\u5361", "shopTypes": "\u767e\u8d27", "consumeTypes": null, "cookTypes": null, "orderNum": 1000, "card4no": null, "card4noAcc": null, "district2": 416, "searchScope": null, "status": 1, "address": "\u4e00\u4e8c\u516b\u7eaa\u5ff5\u8def1000\u5f043\u53f72\u697c", "name": "\u5b9d\u5927\u7965\u9752\u5c11\u5e74\u513f\u7ae5\u8d2d\u7269\u4e2d\u5fc3 \u5b9d\u5c71\u4e07\u8fbe\u5e97", "id": 176645, "pageNo": 0, "pageCount": null, "pageSize": 10, "ids": null, "endTime": null, "startTime": null}], "pageLimit": 710, "size": 10}