{"pageCount": 1095, "count": 10942, "pageNo": 76, "subShopInfo": {"cardNumFive": "", "isSupportYj": "", "cityName": null, "districtName": null, "shopinfo": {"mid": null, "good_flag": null, "new_flag": null, "short_name": null, "short_name_pinyin": null, "status": null, "address": "", "name": "", "id": null}, "mid": null, "shopId": null, "netid": null, "province": 901, "district": null, "zipcode": null, "telephone": null, "posDate": null, "destineTel": null, "togoTel": null, "trafficWay": null, "signBuilding": null, "businessArea": null, "selfRoom": null, "businessTime": null, "stall": null, "consume": null, "serviceFei": null, "favourable": null, "shopMemo": "1", "appraise": null, "website": null, "memo": null, "payTypes": "", "shopTypes": "", "consumeTypes": null, "cookTypes": null, "orderNum": null, "card4no": null, "card4noAcc": null, "district2": null, "searchScope": null, "status": null, "address": "", "name": null, "id": null, "pageNo": 75, "pageCount": null, "pageSize": 10, "ids": null, "endTime": null, "startTime": null}, "list": [{"cardNumFive": null, "isSupportYj": null, "cityName": null, "districtName": null, "shopinfo": {"mid": "888888859120027", "good_flag": "2", "new_flag": "1", "short_name": "\u5317\u7ffc\u56fd\u5927\u836f\u623f", "short_name_pinyin": "beiyiguoda", "status": null, "address": null, "name": null, "id": "31270"}, "mid": "888888859120027", "shopId": "31270", "netid": null, "province": 901, "district": 601, "zipcode": null, "telephone": "56624333", "posDate": "20070621", "destineTel": null, "togoTel": null, "trafficWay": "\u516c\u4ea4210 722", "signBuilding": null, "businessArea": null, "selfRoom": null, "businessTime": null, "stall": null, "consume": null, "serviceFei": null, "favourable": null, "shopMemo": null, "appraise": null, "website": null, "memo": null, "payTypes": "\u6749\u5fb7\u5361", "shopTypes": "\u836f\u5e97", "consumeTypes": null, "cookTypes": null, "orderNum": 1000, "card4no": null, "card4noAcc": null, "district2": 410, "searchScope": null, "status": 1, "address": "\u548c\u7530\u8def430\u53f7", "name": "\u5317\u7ffc\u56fd\u5927\u836f\u623f \u548c\u7530\u5e97", "id": 132822, "pageNo": 0, "pageCount": null, "pageSize": 10, "ids": null, "endTime": null, "startTime": null}, {"cardNumFive": null, "isSupportYj": null, "cityName": null, "districtName": null, "shopinfo": {"mid": "888888859120027", "good_flag": "2", "new_flag": "1", "short_name": "\u5317\u7ffc\u56fd\u5927\u836f\u623f", "short_name_pinyin": "beiyiguoda", "status": null, "address": null, "name": null, "id": "31270"}, "mid": "888888859120027", "shopId": "31270", "netid": null, "province": 901, "district": 601, "zipcode": null, "telephone": "56990178", "posDate": "20070904", "destineTel": null, "togoTel": null, "trafficWay": "\u516c\u4ea4851 951 916", "signBuilding": null, "businessArea": null, "selfRoom": null, "businessTime": null, "stall": null, "consume": null, "serviceFei": null, "favourable": null, "shopMemo": null, "appraise": null, "website": null, "memo": null, "payTypes": "\u6749\u5fb7\u5361", "shopTypes": "\u836f\u5e97", "consumeTypes": null, "cookTypes": null, "orderNum": 1000, "card4no": null, "card4noAcc": null, "district2": 416, "searchScope": null, "status": 1, "address": "\u864e\u6797\u8def357\u53f7", "name": "\u5317\u7ffc\u56fd\u5927\u836f\u623f \u864e\u6797\u5e97", "id": 132823, "pageNo": 0, "pageCount": null, "pageSize": 10, "ids": null, "endTime": null, "startTime": null}, {"cardNumFive": null, "isSupportYj": null, "cityName": null, "districtName": null, "shopinfo": {"mid": "888888859120027", "good_flag": "2", "new_flag": "1", "short_name": "\u5317\u7ffc\u56fd\u5927\u836f\u623f", "short_name_pinyin": "beiyiguoda", "status": null, "address": null, "name": null, "id": "31270"}, "mid": "888888859120027", "shopId": "31270", "netid": null, "province": 901, "district": 601, "zipcode": null, "telephone": "66313286", "posDate": "200910", "destineTel": null, "togoTel": null, "trafficWay": "944\u3001916\u300195", "signBuilding": null, "businessArea": null, "selfRoom": null, "businessTime": null, "stall": null, "consume": null, "serviceFei": null, "favourable": null, "shopMemo": null, "appraise": null, "website": null, "memo": null, "payTypes": "\u6749\u5fb7\u5361", "shopTypes": "\u836f\u5e97", "consumeTypes": null, "cookTypes": null, "orderNum": 1000, "card4no": null, "card4noAcc": null, "district2": 410, "searchScope": null, "status": 1, "address": "\u8001\u6caa\u592a\u8def197\u5f0412\u53f7", "name": "\u5317\u7ffc\u56fd\u5927\u836f\u623f \u6caa\u592a\u8def\u5e97", "id": 132824, "pageNo": 0, "pageCount": null, "pageSize": 10, "ids": null, "endTime": null, "startTime": null}, {"cardNumFive": null, "isSupportYj": null, "cityName": null, "districtName": null, "shopinfo": {"mid": "888888859120027", "good_flag": "2", "new_flag": "1", "short_name": "\u5317\u7ffc\u56fd\u5927\u836f\u623f", "short_name_pinyin": "beiyiguoda", "status": null, "address": null, "name": null, "id": "31270"}, "mid": "888888859120027", "shopId": "31270", "netid": null, "province": 901, "district": 601, "zipcode": null, "telephone": "36312509", "posDate": "200911", "destineTel": null, "togoTel": null, "trafficWay": null, "signBuilding": null, "businessArea": null, "selfRoom": null, "businessTime": null, "stall": null, "consume": null, "serviceFei": null, "favourable": null, "shopMemo": null, "appraise": null, "website": null, "memo": null, "payTypes": "\u6749\u5fb7\u5361", "shopTypes": "\u836f\u5e97", "consumeTypes": null, "cookTypes": null, "orderNum": 1000, "card4no": null, "card4noAcc": null, "district2": 416, "searchScope": null, "status": 1, "address": "\u83ca\u8054\u8def83\u53f7", "name": "\u5317\u7ffc\u56fd\u5927\u836f\u623f \u83ca\u8054\u8def\u5e97", "id": 132825, "pageNo": 0, "pageCount": null, "pageSize": 10, "ids": null, "endTime": null, "startTime": null}, {"cardNumFive": null, "isSupportYj": null, "cityName": null, "districtName": null, "shopinfo": {"mid": "888888859120027", "good_flag": "2", "new_flag": "1", "short_name": "\u5317\u7ffc\u56fd\u5927\u836f\u623f", "short_name_pinyin": "beiyiguoda", "status": null, "address": null, "name": null, "id": "31270"}, "mid": "888888859120027", "shopId": "31270", "netid": null, "province": 901, "district": 601, "zipcode": null, "telephone": "56028828", "posDate": "20080813", "destineTel": null, "togoTel": null, "trafficWay": null, "signBuilding": null, "businessArea": null, "selfRoom": null, "businessTime": null, "stall": null, "consume": null, "serviceFei": null, "favourable": null, "shopMemo": null, "appraise": null, "website": null, "memo": null, "payTypes": "\u6749\u5fb7\u5361", "shopTypes": "\u836f\u5e97", "consumeTypes": null, "cookTypes": null, "orderNum": 1000, "card4no": null, "card4noAcc": null, "district2": 416, "searchScope": null, "status": 1, "address": "\u5218\u884c\u9547\u83ca\u6cc9\u8857535-539\u53f7", "name": "\u5317\u7ffc\u56fd\u5927\u836f\u623f \u83ca\u6cc9\u5e97", "id": 132826, "pageNo": 0, "pageCount": null, "pageSize": 10, "ids": null, "endTime": null, "startTime": null}, {"cardNumFive": null, "isSupportYj": null, "cityName": null, "districtName": null, "shopinfo": {"mid": "888888859120027", "good_flag": "2", "new_flag": "1", "short_name": "\u5317\u7ffc\u56fd\u5927\u836f\u623f", "short_name_pinyin": "beiyiguoda", "status": null, "address": null, "name": null, "id": "31270"}, "mid": "888888859120027", "shopId": "31270", "netid": null, "province": 901, "district": 601, "zipcode": null, "telephone": "66122905", "posDate": "20071023", "destineTel": null, "togoTel": null, "trafficWay": "\u516c\u4ea4110 767", "signBuilding": null, "businessArea": null, "selfRoom": null, "businessTime": null, "stall": null, "consume": null, "serviceFei": null, "favourable": null, "shopMemo": null, "appraise": null, "website": null, "memo": null, "payTypes": "\u6749\u5fb7\u5361", "shopTypes": "\u836f\u5e97", "consumeTypes": null, "cookTypes": null, "orderNum": 1000, "card4no": null, "card4noAcc": null, "district2": 405, "searchScope": null, "status": 1, "address": "\u805a\u4e30\u56ed\u8def188\u5f04232\u53f7", "name": "\u5317\u7ffc\u56fd\u5927\u836f\u623f \u805a\u76c8\u5e97", "id": 132827, "pageNo": 0, "pageCount": null, "pageSize": 10, "ids": null, "endTime": null, "startTime": null}, {"cardNumFive": null, "isSupportYj": null, "cityName": null, "districtName": null, "shopinfo": {"mid": "888888859120027", "good_flag": "2", "new_flag": "1", "short_name": "\u5317\u7ffc\u56fd\u5927\u836f\u623f", "short_name_pinyin": "beiyiguoda", "status": null, "address": null, "name": null, "id": "31270"}, "mid": "888888859120027", "shopId": "31270", "netid": null, "province": 901, "district": 601, "zipcode": null, "telephone": "56911726", "posDate": "20080509", "destineTel": null, "togoTel": null, "trafficWay": "\u516c\u4ea446 912", "signBuilding": null, "businessArea": null, "selfRoom": null, "businessTime": null, "stall": null, "consume": null, "serviceFei": null, "favourable": null, "shopMemo": null, "appraise": null, "website": null, "memo": null, "payTypes": "\u6749\u5fb7\u5361", "shopTypes": "\u836f\u5e97", "consumeTypes": null, "cookTypes": null, "orderNum": 1000, "card4no": null, "card4noAcc": null, "district2": 410, "searchScope": null, "status": 1, "address": "\u4e34\u6c7e\u8def467\u53f7", "name": "\u5317\u7ffc\u56fd\u5927\u836f\u623f \u4e34\u6c7e\u5e97", "id": 132828, "pageNo": 0, "pageCount": null, "pageSize": 10, "ids": null, "endTime": null, "startTime": null}, {"cardNumFive": null, "isSupportYj": null, "cityName": null, "districtName": null, "shopinfo": {"mid": "888888859120027", "good_flag": "2", "new_flag": "1", "short_name": "\u5317\u7ffc\u56fd\u5927\u836f\u623f", "short_name_pinyin": "beiyiguoda", "status": null, "address": null, "name": null, "id": "31270"}, "mid": "888888859120027", "shopId": "31270", "netid": null, "province": 901, "district": 601, "zipcode": null, "telephone": "56073842", "posDate": "20070424", "destineTel": null, "togoTel": null, "trafficWay": "\u516c\u4ea4909", "signBuilding": null, "businessArea": null, "selfRoom": null, "businessTime": null, "stall": null, "consume": null, "serviceFei": null, "favourable": null, "shopMemo": null, "appraise": null, "website": null, "memo": null, "payTypes": "\u6749\u5fb7\u5361", "shopTypes": "\u836f\u5e97", "consumeTypes": null, "cookTypes": null, "orderNum": 1000, "card4no": null, "card4noAcc": null, "district2": 410, "searchScope": null, "status": 1, "address": "\u7075\u77f3\u8def1001\u53f7", "name": "\u5317\u7ffc\u56fd\u5927\u836f\u623f \u7075\u77f3\u5e97", "id": 132829, "pageNo": 0, "pageCount": null, "pageSize": 10, "ids": null, "endTime": null, "startTime": null}, {"cardNumFive": null, "isSupportYj": null, "cityName": null, "districtName": null, "shopinfo": {"mid": "888888859120027", "good_flag": "2", "new_flag": "1", "short_name": "\u5317\u7ffc\u56fd\u5927\u836f\u623f", "short_name_pinyin": "beiyiguoda", "status": null, "address": null, "name": null, "id": "31270"}, "mid": "888888859120027", "shopId": "31270", "netid": null, "province": 901, "district": 601, "zipcode": null, "telephone": "56916545", "posDate": "20080509", "destineTel": null, "togoTel": null, "trafficWay": "\u516c\u4ea446 951 597", "signBuilding": null, "businessArea": null, "selfRoom": null, "businessTime": null, "stall": null, "consume": null, "serviceFei": null, "favourable": null, "shopMemo": null, "appraise": null, "website": null, "memo": null, "payTypes": "\u6749\u5fb7\u5361", "shopTypes": "\u836f\u5e97", "consumeTypes": null, "cookTypes": null, "orderNum": 1000, "card4no": null, "card4noAcc": null, "district2": 416, "searchScope": null, "status": 1, "address": "\u5171\u5eb7\u4e1c\u8def329\u53f7", "name": "\u5317\u7ffc\u56fd\u5927\u836f\u623f \u5cad\u5357\u5e97", "id": 132830, "pageNo": 0, "pageCount": null, "pageSize": 10, "ids": null, "endTime": null, "startTime": null}, {"cardNumFive": null, "isSupportYj": null, "cityName": null, "districtName": null, "shopinfo": {"mid": "888888859120027", "good_flag": "2", "new_flag": "1", "short_name": "\u5317\u7ffc\u56fd\u5927\u836f\u623f", "short_name_pinyin": "beiyiguoda", "status": null, "address": null, "name": null, "id": "31270"}, "mid": "888888859120027", "shopId": "31270", "netid": null, "province": 901, "district": 601, "zipcode": null, "telephone": "56020353", "posDate": "20071114", "destineTel": null, "togoTel": null, "trafficWay": "\u5609\u6cf0\u7ebf \u5317\u534e\u7ebf", "signBuilding": null, "businessArea": null, "selfRoom": null, "businessTime": null, "stall": null, "consume": null, "serviceFei": null, "favourable": null, "shopMemo": null, "appraise": null, "website": null, "memo": null, "payTypes": "\u6749\u5fb7\u5361", "shopTypes": "\u836f\u5e97", "consumeTypes": null, "cookTypes": null, "orderNum": 1000, "card4no": null, "card4noAcc": null, "district2": 416, "searchScope": null, "status": 1, "address": "\u5218\u884c\u9547\u83ca\u6cc9\u8857641\u53f7", "name": "\u5317\u7ffc\u56fd\u5927\u836f\u623f \u5218\u884c\u5e97", "id": 132831, "pageNo": 0, "pageCount": null, "pageSize": 10, "ids": null, "endTime": null, "startTime": null}], "pageLimit": 750, "size": 10}