{"pageCount": 1095, "count": 10942, "pageNo": 75, "subShopInfo": {"cardNumFive": "", "isSupportYj": "", "cityName": null, "districtName": null, "shopinfo": {"mid": null, "good_flag": null, "new_flag": null, "short_name": null, "short_name_pinyin": null, "status": null, "address": "", "name": "", "id": null}, "mid": null, "shopId": null, "netid": null, "province": 901, "district": null, "zipcode": null, "telephone": null, "posDate": null, "destineTel": null, "togoTel": null, "trafficWay": null, "signBuilding": null, "businessArea": null, "selfRoom": null, "businessTime": null, "stall": null, "consume": null, "serviceFei": null, "favourable": null, "shopMemo": "1", "appraise": null, "website": null, "memo": null, "payTypes": "", "shopTypes": "", "consumeTypes": null, "cookTypes": null, "orderNum": null, "card4no": null, "card4noAcc": null, "district2": null, "searchScope": null, "status": null, "address": "", "name": null, "id": null, "pageNo": 74, "pageCount": null, "pageSize": 10, "ids": null, "endTime": null, "startTime": null}, "list": [{"cardNumFive": null, "isSupportYj": null, "cityName": null, "districtName": null, "shopinfo": {"mid": "888888859120027", "good_flag": "2", "new_flag": "1", "short_name": "\u5317\u7ffc\u56fd\u5927\u836f\u623f", "short_name_pinyin": "beiyiguoda", "status": null, "address": null, "name": null, "id": "31270"}, "mid": "888888859120027", "shopId": "31270", "netid": null, "province": 901, "district": 601, "zipcode": null, "telephone": "63241830", "posDate": "20080509", "destineTel": null, "togoTel": null, "trafficWay": null, "signBuilding": null, "businessArea": null, "selfRoom": null, "businessTime": null, "stall": null, "consume": null, "serviceFei": null, "favourable": null, "shopMemo": null, "appraise": null, "website": null, "memo": null, "payTypes": "\u6749\u5fb7\u5361", "shopTypes": "\u836f\u5e97", "consumeTypes": null, "cookTypes": null, "orderNum": 1000, "card4no": null, "card4noAcc": null, "district2": 410, "searchScope": null, "status": 1, "address": "\u5b9d\u5c71\u8def55\u53f7", "name": "\u5317\u7ffc\u56fd\u5927\u836f\u623f \u5b9d\u5c71\u5e97", "id": 132812, "pageNo": 0, "pageCount": null, "pageSize": 10, "ids": null, "endTime": null, "startTime": null}, {"cardNumFive": null, "isSupportYj": null, "cityName": null, "districtName": null, "shopinfo": {"mid": "888888859120027", "good_flag": "2", "new_flag": "1", "short_name": "\u5317\u7ffc\u56fd\u5927\u836f\u623f", "short_name_pinyin": "beiyiguoda", "status": null, "address": null, "name": null, "id": "31270"}, "mid": "888888859120027", "shopId": "31270", "netid": null, "province": 901, "district": 601, "zipcode": null, "telephone": "56164586", "posDate": "20070904", "destineTel": null, "togoTel": null, "trafficWay": "\u5b9d\u5c711\u7ebf \u5730\u94c1\u4e09\u53f7\u7ebf", "signBuilding": null, "businessArea": null, "selfRoom": null, "businessTime": null, "stall": null, "consume": null, "serviceFei": null, "favourable": null, "shopMemo": null, "appraise": null, "website": null, "memo": null, "payTypes": "\u6749\u5fb7\u5361", "shopTypes": "\u836f\u5e97", "consumeTypes": null, "cookTypes": null, "orderNum": 1000, "card4no": null, "card4noAcc": null, "district2": 416, "searchScope": null, "status": 1, "address": "\u7261\u4e39\u6c5f\u8def487\u53f7", "name": "\u5317\u7ffc\u56fd\u5927\u836f\u623f \u5b9d\u6dde\u5e97", "id": 132813, "pageNo": 0, "pageCount": null, "pageSize": 10, "ids": null, "endTime": null, "startTime": null}, {"cardNumFive": null, "isSupportYj": null, "cityName": null, "districtName": null, "shopinfo": {"mid": "888888859120027", "good_flag": "2", "new_flag": "1", "short_name": "\u5317\u7ffc\u56fd\u5927\u836f\u623f", "short_name_pinyin": "beiyiguoda", "status": null, "address": null, "name": null, "id": "31270"}, "mid": "888888859120027", "shopId": "31270", "netid": null, "province": 901, "district": 601, "zipcode": null, "telephone": "66240361", "posDate": "20070424", "destineTel": null, "togoTel": null, "trafficWay": "\u516c\u4ea4722 253 95", "signBuilding": null, "businessArea": null, "selfRoom": null, "businessTime": null, "stall": null, "consume": null, "serviceFei": null, "favourable": null, "shopMemo": null, "appraise": null, "website": null, "memo": null, "payTypes": "\u6749\u5fb7\u5361", "shopTypes": "\u836f\u5e97", "consumeTypes": null, "cookTypes": null, "orderNum": 1000, "card4no": null, "card4noAcc": null, "district2": 416, "searchScope": null, "status": 1, "address": "\u4fdd\u5fb7\u8def1300\u53f7", "name": "\u5317\u7ffc\u56fd\u5927\u836f\u623f \u4fdd\u5fb7\u5e97", "id": 132814, "pageNo": 0, "pageCount": null, "pageSize": 10, "ids": null, "endTime": null, "startTime": null}, {"cardNumFive": null, "isSupportYj": null, "cityName": null, "districtName": null, "shopinfo": {"mid": "888888859120027", "good_flag": "2", "new_flag": "1", "short_name": "\u5317\u7ffc\u56fd\u5927\u836f\u623f", "short_name_pinyin": "beiyiguoda", "status": null, "address": null, "name": null, "id": "31270"}, "mid": "888888859120027", "shopId": "31270", "netid": null, "province": 901, "district": 601, "zipcode": null, "telephone": "66243842", "posDate": "20070426", "destineTel": null, "togoTel": null, "trafficWay": "\u5730\u94c1\u4e00\u53f7\u7ebf", "signBuilding": null, "businessArea": null, "selfRoom": null, "businessTime": null, "stall": null, "consume": null, "serviceFei": null, "favourable": null, "shopMemo": null, "appraise": null, "website": null, "memo": null, "payTypes": "\u6749\u5fb7\u5361", "shopTypes": "\u836f\u5e97", "consumeTypes": null, "cookTypes": null, "orderNum": 1000, "card4no": null, "card4noAcc": null, "district2": 416, "searchScope": null, "status": 1, "address": "\u5171\u5eb7\u8def102\u53f7", "name": "\u5317\u7ffc\u56fd\u5927\u836f\u623f \u4fdd\u5065\u5e97", "id": 132815, "pageNo": 0, "pageCount": null, "pageSize": 10, "ids": null, "endTime": null, "startTime": null}, {"cardNumFive": null, "isSupportYj": null, "cityName": null, "districtName": null, "shopinfo": {"mid": "888888859120027", "good_flag": "2", "new_flag": "1", "short_name": "\u5317\u7ffc\u56fd\u5927\u836f\u623f", "short_name_pinyin": "beiyiguoda", "status": null, "address": null, "name": null, "id": "31270"}, "mid": "888888859120027", "shopId": "31270", "netid": null, "province": 901, "district": 601, "zipcode": null, "telephone": "56877990", "posDate": "20080512", "destineTel": null, "togoTel": null, "trafficWay": "\u516c\u4ea4963", "signBuilding": null, "businessArea": null, "selfRoom": null, "businessTime": null, "stall": null, "consume": null, "serviceFei": null, "favourable": null, "shopMemo": null, "appraise": null, "website": null, "memo": null, "payTypes": "\u6749\u5fb7\u5361", "shopTypes": "\u836f\u5e97", "consumeTypes": null, "cookTypes": null, "orderNum": 1000, "card4no": null, "card4noAcc": null, "district2": 416, "searchScope": null, "status": 1, "address": "\u9648\u5ddd\u8def150-152\u53f7", "name": "\u5317\u7ffc\u56fd\u5927\u836f\u623f \u9648\u5ddd\u5e97", "id": 132816, "pageNo": 0, "pageCount": null, "pageSize": 10, "ids": null, "endTime": null, "startTime": null}, {"cardNumFive": null, "isSupportYj": null, "cityName": null, "districtName": null, "shopinfo": {"mid": "888888859120027", "good_flag": "2", "new_flag": "1", "short_name": "\u5317\u7ffc\u56fd\u5927\u836f\u623f", "short_name_pinyin": "beiyiguoda", "status": null, "address": null, "name": null, "id": "31270"}, "mid": "888888859120027", "shopId": "31270", "netid": null, "province": 901, "district": 601, "zipcode": null, "telephone": "66500787", "posDate": "20071030", "destineTel": null, "togoTel": null, "trafficWay": "\u516c\u4ea4845 761 \u5317\u534e\u7ebf", "signBuilding": null, "businessArea": null, "selfRoom": null, "businessTime": null, "stall": null, "consume": null, "serviceFei": null, "favourable": null, "shopMemo": null, "appraise": null, "website": null, "memo": null, "payTypes": "\u6749\u5fb7\u5361", "shopTypes": "\u836f\u5e97", "consumeTypes": null, "cookTypes": null, "orderNum": 1000, "card4no": null, "card4noAcc": null, "district2": 416, "searchScope": null, "status": 1, "address": "\u6caa\u592a\u652f\u8def1502\u53f7", "name": "\u5317\u7ffc\u56fd\u5927\u836f\u623f \u5927\u573a\u5e97", "id": 132817, "pageNo": 0, "pageCount": null, "pageSize": 10, "ids": null, "endTime": null, "startTime": null}, {"cardNumFive": null, "isSupportYj": null, "cityName": null, "districtName": null, "shopinfo": {"mid": "888888859120027", "good_flag": "2", "new_flag": "1", "short_name": "\u5317\u7ffc\u56fd\u5927\u836f\u623f", "short_name_pinyin": "beiyiguoda", "status": null, "address": null, "name": null, "id": "31270"}, "mid": "888888859120027", "shopId": "31270", "netid": null, "province": 901, "district": 601, "zipcode": null, "telephone": "56627429", "posDate": "20080509", "destineTel": null, "togoTel": null, "trafficWay": "\u516c\u4ea4516 48 \u65b0\u5ddd\u4e13\u7ebf", "signBuilding": null, "businessArea": null, "selfRoom": null, "businessTime": null, "stall": null, "consume": null, "serviceFei": null, "favourable": null, "shopMemo": null, "appraise": null, "website": null, "memo": null, "payTypes": "\u6749\u5fb7\u5361", "shopTypes": "\u836f\u5e97", "consumeTypes": null, "cookTypes": null, "orderNum": 1000, "card4no": null, "card4noAcc": null, "district2": 410, "searchScope": null, "status": 1, "address": "\u5927\u7edf\u8def840\u53f7", "name": "\u5317\u7ffc\u56fd\u5927\u836f\u623f \u5927\u7edf\u5e97", "id": 132818, "pageNo": 0, "pageCount": null, "pageSize": 10, "ids": null, "endTime": null, "startTime": null}, {"cardNumFive": null, "isSupportYj": null, "cityName": null, "districtName": null, "shopinfo": {"mid": "888888859120027", "good_flag": "2", "new_flag": "1", "short_name": "\u5317\u7ffc\u56fd\u5927\u836f\u623f", "short_name_pinyin": "beiyiguoda", "status": null, "address": null, "name": null, "id": "31270"}, "mid": "888888859120027", "shopId": "31270", "netid": null, "province": 901, "district": 601, "zipcode": null, "telephone": "56137340", "posDate": "20071023", "destineTel": null, "togoTel": null, "trafficWay": "\u516c\u4ea4767 110", "signBuilding": null, "businessArea": null, "selfRoom": null, "businessTime": null, "stall": null, "consume": null, "serviceFei": null, "favourable": null, "shopMemo": null, "appraise": null, "website": null, "memo": null, "payTypes": "\u6749\u5fb7\u5361", "shopTypes": "\u836f\u5e97", "consumeTypes": null, "cookTypes": null, "orderNum": 1000, "card4no": null, "card4noAcc": null, "district2": 416, "searchScope": null, "status": 1, "address": "\u9526\u79cb\u8def1419\u53f7", "name": "\u5317\u7ffc\u56fd\u5927\u836f\u623f \u8451\u5858\u5e97", "id": 132819, "pageNo": 0, "pageCount": null, "pageSize": 10, "ids": null, "endTime": null, "startTime": null}, {"cardNumFive": null, "isSupportYj": null, "cityName": null, "districtName": null, "shopinfo": {"mid": "888888859120027", "good_flag": "2", "new_flag": "1", "short_name": "\u5317\u7ffc\u56fd\u5927\u836f\u623f", "short_name_pinyin": "beiyiguoda", "status": null, "address": null, "name": null, "id": "31270"}, "mid": "888888859120027", "shopId": "31270", "netid": null, "province": 901, "district": 601, "zipcode": null, "telephone": "56850642", "posDate": "20080528", "destineTel": null, "togoTel": null, "trafficWay": null, "signBuilding": null, "businessArea": null, "selfRoom": null, "businessTime": null, "stall": null, "consume": null, "serviceFei": null, "favourable": null, "shopMemo": null, "appraise": null, "website": null, "memo": null, "payTypes": "\u6749\u5fb7\u5361", "shopTypes": "\u836f\u5e97", "consumeTypes": null, "cookTypes": null, "orderNum": 1000, "card4no": null, "card4noAcc": null, "district2": 416, "searchScope": null, "status": 1, "address": "\u957f\u5174\u51e4\u51f0\u9547116\u53f7", "name": "\u5317\u7ffc\u56fd\u5927\u836f\u623f \u51e4\u51f0\u5e97", "id": 132820, "pageNo": 0, "pageCount": null, "pageSize": 10, "ids": null, "endTime": null, "startTime": null}, {"cardNumFive": null, "isSupportYj": null, "cityName": null, "districtName": null, "shopinfo": {"mid": "888888859120027", "good_flag": "2", "new_flag": "1", "short_name": "\u5317\u7ffc\u56fd\u5927\u836f\u623f", "short_name_pinyin": "beiyiguoda", "status": null, "address": null, "name": null, "id": "31270"}, "mid": "888888859120027", "shopId": "31270", "netid": null, "province": 901, "district": 601, "zipcode": null, "telephone": "56043049", "posDate": "20070904", "destineTel": null, "togoTel": null, "trafficWay": "\u516c\u4ea4761 701 \u864e\u5357\u7ebf", "signBuilding": null, "businessArea": null, "selfRoom": null, "businessTime": null, "stall": null, "consume": null, "serviceFei": null, "favourable": null, "shopMemo": null, "appraise": null, "website": null, "memo": null, "payTypes": "\u6749\u5fb7\u5361", "shopTypes": "\u836f\u5e97", "consumeTypes": null, "cookTypes": null, "orderNum": 1000, "card4no": null, "card4noAcc": null, "district2": 416, "searchScope": null, "status": 1, "address": "\u987e\u6751\u9547\u987e\u65b0\u8def23\u53f7", "name": "\u5317\u7ffc\u56fd\u5927\u836f\u623f \u987e\u6751\u5e97", "id": 132821, "pageNo": 0, "pageCount": null, "pageSize": 10, "ids": null, "endTime": null, "startTime": null}], "pageLimit": 740, "size": 10}