{"pageCount": 1095, "count": 10942, "pageNo": 79, "subShopInfo": {"cardNumFive": "", "isSupportYj": "", "cityName": null, "districtName": null, "shopinfo": {"mid": null, "good_flag": null, "new_flag": null, "short_name": null, "short_name_pinyin": null, "status": null, "address": "", "name": "", "id": null}, "mid": null, "shopId": null, "netid": null, "province": 901, "district": null, "zipcode": null, "telephone": null, "posDate": null, "destineTel": null, "togoTel": null, "trafficWay": null, "signBuilding": null, "businessArea": null, "selfRoom": null, "businessTime": null, "stall": null, "consume": null, "serviceFei": null, "favourable": null, "shopMemo": "1", "appraise": null, "website": null, "memo": null, "payTypes": "", "shopTypes": "", "consumeTypes": null, "cookTypes": null, "orderNum": null, "card4no": null, "card4noAcc": null, "district2": null, "searchScope": null, "status": null, "address": "", "name": null, "id": null, "pageNo": 78, "pageCount": null, "pageSize": 10, "ids": null, "endTime": null, "startTime": null}, "list": [{"cardNumFive": null, "isSupportYj": null, "cityName": null, "districtName": null, "shopinfo": {"mid": "888888859120027", "good_flag": "2", "new_flag": "1", "short_name": "\u5317\u7ffc\u56fd\u5927\u836f\u623f", "short_name_pinyin": "beiyiguoda", "status": null, "address": null, "name": null, "id": "31270"}, "mid": "888888859120027", "shopId": "31270", "netid": null, "province": 901, "district": 601, "zipcode": null, "telephone": "56118660", "posDate": "20070424", "destineTel": null, "togoTel": null, "trafficWay": "\u65c5\u6e38\u4e94\u53f7\u7ebf", "signBuilding": null, "businessArea": null, "selfRoom": null, "businessTime": null, "stall": null, "consume": null, "serviceFei": null, "favourable": null, "shopMemo": null, "appraise": null, "website": null, "memo": null, "payTypes": "\u6749\u5fb7\u5361", "shopTypes": "\u836f\u5e97", "consumeTypes": null, "cookTypes": null, "orderNum": 1000, "card4no": null, "card4noAcc": null, "district2": 407, "searchScope": null, "status": 1, "address": "\u53cb\u8c0a\u652f\u8def43-45\u53f7", "name": "\u5317\u7ffc\u56fd\u5927\u836f\u623f \u9038\u9ad8\u5e97", "id": 132853, "pageNo": 0, "pageCount": null, "pageSize": 10, "ids": null, "endTime": null, "startTime": null}, {"cardNumFive": null, "isSupportYj": null, "cityName": null, "districtName": null, "shopinfo": {"mid": "888888859120027", "good_flag": "2", "new_flag": "1", "short_name": "\u5317\u7ffc\u56fd\u5927\u836f\u623f", "short_name_pinyin": "beiyiguoda", "status": null, "address": null, "name": null, "id": "31270"}, "mid": "888888859120027", "shopId": "31270", "netid": null, "province": 901, "district": 601, "zipcode": null, "telephone": "66859919", "posDate": "20070517", "destineTel": null, "togoTel": null, "trafficWay": null, "signBuilding": null, "businessArea": null, "selfRoom": null, "businessTime": null, "stall": null, "consume": null, "serviceFei": null, "favourable": null, "shopMemo": null, "appraise": null, "website": null, "memo": null, "payTypes": "\u6749\u5fb7\u5361", "shopTypes": "\u836f\u5e97", "consumeTypes": null, "cookTypes": null, "orderNum": 1000, "card4no": null, "card4noAcc": null, "district2": 415, "searchScope": null, "status": 1, "address": "\u957f\u5174\u5706\u6c99\u9547", "name": "\u5317\u7ffc\u56fd\u5927\u836f\u623f \u5706\u6c99\u5e97", "id": 132854, "pageNo": 0, "pageCount": null, "pageSize": 10, "ids": null, "endTime": null, "startTime": null}, {"cardNumFive": null, "isSupportYj": null, "cityName": null, "districtName": null, "shopinfo": {"mid": "888888859120027", "good_flag": "2", "new_flag": "1", "short_name": "\u5317\u7ffc\u56fd\u5927\u836f\u623f", "short_name_pinyin": "beiyiguoda", "status": null, "address": null, "name": null, "id": "31270"}, "mid": "888888859120027", "shopId": "31270", "netid": null, "province": 901, "district": 601, "zipcode": null, "telephone": "56198089", "posDate": "20080509", "destineTel": null, "togoTel": null, "trafficWay": "\u516c\u4ea4518 \u96a7\u9053\u4e09\u7ebf", "signBuilding": null, "businessArea": null, "selfRoom": null, "businessTime": null, "stall": null, "consume": null, "serviceFei": null, "favourable": null, "shopMemo": null, "appraise": null, "website": null, "memo": null, "payTypes": "\u6749\u5fb7\u5361", "shopTypes": "\u836f\u5e97", "consumeTypes": null, "cookTypes": null, "orderNum": 1000, "card4no": null, "card4noAcc": null, "district2": 410, "searchScope": null, "status": 1, "address": "\u6708\u6d66\u9547\u7ee5\u5316\u8def45--47\u53f7", "name": "\u5317\u7ffc\u56fd\u5927\u836f\u623f \u6708\u6d66\u5e97", "id": 132855, "pageNo": 0, "pageCount": null, "pageSize": 10, "ids": null, "endTime": null, "startTime": null}, {"cardNumFive": null, "isSupportYj": null, "cityName": null, "districtName": null, "shopinfo": {"mid": "888888859120027", "good_flag": "2", "new_flag": "1", "short_name": "\u5317\u7ffc\u56fd\u5927\u836f\u623f", "short_name_pinyin": "beiyiguoda", "status": null, "address": null, "name": null, "id": "31270"}, "mid": "888888859120027", "shopId": "31270", "netid": null, "province": 901, "district": 601, "zipcode": null, "telephone": "56922133", "posDate": "20071026", "destineTel": null, "togoTel": null, "trafficWay": "\u5f6d\u6c5f\u7ebf \u6c5f\u6708\u7ebf \u5f6d\u77f3\u7ebf", "signBuilding": null, "businessArea": null, "selfRoom": null, "businessTime": null, "stall": null, "consume": null, "serviceFei": null, "favourable": null, "shopMemo": null, "appraise": null, "website": null, "memo": null, "payTypes": "\u6749\u5fb7\u5361", "shopTypes": "\u836f\u5e97", "consumeTypes": null, "cookTypes": null, "orderNum": 1000, "card4no": null, "card4noAcc": null, "district2": 416, "searchScope": null, "status": 1, "address": "\u6708\u6d66\u4e8c\u67518\u53f7", "name": "\u5317\u7ffc\u56fd\u5927\u836f\u623f \u6708\u65b0\u5e97", "id": 132856, "pageNo": 0, "pageCount": null, "pageSize": 10, "ids": null, "endTime": null, "startTime": null}, {"cardNumFive": null, "isSupportYj": null, "cityName": null, "districtName": null, "shopinfo": {"mid": "888888859120027", "good_flag": "2", "new_flag": "1", "short_name": "\u5317\u7ffc\u56fd\u5927\u836f\u623f", "short_name_pinyin": "beiyiguoda", "status": null, "address": null, "name": null, "id": "31270"}, "mid": "888888859120027", "shopId": "31270", "netid": null, "province": 901, "district": 601, "zipcode": null, "telephone": "56499941", "posDate": "20080116", "destineTel": null, "togoTel": null, "trafficWay": "\u5730\u94c1\u4e00\u53f7\u7ebf", "signBuilding": null, "businessArea": null, "selfRoom": null, "businessTime": null, "stall": null, "consume": null, "serviceFei": null, "favourable": null, "shopMemo": null, "appraise": null, "website": null, "memo": null, "payTypes": "\u6749\u5fb7\u5361", "shopTypes": "\u836f\u5e97", "consumeTypes": null, "cookTypes": null, "orderNum": 1000, "card4no": null, "card4noAcc": null, "district2": 416, "searchScope": null, "status": 1, "address": "\u6c34\u4ea7\u897f\u8def132\u53f7", "name": "\u5317\u7ffc\u56fd\u5927\u836f\u623f \u8574\u5ddd\u5e97", "id": 132857, "pageNo": 0, "pageCount": null, "pageSize": 10, "ids": null, "endTime": null, "startTime": null}, {"cardNumFive": null, "isSupportYj": null, "cityName": null, "districtName": null, "shopinfo": {"mid": "888888859120027", "good_flag": "2", "new_flag": "1", "short_name": "\u5317\u7ffc\u56fd\u5927\u836f\u623f", "short_name_pinyin": "beiyiguoda", "status": null, "address": null, "name": null, "id": "31270"}, "mid": "888888859120027", "shopId": "31270", "netid": null, "province": 901, "district": 601, "zipcode": null, "telephone": "56986354", "posDate": "20070429", "destineTel": null, "togoTel": null, "trafficWay": "\u5730\u94c1\u4e00\u53f7\u7ebf", "signBuilding": null, "businessArea": null, "selfRoom": null, "businessTime": null, "stall": null, "consume": null, "serviceFei": null, "favourable": null, "shopMemo": null, "appraise": null, "website": null, "memo": null, "payTypes": "\u6749\u5fb7\u5361", "shopTypes": "\u836f\u5e97", "consumeTypes": null, "cookTypes": null, "orderNum": 1000, "card4no": null, "card4noAcc": null, "district2": 410, "searchScope": null, "status": 1, "address": "\u82b7\u6c5f\u897f\u8def263\u53f7", "name": "\u5317\u7ffc\u56fd\u5927\u836f\u623f \u82b7\u6c5f\u897f\u8def\u5e97", "id": 132858, "pageNo": 0, "pageCount": null, "pageSize": 10, "ids": null, "endTime": null, "startTime": null}, {"cardNumFive": null, "isSupportYj": null, "cityName": null, "districtName": null, "shopinfo": {"mid": "888002154119997", "good_flag": null, "new_flag": null, "short_name": "BLT", "short_name_pinyin": "blt", "status": null, "address": null, "name": null, "id": "39251"}, "mid": "888002154119997", "shopId": "39251", "netid": null, "province": 901, "district": 601, "zipcode": null, "telephone": null, "posDate": null, "destineTel": null, "togoTel": null, "trafficWay": null, "signBuilding": null, "businessArea": null, "selfRoom": null, "businessTime": null, "stall": null, "consume": null, "serviceFei": null, "favourable": null, "shopMemo": null, "appraise": null, "website": null, "memo": null, "payTypes": "\u6749\u5fb7\u5361", "shopTypes": "\u8d85\u5e02", "consumeTypes": null, "cookTypes": null, "orderNum": 1000, "card4no": null, "card4noAcc": null, "district2": 418, "searchScope": null, "status": 1, "address": "\u82b3\u7538\u8def300\u53f7", "name": "BLT \u8054\u6d0b\u5e97", "id": 167461, "pageNo": 0, "pageCount": null, "pageSize": 10, "ids": null, "endTime": null, "startTime": null}, {"cardNumFive": null, "isSupportYj": null, "cityName": null, "districtName": null, "shopinfo": {"mid": "888002154110542", "good_flag": null, "new_flag": null, "short_name": "BLT", "short_name_pinyin": "blt", "status": null, "address": null, "name": null, "id": "39252"}, "mid": "888002154110542", "shopId": "39252", "netid": null, "province": 901, "district": 601, "zipcode": null, "telephone": null, "posDate": null, "destineTel": null, "togoTel": null, "trafficWay": null, "signBuilding": null, "businessArea": null, "selfRoom": null, "businessTime": null, "stall": null, "consume": null, "serviceFei": null, "favourable": null, "shopMemo": null, "appraise": null, "website": null, "memo": null, "payTypes": "\u6749\u5fb7\u5361", "shopTypes": "\u8d85\u5e02", "consumeTypes": null, "cookTypes": null, "orderNum": 1000, "card4no": null, "card4noAcc": null, "district2": 404, "searchScope": null, "status": 1, "address": "\u4e07\u822a\u6e21\u8def889\u53f7", "name": "BLT \u60a6\u8fbe\u5e97", "id": 167462, "pageNo": 0, "pageCount": null, "pageSize": 10, "ids": null, "endTime": null, "startTime": null}, {"cardNumFive": null, "isSupportYj": null, "cityName": null, "districtName": null, "shopinfo": {"mid": "888888850940073", "good_flag": "2", "new_flag": "1", "short_name": "\u535a\u777f\u9970\u54c1", "short_name_pinyin": "boruishipin", "status": null, "address": null, "name": null, "id": "31300"}, "mid": "888888850940073", "shopId": "31300", "netid": null, "province": 901, "district": 601, "zipcode": null, "telephone": null, "posDate": "20100611", "destineTel": null, "togoTel": null, "trafficWay": null, "signBuilding": null, "businessArea": null, "selfRoom": null, "businessTime": null, "stall": null, "consume": null, "serviceFei": null, "favourable": null, "shopMemo": null, "appraise": null, "website": null, "memo": null, "payTypes": "\u6749\u5fb7\u5361", "shopTypes": "\u9970\u54c1", "consumeTypes": null, "cookTypes": null, "orderNum": 1000, "card4no": null, "card4noAcc": null, "district2": 418, "searchScope": null, "status": 1, "address": "\u660c\u91cc\u8def165\u53f7", "name": "\u535a\u777f\u9970\u54c1 \u660c\u91cc\u8def\u5e97", "id": 132904, "pageNo": 0, "pageCount": null, "pageSize": 10, "ids": null, "endTime": null, "startTime": null}, {"cardNumFive": null, "isSupportYj": null, "cityName": null, "districtName": null, "shopinfo": {"mid": "888002156410025", "good_flag": null, "new_flag": null, "short_name": "\u535a\u58eb\u86d9", "short_name_pinyin": "boshiwa", "status": null, "address": null, "name": null, "id": "38733"}, "mid": "888002156410025", "shopId": "38733", "netid": null, "province": 901, "district": 601, "zipcode": null, "telephone": "33623327", "posDate": null, "destineTel": null, "togoTel": null, "trafficWay": null, "signBuilding": null, "businessArea": null, "selfRoom": null, "businessTime": null, "stall": null, "consume": null, "serviceFei": null, "favourable": null, "shopMemo": null, "appraise": null, "website": null, "memo": null, "payTypes": "\u6749\u5fb7\u5361", "shopTypes": "\u4e13\u5356", "consumeTypes": null, "cookTypes": null, "orderNum": 1000, "card4no": null, "card4noAcc": null, "district2": 407, "searchScope": null, "status": 1, "address": "\u56fd\u5bbe\u8def58\u53f72\u697c", "name": "\u535a\u58eb\u86d9 \u4e07\u8fbe\u5e97", "id": 164210, "pageNo": 0, "pageCount": null, "pageSize": 10, "ids": null, "endTime": null, "startTime": null}], "pageLimit": 780, "size": 10}