{"pageCount": 1095, "count": 10942, "pageNo": 71, "subShopInfo": {"cardNumFive": "", "isSupportYj": "", "cityName": null, "districtName": null, "shopinfo": {"mid": null, "good_flag": null, "new_flag": null, "short_name": null, "short_name_pinyin": null, "status": null, "address": "", "name": "", "id": null}, "mid": null, "shopId": null, "netid": null, "province": 901, "district": null, "zipcode": null, "telephone": null, "posDate": null, "destineTel": null, "togoTel": null, "trafficWay": null, "signBuilding": null, "businessArea": null, "selfRoom": null, "businessTime": null, "stall": null, "consume": null, "serviceFei": null, "favourable": null, "shopMemo": "1", "appraise": null, "website": null, "memo": null, "payTypes": "", "shopTypes": "", "consumeTypes": null, "cookTypes": null, "orderNum": null, "card4no": null, "card4noAcc": null, "district2": null, "searchScope": null, "status": null, "address": "", "name": null, "id": null, "pageNo": 70, "pageCount": null, "pageSize": 10, "ids": null, "endTime": null, "startTime": null}, "list": [{"cardNumFive": null, "isSupportYj": null, "cityName": null, "districtName": null, "shopinfo": {"mid": "888888880430027", "good_flag": null, "new_flag": null, "short_name": "\u5b9d\u5c9b\u773c\u955c", "short_name_pinyin": "baodaoyanjing", "status": null, "address": null, "name": null, "id": "36207"}, "mid": "888888880430027", "shopId": "36207", "netid": null, "province": 901, "district": 601, "zipcode": null, "telephone": "20233065", "posDate": "20100813", "destineTel": null, "togoTel": null, "trafficWay": null, "signBuilding": null, "businessArea": null, "selfRoom": null, "businessTime": null, "stall": null, "consume": null, "serviceFei": null, "favourable": null, "shopMemo": null, "appraise": null, "website": null, "memo": null, "payTypes": "\u6749\u5fb7\u5361", "shopTypes": "\u4e13\u5356", "consumeTypes": null, "cookTypes": null, "orderNum": 1000, "card4no": null, "card4noAcc": null, "district2": 418, "searchScope": null, "status": 1, "address": "\u6d66\u4e1c\u65b0\u533a\u5f20\u6768\u8def3611\u5f04\u91d1\u6865\u56fd\u9645\u5546\u573a1\u697c", "name": "\u5b9d\u5c9b\u773c\u955c \u91d1\u6865\u5e97", "id": 150808, "pageNo": 0, "pageCount": null, "pageSize": 10, "ids": null, "endTime": null, "startTime": null}, {"cardNumFive": null, "isSupportYj": null, "cityName": null, "districtName": null, "shopinfo": {"mid": "888888880430031", "good_flag": null, "new_flag": null, "short_name": "\u5b9d\u5c9b\u773c\u955c", "short_name_pinyin": "baodaoyanjing", "status": null, "address": null, "name": null, "id": "36229"}, "mid": "888888880430031", "shopId": "36229", "netid": null, "province": 901, "district": 601, "zipcode": null, "telephone": "54483142", "posDate": "20100817", "destineTel": null, "togoTel": null, "trafficWay": null, "signBuilding": null, "businessArea": null, "selfRoom": null, "businessTime": null, "stall": null, "consume": null, "serviceFei": null, "favourable": null, "shopMemo": null, "appraise": null, "website": null, "memo": null, "payTypes": "\u6749\u5fb7\u5361", "shopTypes": "\u4e13\u5356", "consumeTypes": null, "cookTypes": null, "orderNum": 1000, "card4no": null, "card4noAcc": null, "district2": 403, "searchScope": null, "status": 1, "address": "\u5f90\u6c47\u533a\u7530\u6797\u8def13\u53f7", "name": "\u5b9d\u5c9b\u773c\u955c \u7530\u6797\u5e97", "id": 150967, "pageNo": 0, "pageCount": null, "pageSize": 10, "ids": null, "endTime": null, "startTime": null}, {"cardNumFive": null, "isSupportYj": null, "cityName": null, "districtName": null, "shopinfo": {"mid": "888888880430029", "good_flag": null, "new_flag": null, "short_name": "\u5b9d\u5c9b\u773c\u955c", "short_name_pinyin": "baodaoyanjing", "status": null, "address": null, "name": null, "id": "36319"}, "mid": "888888880430029", "shopId": "36319", "netid": null, "province": 901, "district": 601, "zipcode": null, "telephone": "51507749", "posDate": "20100818", "destineTel": null, "togoTel": null, "trafficWay": null, "signBuilding": null, "businessArea": null, "selfRoom": null, "businessTime": null, "stall": null, "consume": null, "serviceFei": null, "favourable": null, "shopMemo": null, "appraise": null, "website": null, "memo": null, "payTypes": "\u6749\u5fb7\u5361", "shopTypes": "\u4e13\u5356", "consumeTypes": null, "cookTypes": null, "orderNum": 1000, "card4no": null, "card4noAcc": null, "district2": 406, "searchScope": null, "status": 1, "address": "\u957f\u5b81\u533a\u5929\u5c71\u897f\u8def541\u53f7\u4e00\u5c42\u6b63\u5927\u751f\u6d3b\u9986\u5185C-4\u53f7", "name": "\u5b9d\u5c9b\u773c\u955c \u5929\u5c71\u6b63\u5927\u5e97", "id": 151218, "pageNo": 0, "pageCount": null, "pageSize": 10, "ids": null, "endTime": null, "startTime": null}, {"cardNumFive": null, "isSupportYj": null, "cityName": null, "districtName": null, "shopinfo": {"mid": "888888880430027", "good_flag": null, "new_flag": null, "short_name": "\u5b9d\u5c9b\u773c\u955c", "short_name_pinyin": "baodaoyanjing", "status": null, "address": null, "name": null, "id": "36485"}, "mid": "888888880430027", "shopId": "36485", "netid": null, "province": 901, "district": 601, "zipcode": null, "telephone": "32519865", "posDate": "20100908", "destineTel": null, "togoTel": null, "trafficWay": null, "signBuilding": null, "businessArea": null, "selfRoom": null, "businessTime": null, "stall": null, "consume": null, "serviceFei": null, "favourable": null, "shopMemo": null, "appraise": null, "website": null, "memo": null, "payTypes": "\u6749\u5fb7\u5361", "shopTypes": "\u4e13\u5356", "consumeTypes": null, "cookTypes": null, "orderNum": 1000, "card4no": null, "card4noAcc": null, "district2": 406, "searchScope": null, "status": 1, "address": "\u6c34\u57ce\u5357\u8def\u53e4\u5317\u5bb6\u4e50\u798f1\u697c20-21", "name": "\u5b9d\u5c9b\u773c\u955c \u53e4\u5317\u5bb6\u4e50\u798f\u5e97", "id": 151751, "pageNo": 0, "pageCount": null, "pageSize": 10, "ids": null, "endTime": null, "startTime": null}, {"cardNumFive": null, "isSupportYj": null, "cityName": null, "districtName": null, "shopinfo": {"mid": "888002180430099", "good_flag": null, "new_flag": null, "short_name": "\u5b9d\u5c9b\u773c\u955c", "short_name_pinyin": "baodaoyanjing", "status": null, "address": null, "name": null, "id": "39656"}, "mid": "888002180430099", "shopId": "39656", "netid": null, "province": 901, "district": 601, "zipcode": null, "telephone": null, "posDate": null, "destineTel": null, "togoTel": null, "trafficWay": null, "signBuilding": null, "businessArea": null, "selfRoom": null, "businessTime": null, "stall": null, "consume": null, "serviceFei": null, "favourable": null, "shopMemo": null, "appraise": null, "website": null, "memo": null, "payTypes": "\u6749\u5fb7\u5361", "shopTypes": "\u96f6\u552e", "consumeTypes": null, "cookTypes": null, "orderNum": 1000, "card4no": null, "card4noAcc": null, "district2": 405, "searchScope": null, "status": 1, "address": "\u6843\u6d66\u8def328\u53f71\u697c", "name": "\u5b9d\u5c9b\u773c\u955c \u771f\u5317\u5e97", "id": 170061, "pageNo": 0, "pageCount": null, "pageSize": 10, "ids": null, "endTime": null, "startTime": null}, {"cardNumFive": null, "isSupportYj": null, "cityName": null, "districtName": null, "shopinfo": {"mid": "888002180430099", "good_flag": null, "new_flag": null, "short_name": "\u5b9d\u5c9b\u773c\u955c", "short_name_pinyin": "baodaoyanjing", "status": null, "address": null, "name": null, "id": "39656"}, "mid": "888002180430099", "shopId": "39656", "netid": null, "province": 901, "district": 601, "zipcode": null, "telephone": null, "posDate": null, "destineTel": null, "togoTel": null, "trafficWay": null, "signBuilding": null, "businessArea": null, "selfRoom": null, "businessTime": null, "stall": null, "consume": null, "serviceFei": null, "favourable": null, "shopMemo": null, "appraise": null, "website": null, "memo": null, "payTypes": "\u6749\u5fb7\u5361", "shopTypes": "\u96f6\u552e", "consumeTypes": null, "cookTypes": null, "orderNum": 1000, "card4no": null, "card4noAcc": null, "district2": 409, "searchScope": null, "status": 1, "address": "\u6c34\u6e05\u8def1390\u53f7", "name": "\u5b9d\u5c9b\u773c\u955c \u6e2f\u6fb3\u5927\u6da6\u53d1\u5e97", "id": 170062, "pageNo": 0, "pageCount": null, "pageSize": 10, "ids": null, "endTime": null, "startTime": null}, {"cardNumFive": null, "isSupportYj": null, "cityName": null, "districtName": null, "shopinfo": {"mid": "888002180430099", "good_flag": null, "new_flag": null, "short_name": "\u5b9d\u5c9b\u773c\u955c", "short_name_pinyin": "baodaoyanjing", "status": null, "address": null, "name": null, "id": "39656"}, "mid": "888002180430099", "shopId": "39656", "netid": null, "province": 901, "district": 601, "zipcode": null, "telephone": null, "posDate": null, "destineTel": null, "togoTel": null, "trafficWay": null, "signBuilding": null, "businessArea": null, "selfRoom": null, "businessTime": null, "stall": null, "consume": null, "serviceFei": null, "favourable": null, "shopMemo": null, "appraise": null, "website": null, "memo": null, "payTypes": "\u6749\u5fb7\u5361", "shopTypes": "\u96f6\u552e", "consumeTypes": null, "cookTypes": null, "orderNum": 1000, "card4no": null, "card4noAcc": null, "district2": 412, "searchScope": null, "status": 1, "address": "\u6cd7\u6cfe\u9547\u6a2a\u6e2f\u8def18\u5f0468\u53f71\u697c", "name": "\u5b9d\u5c9b\u773c\u955c \u6cd7\u6cfe\u5e97", "id": 170063, "pageNo": 0, "pageCount": null, "pageSize": 10, "ids": null, "endTime": null, "startTime": null}, {"cardNumFive": null, "isSupportYj": null, "cityName": null, "districtName": null, "shopinfo": {"mid": "888888853110046", "good_flag": "2", "new_flag": "2", "short_name": "\u5b9d\u5927\u7965", "short_name_pinyin": "baodaxiang", "status": null, "address": null, "name": null, "id": "31246"}, "mid": "888888853110046", "shopId": "31246", "netid": null, "province": 901, "district": 601, "zipcode": null, "telephone": "021-63225122", "posDate": "20071116", "destineTel": null, "togoTel": null, "trafficWay": "\u65c5\u6e3810\u53f7\u7ebf \u5730\u94c1\u4e00\u53f7\u7ebf \u516c\u4ea415", "signBuilding": null, "businessArea": "6450\u5e73\u65b9\u7c73", "selfRoom": null, "businessTime": "9:30~22:00", "stall": "\u6709", "consume": null, "serviceFei": null, "favourable": null, "shopMemo": null, "appraise": null, "website": null, "memo": null, "payTypes": "\u6749\u5fb7\u5361", "shopTypes": "\u767e\u8d27", "consumeTypes": null, "cookTypes": null, "orderNum": 1000, "card4no": null, "card4noAcc": null, "district2": 401, "searchScope": null, "status": 1, "address": "\u5357\u4eac\u4e1c\u8def685\u53f7", "name": "\u5b9d\u5927\u7965 \u5357\u4eac\u4e1c\u8def\u5e97", "id": 132762, "pageNo": 0, "pageCount": null, "pageSize": 10, "ids": null, "endTime": null, "startTime": null}, {"cardNumFive": null, "isSupportYj": null, "cityName": null, "districtName": null, "shopinfo": {"mid": "888002153110278", "good_flag": null, "new_flag": null, "short_name": "\u5b9d\u5927\u7965", "short_name_pinyin": "baodaxiang", "status": null, "address": null, "name": null, "id": "42354"}, "mid": "888002153110278", "shopId": "42354", "netid": null, "province": 901, "district": 601, "zipcode": null, "telephone": null, "posDate": null, "destineTel": null, "togoTel": null, "trafficWay": null, "signBuilding": null, "businessArea": null, "selfRoom": null, "businessTime": null, "stall": null, "consume": null, "serviceFei": null, "favourable": null, "shopMemo": null, "appraise": null, "website": null, "memo": null, "payTypes": "\u6749\u5fb7\u5361", "shopTypes": "\u4fbf\u5229\u5e97", "consumeTypes": null, "cookTypes": null, "orderNum": 1000, "card4no": null, "card4noAcc": null, "district2": 408, "searchScope": null, "status": 1, "address": "\u56db\u5ddd\u8def1661\u53f7", "name": "\u5b9d\u5927\u7965 \u56db\u5ddd\u5317\u8def\u5e97", "id": 188916, "pageNo": 0, "pageCount": null, "pageSize": 10, "ids": null, "endTime": null, "startTime": null}, {"cardNumFive": null, "isSupportYj": null, "cityName": null, "districtName": null, "shopinfo": {"mid": "888002153110278", "good_flag": null, "new_flag": null, "short_name": "\u5b9d\u5927\u7965", "short_name_pinyin": "baodaxiang", "status": null, "address": null, "name": null, "id": "42354"}, "mid": "888002153110278", "shopId": "42354", "netid": null, "province": 901, "district": 601, "zipcode": null, "telephone": null, "posDate": null, "destineTel": null, "togoTel": null, "trafficWay": null, "signBuilding": null, "businessArea": null, "selfRoom": null, "businessTime": null, "stall": null, "consume": null, "serviceFei": null, "favourable": null, "shopMemo": null, "appraise": null, "website": null, "memo": null, "payTypes": "\u6749\u5fb7\u5361", "shopTypes": "\u4fbf\u5229\u5e97", "consumeTypes": null, "cookTypes": null, "orderNum": 1000, "card4no": null, "card4noAcc": null, "district2": 418, "searchScope": null, "status": 1, "address": "\u4e1c\u65b9\u8def796\u53f796\u5e7f\u573aB1", "name": "\u5b9d\u5927\u7965 \u5a74\u7ae5\u5e97", "id": 188918, "pageNo": 0, "pageCount": null, "pageSize": 10, "ids": null, "endTime": null, "startTime": null}], "pageLimit": 700, "size": 10}