{"pageCount": 1095, "count": 10942, "pageNo": 87, "subShopInfo": {"cardNumFive": "", "isSupportYj": "", "cityName": null, "districtName": null, "shopinfo": {"mid": null, "good_flag": null, "new_flag": null, "short_name": null, "short_name_pinyin": null, "status": null, "address": "", "name": "", "id": null}, "mid": null, "shopId": null, "netid": null, "province": 901, "district": null, "zipcode": null, "telephone": null, "posDate": null, "destineTel": null, "togoTel": null, "trafficWay": null, "signBuilding": null, "businessArea": null, "selfRoom": null, "businessTime": null, "stall": null, "consume": null, "serviceFei": null, "favourable": null, "shopMemo": "1", "appraise": null, "website": null, "memo": null, "payTypes": "", "shopTypes": "", "consumeTypes": null, "cookTypes": null, "orderNum": null, "card4no": null, "card4noAcc": null, "district2": null, "searchScope": null, "status": null, "address": "", "name": null, "id": null, "pageNo": 86, "pageCount": null, "pageSize": 10, "ids": null, "endTime": null, "startTime": null}, "list": [{"cardNumFive": null, "isSupportYj": null, "cityName": null, "districtName": null, "shopinfo": {"mid": "888888854110092", "good_flag": "2", "new_flag": "2", "short_name": "\u57ce\u5e02\u8d85\u5e02", "short_name_pinyin": "chengshichaoshi", "status": null, "address": null, "name": null, "id": "31341"}, "mid": "888888854110092", "shopId": "31341", "netid": null, "province": 901, "district": 601, "zipcode": null, "telephone": "64461110", "posDate": "20080730", "destineTel": null, "togoTel": null, "trafficWay": "\u516c\u4ea4548 721 809", "signBuilding": null, "businessArea": null, "selfRoom": null, "businessTime": null, "stall": null, "consume": null, "serviceFei": null, "favourable": null, "shopMemo": null, "appraise": null, "website": null, "memo": null, "payTypes": "\u6749\u5fb7\u5361", "shopTypes": "\u8d85\u5e02", "consumeTypes": null, "cookTypes": null, "orderNum": 1000, "card4no": null, "card4noAcc": null, "district2": 409, "searchScope": null, "status": 1, "address": "\u8679\u6885\u8def3211\u53f7\u6cf0\u8c6a\u5927\u53a6", "name": "\u57ce\u5e02\u8d85\u5e02 \u8679\u6885\u5e97", "id": 132975, "pageNo": 0, "pageCount": null, "pageSize": 10, "ids": null, "endTime": null, "startTime": null}, {"cardNumFive": null, "isSupportYj": null, "cityName": null, "districtName": null, "shopinfo": {"mid": "888888854110093", "good_flag": "2", "new_flag": "2", "short_name": "\u57ce\u5e02\u8d85\u5e02", "short_name_pinyin": "chengshichaoshi", "status": null, "address": null, "name": null, "id": "31342"}, "mid": "888888854110093", "shopId": "31342", "netid": null, "province": 901, "district": 601, "zipcode": null, "telephone": "50478028", "posDate": "20080626", "destineTel": null, "togoTel": null, "trafficWay": "\u516c\u4ea4985 945 \u5730\u94c1\u4e8c\u53f7\u7ebf", "signBuilding": null, "businessArea": "2000\u5e73\u65b9\u7c73", "selfRoom": null, "businessTime": "8:00~22:00", "stall": "\u6709", "consume": null, "serviceFei": null, "favourable": null, "shopMemo": null, "appraise": null, "website": null, "memo": null, "payTypes": "\u6749\u5fb7\u5361", "shopTypes": "\u8d85\u5e02", "consumeTypes": null, "cookTypes": null, "orderNum": 1000, "card4no": null, "card4noAcc": null, "district2": 418, "searchScope": null, "status": 1, "address": "\u82b1\u56ed\u77f3\u6865\u8def33\u53f7\u82b1\u65d7\u5927\u53a6\u897f\u4fa7\u5e95\u5c42", "name": "\u57ce\u5e02\u8d85\u5e02 \u82b1\u56ed\u5e97", "id": 132976, "pageNo": 0, "pageCount": null, "pageSize": 10, "ids": null, "endTime": null, "startTime": null}, {"cardNumFive": null, "isSupportYj": null, "cityName": null, "districtName": null, "shopinfo": {"mid": "888888854110094", "good_flag": "2", "new_flag": "2", "short_name": "\u57ce\u5e02\u8d85\u5e02", "short_name_pinyin": "chengshichaoshi", "status": null, "address": null, "name": null, "id": "31343"}, "mid": "888888854110094", "shopId": "31343", "netid": null, "province": 901, "district": 601, "zipcode": null, "telephone": "52261250", "posDate": "20080626", "destineTel": null, "togoTel": null, "trafficWay": "\u516c\u4ea474 \u5317\u9752\u7ebf", "signBuilding": null, "businessArea": "2000\u5e73\u65b9\u7c73", "selfRoom": null, "businessTime": "8:00~22:00", "stall": "\u6709", "consume": null, "serviceFei": null, "favourable": null, "shopMemo": null, "appraise": null, "website": null, "memo": null, "payTypes": "\u6749\u5fb7\u5361", "shopTypes": "\u8d85\u5e02", "consumeTypes": null, "cookTypes": null, "orderNum": 1000, "card4no": null, "card4noAcc": null, "district2": 409, "searchScope": null, "status": 1, "address": "\u7eaa\u7fdf\u8def550\u53f7\u534e\u6f15\u9547\u793e\u533a\u6d3b\u52a8\u4e2d\u5fc3\u4e07\u79d1\u7ea2\u90e1\u897f\u7ffc", "name": "\u57ce\u5e02\u8d85\u5e02 \u7eaa\u7fdf\u8def\u5e97", "id": 132977, "pageNo": 0, "pageCount": null, "pageSize": 10, "ids": null, "endTime": null, "startTime": null}, {"cardNumFive": null, "isSupportYj": null, "cityName": null, "districtName": null, "shopinfo": {"mid": "888888854110095", "good_flag": "2", "new_flag": "2", "short_name": "\u57ce\u5e02\u8d85\u5e02", "short_name_pinyin": "chengshichaoshi", "status": null, "address": null, "name": null, "id": "31344"}, "mid": "888888854110095", "shopId": "31344", "netid": null, "province": 901, "district": 601, "zipcode": null, "telephone": "62798018", "posDate": "20080626", "destineTel": null, "togoTel": null, "trafficWay": "\u516c\u4ea449 37 20", "signBuilding": null, "businessArea": "2000\u5e73\u65b9\u7c73", "selfRoom": null, "businessTime": "8:00~22:00", "stall": "\u6709", "consume": null, "serviceFei": null, "favourable": null, "shopMemo": null, "appraise": null, "website": null, "memo": null, "payTypes": "\u6749\u5fb7\u5361", "shopTypes": "\u8d85\u5e02", "consumeTypes": null, "cookTypes": null, "orderNum": 1000, "card4no": null, "card4noAcc": null, "district2": 404, "searchScope": null, "status": 1, "address": "\u5357\u4eac\u897f\u8def1376\u53f7\u4e0a\u6d77\u5546\u57ce\u897f\u5cf0\u5e95\u5c42", "name": "\u57ce\u5e02\u8d85\u5e02 \u5546\u57ce\u5e97", "id": 132978, "pageNo": 0, "pageCount": null, "pageSize": 10, "ids": null, "endTime": null, "startTime": null}, {"cardNumFive": null, "isSupportYj": null, "cityName": null, "districtName": null, "shopinfo": {"mid": "888888854110097", "good_flag": "2", "new_flag": "2", "short_name": "\u57ce\u5e02\u8d85\u5e02", "short_name_pinyin": "chengshichaoshi", "status": null, "address": null, "name": null, "id": "31346"}, "mid": "888888854110097", "shopId": "31346", "netid": null, "province": 901, "district": 601, "zipcode": null, "telephone": "33686077", "posDate": "20080626", "destineTel": null, "togoTel": null, "trafficWay": "\u516c\u4ea4167 927 \u5730\u94c1\u4e00\u53f7\u7ebf", "signBuilding": null, "businessArea": "2000\u5e73\u65b9\u7c73", "selfRoom": null, "businessTime": "8:00~22:00", "stall": "\u6709", "consume": null, "serviceFei": null, "favourable": null, "shopMemo": null, "appraise": null, "website": null, "memo": null, "payTypes": "\u6749\u5fb7\u5361", "shopTypes": "\u8d85\u5e02", "consumeTypes": null, "cookTypes": null, "orderNum": 1000, "card4no": null, "card4noAcc": null, "district2": 403, "searchScope": null, "status": 1, "address": "\u5929\u94a5\u6865\u8def131\u53f7\u6c38\u65b0\u574a\u5730\u4e0b08a\u5ba4\u65b0\u8015\u8def", "name": "\u57ce\u5e02\u8d85\u5e02 \u5929\u94a5\u6865\u8def\u5e97", "id": 132980, "pageNo": 0, "pageCount": null, "pageSize": 10, "ids": null, "endTime": null, "startTime": null}, {"cardNumFive": null, "isSupportYj": null, "cityName": null, "districtName": null, "shopinfo": {"mid": "888888854110098", "good_flag": "2", "new_flag": "2", "short_name": "\u57ce\u5e02\u8d85\u5e02", "short_name_pinyin": "chengshichaoshi", "status": null, "address": null, "name": null, "id": "31347"}, "mid": "888888854110098", "shopId": "31347", "netid": null, "province": 901, "district": 601, "zipcode": null, "telephone": "52303971", "posDate": "20080626", "destineTel": null, "togoTel": null, "trafficWay": "\u516c\u4ea4925 127", "signBuilding": null, "businessArea": "2000\u5e73\u65b9\u7c73", "selfRoom": null, "businessTime": "8:00~22:00", "stall": "\u6709", "consume": null, "serviceFei": null, "favourable": null, "shopMemo": null, "appraise": null, "website": null, "memo": null, "payTypes": "\u6749\u5fb7\u5361", "shopTypes": "\u8d85\u5e02", "consumeTypes": null, "cookTypes": null, "orderNum": 1000, "card4no": null, "card4noAcc": null, "district2": 406, "searchScope": null, "status": 1, "address": "\u65b0\u534e\u8def160\u53f7\u4e0a\u6d77\u5f71\u57ce\u5730\u4e0b\u4e00\u5c42", "name": "\u57ce\u5e02\u8d85\u5e02 \u5f71\u57ce\u5e97", "id": 132981, "pageNo": 0, "pageCount": null, "pageSize": 10, "ids": null, "endTime": null, "startTime": null}, {"cardNumFive": null, "isSupportYj": null, "cityName": null, "districtName": null, "shopinfo": {"mid": "888002154110562", "good_flag": null, "new_flag": null, "short_name": "\u57ce\u5e02\u8d85\u5e02", "short_name_pinyin": "chengshichaoshi", "status": null, "address": null, "name": null, "id": "38958"}, "mid": "888002154110562", "shopId": "38958", "netid": null, "province": 901, "district": 601, "zipcode": null, "telephone": null, "posDate": null, "destineTel": null, "togoTel": null, "trafficWay": null, "signBuilding": null, "businessArea": null, "selfRoom": null, "businessTime": null, "stall": null, "consume": null, "serviceFei": null, "favourable": null, "shopMemo": null, "appraise": null, "website": null, "memo": null, "payTypes": "\u6749\u5fb7\u5361", "shopTypes": "\u8d85\u5e02", "consumeTypes": null, "cookTypes": null, "orderNum": 1000, "card4no": null, "card4noAcc": null, "district2": 401, "searchScope": null, "status": 1, "address": "\u5f90\u5bb6\u6c47\u8def618\u53f7B1\u5c42", "name": "\u57ce\u5e02\u8d85\u5e02 \u65e5\u6708\u5149\u5e97", "id": 164897, "pageNo": 0, "pageCount": null, "pageSize": 10, "ids": null, "endTime": null, "startTime": null}, {"cardNumFive": null, "isSupportYj": null, "cityName": null, "districtName": null, "shopinfo": {"mid": "888002153310189", "good_flag": null, "new_flag": null, "short_name": "\u57ce\u5e02\u8d85\u5e02", "short_name_pinyin": "chengshichaoshi", "status": null, "address": null, "name": null, "id": "41466"}, "mid": "888002153310189", "shopId": "41466", "netid": null, "province": 901, "district": 601, "zipcode": null, "telephone": null, "posDate": null, "destineTel": null, "togoTel": null, "trafficWay": null, "signBuilding": null, "businessArea": null, "selfRoom": null, "businessTime": null, "stall": null, "consume": null, "serviceFei": null, "favourable": null, "shopMemo": null, "appraise": null, "website": null, "memo": null, "payTypes": "\u6749\u5fb7\u5361", "shopTypes": "\u8d85\u5e02", "consumeTypes": null, "cookTypes": null, "orderNum": 1000, "card4no": null, "card4noAcc": null, "district2": 411, "searchScope": null, "status": 1, "address": "\u5357\u7fd4\u9547\u771f\u5357\u8def4368\u5f043\u53f7101-105\u5546\u94fa", "name": "\u57ce\u5e02\u8d85\u5e02 \u5357\u7fd4\u5e97", "id": 182689, "pageNo": 0, "pageCount": null, "pageSize": 10, "ids": null, "endTime": null, "startTime": null}, {"cardNumFive": null, "isSupportYj": null, "cityName": null, "districtName": null, "shopinfo": {"mid": "888002154111119", "good_flag": "2", "new_flag": "2", "short_name": "\u57ce\u5e02\u8d85\u5e02", "short_name_pinyin": "chengshichaoshi", "status": null, "address": null, "name": null, "id": "435789039212167168"}, "mid": "888002154111119", "shopId": "435789039212167168", "netid": null, "province": 901, "district": 601, "zipcode": null, "telephone": null, "posDate": null, "destineTel": null, "togoTel": null, "trafficWay": null, "signBuilding": null, "businessArea": null, "selfRoom": null, "businessTime": null, "stall": null, "consume": null, "serviceFei": null, "favourable": null, "shopMemo": null, "appraise": null, "website": null, "memo": null, "payTypes": "\u6749\u5fb7\u5361,", "shopTypes": "\u8d85\u5e02", "consumeTypes": null, "cookTypes": null, "orderNum": null, "card4no": null, "card4noAcc": null, "district2": 409, "searchScope": null, "status": 1, "address": "\u8679\u6885\u8def3211\u53f7", "name": "\u6ee8\u6c5f\u5e97", "id": 435789038272643072, "pageNo": 0, "pageCount": null, "pageSize": 10, "ids": null, "endTime": null, "startTime": null}, {"cardNumFive": null, "isSupportYj": null, "cityName": null, "districtName": null, "shopinfo": {"mid": "888002153311095", "good_flag": "2", "new_flag": "2", "short_name": "\u57ce\u5e02\u8d85\u5e02", "short_name_pinyin": "chengshichaoshi", "status": null, "address": null, "name": null, "id": "476799498799022080"}, "mid": "888002153311095", "shopId": "476799498799022080", "netid": null, "province": 901, "district": 601, "zipcode": null, "telephone": null, "posDate": null, "destineTel": null, "togoTel": null, "trafficWay": null, "signBuilding": null, "businessArea": null, "selfRoom": null, "businessTime": null, "stall": null, "consume": null, "serviceFei": null, "favourable": null, "shopMemo": null, "appraise": null, "website": null, "memo": null, "payTypes": "", "shopTypes": null, "consumeTypes": null, "cookTypes": null, "orderNum": null, "card4no": null, "card4noAcc": null, "district2": 403, "searchScope": null, "status": 1, "address": "\u6f15\u5b9d\u8def33\u53f7B2\u5c42", "name": "\u57ce\u5e02\u8d85\u5e02\u5f90\u6c47\u65e5\u6708\u5149\u5e97", "id": 476799497255518208, "pageNo": 0, "pageCount": null, "pageSize": 10, "ids": null, "endTime": null, "startTime": null}], "pageLimit": 860, "size": 10}