{"pageCount": 1095, "count": 10942, "pageNo": 86, "subShopInfo": {"cardNumFive": "", "isSupportYj": "", "cityName": null, "districtName": null, "shopinfo": {"mid": null, "good_flag": null, "new_flag": null, "short_name": null, "short_name_pinyin": null, "status": null, "address": "", "name": "", "id": null}, "mid": null, "shopId": null, "netid": null, "province": 901, "district": null, "zipcode": null, "telephone": null, "posDate": null, "destineTel": null, "togoTel": null, "trafficWay": null, "signBuilding": null, "businessArea": null, "selfRoom": null, "businessTime": null, "stall": null, "consume": null, "serviceFei": null, "favourable": null, "shopMemo": "1", "appraise": null, "website": null, "memo": null, "payTypes": "", "shopTypes": "", "consumeTypes": null, "cookTypes": null, "orderNum": null, "card4no": null, "card4noAcc": null, "district2": null, "searchScope": null, "status": null, "address": "", "name": null, "id": null, "pageNo": 85, "pageCount": null, "pageSize": 10, "ids": null, "endTime": null, "startTime": null}, "list": [{"cardNumFive": null, "isSupportYj": null, "cityName": null, "districtName": null, "shopinfo": {"mid": "888888858120647", "good_flag": "2", "new_flag": "2", "short_name": "\u6ca7\u6d6a\u4ead", "short_name_pinyin": "canglangting", "status": null, "address": null, "name": null, "id": "31309"}, "mid": "888888858120647", "shopId": "31309", "netid": null, "province": 901, "district": 601, "zipcode": null, "telephone": "54182051", "posDate": null, "destineTel": null, "togoTel": null, "trafficWay": null, "signBuilding": null, "businessArea": null, "selfRoom": null, "businessTime": null, "stall": null, "consume": null, "serviceFei": null, "favourable": null, "shopMemo": null, "appraise": null, "website": null, "memo": null, "payTypes": "\u6749\u5fb7\u5361", "shopTypes": "\u9910\u996e", "consumeTypes": null, "cookTypes": null, "orderNum": 1000, "card4no": null, "card4noAcc": null, "district2": 403, "searchScope": null, "status": 1, "address": "\u6c5f\u5b89\u8def223\u53f7", "name": "\u6ca7\u6d6a\u4ead \u6c5f\u5b89\u8def\u5e97", "id": 132939, "pageNo": 0, "pageCount": null, "pageSize": 10, "ids": null, "endTime": null, "startTime": null}, {"cardNumFive": null, "isSupportYj": null, "cityName": null, "districtName": null, "shopinfo": {"mid": "888002156910467", "good_flag": null, "new_flag": null, "short_name": "CERRUTI", "short_name_pinyin": "cerruti", "status": null, "address": null, "name": null, "id": "41407"}, "mid": "888002156910467", "shopId": "41407", "netid": null, "province": 901, "district": 601, "zipcode": null, "telephone": null, "posDate": null, "destineTel": null, "togoTel": null, "trafficWay": null, "signBuilding": null, "businessArea": null, "selfRoom": null, "businessTime": null, "stall": null, "consume": null, "serviceFei": null, "favourable": null, "shopMemo": "1", "appraise": null, "website": null, "memo": null, "payTypes": "\u6749\u5fb7\u5361", "shopTypes": "\u4e13\u5356", "consumeTypes": null, "cookTypes": null, "orderNum": 1000, "card4no": null, "card4noAcc": null, "district2": 406, "searchScope": null, "status": 1, "address": "\u7533\u8fbe\u4e00\u8def1\u53f7\u4e0a\u6d77\u8679\u6865\u673a\u573a2\u53f7\u697c\u822a\u7ad9\u697c\u51fa\u53d1\u7981\u533a\u4e00\u7ebf\u54c1\u724c\u5927\u9053A\u6a21\u5757", "name": "CERRUTI \u8679\u6865\u673a\u573a\u5e97", "id": 182375, "pageNo": 0, "pageCount": null, "pageSize": 10, "ids": null, "endTime": null, "startTime": null}, {"cardNumFive": null, "isSupportYj": null, "cityName": null, "districtName": null, "shopinfo": {"mid": "888002156910467", "good_flag": null, "new_flag": null, "short_name": "CERRUTI", "short_name_pinyin": "cerruti", "status": null, "address": null, "name": null, "id": "41407"}, "mid": "888002156910467", "shopId": "41407", "netid": null, "province": 901, "district": 601, "zipcode": null, "telephone": null, "posDate": null, "destineTel": null, "togoTel": null, "trafficWay": null, "signBuilding": null, "businessArea": null, "selfRoom": null, "businessTime": null, "stall": null, "consume": null, "serviceFei": null, "favourable": null, "shopMemo": "1", "appraise": null, "website": null, "memo": null, "payTypes": "\u6749\u5fb7\u5361", "shopTypes": "\u4e13\u5356", "consumeTypes": null, "cookTypes": null, "orderNum": 1000, "card4no": null, "card4noAcc": null, "district2": 404, "searchScope": null, "status": 1, "address": "\u5357\u4eac\u897f\u8def1038\u53f71\u697c113\u94fa", "name": "CERRUTI \u6885\u9647\u9547\u5e97", "id": 182376, "pageNo": 0, "pageCount": null, "pageSize": 10, "ids": null, "endTime": null, "startTime": null}, {"cardNumFive": null, "isSupportYj": null, "cityName": null, "districtName": null, "shopinfo": {"mid": "888002156910467", "good_flag": null, "new_flag": null, "short_name": "CERRUTI", "short_name_pinyin": "cerruti", "status": null, "address": null, "name": null, "id": "41407"}, "mid": "888002156910467", "shopId": "41407", "netid": null, "province": 901, "district": 601, "zipcode": null, "telephone": null, "posDate": null, "destineTel": null, "togoTel": null, "trafficWay": null, "signBuilding": null, "businessArea": null, "selfRoom": null, "businessTime": null, "stall": null, "consume": null, "serviceFei": null, "favourable": null, "shopMemo": "1", "appraise": null, "website": null, "memo": null, "payTypes": "\u6749\u5fb7\u5361", "shopTypes": "\u4e13\u5356", "consumeTypes": null, "cookTypes": null, "orderNum": 1000, "card4no": null, "card4noAcc": null, "district2": 401, "searchScope": null, "status": 1, "address": "\u6dee\u6d77\u4e2d\u8def283\u53f7", "name": "CERRUTI \u9999\u6e2f\u5e7f\u573a\u5e97", "id": 182377, "pageNo": 0, "pageCount": null, "pageSize": 10, "ids": null, "endTime": null, "startTime": null}, {"cardNumFive": null, "isSupportYj": null, "cityName": null, "districtName": null, "shopinfo": {"mid": "888888879980001", "good_flag": "1", "new_flag": "2", "short_name": "\u957f\u98ce\u6d77\u6d0b\u4e16\u754c", "short_name_pinyin": "changfenghaiyangshijie", "status": null, "address": null, "name": null, "id": "31321"}, "mid": "888888879980001", "shopId": "31321", "netid": null, "province": 901, "district": 601, "zipcode": "200063", "telephone": "62238108", "posDate": "20070227", "destineTel": "021-62236812", "togoTel": "021-62236812", "trafficWay": "\u5730\u94c13\\4\u7ebf,44\\944\u8def", "signBuilding": "\u957f\u98ce\u516c\u56ed\u4e2d", "businessArea": "20000\u5e73\u65b9\u7c73", "selfRoom": "\u65e0", "businessTime": "8:30~17:00", "stall": "\u65e0", "consume": "80-110\u5143", "serviceFei": null, "favourable": null, "shopMemo": null, "appraise": null, "website": null, "memo": null, "payTypes": "\u6749\u5fb7\u5361", "shopTypes": "\u4f11\u95f2,\u5176\u4ed6", "consumeTypes": null, "cookTypes": null, "orderNum": 1000, "card4no": null, "card4noAcc": null, "district2": 405, "searchScope": null, "status": 1, "address": "\u5927\u6e21\u6cb3\u8def189\u53f7", "name": "\u957f\u98ce\u6d77\u6d0b\u4e16\u754c \u6d77\u5e95\u4e16\u754c\u767d\u9cb8\u9986", "id": 132952, "pageNo": 0, "pageCount": null, "pageSize": 10, "ids": null, "endTime": null, "startTime": null}, {"cardNumFive": null, "isSupportYj": null, "cityName": null, "districtName": null, "shopinfo": {"mid": "888888879980001", "good_flag": "1", "new_flag": "2", "short_name": "\u957f\u98ce\u6d77\u6d0b\u4e16\u754c", "short_name_pinyin": "changfenghaiyangshijie", "status": null, "address": null, "name": null, "id": "31321"}, "mid": "888888879980001", "shopId": "31321", "netid": null, "province": 901, "district": 601, "zipcode": null, "telephone": "62236070", "posDate": "20080702", "destineTel": null, "togoTel": null, "trafficWay": "\u516c\u4ea444 837", "signBuilding": null, "businessArea": null, "selfRoom": null, "businessTime": null, "stall": null, "consume": null, "serviceFei": null, "favourable": null, "shopMemo": null, "appraise": null, "website": null, "memo": null, "payTypes": "\u6749\u5fb7\u5361", "shopTypes": "\u4f11\u95f2,\u5176\u4ed6", "consumeTypes": null, "cookTypes": null, "orderNum": 1000, "card4no": null, "card4noAcc": null, "district2": 405, "searchScope": null, "status": 1, "address": "\u5927\u6e21\u6cb3\u8def451\u53f7", "name": "\u957f\u98ce\u6d77\u6d0b\u4e16\u754c \u6c34\u65cf\u9986\u7968\u52a1\u5904", "id": 132953, "pageNo": 0, "pageCount": null, "pageSize": 10, "ids": null, "endTime": null, "startTime": null}, {"cardNumFive": null, "isSupportYj": null, "cityName": null, "districtName": null, "shopinfo": {"mid": "888888853110073", "good_flag": null, "new_flag": null, "short_name": "\u957f\u6c5f\u56fd\u9645\u5546\u4e1a\u8d2d\u7269\u4e2d\u5fc3", "short_name_pinyin": "changjiangguojishangyegouwuzhongxin", "status": null, "address": null, "name": null, "id": "36749"}, "mid": "888888853110073", "shopId": "36749", "netid": null, "province": 901, "district": 601, "zipcode": null, "telephone": null, "posDate": null, "destineTel": null, "togoTel": null, "trafficWay": null, "signBuilding": null, "businessArea": null, "selfRoom": null, "businessTime": null, "stall": null, "consume": null, "serviceFei": null, "favourable": null, "shopMemo": null, "appraise": null, "website": null, "memo": null, "payTypes": "\u6749\u5fb7\u5361", "shopTypes": "\u767e\u8d27", "consumeTypes": null, "cookTypes": null, "orderNum": 1000, "card4no": null, "card4noAcc": null, "district2": 416, "searchScope": null, "status": 1, "address": "\u6bb7\u9ad8\u897f\u8def333\u53f7", "name": "\u957f\u6c5f\u56fd\u9645\u5546\u4e1a\u8d2d\u7269\u4e2d\u5fc3 \u5b9d\u5c71\u5e97", "id": 152998, "pageNo": 0, "pageCount": null, "pageSize": 10, "ids": null, "endTime": null, "startTime": null}, {"cardNumFive": null, "isSupportYj": null, "cityName": null, "districtName": null, "shopinfo": {"mid": "888888880430063", "good_flag": "2", "new_flag": "2", "short_name": "\u660c\u8302\u773c\u955c", "short_name_pinyin": "changmaoyanjing", "status": null, "address": null, "name": null, "id": "31319"}, "mid": "888888880430063", "shopId": "31319", "netid": null, "province": 901, "district": 601, "zipcode": null, "telephone": "65053688", "posDate": "20081111", "destineTel": null, "togoTel": null, "trafficWay": "\u516c\u4ea4537", "signBuilding": null, "businessArea": "50", "selfRoom": null, "businessTime": "9:00~20:00", "stall": "\u65e0", "consume": null, "serviceFei": null, "favourable": null, "shopMemo": null, "appraise": null, "website": null, "memo": null, "payTypes": "\u6749\u5fb7\u5361", "shopTypes": "\u96f6\u552e,\u4e13\u5356", "consumeTypes": null, "cookTypes": null, "orderNum": 1000, "card4no": null, "card4noAcc": null, "district2": 407, "searchScope": null, "status": 1, "address": "\u4e2d\u539f\u8def270\u53f710\u5ba4", "name": "\u660c\u8302\u773c\u955c \u4e2d\u539f\u5e97", "id": 132950, "pageNo": 0, "pageCount": null, "pageSize": 10, "ids": null, "endTime": null, "startTime": null}, {"cardNumFive": null, "isSupportYj": null, "cityName": null, "districtName": null, "shopinfo": {"mid": "888002154411130", "good_flag": "1", "new_flag": "1", "short_name": "\u7545\u76ca\u98df\u54c1", "short_name_pinyin": "changyishipin", "status": null, "address": null, "name": null, "id": "31323"}, "mid": "888002154411130", "shopId": "31323", "netid": null, "province": 901, "district": 601, "zipcode": null, "telephone": "55889196", "posDate": "200911", "destineTel": null, "togoTel": null, "trafficWay": null, "signBuilding": null, "businessArea": null, "selfRoom": null, "businessTime": null, "stall": null, "consume": null, "serviceFei": null, "favourable": null, "shopMemo": null, "appraise": null, "website": null, "memo": null, "payTypes": "\u6749\u5fb7\u5361", "shopTypes": "\u96f6\u552e", "consumeTypes": null, "cookTypes": null, "orderNum": 1000, "card4no": null, "card4noAcc": null, "district2": 408, "searchScope": null, "status": 1, "address": "\u66f2\u9633\u8def851\u5f047\u53f7\u697c706", "name": "\u7545\u76ca\u98df\u54c1 \u66f2\u9633\u8def\u5e97", "id": 132955, "pageNo": 0, "pageCount": null, "pageSize": 10, "ids": null, "endTime": null, "startTime": null}, {"cardNumFive": null, "isSupportYj": null, "cityName": null, "districtName": null, "shopinfo": {"mid": "888888853990101", "good_flag": "2", "new_flag": "2", "short_name": "\u6f6e\u6c55\u5b9e\u4e1a", "short_name_pinyin": "chaoshanshiye", "status": null, "address": null, "name": null, "id": "31327"}, "mid": "888888853990101", "shopId": "31327", "netid": null, "province": 901, "district": 601, "zipcode": null, "telephone": "52530034*25", "posDate": "20080514", "destineTel": null, "togoTel": null, "trafficWay": "\u516c\u4ea415", "signBuilding": null, "businessArea": "100\u5e73\u65b9\u7c73", "selfRoom": null, "businessTime": "9:00~18:00", "stall": "\u6709", "consume": null, "serviceFei": null, "favourable": null, "shopMemo": null, "appraise": null, "website": null, "memo": null, "payTypes": "\u6749\u5fb7\u5361", "shopTypes": "\u767e\u8d27", "consumeTypes": null, "cookTypes": null, "orderNum": 1000, "card4no": null, "card4noAcc": null, "district2": 406, "searchScope": null, "status": 1, "address": "\u6b66\u5937\u8def727\u5f0417\u53f7", "name": "\u6f6e\u6c55\u5b9e\u4e1a \u6b66\u5937\u8def\u5e97", "id": 132959, "pageNo": 0, "pageCount": null, "pageSize": 10, "ids": null, "endTime": null, "startTime": null}], "pageLimit": 850, "size": 10}