{"pageCount": 1095, "count": 10942, "pageNo": 89, "subShopInfo": {"cardNumFive": "", "isSupportYj": "", "cityName": null, "districtName": null, "shopinfo": {"mid": null, "good_flag": null, "new_flag": null, "short_name": null, "short_name_pinyin": null, "status": null, "address": "", "name": "", "id": null}, "mid": null, "shopId": null, "netid": null, "province": 901, "district": null, "zipcode": null, "telephone": null, "posDate": null, "destineTel": null, "togoTel": null, "trafficWay": null, "signBuilding": null, "businessArea": null, "selfRoom": null, "businessTime": null, "stall": null, "consume": null, "serviceFei": null, "favourable": null, "shopMemo": "1", "appraise": null, "website": null, "memo": null, "payTypes": "", "shopTypes": "", "consumeTypes": null, "cookTypes": null, "orderNum": null, "card4no": null, "card4noAcc": null, "district2": null, "searchScope": null, "status": null, "address": "", "name": null, "id": null, "pageNo": 88, "pageCount": null, "pageSize": 10, "ids": null, "endTime": null, "startTime": null}, "list": [{"cardNumFive": null, "isSupportYj": null, "cityName": null, "districtName": null, "shopinfo": {"mid": "888002153311085", "good_flag": "2", "new_flag": "2", "short_name": "citysuper", "short_name_pinyin": "citysuper", "status": null, "address": null, "name": null, "id": "454317307716435968"}, "mid": "888002153311085", "shopId": "454317307716435968", "netid": null, "province": 901, "district": 601, "zipcode": null, "telephone": null, "posDate": null, "destineTel": null, "togoTel": null, "trafficWay": null, "signBuilding": null, "businessArea": null, "selfRoom": null, "businessTime": null, "stall": null, "consume": null, "serviceFei": null, "favourable": null, "shopMemo": null, "appraise": null, "website": null, "memo": null, "payTypes": "\u6749\u5fb7\u5361,", "shopTypes": "\u8d85\u5e02", "consumeTypes": null, "cookTypes": null, "orderNum": null, "card4no": null, "card4noAcc": null, "district2": 406, "searchScope": null, "status": 1, "address": "\u957f\u5b81\u8def1191\u53f7\u5730\u4e0b\u4e00\u5c42E-B11", "name": "\u957f\u5b81\u8def\u5e97", "id": 454317306298761216, "pageNo": 0, "pageCount": null, "pageSize": 10, "ids": null, "endTime": null, "startTime": null}, {"cardNumFive": null, "isSupportYj": null, "cityName": null, "districtName": null, "shopinfo": {"mid": "888888858130031", "good_flag": null, "new_flag": null, "short_name": "COLD STONE", "short_name_pinyin": "coldstone", "status": null, "address": null, "name": null, "id": "32304"}, "mid": "888888858130031", "shopId": "32304", "netid": null, "province": 901, "district": 601, "zipcode": null, "telephone": "62401720", "posDate": null, "destineTel": null, "togoTel": null, "trafficWay": null, "signBuilding": null, "businessArea": null, "selfRoom": null, "businessTime": null, "stall": null, "consume": null, "serviceFei": null, "favourable": null, "shopMemo": null, "appraise": null, "website": null, "memo": null, "payTypes": ",\u6749\u5fb7\u5361", "shopTypes": "\u9910\u996e", "consumeTypes": null, "cookTypes": null, "orderNum": 1000, "card4no": null, "card4noAcc": null, "district2": 405, "searchScope": null, "status": 1, "address": "\u957f\u5bff\u8def1118\u53f7", "name": "COLD STONE \u957f\u5bff\u8def\u5e97", "id": 138094, "pageNo": 0, "pageCount": null, "pageSize": 10, "ids": null, "endTime": null, "startTime": null}, {"cardNumFive": null, "isSupportYj": null, "cityName": null, "districtName": null, "shopinfo": {"mid": "888888858130031", "good_flag": null, "new_flag": null, "short_name": "COLD STONE", "short_name_pinyin": "coldstone", "status": null, "address": null, "name": null, "id": "32304"}, "mid": "888888858130031", "shopId": "32304", "netid": null, "province": 901, "district": 601, "zipcode": null, "telephone": null, "posDate": null, "destineTel": null, "togoTel": null, "trafficWay": null, "signBuilding": null, "businessArea": null, "selfRoom": null, "businessTime": null, "stall": null, "consume": null, "serviceFei": null, "favourable": null, "shopMemo": null, "appraise": null, "website": null, "memo": null, "payTypes": ",\u6749\u5fb7\u5361", "shopTypes": "\u9910\u996e", "consumeTypes": null, "cookTypes": null, "orderNum": 1000, "card4no": null, "card4noAcc": null, "district2": 418, "searchScope": null, "status": 1, "address": "\u82b3\u7538\u8def199\u5f049\u53f7", "name": "COLD STONE \u82b3\u7538\u8def\u5e97", "id": 138095, "pageNo": 0, "pageCount": null, "pageSize": 10, "ids": null, "endTime": null, "startTime": null}, {"cardNumFive": null, "isSupportYj": null, "cityName": null, "districtName": null, "shopinfo": {"mid": "888888858130031", "good_flag": null, "new_flag": null, "short_name": "COLD STONE", "short_name_pinyin": "coldstone", "status": null, "address": null, "name": null, "id": "32304"}, "mid": "888888858130031", "shopId": "32304", "netid": null, "province": 901, "district": 601, "zipcode": null, "telephone": null, "posDate": "20080602", "destineTel": null, "togoTel": null, "trafficWay": "\u516c\u4ea4757 806 925", "signBuilding": null, "businessArea": null, "selfRoom": null, "businessTime": null, "stall": null, "consume": null, "serviceFei": null, "favourable": null, "shopMemo": null, "appraise": null, "website": null, "memo": null, "payTypes": "\u6749\u5fb7\u5361", "shopTypes": "\u9910\u996e", "consumeTypes": null, "cookTypes": null, "orderNum": 1000, "card4no": null, "card4noAcc": null, "district2": 409, "searchScope": null, "status": 1, "address": "\u8679\u6885\u8def3219-3223\u53f7\u4e5d\u5dde\u5546\u53a6\u5730\u9762\u4e00\u5c42", "name": "COLD STONE \u8679\u6885\u8def\u5e97", "id": 138098, "pageNo": 0, "pageCount": null, "pageSize": 10, "ids": null, "endTime": null, "startTime": null}, {"cardNumFive": null, "isSupportYj": null, "cityName": null, "districtName": null, "shopinfo": {"mid": "888888858130031", "good_flag": null, "new_flag": null, "short_name": "COLD STONE", "short_name_pinyin": "coldstone", "status": null, "address": null, "name": null, "id": "32304"}, "mid": "888888858130031", "shopId": "32304", "netid": null, "province": 901, "district": 601, "zipcode": null, "telephone": null, "posDate": "20080529", "destineTel": null, "togoTel": null, "trafficWay": "\u516c\u4ea4989 \u5f20\u9f9a\u4e13\u7ebf", "signBuilding": null, "businessArea": null, "selfRoom": null, "businessTime": null, "stall": null, "consume": null, "serviceFei": null, "favourable": null, "shopMemo": null, "appraise": null, "website": null, "memo": null, "payTypes": "\u6749\u5fb7\u5361", "shopTypes": "\u9910\u996e", "consumeTypes": null, "cookTypes": null, "orderNum": 1000, "card4no": null, "card4noAcc": null, "district2": 409, "searchScope": null, "status": 1, "address": "\u91d1\u4e30\u8def443\u53f7", "name": "COLD STONE \u91d1\u4e30\u8def\u5e97", "id": 138099, "pageNo": 0, "pageCount": null, "pageSize": 10, "ids": null, "endTime": null, "startTime": null}, {"cardNumFive": null, "isSupportYj": null, "cityName": null, "districtName": null, "shopinfo": {"mid": "888888858130031", "good_flag": null, "new_flag": null, "short_name": "COLD STONE", "short_name_pinyin": "coldstone", "status": null, "address": null, "name": null, "id": "32304"}, "mid": "888888858130031", "shopId": "32304", "netid": null, "province": 901, "district": 601, "zipcode": null, "telephone": "33727188", "posDate": "20080529", "destineTel": null, "togoTel": null, "trafficWay": "\u516c\u4ea420 921 \u5730\u94c1\u4e8c\u53f7\u7ebf", "signBuilding": null, "businessArea": null, "selfRoom": null, "businessTime": null, "stall": null, "consume": null, "serviceFei": null, "favourable": null, "shopMemo": null, "appraise": null, "website": null, "memo": null, "payTypes": "\u6749\u5fb7\u5361", "shopTypes": "\u9910\u996e", "consumeTypes": null, "cookTypes": null, "orderNum": 1000, "card4no": null, "card4noAcc": null, "district2": 406, "searchScope": null, "status": 1, "address": "\u957f\u5b81\u8def1018\u53f7\u9f99\u4e4b\u68a6\u8d2d\u7269\u4e2d\u5fc3\u4e00\u5c421075\u533a", "name": "COLD STONE \u9f99\u4e4b\u68a6\u5e97", "id": 138101, "pageNo": 0, "pageCount": null, "pageSize": 10, "ids": null, "endTime": null, "startTime": null}, {"cardNumFive": null, "isSupportYj": null, "cityName": null, "districtName": null, "shopinfo": {"mid": "888888858130031", "good_flag": null, "new_flag": null, "short_name": "COLD STONE", "short_name_pinyin": "coldstone", "status": null, "address": null, "name": null, "id": "32304"}, "mid": "888888858130031", "shopId": "32304", "netid": null, "province": 901, "district": 601, "zipcode": null, "telephone": null, "posDate": "20080702", "destineTel": null, "togoTel": null, "trafficWay": "\u516c\u4ea4584 \u5730\u94c1\u4e8c\u53f7\u7ebf", "signBuilding": null, "businessArea": null, "selfRoom": null, "businessTime": null, "stall": null, "consume": null, "serviceFei": null, "favourable": null, "shopMemo": null, "appraise": null, "website": null, "memo": null, "payTypes": "\u6749\u5fb7\u5361", "shopTypes": "\u9910\u996e", "consumeTypes": null, "cookTypes": null, "orderNum": 1000, "card4no": null, "card4noAcc": null, "district2": 418, "searchScope": null, "status": 1, "address": "\u6d66\u4e1c\u5357\u8def1138\u53f7P1134\u5ba4", "name": "COLD STONE \u6d66\u4e1c\u5357\u8def\u5e97", "id": 138102, "pageNo": 0, "pageCount": null, "pageSize": 10, "ids": null, "endTime": null, "startTime": null}, {"cardNumFive": null, "isSupportYj": null, "cityName": null, "districtName": null, "shopinfo": {"mid": "888888858130031", "good_flag": null, "new_flag": null, "short_name": "COLD STONE", "short_name_pinyin": "coldstone", "status": null, "address": null, "name": null, "id": "32304"}, "mid": "888888858130031", "shopId": "32304", "netid": null, "province": 901, "district": 601, "zipcode": null, "telephone": null, "posDate": "20081030", "destineTel": null, "togoTel": null, "trafficWay": "\u516c\u4ea488 69", "signBuilding": null, "businessArea": null, "selfRoom": null, "businessTime": null, "stall": null, "consume": null, "serviceFei": null, "favourable": null, "shopMemo": null, "appraise": null, "website": null, "memo": null, "payTypes": "\u6749\u5fb7\u5361", "shopTypes": "\u9910\u996e", "consumeTypes": null, "cookTypes": null, "orderNum": 1000, "card4no": null, "card4noAcc": null, "district2": 406, "searchScope": null, "status": 1, "address": "\u5a04\u5c71\u5173\u8def555\u53f7B1\u5ba4B02\u53f7", "name": "COLD STONE \u5929\u5c71\u5e97", "id": 138104, "pageNo": 0, "pageCount": null, "pageSize": 10, "ids": null, "endTime": null, "startTime": null}, {"cardNumFive": null, "isSupportYj": null, "cityName": null, "districtName": null, "shopinfo": {"mid": "888888858130031", "good_flag": null, "new_flag": null, "short_name": "COLD STONE", "short_name_pinyin": "coldstone", "status": null, "address": null, "name": null, "id": "32304"}, "mid": "888888858130031", "shopId": "32304", "netid": null, "province": 901, "district": 601, "zipcode": null, "telephone": null, "posDate": "20080529", "destineTel": null, "togoTel": null, "trafficWay": "\u516c\u4ea4830 \u89c2\u5149\u5df4\u58eb1\u8def \u5730\u94c1\u4e00\u53f7\u7ebf", "signBuilding": null, "businessArea": null, "selfRoom": null, "businessTime": null, "stall": null, "consume": null, "serviceFei": null, "favourable": null, "shopMemo": null, "appraise": null, "website": null, "memo": null, "payTypes": "\u6749\u5fb7\u5361", "shopTypes": "\u9910\u996e", "consumeTypes": null, "cookTypes": null, "orderNum": 1000, "card4no": null, "card4noAcc": null, "district2": 403, "searchScope": null, "status": 1, "address": "\u6f15\u6eaa\u5317\u8def111\u53f71\u53f7\u697c\u68af\u4e0b", "name": "COLD STONE \u4e07\u4f53\u9986\u5e97", "id": 138105, "pageNo": 0, "pageCount": null, "pageSize": 10, "ids": null, "endTime": null, "startTime": null}, {"cardNumFive": null, "isSupportYj": null, "cityName": null, "districtName": null, "shopinfo": {"mid": "888888858130031", "good_flag": null, "new_flag": null, "short_name": "COLD STONE", "short_name_pinyin": "coldstone", "status": null, "address": null, "name": null, "id": "32304"}, "mid": "888888858130031", "shopId": "32304", "netid": null, "province": 901, "district": 601, "zipcode": null, "telephone": null, "posDate": "20080523", "destineTel": null, "togoTel": null, "trafficWay": "\u516c\u4ea4109 167 \u5730\u94c1\u4e00\u53f7\u7ebf", "signBuilding": null, "businessArea": null, "selfRoom": null, "businessTime": null, "stall": null, "consume": null, "serviceFei": null, "favourable": null, "shopMemo": null, "appraise": null, "website": null, "memo": null, "payTypes": "\u6749\u5fb7\u5361", "shopTypes": "\u9910\u996e", "consumeTypes": null, "cookTypes": null, "orderNum": 1000, "card4no": null, "card4noAcc": null, "district2": 401, "searchScope": null, "status": 1, "address": "\u5174\u4e1a\u8def123\u5f045\u53f7\u697c07\u5355\u5143", "name": "COLD STONE \u65b0\u5929\u5730\u5e97", "id": 138107, "pageNo": 0, "pageCount": null, "pageSize": 10, "ids": null, "endTime": null, "startTime": null}], "pageLimit": 880, "size": 10}