{"pageCount": 1095, "count": 10942, "pageNo": 88, "subShopInfo": {"cardNumFive": "", "isSupportYj": "", "cityName": null, "districtName": null, "shopinfo": {"mid": null, "good_flag": null, "new_flag": null, "short_name": null, "short_name_pinyin": null, "status": null, "address": "", "name": "", "id": null}, "mid": null, "shopId": null, "netid": null, "province": 901, "district": null, "zipcode": null, "telephone": null, "posDate": null, "destineTel": null, "togoTel": null, "trafficWay": null, "signBuilding": null, "businessArea": null, "selfRoom": null, "businessTime": null, "stall": null, "consume": null, "serviceFei": null, "favourable": null, "shopMemo": "1", "appraise": null, "website": null, "memo": null, "payTypes": "", "shopTypes": "", "consumeTypes": null, "cookTypes": null, "orderNum": null, "card4no": null, "card4noAcc": null, "district2": null, "searchScope": null, "status": null, "address": "", "name": null, "id": null, "pageNo": 87, "pageCount": null, "pageSize": 10, "ids": null, "endTime": null, "startTime": null}, "list": [{"cardNumFive": null, "isSupportYj": null, "cityName": null, "districtName": null, "shopinfo": {"mid": "888002154111095", "good_flag": "2", "new_flag": "2", "short_name": "\u57ce\u5e02\u8d85\u5e02", "short_name_pinyin": "chengshichaoshi", "status": null, "address": null, "name": null, "id": "503957672798715904"}, "mid": "888002154111095", "shopId": "503957672798715904", "netid": null, "province": 901, "district": 601, "zipcode": null, "telephone": null, "posDate": null, "destineTel": null, "togoTel": null, "trafficWay": null, "signBuilding": null, "businessArea": null, "selfRoom": null, "businessTime": null, "stall": null, "consume": null, "serviceFei": null, "favourable": null, "shopMemo": null, "appraise": null, "website": null, "memo": null, "payTypes": "", "shopTypes": null, "consumeTypes": null, "cookTypes": null, "orderNum": null, "card4no": null, "card4noAcc": null, "district2": 404, "searchScope": null, "status": 1, "address": "\u5357\u4eac\u897f\u8def1376\u53f7\u4e0a\u6d77\u5546\u57ceB01", "name": "\u4e0a\u6d77\u5546\u57ce\u5e97", "id": 503957671456538624, "pageNo": 0, "pageCount": null, "pageSize": 10, "ids": null, "endTime": null, "startTime": null}, {"cardNumFive": null, "isSupportYj": null, "cityName": null, "districtName": null, "shopinfo": {"mid": "888888854410144", "good_flag": "2", "new_flag": "2", "short_name": "\u57ce\u5e02\u82b1\u56ed", "short_name_pinyin": "chengshihuayuan", "status": null, "address": null, "name": null, "id": "31348"}, "mid": "888888854410144", "shopId": "31348", "netid": null, "province": 901, "district": 601, "zipcode": null, "telephone": "58895828", "posDate": "20090313", "destineTel": null, "togoTel": null, "trafficWay": null, "signBuilding": null, "businessArea": "50", "selfRoom": null, "businessTime": "10:00~22:00", "stall": "\u6709", "consume": null, "serviceFei": null, "favourable": null, "shopMemo": null, "appraise": null, "website": null, "memo": null, "payTypes": "\u6749\u5fb7\u5361", "shopTypes": "\u96f6\u552e", "consumeTypes": null, "cookTypes": null, "orderNum": 1000, "card4no": null, "card4noAcc": null, "district2": 418, "searchScope": null, "status": 1, "address": "\u5317\u56ed\u8def106\u53f7-1", "name": "\u57ce\u5e02\u82b1\u56ed \u5317\u56ed\u8def\u5e97", "id": 132982, "pageNo": 0, "pageCount": null, "pageSize": 10, "ids": null, "endTime": null, "startTime": null}, {"cardNumFive": null, "isSupportYj": null, "cityName": null, "districtName": null, "shopinfo": {"mid": "888002156911266", "good_flag": "1", "new_flag": "1", "short_name": "\u521b\u5c14\u65f6\u88c5", "short_name_pinyin": "chuangershizhuang", "status": null, "address": null, "name": null, "id": "31361"}, "mid": "888002156911266", "shopId": "31361", "netid": null, "province": 901, "district": 601, "zipcode": null, "telephone": null, "posDate": "20091214", "destineTel": null, "togoTel": null, "trafficWay": null, "signBuilding": null, "businessArea": null, "selfRoom": null, "businessTime": null, "stall": null, "consume": null, "serviceFei": null, "favourable": null, "shopMemo": null, "appraise": null, "website": null, "memo": null, "payTypes": "\u6749\u5fb7\u5361", "shopTypes": "\u670d\u9970\u5bb6\u7eba", "consumeTypes": null, "cookTypes": null, "orderNum": 1000, "card4no": null, "card4noAcc": null, "district2": 406, "searchScope": null, "status": 1, "address": "\u9f99\u4e4b\u68a6\u5e7f\u573a3093", "name": "\u521b\u5c14\u65f6\u88c5 \u9f99\u4e4b\u68a6\u5e97", "id": 133003, "pageNo": 0, "pageCount": null, "pageSize": 10, "ids": null, "endTime": null, "startTime": null}, {"cardNumFive": null, "isSupportYj": null, "cityName": null, "districtName": null, "shopinfo": {"mid": "888002154411143", "good_flag": "2", "new_flag": "1", "short_name": "\u521b\u679c\u5546\u52a1", "short_name_pinyin": "chuangguoshangwu", "status": null, "address": null, "name": null, "id": "31363"}, "mid": "888002154411143", "shopId": "31363", "netid": null, "province": 901, "district": 601, "zipcode": null, "telephone": null, "posDate": "20100223", "destineTel": null, "togoTel": null, "trafficWay": null, "signBuilding": null, "businessArea": null, "selfRoom": null, "businessTime": null, "stall": null, "consume": null, "serviceFei": null, "favourable": null, "shopMemo": null, "appraise": null, "website": null, "memo": null, "payTypes": "\u6749\u5fb7\u5361", "shopTypes": "\u96f6\u552e", "consumeTypes": null, "cookTypes": null, "orderNum": 1000, "card4no": null, "card4noAcc": null, "district2": 406, "searchScope": null, "status": 1, "address": "\u957f\u5b81\u533a\u5bcc\u8d35\u4e1c\u9053149\u53f7", "name": "\u521b\u679c\u5546\u52a1 \u5bcc\u8d35\u4e1c\u9053\u5e97", "id": 133005, "pageNo": 0, "pageCount": null, "pageSize": 10, "ids": null, "endTime": null, "startTime": null}, {"cardNumFive": null, "isSupportYj": null, "cityName": null, "districtName": null, "shopinfo": {"mid": "888002154411143", "good_flag": "2", "new_flag": "1", "short_name": "\u521b\u679c\u5546\u52a1", "short_name_pinyin": "chuangguoshangwu", "status": null, "address": null, "name": null, "id": "31363"}, "mid": "888002154411143", "shopId": "31363", "netid": null, "province": 901, "district": 601, "zipcode": null, "telephone": null, "posDate": "20100223", "destineTel": null, "togoTel": null, "trafficWay": null, "signBuilding": null, "businessArea": null, "selfRoom": null, "businessTime": null, "stall": null, "consume": null, "serviceFei": null, "favourable": null, "shopMemo": null, "appraise": null, "website": null, "memo": null, "payTypes": "\u6749\u5fb7\u5361", "shopTypes": "\u96f6\u552e", "consumeTypes": null, "cookTypes": null, "orderNum": 1000, "card4no": null, "card4noAcc": null, "district2": 404, "searchScope": null, "status": 1, "address": "\u9759\u5b89\u533a\u6d77\u9632\u8def518\u53f7", "name": "\u521b\u679c\u5546\u52a1 \u6d77\u9632\u8def\u5e97", "id": 133006, "pageNo": 0, "pageCount": null, "pageSize": 10, "ids": null, "endTime": null, "startTime": null}, {"cardNumFive": null, "isSupportYj": null, "cityName": null, "districtName": null, "shopinfo": {"mid": "888888872300066", "good_flag": "2", "new_flag": "2", "short_name": "\u5ddd\u9875\u7626\u8eab", "short_name_pinyin": "chuanyeshoushen", "status": null, "address": null, "name": null, "id": "31358"}, "mid": "888888872300066", "shopId": "31358", "netid": null, "province": 901, "district": 601, "zipcode": "200003", "telephone": "63725080", "posDate": "20070622", "destineTel": "63725080", "togoTel": null, "trafficWay": "\u5730\u94c1\u4e00\u53f7\u7ebf", "signBuilding": null, "businessArea": "200\u5e73\u65b9\u7c73\u4ee5\u4e0a", "selfRoom": null, "businessTime": "9:30~22:00", "stall": "\u6709", "consume": null, "serviceFei": null, "favourable": null, "shopMemo": "\u5021\u5bfc\u65e0\u9700\u670d\u836f,\u65e0\u9700\u8282\u98df,\u65e0\u9700\u8fd0\u52a8\u7406\u5ff5.\u7b7e\u7ea6\u7626\u8eab(\u4e2a\u6027\u5316\u670d\u52a1)\u8ba9\u60a8\u7684\u6743\u76ca\u6709\u4fdd\u969c.", "appraise": null, "website": null, "memo": null, "payTypes": "\u6749\u5fb7\u5361", "shopTypes": "\u7f8e\u5bb9\u7f8e\u53d1", "consumeTypes": null, "cookTypes": null, "orderNum": 1000, "card4no": null, "card4noAcc": null, "district2": 401, "searchScope": null, "status": 1, "address": "\u4eba\u6c11\u5927\u9053100\u53f7", "name": "\u5ddd\u9875\u7626\u8eab \u9ec4\u6d66\u5e97", "id": 132997, "pageNo": 0, "pageCount": null, "pageSize": 10, "ids": null, "endTime": null, "startTime": null}, {"cardNumFive": null, "isSupportYj": null, "cityName": null, "districtName": null, "shopinfo": {"mid": "888002153110277", "good_flag": null, "new_flag": null, "short_name": "City Super", "short_name_pinyin": "citysuper", "status": null, "address": null, "name": null, "id": "41464"}, "mid": "888002153110277", "shopId": "41464", "netid": null, "province": 901, "district": 601, "zipcode": null, "telephone": "60131722", "posDate": null, "destineTel": null, "togoTel": null, "trafficWay": null, "signBuilding": null, "businessArea": null, "selfRoom": null, "businessTime": null, "stall": null, "consume": null, "serviceFei": null, "favourable": null, "shopMemo": null, "appraise": null, "website": null, "memo": null, "payTypes": "\u6749\u5fb7\u5361", "shopTypes": "\u8d85\u5e02", "consumeTypes": null, "cookTypes": null, "orderNum": 1000, "card4no": null, "card4noAcc": null, "district2": 401, "searchScope": null, "status": 1, "address": "\u6dee\u6d77\u4e2d\u8def99\u53f7\u5730\u4e0b1\u697c", "name": "City Super \u5927\u4e0a\u6d77\u65f6\u4ee3\u5e7f\u573a\u5e97", "id": 182686, "pageNo": 0, "pageCount": null, "pageSize": 10, "ids": null, "endTime": null, "startTime": null}, {"cardNumFive": null, "isSupportYj": null, "cityName": null, "districtName": null, "shopinfo": {"mid": "888002153110281", "good_flag": null, "new_flag": null, "short_name": "city super", "short_name_pinyin": "citysuper", "status": null, "address": null, "name": null, "id": "41652"}, "mid": "888002153110281", "shopId": "41652", "netid": null, "province": 901, "district": 601, "zipcode": null, "telephone": null, "posDate": null, "destineTel": null, "togoTel": null, "trafficWay": null, "signBuilding": null, "businessArea": null, "selfRoom": null, "businessTime": null, "stall": null, "consume": null, "serviceFei": null, "favourable": null, "shopMemo": null, "appraise": null, "website": null, "memo": null, "payTypes": "\u6749\u5fb7\u5361", "shopTypes": "\u8d85\u5e02", "consumeTypes": null, "cookTypes": null, "orderNum": 1000, "card4no": null, "card4noAcc": null, "district2": 401, "searchScope": null, "status": 1, "address": "\u6dee\u6d77\u4e2d\u8def999\u53f7", "name": "city super \u73af\u8d38\u5e7f\u573a\u5e97", "id": 184142, "pageNo": 0, "pageCount": null, "pageSize": 10, "ids": null, "endTime": null, "startTime": null}, {"cardNumFive": null, "isSupportYj": null, "cityName": null, "districtName": null, "shopinfo": {"mid": "888002153310759", "good_flag": null, "new_flag": null, "short_name": "City Super", "short_name_pinyin": "citysuper", "status": null, "address": null, "name": null, "id": "41877"}, "mid": "888002153310759", "shopId": "41877", "netid": null, "province": 901, "district": 601, "zipcode": null, "telephone": null, "posDate": null, "destineTel": null, "togoTel": null, "trafficWay": null, "signBuilding": null, "businessArea": null, "selfRoom": null, "businessTime": null, "stall": null, "consume": null, "serviceFei": null, "favourable": null, "shopMemo": null, "appraise": null, "website": null, "memo": null, "payTypes": "\u6749\u5fb7\u5361", "shopTypes": "\u8d85\u5e02", "consumeTypes": null, "cookTypes": null, "orderNum": 1000, "card4no": null, "card4noAcc": null, "district2": 401, "searchScope": null, "status": 1, "address": "\u897f\u85cf\u4e2d\u8def268\u53f7", "name": "City Super \u6765\u798f\u58eb\u5e97", "id": 186179, "pageNo": 0, "pageCount": null, "pageSize": 10, "ids": null, "endTime": null, "startTime": null}, {"cardNumFive": null, "isSupportYj": null, "cityName": null, "districtName": null, "shopinfo": {"mid": "888002154110544", "good_flag": null, "new_flag": null, "short_name": "City Super", "short_name_pinyin": "citysuper", "status": null, "address": null, "name": null, "id": "41879"}, "mid": "888002154110544", "shopId": "41879", "netid": null, "province": 901, "district": 601, "zipcode": null, "telephone": "50120988", "posDate": null, "destineTel": null, "togoTel": null, "trafficWay": null, "signBuilding": null, "businessArea": null, "selfRoom": null, "businessTime": null, "stall": null, "consume": null, "serviceFei": null, "favourable": null, "shopMemo": null, "appraise": null, "website": null, "memo": null, "payTypes": "\u6749\u5fb7\u5361", "shopTypes": "\u8d85\u5e02", "consumeTypes": null, "cookTypes": null, "orderNum": 1000, "card4no": null, "card4noAcc": null, "district2": 418, "searchScope": null, "status": 1, "address": "\u4e16\u7eaa\u5927\u90538\u53f7\u5730\u4e0b2\u697c", "name": "City Super \u56fd\u91d1\u4e2d\u5fc3\u5e97", "id": 186182, "pageNo": 0, "pageCount": null, "pageSize": 10, "ids": null, "endTime": null, "startTime": null}], "pageLimit": 870, "size": 10}