{"pageCount": 1095, "count": 10942, "pageNo": 85, "subShopInfo": {"cardNumFive": "", "isSupportYj": "", "cityName": null, "districtName": null, "shopinfo": {"mid": null, "good_flag": null, "new_flag": null, "short_name": null, "short_name_pinyin": null, "status": null, "address": "", "name": "", "id": null}, "mid": null, "shopId": null, "netid": null, "province": 901, "district": null, "zipcode": null, "telephone": null, "posDate": null, "destineTel": null, "togoTel": null, "trafficWay": null, "signBuilding": null, "businessArea": null, "selfRoom": null, "businessTime": null, "stall": null, "consume": null, "serviceFei": null, "favourable": null, "shopMemo": "1", "appraise": null, "website": null, "memo": null, "payTypes": "", "shopTypes": "", "consumeTypes": null, "cookTypes": null, "orderNum": null, "card4no": null, "card4noAcc": null, "district2": null, "searchScope": null, "status": null, "address": "", "name": null, "id": null, "pageNo": 84, "pageCount": null, "pageSize": 10, "ids": null, "endTime": null, "startTime": null}, "list": [{"cardNumFive": null, "isSupportYj": null, "cityName": null, "districtName": null, "shopinfo": {"mid": "T00000000000007", "good_flag": "2", "new_flag": "1", "short_name": "\u535c\u8702\u83b2\u82b1", "short_name_pinyin": "bufenglianhua", "status": null, "address": null, "name": null, "id": "31302"}, "mid": "T00000000000007", "shopId": "31302", "netid": null, "province": 901, "district": 601, "zipcode": null, "telephone": "021-58659300", "posDate": "20070907", "destineTel": null, "togoTel": null, "trafficWay": "\u516c\u4ea4936 984", "signBuilding": null, "businessArea": null, "selfRoom": null, "businessTime": "8:30~22:00", "stall": "\u6709", "consume": null, "serviceFei": null, "favourable": null, "shopMemo": null, "appraise": null, "website": null, "memo": null, "payTypes": "\u6749\u5fb7\u5361  \u5361\u62bc\u91d1\u6d88\u8d39", "shopTypes": "\u8d85\u5e02", "consumeTypes": null, "cookTypes": null, "orderNum": 1000, "card4no": null, "card4noAcc": null, "district2": 418, "searchScope": null, "status": 1, "address": "\u91d1\u9ad8\u8def1256\u53f7", "name": "\u535c\u8702\u83b2\u82b1 \u6768\u9ad8\u5317\u8def\u5e97", "id": 132921, "pageNo": 0, "pageCount": null, "pageSize": 10, "ids": null, "endTime": null, "startTime": null}, {"cardNumFive": null, "isSupportYj": null, "cityName": null, "districtName": null, "shopinfo": {"mid": "T00000000000007", "good_flag": "2", "new_flag": "1", "short_name": "\u535c\u8702\u83b2\u82b1", "short_name_pinyin": "bufenglianhua", "status": null, "address": null, "name": null, "id": "31302"}, "mid": "T00000000000007", "shopId": "31302", "netid": null, "province": 901, "district": 601, "zipcode": null, "telephone": "021-58731228", "posDate": "20070827", "destineTel": null, "togoTel": null, "trafficWay": "\u5927\u6865\u516d\u7ebf \u516c\u4ea4929 451", "signBuilding": null, "businessArea": null, "selfRoom": "\u65e0", "businessTime": "8:00~22:00", "stall": "\u6709", "consume": null, "serviceFei": null, "favourable": null, "shopMemo": null, "appraise": null, "website": null, "memo": null, "payTypes": "\u6749\u5fb7\u5361  \u5361\u62bc\u91d1\u6d88\u8d39", "shopTypes": "\u8d85\u5e02", "consumeTypes": null, "cookTypes": null, "orderNum": 1000, "card4no": null, "card4noAcc": null, "district2": 418, "searchScope": null, "status": 1, "address": "\u6768\u9ad8\u5357\u8def1126-1128\u53f7", "name": "\u535c\u8702\u83b2\u82b1 \u6768\u9ad8\u5357\u8def\u5e97", "id": 132922, "pageNo": 0, "pageCount": null, "pageSize": 10, "ids": null, "endTime": null, "startTime": null}, {"cardNumFive": null, "isSupportYj": null, "cityName": null, "districtName": null, "shopinfo": {"mid": "T00000000000007", "good_flag": "2", "new_flag": "1", "short_name": "\u535c\u8702\u83b2\u82b1", "short_name_pinyin": "bufenglianhua", "status": null, "address": null, "name": null, "id": "31302"}, "mid": "T00000000000007", "shopId": "31302", "netid": null, "province": 901, "district": 601, "zipcode": null, "telephone": "021-51329588", "posDate": "20070828", "destineTel": null, "togoTel": null, "trafficWay": "\u516c\u4ea4984 814 936", "signBuilding": null, "businessArea": null, "selfRoom": "\u65e0", "businessTime": "8:00~22:00", "stall": "\u6709", "consume": null, "serviceFei": null, "favourable": null, "shopMemo": null, "appraise": null, "website": null, "memo": null, "payTypes": "\u6749\u5fb7\u5361  \u5361\u62bc\u91d1\u6d88\u8d39", "shopTypes": "\u8d85\u5e02", "consumeTypes": null, "cookTypes": null, "orderNum": 1000, "card4no": null, "card4noAcc": null, "district2": 418, "searchScope": null, "status": 1, "address": "\u6768\u9ad8\u4e2d\u8def2128\u53f7", "name": "\u535c\u8702\u83b2\u82b1 \u6768\u9ad8\u4e2d\u8def\u5e97", "id": 132923, "pageNo": 0, "pageCount": null, "pageSize": 10, "ids": null, "endTime": null, "startTime": null}, {"cardNumFive": null, "isSupportYj": null, "cityName": null, "districtName": null, "shopinfo": {"mid": "T00000000000007", "good_flag": "2", "new_flag": "1", "short_name": "\u535c\u8702\u83b2\u82b1", "short_name_pinyin": "bufenglianhua", "status": null, "address": null, "name": null, "id": "31302"}, "mid": "T00000000000007", "shopId": "31302", "netid": null, "province": 901, "district": 601, "zipcode": null, "telephone": "021-51027388", "posDate": "20070912", "destineTel": null, "togoTel": null, "trafficWay": "\u516c\u4ea4552 \u5f6d\u6c5f\u7ebf", "signBuilding": null, "businessArea": null, "selfRoom": null, "businessTime": "8:30~22:00", "stall": "\u6709", "consume": null, "serviceFei": null, "favourable": null, "shopMemo": null, "appraise": null, "website": null, "memo": null, "payTypes": "\u6749\u5fb7\u5361  \u5361\u62bc\u91d1\u6d88\u8d39", "shopTypes": "\u8d85\u5e02", "consumeTypes": null, "cookTypes": null, "orderNum": 1000, "card4no": null, "card4noAcc": null, "district2": 416, "searchScope": null, "status": 1, "address": "\u8574\u5ddd\u8def1557\u53f7", "name": "\u535c\u8702\u83b2\u82b1 \u8574\u5ddd\u5e97", "id": 132924, "pageNo": 0, "pageCount": null, "pageSize": 10, "ids": null, "endTime": null, "startTime": null}, {"cardNumFive": null, "isSupportYj": null, "cityName": null, "districtName": null, "shopinfo": {"mid": "T00000000000007", "good_flag": "2", "new_flag": "1", "short_name": "\u535c\u8702\u83b2\u82b1", "short_name_pinyin": "bufenglianhua", "status": null, "address": null, "name": null, "id": "31302"}, "mid": "T00000000000007", "shopId": "31302", "netid": null, "province": 901, "district": 601, "zipcode": null, "telephone": "021-50470648", "posDate": "20070905", "destineTel": null, "togoTel": null, "trafficWay": "\u96a7\u9053\u4e8c\u7ebf \u516c\u4ea4985 \u5730\u94c1\u4e8c\u53f7\u7ebf", "signBuilding": null, "businessArea": null, "selfRoom": null, "businessTime": "8:30~22:00", "stall": "\u6709", "consume": null, "serviceFei": null, "favourable": null, "shopMemo": null, "appraise": null, "website": null, "memo": null, "payTypes": "\u6749\u5fb7\u5361  \u5361\u62bc\u91d1\u6d88\u8d39", "shopTypes": "\u8d85\u5e02", "consumeTypes": null, "cookTypes": null, "orderNum": 1000, "card4no": null, "card4noAcc": null, "district2": 418, "searchScope": null, "status": 1, "address": "\u9646\u5bb6\u5634\u897f\u8def168\u53f7\u6b63\u5927\u5e7f\u573a\u5730\u4e0b\u4e00\u5c42\u3001\u4e8c\u5c42", "name": "\u535c\u8702\u83b2\u82b1 \u6b63\u5927\u5e7f\u573a\u5e97", "id": 132925, "pageNo": 0, "pageCount": null, "pageSize": 10, "ids": null, "endTime": null, "startTime": null}, {"cardNumFive": null, "isSupportYj": null, "cityName": null, "districtName": null, "shopinfo": {"mid": "T00000000000007", "good_flag": "2", "new_flag": "1", "short_name": "\u535c\u8702\u83b2\u82b1", "short_name_pinyin": "bufenglianhua", "status": null, "address": null, "name": null, "id": "31302"}, "mid": "T00000000000007", "shopId": "31302", "netid": null, "province": 901, "district": 601, "zipcode": null, "telephone": "021-65680044", "posDate": "20070913", "destineTel": null, "togoTel": null, "trafficWay": "\u516c\u4ea4135 33", "signBuilding": null, "businessArea": null, "selfRoom": null, "businessTime": "8:30~22:00", "stall": "\u6709", "consume": null, "serviceFei": null, "favourable": null, "shopMemo": null, "appraise": null, "website": null, "memo": null, "payTypes": "\u6749\u5fb7\u5361  \u5361\u62bc\u91d1\u6d88\u8d39", "shopTypes": "\u8d85\u5e02", "consumeTypes": null, "cookTypes": null, "orderNum": 1000, "card4no": null, "card4noAcc": null, "district2": 407, "searchScope": null, "status": 1, "address": "\u5468\u5bb6\u5634\u8def4295\u53f7", "name": "\u535c\u8702\u83b2\u82b1 \u5468\u5bb6\u5634\u5e97", "id": 132926, "pageNo": 0, "pageCount": null, "pageSize": 10, "ids": null, "endTime": null, "startTime": null}, {"cardNumFive": null, "isSupportYj": null, "cityName": null, "districtName": null, "shopinfo": {"mid": "888002189990085", "good_flag": null, "new_flag": null, "short_name": "\u83dc\u7ba1\u5bb6", "short_name_pinyin": "caiguanjia", "status": null, "address": null, "name": null, "id": "41535"}, "mid": "888002189990085", "shopId": "41535", "netid": null, "province": 901, "district": 601, "zipcode": null, "telephone": "962360", "posDate": null, "destineTel": null, "togoTel": null, "trafficWay": null, "signBuilding": null, "businessArea": null, "selfRoom": null, "businessTime": null, "stall": null, "consume": null, "serviceFei": null, "favourable": null, "shopMemo": null, "appraise": null, "website": null, "memo": null, "payTypes": "\u6749\u5fb7\u5361", "shopTypes": "\u7f51\u4e0a\u8d2d\u7269", "consumeTypes": null, "cookTypes": null, "orderNum": 1000, "card4no": null, "card4noAcc": null, "district2": 417, "searchScope": null, "status": 1, "address": "\u5d27\u714c\u8def666\u53f73\u53f7\u697c2\u697c", "name": "\u83dc\u7ba1\u5bb6 \u914d\u9001\u7ad9", "id": 183284, "pageNo": 0, "pageCount": null, "pageSize": 10, "ids": null, "endTime": null, "startTime": null}, {"cardNumFive": null, "isSupportYj": null, "cityName": null, "districtName": null, "shopinfo": {"mid": "888002159121175", "good_flag": "2", "new_flag": "2", "short_name": "\u8521\u540c\u5fb7\u5802", "short_name_pinyin": "caitongdetang", "status": null, "address": null, "name": null, "id": "31308"}, "mid": "888002159121175", "shopId": "31308", "netid": null, "province": 901, "district": 601, "zipcode": null, "telephone": "63221263", "posDate": "200910", "destineTel": null, "togoTel": null, "trafficWay": "\u5730\u94c1\u4e8c\u53f7\u7ebf\u300120\u300166", "signBuilding": null, "businessArea": null, "selfRoom": null, "businessTime": null, "stall": null, "consume": null, "serviceFei": null, "favourable": null, "shopMemo": null, "appraise": null, "website": null, "memo": null, "payTypes": "\u6749\u5fb7\u5361", "shopTypes": "\u836f\u5e97", "consumeTypes": null, "cookTypes": null, "orderNum": 1000, "card4no": null, "card4noAcc": null, "district2": 401, "searchScope": null, "status": 1, "address": "\u5357\u4eac\u4e1c\u8def450\u53f7", "name": "\u8521\u540c\u5fb7\u5802 \u5357\u4eac\u4e1c\u8def\u5e97", "id": 132937, "pageNo": 0, "pageCount": null, "pageSize": 10, "ids": null, "endTime": null, "startTime": null}, {"cardNumFive": null, "isSupportYj": null, "cityName": null, "districtName": null, "shopinfo": {"mid": "888002156910432", "good_flag": "2", "new_flag": "2", "short_name": "Camel Active", "short_name_pinyin": "camelactive", "status": null, "address": null, "name": null, "id": "39487"}, "mid": "888002156910432", "shopId": "39487", "netid": null, "province": 901, "district": 601, "zipcode": null, "telephone": null, "posDate": null, "destineTel": null, "togoTel": null, "trafficWay": null, "signBuilding": null, "businessArea": null, "selfRoom": null, "businessTime": null, "stall": null, "consume": null, "serviceFei": null, "favourable": null, "shopMemo": null, "appraise": null, "website": null, "memo": null, "payTypes": "\u6749\u5fb7\u5361", "shopTypes": "\u4e13\u5356", "consumeTypes": null, "cookTypes": null, "orderNum": 1000, "card4no": null, "card4noAcc": null, "district2": 418, "searchScope": null, "status": 1, "address": "\u9646\u5bb6\u5634\u897f\u8def168\u53f74\u697c", "name": "CAMEL ACTIVE \u6b63\u5927\u5e7f\u573a\u5e97", "id": 169258, "pageNo": 0, "pageCount": null, "pageSize": 10, "ids": null, "endTime": null, "startTime": null}, {"cardNumFive": null, "isSupportYj": null, "cityName": null, "districtName": null, "shopinfo": {"mid": "888888858120647", "good_flag": "2", "new_flag": "2", "short_name": "\u6ca7\u6d6a\u4ead", "short_name_pinyin": "canglangting", "status": null, "address": null, "name": null, "id": "31309"}, "mid": "888888858120647", "shopId": "31309", "netid": null, "province": 901, "district": 601, "zipcode": null, "telephone": "54206060", "posDate": null, "destineTel": null, "togoTel": null, "trafficWay": null, "signBuilding": null, "businessArea": null, "selfRoom": null, "businessTime": null, "stall": null, "consume": null, "serviceFei": null, "favourable": null, "shopMemo": null, "appraise": null, "website": null, "memo": null, "payTypes": "\u6749\u5fb7\u5361", "shopTypes": "\u9910\u996e", "consumeTypes": null, "cookTypes": null, "orderNum": 1000, "card4no": null, "card4noAcc": null, "district2": 403, "searchScope": null, "status": 1, "address": "\u6842\u6797\u8def46\u53f71\u53f7\u697c", "name": "\u6ca7\u6d6a\u4ead \u6842\u6797\u8def\u5e97", "id": 132938, "pageNo": 0, "pageCount": null, "pageSize": 10, "ids": null, "endTime": null, "startTime": null}], "pageLimit": 840, "size": 10}