{"pageCount": 1095, "count": 10942, "pageNo": 80, "subShopInfo": {"cardNumFive": "", "isSupportYj": "", "cityName": null, "districtName": null, "shopinfo": {"mid": null, "good_flag": null, "new_flag": null, "short_name": null, "short_name_pinyin": null, "status": null, "address": "", "name": "", "id": null}, "mid": null, "shopId": null, "netid": null, "province": 901, "district": null, "zipcode": null, "telephone": null, "posDate": null, "destineTel": null, "togoTel": null, "trafficWay": null, "signBuilding": null, "businessArea": null, "selfRoom": null, "businessTime": null, "stall": null, "consume": null, "serviceFei": null, "favourable": null, "shopMemo": "1", "appraise": null, "website": null, "memo": null, "payTypes": "", "shopTypes": "", "consumeTypes": null, "cookTypes": null, "orderNum": null, "card4no": null, "card4noAcc": null, "district2": null, "searchScope": null, "status": null, "address": "", "name": null, "id": null, "pageNo": 79, "pageCount": null, "pageSize": 10, "ids": null, "endTime": null, "startTime": null}, "list": [{"cardNumFive": null, "isSupportYj": null, "cityName": null, "districtName": null, "shopinfo": {"mid": "888002156410025", "good_flag": null, "new_flag": null, "short_name": "\u535a\u58eb\u86d9", "short_name_pinyin": "boshiwa", "status": null, "address": null, "name": null, "id": "38733"}, "mid": "888002156410025", "shopId": "38733", "netid": null, "province": 901, "district": 601, "zipcode": null, "telephone": "61392393", "posDate": null, "destineTel": null, "togoTel": null, "trafficWay": null, "signBuilding": null, "businessArea": null, "selfRoom": null, "businessTime": null, "stall": null, "consume": null, "serviceFei": null, "favourable": null, "shopMemo": null, "appraise": null, "website": null, "memo": null, "payTypes": "\u6749\u5fb7\u5361", "shopTypes": "\u4e13\u5356", "consumeTypes": null, "cookTypes": null, "orderNum": 1000, "card4no": null, "card4noAcc": null, "district2": 405, "searchScope": null, "status": 1, "address": "\u771f\u5149\u8def1288\u53f72\u697c", "name": "\u535a\u58eb\u86d9 \u4e2d\u73af\u767e\u8054\u5e97", "id": 164212, "pageNo": 0, "pageCount": null, "pageSize": 10, "ids": null, "endTime": null, "startTime": null}, {"cardNumFive": null, "isSupportYj": null, "cityName": null, "districtName": null, "shopinfo": {"mid": "888002156410025", "good_flag": null, "new_flag": null, "short_name": "\u535a\u58eb\u86d9", "short_name_pinyin": "boshiwa", "status": null, "address": null, "name": null, "id": "38733"}, "mid": "888002156410025", "shopId": "38733", "netid": null, "province": 901, "district": 601, "zipcode": null, "telephone": "57831909", "posDate": null, "destineTel": null, "togoTel": null, "trafficWay": null, "signBuilding": null, "businessArea": null, "selfRoom": null, "businessTime": null, "stall": null, "consume": null, "serviceFei": null, "favourable": null, "shopMemo": null, "appraise": null, "website": null, "memo": null, "payTypes": "\u6749\u5fb7\u5361", "shopTypes": "\u4e13\u5356", "consumeTypes": null, "cookTypes": null, "orderNum": 1000, "card4no": null, "card4noAcc": null, "district2": 412, "searchScope": null, "status": 1, "address": "\u73af\u57ce\u8def515-555\u53f7", "name": "\u535a\u58eb\u86d9 \u677e\u6c5f\u5e97", "id": 164213, "pageNo": 0, "pageCount": null, "pageSize": 10, "ids": null, "endTime": null, "startTime": null}, {"cardNumFive": null, "isSupportYj": null, "cityName": null, "districtName": null, "shopinfo": {"mid": "888002156410025", "good_flag": null, "new_flag": null, "short_name": "\u535a\u58eb\u86d9", "short_name_pinyin": "boshiwa", "status": null, "address": null, "name": null, "id": "38733"}, "mid": "888002156410025", "shopId": "38733", "netid": null, "province": 901, "district": 601, "zipcode": null, "telephone": "37310030", "posDate": null, "destineTel": null, "togoTel": null, "trafficWay": null, "signBuilding": null, "businessArea": null, "selfRoom": null, "businessTime": null, "stall": null, "consume": null, "serviceFei": null, "favourable": null, "shopMemo": null, "appraise": null, "website": null, "memo": null, "payTypes": "\u6749\u5fb7\u5361", "shopTypes": "\u4e13\u5356", "consumeTypes": null, "cookTypes": null, "orderNum": 1000, "card4no": null, "card4noAcc": null, "district2": 414, "searchScope": null, "status": 1, "address": "\u6731\u6cfe\u9547\u4e07\u5b89\u8857631\u53f72\u697c", "name": "\u535a\u58eb\u86d9 \u6731\u6cfe\u5e97", "id": 164214, "pageNo": 0, "pageCount": null, "pageSize": 10, "ids": null, "endTime": null, "startTime": null}, {"cardNumFive": null, "isSupportYj": null, "cityName": null, "districtName": null, "shopinfo": {"mid": "888002156410025", "good_flag": null, "new_flag": null, "short_name": "\u535a\u58eb\u86d9", "short_name_pinyin": "boshiwa", "status": null, "address": null, "name": null, "id": "38733"}, "mid": "888002156410025", "shopId": "38733", "netid": null, "province": 901, "district": 601, "zipcode": null, "telephone": "56650319", "posDate": null, "destineTel": null, "togoTel": null, "trafficWay": null, "signBuilding": null, "businessArea": null, "selfRoom": null, "businessTime": null, "stall": null, "consume": null, "serviceFei": null, "favourable": null, "shopMemo": null, "appraise": null, "website": null, "memo": null, "payTypes": "\u6749\u5fb7\u5361", "shopTypes": "\u4e13\u5356", "consumeTypes": null, "cookTypes": null, "orderNum": 1000, "card4no": null, "card4noAcc": null, "district2": 410, "searchScope": null, "status": 1, "address": "\u5171\u548c\u65b0\u8def1988\u53f712\u53f7\u697c4\u697c403\u5546\u94fa", "name": "\u535a\u58eb\u86d9 \u5927\u5b81\u5e97", "id": 164217, "pageNo": 0, "pageCount": null, "pageSize": 10, "ids": null, "endTime": null, "startTime": null}, {"cardNumFive": null, "isSupportYj": null, "cityName": null, "districtName": null, "shopinfo": {"mid": "888002156410025", "good_flag": null, "new_flag": null, "short_name": "\u535a\u58eb\u86d9", "short_name_pinyin": "boshiwa", "status": null, "address": null, "name": null, "id": "38733"}, "mid": "888002156410025", "shopId": "38733", "netid": null, "province": 901, "district": 601, "zipcode": null, "telephone": "20233243", "posDate": null, "destineTel": null, "togoTel": null, "trafficWay": null, "signBuilding": null, "businessArea": null, "selfRoom": null, "businessTime": null, "stall": null, "consume": null, "serviceFei": null, "favourable": null, "shopMemo": null, "appraise": null, "website": null, "memo": null, "payTypes": "\u6749\u5fb7\u5361", "shopTypes": "\u4e13\u5356", "consumeTypes": null, "cookTypes": null, "orderNum": 1000, "card4no": null, "card4noAcc": null, "district2": 418, "searchScope": null, "status": 1, "address": "\u5f20\u6768\u8def3611\u5f041\u53f7\u697c225-226\u53f7", "name": "\u535a\u58eb\u86d9 \u91d1\u6865\u5e97", "id": 164218, "pageNo": 0, "pageCount": null, "pageSize": 10, "ids": null, "endTime": null, "startTime": null}, {"cardNumFive": null, "isSupportYj": null, "cityName": null, "districtName": null, "shopinfo": {"mid": "888002156410025", "good_flag": null, "new_flag": null, "short_name": "\u535a\u58eb\u86d9", "short_name_pinyin": "boshiwa", "status": null, "address": null, "name": null, "id": "38733"}, "mid": "888002156410025", "shopId": "38733", "netid": null, "province": 901, "district": 601, "zipcode": null, "telephone": "33532803", "posDate": null, "destineTel": null, "togoTel": null, "trafficWay": null, "signBuilding": null, "businessArea": null, "selfRoom": null, "businessTime": null, "stall": null, "consume": null, "serviceFei": null, "favourable": null, "shopMemo": null, "appraise": null, "website": null, "memo": null, "payTypes": "\u6749\u5fb7\u5361", "shopTypes": "\u4e13\u5356", "consumeTypes": null, "cookTypes": null, "orderNum": 1000, "card4no": null, "card4noAcc": null, "district2": 404, "searchScope": null, "status": 1, "address": "\u957f\u5bff\u8def155\u53f73\u697c", "name": "\u535a\u58eb\u86d9 \u666e\u9640\u5df4\u6625\u5e97", "id": 164219, "pageNo": 0, "pageCount": null, "pageSize": 10, "ids": null, "endTime": null, "startTime": null}, {"cardNumFive": null, "isSupportYj": null, "cityName": null, "districtName": null, "shopinfo": {"mid": "888002156410025", "good_flag": null, "new_flag": null, "short_name": "\u535a\u58eb\u86d9", "short_name_pinyin": "boshiwa", "status": null, "address": null, "name": null, "id": "38733"}, "mid": "888002156410025", "shopId": "38733", "netid": null, "province": 901, "district": 601, "zipcode": null, "telephone": "59178856", "posDate": null, "destineTel": null, "togoTel": null, "trafficWay": null, "signBuilding": null, "businessArea": null, "selfRoom": null, "businessTime": null, "stall": null, "consume": null, "serviceFei": null, "favourable": null, "shopMemo": null, "appraise": null, "website": null, "memo": null, "payTypes": "\u6749\u5fb7\u5361", "shopTypes": "\u4e13\u5356", "consumeTypes": null, "cookTypes": null, "orderNum": 1000, "card4no": null, "card4noAcc": null, "district2": 411, "searchScope": null, "status": 1, "address": "\u89e3\u653e\u885795\u53f7", "name": "\u535a\u58eb\u86d9 \u5357\u7fd4\u5e97", "id": 164222, "pageNo": 0, "pageCount": null, "pageSize": 10, "ids": null, "endTime": null, "startTime": null}, {"cardNumFive": null, "isSupportYj": null, "cityName": null, "districtName": null, "shopinfo": {"mid": "888002156410025", "good_flag": null, "new_flag": null, "short_name": "\u535a\u58eb\u86d9", "short_name_pinyin": "boshiwa", "status": null, "address": null, "name": null, "id": "38733"}, "mid": "888002156410025", "shopId": "38733", "netid": null, "province": 901, "district": 601, "zipcode": null, "telephone": "50569819", "posDate": null, "destineTel": null, "togoTel": null, "trafficWay": null, "signBuilding": null, "businessArea": null, "selfRoom": null, "businessTime": null, "stall": null, "consume": null, "serviceFei": null, "favourable": null, "shopMemo": null, "appraise": null, "website": null, "memo": null, "payTypes": "\u6749\u5fb7\u5361", "shopTypes": "\u4e13\u5356", "consumeTypes": null, "cookTypes": null, "orderNum": 1000, "card4no": null, "card4noAcc": null, "district2": 418, "searchScope": null, "status": 1, "address": "\u6210\u5c71\u8def558\u53f7", "name": "\u535a\u58eb\u86d9 \u6210\u5c71\u8def\u5e97", "id": 164223, "pageNo": 0, "pageCount": null, "pageSize": 10, "ids": null, "endTime": null, "startTime": null}, {"cardNumFive": null, "isSupportYj": null, "cityName": null, "districtName": null, "shopinfo": {"mid": "888002156410025", "good_flag": null, "new_flag": null, "short_name": "\u535a\u58eb\u86d9", "short_name_pinyin": "boshiwa", "status": null, "address": null, "name": null, "id": "38733"}, "mid": "888002156410025", "shopId": "38733", "netid": null, "province": 901, "district": 601, "zipcode": null, "telephone": "63222796", "posDate": null, "destineTel": null, "togoTel": null, "trafficWay": null, "signBuilding": null, "businessArea": null, "selfRoom": null, "businessTime": null, "stall": null, "consume": null, "serviceFei": null, "favourable": null, "shopMemo": null, "appraise": null, "website": null, "memo": null, "payTypes": "\u6749\u5fb7\u5361", "shopTypes": "\u4e13\u5356", "consumeTypes": null, "cookTypes": null, "orderNum": 1000, "card4no": null, "card4noAcc": null, "district2": 401, "searchScope": null, "status": 1, "address": "\u6d59\u6c5f\u4e2d\u8def438\u53f7", "name": "\u535a\u58eb\u86d9 \u6d59\u6c5f\u4e2d\u8def\u5e97", "id": 164224, "pageNo": 0, "pageCount": null, "pageSize": 10, "ids": null, "endTime": null, "startTime": null}, {"cardNumFive": null, "isSupportYj": null, "cityName": null, "districtName": null, "shopinfo": {"mid": "888002156410025", "good_flag": null, "new_flag": null, "short_name": "\u535a\u58eb\u86d9", "short_name_pinyin": "boshiwa", "status": null, "address": null, "name": null, "id": "38733"}, "mid": "888002156410025", "shopId": "38733", "netid": null, "province": 901, "district": 601, "zipcode": null, "telephone": "62710890", "posDate": null, "destineTel": null, "togoTel": null, "trafficWay": null, "signBuilding": null, "businessArea": null, "selfRoom": null, "businessTime": null, "stall": null, "consume": null, "serviceFei": null, "favourable": null, "shopMemo": null, "appraise": null, "website": null, "memo": null, "payTypes": "\u6749\u5fb7\u5361", "shopTypes": "\u4e13\u5356", "consumeTypes": null, "cookTypes": null, "orderNum": 1000, "card4no": null, "card4noAcc": null, "district2": 404, "searchScope": null, "status": 1, "address": "\u77f3\u95e8\u4e8c\u8def211\u53f7-213\u53f7", "name": "\u535a\u58eb\u86d9 \u77f3\u95e8\u4e8c\u8def\u5e97", "id": 164226, "pageNo": 0, "pageCount": null, "pageSize": 10, "ids": null, "endTime": null, "startTime": null}], "pageLimit": 790, "size": 10}