{"pageCount": 1095, "count": 10942, "pageNo": 81, "subShopInfo": {"cardNumFive": "", "isSupportYj": "", "cityName": null, "districtName": null, "shopinfo": {"mid": null, "good_flag": null, "new_flag": null, "short_name": null, "short_name_pinyin": null, "status": null, "address": "", "name": "", "id": null}, "mid": null, "shopId": null, "netid": null, "province": 901, "district": null, "zipcode": null, "telephone": null, "posDate": null, "destineTel": null, "togoTel": null, "trafficWay": null, "signBuilding": null, "businessArea": null, "selfRoom": null, "businessTime": null, "stall": null, "consume": null, "serviceFei": null, "favourable": null, "shopMemo": "1", "appraise": null, "website": null, "memo": null, "payTypes": "", "shopTypes": "", "consumeTypes": null, "cookTypes": null, "orderNum": null, "card4no": null, "card4noAcc": null, "district2": null, "searchScope": null, "status": null, "address": "", "name": null, "id": null, "pageNo": 80, "pageCount": null, "pageSize": 10, "ids": null, "endTime": null, "startTime": null}, "list": [{"cardNumFive": null, "isSupportYj": null, "cityName": null, "districtName": null, "shopinfo": {"mid": "888002156410025", "good_flag": null, "new_flag": null, "short_name": "\u535a\u58eb\u86d9", "short_name_pinyin": "boshiwa", "status": null, "address": null, "name": null, "id": "38733"}, "mid": "888002156410025", "shopId": "38733", "netid": null, "province": 901, "district": 601, "zipcode": null, "telephone": "59526218", "posDate": null, "destineTel": null, "togoTel": null, "trafficWay": null, "signBuilding": null, "businessArea": null, "selfRoom": null, "businessTime": null, "stall": null, "consume": null, "serviceFei": null, "favourable": null, "shopMemo": null, "appraise": null, "website": null, "memo": null, "payTypes": "\u6749\u5fb7\u5361", "shopTypes": "\u4e13\u5356", "consumeTypes": null, "cookTypes": null, "orderNum": 1000, "card4no": null, "card4noAcc": null, "district2": 411, "searchScope": null, "status": 1, "address": "\u6e05\u6cb3\u8def2\u53f71\u697c", "name": "\u535a\u58eb\u86d9 \u6e05\u6cb3\u5e97", "id": 164228, "pageNo": 0, "pageCount": null, "pageSize": 10, "ids": null, "endTime": null, "startTime": null}, {"cardNumFive": null, "isSupportYj": null, "cityName": null, "districtName": null, "shopinfo": {"mid": "888002156410025", "good_flag": null, "new_flag": null, "short_name": "\u535a\u58eb\u86d9", "short_name_pinyin": "boshiwa", "status": null, "address": null, "name": null, "id": "38733"}, "mid": "888002156410025", "shopId": "38733", "netid": null, "province": 901, "district": 601, "zipcode": null, "telephone": "59526748", "posDate": null, "destineTel": null, "togoTel": null, "trafficWay": null, "signBuilding": null, "businessArea": null, "selfRoom": null, "businessTime": null, "stall": null, "consume": null, "serviceFei": null, "favourable": null, "shopMemo": null, "appraise": null, "website": null, "memo": null, "payTypes": "\u6749\u5fb7\u5361", "shopTypes": "\u4e13\u5356", "consumeTypes": null, "cookTypes": null, "orderNum": 1000, "card4no": null, "card4noAcc": null, "district2": 411, "searchScope": null, "status": 1, "address": "\u5854\u57ce\u8def335\u53f7", "name": "\u535a\u58eb\u86d9 \u5854\u57ce\u8def\u5e97", "id": 164229, "pageNo": 0, "pageCount": null, "pageSize": 10, "ids": null, "endTime": null, "startTime": null}, {"cardNumFive": null, "isSupportYj": null, "cityName": null, "districtName": null, "shopinfo": {"mid": "888002156410025", "good_flag": null, "new_flag": null, "short_name": "\u535a\u58eb\u86d9", "short_name_pinyin": "boshiwa", "status": null, "address": null, "name": null, "id": "38733"}, "mid": "888002156410025", "shopId": "38733", "netid": null, "province": 901, "district": 601, "zipcode": null, "telephone": "59107253", "posDate": null, "destineTel": null, "togoTel": null, "trafficWay": null, "signBuilding": null, "businessArea": null, "selfRoom": null, "businessTime": null, "stall": null, "consume": null, "serviceFei": null, "favourable": null, "shopMemo": null, "appraise": null, "website": null, "memo": null, "payTypes": "\u6749\u5fb7\u5361", "shopTypes": "\u4e13\u5356", "consumeTypes": null, "cookTypes": null, "orderNum": 1000, "card4no": null, "card4noAcc": null, "district2": 411, "searchScope": null, "status": 1, "address": "\u9a6c\u9646\u9547\u6a31\u82b1\u8857125\u5f0464\u53f7", "name": "\u535a\u58eb\u86d9 \u6a31\u82b1\u8857\u5e97", "id": 164230, "pageNo": 0, "pageCount": null, "pageSize": 10, "ids": null, "endTime": null, "startTime": null}, {"cardNumFive": null, "isSupportYj": null, "cityName": null, "districtName": null, "shopinfo": {"mid": "888002156410025", "good_flag": null, "new_flag": null, "short_name": "\u535a\u58eb\u86d9", "short_name_pinyin": "boshiwa", "status": null, "address": null, "name": null, "id": "38733"}, "mid": "888002156410025", "shopId": "38733", "netid": null, "province": 901, "district": 601, "zipcode": null, "telephone": "39501075", "posDate": null, "destineTel": null, "togoTel": null, "trafficWay": null, "signBuilding": null, "businessArea": null, "selfRoom": null, "businessTime": null, "stall": null, "consume": null, "serviceFei": null, "favourable": null, "shopMemo": null, "appraise": null, "website": null, "memo": null, "payTypes": "\u6749\u5fb7\u5361", "shopTypes": "\u4e13\u5356", "consumeTypes": null, "cookTypes": null, "orderNum": 1000, "card4no": null, "card4noAcc": null, "district2": 411, "searchScope": null, "status": 1, "address": "\u5b89\u4ead\u961c\u5eb7\u897f\u8def328\u53f7", "name": "\u535a\u58eb\u86d9 \u5b89\u4ead\u5e97", "id": 164231, "pageNo": 0, "pageCount": null, "pageSize": 10, "ids": null, "endTime": null, "startTime": null}, {"cardNumFive": null, "isSupportYj": null, "cityName": null, "districtName": null, "shopinfo": {"mid": "888002156410025", "good_flag": null, "new_flag": null, "short_name": "\u535a\u58eb\u86d9", "short_name_pinyin": "boshiwa", "status": null, "address": null, "name": null, "id": "38733"}, "mid": "888002156410025", "shopId": "38733", "netid": null, "province": 901, "district": 601, "zipcode": null, "telephone": "58691290", "posDate": null, "destineTel": null, "togoTel": null, "trafficWay": null, "signBuilding": null, "businessArea": null, "selfRoom": null, "businessTime": null, "stall": null, "consume": null, "serviceFei": null, "favourable": null, "shopMemo": null, "appraise": null, "website": null, "memo": null, "payTypes": "\u6749\u5fb7\u5361", "shopTypes": "\u4e13\u5356", "consumeTypes": null, "cookTypes": null, "orderNum": 1000, "card4no": null, "card4noAcc": null, "district2": 418, "searchScope": null, "status": 1, "address": "\u91d1\u9ad8\u8def1085\u53f7", "name": "\u535a\u58eb\u86d9 \u91d1\u9ad8\u8def\u5e97", "id": 164232, "pageNo": 0, "pageCount": null, "pageSize": 10, "ids": null, "endTime": null, "startTime": null}, {"cardNumFive": null, "isSupportYj": null, "cityName": null, "districtName": null, "shopinfo": {"mid": "888002156410025", "good_flag": null, "new_flag": null, "short_name": "\u535a\u58eb\u86d9", "short_name_pinyin": "boshiwa", "status": null, "address": null, "name": null, "id": "38733"}, "mid": "888002156410025", "shopId": "38733", "netid": null, "province": 901, "district": 601, "zipcode": null, "telephone": "50186612", "posDate": null, "destineTel": null, "togoTel": null, "trafficWay": null, "signBuilding": null, "businessArea": null, "selfRoom": null, "businessTime": null, "stall": null, "consume": null, "serviceFei": null, "favourable": null, "shopMemo": null, "appraise": null, "website": null, "memo": null, "payTypes": "\u6749\u5fb7\u5361", "shopTypes": "\u4e13\u5356", "consumeTypes": null, "cookTypes": null, "orderNum": 1000, "card4no": null, "card4noAcc": null, "district2": 418, "searchScope": null, "status": 1, "address": "\u9f9a\u534e\u8def147\u53f7", "name": "\u535a\u58eb\u86d9 \u9f9a\u534e\u8def\u5e97", "id": 164233, "pageNo": 0, "pageCount": null, "pageSize": 10, "ids": null, "endTime": null, "startTime": null}, {"cardNumFive": null, "isSupportYj": null, "cityName": null, "districtName": null, "shopinfo": {"mid": "888002156410025", "good_flag": null, "new_flag": null, "short_name": "\u535a\u58eb\u86d9", "short_name_pinyin": "boshiwa", "status": null, "address": null, "name": null, "id": "38733"}, "mid": "888002156410025", "shopId": "38733", "netid": null, "province": 901, "district": 601, "zipcode": null, "telephone": "33800992", "posDate": null, "destineTel": null, "togoTel": null, "trafficWay": null, "signBuilding": null, "businessArea": null, "selfRoom": null, "businessTime": null, "stall": null, "consume": null, "serviceFei": null, "favourable": null, "shopMemo": null, "appraise": null, "website": null, "memo": null, "payTypes": "\u6749\u5fb7\u5361", "shopTypes": "\u4e13\u5356", "consumeTypes": null, "cookTypes": null, "orderNum": 1000, "card4no": null, "card4noAcc": null, "district2": 415, "searchScope": null, "status": 1, "address": "\u957f\u5174\u5c9b\u51e4\u6ee8\u8def177\u53f7", "name": "\u535a\u58eb\u86d9 \u957f\u5174\u5c9b\u5e97", "id": 164234, "pageNo": 0, "pageCount": null, "pageSize": 10, "ids": null, "endTime": null, "startTime": null}, {"cardNumFive": null, "isSupportYj": null, "cityName": null, "districtName": null, "shopinfo": {"mid": "888002156410025", "good_flag": null, "new_flag": null, "short_name": "\u535a\u58eb\u86d9", "short_name_pinyin": "boshiwa", "status": null, "address": null, "name": null, "id": "38733"}, "mid": "888002156410025", "shopId": "38733", "netid": null, "province": 901, "district": 601, "zipcode": null, "telephone": "50159590", "posDate": null, "destineTel": null, "togoTel": null, "trafficWay": null, "signBuilding": null, "businessArea": null, "selfRoom": null, "businessTime": null, "stall": null, "consume": null, "serviceFei": null, "favourable": null, "shopMemo": null, "appraise": null, "website": null, "memo": null, "payTypes": "\u6749\u5fb7\u5361", "shopTypes": "\u4e13\u5356", "consumeTypes": null, "cookTypes": null, "orderNum": 1000, "card4no": null, "card4noAcc": null, "district2": 418, "searchScope": null, "status": 1, "address": "\u4e1c\u5efa\u8def482\u53f7", "name": "\u535a\u58eb\u86d9 \u4e1c\u5efa\u8def\u5e97", "id": 164236, "pageNo": 0, "pageCount": null, "pageSize": 10, "ids": null, "endTime": null, "startTime": null}, {"cardNumFive": null, "isSupportYj": null, "cityName": null, "districtName": null, "shopinfo": {"mid": "888002156410025", "good_flag": null, "new_flag": null, "short_name": "\u535a\u58eb\u86d9", "short_name_pinyin": "boshiwa", "status": null, "address": null, "name": null, "id": "38733"}, "mid": "888002156410025", "shopId": "38733", "netid": null, "province": 901, "district": 601, "zipcode": null, "telephone": "58691203", "posDate": null, "destineTel": null, "togoTel": null, "trafficWay": null, "signBuilding": null, "businessArea": null, "selfRoom": null, "businessTime": null, "stall": null, "consume": null, "serviceFei": null, "favourable": null, "shopMemo": null, "appraise": null, "website": null, "memo": null, "payTypes": "\u6749\u5fb7\u5361", "shopTypes": "\u4e13\u5356", "consumeTypes": null, "cookTypes": null, "orderNum": 1000, "card4no": null, "card4noAcc": null, "district2": 418, "searchScope": null, "status": 1, "address": "\u535a\u5174\u8def1519\u53f7", "name": "\u535a\u58eb\u86d9 \u535a\u5174\u8def\u5e97", "id": 164237, "pageNo": 0, "pageCount": null, "pageSize": 10, "ids": null, "endTime": null, "startTime": null}, {"cardNumFive": null, "isSupportYj": null, "cityName": null, "districtName": null, "shopinfo": {"mid": "888002156410025", "good_flag": null, "new_flag": null, "short_name": "\u535a\u58eb\u86d9", "short_name_pinyin": "boshiwa", "status": null, "address": null, "name": null, "id": "38733"}, "mid": "888002156410025", "shopId": "38733", "netid": null, "province": 901, "district": 601, "zipcode": null, "telephone": "67230823", "posDate": null, "destineTel": null, "togoTel": null, "trafficWay": null, "signBuilding": null, "businessArea": null, "selfRoom": null, "businessTime": null, "stall": null, "consume": null, "serviceFei": null, "favourable": null, "shopMemo": null, "appraise": null, "website": null, "memo": null, "payTypes": "\u6749\u5fb7\u5361", "shopTypes": "\u4e13\u5356", "consumeTypes": null, "cookTypes": null, "orderNum": 1000, "card4no": null, "card4noAcc": null, "district2": 414, "searchScope": null, "status": 1, "address": "\u4ead\u6797\u9547\u534e\u4ead\u8def53\u53f7", "name": "\u535a\u58eb\u86d9 \u4ead\u6797\u5e97", "id": 164238, "pageNo": 0, "pageCount": null, "pageSize": 10, "ids": null, "endTime": null, "startTime": null}], "pageLimit": 800, "size": 10}