{"pageCount": 1095, "count": 10942, "pageNo": 84, "subShopInfo": {"cardNumFive": "", "isSupportYj": "", "cityName": null, "districtName": null, "shopinfo": {"mid": null, "good_flag": null, "new_flag": null, "short_name": null, "short_name_pinyin": null, "status": null, "address": "", "name": "", "id": null}, "mid": null, "shopId": null, "netid": null, "province": 901, "district": null, "zipcode": null, "telephone": null, "posDate": null, "destineTel": null, "togoTel": null, "trafficWay": null, "signBuilding": null, "businessArea": null, "selfRoom": null, "businessTime": null, "stall": null, "consume": null, "serviceFei": null, "favourable": null, "shopMemo": "1", "appraise": null, "website": null, "memo": null, "payTypes": "", "shopTypes": "", "consumeTypes": null, "cookTypes": null, "orderNum": null, "card4no": null, "card4noAcc": null, "district2": null, "searchScope": null, "status": null, "address": "", "name": null, "id": null, "pageNo": 83, "pageCount": null, "pageSize": 10, "ids": null, "endTime": null, "startTime": null}, "list": [{"cardNumFive": null, "isSupportYj": null, "cityName": null, "districtName": null, "shopinfo": {"mid": "T00000000000007", "good_flag": "2", "new_flag": "1", "short_name": "\u535c\u8702\u83b2\u82b1", "short_name_pinyin": "bufenglianhua", "status": null, "address": null, "name": null, "id": "31302"}, "mid": "T00000000000007", "shopId": "31302", "netid": null, "province": 901, "district": 601, "zipcode": null, "telephone": "021-51361588", "posDate": "20070911", "destineTel": null, "togoTel": null, "trafficWay": null, "signBuilding": null, "businessArea": null, "selfRoom": null, "businessTime": "8:30~22:00", "stall": "\u6709", "consume": null, "serviceFei": null, "favourable": null, "shopMemo": null, "appraise": null, "website": null, "memo": null, "payTypes": "\u6749\u5fb7\u5361  \u5361\u62bc\u91d1\u6d88\u8d39", "shopTypes": "\u8d85\u5e02", "consumeTypes": null, "cookTypes": null, "orderNum": 1000, "card4no": null, "card4noAcc": null, "district2": 414, "searchScope": null, "status": 1, "address": "\u536b\u6e05\u8def858\u53f7", "name": "\u535c\u8702\u83b2\u82b1 \u91d1\u5c71\u5e97", "id": 132910, "pageNo": 0, "pageCount": null, "pageSize": 10, "ids": null, "endTime": null, "startTime": null}, {"cardNumFive": null, "isSupportYj": null, "cityName": null, "districtName": null, "shopinfo": {"mid": "T00000000000007", "good_flag": "2", "new_flag": "1", "short_name": "\u535c\u8702\u83b2\u82b1", "short_name_pinyin": "bufenglianhua", "status": null, "address": null, "name": null, "id": "31302"}, "mid": "T00000000000007", "shopId": "31302", "netid": null, "province": 901, "district": 601, "zipcode": null, "telephone": "021-51328199", "posDate": "20070910", "destineTel": null, "togoTel": null, "trafficWay": "\u8398\u90b5\u7ebf \u8398\u6d77\u7ebf", "signBuilding": null, "businessArea": null, "selfRoom": null, "businessTime": "8:30~22:00", "stall": "\u6709", "consume": null, "serviceFei": null, "favourable": null, "shopMemo": null, "appraise": null, "website": null, "memo": null, "payTypes": "\u6749\u5fb7\u5361  \u5361\u62bc\u91d1\u6d88\u8d39", "shopTypes": "\u8d85\u5e02", "consumeTypes": null, "cookTypes": null, "orderNum": 1000, "card4no": null, "card4noAcc": null, "district2": 413, "searchScope": null, "status": 1, "address": "\u5357\u5949\u516c\u8def8891\u53f7", "name": "\u535c\u8702\u83b2\u82b1 \u5357\u5949\u5e97", "id": 132911, "pageNo": 0, "pageCount": null, "pageSize": 10, "ids": null, "endTime": null, "startTime": null}, {"cardNumFive": null, "isSupportYj": null, "cityName": null, "districtName": null, "shopinfo": {"mid": "T00000000000007", "good_flag": "2", "new_flag": "1", "short_name": "\u535c\u8702\u83b2\u82b1", "short_name_pinyin": "bufenglianhua", "status": null, "address": null, "name": null, "id": "31302"}, "mid": "T00000000000007", "shopId": "31302", "netid": null, "province": 901, "district": 601, "zipcode": null, "telephone": "34500300", "posDate": "20070905", "destineTel": null, "togoTel": null, "trafficWay": "\u4e16\u535a\u5bb6\u56ed\u7ebf \u9c81\u8398\u7ebf", "signBuilding": null, "businessArea": null, "selfRoom": null, "businessTime": "8:30~10:00", "stall": "\u6709", "consume": null, "serviceFei": null, "favourable": null, "shopMemo": null, "appraise": null, "website": null, "memo": null, "payTypes": "\u6749\u5fb7\u5361  \u5361\u62bc\u91d1\u6d88\u8d39", "shopTypes": "\u8d85\u5e02", "consumeTypes": null, "cookTypes": null, "orderNum": 1000, "card4no": null, "card4noAcc": null, "district2": 409, "searchScope": null, "status": 1, "address": "\u6c5f\u6708\u8def1800\u53f7", "name": "\u535c\u8702\u83b2\u82b1 \u6d66\u6c5f\u5e97", "id": 132912, "pageNo": 0, "pageCount": null, "pageSize": 10, "ids": null, "endTime": null, "startTime": null}, {"cardNumFive": null, "isSupportYj": null, "cityName": null, "districtName": null, "shopinfo": {"mid": "T00000000000007", "good_flag": "2", "new_flag": "1", "short_name": "\u535c\u8702\u83b2\u82b1", "short_name_pinyin": "bufenglianhua", "status": null, "address": null, "name": null, "id": "31302"}, "mid": "T00000000000007", "shopId": "31302", "netid": null, "province": 901, "district": 601, "zipcode": null, "telephone": "021-54865050", "posDate": "20070912", "destineTel": null, "togoTel": null, "trafficWay": "\u516c\u4ea4953 803 92", "signBuilding": null, "businessArea": null, "selfRoom": null, "businessTime": "8:30~22:00", "stall": "\u6709", "consume": null, "serviceFei": null, "favourable": null, "shopMemo": null, "appraise": null, "website": null, "memo": null, "payTypes": "\u6749\u5fb7\u5361  \u5361\u62bc\u91d1\u6d88\u8d39", "shopTypes": "\u8d85\u5e02", "consumeTypes": null, "cookTypes": null, "orderNum": 1000, "card4no": null, "card4noAcc": null, "district2": 409, "searchScope": null, "status": 1, "address": "\u5b9d\u94ed\u8def8\u53f7", "name": "\u535c\u8702\u83b2\u82b1 \u4e03\u5b9d\u65b0\u9547\u5e97", "id": 132913, "pageNo": 0, "pageCount": null, "pageSize": 10, "ids": null, "endTime": null, "startTime": null}, {"cardNumFive": null, "isSupportYj": null, "cityName": null, "districtName": null, "shopinfo": {"mid": "T00000000000007", "good_flag": "2", "new_flag": "1", "short_name": "\u535c\u8702\u83b2\u82b1", "short_name_pinyin": "bufenglianhua", "status": null, "address": null, "name": null, "id": "31302"}, "mid": "T00000000000007", "shopId": "31302", "netid": null, "province": 901, "district": 601, "zipcode": null, "telephone": "021-68321188", "posDate": "20070904", "destineTel": null, "togoTel": null, "trafficWay": "\u516c\u4ea4973 \u4e07\u91ce\u7ebf", "signBuilding": null, "businessArea": null, "selfRoom": null, "businessTime": "8:30~22:00", "stall": "\u6709", "consume": null, "serviceFei": null, "favourable": null, "shopMemo": null, "appraise": null, "website": null, "memo": null, "payTypes": "\u6749\u5fb7\u5361  \u5361\u62bc\u91d1\u6d88\u8d39", "shopTypes": "\u8d85\u5e02", "consumeTypes": null, "cookTypes": null, "orderNum": 1000, "card4no": null, "card4noAcc": null, "district2": 418, "searchScope": null, "status": 1, "address": "\u4e0a\u5357\u8def3521\u53f7", "name": "\u535c\u8702\u83b2\u82b1 \u4e0a\u5357\u8def\u5e97", "id": 132914, "pageNo": 0, "pageCount": null, "pageSize": 10, "ids": null, "endTime": null, "startTime": null}, {"cardNumFive": null, "isSupportYj": null, "cityName": null, "districtName": null, "shopinfo": {"mid": "T00000000000007", "good_flag": "2", "new_flag": "1", "short_name": "\u535c\u8702\u83b2\u82b1", "short_name_pinyin": "bufenglianhua", "status": null, "address": null, "name": null, "id": "31302"}, "mid": "T00000000000007", "shopId": "31302", "netid": null, "province": 901, "district": 601, "zipcode": null, "telephone": "021-57703333", "posDate": "20070910", "destineTel": null, "togoTel": null, "trafficWay": "\u6caa\u677e\u7ebf \u60e0\u677e\u7ebf \u65c5\u6e381A\u7ebf", "signBuilding": null, "businessArea": null, "selfRoom": null, "businessTime": "8:30~22:00", "stall": "\u6709", "consume": null, "serviceFei": null, "favourable": null, "shopMemo": null, "appraise": null, "website": null, "memo": null, "payTypes": "\u6749\u5fb7\u5361  \u5361\u62bc\u91d1\u6d88\u8d39", "shopTypes": "\u8d85\u5e02", "consumeTypes": null, "cookTypes": null, "orderNum": 1000, "card4no": null, "card4noAcc": null, "district2": 412, "searchScope": null, "status": 1, "address": "\u8363\u4e50\u4e2d\u8def8\u53f7", "name": "\u535c\u8702\u83b2\u82b1 \u677e\u6c5f\u5e97", "id": 132915, "pageNo": 0, "pageCount": null, "pageSize": 10, "ids": null, "endTime": null, "startTime": null}, {"cardNumFive": null, "isSupportYj": null, "cityName": null, "districtName": null, "shopinfo": {"mid": "T00000000000007", "good_flag": "2", "new_flag": "1", "short_name": "\u535c\u8702\u83b2\u82b1", "short_name_pinyin": "bufenglianhua", "status": null, "address": null, "name": null, "id": "31302"}, "mid": "T00000000000007", "shopId": "31302", "netid": null, "province": 901, "district": 601, "zipcode": null, "telephone": "021-37668555", "posDate": "20070911", "destineTel": null, "togoTel": null, "trafficWay": "\u8398\u677e\u7ebf \u677e\u9648\u7ebf", "signBuilding": null, "businessArea": null, "selfRoom": null, "businessTime": "8:30~22:00", "stall": "\u6709", "consume": null, "serviceFei": null, "favourable": null, "shopMemo": null, "appraise": null, "website": null, "memo": null, "payTypes": "\u6749\u5fb7\u5361  \u5361\u62bc\u91d1\u6d88\u8d39", "shopTypes": "\u8d85\u5e02", "consumeTypes": null, "cookTypes": null, "orderNum": 1000, "card4no": null, "card4noAcc": null, "district2": 412, "searchScope": null, "status": 1, "address": "\u6587\u8bda\u8def258\u53f7", "name": "\u535c\u8702\u83b2\u82b1 \u6587\u8bda\u5e97", "id": 132917, "pageNo": 0, "pageCount": null, "pageSize": 10, "ids": null, "endTime": null, "startTime": null}, {"cardNumFive": null, "isSupportYj": null, "cityName": null, "districtName": null, "shopinfo": {"mid": "T00000000000007", "good_flag": "2", "new_flag": "1", "short_name": "\u535c\u8702\u83b2\u82b1", "short_name_pinyin": "bufenglianhua", "status": null, "address": null, "name": null, "id": "31302"}, "mid": "T00000000000007", "shopId": "31302", "netid": null, "province": 901, "district": 601, "zipcode": null, "telephone": "021-66509999", "posDate": "20070905", "destineTel": null, "togoTel": null, "trafficWay": "\u516c\u4ea4974 210 923", "signBuilding": "\u8fd1\u539f\u5e73\u8def", "businessArea": null, "selfRoom": null, "businessTime": "8:30~22:00", "stall": "\u6709", "consume": null, "serviceFei": null, "favourable": null, "shopMemo": null, "appraise": null, "website": null, "memo": null, "payTypes": "\u6749\u5fb7\u5361  \u5361\u62bc\u91d1\u6d88\u8d39", "shopTypes": "\u8d85\u5e02", "consumeTypes": null, "cookTypes": null, "orderNum": 1000, "card4no": null, "card4noAcc": null, "district2": 410, "searchScope": null, "status": 1, "address": "\u6c76\u6c34\u8def886\u53f7", "name": "\u535c\u8702\u83b2\u82b1 \u6c76\u6c34\u5e97", "id": 132918, "pageNo": 0, "pageCount": null, "pageSize": 10, "ids": null, "endTime": null, "startTime": null}, {"cardNumFive": null, "isSupportYj": null, "cityName": null, "districtName": null, "shopinfo": {"mid": "T00000000000007", "good_flag": "2", "new_flag": "1", "short_name": "\u535c\u8702\u83b2\u82b1", "short_name_pinyin": "bufenglianhua", "status": null, "address": null, "name": null, "id": "31302"}, "mid": "T00000000000007", "shopId": "31302", "netid": null, "province": 901, "district": 601, "zipcode": null, "telephone": "021-64462118", "posDate": "20070903", "destineTel": null, "togoTel": null, "trafficWay": "\u516c\u4ea487 752", "signBuilding": null, "businessArea": null, "selfRoom": null, "businessTime": "8:30~22:00", "stall": "\u6709", "consume": null, "serviceFei": null, "favourable": null, "shopMemo": null, "appraise": null, "website": null, "memo": null, "payTypes": "\u6749\u5fb7\u5361  \u5361\u62bc\u91d1\u6d88\u8d39", "shopTypes": "\u8d85\u5e02", "consumeTypes": null, "cookTypes": null, "orderNum": 1000, "card4no": null, "card4noAcc": null, "district2": 409, "searchScope": null, "status": 1, "address": "\u5434\u4e2d\u8def1218\u53f7", "name": "\u535c\u8702\u83b2\u82b1 \u5434\u4e2d\u5e97", "id": 132919, "pageNo": 0, "pageCount": null, "pageSize": 10, "ids": null, "endTime": null, "startTime": null}, {"cardNumFive": null, "isSupportYj": null, "cityName": null, "districtName": null, "shopinfo": {"mid": "T00000000000007", "good_flag": "2", "new_flag": "1", "short_name": "\u535c\u8702\u83b2\u82b1", "short_name_pinyin": "bufenglianhua", "status": null, "address": null, "name": null, "id": "31302"}, "mid": "T00000000000007", "shopId": "31302", "netid": null, "province": 901, "district": 601, "zipcode": null, "telephone": "65132833", "posDate": null, "destineTel": null, "togoTel": null, "trafficWay": null, "signBuilding": null, "businessArea": null, "selfRoom": null, "businessTime": null, "stall": null, "consume": null, "serviceFei": null, "favourable": null, "shopMemo": null, "appraise": null, "website": null, "memo": null, "payTypes": "\u6749\u5fb7\u5361", "shopTypes": "\u8d85\u5e02", "consumeTypes": null, "cookTypes": null, "orderNum": 1000, "card4no": null, "card4noAcc": null, "district2": 408, "searchScope": null, "status": 1, "address": "\u8679\u53e3\u533a\u65b0\u6e2f\u8def245\u53f7\u4e8c\u697c", "name": "\u535c\u8702\u83b2\u82b1 \u65b0\u6e2f\u5e97", "id": 132920, "pageNo": 0, "pageCount": null, "pageSize": 10, "ids": null, "endTime": null, "startTime": null}], "pageLimit": 830, "size": 10}