{"pageCount": 1095, "count": 10942, "pageNo": 82, "subShopInfo": {"cardNumFive": "", "isSupportYj": "", "cityName": null, "districtName": null, "shopinfo": {"mid": null, "good_flag": null, "new_flag": null, "short_name": null, "short_name_pinyin": null, "status": null, "address": "", "name": "", "id": null}, "mid": null, "shopId": null, "netid": null, "province": 901, "district": null, "zipcode": null, "telephone": null, "posDate": null, "destineTel": null, "togoTel": null, "trafficWay": null, "signBuilding": null, "businessArea": null, "selfRoom": null, "businessTime": null, "stall": null, "consume": null, "serviceFei": null, "favourable": null, "shopMemo": "1", "appraise": null, "website": null, "memo": null, "payTypes": "", "shopTypes": "", "consumeTypes": null, "cookTypes": null, "orderNum": null, "card4no": null, "card4noAcc": null, "district2": null, "searchScope": null, "status": null, "address": "", "name": null, "id": null, "pageNo": 81, "pageCount": null, "pageSize": 10, "ids": null, "endTime": null, "startTime": null}, "list": [{"cardNumFive": null, "isSupportYj": null, "cityName": null, "districtName": null, "shopinfo": {"mid": "888002156410025", "good_flag": null, "new_flag": null, "short_name": "\u535a\u58eb\u86d9", "short_name_pinyin": "boshiwa", "status": null, "address": null, "name": null, "id": "38733"}, "mid": "888002156410025", "shopId": "38733", "netid": null, "province": 901, "district": 601, "zipcode": null, "telephone": "52376971", "posDate": null, "destineTel": null, "togoTel": null, "trafficWay": null, "signBuilding": null, "businessArea": null, "selfRoom": null, "businessTime": null, "stall": null, "consume": null, "serviceFei": null, "favourable": null, "shopMemo": null, "appraise": null, "website": null, "memo": null, "payTypes": "\u6749\u5fb7\u5361", "shopTypes": "\u4e13\u5356", "consumeTypes": null, "cookTypes": null, "orderNum": 1000, "card4no": null, "card4noAcc": null, "district2": 406, "searchScope": null, "status": 1, "address": "\u4ed9\u971e\u8def653\u53f7", "name": "\u535a\u58eb\u86d9 \u4ed9\u971e\u8def\u5e97", "id": 164240, "pageNo": 0, "pageCount": null, "pageSize": 10, "ids": null, "endTime": null, "startTime": null}, {"cardNumFive": null, "isSupportYj": null, "cityName": null, "districtName": null, "shopinfo": {"mid": "888002156410025", "good_flag": null, "new_flag": null, "short_name": "\u535a\u58eb\u86d9", "short_name_pinyin": "boshiwa", "status": null, "address": null, "name": null, "id": "38733"}, "mid": "888002156410025", "shopId": "38733", "netid": null, "province": 901, "district": 601, "zipcode": null, "telephone": "67726826", "posDate": null, "destineTel": null, "togoTel": null, "trafficWay": null, "signBuilding": null, "businessArea": null, "selfRoom": null, "businessTime": null, "stall": null, "consume": null, "serviceFei": null, "favourable": null, "shopMemo": null, "appraise": null, "website": null, "memo": null, "payTypes": "\u6749\u5fb7\u5361", "shopTypes": "\u4e13\u5356", "consumeTypes": null, "cookTypes": null, "orderNum": 1000, "card4no": null, "card4noAcc": null, "district2": 412, "searchScope": null, "status": 1, "address": "\u4e2d\u5c71\u4e8c\u8def\u5e97180\u53f7", "name": "\u535a\u58eb\u86d9 \u4e2d\u5c71\u4e8c\u8def\u5e97", "id": 164241, "pageNo": 0, "pageCount": null, "pageSize": 10, "ids": null, "endTime": null, "startTime": null}, {"cardNumFive": null, "isSupportYj": null, "cityName": null, "districtName": null, "shopinfo": {"mid": "888002156410025", "good_flag": null, "new_flag": null, "short_name": "\u535a\u58eb\u86d9", "short_name_pinyin": "boshiwa", "status": null, "address": null, "name": null, "id": "38733"}, "mid": "888002156410025", "shopId": "38733", "netid": null, "province": 901, "district": 601, "zipcode": null, "telephone": "55128920", "posDate": null, "destineTel": null, "togoTel": null, "trafficWay": null, "signBuilding": null, "businessArea": null, "selfRoom": null, "businessTime": null, "stall": null, "consume": null, "serviceFei": null, "favourable": null, "shopMemo": null, "appraise": null, "website": null, "memo": null, "payTypes": "\u6749\u5fb7\u5361", "shopTypes": "\u4e13\u5356", "consumeTypes": null, "cookTypes": null, "orderNum": 1000, "card4no": null, "card4noAcc": null, "district2": 408, "searchScope": null, "status": 1, "address": "\u4e34\u5e73\u8def28\u53f7", "name": "\u535a\u58eb\u86d9 \u4e34\u5e73\u8def\u5e97", "id": 164242, "pageNo": 0, "pageCount": null, "pageSize": 10, "ids": null, "endTime": null, "startTime": null}, {"cardNumFive": null, "isSupportYj": null, "cityName": null, "districtName": null, "shopinfo": {"mid": "888002156410025", "good_flag": null, "new_flag": null, "short_name": "\u535a\u58eb\u86d9", "short_name_pinyin": "boshiwa", "status": null, "address": null, "name": null, "id": "38733"}, "mid": "888002156410025", "shopId": "38733", "netid": null, "province": 901, "district": 601, "zipcode": null, "telephone": "37990530", "posDate": null, "destineTel": null, "togoTel": null, "trafficWay": null, "signBuilding": null, "businessArea": null, "selfRoom": null, "businessTime": null, "stall": null, "consume": null, "serviceFei": null, "favourable": null, "shopMemo": null, "appraise": null, "website": null, "memo": null, "payTypes": "\u6749\u5fb7\u5361", "shopTypes": "\u4e13\u5356", "consumeTypes": null, "cookTypes": null, "orderNum": 1000, "card4no": null, "card4noAcc": null, "district2": 414, "searchScope": null, "status": 1, "address": "\u536b\u6e05\u897f\u8def550\u53f7", "name": "\u535a\u58eb\u86d9 \u536b\u6e05\u897f\u8def\u5e97", "id": 164243, "pageNo": 0, "pageCount": null, "pageSize": 10, "ids": null, "endTime": null, "startTime": null}, {"cardNumFive": null, "isSupportYj": null, "cityName": null, "districtName": null, "shopinfo": {"mid": "888002156410025", "good_flag": null, "new_flag": null, "short_name": "\u535a\u58eb\u86d9", "short_name_pinyin": "boshiwa", "status": null, "address": null, "name": null, "id": "38733"}, "mid": "888002156410025", "shopId": "38733", "netid": null, "province": 901, "district": 601, "zipcode": null, "telephone": "56405608", "posDate": null, "destineTel": null, "togoTel": null, "trafficWay": null, "signBuilding": null, "businessArea": null, "selfRoom": null, "businessTime": null, "stall": null, "consume": null, "serviceFei": null, "favourable": null, "shopMemo": null, "appraise": null, "website": null, "memo": null, "payTypes": "\u6749\u5fb7\u5361", "shopTypes": "\u4e13\u5356", "consumeTypes": null, "cookTypes": null, "orderNum": 1000, "card4no": null, "card4noAcc": null, "district2": 405, "searchScope": null, "status": 1, "address": "\u5ef6\u957f\u897f\u8def42\u53f7", "name": "\u535a\u58eb\u86d9 \u5ef6\u957f\u897f\u8def\u5e97", "id": 164247, "pageNo": 0, "pageCount": null, "pageSize": 10, "ids": null, "endTime": null, "startTime": null}, {"cardNumFive": null, "isSupportYj": null, "cityName": null, "districtName": null, "shopinfo": {"mid": "888002156410025", "good_flag": null, "new_flag": null, "short_name": "\u535a\u58eb\u86d9", "short_name_pinyin": "boshiwa", "status": null, "address": null, "name": null, "id": "38733"}, "mid": "888002156410025", "shopId": "38733", "netid": null, "province": 901, "district": 601, "zipcode": null, "telephone": "13761100572", "posDate": null, "destineTel": null, "togoTel": null, "trafficWay": null, "signBuilding": null, "businessArea": null, "selfRoom": null, "businessTime": null, "stall": null, "consume": null, "serviceFei": null, "favourable": null, "shopMemo": null, "appraise": null, "website": null, "memo": null, "payTypes": "\u6749\u5fb7\u5361", "shopTypes": "\u4e13\u5356", "consumeTypes": null, "cookTypes": null, "orderNum": 1000, "card4no": null, "card4noAcc": null, "district2": 408, "searchScope": null, "status": 1, "address": "\u98de\u8679\u8def366\u53f7", "name": "\u535a\u58eb\u86d9 \u98de\u8679\u8def\u5e97", "id": 164248, "pageNo": 0, "pageCount": null, "pageSize": 10, "ids": null, "endTime": null, "startTime": null}, {"cardNumFive": null, "isSupportYj": null, "cityName": null, "districtName": null, "shopinfo": {"mid": "888002156410025", "good_flag": null, "new_flag": null, "short_name": "\u535a\u58eb\u86d9", "short_name_pinyin": "boshiwa", "status": null, "address": null, "name": null, "id": "38733"}, "mid": "888002156410025", "shopId": "38733", "netid": null, "province": 901, "district": 601, "zipcode": null, "telephone": "50186610", "posDate": null, "destineTel": null, "togoTel": null, "trafficWay": null, "signBuilding": null, "businessArea": null, "selfRoom": null, "businessTime": null, "stall": null, "consume": null, "serviceFei": null, "favourable": null, "shopMemo": null, "appraise": null, "website": null, "memo": null, "payTypes": "\u6749\u5fb7\u5361", "shopTypes": "\u4e13\u5356", "consumeTypes": null, "cookTypes": null, "orderNum": 1000, "card4no": null, "card4noAcc": null, "district2": 418, "searchScope": null, "status": 1, "address": "\u82b3\u7538\u8def255\u53f72\u697c", "name": "\u535a\u58eb\u86d9 \u5927\u62c7\u6307\u5e7f\u573a\u5e97", "id": 164250, "pageNo": 0, "pageCount": null, "pageSize": 10, "ids": null, "endTime": null, "startTime": null}, {"cardNumFive": null, "isSupportYj": null, "cityName": null, "districtName": null, "shopinfo": {"mid": "888002156410025", "good_flag": null, "new_flag": null, "short_name": "\u535a\u58eb\u86d9", "short_name_pinyin": "boshiwa", "status": null, "address": null, "name": null, "id": "38733"}, "mid": "888002156410025", "shopId": "38733", "netid": null, "province": 901, "district": 601, "zipcode": null, "telephone": "37569601", "posDate": null, "destineTel": null, "togoTel": null, "trafficWay": null, "signBuilding": null, "businessArea": null, "selfRoom": null, "businessTime": null, "stall": null, "consume": null, "serviceFei": null, "favourable": null, "shopMemo": null, "appraise": null, "website": null, "memo": null, "payTypes": "\u6749\u5fb7\u5361", "shopTypes": "\u4e13\u5356", "consumeTypes": null, "cookTypes": null, "orderNum": 1000, "card4no": null, "card4noAcc": null, "district2": 413, "searchScope": null, "status": 1, "address": "\u767e\u9f50\u8def588\u53f73\u697c", "name": "\u535a\u58eb\u86d9 \u5357\u6865\u767e\u8054\u4e1c\u65b9\u5546\u53a6\u5e97", "id": 164252, "pageNo": 0, "pageCount": null, "pageSize": 10, "ids": null, "endTime": null, "startTime": null}, {"cardNumFive": null, "isSupportYj": null, "cityName": null, "districtName": null, "shopinfo": {"mid": "888002156410025", "good_flag": null, "new_flag": null, "short_name": "\u535a\u58eb\u86d9", "short_name_pinyin": "boshiwa", "status": null, "address": null, "name": null, "id": "38733"}, "mid": "888002156410025", "shopId": "38733", "netid": null, "province": 901, "district": 601, "zipcode": null, "telephone": "31169948", "posDate": null, "destineTel": null, "togoTel": null, "trafficWay": null, "signBuilding": null, "businessArea": null, "selfRoom": null, "businessTime": null, "stall": null, "consume": null, "serviceFei": null, "favourable": null, "shopMemo": null, "appraise": null, "website": null, "memo": null, "payTypes": "\u6749\u5fb7\u5361", "shopTypes": "\u4e13\u5356", "consumeTypes": null, "cookTypes": null, "orderNum": 1000, "card4no": null, "card4noAcc": null, "district2": 406, "searchScope": null, "status": 1, "address": "\u91d1\u949f\u8def999\u53f7\u4e00\u697c", "name": "\u535a\u58eb\u86d9 \u8679\u6865\u56fd\u9645\u79d1\u6280\u5e7f\u573a\u5e97", "id": 164254, "pageNo": 0, "pageCount": null, "pageSize": 10, "ids": null, "endTime": null, "startTime": null}, {"cardNumFive": null, "isSupportYj": null, "cityName": null, "districtName": null, "shopinfo": {"mid": "888002153110212", "good_flag": null, "new_flag": null, "short_name": "Bread N butter", "short_name_pinyin": "breadnbutter", "status": null, "address": null, "name": null, "id": "40021"}, "mid": "888002153110212", "shopId": "40021", "netid": null, "province": 901, "district": 601, "zipcode": null, "telephone": "33727190", "posDate": null, "destineTel": null, "togoTel": null, "trafficWay": null, "signBuilding": null, "businessArea": null, "selfRoom": null, "businessTime": null, "stall": null, "consume": null, "serviceFei": null, "favourable": null, "shopMemo": null, "appraise": null, "website": null, "memo": null, "payTypes": "\u6749\u5fb7\u5361", "shopTypes": "\u670d\u9970\u5bb6\u7eba", "consumeTypes": null, "cookTypes": null, "orderNum": 1000, "card4no": null, "card4noAcc": null, "district2": 406, "searchScope": null, "status": 1, "address": "\u957f\u5b81\u8def1018\u53f72062-2064\u94fa", "name": "Bread N butter \u957f\u5b81\u9f99\u4e4b\u68a6\u5e97", "id": 173061, "pageNo": 0, "pageCount": null, "pageSize": 10, "ids": null, "endTime": null, "startTime": null}], "pageLimit": 810, "size": 10}