{"pageCount": 1095, "count": 10942, "pageNo": 92, "subShopInfo": {"cardNumFive": "", "isSupportYj": "", "cityName": null, "districtName": null, "shopinfo": {"mid": null, "good_flag": null, "new_flag": null, "short_name": null, "short_name_pinyin": null, "status": null, "address": "", "name": "", "id": null}, "mid": null, "shopId": null, "netid": null, "province": 901, "district": null, "zipcode": null, "telephone": null, "posDate": null, "destineTel": null, "togoTel": null, "trafficWay": null, "signBuilding": null, "businessArea": null, "selfRoom": null, "businessTime": null, "stall": null, "consume": null, "serviceFei": null, "favourable": null, "shopMemo": "1", "appraise": null, "website": null, "memo": null, "payTypes": "", "shopTypes": "", "consumeTypes": null, "cookTypes": null, "orderNum": null, "card4no": null, "card4noAcc": null, "district2": null, "searchScope": null, "status": null, "address": "", "name": null, "id": null, "pageNo": 91, "pageCount": null, "pageSize": 10, "ids": null, "endTime": null, "startTime": null}, "list": [{"cardNumFive": null, "isSupportYj": null, "cityName": null, "districtName": null, "shopinfo": {"mid": "888002158130079", "good_flag": "2", "new_flag": "2", "short_name": "Costa Coffee", "short_name_pinyin": "costacoffee", "status": null, "address": null, "name": null, "id": "41742"}, "mid": "888002158130079", "shopId": "41742", "netid": null, "province": 901, "district": 601, "zipcode": null, "telephone": null, "posDate": null, "destineTel": null, "togoTel": null, "trafficWay": null, "signBuilding": null, "businessArea": null, "selfRoom": null, "businessTime": null, "stall": null, "consume": null, "serviceFei": null, "favourable": null, "shopMemo": null, "appraise": null, "website": null, "memo": null, "payTypes": "\u6749\u5fb7\u5361", "shopTypes": "\u9910\u996e", "consumeTypes": null, "cookTypes": null, "orderNum": 1000, "card4no": null, "card4noAcc": null, "district2": 403, "searchScope": null, "status": 1, "address": "\u5609\u5584\u8def303-305\u53f7\u5609\u5fa1\u5ead\u8fd1\u5efa\u56fd\u897f\u8def", "name": "COSTA   COFFE \u5609\u5584\u8def\u5e97", "id": 197971, "pageNo": 0, "pageCount": null, "pageSize": 10, "ids": null, "endTime": null, "startTime": null}, {"cardNumFive": null, "isSupportYj": null, "cityName": null, "districtName": null, "shopinfo": {"mid": "888002158130079", "good_flag": "2", "new_flag": "2", "short_name": "Costa Coffee", "short_name_pinyin": "costacoffee", "status": null, "address": null, "name": null, "id": "41742"}, "mid": "888002158130079", "shopId": "41742", "netid": null, "province": 901, "district": 601, "zipcode": null, "telephone": null, "posDate": null, "destineTel": null, "togoTel": null, "trafficWay": null, "signBuilding": null, "businessArea": null, "selfRoom": null, "businessTime": null, "stall": null, "consume": null, "serviceFei": null, "favourable": null, "shopMemo": null, "appraise": null, "website": null, "memo": null, "payTypes": "\u6749\u5fb7\u5361", "shopTypes": "\u9910\u996e", "consumeTypes": null, "cookTypes": null, "orderNum": 1000, "card4no": null, "card4noAcc": null, "district2": 408, "searchScope": null, "status": 1, "address": "\u5434\u6dde\u8def218\u53f7\u4e00\u5c42101\u5ba4", "name": "COSTA   COFFE \u5434\u6dde\u8def\u5e97", "id": 197975, "pageNo": 0, "pageCount": null, "pageSize": 10, "ids": null, "endTime": null, "startTime": null}, {"cardNumFive": null, "isSupportYj": null, "cityName": null, "districtName": null, "shopinfo": {"mid": "888002158130079", "good_flag": "2", "new_flag": "2", "short_name": "Costa Coffee", "short_name_pinyin": "costacoffee", "status": null, "address": null, "name": null, "id": "41742"}, "mid": "888002158130079", "shopId": "41742", "netid": null, "province": 901, "district": 601, "zipcode": null, "telephone": null, "posDate": null, "destineTel": null, "togoTel": null, "trafficWay": null, "signBuilding": null, "businessArea": null, "selfRoom": null, "businessTime": null, "stall": null, "consume": null, "serviceFei": null, "favourable": null, "shopMemo": null, "appraise": null, "website": null, "memo": null, "payTypes": "\u6749\u5fb7\u5361", "shopTypes": "\u9910\u996e", "consumeTypes": null, "cookTypes": null, "orderNum": 1000, "card4no": null, "card4noAcc": null, "district2": 410, "searchScope": null, "status": 1, "address": "219\u53f7T3\u680b", "name": "COSTA   COFFE \u5171\u548c\u8def\u5e97", "id": 197985, "pageNo": 0, "pageCount": null, "pageSize": 10, "ids": null, "endTime": null, "startTime": null}, {"cardNumFive": null, "isSupportYj": null, "cityName": null, "districtName": null, "shopinfo": {"mid": "888002158130079", "good_flag": "2", "new_flag": "2", "short_name": "Costa Coffee", "short_name_pinyin": "costacoffee", "status": null, "address": null, "name": null, "id": "41742"}, "mid": "888002158130079", "shopId": "41742", "netid": null, "province": 901, "district": 601, "zipcode": null, "telephone": null, "posDate": null, "destineTel": null, "togoTel": null, "trafficWay": null, "signBuilding": null, "businessArea": null, "selfRoom": null, "businessTime": null, "stall": null, "consume": null, "serviceFei": null, "favourable": null, "shopMemo": null, "appraise": null, "website": null, "memo": null, "payTypes": "\u6749\u5fb7\u5361", "shopTypes": "\u9910\u996e", "consumeTypes": null, "cookTypes": null, "orderNum": 1000, "card4no": null, "card4noAcc": null, "district2": 403, "searchScope": null, "status": 1, "address": "\u8679\u6885\u8def1801\u53f7\u4e0b\u6c89\u5f0f\u5e7f\u573aD3\u53f7\u5546\u94fa", "name": "COSTA   COFFE \u4e0a\u6d77\u6f15\u6cb3\u6cfe\u65b0\u4e1a\u56ed\u5e97", "id": 197990, "pageNo": 0, "pageCount": null, "pageSize": 10, "ids": null, "endTime": null, "startTime": null}, {"cardNumFive": null, "isSupportYj": null, "cityName": null, "districtName": null, "shopinfo": {"mid": "888002158130079", "good_flag": "2", "new_flag": "2", "short_name": "Costa Coffee", "short_name_pinyin": "costacoffee", "status": null, "address": null, "name": null, "id": "41742"}, "mid": "888002158130079", "shopId": "41742", "netid": null, "province": 901, "district": 601, "zipcode": null, "telephone": null, "posDate": null, "destineTel": null, "togoTel": null, "trafficWay": null, "signBuilding": null, "businessArea": null, "selfRoom": null, "businessTime": null, "stall": null, "consume": null, "serviceFei": null, "favourable": null, "shopMemo": null, "appraise": null, "website": null, "memo": null, "payTypes": "\u6749\u5fb7\u5361", "shopTypes": "\u9910\u996e", "consumeTypes": null, "cookTypes": null, "orderNum": 1000, "card4no": null, "card4noAcc": null, "district2": 406, "searchScope": null, "status": 1, "address": "\u4ed9\u971e\u897f\u8def88\u53f7\u4e00\u5c421330\u5ba4", "name": "COSTA   COFFE \u4e0a\u6d77\u897f\u90ca\u767e\u8054\u5e97", "id": 198129, "pageNo": 0, "pageCount": null, "pageSize": 10, "ids": null, "endTime": null, "startTime": null}, {"cardNumFive": null, "isSupportYj": null, "cityName": null, "districtName": null, "shopinfo": {"mid": "888002158130079", "good_flag": "2", "new_flag": "2", "short_name": "Costa Coffee", "short_name_pinyin": "costacoffee", "status": null, "address": null, "name": null, "id": "41742"}, "mid": "888002158130079", "shopId": "41742", "netid": null, "province": 901, "district": 601, "zipcode": null, "telephone": null, "posDate": null, "destineTel": null, "togoTel": null, "trafficWay": null, "signBuilding": null, "businessArea": null, "selfRoom": null, "businessTime": null, "stall": null, "consume": null, "serviceFei": null, "favourable": null, "shopMemo": null, "appraise": null, "website": null, "memo": null, "payTypes": "\u6749\u5fb7\u5361", "shopTypes": "\u9910\u996e", "consumeTypes": null, "cookTypes": null, "orderNum": 1000, "card4no": null, "card4noAcc": null, "district2": 416, "searchScope": null, "status": 1, "address": "\u771f\u534e\u8def888\u53f7\u5df4\u9ece\u6625\u5929\u5b9d\u5c71\u5e971\u5c422\u53f7\u5e97\u94fa", "name": "COSTA   COFFE \u5df4\u9ece\u6625\u5929\u5b9d\u5c71\u5e97", "id": 198149, "pageNo": 0, "pageCount": null, "pageSize": 10, "ids": null, "endTime": null, "startTime": null}, {"cardNumFive": null, "isSupportYj": null, "cityName": null, "districtName": null, "shopinfo": {"mid": "888002158130079", "good_flag": "2", "new_flag": "2", "short_name": "Costa Coffee", "short_name_pinyin": "costacoffee", "status": null, "address": null, "name": null, "id": "41742"}, "mid": "888002158130079", "shopId": "41742", "netid": null, "province": 901, "district": 601, "zipcode": null, "telephone": null, "posDate": null, "destineTel": null, "togoTel": null, "trafficWay": null, "signBuilding": null, "businessArea": null, "selfRoom": null, "businessTime": null, "stall": null, "consume": null, "serviceFei": null, "favourable": null, "shopMemo": null, "appraise": null, "website": null, "memo": null, "payTypes": "\u6749\u5fb7\u5361", "shopTypes": "\u9910\u996e", "consumeTypes": null, "cookTypes": null, "orderNum": 1000, "card4no": null, "card4noAcc": null, "district2": 401, "searchScope": null, "status": 1, "address": "\u798f\u5dde\u8def666\u53f71\u697c", "name": "COSTA   COFFE \u798f\u5dde\u8def\u5e97", "id": 198173, "pageNo": 0, "pageCount": null, "pageSize": 10, "ids": null, "endTime": null, "startTime": null}, {"cardNumFive": null, "isSupportYj": null, "cityName": null, "districtName": null, "shopinfo": {"mid": "888002158130079", "good_flag": "2", "new_flag": "2", "short_name": "Costa Coffee", "short_name_pinyin": "costacoffee", "status": null, "address": null, "name": null, "id": "41742"}, "mid": "888002158130079", "shopId": "41742", "netid": null, "province": 901, "district": 601, "zipcode": null, "telephone": null, "posDate": null, "destineTel": null, "togoTel": null, "trafficWay": null, "signBuilding": null, "businessArea": null, "selfRoom": null, "businessTime": null, "stall": null, "consume": null, "serviceFei": null, "favourable": null, "shopMemo": null, "appraise": null, "website": null, "memo": null, "payTypes": "\u6749\u5fb7\u5361", "shopTypes": "\u9910\u996e", "consumeTypes": null, "cookTypes": null, "orderNum": 1000, "card4no": null, "card4noAcc": null, "district2": 418, "searchScope": null, "status": 1, "address": "\u6e90\u6df1\u8def1088\u53f71\u5c4208\u300109\u5355\u5143", "name": "COSTA   COFFE \u6e90\u6df1\u8def\u5e97", "id": 198174, "pageNo": 0, "pageCount": null, "pageSize": 10, "ids": null, "endTime": null, "startTime": null}, {"cardNumFive": null, "isSupportYj": null, "cityName": null, "districtName": null, "shopinfo": {"mid": "888002158130079", "good_flag": "2", "new_flag": "2", "short_name": "Costa Coffee", "short_name_pinyin": "costacoffee", "status": null, "address": null, "name": null, "id": "41742"}, "mid": "888002158130079", "shopId": "41742", "netid": null, "province": 901, "district": 601, "zipcode": null, "telephone": null, "posDate": null, "destineTel": null, "togoTel": null, "trafficWay": null, "signBuilding": null, "businessArea": null, "selfRoom": null, "businessTime": null, "stall": null, "consume": null, "serviceFei": null, "favourable": null, "shopMemo": null, "appraise": null, "website": null, "memo": null, "payTypes": "\u6749\u5fb7\u5361", "shopTypes": "\u9910\u996e", "consumeTypes": null, "cookTypes": null, "orderNum": 1000, "card4no": null, "card4noAcc": null, "district2": 405, "searchScope": null, "status": 1, "address": "\u5149\u65b0\u8def88\u53f7\u4e00\u5c42", "name": "COSTA   COFFE \u5149\u65b0\u8def\u5e97", "id": 198569, "pageNo": 0, "pageCount": null, "pageSize": 10, "ids": null, "endTime": null, "startTime": null}, {"cardNumFive": null, "isSupportYj": null, "cityName": null, "districtName": null, "shopinfo": {"mid": "888002158130079", "good_flag": "2", "new_flag": "2", "short_name": "Costa Coffee", "short_name_pinyin": "costacoffee", "status": null, "address": null, "name": null, "id": "41742"}, "mid": "888002158130079", "shopId": "41742", "netid": null, "province": 901, "district": 601, "zipcode": null, "telephone": null, "posDate": null, "destineTel": null, "togoTel": null, "trafficWay": null, "signBuilding": null, "businessArea": null, "selfRoom": null, "businessTime": null, "stall": null, "consume": null, "serviceFei": null, "favourable": null, "shopMemo": null, "appraise": null, "website": null, "memo": null, "payTypes": "\u6749\u5fb7\u5361,", "shopTypes": "\u9910\u996e", "consumeTypes": null, "cookTypes": null, "orderNum": null, "card4no": null, "card4noAcc": null, "district2": 403, "searchScope": null, "status": 1, "address": "\u745e\u5e73\u8def68\u53f71\u5c42WE-101", "name": "\u745e\u5e73\u8def\u5e97", "id": 375966522373308416, "pageNo": 0, "pageCount": null, "pageSize": 10, "ids": null, "endTime": null, "startTime": null}], "pageLimit": 910, "size": 10}