{"pageCount": 1095, "count": 10942, "pageNo": 96, "subShopInfo": {"cardNumFive": "", "isSupportYj": "", "cityName": null, "districtName": null, "shopinfo": {"mid": null, "good_flag": null, "new_flag": null, "short_name": null, "short_name_pinyin": null, "status": null, "address": "", "name": "", "id": null}, "mid": null, "shopId": null, "netid": null, "province": 901, "district": null, "zipcode": null, "telephone": null, "posDate": null, "destineTel": null, "togoTel": null, "trafficWay": null, "signBuilding": null, "businessArea": null, "selfRoom": null, "businessTime": null, "stall": null, "consume": null, "serviceFei": null, "favourable": null, "shopMemo": "1", "appraise": null, "website": null, "memo": null, "payTypes": "", "shopTypes": "", "consumeTypes": null, "cookTypes": null, "orderNum": null, "card4no": null, "card4noAcc": null, "district2": null, "searchScope": null, "status": null, "address": "", "name": null, "id": null, "pageNo": 95, "pageCount": null, "pageSize": 10, "ids": null, "endTime": null, "startTime": null}, "list": [{"cardNumFive": null, "isSupportYj": null, "cityName": null, "districtName": null, "shopinfo": {"mid": "888888856610012", "good_flag": "2", "new_flag": "2", "short_name": "\u8fbe\u8299\u59ae", "short_name_pinyin": "dafuni", "status": null, "address": null, "name": null, "id": "31375"}, "mid": "888888856610012", "shopId": "31375", "netid": null, "province": 901, "district": 601, "zipcode": null, "telephone": "58621223", "posDate": "20081105", "destineTel": null, "togoTel": null, "trafficWay": "\u516c\u4ea4971 453", "signBuilding": null, "businessArea": null, "selfRoom": null, "businessTime": null, "stall": null, "consume": null, "serviceFei": null, "favourable": null, "shopMemo": null, "appraise": null, "website": null, "memo": null, "payTypes": "\u6749\u5fb7\u5361", "shopTypes": "\u4e13\u5356", "consumeTypes": null, "cookTypes": null, "orderNum": 1000, "card4no": null, "card4noAcc": null, "district2": 418, "searchScope": null, "status": 1, "address": "\u590f\u78a7\u8def261\u53f7", "name": "\u8fbe\u8299\u59ae \u9ad8\u6865\u4e16\u7eaa\u8054\u534e\u5e97", "id": 133044, "pageNo": 0, "pageCount": null, "pageSize": 10, "ids": null, "endTime": null, "startTime": null}, {"cardNumFive": null, "isSupportYj": null, "cityName": null, "districtName": null, "shopinfo": {"mid": "888888856610012", "good_flag": "2", "new_flag": "2", "short_name": "\u8fbe\u8299\u59ae", "short_name_pinyin": "dafuni", "status": null, "address": null, "name": null, "id": "31375"}, "mid": "888888856610012", "shopId": "31375", "netid": null, "province": 901, "district": 601, "zipcode": null, "telephone": "65346729", "posDate": "20081105", "destineTel": null, "togoTel": null, "trafficWay": "\u516c\u4ea4934 \u5730\u94c1\u516b\u53f7\u7ebf", "signBuilding": null, "businessArea": null, "selfRoom": null, "businessTime": "10:00~22:00", "stall": null, "consume": null, "serviceFei": null, "favourable": null, "shopMemo": null, "appraise": null, "website": null, "memo": null, "payTypes": "\u6749\u5fb7\u5361", "shopTypes": "\u4e13\u5356", "consumeTypes": null, "cookTypes": null, "orderNum": 1000, "card4no": null, "card4noAcc": null, "district2": 407, "searchScope": null, "status": 1, "address": "\u56fd\u987a\u4e1c\u8def122-124\u53f7", "name": "\u8fbe\u8299\u59ae \u56fd\u987a\u5e97", "id": 133046, "pageNo": 0, "pageCount": null, "pageSize": 10, "ids": null, "endTime": null, "startTime": null}, {"cardNumFive": null, "isSupportYj": null, "cityName": null, "districtName": null, "shopinfo": {"mid": "888888856610012", "good_flag": "2", "new_flag": "2", "short_name": "\u8fbe\u8299\u59ae", "short_name_pinyin": "dafuni", "status": null, "address": null, "name": null, "id": "31375"}, "mid": "888888856610012", "shopId": "31375", "netid": null, "province": 901, "district": 601, "zipcode": null, "telephone": "59535756", "posDate": "20081105", "destineTel": null, "togoTel": null, "trafficWay": "\u516c\u4ea4\u6caa\u5510\u4e13\u7ebf \u65c5\u6e386A\u7ebf", "signBuilding": null, "businessArea": null, "selfRoom": null, "businessTime": "10:00~22:00", "stall": null, "consume": null, "serviceFei": null, "favourable": null, "shopMemo": null, "appraise": null, "website": null, "memo": null, "payTypes": "\u6749\u5fb7\u5361", "shopTypes": "\u4e13\u5356", "consumeTypes": null, "cookTypes": null, "orderNum": 1000, "card4no": null, "card4noAcc": null, "district2": 411, "searchScope": null, "status": 1, "address": "\u57ce\u4e2d\u8def106\u53f7\u4e00\u697c", "name": "\u8fbe\u8299\u59ae \u5609\u5b9a\u57ce\u4e2d\u5e97", "id": 133048, "pageNo": 0, "pageCount": null, "pageSize": 10, "ids": null, "endTime": null, "startTime": null}, {"cardNumFive": null, "isSupportYj": null, "cityName": null, "districtName": null, "shopinfo": {"mid": "888888856610012", "good_flag": "2", "new_flag": "2", "short_name": "\u8fbe\u8299\u59ae", "short_name_pinyin": "dafuni", "status": null, "address": null, "name": null, "id": "31375"}, "mid": "888888856610012", "shopId": "31375", "netid": null, "province": 901, "district": 601, "zipcode": null, "telephone": "59528507", "posDate": "20081105", "destineTel": null, "togoTel": null, "trafficWay": "\u516c\u4ea4\u6caa\u94b1\u4e13\u7ebf \u6caa\u5510\u4e13\u7ebf", "signBuilding": null, "businessArea": null, "selfRoom": null, "businessTime": "10:00~22:00", "stall": null, "consume": null, "serviceFei": null, "favourable": null, "shopMemo": null, "appraise": null, "website": null, "memo": null, "payTypes": "\u6749\u5fb7\u5361", "shopTypes": "\u4e13\u5356", "consumeTypes": null, "cookTypes": null, "orderNum": 1000, "card4no": null, "card4noAcc": null, "district2": 411, "searchScope": null, "status": 1, "address": "\u535a\u4e50\u8def99\u53f7", "name": "\u8fbe\u8299\u59ae \u5609\u5b9a\u6b27\u5c1a\u5e97", "id": 133049, "pageNo": 0, "pageCount": null, "pageSize": 10, "ids": null, "endTime": null, "startTime": null}, {"cardNumFive": null, "isSupportYj": null, "cityName": null, "districtName": null, "shopinfo": {"mid": "888888856610012", "good_flag": "2", "new_flag": "2", "short_name": "\u8fbe\u8299\u59ae", "short_name_pinyin": "dafuni", "status": null, "address": null, "name": null, "id": "31375"}, "mid": "888888856610012", "shopId": "31375", "netid": null, "province": 901, "district": 601, "zipcode": null, "telephone": "59912703", "posDate": "20081105", "destineTel": null, "togoTel": null, "trafficWay": "\u516c\u4ea4\u6caa\u5510\u4e13\u7ebf \u65c5\u6e386A\u7ebf", "signBuilding": null, "businessArea": null, "selfRoom": null, "businessTime": "10:00~22:00", "stall": null, "consume": null, "serviceFei": null, "favourable": null, "shopMemo": null, "appraise": null, "website": null, "memo": null, "payTypes": "\u6749\u5fb7\u5361", "shopTypes": "\u4e13\u5356", "consumeTypes": null, "cookTypes": null, "orderNum": 1000, "card4no": null, "card4noAcc": null, "district2": 411, "searchScope": null, "status": 1, "address": "\u6e05\u6cb3\u8def43\u53f7", "name": "\u8fbe\u8299\u59ae \u5609\u5b9a\u6e05\u6cb3\u5e97", "id": 133050, "pageNo": 0, "pageCount": null, "pageSize": 10, "ids": null, "endTime": null, "startTime": null}, {"cardNumFive": null, "isSupportYj": null, "cityName": null, "districtName": null, "shopinfo": {"mid": "888888856610012", "good_flag": "2", "new_flag": "2", "short_name": "\u8fbe\u8299\u59ae", "short_name_pinyin": "dafuni", "status": null, "address": null, "name": null, "id": "31375"}, "mid": "888888856610012", "shopId": "31375", "netid": null, "province": 901, "district": 601, "zipcode": null, "telephone": null, "posDate": "20081105", "destineTel": null, "togoTel": null, "trafficWay": "\u516c\u4ea4948 561", "signBuilding": null, "businessArea": null, "selfRoom": null, "businessTime": "10:00~22:00", "stall": null, "consume": null, "serviceFei": null, "favourable": null, "shopMemo": null, "appraise": null, "website": null, "memo": null, "payTypes": "\u6749\u5fb7\u5361", "shopTypes": "\u4e13\u5356", "consumeTypes": null, "cookTypes": null, "orderNum": 1000, "card4no": null, "card4noAcc": null, "district2": 411, "searchScope": null, "status": 1, "address": "\u65b0\u90c1\u8def807\u53f7", "name": "\u8fbe\u8299\u59ae \u5609\u5b9a\u65b0\u90c1\u5e97", "id": 133051, "pageNo": 0, "pageCount": null, "pageSize": 10, "ids": null, "endTime": null, "startTime": null}, {"cardNumFive": null, "isSupportYj": null, "cityName": null, "districtName": null, "shopinfo": {"mid": "888888856610012", "good_flag": "2", "new_flag": "2", "short_name": "\u8fbe\u8299\u59ae", "short_name_pinyin": "dafuni", "status": null, "address": null, "name": null, "id": "31375"}, "mid": "888888856610012", "shopId": "31375", "netid": null, "province": 901, "district": 601, "zipcode": null, "telephone": "50306657", "posDate": "20081105", "destineTel": null, "togoTel": null, "trafficWay": "\u516c\u4ea4790 \u6cf0\u9ad8\u7ebf", "signBuilding": null, "businessArea": null, "selfRoom": null, "businessTime": "10:00~22:00", "stall": null, "consume": null, "serviceFei": null, "favourable": null, "shopMemo": null, "appraise": null, "website": null, "memo": null, "payTypes": "\u6749\u5fb7\u5361", "shopTypes": "\u4e13\u5356", "consumeTypes": null, "cookTypes": null, "orderNum": 1000, "card4no": null, "card4noAcc": null, "district2": 418, "searchScope": null, "status": 1, "address": "\u78a7\u4e91\u8def279\u53f7", "name": "\u8fbe\u8299\u59ae \u91d1\u6865\u5bb6\u4e50\u798f\u5e97", "id": 133052, "pageNo": 0, "pageCount": null, "pageSize": 10, "ids": null, "endTime": null, "startTime": null}, {"cardNumFive": null, "isSupportYj": null, "cityName": null, "districtName": null, "shopinfo": {"mid": "888888856610012", "good_flag": "2", "new_flag": "2", "short_name": "\u8fbe\u8299\u59ae", "short_name_pinyin": "dafuni", "status": null, "address": null, "name": null, "id": "31375"}, "mid": "888888856610012", "shopId": "31375", "netid": null, "province": 901, "district": 601, "zipcode": null, "telephone": "67247047", "posDate": "20081105", "destineTel": null, "togoTel": null, "trafficWay": "\u516c\u4ea4\u536b\u6885\u7ebf \u91d1\u5c713\u8def", "signBuilding": null, "businessArea": null, "selfRoom": null, "businessTime": "10:00~22:00", "stall": null, "consume": null, "serviceFei": null, "favourable": null, "shopMemo": null, "appraise": null, "website": null, "memo": null, "payTypes": "\u6749\u5fb7\u5361", "shopTypes": "\u4e13\u5356", "consumeTypes": null, "cookTypes": null, "orderNum": 1000, "card4no": null, "card4noAcc": null, "district2": 414, "searchScope": null, "status": 1, "address": "\u536b\u6e05\u897f\u8def477\u53f7", "name": "\u8fbe\u8299\u59ae \u91d1\u5c71\u4e50\u8d2d\u5e97", "id": 133053, "pageNo": 0, "pageCount": null, "pageSize": 10, "ids": null, "endTime": null, "startTime": null}, {"cardNumFive": null, "isSupportYj": null, "cityName": null, "districtName": null, "shopinfo": {"mid": "888888856610012", "good_flag": "2", "new_flag": "2", "short_name": "\u8fbe\u8299\u59ae", "short_name_pinyin": "dafuni", "status": null, "address": null, "name": null, "id": "31375"}, "mid": "888888856610012", "shopId": "31375", "netid": null, "province": 901, "district": 601, "zipcode": null, "telephone": "67310421", "posDate": "20081105", "destineTel": null, "togoTel": null, "trafficWay": "\u516c\u4ea4980 930", "signBuilding": null, "businessArea": null, "selfRoom": null, "businessTime": "10:00~22:00", "stall": null, "consume": null, "serviceFei": null, "favourable": null, "shopMemo": null, "appraise": null, "website": null, "memo": null, "payTypes": "\u6749\u5fb7\u5361", "shopTypes": "\u4e13\u5356", "consumeTypes": null, "cookTypes": null, "orderNum": 1000, "card4no": null, "card4noAcc": null, "district2": 414, "searchScope": null, "status": 1, "address": "\u4e07\u5b89\u8857692\u53f7", "name": "\u8fbe\u8299\u59ae \u91d1\u5c71\u4e07\u5b89\u5e97", "id": 133054, "pageNo": 0, "pageCount": null, "pageSize": 10, "ids": null, "endTime": null, "startTime": null}, {"cardNumFive": null, "isSupportYj": null, "cityName": null, "districtName": null, "shopinfo": {"mid": "888888856610012", "good_flag": "2", "new_flag": "2", "short_name": "\u8fbe\u8299\u59ae", "short_name_pinyin": "dafuni", "status": null, "address": null, "name": null, "id": "31375"}, "mid": "888888856610012", "shopId": "31375", "netid": null, "province": 901, "district": 601, "zipcode": null, "telephone": "57972313", "posDate": "20081105", "destineTel": null, "togoTel": null, "trafficWay": "\u516c\u4ea4\u83b2\u536b\u4e13\u7ebf \u5916\u536b\u4e13\u7ebf", "signBuilding": null, "businessArea": null, "selfRoom": null, "businessTime": "10:00~22:00", "stall": null, "consume": null, "serviceFei": null, "favourable": null, "shopMemo": null, "appraise": null, "website": null, "memo": null, "payTypes": "\u6749\u5fb7\u5361", "shopTypes": "\u4e13\u5356", "consumeTypes": null, "cookTypes": null, "orderNum": 1000, "card4no": null, "card4noAcc": null, "district2": 414, "searchScope": null, "status": 1, "address": "\u91d1\u4e00\u4e1c\u8def268\u53f7", "name": "\u8fbe\u8299\u59ae \u91d1\u4e00\u5e97", "id": 133056, "pageNo": 0, "pageCount": null, "pageSize": 10, "ids": null, "endTime": null, "startTime": null}], "pageLimit": 950, "size": 10}