{"pageCount": 1095, "count": 10942, "pageNo": 99, "subShopInfo": {"cardNumFive": "", "isSupportYj": "", "cityName": null, "districtName": null, "shopinfo": {"mid": null, "good_flag": null, "new_flag": null, "short_name": null, "short_name_pinyin": null, "status": null, "address": "", "name": "", "id": null}, "mid": null, "shopId": null, "netid": null, "province": 901, "district": null, "zipcode": null, "telephone": null, "posDate": null, "destineTel": null, "togoTel": null, "trafficWay": null, "signBuilding": null, "businessArea": null, "selfRoom": null, "businessTime": null, "stall": null, "consume": null, "serviceFei": null, "favourable": null, "shopMemo": "1", "appraise": null, "website": null, "memo": null, "payTypes": "", "shopTypes": "", "consumeTypes": null, "cookTypes": null, "orderNum": null, "card4no": null, "card4noAcc": null, "district2": null, "searchScope": null, "status": null, "address": "", "name": null, "id": null, "pageNo": 98, "pageCount": null, "pageSize": 10, "ids": null, "endTime": null, "startTime": null}, "list": [{"cardNumFive": null, "isSupportYj": null, "cityName": null, "districtName": null, "shopinfo": {"mid": "888888856610012", "good_flag": "2", "new_flag": "2", "short_name": "\u8fbe\u8299\u59ae", "short_name_pinyin": "dafuni", "status": null, "address": null, "name": null, "id": "31375"}, "mid": "888888856610012", "shopId": "31375", "netid": null, "province": 901, "district": 601, "zipcode": null, "telephone": "68708601", "posDate": "20081111", "destineTel": null, "togoTel": null, "trafficWay": "\u516c\u4ea4980 \u5730\u94c1\u516b\u53f7\u7ebf", "signBuilding": null, "businessArea": null, "selfRoom": null, "businessTime": "8:00~20:00", "stall": null, "consume": null, "serviceFei": null, "favourable": null, "shopMemo": null, "appraise": null, "website": null, "memo": null, "payTypes": "\u6749\u5fb7\u5361", "shopTypes": "\u4e13\u5356", "consumeTypes": null, "cookTypes": null, "orderNum": 1000, "card4no": null, "card4noAcc": null, "district2": 418, "searchScope": null, "status": 1, "address": "\u9f50\u6cb3\u8def258\u53f7", "name": "\u8fbe\u8299\u59ae \u4e0a\u5357\u5e97", "id": 133086, "pageNo": 0, "pageCount": null, "pageSize": 10, "ids": null, "endTime": null, "startTime": null}, {"cardNumFive": null, "isSupportYj": null, "cityName": null, "districtName": null, "shopinfo": {"mid": "888888856610012", "good_flag": "2", "new_flag": "2", "short_name": "\u8fbe\u8299\u59ae", "short_name_pinyin": "dafuni", "status": null, "address": null, "name": null, "id": "31375"}, "mid": "888888856610012", "shopId": "31375", "netid": null, "province": 901, "district": 601, "zipcode": null, "telephone": "62247161", "posDate": "20081105", "destineTel": null, "togoTel": null, "trafficWay": "\u516c\u4ea4112 830", "signBuilding": null, "businessArea": null, "selfRoom": null, "businessTime": "9:00~21:00", "stall": null, "consume": null, "serviceFei": null, "favourable": null, "shopMemo": null, "appraise": null, "website": null, "memo": null, "payTypes": "\u6749\u5fb7\u5361", "shopTypes": "\u4e13\u5356", "consumeTypes": null, "cookTypes": null, "orderNum": 1000, "card4no": null, "card4noAcc": null, "district2": 405, "searchScope": null, "status": 1, "address": "\u77f3\u6cc9\u8def82\u53f7", "name": "\u8fbe\u8299\u59ae \u77f3\u6cc9\u5e97", "id": 133087, "pageNo": 0, "pageCount": null, "pageSize": 10, "ids": null, "endTime": null, "startTime": null}, {"cardNumFive": null, "isSupportYj": null, "cityName": null, "districtName": null, "shopinfo": {"mid": "888888856610012", "good_flag": "2", "new_flag": "2", "short_name": "\u8fbe\u8299\u59ae", "short_name_pinyin": "dafuni", "status": null, "address": null, "name": null, "id": "31375"}, "mid": "888888856610012", "shopId": "31375", "netid": null, "province": 901, "district": 601, "zipcode": null, "telephone": "62092481", "posDate": "20081105", "destineTel": null, "togoTel": null, "trafficWay": "\u516c\u4ea4127 71", "signBuilding": null, "businessArea": null, "selfRoom": null, "businessTime": "9:00~21:30", "stall": null, "consume": null, "serviceFei": null, "favourable": null, "shopMemo": null, "appraise": null, "website": null, "memo": null, "payTypes": "\u6749\u5fb7\u5361", "shopTypes": "\u4e13\u5356", "consumeTypes": null, "cookTypes": null, "orderNum": 1000, "card4no": null, "card4noAcc": null, "district2": 406, "searchScope": null, "status": 1, "address": "\u6c34\u57ce\u8def288\u53f7", "name": "\u8fbe\u8299\u59ae \u6c34\u57ce\u4e8c\u5e97", "id": 133090, "pageNo": 0, "pageCount": null, "pageSize": 10, "ids": null, "endTime": null, "startTime": null}, {"cardNumFive": null, "isSupportYj": null, "cityName": null, "districtName": null, "shopinfo": {"mid": "888888856610012", "good_flag": "2", "new_flag": "2", "short_name": "\u8fbe\u8299\u59ae", "short_name_pinyin": "dafuni", "status": null, "address": null, "name": null, "id": "31375"}, "mid": "888888856610012", "shopId": "31375", "netid": null, "province": 901, "district": 601, "zipcode": null, "telephone": "65931885", "posDate": "20081105", "destineTel": null, "togoTel": null, "trafficWay": "\u516c\u4ea4518 597", "signBuilding": null, "businessArea": null, "selfRoom": null, "businessTime": "10:00~22:00", "stall": null, "consume": null, "serviceFei": null, "favourable": null, "shopMemo": null, "appraise": null, "website": null, "memo": null, "payTypes": "\u6749\u5fb7\u5361", "shopTypes": "\u4e13\u5356", "consumeTypes": null, "cookTypes": null, "orderNum": 1000, "card4no": null, "card4noAcc": null, "district2": 408, "searchScope": null, "status": 1, "address": "\u8f66\u7ad9\u5357\u8def330\u53f72\u53f7-6\u53f7", "name": "\u8fbe\u8299\u59ae \u6c34\u7535\u5e97", "id": 133091, "pageNo": 0, "pageCount": null, "pageSize": 10, "ids": null, "endTime": null, "startTime": null}, {"cardNumFive": null, "isSupportYj": null, "cityName": null, "districtName": null, "shopinfo": {"mid": "888888856610012", "good_flag": "2", "new_flag": "2", "short_name": "\u8fbe\u8299\u59ae", "short_name_pinyin": "dafuni", "status": null, "address": null, "name": null, "id": "31375"}, "mid": "888888856610012", "shopId": "31375", "netid": null, "province": 901, "district": 601, "zipcode": null, "telephone": "54165022", "posDate": "20081105", "destineTel": null, "togoTel": null, "trafficWay": "\u516c\u4ea4803 753", "signBuilding": null, "businessArea": null, "selfRoom": null, "businessTime": "10:00~22:00", "stall": null, "consume": null, "serviceFei": null, "favourable": null, "shopMemo": null, "appraise": null, "website": null, "memo": null, "payTypes": "\u6749\u5fb7\u5361", "shopTypes": "\u4e13\u5356", "consumeTypes": null, "cookTypes": null, "orderNum": 1000, "card4no": null, "card4noAcc": null, "district2": 409, "searchScope": null, "status": 1, "address": "\u6c34\u6e05\u8def1390\u53f7", "name": "\u8fbe\u8299\u59ae \u6c34\u6e05\u5e97", "id": 133092, "pageNo": 0, "pageCount": null, "pageSize": 10, "ids": null, "endTime": null, "startTime": null}, {"cardNumFive": null, "isSupportYj": null, "cityName": null, "districtName": null, "shopinfo": {"mid": "888888856610012", "good_flag": "2", "new_flag": "2", "short_name": "\u8fbe\u8299\u59ae", "short_name_pinyin": "dafuni", "status": null, "address": null, "name": null, "id": "31375"}, "mid": "888888856610012", "shopId": "31375", "netid": null, "province": 901, "district": 601, "zipcode": null, "telephone": "65406593", "posDate": "20081105", "destineTel": null, "togoTel": null, "trafficWay": "\u516c\u4ea4167 123\u533a\u95f4", "signBuilding": null, "businessArea": null, "selfRoom": null, "businessTime": "10:00~22:00", "stall": null, "consume": null, "serviceFei": null, "favourable": null, "shopMemo": null, "appraise": null, "website": null, "memo": null, "payTypes": "\u6749\u5fb7\u5361", "shopTypes": "\u4e13\u5356", "consumeTypes": null, "cookTypes": null, "orderNum": 1000, "card4no": null, "card4noAcc": null, "district2": 408, "searchScope": null, "status": 1, "address": "\u56db\u5ddd\u5317\u8def1915\u53f7", "name": "\u8fbe\u8299\u59ae \u56db\u516b\u5e97", "id": 133093, "pageNo": 0, "pageCount": null, "pageSize": 10, "ids": null, "endTime": null, "startTime": null}, {"cardNumFive": null, "isSupportYj": null, "cityName": null, "districtName": null, "shopinfo": {"mid": "888888856610012", "good_flag": "2", "new_flag": "2", "short_name": "\u8fbe\u8299\u59ae", "short_name_pinyin": "dafuni", "status": null, "address": null, "name": null, "id": "31375"}, "mid": "888888856610012", "shopId": "31375", "netid": null, "province": 901, "district": 601, "zipcode": null, "telephone": "56710593", "posDate": "20081105", "destineTel": null, "togoTel": null, "trafficWay": "\u516c\u4ea418 \u5730\u94c1\u516b\u53f7\u7ebf", "signBuilding": null, "businessArea": null, "selfRoom": null, "businessTime": "9:00~21:00", "stall": null, "consume": null, "serviceFei": null, "favourable": null, "shopMemo": null, "appraise": null, "website": null, "memo": null, "payTypes": "\u6749\u5fb7\u5361", "shopTypes": "\u4e13\u5356", "consumeTypes": null, "cookTypes": null, "orderNum": 1000, "card4no": null, "card4noAcc": null, "district2": 408, "searchScope": null, "status": 1, "address": "\u56db\u5ddd\u5317\u8def2173\u53f7", "name": "\u8fbe\u8299\u59ae \u56db\u5ddd\u4e5d\u5e97", "id": 133094, "pageNo": 0, "pageCount": null, "pageSize": 10, "ids": null, "endTime": null, "startTime": null}, {"cardNumFive": null, "isSupportYj": null, "cityName": null, "districtName": null, "shopinfo": {"mid": "888888856610012", "good_flag": "2", "new_flag": "2", "short_name": "\u8fbe\u8299\u59ae", "short_name_pinyin": "dafuni", "status": null, "address": null, "name": null, "id": "31375"}, "mid": "888888856610012", "shopId": "31375", "netid": null, "province": 901, "district": 601, "zipcode": null, "telephone": "56668579", "posDate": "20081105", "destineTel": null, "togoTel": null, "trafficWay": "\u516c\u4ea4167 123\u533a\u95f4", "signBuilding": null, "businessArea": null, "selfRoom": null, "businessTime": "9:00~21:00", "stall": null, "consume": null, "serviceFei": null, "favourable": null, "shopMemo": null, "appraise": null, "website": null, "memo": null, "payTypes": "\u6749\u5fb7\u5361", "shopTypes": "\u4e13\u5356", "consumeTypes": null, "cookTypes": null, "orderNum": 1000, "card4no": null, "card4noAcc": null, "district2": 408, "searchScope": null, "status": 1, "address": "\u56db\u5ddd\u5317\u8def1808-\u4e01", "name": "\u8fbe\u8299\u59ae \u56db\u5ddd\u4e94\u5e97", "id": 133095, "pageNo": 0, "pageCount": null, "pageSize": 10, "ids": null, "endTime": null, "startTime": null}, {"cardNumFive": null, "isSupportYj": null, "cityName": null, "districtName": null, "shopinfo": {"mid": "888888856610012", "good_flag": "2", "new_flag": "2", "short_name": "\u8fbe\u8299\u59ae", "short_name_pinyin": "dafuni", "status": null, "address": null, "name": null, "id": "31375"}, "mid": "888888856610012", "shopId": "31375", "netid": null, "province": 901, "district": 601, "zipcode": null, "telephone": "56719227", "posDate": "20081105", "destineTel": null, "togoTel": null, "trafficWay": "\u516c\u4ea4167 \u5730\u94c1\u516b\u53f7\u7ebf", "signBuilding": null, "businessArea": null, "selfRoom": null, "businessTime": "7:30~21:00", "stall": null, "consume": null, "serviceFei": null, "favourable": null, "shopMemo": null, "appraise": null, "website": null, "memo": null, "payTypes": "\u6749\u5fb7\u5361", "shopTypes": "\u4e13\u5356", "consumeTypes": null, "cookTypes": null, "orderNum": 1000, "card4no": null, "card4noAcc": null, "district2": 408, "searchScope": null, "status": 1, "address": "\u56db\u5ddd\u5317\u8def2139\u53f7", "name": "\u8fbe\u8299\u59ae \u56db\u516d\u5e97", "id": 133096, "pageNo": 0, "pageCount": null, "pageSize": 10, "ids": null, "endTime": null, "startTime": null}, {"cardNumFive": null, "isSupportYj": null, "cityName": null, "districtName": null, "shopinfo": {"mid": "888888856610012", "good_flag": "2", "new_flag": "2", "short_name": "\u8fbe\u8299\u59ae", "short_name_pinyin": "dafuni", "status": null, "address": null, "name": null, "id": "31375"}, "mid": "888888856610012", "shopId": "31375", "netid": null, "province": 901, "district": 601, "zipcode": null, "telephone": "57728920", "posDate": "20081105", "destineTel": null, "togoTel": null, "trafficWay": "\u516c\u4ea4\u6caa\u677e\u4e13\u7ebf \u6caa\u53e4\u7ebf", "signBuilding": null, "businessArea": null, "selfRoom": null, "businessTime": "9:00~21:00", "stall": null, "consume": null, "serviceFei": null, "favourable": null, "shopMemo": null, "appraise": null, "website": null, "memo": null, "payTypes": "\u6749\u5fb7\u5361", "shopTypes": "\u4e13\u5356", "consumeTypes": null, "cookTypes": null, "orderNum": 1000, "card4no": null, "card4noAcc": null, "district2": 412, "searchScope": null, "status": 1, "address": "\u8363\u4e50\u4e2d\u8def552-652\u53f7", "name": "\u8fbe\u8299\u59ae \u677e\u6c5f\u5927\u6da6\u53d1\u5e97", "id": 133097, "pageNo": 0, "pageCount": null, "pageSize": 10, "ids": null, "endTime": null, "startTime": null}], "pageLimit": 980, "size": 10}