{"pageCount": 1095, "count": 10942, "pageNo": 97, "subShopInfo": {"cardNumFive": "", "isSupportYj": "", "cityName": null, "districtName": null, "shopinfo": {"mid": null, "good_flag": null, "new_flag": null, "short_name": null, "short_name_pinyin": null, "status": null, "address": "", "name": "", "id": null}, "mid": null, "shopId": null, "netid": null, "province": 901, "district": null, "zipcode": null, "telephone": null, "posDate": null, "destineTel": null, "togoTel": null, "trafficWay": null, "signBuilding": null, "businessArea": null, "selfRoom": null, "businessTime": null, "stall": null, "consume": null, "serviceFei": null, "favourable": null, "shopMemo": "1", "appraise": null, "website": null, "memo": null, "payTypes": "", "shopTypes": "", "consumeTypes": null, "cookTypes": null, "orderNum": null, "card4no": null, "card4noAcc": null, "district2": null, "searchScope": null, "status": null, "address": "", "name": null, "id": null, "pageNo": 96, "pageCount": null, "pageSize": 10, "ids": null, "endTime": null, "startTime": null}, "list": [{"cardNumFive": null, "isSupportYj": null, "cityName": null, "districtName": null, "shopinfo": {"mid": "888888856610012", "good_flag": "2", "new_flag": "2", "short_name": "\u8fbe\u8299\u59ae", "short_name_pinyin": "dafuni", "status": null, "address": null, "name": null, "id": "31375"}, "mid": "888888856610012", "shopId": "31375", "netid": null, "province": 901, "district": 601, "zipcode": null, "telephone": "37631421", "posDate": "20081105", "destineTel": null, "togoTel": null, "trafficWay": "\u516c\u4ea492B 759", "signBuilding": null, "businessArea": null, "selfRoom": null, "businessTime": "10:00~22:00", "stall": null, "consume": null, "serviceFei": null, "favourable": null, "shopMemo": null, "appraise": null, "website": null, "memo": null, "payTypes": "\u6749\u5fb7\u5361", "shopTypes": "\u4e13\u5356", "consumeTypes": null, "cookTypes": null, "orderNum": 1000, "card4no": null, "card4noAcc": null, "district2": 412, "searchScope": null, "status": 1, "address": "\u4e5d\u4ead\u5927\u8857481-483\u53f7", "name": "\u8fbe\u8299\u59ae \u4e5d\u4ead\u4e8c\u5e97", "id": 133059, "pageNo": 0, "pageCount": null, "pageSize": 10, "ids": null, "endTime": null, "startTime": null}, {"cardNumFive": null, "isSupportYj": null, "cityName": null, "districtName": null, "shopinfo": {"mid": "888888856610012", "good_flag": "2", "new_flag": "2", "short_name": "\u8fbe\u8299\u59ae", "short_name_pinyin": "dafuni", "status": null, "address": null, "name": null, "id": "31375"}, "mid": "888888856610012", "shopId": "31375", "netid": null, "province": 901, "district": 601, "zipcode": null, "telephone": "68195291", "posDate": "20081105", "destineTel": null, "togoTel": null, "trafficWay": "\u516c\u4ea4451 \u6caa\u5357\u7ebf", "signBuilding": null, "businessArea": null, "selfRoom": null, "businessTime": "8:00~22:00", "stall": null, "consume": null, "serviceFei": null, "favourable": null, "shopMemo": null, "appraise": null, "website": null, "memo": null, "payTypes": "\u6749\u5fb7\u5361", "shopTypes": "\u4e13\u5356", "consumeTypes": null, "cookTypes": null, "orderNum": 1000, "card4no": null, "card4noAcc": null, "district2": 418, "searchScope": null, "status": 1, "address": "\u79c0\u6cbf\u8def1032-1080\u53f7", "name": "\u8fbe\u8299\u59ae \u5eb7\u6865\u4e8c\u5e97", "id": 133060, "pageNo": 0, "pageCount": null, "pageSize": 10, "ids": null, "endTime": null, "startTime": null}, {"cardNumFive": null, "isSupportYj": null, "cityName": null, "districtName": null, "shopinfo": {"mid": "888888856610012", "good_flag": "2", "new_flag": "2", "short_name": "\u8fbe\u8299\u59ae", "short_name_pinyin": "dafuni", "status": null, "address": null, "name": null, "id": "31375"}, "mid": "888888856610012", "shopId": "31375", "netid": null, "province": 901, "district": 601, "zipcode": null, "telephone": "65701163", "posDate": "20081105", "destineTel": null, "togoTel": null, "trafficWay": "\u516c\u4ea4145 \u5730\u94c1\u516b\u53f7\u7ebf", "signBuilding": null, "businessArea": null, "selfRoom": null, "businessTime": "9:00~21:00", "stall": null, "consume": null, "serviceFei": null, "favourable": null, "shopMemo": null, "appraise": null, "website": null, "memo": null, "payTypes": "\u6749\u5fb7\u5361", "shopTypes": "\u4e13\u5356", "consumeTypes": null, "cookTypes": null, "orderNum": 1000, "card4no": null, "card4noAcc": null, "district2": 407, "searchScope": null, "status": 1, "address": "\u63a7\u6c5f\u8def1063\u53f7", "name": "\u8fbe\u8299\u59ae \u63a7\u6c5f\u5409\u4e70\u76db\u5e97", "id": 133061, "pageNo": 0, "pageCount": null, "pageSize": 10, "ids": null, "endTime": null, "startTime": null}, {"cardNumFive": null, "isSupportYj": null, "cityName": null, "districtName": null, "shopinfo": {"mid": "888888856610012", "good_flag": "2", "new_flag": "2", "short_name": "\u8fbe\u8299\u59ae", "short_name_pinyin": "dafuni", "status": null, "address": null, "name": null, "id": "31375"}, "mid": "888888856610012", "shopId": "31375", "netid": null, "province": 901, "district": 601, "zipcode": null, "telephone": "56837224", "posDate": "20081104", "destineTel": null, "togoTel": null, "trafficWay": "\u516c\u4ea446 \u5730\u94c1\u4e00\u53f7\u7ebf", "signBuilding": null, "businessArea": null, "selfRoom": null, "businessTime": "9:00~21:00", "stall": null, "consume": null, "serviceFei": null, "favourable": null, "shopMemo": null, "appraise": null, "website": null, "memo": null, "payTypes": "\u6749\u5fb7\u5361", "shopTypes": "\u4e13\u5356", "consumeTypes": null, "cookTypes": null, "orderNum": 1000, "card4no": null, "card4noAcc": null, "district2": 410, "searchScope": null, "status": 1, "address": "\u4e34\u6c7e\u8def813\u53f7", "name": "\u8fbe\u8299\u59ae \u4e34\u6c7e\u5e97", "id": 133062, "pageNo": 0, "pageCount": null, "pageSize": 10, "ids": null, "endTime": null, "startTime": null}, {"cardNumFive": null, "isSupportYj": null, "cityName": null, "districtName": null, "shopinfo": {"mid": "888888856610012", "good_flag": "2", "new_flag": "2", "short_name": "\u8fbe\u8299\u59ae", "short_name_pinyin": "dafuni", "status": null, "address": null, "name": null, "id": "31375"}, "mid": "888888856610012", "shopId": "31375", "netid": null, "province": 901, "district": 601, "zipcode": null, "telephone": "61239025", "posDate": "20081105", "destineTel": null, "togoTel": null, "trafficWay": "\u516c\u4ea4145 \u5730\u94c1\u56db\u53f7\u7ebf", "signBuilding": null, "businessArea": null, "selfRoom": null, "businessTime": "9:00~21:00", "stall": null, "consume": null, "serviceFei": null, "favourable": null, "shopMemo": null, "appraise": null, "website": null, "memo": null, "payTypes": "\u6749\u5fb7\u5361", "shopTypes": "\u4e13\u5356", "consumeTypes": null, "cookTypes": null, "orderNum": 1000, "card4no": null, "card4noAcc": null, "district2": 408, "searchScope": null, "status": 1, "address": "\u4e34\u5e73\u8def123\u53f7\u745e\u8679\u65b0\u57ce\u4e8c\u671f\u5546\u573a\u5185\u4e00\u5c42", "name": "\u8fbe\u8299\u59ae \u4e34\u5e73\u5e97", "id": 133063, "pageNo": 0, "pageCount": null, "pageSize": 10, "ids": null, "endTime": null, "startTime": null}, {"cardNumFive": null, "isSupportYj": null, "cityName": null, "districtName": null, "shopinfo": {"mid": "888888856610012", "good_flag": "2", "new_flag": "2", "short_name": "\u8fbe\u8299\u59ae", "short_name_pinyin": "dafuni", "status": null, "address": null, "name": null, "id": "31375"}, "mid": "888888856610012", "shopId": "31375", "netid": null, "province": 901, "district": 601, "zipcode": null, "telephone": "50822173", "posDate": "20081105", "destineTel": null, "togoTel": null, "trafficWay": "\u516c\u4ea4986\u533a\u95f4 978", "signBuilding": null, "businessArea": null, "selfRoom": null, "businessTime": "9:00~21:00", "stall": null, "consume": null, "serviceFei": null, "favourable": null, "shopMemo": null, "appraise": null, "website": null, "memo": null, "payTypes": "\u6749\u5fb7\u5361", "shopTypes": "\u4e13\u5356", "consumeTypes": null, "cookTypes": null, "orderNum": 1000, "card4no": null, "card4noAcc": null, "district2": 418, "searchScope": null, "status": 1, "address": "\u7075\u5ca9\u5357\u8def1161\u53f7", "name": "\u8fbe\u8299\u59ae \u7075\u5ca9\u5357\u8def\u5e97", "id": 133065, "pageNo": 0, "pageCount": null, "pageSize": 10, "ids": null, "endTime": null, "startTime": null}, {"cardNumFive": null, "isSupportYj": null, "cityName": null, "districtName": null, "shopinfo": {"mid": "888888856610012", "good_flag": "2", "new_flag": "2", "short_name": "\u8fbe\u8299\u59ae", "short_name_pinyin": "dafuni", "status": null, "address": null, "name": null, "id": "31375"}, "mid": "888888856610012", "shopId": "31375", "netid": null, "province": 901, "district": 601, "zipcode": null, "telephone": "64355678", "posDate": "20081105", "destineTel": null, "togoTel": null, "trafficWay": "\u516c\u4ea4816 \u8398\u8377\u7ebf", "signBuilding": null, "businessArea": null, "selfRoom": null, "businessTime": "9:00~21:00", "stall": null, "consume": null, "serviceFei": null, "favourable": null, "shopMemo": null, "appraise": null, "website": null, "memo": null, "payTypes": "\u6749\u5fb7\u5361", "shopTypes": "\u4e13\u5356", "consumeTypes": null, "cookTypes": null, "orderNum": 1000, "card4no": null, "card4noAcc": null, "district2": 409, "searchScope": null, "status": 1, "address": "\u6c5f\u5ddd\u8def249\u53f7", "name": "\u8fbe\u8299\u59ae \u95f5\u884c\u5e97", "id": 133067, "pageNo": 0, "pageCount": null, "pageSize": 10, "ids": null, "endTime": null, "startTime": null}, {"cardNumFive": null, "isSupportYj": null, "cityName": null, "districtName": null, "shopinfo": {"mid": "888888856610012", "good_flag": "2", "new_flag": "2", "short_name": "\u8fbe\u8299\u59ae", "short_name_pinyin": "dafuni", "status": null, "address": null, "name": null, "id": "31375"}, "mid": "888888856610012", "shopId": "31375", "netid": null, "province": 901, "district": 601, "zipcode": null, "telephone": "66783825", "posDate": "20081109", "destineTel": null, "togoTel": null, "trafficWay": "\u516c\u4ea4952B \u5b9d\u6768\u7801\u5934\u4e13\u7ebf", "signBuilding": null, "businessArea": null, "selfRoom": null, "businessTime": "9:00~21:00", "stall": null, "consume": null, "serviceFei": null, "favourable": null, "shopMemo": null, "appraise": null, "website": null, "memo": null, "payTypes": "\u6749\u5fb7\u5361", "shopTypes": "\u4e13\u5356", "consumeTypes": null, "cookTypes": null, "orderNum": 1000, "card4no": null, "card4noAcc": null, "district2": 416, "searchScope": null, "status": 1, "address": "\u7261\u4e39\u6c5f\u8def1621\u53f7", "name": "\u8fbe\u8299\u59ae \u7261\u4e39\u6c5f\u4e8c\u5e97", "id": 133068, "pageNo": 0, "pageCount": null, "pageSize": 10, "ids": null, "endTime": null, "startTime": null}, {"cardNumFive": null, "isSupportYj": null, "cityName": null, "districtName": null, "shopinfo": {"mid": "888888856610012", "good_flag": "2", "new_flag": "2", "short_name": "\u8fbe\u8299\u59ae", "short_name_pinyin": "dafuni", "status": null, "address": null, "name": null, "id": "31375"}, "mid": "888888856610012", "shopId": "31375", "netid": null, "province": 901, "district": 601, "zipcode": null, "telephone": "66595195", "posDate": "20081105", "destineTel": null, "togoTel": null, "trafficWay": "\u516c\u4ea4952 \u5b9d\u6768\u7801\u5934\u4e13\u7ebf", "signBuilding": null, "businessArea": null, "selfRoom": null, "businessTime": "9:00~21:00", "stall": null, "consume": null, "serviceFei": null, "favourable": null, "shopMemo": null, "appraise": null, "website": null, "memo": null, "payTypes": "\u6749\u5fb7\u5361", "shopTypes": "\u4e13\u5356", "consumeTypes": null, "cookTypes": null, "orderNum": 1000, "card4no": null, "card4noAcc": null, "district2": 416, "searchScope": null, "status": 1, "address": "\u7261\u4e39\u6c5f\u8def1238\u53f7", "name": "\u8fbe\u8299\u59ae \u7261\u4e39\u6c5f\u4e09\u5e97", "id": 133069, "pageNo": 0, "pageCount": null, "pageSize": 10, "ids": null, "endTime": null, "startTime": null}, {"cardNumFive": null, "isSupportYj": null, "cityName": null, "districtName": null, "shopinfo": {"mid": "888888856610012", "good_flag": "2", "new_flag": "2", "short_name": "\u8fbe\u8299\u59ae", "short_name_pinyin": "dafuni", "status": null, "address": null, "name": null, "id": "31375"}, "mid": "888888856610012", "shopId": "31375", "netid": null, "province": 901, "district": 601, "zipcode": null, "telephone": "58024090", "posDate": "20081105", "destineTel": null, "togoTel": null, "trafficWay": "\u516c\u4ea4\u5858\u5f6d\u82a6\u7ebf \u5357\u65b0\u4e13\u7ebf", "signBuilding": null, "businessArea": null, "selfRoom": null, "businessTime": "9:00~21:00", "stall": null, "consume": null, "serviceFei": null, "favourable": null, "shopMemo": null, "appraise": null, "website": null, "memo": null, "payTypes": "\u6749\u5fb7\u5361", "shopTypes": "\u4e13\u5356", "consumeTypes": null, "cookTypes": null, "orderNum": 1000, "card4no": null, "card4noAcc": null, "district2": 418, "searchScope": null, "status": 1, "address": "\u5357\u95e8\u5927\u885718\u53f7", "name": "\u8fbe\u8299\u59ae \u5357\u6c47\u4e50\u8d2d\u5e97", "id": 133071, "pageNo": 0, "pageCount": null, "pageSize": 10, "ids": null, "endTime": null, "startTime": null}], "pageLimit": 960, "size": 10}