{"pageCount": 1095, "count": 10942, "pageNo": 90, "subShopInfo": {"cardNumFive": "", "isSupportYj": "", "cityName": null, "districtName": null, "shopinfo": {"mid": null, "good_flag": null, "new_flag": null, "short_name": null, "short_name_pinyin": null, "status": null, "address": "", "name": "", "id": null}, "mid": null, "shopId": null, "netid": null, "province": 901, "district": null, "zipcode": null, "telephone": null, "posDate": null, "destineTel": null, "togoTel": null, "trafficWay": null, "signBuilding": null, "businessArea": null, "selfRoom": null, "businessTime": null, "stall": null, "consume": null, "serviceFei": null, "favourable": null, "shopMemo": "1", "appraise": null, "website": null, "memo": null, "payTypes": "", "shopTypes": "", "consumeTypes": null, "cookTypes": null, "orderNum": null, "card4no": null, "card4noAcc": null, "district2": null, "searchScope": null, "status": null, "address": "", "name": null, "id": null, "pageNo": 89, "pageCount": null, "pageSize": 10, "ids": null, "endTime": null, "startTime": null}, "list": [{"cardNumFive": null, "isSupportYj": null, "cityName": null, "districtName": null, "shopinfo": {"mid": "888888858130031", "good_flag": null, "new_flag": null, "short_name": "COLD STONE", "short_name_pinyin": "coldstone", "status": null, "address": null, "name": null, "id": "32304"}, "mid": "888888858130031", "shopId": "32304", "netid": null, "province": 901, "district": 601, "zipcode": null, "telephone": "20233040", "posDate": null, "destineTel": null, "togoTel": null, "trafficWay": null, "signBuilding": null, "businessArea": null, "selfRoom": null, "businessTime": null, "stall": null, "consume": null, "serviceFei": null, "favourable": null, "shopMemo": null, "appraise": null, "website": null, "memo": null, "payTypes": "\u6749\u5fb7\u5361", "shopTypes": "\u9910\u996e", "consumeTypes": null, "cookTypes": null, "orderNum": 1000, "card4no": null, "card4noAcc": null, "district2": 418, "searchScope": null, "status": 1, "address": "\u5f20\u6768\u8def3611\u5f047\u53f7140-141\u5355\u5143", "name": "COLD STONE \u5f20\u6768\u8def\u5e97", "id": 138111, "pageNo": 0, "pageCount": null, "pageSize": 10, "ids": null, "endTime": null, "startTime": null}, {"cardNumFive": null, "isSupportYj": null, "cityName": null, "districtName": null, "shopinfo": {"mid": "888888858130031", "good_flag": null, "new_flag": null, "short_name": "COLD STONE", "short_name_pinyin": "coldstone", "status": null, "address": null, "name": null, "id": "38250"}, "mid": "888888858130031", "shopId": "38250", "netid": null, "province": 901, "district": 601, "zipcode": null, "telephone": null, "posDate": null, "destineTel": null, "togoTel": null, "trafficWay": null, "signBuilding": null, "businessArea": null, "selfRoom": null, "businessTime": null, "stall": null, "consume": null, "serviceFei": null, "favourable": null, "shopMemo": null, "appraise": null, "website": null, "memo": null, "payTypes": "\u6749\u5fb7\u5361", "shopTypes": "\u9910\u996e", "consumeTypes": null, "cookTypes": null, "orderNum": 1000, "card4no": null, "card4noAcc": null, "district2": 405, "searchScope": null, "status": 1, "address": "\u771f\u5149\u8def1288\u53f71\u697c", "name": "COLD STONE \u767e\u8054\u4e2d\u73af\u5e97", "id": 163239, "pageNo": 0, "pageCount": null, "pageSize": 10, "ids": null, "endTime": null, "startTime": null}, {"cardNumFive": null, "isSupportYj": null, "cityName": null, "districtName": null, "shopinfo": {"mid": "888888858130031", "good_flag": null, "new_flag": null, "short_name": "COLD STONE", "short_name_pinyin": "coldstone", "status": null, "address": null, "name": null, "id": "38250"}, "mid": "888888858130031", "shopId": "38250", "netid": null, "province": 901, "district": 601, "zipcode": null, "telephone": null, "posDate": null, "destineTel": null, "togoTel": null, "trafficWay": null, "signBuilding": null, "businessArea": null, "selfRoom": null, "businessTime": null, "stall": null, "consume": null, "serviceFei": null, "favourable": null, "shopMemo": null, "appraise": null, "website": null, "memo": null, "payTypes": "\u6749\u5fb7\u5361", "shopTypes": "\u9910\u996e", "consumeTypes": null, "cookTypes": null, "orderNum": 1000, "card4no": null, "card4noAcc": null, "district2": 408, "searchScope": null, "status": 1, "address": "\u897f\u6c5f\u6e7e\u8def388\u53f7", "name": "COLD STONE \u8679\u53e3\u9f99\u4e4b\u68a6\u5e97", "id": 163240, "pageNo": 0, "pageCount": null, "pageSize": 10, "ids": null, "endTime": null, "startTime": null}, {"cardNumFive": null, "isSupportYj": null, "cityName": null, "districtName": null, "shopinfo": {"mid": "888888858130031", "good_flag": null, "new_flag": null, "short_name": "COLD STONE", "short_name_pinyin": "coldstone", "status": null, "address": null, "name": null, "id": "38250"}, "mid": "888888858130031", "shopId": "38250", "netid": null, "province": 901, "district": 601, "zipcode": null, "telephone": null, "posDate": null, "destineTel": null, "togoTel": null, "trafficWay": null, "signBuilding": null, "businessArea": null, "selfRoom": null, "businessTime": null, "stall": null, "consume": null, "serviceFei": null, "favourable": null, "shopMemo": null, "appraise": null, "website": null, "memo": null, "payTypes": "\u6749\u5fb7\u5361", "shopTypes": "\u9910\u996e", "consumeTypes": null, "cookTypes": null, "orderNum": 1000, "card4no": null, "card4noAcc": null, "district2": 418, "searchScope": null, "status": 1, "address": "\u82b1\u6728\u8def1378\u53f7", "name": "COLD STONE \u82b1\u6728\u8def\u5e97", "id": 163241, "pageNo": 0, "pageCount": null, "pageSize": 10, "ids": null, "endTime": null, "startTime": null}, {"cardNumFive": null, "isSupportYj": null, "cityName": null, "districtName": null, "shopinfo": {"mid": "888888858130031", "good_flag": null, "new_flag": null, "short_name": "COLD STONE", "short_name_pinyin": "coldstone", "status": null, "address": null, "name": null, "id": "32304"}, "mid": "888888858130031", "shopId": "32304", "netid": null, "province": 901, "district": 601, "zipcode": null, "telephone": null, "posDate": null, "destineTel": null, "togoTel": null, "trafficWay": null, "signBuilding": null, "businessArea": null, "selfRoom": null, "businessTime": null, "stall": null, "consume": null, "serviceFei": null, "favourable": null, "shopMemo": null, "appraise": null, "website": null, "memo": null, "payTypes": "\u6749\u5fb7\u5361", "shopTypes": "\u9910\u996e", "consumeTypes": null, "cookTypes": null, "orderNum": 1000, "card4no": null, "card4noAcc": null, "district2": 406, "searchScope": null, "status": 1, "address": "\u5929\u5c71\u8def889\u53f7", "name": "COLD STONE \u5929\u5c71\u767e\u76db\u5e97", "id": 168497, "pageNo": 0, "pageCount": null, "pageSize": 10, "ids": null, "endTime": null, "startTime": null}, {"cardNumFive": null, "isSupportYj": null, "cityName": null, "districtName": null, "shopinfo": {"mid": "888888858130031", "good_flag": null, "new_flag": null, "short_name": "COLD STONE", "short_name_pinyin": "coldstone", "status": null, "address": null, "name": null, "id": "32304"}, "mid": "888888858130031", "shopId": "32304", "netid": null, "province": 901, "district": 601, "zipcode": null, "telephone": null, "posDate": null, "destineTel": null, "togoTel": null, "trafficWay": null, "signBuilding": null, "businessArea": null, "selfRoom": null, "businessTime": null, "stall": null, "consume": null, "serviceFei": null, "favourable": null, "shopMemo": null, "appraise": null, "website": null, "memo": null, "payTypes": "\u6749\u5fb7\u5361", "shopTypes": "\u9910\u996e", "consumeTypes": null, "cookTypes": null, "orderNum": 1000, "card4no": null, "card4noAcc": null, "district2": 401, "searchScope": null, "status": 1, "address": "\u6587\u660c\u8def12\u53f7", "name": "COLD STONE \u6587\u660c\u8def\u5e97", "id": 168498, "pageNo": 0, "pageCount": null, "pageSize": 10, "ids": null, "endTime": null, "startTime": null}, {"cardNumFive": null, "isSupportYj": null, "cityName": null, "districtName": null, "shopinfo": {"mid": "888888858130031", "good_flag": null, "new_flag": null, "short_name": "COLD STONE", "short_name_pinyin": "coldstone", "status": null, "address": null, "name": null, "id": "32304"}, "mid": "888888858130031", "shopId": "32304", "netid": null, "province": 901, "district": 601, "zipcode": null, "telephone": null, "posDate": null, "destineTel": null, "togoTel": null, "trafficWay": null, "signBuilding": null, "businessArea": null, "selfRoom": null, "businessTime": null, "stall": null, "consume": null, "serviceFei": null, "favourable": null, "shopMemo": null, "appraise": null, "website": null, "memo": null, "payTypes": "\u6749\u5fb7\u5361", "shopTypes": "\u9910\u996e", "consumeTypes": null, "cookTypes": null, "orderNum": 1000, "card4no": null, "card4noAcc": null, "district2": 416, "searchScope": null, "status": 1, "address": "\u4e00\u4e8c\u516b\u7eaa\u5ff5\u8def988\u5f041\u53f74\u697c", "name": "COLD STONE \u7eaa\u5ff5\u8def\u5e97", "id": 168499, "pageNo": 0, "pageCount": null, "pageSize": 10, "ids": null, "endTime": null, "startTime": null}, {"cardNumFive": null, "isSupportYj": null, "cityName": null, "districtName": null, "shopinfo": {"mid": "888888856410012", "good_flag": "2", "new_flag": "2", "short_name": "\u806a\u660e\u5a03\u5987\u5a74\u7528\u54c1", "short_name_pinyin": "congmingwafuyingyongpin", "status": null, "address": null, "name": null, "id": "31371"}, "mid": "888888856410012", "shopId": "31371", "netid": null, "province": 901, "district": 601, "zipcode": null, "telephone": "33825733", "posDate": "20080703", "destineTel": null, "togoTel": null, "trafficWay": null, "signBuilding": null, "businessArea": "80\u5e73\u65b9\u7c73", "selfRoom": null, "businessTime": null, "stall": "\u65e0", "consume": "250\u5143", "serviceFei": null, "favourable": null, "shopMemo": null, "appraise": null, "website": null, "memo": null, "payTypes": "\u6749\u5fb7\u5361", "shopTypes": "\u4e13\u5356", "consumeTypes": null, "cookTypes": null, "orderNum": 1000, "card4no": null, "card4noAcc": null, "district2": 418, "searchScope": null, "status": 1, "address": "\u5ddd\u6c99\u9547\u6c11\u8d24\u8def82\u53f7", "name": "\u806a\u660e\u5a03\u5987\u5a74\u7528\u54c1 \u6c11\u8d24\u5e97", "id": 133015, "pageNo": 0, "pageCount": null, "pageSize": 10, "ids": null, "endTime": null, "startTime": null}, {"cardNumFive": null, "isSupportYj": null, "cityName": null, "districtName": null, "shopinfo": {"mid": "888888856410012", "good_flag": "2", "new_flag": "2", "short_name": "\u806a\u660e\u5a03\u5987\u5a74\u7528\u54c1", "short_name_pinyin": "congmingwafuyingyongpin", "status": null, "address": null, "name": null, "id": "31371"}, "mid": "888888856410012", "shopId": "31371", "netid": null, "province": 901, "district": 601, "zipcode": null, "telephone": "33825733", "posDate": "20080703", "destineTel": null, "togoTel": null, "trafficWay": null, "signBuilding": null, "businessArea": "80\u5e73\u65b9\u7c73", "selfRoom": null, "businessTime": null, "stall": "\u65e0", "consume": "250\u5143", "serviceFei": null, "favourable": null, "shopMemo": null, "appraise": null, "website": null, "memo": null, "payTypes": "\u6749\u5fb7\u5361", "shopTypes": "\u4e13\u5356", "consumeTypes": null, "cookTypes": null, "orderNum": 1000, "card4no": null, "card4noAcc": null, "district2": 418, "searchScope": null, "status": 1, "address": "\u5ddd\u6c99\u9547\u65b0\u5ddd\u8def866\u53f7", "name": "\u806a\u660e\u5a03\u5987\u5a74\u7528\u54c1 \u65b0\u5ddd\u5e97", "id": 133016, "pageNo": 0, "pageCount": null, "pageSize": 10, "ids": null, "endTime": null, "startTime": null}, {"cardNumFive": null, "isSupportYj": null, "cityName": null, "districtName": null, "shopinfo": {"mid": "888888856410012", "good_flag": "2", "new_flag": "2", "short_name": "\u806a\u660e\u5a03\u5987\u5a74\u7528\u54c1", "short_name_pinyin": "congmingwafuyingyongpin", "status": null, "address": null, "name": null, "id": "31371"}, "mid": "888888856410012", "shopId": "31371", "netid": null, "province": 901, "district": 601, "zipcode": null, "telephone": "33825733", "posDate": "20080703", "destineTel": null, "togoTel": null, "trafficWay": null, "signBuilding": null, "businessArea": "80\u5e73\u65b9\u7c73", "selfRoom": null, "businessTime": null, "stall": "\u65e0", "consume": "250\u5143", "serviceFei": null, "favourable": null, "shopMemo": null, "appraise": null, "website": null, "memo": null, "payTypes": "\u6749\u5fb7\u5361", "shopTypes": "\u4e13\u5356", "consumeTypes": null, "cookTypes": null, "orderNum": 1000, "card4no": null, "card4noAcc": null, "district2": 418, "searchScope": null, "status": 1, "address": "\u5eb7\u6865\u79c0\u6cbf\u8def1132\u53f748\u53f7\u67dc", "name": "\u806a\u660e\u5a03\u5987\u5a74\u7528\u54c1 \u79c0\u6cbf\u5e97", "id": 133017, "pageNo": 0, "pageCount": null, "pageSize": 10, "ids": null, "endTime": null, "startTime": null}], "pageLimit": 890, "size": 10}