{"pageCount": 1095, "count": 10942, "pageNo": 105, "subShopInfo": {"cardNumFive": "", "isSupportYj": "", "cityName": null, "districtName": null, "shopinfo": {"mid": null, "good_flag": null, "new_flag": null, "short_name": null, "short_name_pinyin": null, "status": null, "address": "", "name": "", "id": null}, "mid": null, "shopId": null, "netid": null, "province": 901, "district": null, "zipcode": null, "telephone": null, "posDate": null, "destineTel": null, "togoTel": null, "trafficWay": null, "signBuilding": null, "businessArea": null, "selfRoom": null, "businessTime": null, "stall": null, "consume": null, "serviceFei": null, "favourable": null, "shopMemo": "1", "appraise": null, "website": null, "memo": null, "payTypes": "", "shopTypes": "", "consumeTypes": null, "cookTypes": null, "orderNum": null, "card4no": null, "card4noAcc": null, "district2": null, "searchScope": null, "status": null, "address": "", "name": null, "id": null, "pageNo": 104, "pageCount": null, "pageSize": 10, "ids": null, "endTime": null, "startTime": null}, "list": [{"cardNumFive": null, "isSupportYj": null, "cityName": null, "districtName": null, "shopinfo": {"mid": "888888854410139", "good_flag": "2", "new_flag": "2", "short_name": "\u5927\u6c5f\u7f8e\u7279\u98df\u54c1", "short_name_pinyin": "dajiangmeiteshipin", "status": null, "address": null, "name": null, "id": "31382"}, "mid": "888888854410139", "shopId": "31382", "netid": null, "province": 901, "district": 601, "zipcode": null, "telephone": null, "posDate": null, "destineTel": null, "togoTel": null, "trafficWay": null, "signBuilding": null, "businessArea": null, "selfRoom": null, "businessTime": null, "stall": null, "consume": null, "serviceFei": null, "favourable": null, "shopMemo": null, "appraise": null, "website": null, "memo": null, "payTypes": "\u6749\u5fb7\u5361", "shopTypes": "\u4e13\u5356", "consumeTypes": null, "cookTypes": null, "orderNum": 1000, "card4no": null, "card4noAcc": null, "district2": 406, "searchScope": null, "status": 1, "address": "\u6b66\u5937\u8def269\u5f04\u53f7\u4e59-2", "name": "\u5927\u6c5f\u7f8e\u7279\u98df\u54c1 \u6b66\u5937\u8def\u4e8c\u5e97", "id": 170693, "pageNo": 0, "pageCount": null, "pageSize": 10, "ids": null, "endTime": null, "startTime": null}, {"cardNumFive": null, "isSupportYj": null, "cityName": null, "districtName": null, "shopinfo": {"mid": "888888856810009", "good_flag": "2", "new_flag": "2", "short_name": "\u5927\u674e\u76ae\u5177", "short_name_pinyin": "dalipiju", "status": null, "address": null, "name": null, "id": "31384"}, "mid": "888888856810009", "shopId": "31384", "netid": null, "province": 901, "district": 601, "zipcode": null, "telephone": "51962503", "posDate": "20090219", "destineTel": null, "togoTel": null, "trafficWay": null, "signBuilding": null, "businessArea": null, "selfRoom": null, "businessTime": "10:00~22:00", "stall": null, "consume": null, "serviceFei": null, "favourable": null, "shopMemo": null, "appraise": null, "website": null, "memo": null, "payTypes": "\u6749\u5fb7\u5361", "shopTypes": "\u4e13\u5356", "consumeTypes": null, "cookTypes": null, "orderNum": 1000, "card4no": null, "card4noAcc": null, "district2": 418, "searchScope": null, "status": 1, "address": "\u4e16\u7eaa\u5927\u90532002\u53f7\u5317\u5e7f\u573aD3-76\u5546\u94fa", "name": "\u5927\u674e\u76ae\u5177 \u4e16\u7eaa\u5927\u9053\u5e97", "id": 133164, "pageNo": 0, "pageCount": null, "pageSize": 10, "ids": null, "endTime": null, "startTime": null}, {"cardNumFive": null, "isSupportYj": null, "cityName": null, "districtName": null, "shopinfo": {"mid": "888888858120606", "good_flag": "1", "new_flag": "2", "short_name": "\u5927\u5a18\u6c34\u997a", "short_name_pinyin": "daniangshuijiao", "status": null, "address": null, "name": null, "id": "31386"}, "mid": "888888858120606", "shopId": "31386", "netid": null, "province": 901, "district": 601, "zipcode": null, "telephone": "62520938", "posDate": "20090220", "destineTel": null, "togoTel": null, "trafficWay": null, "signBuilding": null, "businessArea": null, "selfRoom": null, "businessTime": null, "stall": null, "consume": null, "serviceFei": null, "favourable": null, "shopMemo": null, "appraise": null, "website": null, "memo": null, "payTypes": "\u6749\u5fb7\u5361", "shopTypes": "\u9910\u996e", "consumeTypes": null, "cookTypes": null, "orderNum": 1000, "card4no": null, "card4noAcc": null, "district2": 406, "searchScope": null, "status": 1, "address": "\u5b9a\u897f\u8def1550\u53f7", "name": "\u5927\u5a18\u6c34\u997a \u5b9a\u897f\u8def\u5e97", "id": 133170, "pageNo": 0, "pageCount": null, "pageSize": 10, "ids": null, "endTime": null, "startTime": null}, {"cardNumFive": null, "isSupportYj": null, "cityName": null, "districtName": null, "shopinfo": {"mid": "888888858120606", "good_flag": "1", "new_flag": "2", "short_name": "\u5927\u5a18\u6c34\u997a", "short_name_pinyin": "daniangshuijiao", "status": null, "address": null, "name": null, "id": "31386"}, "mid": "888888858120606", "shopId": "31386", "netid": null, "province": 901, "district": 601, "zipcode": null, "telephone": "56036965", "posDate": "20090220", "destineTel": null, "togoTel": null, "trafficWay": null, "signBuilding": null, "businessArea": null, "selfRoom": null, "businessTime": null, "stall": null, "consume": null, "serviceFei": null, "favourable": null, "shopMemo": null, "appraise": null, "website": null, "memo": null, "payTypes": "\u6749\u5fb7\u5361", "shopTypes": "\u9910\u996e", "consumeTypes": null, "cookTypes": null, "orderNum": 1000, "card4no": null, "card4noAcc": null, "district2": 410, "searchScope": null, "status": 1, "address": "\u5171\u548c\u65b0\u8def3318\u53f7\u5927\u6da6\u53d1\u5185", "name": "\u5927\u5a18\u6c34\u997a \u5171\u548c\u65b0\u8def\u5e97", "id": 133172, "pageNo": 0, "pageCount": null, "pageSize": 10, "ids": null, "endTime": null, "startTime": null}, {"cardNumFive": null, "isSupportYj": null, "cityName": null, "districtName": null, "shopinfo": {"mid": "888888858120606", "good_flag": "1", "new_flag": "2", "short_name": "\u5927\u5a18\u6c34\u997a", "short_name_pinyin": "daniangshuijiao", "status": null, "address": null, "name": null, "id": "31386"}, "mid": "888888858120606", "shopId": "31386", "netid": null, "province": 901, "district": 601, "zipcode": null, "telephone": "67195177", "posDate": "20090220", "destineTel": null, "togoTel": null, "trafficWay": null, "signBuilding": null, "businessArea": null, "selfRoom": null, "businessTime": null, "stall": null, "consume": null, "serviceFei": null, "favourable": null, "shopMemo": null, "appraise": null, "website": null, "memo": null, "payTypes": "\u6749\u5fb7\u5361", "shopTypes": "\u9910\u996e", "consumeTypes": null, "cookTypes": null, "orderNum": 1000, "card4no": null, "card4noAcc": null, "district2": 413, "searchScope": null, "status": 1, "address": "\u5357\u6865\u9547\u5357\u4ead\u516c\u8def601\u53f7", "name": "\u5927\u5a18\u6c34\u997a \u5357\u4ead\u516c\u8def\u5e97", "id": 133180, "pageNo": 0, "pageCount": null, "pageSize": 10, "ids": null, "endTime": null, "startTime": null}, {"cardNumFive": null, "isSupportYj": null, "cityName": null, "districtName": null, "shopinfo": {"mid": "888888858120606", "good_flag": "1", "new_flag": "2", "short_name": "\u5927\u5a18\u6c34\u997a", "short_name_pinyin": "daniangshuijiao", "status": null, "address": null, "name": null, "id": "31386"}, "mid": "888888858120606", "shopId": "31386", "netid": null, "province": 901, "district": 601, "zipcode": null, "telephone": "64649381", "posDate": "20090220", "destineTel": null, "togoTel": null, "trafficWay": null, "signBuilding": null, "businessArea": null, "selfRoom": null, "businessTime": null, "stall": null, "consume": null, "serviceFei": null, "favourable": null, "shopMemo": null, "appraise": null, "website": null, "memo": null, "payTypes": "\u6749\u5fb7\u5361", "shopTypes": "\u9910\u996e", "consumeTypes": null, "cookTypes": null, "orderNum": 1000, "card4no": null, "card4noAcc": null, "district2": 403, "searchScope": null, "status": 1, "address": "\u5929\u94a5\u6865\u8def57\u53f7", "name": "\u5927\u5a18\u6c34\u997a \u5929\u94a5\u6865\u8def\u5e97", "id": 133183, "pageNo": 0, "pageCount": null, "pageSize": 10, "ids": null, "endTime": null, "startTime": null}, {"cardNumFive": null, "isSupportYj": null, "cityName": null, "districtName": null, "shopinfo": {"mid": "888888858120606", "good_flag": "1", "new_flag": "2", "short_name": "\u5927\u5a18\u6c34\u997a", "short_name_pinyin": "daniangshuijiao", "status": null, "address": null, "name": null, "id": "31386"}, "mid": "888888858120606", "shopId": "31386", "netid": null, "province": 901, "district": 601, "zipcode": null, "telephone": "61241158", "posDate": "20090403", "destineTel": null, "togoTel": null, "trafficWay": null, "signBuilding": null, "businessArea": null, "selfRoom": null, "businessTime": null, "stall": null, "consume": null, "serviceFei": null, "favourable": null, "shopMemo": null, "appraise": null, "website": null, "memo": null, "payTypes": "\u6749\u5fb7\u5361", "shopTypes": "\u9910\u996e", "consumeTypes": null, "cookTypes": null, "orderNum": 1000, "card4no": null, "card4noAcc": null, "district2": 417, "searchScope": null, "status": 1, "address": "\u5f90\u6cfe\u9547\u6caa\u9752\u5e73\u516c\u8def1829\u53f72\u697c218\u5546\u94fa", "name": "\u5927\u5a18\u6c34\u997a \u5f90\u6cfe\u5e97", "id": 133185, "pageNo": 0, "pageCount": null, "pageSize": 10, "ids": null, "endTime": null, "startTime": null}, {"cardNumFive": null, "isSupportYj": null, "cityName": null, "districtName": null, "shopinfo": {"mid": "888888858120606", "good_flag": "1", "new_flag": "2", "short_name": "\u5927\u5a18\u6c34\u997a", "short_name_pinyin": "daniangshuijiao", "status": null, "address": null, "name": null, "id": "31386"}, "mid": "888888858120606", "shopId": "31386", "netid": null, "province": 901, "district": 601, "zipcode": null, "telephone": "58465767", "posDate": "20090220", "destineTel": null, "togoTel": null, "trafficWay": null, "signBuilding": null, "businessArea": null, "selfRoom": null, "businessTime": null, "stall": null, "consume": null, "serviceFei": null, "favourable": null, "shopMemo": null, "appraise": null, "website": null, "memo": null, "payTypes": "\u6749\u5fb7\u5361", "shopTypes": "\u9910\u996e", "consumeTypes": null, "cookTypes": null, "orderNum": 1000, "card4no": null, "card4noAcc": null, "district2": 418, "searchScope": null, "status": 1, "address": "\u5f20\u6768\u5317\u8def801\u53f7\u6587\u5cf0\u5343\u5bb6\u60e0\u8d2d\u7269\u4e2d\u5fc3\u5185", "name": "\u5927\u5a18\u6c34\u997a \u5f20\u6768\u5317\u8def\u5e97", "id": 133187, "pageNo": 0, "pageCount": null, "pageSize": 10, "ids": null, "endTime": null, "startTime": null}, {"cardNumFive": null, "isSupportYj": null, "cityName": null, "districtName": null, "shopinfo": {"mid": "888888858120606", "good_flag": "1", "new_flag": "2", "short_name": "\u5927\u5a18\u6c34\u997a", "short_name_pinyin": "daniangshuijiao", "status": null, "address": null, "name": null, "id": "31386"}, "mid": "888888858120606", "shopId": "31386", "netid": null, "province": 901, "district": 601, "zipcode": null, "telephone": "58360917", "posDate": "20090402", "destineTel": null, "togoTel": null, "trafficWay": null, "signBuilding": null, "businessArea": null, "selfRoom": null, "businessTime": null, "stall": "\u6709", "consume": null, "serviceFei": null, "favourable": null, "shopMemo": null, "appraise": null, "website": null, "memo": null, "payTypes": "\u6749\u5fb7\u5361", "shopTypes": "\u9910\u996e", "consumeTypes": null, "cookTypes": null, "orderNum": 1000, "card4no": null, "card4noAcc": null, "district2": 418, "searchScope": null, "status": 1, "address": "\u5f20\u6768\u8def601\u53f7", "name": "\u5927\u5a18\u6c34\u997a \u5f20\u6768\u8def\u5e97", "id": 133188, "pageNo": 0, "pageCount": null, "pageSize": 10, "ids": null, "endTime": null, "startTime": null}, {"cardNumFive": null, "isSupportYj": null, "cityName": null, "districtName": null, "shopinfo": {"mid": "888888854110070", "good_flag": "1", "new_flag": "2", "short_name": "\u5927\u6da6\u53d1", "short_name_pinyin": "darunfa", "status": null, "address": null, "name": null, "id": "31389"}, "mid": "888888854110070", "shopId": "31389", "netid": null, "province": 901, "district": 601, "zipcode": null, "telephone": "69106791", "posDate": "20080728", "destineTel": null, "togoTel": null, "trafficWay": "\u516c\u4ea4740 950 837", "signBuilding": null, "businessArea": null, "selfRoom": null, "businessTime": null, "stall": null, "consume": null, "serviceFei": null, "favourable": null, "shopMemo": null, "appraise": null, "website": null, "memo": null, "payTypes": "\u6749\u5fb7\u5361,\u5361\u62bc\u91d1\u6d88\u8d39", "shopTypes": "\u8d85\u5e02", "consumeTypes": null, "cookTypes": null, "orderNum": 1000, "card4no": null, "card4noAcc": null, "district2": 405, "searchScope": null, "status": 1, "address": "\u65b0\u90c1\u8def570\u53f7", "name": "\u5927\u6da6\u53d1 \u66f9\u5b89\u5e97", "id": 133195, "pageNo": 0, "pageCount": null, "pageSize": 10, "ids": null, "endTime": null, "startTime": null}], "pageLimit": 1040, "size": 10}