{"pageCount": 1095, "count": 10942, "pageNo": 107, "subShopInfo": {"cardNumFive": "", "isSupportYj": "", "cityName": null, "districtName": null, "shopinfo": {"mid": null, "good_flag": null, "new_flag": null, "short_name": null, "short_name_pinyin": null, "status": null, "address": "", "name": "", "id": null}, "mid": null, "shopId": null, "netid": null, "province": 901, "district": null, "zipcode": null, "telephone": null, "posDate": null, "destineTel": null, "togoTel": null, "trafficWay": null, "signBuilding": null, "businessArea": null, "selfRoom": null, "businessTime": null, "stall": null, "consume": null, "serviceFei": null, "favourable": null, "shopMemo": "1", "appraise": null, "website": null, "memo": null, "payTypes": "", "shopTypes": "", "consumeTypes": null, "cookTypes": null, "orderNum": null, "card4no": null, "card4noAcc": null, "district2": null, "searchScope": null, "status": null, "address": "", "name": null, "id": null, "pageNo": 106, "pageCount": null, "pageSize": 10, "ids": null, "endTime": null, "startTime": null}, "list": [{"cardNumFive": null, "isSupportYj": null, "cityName": null, "districtName": null, "shopinfo": {"mid": "888888854110062", "good_flag": "1", "new_flag": "2", "short_name": "\u5927\u6da6\u53d1", "short_name_pinyin": "darunfa", "status": null, "address": null, "name": null, "id": "31400"}, "mid": "888888854110062", "shopId": "31400", "netid": null, "province": 901, "district": 601, "zipcode": null, "telephone": "55061616", "posDate": "20080806", "destineTel": null, "togoTel": null, "trafficWay": "\u516c\u4ea4723 \u5927\u6865\u4e09\u7ebf", "signBuilding": null, "businessArea": null, "selfRoom": null, "businessTime": null, "stall": null, "consume": null, "serviceFei": null, "favourable": null, "shopMemo": null, "appraise": null, "website": null, "memo": null, "payTypes": "\u6749\u5fb7\u5361,\u5361\u62bc\u91d1\u6d88\u8d39", "shopTypes": "\u8d85\u5e02", "consumeTypes": null, "cookTypes": null, "orderNum": 1000, "card4no": null, "card4noAcc": null, "district2": 407, "searchScope": null, "status": 1, "address": "\u9ec4\u5174\u8def1618\u53f7", "name": "\u5927\u6da6\u53d1 \u6768\u6d66\u5e97", "id": 133206, "pageNo": 0, "pageCount": null, "pageSize": 10, "ids": null, "endTime": null, "startTime": null}, {"cardNumFive": null, "isSupportYj": null, "cityName": null, "districtName": null, "shopinfo": {"mid": "888888854110061", "good_flag": "1", "new_flag": "2", "short_name": "\u5927\u6da6\u53d1", "short_name_pinyin": "darunfa", "status": null, "address": null, "name": null, "id": "31401"}, "mid": "888888854110061", "shopId": "31401", "netid": null, "province": 901, "district": 601, "zipcode": null, "telephone": "56033688*109", "posDate": "20080618", "destineTel": null, "togoTel": null, "trafficWay": "\u516c\u4ea4722 \u5730\u94c1\u4e00\u53f7\u7ebf", "signBuilding": null, "businessArea": null, "selfRoom": null, "businessTime": null, "stall": "\u6709", "consume": null, "serviceFei": null, "favourable": null, "shopMemo": null, "appraise": null, "website": null, "memo": null, "payTypes": "\u6749\u5fb7\u5361,\u5361\u62bc\u91d1\u6d88\u8d39", "shopTypes": "\u8d85\u5e02", "consumeTypes": null, "cookTypes": null, "orderNum": 1000, "card4no": null, "card4noAcc": null, "district2": 410, "searchScope": null, "status": 1, "address": "\u5171\u548c\u65b0\u8def3318\u53f7", "name": "\u5927\u6da6\u53d1 \u95f8\u5317\u5e97", "id": 133207, "pageNo": 0, "pageCount": null, "pageSize": 10, "ids": null, "endTime": null, "startTime": null}, {"cardNumFive": null, "isSupportYj": null, "cityName": null, "districtName": null, "shopinfo": {"mid": "888002154110561", "good_flag": null, "new_flag": null, "short_name": "\u5927\u6da6\u53d1", "short_name_pinyin": "darunfa", "status": null, "address": null, "name": null, "id": "38960"}, "mid": "888002154110561", "shopId": "38960", "netid": null, "province": 901, "district": 601, "zipcode": null, "telephone": "59579990", "posDate": null, "destineTel": null, "togoTel": null, "trafficWay": null, "signBuilding": null, "businessArea": null, "selfRoom": null, "businessTime": null, "stall": null, "consume": null, "serviceFei": null, "favourable": null, "shopMemo": null, "appraise": null, "website": null, "memo": null, "payTypes": "\u6749\u5fb7\u5361", "shopTypes": "\u8d85\u5e02", "consumeTypes": null, "cookTypes": null, "orderNum": 1000, "card4no": null, "card4noAcc": null, "district2": 411, "searchScope": null, "status": 1, "address": "\u58a8\u7389\u5357\u8def1099\u53f7", "name": "\u5927\u6da6\u53d1 \u5b89\u4ead\u5e97", "id": 164899, "pageNo": 0, "pageCount": null, "pageSize": 10, "ids": null, "endTime": null, "startTime": null}, {"cardNumFive": null, "isSupportYj": null, "cityName": null, "districtName": null, "shopinfo": {"mid": "888002154110570", "good_flag": null, "new_flag": null, "short_name": "\u5927\u6da6\u53d1", "short_name_pinyin": "darunfa", "status": null, "address": null, "name": null, "id": "40025"}, "mid": "888002154110570", "shopId": "40025", "netid": null, "province": 901, "district": 601, "zipcode": null, "telephone": "60273770", "posDate": null, "destineTel": null, "togoTel": null, "trafficWay": null, "signBuilding": null, "businessArea": null, "selfRoom": null, "businessTime": null, "stall": null, "consume": null, "serviceFei": null, "favourable": null, "shopMemo": null, "appraise": null, "website": null, "memo": null, "payTypes": "\u6749\u5fb7\u5361 \u5361\u62bc\u91d1\u6d88\u8d39", "shopTypes": "\u8d85\u5e02", "consumeTypes": null, "cookTypes": null, "orderNum": 1000, "card4no": null, "card4noAcc": null, "district2": 418, "searchScope": null, "status": 1, "address": "\u5357\u82a6\u516c\u8def1757\u53f7", "name": "\u5927\u6da6\u53d1 \u6ce5\u57ce\u5e97", "id": 173072, "pageNo": 0, "pageCount": null, "pageSize": 10, "ids": null, "endTime": null, "startTime": null}, {"cardNumFive": null, "isSupportYj": null, "cityName": null, "districtName": null, "shopinfo": {"mid": "888002158120373", "good_flag": "2", "new_flag": "1", "short_name": "\u91c7\u679c\u56ed", "short_name_pinyin": "dashidai", "status": null, "address": null, "name": null, "id": "31306"}, "mid": "888002158120373", "shopId": "31306", "netid": null, "province": 901, "district": 601, "zipcode": null, "telephone": "64267613", "posDate": "20100618", "destineTel": null, "togoTel": null, "trafficWay": null, "signBuilding": null, "businessArea": null, "selfRoom": null, "businessTime": null, "stall": null, "consume": null, "serviceFei": null, "favourable": null, "shopMemo": null, "appraise": null, "website": null, "memo": null, "payTypes": "\u6749\u5fb7\u5361", "shopTypes": "\u9910\u996e", "consumeTypes": null, "cookTypes": null, "orderNum": 1000, "card4no": null, "card4noAcc": null, "district2": 403, "searchScope": null, "status": 1, "address": "\u8087\u5609\u6d5c\u8def1111\u53f7\u7f8e\u7f57\u57ce6\u5c42", "name": "\u91c7\u679c\u56ed \u7f8e\u7f57\u5e97", "id": 132932, "pageNo": 0, "pageCount": null, "pageSize": 10, "ids": null, "endTime": null, "startTime": null}, {"cardNumFive": null, "isSupportYj": null, "cityName": null, "districtName": null, "shopinfo": {"mid": "888002158120657", "good_flag": "2", "new_flag": "1", "short_name": "\u5927\u98df\u4ee3", "short_name_pinyin": "dashidai", "status": null, "address": null, "name": null, "id": "31402"}, "mid": "888002158120657", "shopId": "31402", "netid": null, "province": 901, "district": 601, "zipcode": null, "telephone": null, "posDate": "20100624", "destineTel": null, "togoTel": null, "trafficWay": null, "signBuilding": null, "businessArea": null, "selfRoom": null, "businessTime": null, "stall": null, "consume": null, "serviceFei": null, "favourable": null, "shopMemo": null, "appraise": null, "website": null, "memo": null, "payTypes": "\u6749\u5fb7\u5361", "shopTypes": "\u9910\u996e", "consumeTypes": null, "cookTypes": null, "orderNum": 1000, "card4no": null, "card4noAcc": null, "district2": 416, "searchScope": null, "status": 1, "address": "\u5b9d\u5c71\u533a\u5171\u6c5f\u8def1208\u53f7\u5bb6\u4e50\u798f\u4e00\u697c", "name": "\u5927\u98df\u4ee3 \u5b9d\u5c71\u5e97", "id": 133208, "pageNo": 0, "pageCount": null, "pageSize": 10, "ids": null, "endTime": null, "startTime": null}, {"cardNumFive": null, "isSupportYj": null, "cityName": null, "districtName": null, "shopinfo": {"mid": "888002158120376", "good_flag": "2", "new_flag": "1", "short_name": "\u5927\u98df\u4ee3", "short_name_pinyin": "dashidai", "status": null, "address": null, "name": null, "id": "31405"}, "mid": "888002158120376", "shopId": "31405", "netid": null, "province": 901, "district": 601, "zipcode": null, "telephone": null, "posDate": "20100629", "destineTel": null, "togoTel": null, "trafficWay": null, "signBuilding": null, "businessArea": null, "selfRoom": null, "businessTime": null, "stall": null, "consume": null, "serviceFei": null, "favourable": null, "shopMemo": null, "appraise": null, "website": null, "memo": null, "payTypes": "\u6749\u5fb7\u5361", "shopTypes": "\u9910\u996e", "consumeTypes": null, "cookTypes": null, "orderNum": 1000, "card4no": null, "card4noAcc": null, "district2": 418, "searchScope": null, "status": 1, "address": "\u6d66\u4e1c\u65b0\u533a\u78a7\u4e91\u8def279\u53f7\u5bb6\u4e50\u798f\u91d1\u6865\u8d2d\u7269\u4e2d\u5fc3\u4e00\u697c", "name": "\u5927\u98df\u4ee3 \u91d1\u6865\u5e97", "id": 133211, "pageNo": 0, "pageCount": null, "pageSize": 10, "ids": null, "endTime": null, "startTime": null}, {"cardNumFive": null, "isSupportYj": null, "cityName": null, "districtName": null, "shopinfo": {"mid": "888002158120378", "good_flag": "2", "new_flag": "1", "short_name": "\u5927\u98df\u4ee3", "short_name_pinyin": "dashidai", "status": null, "address": null, "name": null, "id": "31407"}, "mid": "888002158120378", "shopId": "31407", "netid": null, "province": 901, "district": 601, "zipcode": null, "telephone": "64267613", "posDate": "20100621", "destineTel": null, "togoTel": null, "trafficWay": null, "signBuilding": null, "businessArea": null, "selfRoom": null, "businessTime": null, "stall": null, "consume": null, "serviceFei": null, "favourable": null, "shopMemo": null, "appraise": null, "website": null, "memo": null, "payTypes": "\u6749\u5fb7\u5361", "shopTypes": "\u9910\u996e", "consumeTypes": null, "cookTypes": null, "orderNum": 1000, "card4no": null, "card4noAcc": null, "district2": 401, "searchScope": null, "status": 1, "address": "\u9ec4\u6d66\u533a\u897f\u85cf\u4e2d\u8def\u6765\u798f\u58eb\u5e7f\u573a6\u697c", "name": "\u5927\u98df\u4ee3 \u6765\u798f\u58eb\u5e97", "id": 133213, "pageNo": 0, "pageCount": null, "pageSize": 10, "ids": null, "endTime": null, "startTime": null}, {"cardNumFive": null, "isSupportYj": null, "cityName": null, "districtName": null, "shopinfo": {"mid": "888002158120372", "good_flag": "2", "new_flag": "1", "short_name": "\u5927\u98df\u4ee3", "short_name_pinyin": "dashidai", "status": null, "address": null, "name": null, "id": "31408"}, "mid": "888002158120372", "shopId": "31408", "netid": null, "province": 901, "district": 601, "zipcode": null, "telephone": null, "posDate": "20100630", "destineTel": null, "togoTel": null, "trafficWay": null, "signBuilding": null, "businessArea": null, "selfRoom": null, "businessTime": null, "stall": null, "consume": null, "serviceFei": null, "favourable": null, "shopMemo": null, "appraise": null, "website": null, "memo": null, "payTypes": "\u6749\u5fb7\u5361", "shopTypes": "\u9910\u996e", "consumeTypes": null, "cookTypes": null, "orderNum": 1000, "card4no": null, "card4noAcc": null, "district2": 418, "searchScope": null, "status": 1, "address": "\u6d66\u4e1c\u65b0\u533a\u82b3\u7538\u8def185\u53f7\u8054\u6d0b\u5bb6\u4e50\u798f\u5730\u4e0b\u4e00\u5c42", "name": "\u5927\u98df\u4ee3 \u8054\u6d0b\u5e97", "id": 133214, "pageNo": 0, "pageCount": null, "pageSize": 10, "ids": null, "endTime": null, "startTime": null}, {"cardNumFive": null, "isSupportYj": null, "cityName": null, "districtName": null, "shopinfo": {"mid": "888888858120638", "good_flag": "2", "new_flag": "2", "short_name": "\u5927\u98df\u4ee3", "short_name_pinyin": "dashidai", "status": null, "address": null, "name": null, "id": "31410"}, "mid": "888888858120638", "shopId": "31410", "netid": null, "province": 901, "district": 601, "zipcode": null, "telephone": "64267613", "posDate": null, "destineTel": null, "togoTel": null, "trafficWay": null, "signBuilding": null, "businessArea": null, "selfRoom": null, "businessTime": null, "stall": null, "consume": null, "serviceFei": null, "favourable": null, "shopMemo": null, "appraise": null, "website": null, "memo": null, "payTypes": "\u6749\u5fb7\u5361", "shopTypes": "\u9910\u996e", "consumeTypes": null, "cookTypes": null, "orderNum": 1000, "card4no": null, "card4noAcc": null, "district2": 403, "searchScope": null, "status": 1, "address": "\u8087\u5609\u6d5c\u8def1111\u53f76\u697c", "name": "\u5927\u98df\u4ee3 \u7f8e\u7f57\u5e97", "id": 133216, "pageNo": 0, "pageCount": null, "pageSize": 10, "ids": null, "endTime": null, "startTime": null}], "pageLimit": 1060, "size": 10}