{"pageCount": 1095, "count": 10942, "pageNo": 101, "subShopInfo": {"cardNumFive": "", "isSupportYj": "", "cityName": null, "districtName": null, "shopinfo": {"mid": null, "good_flag": null, "new_flag": null, "short_name": null, "short_name_pinyin": null, "status": null, "address": "", "name": "", "id": null}, "mid": null, "shopId": null, "netid": null, "province": 901, "district": null, "zipcode": null, "telephone": null, "posDate": null, "destineTel": null, "togoTel": null, "trafficWay": null, "signBuilding": null, "businessArea": null, "selfRoom": null, "businessTime": null, "stall": null, "consume": null, "serviceFei": null, "favourable": null, "shopMemo": "1", "appraise": null, "website": null, "memo": null, "payTypes": "", "shopTypes": "", "consumeTypes": null, "cookTypes": null, "orderNum": null, "card4no": null, "card4noAcc": null, "district2": null, "searchScope": null, "status": null, "address": "", "name": null, "id": null, "pageNo": 100, "pageCount": null, "pageSize": 10, "ids": null, "endTime": null, "startTime": null}, "list": [{"cardNumFive": null, "isSupportYj": null, "cityName": null, "districtName": null, "shopinfo": {"mid": "888888856610012", "good_flag": "2", "new_flag": "2", "short_name": "\u8fbe\u8299\u59ae", "short_name_pinyin": "dafuni", "status": null, "address": null, "name": null, "id": "31375"}, "mid": "888888856610012", "shopId": "31375", "netid": null, "province": 901, "district": 601, "zipcode": null, "telephone": "62320766", "posDate": "20081108", "destineTel": null, "togoTel": null, "trafficWay": "\u516c\u4ea4837 13", "signBuilding": null, "businessArea": null, "selfRoom": null, "businessTime": "9:00~21:00", "stall": null, "consume": null, "serviceFei": null, "favourable": null, "shopMemo": null, "appraise": null, "website": null, "memo": null, "payTypes": "\u6749\u5fb7\u5361", "shopTypes": "\u4e13\u5356", "consumeTypes": null, "cookTypes": null, "orderNum": 1000, "card4no": null, "card4noAcc": null, "district2": 405, "searchScope": null, "status": 1, "address": "\u6b66\u5b81\u8def20\u53f7\u5bb6\u4e50\u798f\u4e09\u697c", "name": "\u8fbe\u8299\u59ae \u6b66\u5b81\u5bb6\u4e50\u798f\u5e97", "id": 133114, "pageNo": 0, "pageCount": null, "pageSize": 10, "ids": null, "endTime": null, "startTime": null}, {"cardNumFive": null, "isSupportYj": null, "cityName": null, "districtName": null, "shopinfo": {"mid": "888888856610012", "good_flag": "2", "new_flag": "2", "short_name": "\u8fbe\u8299\u59ae", "short_name_pinyin": "dafuni", "status": null, "address": null, "name": null, "id": "31375"}, "mid": "888888856610012", "shopId": "31375", "netid": null, "province": 901, "district": 601, "zipcode": null, "telephone": "63720607", "posDate": "20081105", "destineTel": null, "togoTel": null, "trafficWay": "\u516c\u4ea4\u4e0a\u5ddd\u4e13\u7ebf \u5730\u94c1\u4e00\u53f7\u7ebf", "signBuilding": null, "businessArea": null, "selfRoom": null, "businessTime": "9:00~21:00", "stall": null, "consume": null, "serviceFei": null, "favourable": null, "shopMemo": null, "appraise": null, "website": null, "memo": null, "payTypes": "\u6749\u5fb7\u5361", "shopTypes": "\u4e13\u5356", "consumeTypes": null, "cookTypes": null, "orderNum": 1000, "card4no": null, "card4noAcc": null, "district2": 401, "searchScope": null, "status": 1, "address": "\u4eba\u6c11\u5e7f\u573a\u5730\u94c1\u4e0b\u9999\u6e2f\u540d\u54c1\u885732\u53f7", "name": "\u8fbe\u8299\u59ae \u9999\u4e13\u5e97", "id": 133116, "pageNo": 0, "pageCount": null, "pageSize": 10, "ids": null, "endTime": null, "startTime": null}, {"cardNumFive": null, "isSupportYj": null, "cityName": null, "districtName": null, "shopinfo": {"mid": "888888856610012", "good_flag": "2", "new_flag": "2", "short_name": "\u8fbe\u8299\u59ae", "short_name_pinyin": "dafuni", "status": null, "address": null, "name": null, "id": "31375"}, "mid": "888888856610012", "shopId": "31375", "netid": null, "province": 901, "district": 601, "zipcode": null, "telephone": "63250978", "posDate": "20081105", "destineTel": null, "togoTel": null, "trafficWay": "\u516c\u4ea4167 145", "signBuilding": null, "businessArea": null, "selfRoom": null, "businessTime": "9:00~18:00", "stall": null, "consume": null, "serviceFei": null, "favourable": null, "shopMemo": null, "appraise": null, "website": null, "memo": null, "payTypes": "\u6749\u5fb7\u5361", "shopTypes": "\u4e13\u5356", "consumeTypes": null, "cookTypes": null, "orderNum": 1000, "card4no": null, "card4noAcc": null, "district2": 408, "searchScope": null, "status": 1, "address": "\u56db\u5ddd\u5317\u8def975\u53f7", "name": "\u8fbe\u8299\u59ae \u65b0\u56db\u4e00\u5e97", "id": 133118, "pageNo": 0, "pageCount": null, "pageSize": 10, "ids": null, "endTime": null, "startTime": null}, {"cardNumFive": null, "isSupportYj": null, "cityName": null, "districtName": null, "shopinfo": {"mid": "888888856610012", "good_flag": "2", "new_flag": "2", "short_name": "\u8fbe\u8299\u59ae", "short_name_pinyin": "dafuni", "status": null, "address": null, "name": null, "id": "31375"}, "mid": "888888856610012", "shopId": "31375", "netid": null, "province": 901, "district": 601, "zipcode": null, "telephone": "54292579", "posDate": "20081108", "destineTel": null, "togoTel": null, "trafficWay": "\u516c\u4ea4218 \u5730\u94c1\u4e00\u53f7\u7ebf", "signBuilding": null, "businessArea": null, "selfRoom": null, "businessTime": "24\u5c0f\u65f6", "stall": null, "consume": null, "serviceFei": null, "favourable": null, "shopMemo": null, "appraise": null, "website": null, "memo": null, "payTypes": "\u6749\u5fb7\u5361", "shopTypes": "\u4e13\u5356", "consumeTypes": null, "cookTypes": null, "orderNum": 1000, "card4no": null, "card4noAcc": null, "district2": 403, "searchScope": null, "status": 1, "address": "\u6885\u9647\u8def277\u53f7A", "name": "\u8fbe\u8299\u59ae \u5f90\u6c47\u6885\u9647\u5e97", "id": 133119, "pageNo": 0, "pageCount": null, "pageSize": 10, "ids": null, "endTime": null, "startTime": null}, {"cardNumFive": null, "isSupportYj": null, "cityName": null, "districtName": null, "shopinfo": {"mid": "888888856610012", "good_flag": "2", "new_flag": "2", "short_name": "\u8fbe\u8299\u59ae", "short_name_pinyin": "dafuni", "status": null, "address": null, "name": null, "id": "31375"}, "mid": "888888856610012", "shopId": "31375", "netid": null, "province": 901, "district": 601, "zipcode": null, "telephone": "69762097", "posDate": "20081108", "destineTel": null, "togoTel": null, "trafficWay": "\u516c\u4ea4776 \u6caa\u9752\u4e13\u7ebf", "signBuilding": null, "businessArea": null, "selfRoom": null, "businessTime": "24\u5c0f\u65f6", "stall": null, "consume": null, "serviceFei": null, "favourable": null, "shopMemo": null, "appraise": null, "website": null, "memo": null, "payTypes": "\u6749\u5fb7\u5361", "shopTypes": "\u4e13\u5356", "consumeTypes": null, "cookTypes": null, "orderNum": 1000, "card4no": null, "card4noAcc": null, "district2": 417, "searchScope": null, "status": 1, "address": "\u5f90\u6cfe\u9547\u5c45\u59d4\u4f1a95/4-10", "name": "\u8fbe\u8299\u59ae \u5f90\u6cfe\u5bb6\u4e50\u798f\u5e97", "id": 133120, "pageNo": 0, "pageCount": null, "pageSize": 10, "ids": null, "endTime": null, "startTime": null}, {"cardNumFive": null, "isSupportYj": null, "cityName": null, "districtName": null, "shopinfo": {"mid": "888888856610012", "good_flag": "2", "new_flag": "2", "short_name": "\u8fbe\u8299\u59ae", "short_name_pinyin": "dafuni", "status": null, "address": null, "name": null, "id": "31375"}, "mid": "888888856610012", "shopId": "31375", "netid": null, "province": 901, "district": 601, "zipcode": null, "telephone": "55095843", "posDate": "20081105", "destineTel": null, "togoTel": null, "trafficWay": "\u516c\u4ea490 991", "signBuilding": null, "businessArea": null, "selfRoom": null, "businessTime": "24\u5c0f\u65f6", "stall": null, "consume": null, "serviceFei": null, "favourable": null, "shopMemo": null, "appraise": null, "website": null, "memo": null, "payTypes": "\u6749\u5fb7\u5361", "shopTypes": "\u4e13\u5356", "consumeTypes": null, "cookTypes": null, "orderNum": 1000, "card4no": null, "card4noAcc": null, "district2": 407, "searchScope": null, "status": 1, "address": "\u9ec4\u5174\u8def1618\u53f7", "name": "\u8fbe\u8299\u59ae \u6768\u6d66\u5927\u6da6\u53d1\u5e97", "id": 133121, "pageNo": 0, "pageCount": null, "pageSize": 10, "ids": null, "endTime": null, "startTime": null}, {"cardNumFive": null, "isSupportYj": null, "cityName": null, "districtName": null, "shopinfo": {"mid": "888888856610012", "good_flag": "2", "new_flag": "2", "short_name": "\u8fbe\u8299\u59ae", "short_name_pinyin": "dafuni", "status": null, "address": null, "name": null, "id": "31375"}, "mid": "888888856610012", "shopId": "31375", "netid": null, "province": 901, "district": 601, "zipcode": null, "telephone": "55237198", "posDate": "20081105", "destineTel": null, "togoTel": null, "trafficWay": "\u516c\u4ea4145 \u5730\u94c1\u516b\u53f7\u7ebf", "signBuilding": null, "businessArea": null, "selfRoom": null, "businessTime": "24\u5c0f\u65f6", "stall": null, "consume": null, "serviceFei": null, "favourable": null, "shopMemo": null, "appraise": null, "website": null, "memo": null, "payTypes": "\u6749\u5fb7\u5361", "shopTypes": "\u4e13\u5356", "consumeTypes": null, "cookTypes": null, "orderNum": 1000, "card4no": null, "card4noAcc": null, "district2": 407, "searchScope": null, "status": 1, "address": "\u9756\u5b87\u4e1c\u8def210\u53f7", "name": "\u8fbe\u8299\u59ae \u6768\u6d66\u9756\u5b87\u5e97", "id": 133122, "pageNo": 0, "pageCount": null, "pageSize": 10, "ids": null, "endTime": null, "startTime": null}, {"cardNumFive": null, "isSupportYj": null, "cityName": null, "districtName": null, "shopinfo": {"mid": "888888856610012", "good_flag": "2", "new_flag": "2", "short_name": "\u8fbe\u8299\u59ae", "short_name_pinyin": "dafuni", "status": null, "address": null, "name": null, "id": "31375"}, "mid": "888888856610012", "shopId": "31375", "netid": null, "province": 901, "district": 601, "zipcode": null, "telephone": "36301291", "posDate": "20081105", "destineTel": null, "togoTel": null, "trafficWay": "\u516c\u4ea4\u5730\u94c1\u4e00\u53f7\u7ebf \u5f6d\u6cfe\u7ebf", "signBuilding": null, "businessArea": null, "selfRoom": null, "businessTime": null, "stall": null, "consume": null, "serviceFei": null, "favourable": null, "shopMemo": null, "appraise": null, "website": null, "memo": null, "payTypes": "\u6749\u5fb7\u5361", "shopTypes": "\u4e13\u5356", "consumeTypes": null, "cookTypes": null, "orderNum": 1000, "card4no": null, "card4noAcc": null, "district2": 416, "searchScope": null, "status": 1, "address": "\u6708\u6d66\u5fb7\u90fd\u8def18\u53f7", "name": "\u8fbe\u8299\u59ae \u6708\u6d66\u7ee5\u5316\u5e97", "id": 133127, "pageNo": 0, "pageCount": null, "pageSize": 10, "ids": null, "endTime": null, "startTime": null}, {"cardNumFive": null, "isSupportYj": null, "cityName": null, "districtName": null, "shopinfo": {"mid": "888888856610012", "good_flag": "2", "new_flag": "2", "short_name": "\u8fbe\u8299\u59ae", "short_name_pinyin": "dafuni", "status": null, "address": null, "name": null, "id": "31375"}, "mid": "888888856610012", "shopId": "31375", "netid": null, "province": 901, "district": 601, "zipcode": null, "telephone": "66524846", "posDate": "20081109", "destineTel": null, "togoTel": null, "trafficWay": "\u516c\u4ea446 916", "signBuilding": null, "businessArea": null, "selfRoom": null, "businessTime": null, "stall": null, "consume": null, "serviceFei": null, "favourable": null, "shopMemo": null, "appraise": null, "website": null, "memo": null, "payTypes": "\u6749\u5fb7\u5361", "shopTypes": "\u4e13\u5356", "consumeTypes": null, "cookTypes": null, "orderNum": 1000, "card4no": null, "card4noAcc": null, "district2": 410, "searchScope": null, "status": 1, "address": "\u5171\u548c\u65b0\u8def3318\u53f7", "name": "\u8fbe\u8299\u59ae \u95f8\u5317\u5927\u6da6\u53d1\u5e97", "id": 133128, "pageNo": 0, "pageCount": null, "pageSize": 10, "ids": null, "endTime": null, "startTime": null}, {"cardNumFive": null, "isSupportYj": null, "cityName": null, "districtName": null, "shopinfo": {"mid": "888888856610012", "good_flag": "2", "new_flag": "2", "short_name": "\u8fbe\u8299\u59ae", "short_name_pinyin": "dafuni", "status": null, "address": null, "name": null, "id": "31375"}, "mid": "888888856610012", "shopId": "31375", "netid": null, "province": 901, "district": 601, "zipcode": null, "telephone": "63453676", "posDate": "20081105", "destineTel": null, "togoTel": null, "trafficWay": "\u516c\u4ea4802 \u5730\u94c1\u516b\u53f7\u7ebf", "signBuilding": null, "businessArea": null, "selfRoom": null, "businessTime": "9:00~23:00", "stall": null, "consume": null, "serviceFei": null, "favourable": null, "shopMemo": null, "appraise": null, "website": null, "memo": null, "payTypes": "\u6749\u5fb7\u5361", "shopTypes": "\u4e13\u5356", "consumeTypes": null, "cookTypes": null, "orderNum": 1000, "card4no": null, "card4noAcc": null, "district2": 401, "searchScope": null, "status": 1, "address": "\u4e2d\u534e\u8def1280\u53f7", "name": "\u8fbe\u8299\u59ae \u4e2d\u534e\u5e97", "id": 133130, "pageNo": 0, "pageCount": null, "pageSize": 10, "ids": null, "endTime": null, "startTime": null}], "pageLimit": 1000, "size": 10}