{"pageCount": 1095, "count": 10942, "pageNo": 104, "subShopInfo": {"cardNumFive": "", "isSupportYj": "", "cityName": null, "districtName": null, "shopinfo": {"mid": null, "good_flag": null, "new_flag": null, "short_name": null, "short_name_pinyin": null, "status": null, "address": "", "name": "", "id": null}, "mid": null, "shopId": null, "netid": null, "province": 901, "district": null, "zipcode": null, "telephone": null, "posDate": null, "destineTel": null, "togoTel": null, "trafficWay": null, "signBuilding": null, "businessArea": null, "selfRoom": null, "businessTime": null, "stall": null, "consume": null, "serviceFei": null, "favourable": null, "shopMemo": "1", "appraise": null, "website": null, "memo": null, "payTypes": "", "shopTypes": "", "consumeTypes": null, "cookTypes": null, "orderNum": null, "card4no": null, "card4noAcc": null, "district2": null, "searchScope": null, "status": null, "address": "", "name": null, "id": null, "pageNo": 103, "pageCount": null, "pageSize": 10, "ids": null, "endTime": null, "startTime": null}, "list": [{"cardNumFive": null, "isSupportYj": null, "cityName": null, "districtName": null, "shopinfo": {"mid": "888888854410139", "good_flag": "2", "new_flag": "2", "short_name": "\u5927\u6c5f\u7f8e\u7279\u98df\u54c1", "short_name_pinyin": "dajiangmeiteshipin", "status": null, "address": null, "name": null, "id": "31382"}, "mid": "888888854410139", "shopId": "31382", "netid": null, "province": 901, "district": 601, "zipcode": null, "telephone": null, "posDate": null, "destineTel": null, "togoTel": null, "trafficWay": null, "signBuilding": null, "businessArea": null, "selfRoom": null, "businessTime": null, "stall": null, "consume": null, "serviceFei": null, "favourable": null, "shopMemo": null, "appraise": null, "website": null, "memo": null, "payTypes": "\u6749\u5fb7\u5361", "shopTypes": "\u4e13\u5356", "consumeTypes": null, "cookTypes": null, "orderNum": 1000, "card4no": null, "card4noAcc": null, "district2": 416, "searchScope": null, "status": 1, "address": "\u6dde\u5174\u8def322\u53f7", "name": "\u5927\u6c5f\u7f8e\u7279\u98df\u54c1 \u6dde\u5174\u8def\u5e97", "id": 170678, "pageNo": 0, "pageCount": null, "pageSize": 10, "ids": null, "endTime": null, "startTime": null}, {"cardNumFive": null, "isSupportYj": null, "cityName": null, "districtName": null, "shopinfo": {"mid": "888888854410139", "good_flag": "2", "new_flag": "2", "short_name": "\u5927\u6c5f\u7f8e\u7279\u98df\u54c1", "short_name_pinyin": "dajiangmeiteshipin", "status": null, "address": null, "name": null, "id": "31382"}, "mid": "888888854410139", "shopId": "31382", "netid": null, "province": 901, "district": 601, "zipcode": null, "telephone": null, "posDate": null, "destineTel": null, "togoTel": null, "trafficWay": null, "signBuilding": null, "businessArea": null, "selfRoom": null, "businessTime": null, "stall": null, "consume": null, "serviceFei": null, "favourable": null, "shopMemo": null, "appraise": null, "website": null, "memo": null, "payTypes": "\u6749\u5fb7\u5361", "shopTypes": "\u4e13\u5356", "consumeTypes": null, "cookTypes": null, "orderNum": 1000, "card4no": null, "card4noAcc": null, "district2": 416, "searchScope": null, "status": 1, "address": "\u6c34\u4ea7\u8def1040\u53f7", "name": "\u5927\u6c5f\u7f8e\u7279\u98df\u54c1 \u6c34\u4ea7\u8def\u5e97", "id": 170679, "pageNo": 0, "pageCount": null, "pageSize": 10, "ids": null, "endTime": null, "startTime": null}, {"cardNumFive": null, "isSupportYj": null, "cityName": null, "districtName": null, "shopinfo": {"mid": "888888854410139", "good_flag": "2", "new_flag": "2", "short_name": "\u5927\u6c5f\u7f8e\u7279\u98df\u54c1", "short_name_pinyin": "dajiangmeiteshipin", "status": null, "address": null, "name": null, "id": "31382"}, "mid": "888888854410139", "shopId": "31382", "netid": null, "province": 901, "district": 601, "zipcode": null, "telephone": null, "posDate": null, "destineTel": null, "togoTel": null, "trafficWay": null, "signBuilding": null, "businessArea": null, "selfRoom": null, "businessTime": null, "stall": null, "consume": null, "serviceFei": null, "favourable": null, "shopMemo": null, "appraise": null, "website": null, "memo": null, "payTypes": "\u6749\u5fb7\u5361", "shopTypes": "\u4e13\u5356", "consumeTypes": null, "cookTypes": null, "orderNum": 1000, "card4no": null, "card4noAcc": null, "district2": 416, "searchScope": null, "status": 1, "address": "\u5171\u5bcc\u8def153\u53f7", "name": "\u5927\u6c5f\u7f8e\u7279\u98df\u54c1 \u5171\u5bcc\u8def\u5e97", "id": 170681, "pageNo": 0, "pageCount": null, "pageSize": 10, "ids": null, "endTime": null, "startTime": null}, {"cardNumFive": null, "isSupportYj": null, "cityName": null, "districtName": null, "shopinfo": {"mid": "888888854410139", "good_flag": "2", "new_flag": "2", "short_name": "\u5927\u6c5f\u7f8e\u7279\u98df\u54c1", "short_name_pinyin": "dajiangmeiteshipin", "status": null, "address": null, "name": null, "id": "31382"}, "mid": "888888854410139", "shopId": "31382", "netid": null, "province": 901, "district": 601, "zipcode": null, "telephone": null, "posDate": null, "destineTel": null, "togoTel": null, "trafficWay": null, "signBuilding": null, "businessArea": null, "selfRoom": null, "businessTime": null, "stall": null, "consume": null, "serviceFei": null, "favourable": null, "shopMemo": null, "appraise": null, "website": null, "memo": null, "payTypes": "\u6749\u5fb7\u5361", "shopTypes": "\u4e13\u5356", "consumeTypes": null, "cookTypes": null, "orderNum": 1000, "card4no": null, "card4noAcc": null, "district2": 416, "searchScope": null, "status": 1, "address": "\u7535\u53f0\u8def582-1\u53f7", "name": "\u5927\u6c5f\u7f8e\u7279\u98df\u54c1 \u7535\u53f0\u8def\u5e97", "id": 170682, "pageNo": 0, "pageCount": null, "pageSize": 10, "ids": null, "endTime": null, "startTime": null}, {"cardNumFive": null, "isSupportYj": null, "cityName": null, "districtName": null, "shopinfo": {"mid": "888888854410139", "good_flag": "2", "new_flag": "2", "short_name": "\u5927\u6c5f\u7f8e\u7279\u98df\u54c1", "short_name_pinyin": "dajiangmeiteshipin", "status": null, "address": null, "name": null, "id": "31382"}, "mid": "888888854410139", "shopId": "31382", "netid": null, "province": 901, "district": 601, "zipcode": null, "telephone": null, "posDate": null, "destineTel": null, "togoTel": null, "trafficWay": null, "signBuilding": null, "businessArea": null, "selfRoom": null, "businessTime": null, "stall": null, "consume": null, "serviceFei": null, "favourable": null, "shopMemo": null, "appraise": null, "website": null, "memo": null, "payTypes": "\u6749\u5fb7\u5361", "shopTypes": "\u4e13\u5356", "consumeTypes": null, "cookTypes": null, "orderNum": 1000, "card4no": null, "card4noAcc": null, "district2": 403, "searchScope": null, "status": 1, "address": "\u8944\u9633\u5357\u8def310\u53f7", "name": "\u5927\u6c5f\u7f8e\u7279\u98df\u54c1 \u8944\u9633\u5357\u8def\u5e97", "id": 170684, "pageNo": 0, "pageCount": null, "pageSize": 10, "ids": null, "endTime": null, "startTime": null}, {"cardNumFive": null, "isSupportYj": null, "cityName": null, "districtName": null, "shopinfo": {"mid": "888888854410139", "good_flag": "2", "new_flag": "2", "short_name": "\u5927\u6c5f\u7f8e\u7279\u98df\u54c1", "short_name_pinyin": "dajiangmeiteshipin", "status": null, "address": null, "name": null, "id": "31382"}, "mid": "888888854410139", "shopId": "31382", "netid": null, "province": 901, "district": 601, "zipcode": null, "telephone": null, "posDate": null, "destineTel": null, "togoTel": null, "trafficWay": null, "signBuilding": null, "businessArea": null, "selfRoom": null, "businessTime": null, "stall": null, "consume": null, "serviceFei": null, "favourable": null, "shopMemo": null, "appraise": null, "website": null, "memo": null, "payTypes": "\u6749\u5fb7\u5361", "shopTypes": "\u4e13\u5356", "consumeTypes": null, "cookTypes": null, "orderNum": 1000, "card4no": null, "card4noAcc": null, "district2": 408, "searchScope": null, "status": 1, "address": "\u6b66\u8fdb\u8def475\u53f71\u697c", "name": "\u5927\u6c5f\u7f8e\u7279\u98df\u54c1 \u6b66\u8fdb\u8def\u5e97", "id": 170685, "pageNo": 0, "pageCount": null, "pageSize": 10, "ids": null, "endTime": null, "startTime": null}, {"cardNumFive": null, "isSupportYj": null, "cityName": null, "districtName": null, "shopinfo": {"mid": "888888854410139", "good_flag": "2", "new_flag": "2", "short_name": "\u5927\u6c5f\u7f8e\u7279\u98df\u54c1", "short_name_pinyin": "dajiangmeiteshipin", "status": null, "address": null, "name": null, "id": "31382"}, "mid": "888888854410139", "shopId": "31382", "netid": null, "province": 901, "district": 601, "zipcode": null, "telephone": null, "posDate": null, "destineTel": null, "togoTel": null, "trafficWay": null, "signBuilding": null, "businessArea": null, "selfRoom": null, "businessTime": null, "stall": null, "consume": null, "serviceFei": null, "favourable": null, "shopMemo": null, "appraise": null, "website": null, "memo": null, "payTypes": "\u6749\u5fb7\u5361", "shopTypes": "\u4e13\u5356", "consumeTypes": null, "cookTypes": null, "orderNum": 1000, "card4no": null, "card4noAcc": null, "district2": 410, "searchScope": null, "status": 1, "address": "\u5929\u76ee\u4e1c\u8def45\u53f7", "name": "\u5927\u6c5f\u7f8e\u7279\u98df\u54c1 \u5929\u76ee\u4e1c\u8def\u5e97", "id": 170686, "pageNo": 0, "pageCount": null, "pageSize": 10, "ids": null, "endTime": null, "startTime": null}, {"cardNumFive": null, "isSupportYj": null, "cityName": null, "districtName": null, "shopinfo": {"mid": "888888854410139", "good_flag": "2", "new_flag": "2", "short_name": "\u5927\u6c5f\u7f8e\u7279\u98df\u54c1", "short_name_pinyin": "dajiangmeiteshipin", "status": null, "address": null, "name": null, "id": "31382"}, "mid": "888888854410139", "shopId": "31382", "netid": null, "province": 901, "district": 601, "zipcode": null, "telephone": null, "posDate": null, "destineTel": null, "togoTel": null, "trafficWay": null, "signBuilding": null, "businessArea": null, "selfRoom": null, "businessTime": null, "stall": null, "consume": null, "serviceFei": null, "favourable": null, "shopMemo": null, "appraise": null, "website": null, "memo": null, "payTypes": "\u6749\u5fb7\u5361", "shopTypes": "\u4e13\u5356", "consumeTypes": null, "cookTypes": null, "orderNum": 1000, "card4no": null, "card4noAcc": null, "district2": 410, "searchScope": null, "status": 1, "address": "\u82b7\u6c5f\u4e2d\u8def311\u53f7", "name": "\u5927\u6c5f\u7f8e\u7279\u98df\u54c1 \u82b7\u6c5f\u4e2d\u8def\u5e97", "id": 170687, "pageNo": 0, "pageCount": null, "pageSize": 10, "ids": null, "endTime": null, "startTime": null}, {"cardNumFive": null, "isSupportYj": null, "cityName": null, "districtName": null, "shopinfo": {"mid": "888888854410139", "good_flag": "2", "new_flag": "2", "short_name": "\u5927\u6c5f\u7f8e\u7279\u98df\u54c1", "short_name_pinyin": "dajiangmeiteshipin", "status": null, "address": null, "name": null, "id": "31382"}, "mid": "888888854410139", "shopId": "31382", "netid": null, "province": 901, "district": 601, "zipcode": null, "telephone": null, "posDate": null, "destineTel": null, "togoTel": null, "trafficWay": null, "signBuilding": null, "businessArea": null, "selfRoom": null, "businessTime": null, "stall": null, "consume": null, "serviceFei": null, "favourable": null, "shopMemo": null, "appraise": null, "website": null, "memo": null, "payTypes": "\u6749\u5fb7\u5361", "shopTypes": "\u4e13\u5356", "consumeTypes": null, "cookTypes": null, "orderNum": 1000, "card4no": null, "card4noAcc": null, "district2": 401, "searchScope": null, "status": 1, "address": "\u56db\u5ddd\u4e2d\u8def538\u53f7", "name": "\u5927\u6c5f\u7f8e\u7279\u98df\u54c1 \u56db\u5ddd\u4e2d\u8def\u5e97", "id": 170688, "pageNo": 0, "pageCount": null, "pageSize": 10, "ids": null, "endTime": null, "startTime": null}, {"cardNumFive": null, "isSupportYj": null, "cityName": null, "districtName": null, "shopinfo": {"mid": "888888854410139", "good_flag": "2", "new_flag": "2", "short_name": "\u5927\u6c5f\u7f8e\u7279\u98df\u54c1", "short_name_pinyin": "dajiangmeiteshipin", "status": null, "address": null, "name": null, "id": "31382"}, "mid": "888888854410139", "shopId": "31382", "netid": null, "province": 901, "district": 601, "zipcode": null, "telephone": null, "posDate": null, "destineTel": null, "togoTel": null, "trafficWay": null, "signBuilding": null, "businessArea": null, "selfRoom": null, "businessTime": null, "stall": null, "consume": null, "serviceFei": null, "favourable": null, "shopMemo": null, "appraise": null, "website": null, "memo": null, "payTypes": "\u6749\u5fb7\u5361", "shopTypes": "\u4e13\u5356", "consumeTypes": null, "cookTypes": null, "orderNum": 1000, "card4no": null, "card4noAcc": null, "district2": 410, "searchScope": null, "status": 1, "address": "\u5927\u5b81\u8def1135\u53f7", "name": "\u5927\u6c5f\u7f8e\u7279\u98df\u54c1 \u5927\u5b81\u8def\u5e97", "id": 170691, "pageNo": 0, "pageCount": null, "pageSize": 10, "ids": null, "endTime": null, "startTime": null}], "pageLimit": 1030, "size": 10}