{"pageCount": 1095, "count": 10942, "pageNo": 102, "subShopInfo": {"cardNumFive": "", "isSupportYj": "", "cityName": null, "districtName": null, "shopinfo": {"mid": null, "good_flag": null, "new_flag": null, "short_name": null, "short_name_pinyin": null, "status": null, "address": "", "name": "", "id": null}, "mid": null, "shopId": null, "netid": null, "province": 901, "district": null, "zipcode": null, "telephone": null, "posDate": null, "destineTel": null, "togoTel": null, "trafficWay": null, "signBuilding": null, "businessArea": null, "selfRoom": null, "businessTime": null, "stall": null, "consume": null, "serviceFei": null, "favourable": null, "shopMemo": "1", "appraise": null, "website": null, "memo": null, "payTypes": "", "shopTypes": "", "consumeTypes": null, "cookTypes": null, "orderNum": null, "card4no": null, "card4noAcc": null, "district2": null, "searchScope": null, "status": null, "address": "", "name": null, "id": null, "pageNo": 101, "pageCount": null, "pageSize": 10, "ids": null, "endTime": null, "startTime": null}, "list": [{"cardNumFive": null, "isSupportYj": null, "cityName": null, "districtName": null, "shopinfo": {"mid": "888888856610012", "good_flag": "2", "new_flag": "2", "short_name": "\u8fbe\u8299\u59ae", "short_name_pinyin": "dafuni", "status": null, "address": null, "name": null, "id": "31375"}, "mid": "888888856610012", "shopId": "31375", "netid": null, "province": 901, "district": 601, "zipcode": null, "telephone": "58115393", "posDate": "20081105", "destineTel": null, "togoTel": null, "trafficWay": "\u516c\u4ea4451 \u6caa\u5357\u7ebf \u9f99\u4e1c\u4e13\u7ebf", "signBuilding": null, "businessArea": null, "selfRoom": null, "businessTime": "9:00~23:00", "stall": null, "consume": null, "serviceFei": null, "favourable": null, "shopMemo": null, "appraise": null, "website": null, "memo": null, "payTypes": "\u6749\u5fb7\u5361", "shopTypes": "\u4e13\u5356", "consumeTypes": null, "cookTypes": null, "orderNum": 1000, "card4no": null, "card4noAcc": null, "district2": 418, "searchScope": null, "status": 1, "address": "\u5eb7\u6c88\u8def1558\u53f7", "name": "\u8fbe\u8299\u59ae \u5468\u6d66\u5eb7\u6c88\u4e8c\u5e97", "id": 133131, "pageNo": 0, "pageCount": null, "pageSize": 10, "ids": null, "endTime": null, "startTime": null}, {"cardNumFive": null, "isSupportYj": null, "cityName": null, "districtName": null, "shopinfo": {"mid": "888888854410139", "good_flag": "2", "new_flag": "2", "short_name": "\u5927\u6c5f\u7f8e\u7279\u98df\u54c1", "short_name_pinyin": "dajiangmeiteshipin", "status": null, "address": null, "name": null, "id": "31382"}, "mid": "888888854410139", "shopId": "31382", "netid": null, "province": 901, "district": 601, "zipcode": null, "telephone": "65264544", "posDate": "20090202", "destineTel": null, "togoTel": null, "trafficWay": "\u516c\u4ea4132 518 745", "signBuilding": null, "businessArea": null, "selfRoom": null, "businessTime": null, "stall": null, "consume": null, "serviceFei": null, "favourable": null, "shopMemo": null, "appraise": null, "website": null, "memo": null, "payTypes": "\u6749\u5fb7\u5361", "shopTypes": "\u4e13\u5356", "consumeTypes": null, "cookTypes": null, "orderNum": 1000, "card4no": null, "card4noAcc": null, "district2": 408, "searchScope": null, "status": 1, "address": "\u8f66\u7ad9\u5317\u8def474\u53f7", "name": "\u5927\u6c5f\u7f8e\u7279\u98df\u54c1 \u8f66\u7ad9\u5317\u8def\u5e97", "id": 133143, "pageNo": 0, "pageCount": null, "pageSize": 10, "ids": null, "endTime": null, "startTime": null}, {"cardNumFive": null, "isSupportYj": null, "cityName": null, "districtName": null, "shopinfo": {"mid": "888888854410139", "good_flag": "2", "new_flag": "2", "short_name": "\u5927\u6c5f\u7f8e\u7279\u98df\u54c1", "short_name_pinyin": "dajiangmeiteshipin", "status": null, "address": null, "name": null, "id": "31382"}, "mid": "888888854410139", "shopId": "31382", "netid": null, "province": 901, "district": 601, "zipcode": null, "telephone": null, "posDate": null, "destineTel": null, "togoTel": null, "trafficWay": null, "signBuilding": null, "businessArea": null, "selfRoom": null, "businessTime": null, "stall": null, "consume": null, "serviceFei": null, "favourable": null, "shopMemo": null, "appraise": null, "website": null, "memo": null, "payTypes": "\u6749\u5fb7\u5361", "shopTypes": "\u4e13\u5356", "consumeTypes": null, "cookTypes": null, "orderNum": 1000, "card4no": null, "card4noAcc": null, "district2": 411, "searchScope": null, "status": 1, "address": "\u5357\u7fd4\u6c11\u4e3b\u4e1c\u8857120\u53f7", "name": "\u5927\u6c5f\u7f8e\u7279\u98df\u54c1 \u6c11\u4e3b\u4e1c\u8857\u5e97", "id": 170653, "pageNo": 0, "pageCount": null, "pageSize": 10, "ids": null, "endTime": null, "startTime": null}, {"cardNumFive": null, "isSupportYj": null, "cityName": null, "districtName": null, "shopinfo": {"mid": "888888854410139", "good_flag": "2", "new_flag": "2", "short_name": "\u5927\u6c5f\u7f8e\u7279\u98df\u54c1", "short_name_pinyin": "dajiangmeiteshipin", "status": null, "address": null, "name": null, "id": "31382"}, "mid": "888888854410139", "shopId": "31382", "netid": null, "province": 901, "district": 601, "zipcode": null, "telephone": null, "posDate": null, "destineTel": null, "togoTel": null, "trafficWay": null, "signBuilding": null, "businessArea": null, "selfRoom": null, "businessTime": null, "stall": null, "consume": null, "serviceFei": null, "favourable": null, "shopMemo": null, "appraise": null, "website": null, "memo": null, "payTypes": "\u6749\u5fb7\u5361", "shopTypes": "\u4e13\u5356", "consumeTypes": null, "cookTypes": null, "orderNum": 1000, "card4no": null, "card4noAcc": null, "district2": 411, "searchScope": null, "status": 1, "address": "\u91d1\u6c99\u8def335\u53f7", "name": "\u5927\u6c5f\u7f8e\u7279\u98df\u54c1 \u91d1\u6c99\u8def\u5e97", "id": 170654, "pageNo": 0, "pageCount": null, "pageSize": 10, "ids": null, "endTime": null, "startTime": null}, {"cardNumFive": null, "isSupportYj": null, "cityName": null, "districtName": null, "shopinfo": {"mid": "888888854410139", "good_flag": "2", "new_flag": "2", "short_name": "\u5927\u6c5f\u7f8e\u7279\u98df\u54c1", "short_name_pinyin": "dajiangmeiteshipin", "status": null, "address": null, "name": null, "id": "31382"}, "mid": "888888854410139", "shopId": "31382", "netid": null, "province": 901, "district": 601, "zipcode": null, "telephone": null, "posDate": null, "destineTel": null, "togoTel": null, "trafficWay": null, "signBuilding": null, "businessArea": null, "selfRoom": null, "businessTime": null, "stall": null, "consume": null, "serviceFei": null, "favourable": null, "shopMemo": null, "appraise": null, "website": null, "memo": null, "payTypes": "\u6749\u5fb7\u5361", "shopTypes": "\u4e13\u5356", "consumeTypes": null, "cookTypes": null, "orderNum": 1000, "card4no": null, "card4noAcc": null, "district2": 411, "searchScope": null, "status": 1, "address": "\u4ed3\u573a\u8def2670\u53f7", "name": "\u5927\u6c5f\u7f8e\u7279\u98df\u54c1 \u4ed3\u573a\u8def\u5e97", "id": 170655, "pageNo": 0, "pageCount": null, "pageSize": 10, "ids": null, "endTime": null, "startTime": null}, {"cardNumFive": null, "isSupportYj": null, "cityName": null, "districtName": null, "shopinfo": {"mid": "888888854410139", "good_flag": "2", "new_flag": "2", "short_name": "\u5927\u6c5f\u7f8e\u7279\u98df\u54c1", "short_name_pinyin": "dajiangmeiteshipin", "status": null, "address": null, "name": null, "id": "31382"}, "mid": "888888854410139", "shopId": "31382", "netid": null, "province": 901, "district": 601, "zipcode": null, "telephone": null, "posDate": null, "destineTel": null, "togoTel": null, "trafficWay": null, "signBuilding": null, "businessArea": null, "selfRoom": null, "businessTime": null, "stall": null, "consume": null, "serviceFei": null, "favourable": null, "shopMemo": null, "appraise": null, "website": null, "memo": null, "payTypes": "\u6749\u5fb7\u5361", "shopTypes": "\u4e13\u5356", "consumeTypes": null, "cookTypes": null, "orderNum": 1000, "card4no": null, "card4noAcc": null, "district2": 411, "searchScope": null, "status": 1, "address": "\u6885\u56ed\u8def6\u53f7", "name": "\u5927\u6c5f\u7f8e\u7279\u98df\u54c1 \u6885\u56ed\u8def\u5e97", "id": 170656, "pageNo": 0, "pageCount": null, "pageSize": 10, "ids": null, "endTime": null, "startTime": null}, {"cardNumFive": null, "isSupportYj": null, "cityName": null, "districtName": null, "shopinfo": {"mid": "888888854410139", "good_flag": "2", "new_flag": "2", "short_name": "\u5927\u6c5f\u7f8e\u7279\u98df\u54c1", "short_name_pinyin": "dajiangmeiteshipin", "status": null, "address": null, "name": null, "id": "31382"}, "mid": "888888854410139", "shopId": "31382", "netid": null, "province": 901, "district": 601, "zipcode": null, "telephone": null, "posDate": null, "destineTel": null, "togoTel": null, "trafficWay": null, "signBuilding": null, "businessArea": null, "selfRoom": null, "businessTime": null, "stall": null, "consume": null, "serviceFei": null, "favourable": null, "shopMemo": null, "appraise": null, "website": null, "memo": null, "payTypes": "\u6749\u5fb7\u5361", "shopTypes": "\u4e13\u5356", "consumeTypes": null, "cookTypes": null, "orderNum": 1000, "card4no": null, "card4noAcc": null, "district2": 418, "searchScope": null, "status": 1, "address": "\u7075\u5ca9\u5357\u8def1059\u53f7", "name": "\u5927\u6c5f\u7f8e\u7279\u98df\u54c1 \u7075\u5ca9\u5357\u8def\u4e8c\u5e97", "id": 170657, "pageNo": 0, "pageCount": null, "pageSize": 10, "ids": null, "endTime": null, "startTime": null}, {"cardNumFive": null, "isSupportYj": null, "cityName": null, "districtName": null, "shopinfo": {"mid": "888888854410139", "good_flag": "2", "new_flag": "2", "short_name": "\u5927\u6c5f\u7f8e\u7279\u98df\u54c1", "short_name_pinyin": "dajiangmeiteshipin", "status": null, "address": null, "name": null, "id": "31382"}, "mid": "888888854410139", "shopId": "31382", "netid": null, "province": 901, "district": 601, "zipcode": null, "telephone": null, "posDate": null, "destineTel": null, "togoTel": null, "trafficWay": null, "signBuilding": null, "businessArea": null, "selfRoom": null, "businessTime": null, "stall": null, "consume": null, "serviceFei": null, "favourable": null, "shopMemo": null, "appraise": null, "website": null, "memo": null, "payTypes": "\u6749\u5fb7\u5361", "shopTypes": "\u4e13\u5356", "consumeTypes": null, "cookTypes": null, "orderNum": 1000, "card4no": null, "card4noAcc": null, "district2": 412, "searchScope": null, "status": 1, "address": "\u4e2d\u5c71\u4e1c\u8def138-1\u53f7", "name": "\u5927\u6c5f\u7f8e\u7279\u98df\u54c1 \u4e2d\u5c71\u4e1c\u8def\u5e97", "id": 170659, "pageNo": 0, "pageCount": null, "pageSize": 10, "ids": null, "endTime": null, "startTime": null}, {"cardNumFive": null, "isSupportYj": null, "cityName": null, "districtName": null, "shopinfo": {"mid": "888888854410139", "good_flag": "2", "new_flag": "2", "short_name": "\u5927\u6c5f\u7f8e\u7279\u98df\u54c1", "short_name_pinyin": "dajiangmeiteshipin", "status": null, "address": null, "name": null, "id": "31382"}, "mid": "888888854410139", "shopId": "31382", "netid": null, "province": 901, "district": 601, "zipcode": null, "telephone": null, "posDate": null, "destineTel": null, "togoTel": null, "trafficWay": null, "signBuilding": null, "businessArea": null, "selfRoom": null, "businessTime": null, "stall": null, "consume": null, "serviceFei": null, "favourable": null, "shopMemo": null, "appraise": null, "website": null, "memo": null, "payTypes": "\u6749\u5fb7\u5361", "shopTypes": "\u4e13\u5356", "consumeTypes": null, "cookTypes": null, "orderNum": 1000, "card4no": null, "card4noAcc": null, "district2": 412, "searchScope": null, "status": 1, "address": "\u4e2d\u5c71\u4e8c\u8def446-448-1\u53f7", "name": "\u5927\u6c5f\u7f8e\u7279\u98df\u54c1 \u4e2d\u5c71\u4e8c\u8def\u5e97", "id": 170660, "pageNo": 0, "pageCount": null, "pageSize": 10, "ids": null, "endTime": null, "startTime": null}, {"cardNumFive": null, "isSupportYj": null, "cityName": null, "districtName": null, "shopinfo": {"mid": "888888854410139", "good_flag": "2", "new_flag": "2", "short_name": "\u5927\u6c5f\u7f8e\u7279\u98df\u54c1", "short_name_pinyin": "dajiangmeiteshipin", "status": null, "address": null, "name": null, "id": "31382"}, "mid": "888888854410139", "shopId": "31382", "netid": null, "province": 901, "district": 601, "zipcode": null, "telephone": null, "posDate": null, "destineTel": null, "togoTel": null, "trafficWay": null, "signBuilding": null, "businessArea": null, "selfRoom": null, "businessTime": null, "stall": null, "consume": null, "serviceFei": null, "favourable": null, "shopMemo": null, "appraise": null, "website": null, "memo": null, "payTypes": "\u6749\u5fb7\u5361", "shopTypes": "\u4e13\u5356", "consumeTypes": null, "cookTypes": null, "orderNum": 1000, "card4no": null, "card4noAcc": null, "district2": 409, "searchScope": null, "status": 1, "address": "\u9f99\u8317\u8def1774\u53f7", "name": "\u5927\u6c5f\u7f8e\u7279\u98df\u54c1 \u9f99\u8317\u8def\u4e8c\u5e97", "id": 170661, "pageNo": 0, "pageCount": null, "pageSize": 10, "ids": null, "endTime": null, "startTime": null}], "pageLimit": 1010, "size": 10}