{"pageCount": 1095, "count": 10942, "pageNo": 103, "subShopInfo": {"cardNumFive": "", "isSupportYj": "", "cityName": null, "districtName": null, "shopinfo": {"mid": null, "good_flag": null, "new_flag": null, "short_name": null, "short_name_pinyin": null, "status": null, "address": "", "name": "", "id": null}, "mid": null, "shopId": null, "netid": null, "province": 901, "district": null, "zipcode": null, "telephone": null, "posDate": null, "destineTel": null, "togoTel": null, "trafficWay": null, "signBuilding": null, "businessArea": null, "selfRoom": null, "businessTime": null, "stall": null, "consume": null, "serviceFei": null, "favourable": null, "shopMemo": "1", "appraise": null, "website": null, "memo": null, "payTypes": "", "shopTypes": "", "consumeTypes": null, "cookTypes": null, "orderNum": null, "card4no": null, "card4noAcc": null, "district2": null, "searchScope": null, "status": null, "address": "", "name": null, "id": null, "pageNo": 102, "pageCount": null, "pageSize": 10, "ids": null, "endTime": null, "startTime": null}, "list": [{"cardNumFive": null, "isSupportYj": null, "cityName": null, "districtName": null, "shopinfo": {"mid": "888888854410139", "good_flag": "2", "new_flag": "2", "short_name": "\u5927\u6c5f\u7f8e\u7279\u98df\u54c1", "short_name_pinyin": "dajiangmeiteshipin", "status": null, "address": null, "name": null, "id": "31382"}, "mid": "888888854410139", "shopId": "31382", "netid": null, "province": 901, "district": 601, "zipcode": null, "telephone": null, "posDate": null, "destineTel": null, "togoTel": null, "trafficWay": null, "signBuilding": null, "businessArea": null, "selfRoom": null, "businessTime": null, "stall": null, "consume": null, "serviceFei": null, "favourable": null, "shopMemo": null, "appraise": null, "website": null, "memo": null, "payTypes": "\u6749\u5fb7\u5361", "shopTypes": "\u4e13\u5356", "consumeTypes": null, "cookTypes": null, "orderNum": 1000, "card4no": null, "card4noAcc": null, "district2": 409, "searchScope": null, "status": 1, "address": "\u758f\u5f71\u8def748-1\u53f7", "name": "\u5927\u6c5f\u7f8e\u7279\u98df\u54c1 \u758f\u5f71\u8def\u5e97", "id": 170663, "pageNo": 0, "pageCount": null, "pageSize": 10, "ids": null, "endTime": null, "startTime": null}, {"cardNumFive": null, "isSupportYj": null, "cityName": null, "districtName": null, "shopinfo": {"mid": "888888854410139", "good_flag": "2", "new_flag": "2", "short_name": "\u5927\u6c5f\u7f8e\u7279\u98df\u54c1", "short_name_pinyin": "dajiangmeiteshipin", "status": null, "address": null, "name": null, "id": "31382"}, "mid": "888888854410139", "shopId": "31382", "netid": null, "province": 901, "district": 601, "zipcode": null, "telephone": null, "posDate": null, "destineTel": null, "togoTel": null, "trafficWay": null, "signBuilding": null, "businessArea": null, "selfRoom": null, "businessTime": null, "stall": null, "consume": null, "serviceFei": null, "favourable": null, "shopMemo": null, "appraise": null, "website": null, "memo": null, "payTypes": "\u6749\u5fb7\u5361", "shopTypes": "\u4e13\u5356", "consumeTypes": null, "cookTypes": null, "orderNum": 1000, "card4no": null, "card4noAcc": null, "district2": 409, "searchScope": null, "status": 1, "address": "\u5251\u5ddd\u8def127\u53f7", "name": "\u5927\u6c5f\u7f8e\u7279\u98df\u54c1 \u5251\u5ddd\u8def\u5e97", "id": 170664, "pageNo": 0, "pageCount": null, "pageSize": 10, "ids": null, "endTime": null, "startTime": null}, {"cardNumFive": null, "isSupportYj": null, "cityName": null, "districtName": null, "shopinfo": {"mid": "888888854410139", "good_flag": "2", "new_flag": "2", "short_name": "\u5927\u6c5f\u7f8e\u7279\u98df\u54c1", "short_name_pinyin": "dajiangmeiteshipin", "status": null, "address": null, "name": null, "id": "31382"}, "mid": "888888854410139", "shopId": "31382", "netid": null, "province": 901, "district": 601, "zipcode": null, "telephone": null, "posDate": null, "destineTel": null, "togoTel": null, "trafficWay": null, "signBuilding": null, "businessArea": null, "selfRoom": null, "businessTime": null, "stall": null, "consume": null, "serviceFei": null, "favourable": null, "shopMemo": null, "appraise": null, "website": null, "memo": null, "payTypes": "\u6749\u5fb7\u5361", "shopTypes": "\u4e13\u5356", "consumeTypes": null, "cookTypes": null, "orderNum": 1000, "card4no": null, "card4noAcc": null, "district2": 409, "searchScope": null, "status": 1, "address": "\u9526\u6885\u8def626\u53f7", "name": "\u5927\u6c5f\u7f8e\u7279\u98df\u54c1 \u9526\u6885\u8def\u5e97", "id": 170666, "pageNo": 0, "pageCount": null, "pageSize": 10, "ids": null, "endTime": null, "startTime": null}, {"cardNumFive": null, "isSupportYj": null, "cityName": null, "districtName": null, "shopinfo": {"mid": "888888854410139", "good_flag": "2", "new_flag": "2", "short_name": "\u5927\u6c5f\u7f8e\u7279\u98df\u54c1", "short_name_pinyin": "dajiangmeiteshipin", "status": null, "address": null, "name": null, "id": "31382"}, "mid": "888888854410139", "shopId": "31382", "netid": null, "province": 901, "district": 601, "zipcode": null, "telephone": null, "posDate": null, "destineTel": null, "togoTel": null, "trafficWay": null, "signBuilding": null, "businessArea": null, "selfRoom": null, "businessTime": null, "stall": null, "consume": null, "serviceFei": null, "favourable": null, "shopMemo": null, "appraise": null, "website": null, "memo": null, "payTypes": "\u6749\u5fb7\u5361", "shopTypes": "\u4e13\u5356", "consumeTypes": null, "cookTypes": null, "orderNum": 1000, "card4no": null, "card4noAcc": null, "district2": 412, "searchScope": null, "status": 1, "address": "\u6caa\u4ead\u5357\u8def51\u53f7", "name": "\u5927\u6c5f\u7f8e\u7279\u98df\u54c1 \u6caa\u4ead\u5357\u8def\u5e97", "id": 170667, "pageNo": 0, "pageCount": null, "pageSize": 10, "ids": null, "endTime": null, "startTime": null}, {"cardNumFive": null, "isSupportYj": null, "cityName": null, "districtName": null, "shopinfo": {"mid": "888888854410139", "good_flag": "2", "new_flag": "2", "short_name": "\u5927\u6c5f\u7f8e\u7279\u98df\u54c1", "short_name_pinyin": "dajiangmeiteshipin", "status": null, "address": null, "name": null, "id": "31382"}, "mid": "888888854410139", "shopId": "31382", "netid": null, "province": 901, "district": 601, "zipcode": null, "telephone": null, "posDate": null, "destineTel": null, "togoTel": null, "trafficWay": null, "signBuilding": null, "businessArea": null, "selfRoom": null, "businessTime": null, "stall": null, "consume": null, "serviceFei": null, "favourable": null, "shopMemo": null, "appraise": null, "website": null, "memo": null, "payTypes": "\u6749\u5fb7\u5361", "shopTypes": "\u4e13\u5356", "consumeTypes": null, "cookTypes": null, "orderNum": 1000, "card4no": null, "card4noAcc": null, "district2": 418, "searchScope": null, "status": 1, "address": "\u83b2\u5b89\u4e1c\u8def275\u53f7", "name": "\u5927\u6c5f\u7f8e\u7279\u98df\u54c1 \u83b2\u5b89\u4e1c\u8def\u5e97", "id": 170668, "pageNo": 0, "pageCount": null, "pageSize": 10, "ids": null, "endTime": null, "startTime": null}, {"cardNumFive": null, "isSupportYj": null, "cityName": null, "districtName": null, "shopinfo": {"mid": "888888854410139", "good_flag": "2", "new_flag": "2", "short_name": "\u5927\u6c5f\u7f8e\u7279\u98df\u54c1", "short_name_pinyin": "dajiangmeiteshipin", "status": null, "address": null, "name": null, "id": "31382"}, "mid": "888888854410139", "shopId": "31382", "netid": null, "province": 901, "district": 601, "zipcode": null, "telephone": null, "posDate": null, "destineTel": null, "togoTel": null, "trafficWay": null, "signBuilding": null, "businessArea": null, "selfRoom": null, "businessTime": null, "stall": null, "consume": null, "serviceFei": null, "favourable": null, "shopMemo": null, "appraise": null, "website": null, "memo": null, "payTypes": "\u6749\u5fb7\u5361", "shopTypes": "\u4e13\u5356", "consumeTypes": null, "cookTypes": null, "orderNum": 1000, "card4no": null, "card4noAcc": null, "district2": 418, "searchScope": null, "status": 1, "address": "\u51cc\u6cb3\u8def85\u53f7", "name": "\u5927\u6c5f\u7f8e\u7279\u98df\u54c1 \u51cc\u6cb3\u8def\u5e97", "id": 170671, "pageNo": 0, "pageCount": null, "pageSize": 10, "ids": null, "endTime": null, "startTime": null}, {"cardNumFive": null, "isSupportYj": null, "cityName": null, "districtName": null, "shopinfo": {"mid": "888888854410139", "good_flag": "2", "new_flag": "2", "short_name": "\u5927\u6c5f\u7f8e\u7279\u98df\u54c1", "short_name_pinyin": "dajiangmeiteshipin", "status": null, "address": null, "name": null, "id": "31382"}, "mid": "888888854410139", "shopId": "31382", "netid": null, "province": 901, "district": 601, "zipcode": null, "telephone": null, "posDate": null, "destineTel": null, "togoTel": null, "trafficWay": null, "signBuilding": null, "businessArea": null, "selfRoom": null, "businessTime": null, "stall": null, "consume": null, "serviceFei": null, "favourable": null, "shopMemo": null, "appraise": null, "website": null, "memo": null, "payTypes": "\u6749\u5fb7\u5361", "shopTypes": "\u4e13\u5356", "consumeTypes": null, "cookTypes": null, "orderNum": 1000, "card4no": null, "card4noAcc": null, "district2": 418, "searchScope": null, "status": 1, "address": "\u6d2a\u5c71\u8def107\u53f7", "name": "\u5927\u6c5f\u7f8e\u7279\u98df\u54c1 \u6d2a\u5c71\u8def\u5e97", "id": 170672, "pageNo": 0, "pageCount": null, "pageSize": 10, "ids": null, "endTime": null, "startTime": null}, {"cardNumFive": null, "isSupportYj": null, "cityName": null, "districtName": null, "shopinfo": {"mid": "888888854410139", "good_flag": "2", "new_flag": "2", "short_name": "\u5927\u6c5f\u7f8e\u7279\u98df\u54c1", "short_name_pinyin": "dajiangmeiteshipin", "status": null, "address": null, "name": null, "id": "31382"}, "mid": "888888854410139", "shopId": "31382", "netid": null, "province": 901, "district": 601, "zipcode": null, "telephone": null, "posDate": null, "destineTel": null, "togoTel": null, "trafficWay": null, "signBuilding": null, "businessArea": null, "selfRoom": null, "businessTime": null, "stall": null, "consume": null, "serviceFei": null, "favourable": null, "shopMemo": null, "appraise": null, "website": null, "memo": null, "payTypes": "\u6749\u5fb7\u5361", "shopTypes": "\u4e13\u5356", "consumeTypes": null, "cookTypes": null, "orderNum": 1000, "card4no": null, "card4noAcc": null, "district2": 407, "searchScope": null, "status": 1, "address": "\u56fd\u987a\u4e1c\u8def229\u53f7", "name": "\u5927\u6c5f\u7f8e\u7279\u98df\u54c1 \u56fd\u987a\u4e1c\u8def\u5e97", "id": 170674, "pageNo": 0, "pageCount": null, "pageSize": 10, "ids": null, "endTime": null, "startTime": null}, {"cardNumFive": null, "isSupportYj": null, "cityName": null, "districtName": null, "shopinfo": {"mid": "888888854410139", "good_flag": "2", "new_flag": "2", "short_name": "\u5927\u6c5f\u7f8e\u7279\u98df\u54c1", "short_name_pinyin": "dajiangmeiteshipin", "status": null, "address": null, "name": null, "id": "31382"}, "mid": "888888854410139", "shopId": "31382", "netid": null, "province": 901, "district": 601, "zipcode": null, "telephone": null, "posDate": null, "destineTel": null, "togoTel": null, "trafficWay": null, "signBuilding": null, "businessArea": null, "selfRoom": null, "businessTime": null, "stall": null, "consume": null, "serviceFei": null, "favourable": null, "shopMemo": null, "appraise": null, "website": null, "memo": null, "payTypes": "\u6749\u5fb7\u5361", "shopTypes": "\u4e13\u5356", "consumeTypes": null, "cookTypes": null, "orderNum": 1000, "card4no": null, "card4noAcc": null, "district2": 416, "searchScope": null, "status": 1, "address": "\u4e09\u6cc9\u8def1891\u53f7", "name": "\u5927\u6c5f\u7f8e\u7279\u98df\u54c1 \u4e09\u6cc9\u8def\u5e97", "id": 170676, "pageNo": 0, "pageCount": null, "pageSize": 10, "ids": null, "endTime": null, "startTime": null}, {"cardNumFive": null, "isSupportYj": null, "cityName": null, "districtName": null, "shopinfo": {"mid": "888888854410139", "good_flag": "2", "new_flag": "2", "short_name": "\u5927\u6c5f\u7f8e\u7279\u98df\u54c1", "short_name_pinyin": "dajiangmeiteshipin", "status": null, "address": null, "name": null, "id": "31382"}, "mid": "888888854410139", "shopId": "31382", "netid": null, "province": 901, "district": 601, "zipcode": null, "telephone": null, "posDate": null, "destineTel": null, "togoTel": null, "trafficWay": null, "signBuilding": null, "businessArea": null, "selfRoom": null, "businessTime": null, "stall": null, "consume": null, "serviceFei": null, "favourable": null, "shopMemo": null, "appraise": null, "website": null, "memo": null, "payTypes": "\u6749\u5fb7\u5361", "shopTypes": "\u4e13\u5356", "consumeTypes": null, "cookTypes": null, "orderNum": 1000, "card4no": null, "card4noAcc": null, "district2": 416, "searchScope": null, "status": 1, "address": "\u5171\u5eb7\u8def136\u53f7", "name": "\u5927\u6c5f\u7f8e\u7279\u98df\u54c1 \u5171\u5eb7\u8def\u5e97", "id": 170677, "pageNo": 0, "pageCount": null, "pageSize": 10, "ids": null, "endTime": null, "startTime": null}], "pageLimit": 1020, "size": 10}