{"pageCount": 1095, "count": 10942, "pageNo": 106, "subShopInfo": {"cardNumFive": "", "isSupportYj": "", "cityName": null, "districtName": null, "shopinfo": {"mid": null, "good_flag": null, "new_flag": null, "short_name": null, "short_name_pinyin": null, "status": null, "address": "", "name": "", "id": null}, "mid": null, "shopId": null, "netid": null, "province": 901, "district": null, "zipcode": null, "telephone": null, "posDate": null, "destineTel": null, "togoTel": null, "trafficWay": null, "signBuilding": null, "businessArea": null, "selfRoom": null, "businessTime": null, "stall": null, "consume": null, "serviceFei": null, "favourable": null, "shopMemo": "1", "appraise": null, "website": null, "memo": null, "payTypes": "", "shopTypes": "", "consumeTypes": null, "cookTypes": null, "orderNum": null, "card4no": null, "card4noAcc": null, "district2": null, "searchScope": null, "status": null, "address": "", "name": null, "id": null, "pageNo": 105, "pageCount": null, "pageSize": 10, "ids": null, "endTime": null, "startTime": null}, "list": [{"cardNumFive": null, "isSupportYj": null, "cityName": null, "districtName": null, "shopinfo": {"mid": "888888854110065", "good_flag": "1", "new_flag": "2", "short_name": "\u5927\u6da6\u53d1", "short_name_pinyin": "darunfa", "status": null, "address": null, "name": null, "id": "31390"}, "mid": "888888854110065", "shopId": "31390", "netid": null, "province": 901, "district": 601, "zipcode": null, "telephone": "54377104", "posDate": "20080721", "destineTel": null, "togoTel": null, "trafficWay": "\u516c\u4ea4703 162", "signBuilding": null, "businessArea": null, "selfRoom": null, "businessTime": null, "stall": null, "consume": null, "serviceFei": null, "favourable": null, "shopMemo": null, "appraise": null, "website": null, "memo": null, "payTypes": "\u6749\u5fb7\u5361,\u5361\u62bc\u91d1\u6d88\u8d39", "shopTypes": "\u8d85\u5e02", "consumeTypes": null, "cookTypes": null, "orderNum": 1000, "card4no": null, "card4noAcc": null, "district2": 409, "searchScope": null, "status": 1, "address": "\u6625\u7533\u8def2801\u53f7", "name": "\u5927\u6da6\u53d1 \u6625\u7533\u5e97", "id": 133196, "pageNo": 0, "pageCount": null, "pageSize": 10, "ids": null, "endTime": null, "startTime": null}, {"cardNumFive": null, "isSupportYj": null, "cityName": null, "districtName": null, "shopinfo": {"mid": "888888854110063", "good_flag": "1", "new_flag": "2", "short_name": "\u5927\u6da6\u53d1", "short_name_pinyin": "darunfa", "status": null, "address": null, "name": null, "id": "31391"}, "mid": "888888854110063", "shopId": "31391", "netid": null, "province": 901, "district": 601, "zipcode": null, "telephone": "66352555*109", "posDate": "20080721", "destineTel": null, "togoTel": null, "trafficWay": "\u516c\u4ea4923 737 \u5317\u534e\u7ebf", "signBuilding": null, "businessArea": null, "selfRoom": null, "businessTime": null, "stall": null, "consume": null, "serviceFei": null, "favourable": null, "shopMemo": null, "appraise": null, "website": null, "memo": null, "payTypes": "\u6749\u5fb7\u5361,\u5361\u62bc\u91d1\u6d88\u8d39", "shopTypes": "\u8d85\u5e02", "consumeTypes": null, "cookTypes": null, "orderNum": 1000, "card4no": null, "card4noAcc": null, "district2": 416, "searchScope": null, "status": 1, "address": "\u534e\u7075\u8def1051\u53f7", "name": "\u5927\u6da6\u53d1 \u5927\u534e\u5e97", "id": 133197, "pageNo": 0, "pageCount": null, "pageSize": 10, "ids": null, "endTime": null, "startTime": null}, {"cardNumFive": null, "isSupportYj": null, "cityName": null, "districtName": null, "shopinfo": {"mid": "888888854110067", "good_flag": "1", "new_flag": "2", "short_name": "\u5927\u6da6\u53d1", "short_name_pinyin": "darunfa", "status": null, "address": null, "name": null, "id": "31392"}, "mid": "888888854110067", "shopId": "31392", "netid": null, "province": 901, "district": 601, "zipcode": null, "telephone": "66522294", "posDate": "20080731", "destineTel": null, "togoTel": null, "trafficWay": "\u516c\u4ea4210 253 \u5730\u94c1\u4e00\u53f7\u7ebf", "signBuilding": null, "businessArea": null, "selfRoom": null, "businessTime": null, "stall": null, "consume": null, "serviceFei": null, "favourable": null, "shopMemo": null, "appraise": null, "website": null, "memo": null, "payTypes": "\u6749\u5fb7\u5361,\u5361\u62bc\u91d1\u6d88\u8d39", "shopTypes": "\u8d85\u5e02", "consumeTypes": null, "cookTypes": null, "orderNum": 1000, "card4no": null, "card4noAcc": null, "district2": 410, "searchScope": null, "status": 1, "address": "\u5171\u548c\u65b0\u8def2008\u53f7", "name": "\u5927\u6da6\u53d1 \u5927\u5b81\u5e97", "id": 133198, "pageNo": 0, "pageCount": null, "pageSize": 10, "ids": null, "endTime": null, "startTime": null}, {"cardNumFive": null, "isSupportYj": null, "cityName": null, "districtName": null, "shopinfo": {"mid": "888888854110069", "good_flag": "1", "new_flag": "2", "short_name": "\u5927\u6da6\u53d1", "short_name_pinyin": "darunfa", "status": null, "address": null, "name": null, "id": "31393"}, "mid": "888888854110069", "shopId": "31393", "netid": null, "province": 901, "district": 601, "zipcode": null, "telephone": "67195853", "posDate": "20080728", "destineTel": null, "togoTel": null, "trafficWay": "\u516c\u4ea4\u83b2\u5e84\u7ebf", "signBuilding": null, "businessArea": null, "selfRoom": null, "businessTime": null, "stall": null, "consume": null, "serviceFei": null, "favourable": null, "shopMemo": null, "appraise": null, "website": null, "memo": null, "payTypes": "\u6749\u5fb7\u5361,\u5361\u62bc\u91d1\u6d88\u8d39", "shopTypes": "\u8d85\u5e02", "consumeTypes": null, "cookTypes": null, "orderNum": 1000, "card4no": null, "card4noAcc": null, "district2": 413, "searchScope": null, "status": 1, "address": "\u5357\u4ead\u516c\u8def601\u53f7", "name": "\u5927\u6da6\u53d1 \u5949\u8d24\u5e97", "id": 133199, "pageNo": 0, "pageCount": null, "pageSize": 10, "ids": null, "endTime": null, "startTime": null}, {"cardNumFive": null, "isSupportYj": null, "cityName": null, "districtName": null, "shopinfo": {"mid": "888888854110068", "good_flag": "1", "new_flag": "2", "short_name": "\u5927\u6da6\u53d1", "short_name_pinyin": "darunfa", "status": null, "address": null, "name": null, "id": "31394"}, "mid": "888888854110068", "shopId": "31394", "netid": null, "province": 901, "district": 601, "zipcode": null, "telephone": "54168161", "posDate": "20080807", "destineTel": null, "togoTel": null, "trafficWay": "\u516c\u4ea4150 803", "signBuilding": null, "businessArea": null, "selfRoom": null, "businessTime": null, "stall": null, "consume": null, "serviceFei": null, "favourable": null, "shopMemo": null, "appraise": null, "website": null, "memo": null, "payTypes": "\u6749\u5fb7\u5361,\u5361\u62bc\u91d1\u6d88\u8d39", "shopTypes": "\u8d85\u5e02", "consumeTypes": null, "cookTypes": null, "orderNum": 1000, "card4no": null, "card4noAcc": null, "district2": 409, "searchScope": null, "status": 1, "address": "\u6c34\u6e05\u8def1390\u53f7", "name": "\u5927\u6da6\u53d1 \u6e2f\u6fb3\u5e97", "id": 133200, "pageNo": 0, "pageCount": null, "pageSize": 10, "ids": null, "endTime": null, "startTime": null}, {"cardNumFive": null, "isSupportYj": null, "cityName": null, "districtName": null, "shopinfo": {"mid": "888002154119900", "good_flag": "1", "new_flag": "2", "short_name": "\u5927\u6da6\u53d1", "short_name_pinyin": "darunfa", "status": null, "address": null, "name": null, "id": "31395"}, "mid": "888002154119900", "shopId": "31395", "netid": null, "province": 901, "district": 601, "zipcode": null, "telephone": "60839111", "posDate": "200909", "destineTel": null, "togoTel": null, "trafficWay": "\u516c\u4ea4\u5317\u9752\u7ebf\u3001\u8398\u7eaa\u7ebf", "signBuilding": null, "businessArea": null, "selfRoom": null, "businessTime": null, "stall": null, "consume": null, "serviceFei": null, "favourable": null, "shopMemo": null, "appraise": null, "website": null, "memo": null, "payTypes": "\u6749\u5fb7\u5361,\u5361\u62bc\u91d1\u6d88\u8d39", "shopTypes": "\u8d85\u5e02", "consumeTypes": null, "cookTypes": null, "orderNum": 1000, "card4no": null, "card4noAcc": null, "district2": 409, "searchScope": null, "status": 1, "address": "\u7e41\u5174\u8def399\u5f042\u53f7", "name": "\u5927\u6da6\u53d1 \u534e\u6f15\u5e97", "id": 133201, "pageNo": 0, "pageCount": null, "pageSize": 10, "ids": null, "endTime": null, "startTime": null}, {"cardNumFive": null, "isSupportYj": null, "cityName": null, "districtName": null, "shopinfo": {"mid": "888888854110066", "good_flag": "1", "new_flag": "2", "short_name": "\u5927\u6da6\u53d1", "short_name_pinyin": "darunfa", "status": null, "address": null, "name": null, "id": "31396"}, "mid": "888888854110066", "shopId": "31396", "netid": null, "province": 901, "district": 601, "zipcode": null, "telephone": "68196661", "posDate": "20080731", "destineTel": null, "togoTel": null, "trafficWay": "\u516c\u4ea4451 572", "signBuilding": null, "businessArea": null, "selfRoom": null, "businessTime": null, "stall": null, "consume": null, "serviceFei": null, "favourable": null, "shopMemo": null, "appraise": null, "website": null, "memo": null, "payTypes": "\u6749\u5fb7\u5361,\u5361\u62bc\u91d1\u6d88\u8d39", "shopTypes": "\u8d85\u5e02", "consumeTypes": null, "cookTypes": null, "orderNum": 1000, "card4no": null, "card4noAcc": null, "district2": 418, "searchScope": null, "status": 1, "address": "\u5eb7\u6865\u9547\u79c0\u6cbf\u8def1132-1180\u53f7", "name": "\u5927\u6da6\u53d1 \u5eb7\u6865\u5e97", "id": 133202, "pageNo": 0, "pageCount": null, "pageSize": 10, "ids": null, "endTime": null, "startTime": null}, {"cardNumFive": null, "isSupportYj": null, "cityName": null, "districtName": null, "shopinfo": {"mid": "888888854110071", "good_flag": "1", "new_flag": "1", "short_name": "\u5927\u6da6\u53d1", "short_name_pinyin": "darunfa", "status": null, "address": null, "name": null, "id": "31397"}, "mid": "888888854110071", "shopId": "31397", "netid": null, "province": 901, "district": 601, "zipcode": null, "telephone": null, "posDate": "20091221", "destineTel": null, "togoTel": null, "trafficWay": null, "signBuilding": null, "businessArea": null, "selfRoom": null, "businessTime": null, "stall": null, "consume": null, "serviceFei": null, "favourable": null, "shopMemo": null, "appraise": null, "website": null, "memo": null, "payTypes": "\u6749\u5fb7\u5361,\u5361\u62bc\u91d1\u6d88\u8d39", "shopTypes": "\u8d85\u5e02", "consumeTypes": null, "cookTypes": null, "orderNum": 1000, "card4no": null, "card4noAcc": null, "district2": 410, "searchScope": null, "status": 1, "address": "\u4fde\u6cfe\u6e2f\u8def1\u53f7", "name": "\u5927\u6da6\u53d1 \u5e73\u578b\u5173\u5e97", "id": 133203, "pageNo": 0, "pageCount": null, "pageSize": 10, "ids": null, "endTime": null, "startTime": null}, {"cardNumFive": null, "isSupportYj": null, "cityName": null, "districtName": null, "shopinfo": {"mid": "888888854110350", "good_flag": "2", "new_flag": "1", "short_name": "\u5927\u6da6\u53d1", "short_name_pinyin": "darunfa", "status": null, "address": null, "name": null, "id": "31398"}, "mid": "888888854110350", "shopId": "31398", "netid": null, "province": 901, "district": 601, "zipcode": null, "telephone": null, "posDate": "20100118", "destineTel": null, "togoTel": null, "trafficWay": null, "signBuilding": null, "businessArea": null, "selfRoom": null, "businessTime": null, "stall": null, "consume": null, "serviceFei": null, "favourable": null, "shopMemo": null, "appraise": null, "website": null, "memo": null, "payTypes": "\u6749\u5fb7\u5361,\u5361\u62bc\u91d1\u6d88\u8d39", "shopTypes": "\u8d85\u5e02", "consumeTypes": null, "cookTypes": null, "orderNum": 1000, "card4no": null, "card4noAcc": null, "district2": 418, "searchScope": null, "status": 1, "address": "\u6d66\u4e1c\u65b0\u533a\u957f\u6e05\u8def1200\u5f041\u53f7", "name": "\u5927\u6da6\u53d1 \u4e09\u6797\u5e97", "id": 133204, "pageNo": 0, "pageCount": null, "pageSize": 10, "ids": null, "endTime": null, "startTime": null}, {"cardNumFive": null, "isSupportYj": null, "cityName": null, "districtName": null, "shopinfo": {"mid": "888888854110064", "good_flag": "1", "new_flag": "2", "short_name": "\u5927\u6da6\u53d1", "short_name_pinyin": "darunfa", "status": null, "address": null, "name": null, "id": "31399"}, "mid": "888888854110064", "shopId": "31399", "netid": null, "province": 901, "district": 601, "zipcode": null, "telephone": "57826949", "posDate": "20080718", "destineTel": null, "togoTel": null, "trafficWay": "\u516c\u4ea4\u677e\u8398\u7ebf \u677e\u6885\u7ebf", "signBuilding": null, "businessArea": null, "selfRoom": null, "businessTime": null, "stall": null, "consume": null, "serviceFei": null, "favourable": null, "shopMemo": null, "appraise": null, "website": null, "memo": null, "payTypes": "\u6749\u5fb7\u5361,\u5361\u62bc\u91d1\u6d88\u8d39", "shopTypes": "\u8d85\u5e02", "consumeTypes": null, "cookTypes": null, "orderNum": 1000, "card4no": null, "card4noAcc": null, "district2": 412, "searchScope": null, "status": 1, "address": "\u8363\u4e50\u4e2d\u8def552-652\u53f7", "name": "\u5927\u6da6\u53d1 \u677e\u6c5f\u5e97", "id": 133205, "pageNo": 0, "pageCount": null, "pageSize": 10, "ids": null, "endTime": null, "startTime": null}], "pageLimit": 1050, "size": 10}