{"pageCount": 1095, "count": 10942, "pageNo": 119, "subShopInfo": {"cardNumFive": "", "isSupportYj": "", "cityName": null, "districtName": null, "shopinfo": {"mid": null, "good_flag": null, "new_flag": null, "short_name": null, "short_name_pinyin": null, "status": null, "address": "", "name": "", "id": null}, "mid": null, "shopId": null, "netid": null, "province": 901, "district": null, "zipcode": null, "telephone": null, "posDate": null, "destineTel": null, "togoTel": null, "trafficWay": null, "signBuilding": null, "businessArea": null, "selfRoom": null, "businessTime": null, "stall": null, "consume": null, "serviceFei": null, "favourable": null, "shopMemo": "1", "appraise": null, "website": null, "memo": null, "payTypes": "", "shopTypes": "", "consumeTypes": null, "cookTypes": null, "orderNum": null, "card4no": null, "card4noAcc": null, "district2": null, "searchScope": null, "status": null, "address": "", "name": null, "id": null, "pageNo": 118, "pageCount": null, "pageSize": 10, "ids": null, "endTime": null, "startTime": null}, "list": [{"cardNumFive": null, "isSupportYj": null, "cityName": null, "districtName": null, "shopinfo": {"mid": "888888848120012", "good_flag": "2", "new_flag": "1", "short_name": "\u8fea\u4fe1\u901a", "short_name_pinyin": "dixintong", "status": null, "address": null, "name": null, "id": "31451"}, "mid": "888888848120012", "shopId": "31451", "netid": null, "province": 901, "district": 601, "zipcode": null, "telephone": "58983824", "posDate": "20071207", "destineTel": null, "togoTel": null, "trafficWay": "\u5f90\u5ddd\u7ebf \u4e0a\u5ddd\u7ebf \u7533\u6c5f\u7ebf", "signBuilding": null, "businessArea": null, "selfRoom": null, "businessTime": "9:00~21:00", "stall": null, "consume": null, "serviceFei": null, "favourable": null, "shopMemo": null, "appraise": null, "website": null, "memo": null, "payTypes": "\u6749\u5fb7\u5361", "shopTypes": "\u96f6\u552e,\u4e13\u5356", "consumeTypes": null, "cookTypes": null, "orderNum": 1000, "card4no": null, "card4noAcc": null, "district2": 418, "searchScope": null, "status": 1, "address": "\u5ddd\u6c99\u9547\u65b0\u5ddd\u8def353\u53f7", "name": "\u8fea\u4fe1\u901a \u5ddd\u6c99\u65b0\u5e97", "id": 133379, "pageNo": 0, "pageCount": null, "pageSize": 10, "ids": null, "endTime": null, "startTime": null}, {"cardNumFive": null, "isSupportYj": null, "cityName": null, "districtName": null, "shopinfo": {"mid": "888888848120012", "good_flag": "2", "new_flag": "1", "short_name": "\u8fea\u4fe1\u901a", "short_name_pinyin": "dixintong", "status": null, "address": null, "name": null, "id": "31451"}, "mid": "888888848120012", "shopId": "31451", "netid": null, "province": 901, "district": 601, "zipcode": null, "telephone": "51053350", "posDate": "20071203", "destineTel": null, "togoTel": null, "trafficWay": "\u65c5\u6e3810\u53f7\u7ebf \u5730\u94c1\u4e09\u53f7\u7ebf \u516c\u4ea447", "signBuilding": null, "businessArea": null, "selfRoom": null, "businessTime": "9:00~21:00", "stall": null, "consume": null, "serviceFei": null, "favourable": null, "shopMemo": null, "appraise": null, "website": null, "memo": null, "payTypes": "\u6749\u5fb7\u5361", "shopTypes": "\u96f6\u552e,\u4e13\u5356", "consumeTypes": null, "cookTypes": null, "orderNum": 1000, "card4no": null, "card4noAcc": null, "district2": 408, "searchScope": null, "status": 1, "address": "\u56db\u5ddd\u5317\u8def1851\u53f71-1\uff0c1-2\u5e95\u697c", "name": "\u8fea\u4fe1\u901a \u591a\u4f26\u5e97", "id": 133381, "pageNo": 0, "pageCount": null, "pageSize": 10, "ids": null, "endTime": null, "startTime": null}, {"cardNumFive": null, "isSupportYj": null, "cityName": null, "districtName": null, "shopinfo": {"mid": "888888848120012", "good_flag": "2", "new_flag": "1", "short_name": "\u8fea\u4fe1\u901a", "short_name_pinyin": "dixintong", "status": null, "address": null, "name": null, "id": "31451"}, "mid": "888888848120012", "shopId": "31451", "netid": null, "province": 901, "district": 601, "zipcode": null, "telephone": "69190278", "posDate": "20071212", "destineTel": null, "togoTel": null, "trafficWay": "\u516c\u4ea4740 947 \u65c5\u6e386B\u7ebf", "signBuilding": null, "businessArea": null, "selfRoom": null, "businessTime": "9:00~21:00", "stall": null, "consume": null, "serviceFei": null, "favourable": null, "shopMemo": null, "appraise": null, "website": null, "memo": null, "payTypes": "\u6749\u5fb7\u5361", "shopTypes": "\u96f6\u552e,\u4e13\u5356", "consumeTypes": null, "cookTypes": null, "orderNum": 1000, "card4no": null, "card4noAcc": null, "district2": 405, "searchScope": null, "status": 1, "address": "\u66f9\u5b89\u8def1611\u53f7\u5229\u5bcc\u5927\u590fA3-A6\uff0cA23-A24", "name": "\u8fea\u4fe1\u901a \u4e30\u5e84\u5e97", "id": 133382, "pageNo": 0, "pageCount": null, "pageSize": 10, "ids": null, "endTime": null, "startTime": null}, {"cardNumFive": null, "isSupportYj": null, "cityName": null, "districtName": null, "shopinfo": {"mid": "888888848120012", "good_flag": "2", "new_flag": "1", "short_name": "\u8fea\u4fe1\u901a", "short_name_pinyin": "dixintong", "status": null, "address": null, "name": null, "id": "31451"}, "mid": "888888848120012", "shopId": "31451", "netid": null, "province": 901, "district": 601, "zipcode": null, "telephone": "57515681", "posDate": "20071213", "destineTel": null, "togoTel": null, "trafficWay": "\u6caa\u661f\u7ebf \u83b2\u5e84\u7ebf \u9f99\u90b5\u7ebf", "signBuilding": null, "businessArea": null, "selfRoom": null, "businessTime": "9:00~21:00", "stall": null, "consume": null, "serviceFei": null, "favourable": null, "shopMemo": null, "appraise": null, "website": null, "memo": null, "payTypes": "\u6749\u5fb7\u5361", "shopTypes": "\u96f6\u552e,\u4e13\u5356", "consumeTypes": null, "cookTypes": null, "orderNum": 1000, "card4no": null, "card4noAcc": null, "district2": 413, "searchScope": null, "status": 1, "address": "\u5949\u8d24\u57ce\u9547\u5ddd\u5357\u5949\u516c\u8def9963-1\u53f7", "name": "\u8fea\u4fe1\u901a \u5949\u57ce\u5e97", "id": 133383, "pageNo": 0, "pageCount": null, "pageSize": 10, "ids": null, "endTime": null, "startTime": null}, {"cardNumFive": null, "isSupportYj": null, "cityName": null, "districtName": null, "shopinfo": {"mid": "888888848120012", "good_flag": "2", "new_flag": "1", "short_name": "\u8fea\u4fe1\u901a", "short_name_pinyin": "dixintong", "status": null, "address": null, "name": null, "id": "31451"}, "mid": "888888848120012", "shopId": "31451", "netid": null, "province": 901, "district": 601, "zipcode": null, "telephone": null, "posDate": null, "destineTel": null, "togoTel": null, "trafficWay": null, "signBuilding": null, "businessArea": null, "selfRoom": null, "businessTime": null, "stall": null, "consume": null, "serviceFei": null, "favourable": null, "shopMemo": null, "appraise": null, "website": null, "memo": null, "payTypes": "\u6749\u5fb7\u5361", "shopTypes": "\u96f6\u552e,\u4e13\u5356", "consumeTypes": null, "cookTypes": null, "orderNum": 1000, "card4no": null, "card4noAcc": null, "district2": 410, "searchScope": null, "status": 1, "address": "\u5171\u5eb7\u8def518\u53f7", "name": "\u8fea\u4fe1\u901a \u5171\u5eb7\u8def\u5e97", "id": 133385, "pageNo": 0, "pageCount": null, "pageSize": 10, "ids": null, "endTime": null, "startTime": null}, {"cardNumFive": null, "isSupportYj": null, "cityName": null, "districtName": null, "shopinfo": {"mid": "888888848120012", "good_flag": "2", "new_flag": "1", "short_name": "\u8fea\u4fe1\u901a", "short_name_pinyin": "dixintong", "status": null, "address": null, "name": null, "id": "31451"}, "mid": "888888848120012", "shopId": "31451", "netid": null, "province": 901, "district": 601, "zipcode": null, "telephone": "57716361", "posDate": "20071214", "destineTel": null, "togoTel": null, "trafficWay": "\u6caa\u677e\u4e13\u7ebf\u3000\u65c5\u6e38\uff11\uff21\u7ebf", "signBuilding": null, "businessArea": null, "selfRoom": null, "businessTime": "9:00~21:00", "stall": null, "consume": null, "serviceFei": null, "favourable": null, "shopMemo": null, "appraise": null, "website": null, "memo": null, "payTypes": "\u6749\u5fb7\u5361", "shopTypes": "\u96f6\u552e,\u4e13\u5356", "consumeTypes": null, "cookTypes": null, "orderNum": 1000, "card4no": null, "card4noAcc": null, "district2": 412, "searchScope": null, "status": 1, "address": "\u4e50\u90fd\u8def348\u53f7\u60e0\u946b\u767e\u8d27\u4e00\u5c42", "name": "\u8fea\u4fe1\u901a \u60e0\u946b\u5e97", "id": 133386, "pageNo": 0, "pageCount": null, "pageSize": 10, "ids": null, "endTime": null, "startTime": null}, {"cardNumFive": null, "isSupportYj": null, "cityName": null, "districtName": null, "shopinfo": {"mid": "888888848120012", "good_flag": "2", "new_flag": "1", "short_name": "\u8fea\u4fe1\u901a", "short_name_pinyin": "dixintong", "status": null, "address": null, "name": null, "id": "31451"}, "mid": "888888848120012", "shopId": "31451", "netid": null, "province": 901, "district": 601, "zipcode": null, "telephone": "65440314", "posDate": "20071203", "destineTel": null, "togoTel": null, "trafficWay": "\u516c\u4ea4537 \u5730\u94c1\u4e09\u53f7\u7ebf \u5b9d\u6768\u7801\u5934\u4e13\u7ebf", "signBuilding": null, "businessArea": null, "selfRoom": null, "businessTime": "9:00~21:00", "stall": null, "consume": null, "serviceFei": null, "favourable": null, "shopMemo": null, "appraise": null, "website": null, "memo": null, "payTypes": "\u6749\u5fb7\u5361", "shopTypes": "\u96f6\u552e,\u4e13\u5356", "consumeTypes": null, "cookTypes": null, "orderNum": 1000, "card4no": null, "card4noAcc": null, "district2": 408, "searchScope": null, "status": 1, "address": "\u9038\u4ed9\u8def528\u53f7", "name": "\u8fea\u4fe1\u901a \u6c5f\u6e7e\u65b0\u5e97", "id": 133389, "pageNo": 0, "pageCount": null, "pageSize": 10, "ids": null, "endTime": null, "startTime": null}, {"cardNumFive": null, "isSupportYj": null, "cityName": null, "districtName": null, "shopinfo": {"mid": "888888848120012", "good_flag": "2", "new_flag": "1", "short_name": "\u8fea\u4fe1\u901a", "short_name_pinyin": "dixintong", "status": null, "address": null, "name": null, "id": "31451"}, "mid": "888888848120012", "shopId": "31451", "netid": null, "province": 901, "district": 601, "zipcode": null, "telephone": "57970706", "posDate": "20071213", "destineTel": null, "togoTel": null, "trafficWay": "\u77f3\u6885\u7ebf \u5916\u536b\u4e13\u7ebf", "signBuilding": null, "businessArea": null, "selfRoom": null, "businessTime": "9:00~21:00", "stall": null, "consume": null, "serviceFei": null, "favourable": null, "shopMemo": null, "appraise": null, "website": null, "memo": null, "payTypes": "\u6749\u5fb7\u5361", "shopTypes": "\u96f6\u552e,\u4e13\u5356", "consumeTypes": null, "cookTypes": null, "orderNum": 1000, "card4no": null, "card4noAcc": null, "district2": 414, "searchScope": null, "status": 1, "address": "\u536b\u96f6\u8def68-70\u53f7", "name": "\u8fea\u4fe1\u901a \u91d1\u5c71\u4e8c\u5e97", "id": 133390, "pageNo": 0, "pageCount": null, "pageSize": 10, "ids": null, "endTime": null, "startTime": null}, {"cardNumFive": null, "isSupportYj": null, "cityName": null, "districtName": null, "shopinfo": {"mid": "888888848120012", "good_flag": "2", "new_flag": "1", "short_name": "\u8fea\u4fe1\u901a", "short_name_pinyin": "dixintong", "status": null, "address": null, "name": null, "id": "31451"}, "mid": "888888848120012", "shopId": "31451", "netid": null, "province": 901, "district": 601, "zipcode": null, "telephone": "57956016", "posDate": "20071213", "destineTel": null, "togoTel": null, "trafficWay": "\u77f3\u6885\u7ebf \u5916\u536b\u4e13\u7ebf", "signBuilding": null, "businessArea": null, "selfRoom": null, "businessTime": "9:00~21:00", "stall": null, "consume": null, "serviceFei": null, "favourable": null, "shopMemo": null, "appraise": null, "website": null, "memo": null, "payTypes": "\u6749\u5fb7\u5361", "shopTypes": "\u96f6\u552e,\u4e13\u5356", "consumeTypes": null, "cookTypes": null, "orderNum": 1000, "card4no": null, "card4noAcc": null, "district2": 414, "searchScope": null, "status": 1, "address": "\u536b\u96f6\u8def134-136\u53f7", "name": "\u8fea\u4fe1\u901a \u91d1\u5c71\u4e00\u5e97", "id": 133391, "pageNo": 0, "pageCount": null, "pageSize": 10, "ids": null, "endTime": null, "startTime": null}, {"cardNumFive": null, "isSupportYj": null, "cityName": null, "districtName": null, "shopinfo": {"mid": "888888848120012", "good_flag": "2", "new_flag": "1", "short_name": "\u8fea\u4fe1\u901a", "short_name_pinyin": "dixintong", "status": null, "address": null, "name": null, "id": "31451"}, "mid": "888888848120012", "shopId": "31451", "netid": null, "province": 901, "district": 601, "zipcode": null, "telephone": "64267987", "posDate": "20071210", "destineTel": null, "togoTel": null, "trafficWay": "\u516c\u4ea4740 947 \u5317\u5b89\u7ebf", "signBuilding": null, "businessArea": null, "selfRoom": null, "businessTime": "9:00~21:00", "stall": null, "consume": null, "serviceFei": null, "favourable": null, "shopMemo": null, "appraise": null, "website": null, "memo": null, "payTypes": "\u6749\u5fb7\u5361", "shopTypes": "\u96f6\u552e,\u4e13\u5356", "consumeTypes": null, "cookTypes": null, "orderNum": 1000, "card4no": null, "card4noAcc": null, "district2": 403, "searchScope": null, "status": 1, "address": "\u8087\u5bb6\u6d5c\u8def1111\u53f7\u7f8e\u7f57\u57ce\u4e09\u697c", "name": "\u8fea\u4fe1\u901a \u7f8e\u7f57\u5e97", "id": 133393, "pageNo": 0, "pageCount": null, "pageSize": 10, "ids": null, "endTime": null, "startTime": null}], "pageLimit": 1180, "size": 10}