{"pageCount": 1095, "count": 10942, "pageNo": 118, "subShopInfo": {"cardNumFive": "", "isSupportYj": "", "cityName": null, "districtName": null, "shopinfo": {"mid": null, "good_flag": null, "new_flag": null, "short_name": null, "short_name_pinyin": null, "status": null, "address": "", "name": "", "id": null}, "mid": null, "shopId": null, "netid": null, "province": 901, "district": null, "zipcode": null, "telephone": null, "posDate": null, "destineTel": null, "togoTel": null, "trafficWay": null, "signBuilding": null, "businessArea": null, "selfRoom": null, "businessTime": null, "stall": null, "consume": null, "serviceFei": null, "favourable": null, "shopMemo": "1", "appraise": null, "website": null, "memo": null, "payTypes": "", "shopTypes": "", "consumeTypes": null, "cookTypes": null, "orderNum": null, "card4no": null, "card4noAcc": null, "district2": null, "searchScope": null, "status": null, "address": "", "name": null, "id": null, "pageNo": 117, "pageCount": null, "pageSize": 10, "ids": null, "endTime": null, "startTime": null}, "list": [{"cardNumFive": null, "isSupportYj": null, "cityName": null, "districtName": null, "shopinfo": {"mid": "888002158122196", "good_flag": "2", "new_flag": "2", "short_name": "\u9f0e\u6cf0\u4e30", "short_name_pinyin": "dingtaifeng", "status": null, "address": null, "name": null, "id": "31505"}, "mid": "888002158122196", "shopId": "31505", "netid": null, "province": 901, "district": 601, "zipcode": null, "telephone": null, "posDate": null, "destineTel": null, "togoTel": null, "trafficWay": null, "signBuilding": null, "businessArea": null, "selfRoom": null, "businessTime": null, "stall": null, "consume": null, "serviceFei": null, "favourable": null, "shopMemo": null, "appraise": null, "website": null, "memo": null, "payTypes": ",\u6749\u5fb7\u5361", "shopTypes": "\u9910\u996e", "consumeTypes": null, "cookTypes": null, "orderNum": 1000, "card4no": null, "card4noAcc": null, "district2": 401, "searchScope": null, "status": 1, "address": "\u5174\u4e1a\u8def123\u5f046\u53f7\u697c2\u697c11A\u5355\u5143-11B\u5355\u5143", "name": "\u9f0e\u6cf0\u4e30 \u5174\u4e1a\u8def\u5e97", "id": 133660, "pageNo": 0, "pageCount": null, "pageSize": 10, "ids": null, "endTime": null, "startTime": null}, {"cardNumFive": null, "isSupportYj": null, "cityName": null, "districtName": null, "shopinfo": {"mid": "888002158122338", "good_flag": null, "new_flag": null, "short_name": "\u9f0e\u6cf0\u4e30", "short_name_pinyin": "dingtaifeng", "status": null, "address": null, "name": null, "id": "39650"}, "mid": "888002158122338", "shopId": "39650", "netid": null, "province": 901, "district": 601, "zipcode": null, "telephone": "34691383", "posDate": null, "destineTel": null, "togoTel": null, "trafficWay": null, "signBuilding": null, "businessArea": null, "selfRoom": null, "businessTime": null, "stall": null, "consume": null, "serviceFei": null, "favourable": null, "shopMemo": null, "appraise": null, "website": null, "memo": null, "payTypes": "\u6749\u5fb7\u5361", "shopTypes": "\u9910\u996e", "consumeTypes": null, "cookTypes": null, "orderNum": 1000, "card4no": null, "card4noAcc": null, "district2": 403, "searchScope": null, "status": 1, "address": "\u8679\u6865\u8def1\u53f75\u697c", "name": "\u9f0e\u6cf0\u4e30 \u6e2f\u6c47\u5e97", "id": 170041, "pageNo": 0, "pageCount": null, "pageSize": 10, "ids": null, "endTime": null, "startTime": null}, {"cardNumFive": null, "isSupportYj": null, "cityName": null, "districtName": null, "shopinfo": {"mid": "888002158122467", "good_flag": null, "new_flag": null, "short_name": "\u9f0e\u6cf0\u4e30", "short_name_pinyin": "dingtaifeng", "status": null, "address": null, "name": null, "id": "40455"}, "mid": "888002158122467", "shopId": "40455", "netid": null, "province": 901, "district": 601, "zipcode": null, "telephone": "60407818", "posDate": null, "destineTel": null, "togoTel": null, "trafficWay": null, "signBuilding": null, "businessArea": null, "selfRoom": null, "businessTime": null, "stall": null, "consume": null, "serviceFei": null, "favourable": null, "shopMemo": null, "appraise": null, "website": null, "memo": null, "payTypes": "\u6749\u5fb7\u5361", "shopTypes": "\u9910\u996e", "consumeTypes": null, "cookTypes": null, "orderNum": 1000, "card4no": null, "card4noAcc": null, "district2": 406, "searchScope": null, "status": 1, "address": "\u4ed9\u971e\u8def99\u53f73\u697c311\u5355\u5143", "name": "\u9f0e\u6cf0\u4e30 \u5c1a\u5609\u4e2d\u5fc3\u5e97", "id": 175043, "pageNo": 0, "pageCount": null, "pageSize": 10, "ids": null, "endTime": null, "startTime": null}, {"cardNumFive": null, "isSupportYj": null, "cityName": null, "districtName": null, "shopinfo": {"mid": "888888848120012", "good_flag": "2", "new_flag": "1", "short_name": "\u8fea\u4fe1\u901a", "short_name_pinyin": "dixintong", "status": null, "address": null, "name": null, "id": "31451"}, "mid": "888888848120012", "shopId": "31451", "netid": null, "province": 901, "district": 601, "zipcode": null, "telephone": "69578979", "posDate": "20071212", "destineTel": null, "togoTel": null, "trafficWay": "\u65c5\u6e386B\u7ebf \u5317\u5b89\u7ebf", "signBuilding": null, "businessArea": null, "selfRoom": null, "businessTime": "9:00~21:00", "stall": null, "consume": null, "serviceFei": null, "favourable": null, "shopMemo": null, "appraise": null, "website": null, "memo": null, "payTypes": "\u6749\u5fb7\u5361", "shopTypes": "\u96f6\u552e,\u4e13\u5356", "consumeTypes": null, "cookTypes": null, "orderNum": 1000, "card4no": null, "card4noAcc": null, "district2": 411, "searchScope": null, "status": 1, "address": "\u65b0\u6e90\u8def919-921\u53f7", "name": "\u8fea\u4fe1\u901a \u5b89\u4ead\u5e97", "id": 133369, "pageNo": 0, "pageCount": null, "pageSize": 10, "ids": null, "endTime": null, "startTime": null}, {"cardNumFive": null, "isSupportYj": null, "cityName": null, "districtName": null, "shopinfo": {"mid": "888888848120012", "good_flag": "2", "new_flag": "1", "short_name": "\u8fea\u4fe1\u901a", "short_name_pinyin": "dixintong", "status": null, "address": null, "name": null, "id": "31451"}, "mid": "888888848120012", "shopId": "31451", "netid": null, "province": 901, "district": 601, "zipcode": null, "telephone": "56112998", "posDate": "20071212", "destineTel": null, "togoTel": null, "trafficWay": "\u5b9d\u6768\u7801\u5934\u4e13\u7ebf \u65c5\u6e385\u53f7\u7ebf", "signBuilding": null, "businessArea": null, "selfRoom": null, "businessTime": "9:00~21:00", "stall": null, "consume": null, "serviceFei": null, "favourable": null, "shopMemo": null, "appraise": null, "website": null, "memo": null, "payTypes": "\u6749\u5fb7\u5361", "shopTypes": "\u96f6\u552e,\u4e13\u5356", "consumeTypes": null, "cookTypes": null, "orderNum": 1000, "card4no": null, "card4noAcc": null, "district2": 416, "searchScope": null, "status": 1, "address": "\u7261\u4e39\u6c5f\u8def1228\u53f7", "name": "\u8fea\u4fe1\u901a \u5b89\u4fe1\u5e97", "id": 133370, "pageNo": 0, "pageCount": null, "pageSize": 10, "ids": null, "endTime": null, "startTime": null}, {"cardNumFive": null, "isSupportYj": null, "cityName": null, "districtName": null, "shopinfo": {"mid": "888888848120012", "good_flag": "2", "new_flag": "1", "short_name": "\u8fea\u4fe1\u901a", "short_name_pinyin": "dixintong", "status": null, "address": null, "name": null, "id": "31451"}, "mid": "888888848120012", "shopId": "31451", "netid": null, "province": 901, "district": 601, "zipcode": null, "telephone": "66780766", "posDate": "20071212", "destineTel": null, "togoTel": null, "trafficWay": "\u5730\u94c1\u4e09\u53f7\u7ebf \u516c\u4ea4728 952B", "signBuilding": null, "businessArea": null, "selfRoom": null, "businessTime": "9:00~21:00", "stall": null, "consume": null, "serviceFei": null, "favourable": null, "shopMemo": null, "appraise": null, "website": null, "memo": null, "payTypes": "\u6749\u5fb7\u5361", "shopTypes": "\u96f6\u552e,\u4e13\u5356", "consumeTypes": null, "cookTypes": null, "orderNum": 1000, "card4no": null, "card4noAcc": null, "district2": 416, "searchScope": null, "status": 1, "address": "\u7261\u4e39\u6c5f\u8def1728-1\u53f7", "name": "\u8fea\u4fe1\u901a \u5b9d\u5c71\u4e8c\u5e97", "id": 133372, "pageNo": 0, "pageCount": null, "pageSize": 10, "ids": null, "endTime": null, "startTime": null}, {"cardNumFive": null, "isSupportYj": null, "cityName": null, "districtName": null, "shopinfo": {"mid": "888888848120012", "good_flag": "2", "new_flag": "1", "short_name": "\u8fea\u4fe1\u901a", "short_name_pinyin": "dixintong", "status": null, "address": null, "name": null, "id": "31451"}, "mid": "888888848120012", "shopId": "31451", "netid": null, "province": 901, "district": 601, "zipcode": null, "telephone": "65430137", "posDate": "20071203", "destineTel": null, "togoTel": null, "trafficWay": "\u516c\u4ea4934 868", "signBuilding": null, "businessArea": null, "selfRoom": null, "businessTime": "9:00~21:00", "stall": null, "consume": null, "serviceFei": null, "favourable": null, "shopMemo": null, "appraise": null, "website": null, "memo": null, "payTypes": "\u6749\u5fb7\u5361", "shopTypes": "\u96f6\u552e,\u4e13\u5356", "consumeTypes": null, "cookTypes": null, "orderNum": 1000, "card4no": null, "card4noAcc": null, "district2": 407, "searchScope": null, "status": 1, "address": "\u957f\u9633\u8def1865\u5f04\u4e00\u53f7", "name": "\u8fea\u4fe1\u901a \u957f\u9633\u5e97", "id": 133375, "pageNo": 0, "pageCount": null, "pageSize": 10, "ids": null, "endTime": null, "startTime": null}, {"cardNumFive": null, "isSupportYj": null, "cityName": null, "districtName": null, "shopinfo": {"mid": "888888848120012", "good_flag": "2", "new_flag": "1", "short_name": "\u8fea\u4fe1\u901a", "short_name_pinyin": "dixintong", "status": null, "address": null, "name": null, "id": "31451"}, "mid": "888888848120012", "shopId": "31451", "netid": null, "province": 901, "district": 601, "zipcode": null, "telephone": "55033229", "posDate": "20071210", "destineTel": null, "togoTel": null, "trafficWay": "\u9f99\u8398\u82a6\u4e13\u7ebf \u5357\u65b0\u7ebf \u6caa\u5357\u7ebf", "signBuilding": null, "businessArea": null, "selfRoom": null, "businessTime": "9:00~21:00", "stall": null, "consume": null, "serviceFei": null, "favourable": null, "shopMemo": null, "appraise": null, "website": null, "memo": null, "payTypes": "\u6749\u5fb7\u5361", "shopTypes": "\u96f6\u552e,\u4e13\u5356", "consumeTypes": null, "cookTypes": null, "orderNum": 1000, "card4no": null, "card4noAcc": null, "district2": 418, "searchScope": null, "status": 1, "address": "\u5ddd\u6c99\u9547\u57ce\u5357\u8def311\u53f7", "name": "\u8fea\u4fe1\u901a \u5ddd\u6c99\u5ddd\u9ec4\u5e97", "id": 133376, "pageNo": 0, "pageCount": null, "pageSize": 10, "ids": null, "endTime": null, "startTime": null}, {"cardNumFive": null, "isSupportYj": null, "cityName": null, "districtName": null, "shopinfo": {"mid": "888888848120012", "good_flag": "2", "new_flag": "1", "short_name": "\u8fea\u4fe1\u901a", "short_name_pinyin": "dixintong", "status": null, "address": null, "name": null, "id": "31451"}, "mid": "888888848120012", "shopId": "31451", "netid": null, "province": 901, "district": 601, "zipcode": null, "telephone": "58907702", "posDate": "20071207", "destineTel": null, "togoTel": null, "trafficWay": "\u5f90\u5ddd\u7ebf \u4e0a\u5ddd\u7ebf \u7533\u6c5f\u7ebf", "signBuilding": null, "businessArea": null, "selfRoom": null, "businessTime": "9:00~21:00", "stall": null, "consume": null, "serviceFei": null, "favourable": null, "shopMemo": null, "appraise": null, "website": null, "memo": null, "payTypes": "\u6749\u5fb7\u5361", "shopTypes": "\u96f6\u552e,\u4e13\u5356", "consumeTypes": null, "cookTypes": null, "orderNum": 1000, "card4no": null, "card4noAcc": null, "district2": 418, "searchScope": null, "status": 1, "address": "\u65b0\u5ddd\u8def364\u53f7\u9f99\u9f99\u5546\u573a\u4e00\u697c", "name": "\u8fea\u4fe1\u901a \u5ddd\u6c99\u5e97", "id": 133377, "pageNo": 0, "pageCount": null, "pageSize": 10, "ids": null, "endTime": null, "startTime": null}, {"cardNumFive": null, "isSupportYj": null, "cityName": null, "districtName": null, "shopinfo": {"mid": "888888848120012", "good_flag": "2", "new_flag": "1", "short_name": "\u8fea\u4fe1\u901a", "short_name_pinyin": "dixintong", "status": null, "address": null, "name": null, "id": "31451"}, "mid": "888888848120012", "shopId": "31451", "netid": null, "province": 901, "district": 601, "zipcode": null, "telephone": "58903760", "posDate": "20071207", "destineTel": null, "togoTel": null, "trafficWay": "\u4e0a\u5ddd\u7ebf \u65b0\u5ddd\u7ebf", "signBuilding": null, "businessArea": null, "selfRoom": null, "businessTime": "9:00~21:00", "stall": null, "consume": null, "serviceFei": null, "favourable": null, "shopMemo": null, "appraise": null, "website": null, "memo": null, "payTypes": "\u6749\u5fb7\u5361", "shopTypes": "\u96f6\u552e,\u4e13\u5356", "consumeTypes": null, "cookTypes": null, "orderNum": 1000, "card4no": null, "card4noAcc": null, "district2": 418, "searchScope": null, "status": 1, "address": "\u5ddd\u6c99\u65b0\u5fb7\u8def367\u53f7", "name": "\u8fea\u4fe1\u901a \u5ddd\u6c99\u65b0\u5fb7\u5e97", "id": 133378, "pageNo": 0, "pageCount": null, "pageSize": 10, "ids": null, "endTime": null, "startTime": null}], "pageLimit": 1170, "size": 10}