{"pageCount": 1095, "count": 10942, "pageNo": 112, "subShopInfo": {"cardNumFive": "", "isSupportYj": "", "cityName": null, "districtName": null, "shopinfo": {"mid": null, "good_flag": null, "new_flag": null, "short_name": null, "short_name_pinyin": null, "status": null, "address": "", "name": "", "id": null}, "mid": null, "shopId": null, "netid": null, "province": 901, "district": null, "zipcode": null, "telephone": null, "posDate": null, "destineTel": null, "togoTel": null, "trafficWay": null, "signBuilding": null, "businessArea": null, "selfRoom": null, "businessTime": null, "stall": null, "consume": null, "serviceFei": null, "favourable": null, "shopMemo": "1", "appraise": null, "website": null, "memo": null, "payTypes": "", "shopTypes": "", "consumeTypes": null, "cookTypes": null, "orderNum": null, "card4no": null, "card4noAcc": null, "district2": null, "searchScope": null, "status": null, "address": "", "name": null, "id": null, "pageNo": 111, "pageCount": null, "pageSize": 10, "ids": null, "endTime": null, "startTime": null}, "list": [{"cardNumFive": null, "isSupportYj": null, "cityName": null, "districtName": null, "shopinfo": {"mid": "888888879970012", "good_flag": "2", "new_flag": "2", "short_name": "\u5927\u4f17\u6c7d\u8f66\u5b89\u5409\u9ec4\u5e3d\u5b50", "short_name_pinyin": "dazhongqicheanjihuangmaozi", "status": null, "address": null, "name": null, "id": "31422"}, "mid": "888888879970012", "shopId": "31422", "netid": null, "province": 901, "district": 601, "zipcode": null, "telephone": "66368886-113", "posDate": "20090404", "destineTel": null, "togoTel": null, "trafficWay": null, "signBuilding": null, "businessArea": null, "selfRoom": null, "businessTime": null, "stall": null, "consume": null, "serviceFei": null, "favourable": null, "shopMemo": null, "appraise": null, "website": null, "memo": null, "payTypes": "\u6749\u5fb7\u5361", "shopTypes": "\u5176\u4ed6", "consumeTypes": null, "cookTypes": null, "orderNum": 1000, "card4no": null, "card4noAcc": null, "district2": 407, "searchScope": null, "status": 1, "address": "\u5927\u534e\u4e8c\u8def298\u53f7\u8fd1\u771f\u534e\u8def", "name": "\u5b89\u5409\u9ec4\u5e3d\u5b50 \u5927\u534e\u5e97", "id": 133285, "pageNo": 0, "pageCount": null, "pageSize": 10, "ids": null, "endTime": null, "startTime": null}, {"cardNumFive": null, "isSupportYj": null, "cityName": null, "districtName": null, "shopinfo": {"mid": "888888859420001", "good_flag": "1", "new_flag": "2", "short_name": "\u5927\u4f17\u4e66\u5c40", "short_name_pinyin": "dazhongshuju", "status": null, "address": null, "name": null, "id": "31428"}, "mid": "888888859420001", "shopId": "31428", "netid": null, "province": 901, "district": 601, "zipcode": "200001", "telephone": "63222511", "posDate": "20060928", "destineTel": "63222511", "togoTel": "63222511", "trafficWay": "\u5730\u94c1\u4e00\u53f7\u7ebf", "signBuilding": null, "businessArea": "800\u5e73\u7c73\u5de6\u53f3", "selfRoom": "\u65e0", "businessTime": "9:00~21:00", "stall": "\u65e0", "consume": null, "serviceFei": null, "favourable": null, "shopMemo": null, "appraise": null, "website": null, "memo": null, "payTypes": "\u6749\u5fb7\u5361", "shopTypes": "\u6559\u80b2\u57f9\u8bad", "consumeTypes": null, "cookTypes": null, "orderNum": 1000, "card4no": null, "card4noAcc": null, "district2": 401, "searchScope": null, "status": 1, "address": "\u798f\u5dde\u8def579\u53f7", "name": "\u5927\u4f17\u4e66\u5c40 \u798f\u5dde\u5e97", "id": 133294, "pageNo": 0, "pageCount": null, "pageSize": 10, "ids": null, "endTime": null, "startTime": null}, {"cardNumFive": null, "isSupportYj": null, "cityName": null, "districtName": null, "shopinfo": {"mid": "888888859420001", "good_flag": "1", "new_flag": "2", "short_name": "\u5927\u4f17\u4e66\u5c40", "short_name_pinyin": "dazhongshuju", "status": null, "address": null, "name": null, "id": "31428"}, "mid": "888888859420001", "shopId": "31428", "netid": null, "province": 901, "district": 601, "zipcode": "200030", "telephone": "64268960", "posDate": "20070208", "destineTel": null, "togoTel": null, "trafficWay": "\u5730\u94c1\u4e00\u53f7\u7ebf 43\u533a\u95f4 572 50 72", "signBuilding": null, "businessArea": "800\u5e73\u7c73\u5de6\u53f3", "selfRoom": "\u65e0", "businessTime": "9:00~21:00", "stall": "\u65e0", "consume": null, "serviceFei": null, "favourable": null, "shopMemo": null, "appraise": null, "website": null, "memo": null, "payTypes": "\u6749\u5fb7\u5361", "shopTypes": "\u6559\u80b2\u57f9\u8bad", "consumeTypes": null, "cookTypes": null, "orderNum": 1000, "card4no": null, "card4noAcc": null, "district2": 403, "searchScope": null, "status": 1, "address": "\u8087\u5609\u6d5c\u8def1111\u53f7\u7f8e\u7f57\u57ce4\u697c", "name": "\u5927\u4f17\u4e66\u5c40 \u7f8e\u7f57\u5e97", "id": 133295, "pageNo": 0, "pageCount": null, "pageSize": 10, "ids": null, "endTime": null, "startTime": null}, {"cardNumFive": null, "isSupportYj": null, "cityName": null, "districtName": null, "shopinfo": {"mid": "888002159420019", "good_flag": "2", "new_flag": "2", "short_name": "\u5927\u4f17\u4e66\u5c40", "short_name_pinyin": "dazhongshujv", "status": null, "address": null, "name": null, "id": "552801571486826496"}, "mid": "888002159420019", "shopId": "552801571486826496", "netid": null, "province": 901, "district": 601, "zipcode": null, "telephone": null, "posDate": null, "destineTel": null, "togoTel": null, "trafficWay": null, "signBuilding": null, "businessArea": null, "selfRoom": null, "businessTime": null, "stall": null, "consume": null, "serviceFei": null, "favourable": null, "shopMemo": null, "appraise": null, "website": null, "memo": null, "payTypes": "", "shopTypes": null, "consumeTypes": null, "cookTypes": null, "orderNum": null, "card4no": null, "card4noAcc": null, "district2": 418, "searchScope": null, "status": 1, "address": "\u6caa\u5357\u516c\u8def9860\u53f7\u79b9\u5dde\u5546\u4e1a\u5e7f\u573a\u4e8c\u697c", "name": "\u79b9\u5dde\u5e97", "id": 552801570752823296, "pageNo": 0, "pageCount": null, "pageSize": 10, "ids": null, "endTime": null, "startTime": null}, {"cardNumFive": null, "isSupportYj": null, "cityName": null, "districtName": null, "shopinfo": {"mid": "888002159420019", "good_flag": "2", "new_flag": "2", "short_name": "\u5927\u4f17\u4e66\u5c40", "short_name_pinyin": "dazhongshujv", "status": null, "address": null, "name": null, "id": "552801571486826496"}, "mid": "888002159420019", "shopId": "552801571486826496", "netid": null, "province": 901, "district": 601, "zipcode": null, "telephone": null, "posDate": null, "destineTel": null, "togoTel": null, "trafficWay": null, "signBuilding": null, "businessArea": null, "selfRoom": null, "businessTime": null, "stall": null, "consume": null, "serviceFei": null, "favourable": null, "shopMemo": null, "appraise": null, "website": null, "memo": null, "payTypes": "", "shopTypes": null, "consumeTypes": null, "cookTypes": null, "orderNum": null, "card4no": null, "card4noAcc": null, "district2": 418, "searchScope": null, "status": 1, "address": "\u4e16\u535a\u5927\u90531368\u53f7\u4e16\u535a\u56ed\u7b2c\u4e00\u697c", "name": "\u4e16\u535a\u5e97", "id": 552801571654598656, "pageNo": 0, "pageCount": null, "pageSize": 10, "ids": null, "endTime": null, "startTime": null}, {"cardNumFive": null, "isSupportYj": null, "cityName": null, "districtName": null, "shopinfo": {"mid": "888002159420019", "good_flag": "2", "new_flag": "2", "short_name": "\u5927\u4f17\u4e66\u5c40", "short_name_pinyin": "dazhongshujv", "status": null, "address": null, "name": null, "id": "552801571486826496"}, "mid": "888002159420019", "shopId": "552801571486826496", "netid": null, "province": 901, "district": 601, "zipcode": null, "telephone": null, "posDate": null, "destineTel": null, "togoTel": null, "trafficWay": null, "signBuilding": null, "businessArea": null, "selfRoom": null, "businessTime": null, "stall": null, "consume": null, "serviceFei": null, "favourable": null, "shopMemo": null, "appraise": null, "website": null, "memo": null, "payTypes": "", "shopTypes": null, "consumeTypes": null, "cookTypes": null, "orderNum": null, "card4no": null, "card4noAcc": null, "district2": 409, "searchScope": null, "status": 1, "address": "\u4e03\u8398\u8def1507\u53f7\u6021\u4e30\u57ce4\u697c", "name": "\u6021\u4e30\u57ce\u5e97", "id": 552801572225024000, "pageNo": 0, "pageCount": null, "pageSize": 10, "ids": null, "endTime": null, "startTime": null}, {"cardNumFive": null, "isSupportYj": null, "cityName": null, "districtName": null, "shopinfo": {"mid": "888888858120610", "good_flag": "2", "new_flag": "2", "short_name": "\u5fb7\u5174\u9762\u9986", "short_name_pinyin": "dexingmianguan", "status": null, "address": null, "name": null, "id": "31443"}, "mid": "888888858120610", "shopId": "31443", "netid": null, "province": 901, "district": 601, "zipcode": null, "telephone": "63522528\uff1b63522535", "posDate": "20090311", "destineTel": null, "togoTel": null, "trafficWay": "\u516c\u4ea414\u8def", "signBuilding": "\u4e0a\u6d77\u4e66\u57ce", "businessArea": "200", "selfRoom": null, "businessTime": "6:00~21:00", "stall": "\u6709", "consume": null, "serviceFei": null, "favourable": null, "shopMemo": null, "appraise": null, "website": null, "memo": null, "payTypes": "\u6749\u5fb7\u5361", "shopTypes": "\u9910\u996e", "consumeTypes": null, "cookTypes": null, "orderNum": 1000, "card4no": null, "card4noAcc": null, "district2": 401, "searchScope": null, "status": 1, "address": "\u5e7f\u4e1c\u8def471\u53f72\u697c", "name": "\u5fb7\u5174\u9762\u9986 \u5e7f\u4e1c\u5e97", "id": 133361, "pageNo": 0, "pageCount": null, "pageSize": 10, "ids": null, "endTime": null, "startTime": null}, {"cardNumFive": null, "isSupportYj": null, "cityName": null, "districtName": null, "shopinfo": {"mid": "888888859120009", "good_flag": "1", "new_flag": "2", "short_name": "\u5f97\u4e00\u5927\u836f\u623f", "short_name_pinyin": "deyidayaofang", "status": null, "address": null, "name": null, "id": "31438"}, "mid": "888888859120009", "shopId": "31438", "netid": null, "province": 901, "district": 601, "zipcode": "200336", "telephone": "62917972", "posDate": "20061026", "destineTel": "62917972", "togoTel": "62917972", "trafficWay": "\u516c\u4ea4836", "signBuilding": null, "businessArea": "40~200\u5e73\u7c73", "selfRoom": "\u65e0", "businessTime": "\u65e5\u591c\u670d\u52a1", "stall": "\u65e0", "consume": null, "serviceFei": null, "favourable": null, "shopMemo": null, "appraise": null, "website": null, "memo": null, "payTypes": "\u6749\u5fb7\u5361", "shopTypes": "\u836f\u5e97", "consumeTypes": null, "cookTypes": null, "orderNum": 1000, "card4no": null, "card4noAcc": null, "district2": 406, "searchScope": null, "status": 1, "address": "\u4ed9\u971e\u8def1088\u5f049\u53f7", "name": "\u5f97\u4e00\u5927\u836f\u623f \u5317\u8679\u5e97", "id": 133326, "pageNo": 0, "pageCount": null, "pageSize": 10, "ids": null, "endTime": null, "startTime": null}, {"cardNumFive": null, "isSupportYj": null, "cityName": null, "districtName": null, "shopinfo": {"mid": "888888859120009", "good_flag": "1", "new_flag": "2", "short_name": "\u5f97\u4e00\u5927\u836f\u623f", "short_name_pinyin": "deyidayaofang", "status": null, "address": null, "name": null, "id": "31438"}, "mid": "888888859120009", "shopId": "31438", "netid": null, "province": 901, "district": 601, "zipcode": "201106", "telephone": "62203857", "posDate": "20061031", "destineTel": "62203857", "togoTel": "62203857", "trafficWay": "\u516c\u4ea4836", "signBuilding": null, "businessArea": "40~200\u5e73\u7c73", "selfRoom": "\u65e0", "businessTime": "\u65e5\u591c\u670d\u52a1", "stall": "\u65e0", "consume": null, "serviceFei": null, "favourable": null, "shopMemo": null, "appraise": null, "website": null, "memo": null, "payTypes": "\u6749\u5fb7\u5361", "shopTypes": "\u836f\u5e97", "consumeTypes": null, "cookTypes": null, "orderNum": 1000, "card4no": null, "card4noAcc": null, "district2": 406, "searchScope": null, "status": 1, "address": "\u4e1c\u534e\u7f8e\u8def55\u53f7", "name": "\u5f97\u4e00\u5927\u836f\u623f \u6f15\u534e\u5e97", "id": 133327, "pageNo": 0, "pageCount": null, "pageSize": 10, "ids": null, "endTime": null, "startTime": null}, {"cardNumFive": null, "isSupportYj": null, "cityName": null, "districtName": null, "shopinfo": {"mid": "888888859120009", "good_flag": "1", "new_flag": "2", "short_name": "\u5f97\u4e00\u5927\u836f\u623f", "short_name_pinyin": "deyidayaofang", "status": null, "address": null, "name": null, "id": "31438"}, "mid": "888888859120009", "shopId": "31438", "netid": null, "province": 901, "district": 601, "zipcode": "200335", "telephone": "52195909", "posDate": "20061026", "destineTel": "52195909", "togoTel": "52195909", "trafficWay": "\u516c\u4ea4808 855", "signBuilding": null, "businessArea": "40~200\u5e73\u7c73", "selfRoom": "\u65e0", "businessTime": "\u65e5\u591c\u670d\u52a1", "stall": "\u65e0", "consume": null, "serviceFei": null, "favourable": null, "shopMemo": null, "appraise": null, "website": null, "memo": null, "payTypes": "\u6749\u5fb7\u5361", "shopTypes": "\u836f\u5e97", "consumeTypes": null, "cookTypes": null, "orderNum": 1000, "card4no": null, "card4noAcc": null, "district2": 406, "searchScope": null, "status": 1, "address": "\u5929\u5c71\u897f\u8def240\u53f7", "name": "\u5f97\u4e00\u5927\u836f\u623f \u957f\u534e\u5e97", "id": 133328, "pageNo": 0, "pageCount": null, "pageSize": 10, "ids": null, "endTime": null, "startTime": null}], "pageLimit": 1110, "size": 10}