{"pageCount": 1095, "count": 10942, "pageNo": 113, "subShopInfo": {"cardNumFive": "", "isSupportYj": "", "cityName": null, "districtName": null, "shopinfo": {"mid": null, "good_flag": null, "new_flag": null, "short_name": null, "short_name_pinyin": null, "status": null, "address": "", "name": "", "id": null}, "mid": null, "shopId": null, "netid": null, "province": 901, "district": null, "zipcode": null, "telephone": null, "posDate": null, "destineTel": null, "togoTel": null, "trafficWay": null, "signBuilding": null, "businessArea": null, "selfRoom": null, "businessTime": null, "stall": null, "consume": null, "serviceFei": null, "favourable": null, "shopMemo": "1", "appraise": null, "website": null, "memo": null, "payTypes": "", "shopTypes": "", "consumeTypes": null, "cookTypes": null, "orderNum": null, "card4no": null, "card4noAcc": null, "district2": null, "searchScope": null, "status": null, "address": "", "name": null, "id": null, "pageNo": 112, "pageCount": null, "pageSize": 10, "ids": null, "endTime": null, "startTime": null}, "list": [{"cardNumFive": null, "isSupportYj": null, "cityName": null, "districtName": null, "shopinfo": {"mid": "888888859120009", "good_flag": "1", "new_flag": "2", "short_name": "\u5f97\u4e00\u5927\u836f\u623f", "short_name_pinyin": "deyidayaofang", "status": null, "address": null, "name": null, "id": "31438"}, "mid": "888888859120009", "shopId": "31438", "netid": null, "province": 901, "district": 601, "zipcode": "200050", "telephone": "52373039", "posDate": "20061030", "destineTel": "52373039", "togoTel": "52373039", "trafficWay": "\u5730\u94c1\u56db\u53f7\u7ebf 73", "signBuilding": null, "businessArea": "40~200\u5e73\u7c73", "selfRoom": "\u65e0", "businessTime": "\u65e5\u591c\u670d\u52a1", "stall": "\u65e0", "consume": null, "serviceFei": null, "favourable": null, "shopMemo": null, "appraise": null, "website": null, "memo": null, "payTypes": "\u6749\u5fb7\u5361", "shopTypes": "\u836f\u5e97", "consumeTypes": null, "cookTypes": null, "orderNum": 1000, "card4no": null, "card4noAcc": null, "district2": 406, "searchScope": null, "status": 1, "address": "\u957f\u5b81\u8def1018\u53f7B2008\u5546\u94fa", "name": "\u5f97\u4e00\u5927\u836f\u623f \u957f\u5b81\u8def\u5e97", "id": 133329, "pageNo": 0, "pageCount": null, "pageSize": 10, "ids": null, "endTime": null, "startTime": null}, {"cardNumFive": null, "isSupportYj": null, "cityName": null, "districtName": null, "shopinfo": {"mid": "888888859120009", "good_flag": "1", "new_flag": "2", "short_name": "\u5f97\u4e00\u5927\u836f\u623f", "short_name_pinyin": "deyidayaofang", "status": null, "address": null, "name": null, "id": "31438"}, "mid": "888888859120009", "shopId": "31438", "netid": null, "province": 901, "district": 601, "zipcode": "200052", "telephone": "62800484", "posDate": "20061030", "destineTel": "62800484", "togoTel": "62800484", "trafficWay": "\u516c\u4ea4946", "signBuilding": null, "businessArea": "40~200\u5e73\u7c73", "selfRoom": "\u65e0", "businessTime": "\u65e5\u591c\u670d\u52a1", "stall": "\u65e0", "consume": null, "serviceFei": null, "favourable": null, "shopMemo": null, "appraise": null, "website": null, "memo": null, "payTypes": "\u6749\u5fb7\u5361", "shopTypes": "\u836f\u5e97", "consumeTypes": null, "cookTypes": null, "orderNum": 1000, "card4no": null, "card4noAcc": null, "district2": 406, "searchScope": null, "status": 1, "address": "\u65b0\u534e\u8def532\u53f7", "name": "\u5f97\u4e00\u5927\u836f\u623f \u957f\u65b0\u5e97", "id": 133330, "pageNo": 0, "pageCount": null, "pageSize": 10, "ids": null, "endTime": null, "startTime": null}, {"cardNumFive": null, "isSupportYj": null, "cityName": null, "districtName": null, "shopinfo": {"mid": "888888859120009", "good_flag": "1", "new_flag": "2", "short_name": "\u5f97\u4e00\u5927\u836f\u623f", "short_name_pinyin": "deyidayaofang", "status": null, "address": null, "name": null, "id": "31438"}, "mid": "888888859120009", "shopId": "31438", "netid": null, "province": 901, "district": 601, "zipcode": "201100", "telephone": "62195818", "posDate": "20061031", "destineTel": "62195818", "togoTel": "62195818", "trafficWay": "\u516c\u4ea4149 700", "signBuilding": null, "businessArea": "40~200\u5e73\u7c73", "selfRoom": "\u65e0", "businessTime": "\u65e5\u591c\u670d\u52a1", "stall": "\u65e0", "consume": null, "serviceFei": null, "favourable": null, "shopMemo": null, "appraise": null, "website": null, "memo": null, "payTypes": "\u6749\u5fb7\u5361", "shopTypes": "\u836f\u5e97", "consumeTypes": null, "cookTypes": null, "orderNum": 1000, "card4no": null, "card4noAcc": null, "district2": 406, "searchScope": null, "status": 1, "address": "\u8363\u534e\u897f\u905359\u53f7", "name": "\u5f97\u4e00\u5927\u836f\u623f \u53e4\u5317\u65b0\u533a\u5e97", "id": 133332, "pageNo": 0, "pageCount": null, "pageSize": 10, "ids": null, "endTime": null, "startTime": null}, {"cardNumFive": null, "isSupportYj": null, "cityName": null, "districtName": null, "shopinfo": {"mid": "888888859120009", "good_flag": "1", "new_flag": "2", "short_name": "\u5f97\u4e00\u5927\u836f\u623f", "short_name_pinyin": "deyidayaofang", "status": null, "address": null, "name": null, "id": "31438"}, "mid": "888888859120009", "shopId": "31438", "netid": null, "province": 901, "district": 601, "zipcode": "200052", "telephone": "62801806", "posDate": "20061031", "destineTel": "62801806", "togoTel": "62801806", "trafficWay": "\u516c\u4ea4946", "signBuilding": null, "businessArea": "40~200\u5e73\u7c73", "selfRoom": "\u65e0", "businessTime": "\u65e5\u591c\u670d\u52a1", "stall": "\u65e0", "consume": null, "serviceFei": null, "favourable": null, "shopMemo": null, "appraise": null, "website": null, "memo": null, "payTypes": "\u6749\u5fb7\u5361", "shopTypes": "\u836f\u5e97", "consumeTypes": null, "cookTypes": null, "orderNum": 1000, "card4no": null, "card4noAcc": null, "district2": 406, "searchScope": null, "status": 1, "address": "\u6cd5\u534e\u9547\u8def25\u5f041\u53f7", "name": "\u5f97\u4e00\u5927\u836f\u623f \u56fd\u8054\u5e97", "id": 133333, "pageNo": 0, "pageCount": null, "pageSize": 10, "ids": null, "endTime": null, "startTime": null}, {"cardNumFive": null, "isSupportYj": null, "cityName": null, "districtName": null, "shopinfo": {"mid": "888888859120009", "good_flag": "1", "new_flag": "2", "short_name": "\u5f97\u4e00\u5927\u836f\u623f", "short_name_pinyin": "deyidayaofang", "status": null, "address": null, "name": null, "id": "31438"}, "mid": "888888859120009", "shopId": "31438", "netid": null, "province": 901, "district": 601, "zipcode": "200335", "telephone": "62423382", "posDate": "20061031", "destineTel": "62423382", "togoTel": "62423382", "trafficWay": "\u516c\u4ea4809 \u4e0a\u6731\u7ebf", "signBuilding": null, "businessArea": "40~200\u5e73\u7c73", "selfRoom": "\u65e0", "businessTime": "\u65e5\u591c\u670d\u52a1", "stall": "\u65e0", "consume": null, "serviceFei": null, "favourable": null, "shopMemo": null, "appraise": null, "website": null, "memo": null, "payTypes": "\u6749\u5fb7\u5361", "shopTypes": "\u836f\u5e97", "consumeTypes": null, "cookTypes": null, "orderNum": 1000, "card4no": null, "card4noAcc": null, "district2": 406, "searchScope": null, "status": 1, "address": "\u54c8\u5bc6\u8def2050\u53f7", "name": "\u5f97\u4e00\u5927\u836f\u623f \u54c8\u5bc6\u8def\u5e97", "id": 133334, "pageNo": 0, "pageCount": null, "pageSize": 10, "ids": null, "endTime": null, "startTime": null}, {"cardNumFive": null, "isSupportYj": null, "cityName": null, "districtName": null, "shopinfo": {"mid": "888888859120009", "good_flag": "1", "new_flag": "2", "short_name": "\u5f97\u4e00\u5927\u836f\u623f", "short_name_pinyin": "deyidayaofang", "status": null, "address": null, "name": null, "id": "31438"}, "mid": "888888859120009", "shopId": "31438", "netid": null, "province": 901, "district": 601, "zipcode": "200335", "telephone": "52183730", "posDate": "20061031", "destineTel": "52183730", "togoTel": "52183730", "trafficWay": "\u516c\u4ea4855 836", "signBuilding": null, "businessArea": "40~200\u5e73\u7c73", "selfRoom": "\u65e0", "businessTime": "\u65e5\u591c\u670d\u52a1", "stall": "\u65e0", "consume": null, "serviceFei": null, "favourable": null, "shopMemo": null, "appraise": null, "website": null, "memo": null, "payTypes": "\u6749\u5fb7\u5361", "shopTypes": "\u836f\u5e97", "consumeTypes": null, "cookTypes": null, "orderNum": 1000, "card4no": null, "card4noAcc": null, "district2": 406, "searchScope": null, "status": 1, "address": "\u6cc9\u53e3\u8def292\u53f7", "name": "\u5f97\u4e00\u5927\u836f\u623f \u6caa\u5b81\u5e97", "id": 133335, "pageNo": 0, "pageCount": null, "pageSize": 10, "ids": null, "endTime": null, "startTime": null}, {"cardNumFive": null, "isSupportYj": null, "cityName": null, "districtName": null, "shopinfo": {"mid": "888888859120009", "good_flag": "1", "new_flag": "2", "short_name": "\u5f97\u4e00\u5927\u836f\u623f", "short_name_pinyin": "deyidayaofang", "status": null, "address": null, "name": null, "id": "31438"}, "mid": "888888859120009", "shopId": "31438", "netid": null, "province": 901, "district": 601, "zipcode": "200336", "telephone": "62599548", "posDate": "20061026", "destineTel": "62599548", "togoTel": "62599548", "trafficWay": "\u516c\u4ea4700 836", "signBuilding": null, "businessArea": "40~200\u5e73\u7c73", "selfRoom": "\u65e0", "businessTime": "\u65e5\u591c\u670d\u52a1", "stall": "\u65e0", "consume": null, "serviceFei": null, "favourable": null, "shopMemo": null, "appraise": null, "website": null, "memo": null, "payTypes": "\u6749\u5fb7\u5361", "shopTypes": "\u836f\u5e97", "consumeTypes": null, "cookTypes": null, "orderNum": 1000, "card4no": null, "card4noAcc": null, "district2": 406, "searchScope": null, "status": 1, "address": "\u4ed9\u971e\u8def477\u53f7", "name": "\u5f97\u4e00\u5927\u836f\u623f \u6caa\u897f\u5e97", "id": 133336, "pageNo": 0, "pageCount": null, "pageSize": 10, "ids": null, "endTime": null, "startTime": null}, {"cardNumFive": null, "isSupportYj": null, "cityName": null, "districtName": null, "shopinfo": {"mid": "888888859120009", "good_flag": "1", "new_flag": "2", "short_name": "\u5f97\u4e00\u5927\u836f\u623f", "short_name_pinyin": "deyidayaofang", "status": null, "address": null, "name": null, "id": "31438"}, "mid": "888888859120009", "shopId": "31438", "netid": null, "province": 901, "district": 601, "zipcode": "200333", "telephone": "52706901", "posDate": "20061031", "destineTel": "52706901", "togoTel": "52706901", "trafficWay": "\u516c\u4ea467 94", "signBuilding": null, "businessArea": "40~200\u5e73\u7c73", "selfRoom": "\u65e0", "businessTime": "\u65e5\u591c\u670d\u52a1", "stall": "\u65e0", "consume": null, "serviceFei": null, "favourable": null, "shopMemo": null, "appraise": null, "website": null, "memo": null, "payTypes": "\u6749\u5fb7\u5361", "shopTypes": "\u836f\u5e97", "consumeTypes": null, "cookTypes": null, "orderNum": 1000, "card4no": null, "card4noAcc": null, "district2": 406, "searchScope": null, "status": 1, "address": "\u91d1\u6c99\u6c5f\u8def2383\u53f7", "name": "\u5f97\u4e00\u5927\u836f\u623f \u5251\u6cb3\u5e97", "id": 133337, "pageNo": 0, "pageCount": null, "pageSize": 10, "ids": null, "endTime": null, "startTime": null}, {"cardNumFive": null, "isSupportYj": null, "cityName": null, "districtName": null, "shopinfo": {"mid": "888888859120009", "good_flag": "1", "new_flag": "2", "short_name": "\u5f97\u4e00\u5927\u836f\u623f", "short_name_pinyin": "deyidayaofang", "status": null, "address": null, "name": null, "id": "31438"}, "mid": "888888859120009", "shopId": "31438", "netid": null, "province": 901, "district": 601, "zipcode": "200051", "telephone": "62125726", "posDate": "20061026", "destineTel": "62125726", "togoTel": "62125726", "trafficWay": "\u516c\u4ea444", "signBuilding": null, "businessArea": "40~200\u5e73\u7c73", "selfRoom": "\u65e0", "businessTime": "\u65e5\u591c\u670d\u52a1", "stall": "\u65e0", "consume": null, "serviceFei": null, "favourable": null, "shopMemo": null, "appraise": null, "website": null, "memo": null, "payTypes": "\u6749\u5fb7\u5361", "shopTypes": "\u836f\u5e97", "consumeTypes": null, "cookTypes": null, "orderNum": 1000, "card4no": null, "card4noAcc": null, "district2": 406, "searchScope": null, "status": 1, "address": "\u4e1c\u8bf8\u5b89\u6d5c\u8def202\u53f7", "name": "\u5f97\u4e00\u5927\u836f\u623f \u6c5f\u82cf\u8def\u5e97", "id": 133338, "pageNo": 0, "pageCount": null, "pageSize": 10, "ids": null, "endTime": null, "startTime": null}, {"cardNumFive": null, "isSupportYj": null, "cityName": null, "districtName": null, "shopinfo": {"mid": "888888859120009", "good_flag": "1", "new_flag": "2", "short_name": "\u5f97\u4e00\u5927\u836f\u623f", "short_name_pinyin": "deyidayaofang", "status": null, "address": null, "name": null, "id": "31438"}, "mid": "888888859120009", "shopId": "31438", "netid": null, "province": 901, "district": 601, "zipcode": "200335", "telephone": "52187930", "posDate": "20061030", "destineTel": "52187930", "togoTel": "52187930", "trafficWay": "\u516c\u4ea4855 836", "signBuilding": null, "businessArea": "40~200\u5e73\u7c73", "selfRoom": "\u65e0", "businessTime": "\u65e5\u591c\u670d\u52a1", "stall": "\u65e0", "consume": null, "serviceFei": null, "favourable": null, "shopMemo": null, "appraise": null, "website": null, "memo": null, "payTypes": "\u6749\u5fb7\u5361", "shopTypes": "\u836f\u5e97", "consumeTypes": null, "cookTypes": null, "orderNum": 1000, "card4no": null, "card4noAcc": null, "district2": 406, "searchScope": null, "status": 1, "address": "\u5e73\u5858\u8def464\u53f7", "name": "\u5f97\u4e00\u5927\u836f\u623f \u51ef\u798f\u5e97", "id": 133340, "pageNo": 0, "pageCount": null, "pageSize": 10, "ids": null, "endTime": null, "startTime": null}], "pageLimit": 1120, "size": 10}