{"pageCount": 1095, "count": 10942, "pageNo": 115, "subShopInfo": {"cardNumFive": "", "isSupportYj": "", "cityName": null, "districtName": null, "shopinfo": {"mid": null, "good_flag": null, "new_flag": null, "short_name": null, "short_name_pinyin": null, "status": null, "address": "", "name": "", "id": null}, "mid": null, "shopId": null, "netid": null, "province": 901, "district": null, "zipcode": null, "telephone": null, "posDate": null, "destineTel": null, "togoTel": null, "trafficWay": null, "signBuilding": null, "businessArea": null, "selfRoom": null, "businessTime": null, "stall": null, "consume": null, "serviceFei": null, "favourable": null, "shopMemo": "1", "appraise": null, "website": null, "memo": null, "payTypes": "", "shopTypes": "", "consumeTypes": null, "cookTypes": null, "orderNum": null, "card4no": null, "card4noAcc": null, "district2": null, "searchScope": null, "status": null, "address": "", "name": null, "id": null, "pageNo": 114, "pageCount": null, "pageSize": 10, "ids": null, "endTime": null, "startTime": null}, "list": [{"cardNumFive": null, "isSupportYj": null, "cityName": null, "districtName": null, "shopinfo": {"mid": "888888859120009", "good_flag": "1", "new_flag": "2", "short_name": "\u5f97\u4e00\u5927\u836f\u623f", "short_name_pinyin": "deyidayaofang", "status": null, "address": null, "name": null, "id": "31438"}, "mid": "888888859120009", "shopId": "31438", "netid": null, "province": 901, "district": 601, "zipcode": "200052", "telephone": "62822165", "posDate": "20061030", "destineTel": "62822165", "togoTel": "62822165", "trafficWay": "\u516c\u4ea4946", "signBuilding": null, "businessArea": "40~200\u5e73\u7c73", "selfRoom": "\u65e0", "businessTime": "\u65e5\u591c\u670d\u52a1", "stall": "\u65e0", "consume": null, "serviceFei": null, "favourable": null, "shopMemo": null, "appraise": null, "website": null, "memo": null, "payTypes": "\u6749\u5fb7\u5361", "shopTypes": "\u836f\u5e97", "consumeTypes": null, "cookTypes": null, "orderNum": 1000, "card4no": null, "card4noAcc": null, "district2": 406, "searchScope": null, "status": 1, "address": "\u5b9a\u897f\u8def685\u53f7", "name": "\u5f97\u4e00\u5927\u836f\u623f \u65b0\u534e\u8def\u5e97", "id": 133352, "pageNo": 0, "pageCount": null, "pageSize": 10, "ids": null, "endTime": null, "startTime": null}, {"cardNumFive": null, "isSupportYj": null, "cityName": null, "districtName": null, "shopinfo": {"mid": "888888859120009", "good_flag": "1", "new_flag": "2", "short_name": "\u5f97\u4e00\u5927\u836f\u623f", "short_name_pinyin": "deyidayaofang", "status": null, "address": null, "name": null, "id": "31438"}, "mid": "888888859120009", "shopId": "31438", "netid": null, "province": 901, "district": 601, "zipcode": "200050", "telephone": "62521062", "posDate": "20061026", "destineTel": "62521062", "togoTel": "62521062", "trafficWay": "\u516c\u4ea496 44", "signBuilding": null, "businessArea": "40~200\u5e73\u7c73", "selfRoom": "\u65e0", "businessTime": "\u65e5\u591c\u670d\u52a1", "stall": "\u65e0", "consume": null, "serviceFei": null, "favourable": null, "shopMemo": null, "appraise": null, "website": null, "memo": null, "payTypes": "\u6749\u5fb7\u5361", "shopTypes": "\u836f\u5e97", "consumeTypes": null, "cookTypes": null, "orderNum": 1000, "card4no": null, "card4noAcc": null, "district2": 406, "searchScope": null, "status": 1, "address": "\u6c5f\u82cf\u8def453\u53f7", "name": "\u5f97\u4e00\u5927\u836f\u623f \u65b0\u6708\u5e97", "id": 133353, "pageNo": 0, "pageCount": null, "pageSize": 10, "ids": null, "endTime": null, "startTime": null}, {"cardNumFive": null, "isSupportYj": null, "cityName": null, "districtName": null, "shopinfo": {"mid": "888888859120009", "good_flag": "1", "new_flag": "2", "short_name": "\u5f97\u4e00\u5927\u836f\u623f", "short_name_pinyin": "deyidayaofang", "status": null, "address": null, "name": null, "id": "31438"}, "mid": "888888859120009", "shopId": "31438", "netid": null, "province": 901, "district": 601, "zipcode": "200052", "telephone": "62523653", "posDate": "20061030", "destineTel": "62523653", "togoTel": "62523653", "trafficWay": "\u516c\u4ea4923 138 96", "signBuilding": null, "businessArea": "40~200\u5e73\u7c73", "selfRoom": "\u65e0", "businessTime": "\u65e5\u591c\u670d\u52a1", "stall": "\u65e0", "consume": null, "serviceFei": null, "favourable": null, "shopMemo": null, "appraise": null, "website": null, "memo": null, "payTypes": "\u6749\u5fb7\u5361", "shopTypes": "\u836f\u5e97", "consumeTypes": null, "cookTypes": null, "orderNum": 1000, "card4no": null, "card4noAcc": null, "district2": 406, "searchScope": null, "status": 1, "address": "\u5ef6\u5b89\u897f\u8def986\u53f7", "name": "\u5f97\u4e00\u5927\u836f\u623f \u5ef6\u5b89\u897f\u8def\u5e97", "id": 133354, "pageNo": 0, "pageCount": null, "pageSize": 10, "ids": null, "endTime": null, "startTime": null}, {"cardNumFive": null, "isSupportYj": null, "cityName": null, "districtName": null, "shopinfo": {"mid": "888888859120009", "good_flag": "1", "new_flag": "2", "short_name": "\u5f97\u4e00\u5927\u836f\u623f", "short_name_pinyin": "deyidayaofang", "status": null, "address": null, "name": null, "id": "31438"}, "mid": "888888859120009", "shopId": "31438", "netid": null, "province": 901, "district": 601, "zipcode": "200335", "telephone": "52177723", "posDate": "20061026", "destineTel": "52177723", "togoTel": "52177723", "trafficWay": "\u516c\u4ea4808 855", "signBuilding": null, "businessArea": "40~200\u5e73\u7c73", "selfRoom": "\u65e0", "businessTime": "\u65e5\u591c\u670d\u52a1", "stall": "\u65e0", "consume": null, "serviceFei": null, "favourable": null, "shopMemo": null, "appraise": null, "website": null, "memo": null, "payTypes": "\u6749\u5fb7\u5361", "shopTypes": "\u836f\u5e97", "consumeTypes": null, "cookTypes": null, "orderNum": 1000, "card4no": null, "card4noAcc": null, "district2": 406, "searchScope": null, "status": 1, "address": "\u5929\u5c71\u897f\u8def366\u53f7", "name": "\u5f97\u4e00\u5927\u836f\u623f \u5ef6\u98ce\u5e97", "id": 133355, "pageNo": 0, "pageCount": null, "pageSize": 10, "ids": null, "endTime": null, "startTime": null}, {"cardNumFive": null, "isSupportYj": null, "cityName": null, "districtName": null, "shopinfo": {"mid": "888888859120009", "good_flag": "1", "new_flag": "2", "short_name": "\u5f97\u4e00\u5927\u836f\u623f", "short_name_pinyin": "deyidayaofang", "status": null, "address": null, "name": null, "id": "31438"}, "mid": "888888859120009", "shopId": "31438", "netid": null, "province": 901, "district": 601, "zipcode": "200051", "telephone": "62599587", "posDate": "20061031", "destineTel": "62599587", "togoTel": "62599587", "trafficWay": "\u516c\u4ea4808 855", "signBuilding": null, "businessArea": "40~200\u5e73\u7c73", "selfRoom": "\u65e0", "businessTime": "\u65e5\u591c\u670d\u52a1", "stall": "\u65e0", "consume": null, "serviceFei": null, "favourable": null, "shopMemo": null, "appraise": null, "website": null, "memo": null, "payTypes": "\u6749\u5fb7\u5361", "shopTypes": "\u836f\u5e97", "consumeTypes": null, "cookTypes": null, "orderNum": 1000, "card4no": null, "card4noAcc": null, "district2": 406, "searchScope": null, "status": 1, "address": "\u53e4\u5317\u8def227\u53f7", "name": "\u5f97\u4e00\u5927\u836f\u623f \u76ca\u8446\u5e97", "id": 133356, "pageNo": 0, "pageCount": null, "pageSize": 10, "ids": null, "endTime": null, "startTime": null}, {"cardNumFive": null, "isSupportYj": null, "cityName": null, "districtName": null, "shopinfo": {"mid": "888888850940027", "good_flag": "2", "new_flag": "2", "short_name": "\u5fb7\u9038\u73e0\u5b9d\u884c", "short_name_pinyin": "deyizhubaoxing", "status": null, "address": null, "name": null, "id": "31445"}, "mid": "888888850940027", "shopId": "31445", "netid": null, "province": 901, "district": 601, "zipcode": null, "telephone": "63689333", "posDate": "20081016", "destineTel": null, "togoTel": null, "trafficWay": "\u516c\u4ea437 20 \u5730\u94c1\u4e8c\u53f7\u7ebf", "signBuilding": null, "businessArea": "1000", "selfRoom": null, "businessTime": "8:30~21:30", "stall": null, "consume": null, "serviceFei": null, "favourable": null, "shopMemo": null, "appraise": null, "website": null, "memo": null, "payTypes": "\u6749\u5fb7\u5361", "shopTypes": "\u4e13\u5356", "consumeTypes": null, "cookTypes": null, "orderNum": 1000, "card4no": null, "card4noAcc": null, "district2": 401, "searchScope": null, "status": 1, "address": "\u5357\u4eac\u4e1c\u8def409\u53f7-459\u53f71503-1504", "name": "\u5fb7\u9038\u73e0\u5b9d\u884c \u5357\u4eac\u4e1c\u8def\u5e97", "id": 133363, "pageNo": 0, "pageCount": null, "pageSize": 10, "ids": null, "endTime": null, "startTime": null}, {"cardNumFive": null, "isSupportYj": null, "cityName": null, "districtName": null, "shopinfo": {"mid": "888888872990042", "good_flag": "2", "new_flag": "2", "short_name": "\u5fb7\u8f7d\u6bcd\u5a74", "short_name_pinyin": "dezaimuying", "status": null, "address": null, "name": null, "id": "31446"}, "mid": "888888872990042", "shopId": "31446", "netid": null, "province": 901, "district": 601, "zipcode": null, "telephone": null, "posDate": null, "destineTel": null, "togoTel": null, "trafficWay": "774\u3001783", "signBuilding": null, "businessArea": null, "selfRoom": null, "businessTime": "8:30~22:00", "stall": null, "consume": null, "serviceFei": null, "favourable": null, "shopMemo": null, "appraise": null, "website": null, "memo": null, "payTypes": "\u6749\u5fb7\u5361", "shopTypes": "\u4e13\u5356", "consumeTypes": null, "cookTypes": null, "orderNum": 1000, "card4no": null, "card4noAcc": null, "district2": 418, "searchScope": null, "status": 1, "address": "\u53cc\u6865\u8def982\u53f7", "name": "\u5fb7\u8f7d\u6bcd\u5a74 \u53cc\u6865\u8def\u5e97", "id": 133364, "pageNo": 0, "pageCount": null, "pageSize": 10, "ids": null, "endTime": null, "startTime": null}, {"cardNumFive": null, "isSupportYj": null, "cityName": null, "districtName": null, "shopinfo": {"mid": "888888859770071", "good_flag": "2", "new_flag": "1", "short_name": "DHC", "short_name_pinyin": "dhc", "status": null, "address": null, "name": null, "id": "31006"}, "mid": "888888859770071", "shopId": "31006", "netid": null, "province": 901, "district": 601, "zipcode": null, "telephone": "64267200", "posDate": "20100223", "destineTel": null, "togoTel": null, "trafficWay": null, "signBuilding": null, "businessArea": null, "selfRoom": null, "businessTime": null, "stall": null, "consume": null, "serviceFei": null, "favourable": null, "shopMemo": null, "appraise": null, "website": null, "memo": null, "payTypes": ",\u6749\u5fb7\u5361", "shopTypes": "\u96f6\u552e", "consumeTypes": null, "cookTypes": null, "orderNum": 1000, "card4no": null, "card4noAcc": null, "district2": 403, "searchScope": null, "status": 1, "address": "\u8087\u5609\u6d5c\u8def1111\u53f7\u7f8e\u7f57\u57ce2\u697cA\u533a", "name": "DHC \u8087\u5609\u6d5c\u8def\u7f8e\u7f57\u57ce\u5e97", "id": 131957, "pageNo": 0, "pageCount": null, "pageSize": 10, "ids": null, "endTime": null, "startTime": null}, {"cardNumFive": null, "isSupportYj": null, "cityName": null, "districtName": null, "shopinfo": {"mid": "888002153311199", "good_flag": "2", "new_flag": "2", "short_name": "\u7b2c\u4e8c\u98df\u54c1", "short_name_pinyin": "diershipin", "status": null, "address": null, "name": null, "id": "565224391227473920"}, "mid": "888002153311199", "shopId": "565224391227473920", "netid": null, "province": 901, "district": 601, "zipcode": null, "telephone": null, "posDate": null, "destineTel": null, "togoTel": null, "trafficWay": null, "signBuilding": null, "businessArea": null, "selfRoom": null, "businessTime": null, "stall": null, "consume": null, "serviceFei": null, "favourable": null, "shopMemo": null, "appraise": null, "website": null, "memo": null, "payTypes": "\u6749\u5fb7\u5361,", "shopTypes": null, "consumeTypes": null, "cookTypes": null, "orderNum": null, "card4no": null, "card4noAcc": null, "district2": 403, "searchScope": null, "status": 1, "address": "\u6885\u9647\u8def255\u53f7", "name": "\u6885\u9647\u5e97", "id": 565224389289705472, "pageNo": 0, "pageCount": null, "pageSize": 10, "ids": null, "endTime": null, "startTime": null}, {"cardNumFive": null, "isSupportYj": null, "cityName": null, "districtName": null, "shopinfo": {"mid": "888002154110667", "good_flag": null, "new_flag": "2", "short_name": "DIG", "short_name_pinyin": "DIG", "status": null, "address": null, "name": null, "id": "42361"}, "mid": "888002154110667", "shopId": "42361", "netid": null, "province": 901, "district": 601, "zipcode": null, "telephone": null, "posDate": null, "destineTel": null, "togoTel": null, "trafficWay": null, "signBuilding": null, "businessArea": null, "selfRoom": null, "businessTime": null, "stall": null, "consume": null, "serviceFei": null, "favourable": null, "shopMemo": null, "appraise": null, "website": null, "memo": null, "payTypes": "\u6749\u5fb7\u5361", "shopTypes": "\u4fbf\u5229\u5e97", "consumeTypes": null, "cookTypes": null, "orderNum": 1000, "card4no": null, "card4noAcc": null, "district2": 410, "searchScope": null, "status": 1, "address": "\u5171\u548c\u65b0\u8def5000\u5f041\u53f7\u697c101\u5ba4", "name": "DIG \u4e0a\u6d77\u5916\u9ad8\u6865\u8fdb\u53e3\u5546\u54c1\u76f4\u9500\u4e2d\u5fc3", "id": 188940, "pageNo": 0, "pageCount": null, "pageSize": 10, "ids": null, "endTime": null, "startTime": null}], "pageLimit": 1140, "size": 10}