{"pageCount": 1095, "count": 10942, "pageNo": 114, "subShopInfo": {"cardNumFive": "", "isSupportYj": "", "cityName": null, "districtName": null, "shopinfo": {"mid": null, "good_flag": null, "new_flag": null, "short_name": null, "short_name_pinyin": null, "status": null, "address": "", "name": "", "id": null}, "mid": null, "shopId": null, "netid": null, "province": 901, "district": null, "zipcode": null, "telephone": null, "posDate": null, "destineTel": null, "togoTel": null, "trafficWay": null, "signBuilding": null, "businessArea": null, "selfRoom": null, "businessTime": null, "stall": null, "consume": null, "serviceFei": null, "favourable": null, "shopMemo": "1", "appraise": null, "website": null, "memo": null, "payTypes": "", "shopTypes": "", "consumeTypes": null, "cookTypes": null, "orderNum": null, "card4no": null, "card4noAcc": null, "district2": null, "searchScope": null, "status": null, "address": "", "name": null, "id": null, "pageNo": 113, "pageCount": null, "pageSize": 10, "ids": null, "endTime": null, "startTime": null}, "list": [{"cardNumFive": null, "isSupportYj": null, "cityName": null, "districtName": null, "shopinfo": {"mid": "888888859120009", "good_flag": "1", "new_flag": "2", "short_name": "\u5f97\u4e00\u5927\u836f\u623f", "short_name_pinyin": "deyidayaofang", "status": null, "address": null, "name": null, "id": "31438"}, "mid": "888888859120009", "shopId": "31438", "netid": null, "province": 901, "district": 601, "zipcode": "200051", "telephone": "62750042", "posDate": "20061030", "destineTel": "62750042", "togoTel": "62750042", "trafficWay": "\u516c\u4ea4855 814 \u5730\u94c1\u56db\u53f7\u7ebf", "signBuilding": null, "businessArea": "40~200\u5e73\u7c73", "selfRoom": "\u65e0", "businessTime": "\u65e5\u591c\u670d\u52a1", "stall": "\u65e0", "consume": null, "serviceFei": null, "favourable": null, "shopMemo": null, "appraise": null, "website": null, "memo": null, "payTypes": "\u6749\u5fb7\u5361", "shopTypes": "\u836f\u5e97", "consumeTypes": null, "cookTypes": null, "orderNum": 1000, "card4no": null, "card4noAcc": null, "district2": 406, "searchScope": null, "status": 1, "address": "\u8679\u6865\u8def959\u5f041\u53f7", "name": "\u5f97\u4e00\u5927\u836f\u623f \u51ef\u8679\u5e97", "id": 133341, "pageNo": 0, "pageCount": null, "pageSize": 10, "ids": null, "endTime": null, "startTime": null}, {"cardNumFive": null, "isSupportYj": null, "cityName": null, "districtName": null, "shopinfo": {"mid": "888888859120009", "good_flag": "1", "new_flag": "2", "short_name": "\u5f97\u4e00\u5927\u836f\u623f", "short_name_pinyin": "deyidayaofang", "status": null, "address": null, "name": null, "id": "31438"}, "mid": "888888859120009", "shopId": "31438", "netid": null, "province": 901, "district": 601, "zipcode": "201103", "telephone": "62705347", "posDate": "20061026", "destineTel": "62705347", "togoTel": "62705347", "trafficWay": "\u516c\u4ea4938 149", "signBuilding": null, "businessArea": "40~200\u5e73\u7c73", "selfRoom": "\u65e0", "businessTime": "\u65e5\u591c\u670d\u52a1", "stall": "\u65e0", "consume": null, "serviceFei": null, "favourable": null, "shopMemo": null, "appraise": null, "website": null, "memo": null, "payTypes": "\u6749\u5fb7\u5361", "shopTypes": "\u836f\u5e97", "consumeTypes": null, "cookTypes": null, "orderNum": 1000, "card4no": null, "card4noAcc": null, "district2": 406, "searchScope": null, "status": 1, "address": "\u6c34\u57ce\u5357\u8def89\u53f7", "name": "\u5f97\u4e00\u5927\u836f\u623f \u51ef\u4e3d\u5e97", "id": 133342, "pageNo": 0, "pageCount": null, "pageSize": 10, "ids": null, "endTime": null, "startTime": null}, {"cardNumFive": null, "isSupportYj": null, "cityName": null, "districtName": null, "shopinfo": {"mid": "888888859120009", "good_flag": "1", "new_flag": "2", "short_name": "\u5f97\u4e00\u5927\u836f\u623f", "short_name_pinyin": "deyidayaofang", "status": null, "address": null, "name": null, "id": "31438"}, "mid": "888888859120009", "shopId": "31438", "netid": null, "province": 901, "district": 601, "zipcode": "200335", "telephone": "62906819", "posDate": "20061026", "destineTel": "62906819", "togoTel": "62906819", "trafficWay": "\u516c\u4ea4836", "signBuilding": null, "businessArea": "40~200\u5e73\u7c73", "selfRoom": "\u65e0", "businessTime": "\u65e5\u591c\u670d\u52a1", "stall": "\u65e0", "consume": null, "serviceFei": null, "favourable": null, "shopMemo": null, "appraise": null, "website": null, "memo": null, "payTypes": "\u6749\u5fb7\u5361", "shopTypes": "\u836f\u5e97", "consumeTypes": null, "cookTypes": null, "orderNum": 1000, "card4no": null, "card4noAcc": null, "district2": 406, "searchScope": null, "status": 1, "address": "\u4ed9\u971e\u8def1297\u53f7", "name": "\u5f97\u4e00\u5927\u836f\u623f \u51ef\u660e\u5e97", "id": 133343, "pageNo": 0, "pageCount": null, "pageSize": 10, "ids": null, "endTime": null, "startTime": null}, {"cardNumFive": null, "isSupportYj": null, "cityName": null, "districtName": null, "shopinfo": {"mid": "888888859120009", "good_flag": "1", "new_flag": "2", "short_name": "\u5f97\u4e00\u5927\u836f\u623f", "short_name_pinyin": "deyidayaofang", "status": null, "address": null, "name": null, "id": "31438"}, "mid": "888888859120009", "shopId": "31438", "netid": null, "province": 901, "district": 601, "zipcode": "200051", "telephone": "52727364", "posDate": "20061031", "destineTel": "52727364", "togoTel": "52727364", "trafficWay": "\u516c\u4ea4924 224 946", "signBuilding": null, "businessArea": "40~200\u5e73\u7c73", "selfRoom": "\u65e0", "businessTime": "\u65e5\u591c\u670d\u52a1", "stall": "\u65e0", "consume": null, "serviceFei": null, "favourable": null, "shopMemo": null, "appraise": null, "website": null, "memo": null, "payTypes": "\u6749\u5fb7\u5361", "shopTypes": "\u836f\u5e97", "consumeTypes": null, "cookTypes": null, "orderNum": 1000, "card4no": null, "card4noAcc": null, "district2": 406, "searchScope": null, "status": 1, "address": "\u957f\u5b81\u8def1578\u53f7", "name": "\u5f97\u4e00\u5927\u836f\u623f \u51ef\u5b81\u5e97", "id": 133344, "pageNo": 0, "pageCount": null, "pageSize": 10, "ids": null, "endTime": null, "startTime": null}, {"cardNumFive": null, "isSupportYj": null, "cityName": null, "districtName": null, "shopinfo": {"mid": "888888859120009", "good_flag": "1", "new_flag": "2", "short_name": "\u5f97\u4e00\u5927\u836f\u623f", "short_name_pinyin": "deyidayaofang", "status": null, "address": null, "name": null, "id": "31438"}, "mid": "888888859120009", "shopId": "31438", "netid": null, "province": 901, "district": 601, "zipcode": "200051", "telephone": "62597330", "posDate": "20061026", "destineTel": "62597330", "togoTel": "62597330", "trafficWay": "\u516c\u4ea4224 946", "signBuilding": null, "businessArea": "40~200\u5e73\u7c73", "selfRoom": "\u65e0", "businessTime": "\u65e5\u591c\u670d\u52a1", "stall": "\u65e0", "consume": null, "serviceFei": null, "favourable": null, "shopMemo": null, "appraise": null, "website": null, "memo": null, "payTypes": "\u6749\u5fb7\u5361", "shopTypes": "\u836f\u5e97", "consumeTypes": null, "cookTypes": null, "orderNum": 1000, "card4no": null, "card4noAcc": null, "district2": 406, "searchScope": null, "status": 1, "address": "\u9075\u4e49\u8def718\u53f7", "name": "\u5f97\u4e00\u5927\u836f\u623f \u51ef\u6cc9\u5e97", "id": 133345, "pageNo": 0, "pageCount": null, "pageSize": 10, "ids": null, "endTime": null, "startTime": null}, {"cardNumFive": null, "isSupportYj": null, "cityName": null, "districtName": null, "shopinfo": {"mid": "888888859120009", "good_flag": "1", "new_flag": "2", "short_name": "\u5f97\u4e00\u5927\u836f\u623f", "short_name_pinyin": "deyidayaofang", "status": null, "address": null, "name": null, "id": "31438"}, "mid": "888888859120009", "shopId": "31438", "netid": null, "province": 901, "district": 601, "zipcode": "200051", "telephone": "62081151", "posDate": "20061030", "destineTel": "62081151", "togoTel": "62081151", "trafficWay": "\u516c\u4ea4224 855", "signBuilding": null, "businessArea": "40~200\u5e73\u7c73", "selfRoom": "\u65e0", "businessTime": "\u65e5\u591c\u670d\u52a1", "stall": "\u65e0", "consume": null, "serviceFei": null, "favourable": null, "shopMemo": null, "appraise": null, "website": null, "memo": null, "payTypes": "\u6749\u5fb7\u5361", "shopTypes": "\u836f\u5e97", "consumeTypes": null, "cookTypes": null, "orderNum": 1000, "card4no": null, "card4noAcc": null, "district2": 406, "searchScope": null, "status": 1, "address": "\u5b89\u987a\u8def235\u53f7", "name": "\u5f97\u4e00\u5927\u836f\u623f \u5eb7\u534e\u5e97", "id": 133347, "pageNo": 0, "pageCount": null, "pageSize": 10, "ids": null, "endTime": null, "startTime": null}, {"cardNumFive": null, "isSupportYj": null, "cityName": null, "districtName": null, "shopinfo": {"mid": "888888859120009", "good_flag": "1", "new_flag": "2", "short_name": "\u5f97\u4e00\u5927\u836f\u623f", "short_name_pinyin": "deyidayaofang", "status": null, "address": null, "name": null, "id": "31438"}, "mid": "888888859120009", "shopId": "31438", "netid": null, "province": 901, "district": 601, "zipcode": "200051", "telephone": "52726387", "posDate": "20061030", "destineTel": "52726387", "togoTel": "52726387", "trafficWay": "\u516c\u4ea4224 946", "signBuilding": null, "businessArea": "40~200\u5e73\u7c73", "selfRoom": "\u65e0", "businessTime": "\u65e5\u591c\u670d\u52a1", "stall": "\u65e0", "consume": null, "serviceFei": null, "favourable": null, "shopMemo": null, "appraise": null, "website": null, "memo": null, "payTypes": "\u6749\u5fb7\u5361", "shopTypes": "\u836f\u5e97", "consumeTypes": null, "cookTypes": null, "orderNum": 1000, "card4no": null, "card4noAcc": null, "district2": 406, "searchScope": null, "status": 1, "address": "\u4e07\u822a\u6e21\u8def2548\u53f7", "name": "\u5f97\u4e00\u5927\u836f\u623f \u4ec1\u5b9c\u5e97", "id": 133348, "pageNo": 0, "pageCount": null, "pageSize": 10, "ids": null, "endTime": null, "startTime": null}, {"cardNumFive": null, "isSupportYj": null, "cityName": null, "districtName": null, "shopinfo": {"mid": "888888859120009", "good_flag": "1", "new_flag": "2", "short_name": "\u5f97\u4e00\u5927\u836f\u623f", "short_name_pinyin": "deyidayaofang", "status": null, "address": null, "name": null, "id": "31438"}, "mid": "888888859120009", "shopId": "31438", "netid": null, "province": 901, "district": 601, "zipcode": "200336", "telephone": "52061014", "posDate": "20061026", "destineTel": "52061014", "togoTel": "52061014", "trafficWay": "\u516c\u4ea4700 72", "signBuilding": null, "businessArea": "40~200\u5e73\u7c73", "selfRoom": "\u65e0", "businessTime": "\u65e5\u591c\u670d\u52a1", "stall": "\u65e0", "consume": null, "serviceFei": null, "favourable": null, "shopMemo": null, "appraise": null, "website": null, "memo": null, "payTypes": "\u6749\u5fb7\u5361", "shopTypes": "\u836f\u5e97", "consumeTypes": null, "cookTypes": null, "orderNum": 1000, "card4no": null, "card4noAcc": null, "district2": 406, "searchScope": null, "status": 1, "address": "\u6c34\u57ce\u8def519\u53f7", "name": "\u5f97\u4e00\u5927\u836f\u623f \u6c34\u57ce\u8def\u603b\u5e97", "id": 133349, "pageNo": 0, "pageCount": null, "pageSize": 10, "ids": null, "endTime": null, "startTime": null}, {"cardNumFive": null, "isSupportYj": null, "cityName": null, "districtName": null, "shopinfo": {"mid": "888888859120009", "good_flag": "1", "new_flag": "2", "short_name": "\u5f97\u4e00\u5927\u836f\u623f", "short_name_pinyin": "deyidayaofang", "status": null, "address": null, "name": null, "id": "31438"}, "mid": "888888859120009", "shopId": "31438", "netid": null, "province": 901, "district": 601, "zipcode": "200051", "telephone": "62091107", "posDate": "20061030", "destineTel": "62091107", "togoTel": "62091107", "trafficWay": "\u516c\u4ea4808 224", "signBuilding": null, "businessArea": "40~200\u5e73\u7c73", "selfRoom": "\u65e0", "businessTime": "\u65e5\u591c\u670d\u52a1", "stall": "\u65e0", "consume": null, "serviceFei": null, "favourable": null, "shopMemo": null, "appraise": null, "website": null, "memo": null, "payTypes": "\u6749\u5fb7\u5361", "shopTypes": "\u836f\u5e97", "consumeTypes": null, "cookTypes": null, "orderNum": 1000, "card4no": null, "card4noAcc": null, "district2": 406, "searchScope": null, "status": 1, "address": "\u8679\u6865\u8def1021\u53f7", "name": "\u5f97\u4e00\u5927\u836f\u623f \u5b8b\u56ed\u5e97", "id": 133350, "pageNo": 0, "pageCount": null, "pageSize": 10, "ids": null, "endTime": null, "startTime": null}, {"cardNumFive": null, "isSupportYj": null, "cityName": null, "districtName": null, "shopinfo": {"mid": "888888859120009", "good_flag": "1", "new_flag": "2", "short_name": "\u5f97\u4e00\u5927\u836f\u623f", "short_name_pinyin": "deyidayaofang", "status": null, "address": null, "name": null, "id": "31438"}, "mid": "888888859120009", "shopId": "31438", "netid": null, "province": 901, "district": 601, "zipcode": "201106", "telephone": "52192460", "posDate": "20061031", "destineTel": "52192460", "togoTel": "52192460", "trafficWay": "\u516c\u4ea4141", "signBuilding": null, "businessArea": "40~200\u5e73\u7c73", "selfRoom": "\u65e0", "businessTime": "\u65e5\u591c\u670d\u52a1", "stall": "\u65e0", "consume": null, "serviceFei": null, "favourable": null, "shopMemo": null, "appraise": null, "website": null, "memo": null, "payTypes": "\u6749\u5fb7\u5361", "shopTypes": "\u836f\u5e97", "consumeTypes": null, "cookTypes": null, "orderNum": 1000, "card4no": null, "card4noAcc": null, "district2": 406, "searchScope": null, "status": 1, "address": "\u7ee5\u5b81\u8def243\u53f7", "name": "\u5f97\u4e00\u5927\u836f\u623f \u7ee5\u5b81\u5e97", "id": 133351, "pageNo": 0, "pageCount": null, "pageSize": 10, "ids": null, "endTime": null, "startTime": null}], "pageLimit": 1130, "size": 10}