{"pageCount": 1095, "count": 10942, "pageNo": 122, "subShopInfo": {"cardNumFive": "", "isSupportYj": "", "cityName": null, "districtName": null, "shopinfo": {"mid": null, "good_flag": null, "new_flag": null, "short_name": null, "short_name_pinyin": null, "status": null, "address": "", "name": "", "id": null}, "mid": null, "shopId": null, "netid": null, "province": 901, "district": null, "zipcode": null, "telephone": null, "posDate": null, "destineTel": null, "togoTel": null, "trafficWay": null, "signBuilding": null, "businessArea": null, "selfRoom": null, "businessTime": null, "stall": null, "consume": null, "serviceFei": null, "favourable": null, "shopMemo": "1", "appraise": null, "website": null, "memo": null, "payTypes": "", "shopTypes": "", "consumeTypes": null, "cookTypes": null, "orderNum": null, "card4no": null, "card4noAcc": null, "district2": null, "searchScope": null, "status": null, "address": "", "name": null, "id": null, "pageNo": 121, "pageCount": null, "pageSize": 10, "ids": null, "endTime": null, "startTime": null}, "list": [{"cardNumFive": null, "isSupportYj": null, "cityName": null, "districtName": null, "shopinfo": {"mid": "888888853110063", "good_flag": "2", "new_flag": "2", "short_name": "\u7b2c\u4e00\u516b\u4f70\u4f34", "short_name_pinyin": "diyibabaiban", "status": null, "address": null, "name": null, "id": "439449394559844352"}, "mid": "888888853110063", "shopId": "439449394559844352", "netid": null, "province": 901, "district": 601, "zipcode": null, "telephone": null, "posDate": null, "destineTel": null, "togoTel": null, "trafficWay": null, "signBuilding": null, "businessArea": null, "selfRoom": null, "businessTime": null, "stall": null, "consume": null, "serviceFei": null, "favourable": null, "shopMemo": null, "appraise": null, "website": null, "memo": null, "payTypes": "\u6749\u5fb7\u5361,", "shopTypes": "\u767e\u8d27", "consumeTypes": null, "cookTypes": null, "orderNum": null, "card4no": null, "card4noAcc": null, "district2": 418, "searchScope": null, "status": 1, "address": "\u5f20\u626c\u8def501\u53f7", "name": "\u7b2c\u4e00\u516b\u4f70\u4f34", "id": 439449393226055680, "pageNo": 0, "pageCount": null, "pageSize": 10, "ids": null, "endTime": null, "startTime": null}, {"cardNumFive": null, "isSupportYj": null, "cityName": null, "districtName": null, "shopinfo": {"mid": "T00000000000006", "good_flag": "2", "new_flag": "2", "short_name": "\u7b2c\u4e00\u98df\u54c1", "short_name_pinyin": "diyishipin", "status": null, "address": null, "name": null, "id": "31490"}, "mid": "T00000000000006", "shopId": "31490", "netid": null, "province": 901, "district": 601, "zipcode": null, "telephone": "021-64549799", "posDate": "20070809", "destineTel": null, "togoTel": null, "trafficWay": "\u516c\u4ea4157 50 804", "signBuilding": "\u534e\u4e1c\u7406\u5de5\u5927\u5b66", "businessArea": null, "selfRoom": "\u65e0", "businessTime": "10:00~22:00", "stall": "\u65e0", "consume": null, "serviceFei": null, "favourable": null, "shopMemo": null, "appraise": null, "website": null, "memo": null, "payTypes": "\u6749\u5fb7\u5361", "shopTypes": "\u767e\u8d27", "consumeTypes": null, "cookTypes": null, "orderNum": 1000, "card4no": null, "card4noAcc": null, "district2": 403, "searchScope": null, "status": 1, "address": "\u6885\u9647\u8def255\u53f7", "name": "\u7b2c\u4e00\u98df\u54c1 \u6885\u9647\u5e97", "id": 133638, "pageNo": 0, "pageCount": null, "pageSize": 10, "ids": null, "endTime": null, "startTime": null}, {"cardNumFive": null, "isSupportYj": null, "cityName": null, "districtName": null, "shopinfo": {"mid": "T00000000000006", "good_flag": "2", "new_flag": "2", "short_name": "\u7b2c\u4e00\u98df\u54c1", "short_name_pinyin": "diyishipin", "status": null, "address": null, "name": null, "id": "31490"}, "mid": "T00000000000006", "shopId": "31490", "netid": null, "province": 901, "district": 601, "zipcode": null, "telephone": "021-63222777", "posDate": "20070803", "destineTel": null, "togoTel": null, "trafficWay": "\u5730\u94c1\u4e00,\u4e8c\u53f7\u7ebf", "signBuilding": "\u5357\u4eac\u4e1c\u8def\u6b65\u884c\u8857", "businessArea": null, "selfRoom": "\u65e0", "businessTime": "10:00~22:00", "stall": "\u65e0", "consume": null, "serviceFei": null, "favourable": null, "shopMemo": null, "appraise": null, "website": null, "memo": null, "payTypes": "\u6749\u5fb7\u5361", "shopTypes": "\u767e\u8d27", "consumeTypes": null, "cookTypes": null, "orderNum": 1000, "card4no": null, "card4noAcc": null, "district2": 401, "searchScope": null, "status": 1, "address": "\u5357\u4eac\u4e1c\u8def720\u53f7", "name": "\u7b2c\u4e00\u98df\u54c1 \u5357\u4eac\u4e1c\u8def\u5e97", "id": 133639, "pageNo": 0, "pageCount": null, "pageSize": 10, "ids": null, "endTime": null, "startTime": null}, {"cardNumFive": null, "isSupportYj": null, "cityName": null, "districtName": null, "shopinfo": {"mid": "T00000000000006", "good_flag": "2", "new_flag": "2", "short_name": "\u7b2c\u4e00\u98df\u54c1", "short_name_pinyin": "diyishipin", "status": null, "address": null, "name": null, "id": "31490"}, "mid": "T00000000000006", "shopId": "31490", "netid": null, "province": 901, "district": 601, "zipcode": null, "telephone": "63222777-630", "posDate": "20070807", "destineTel": null, "togoTel": null, "trafficWay": "\u516c\u4ea4942 910", "signBuilding": "\u4e94\u89d2\u573a \u4e07\u8fbe\u5546\u4e1a\u5e7f\u573a", "businessArea": null, "selfRoom": "\u65e0", "businessTime": "10:00~22:00", "stall": "\u65e0", "consume": null, "serviceFei": null, "favourable": null, "shopMemo": null, "appraise": null, "website": null, "memo": null, "payTypes": "\u6749\u5fb7\u5361", "shopTypes": "\u767e\u8d27", "consumeTypes": null, "cookTypes": null, "orderNum": 1000, "card4no": null, "card4noAcc": null, "district2": 407, "searchScope": null, "status": 1, "address": "\u90af\u90f8\u8def600\u53f7", "name": "\u7b2c\u4e00\u98df\u54c1 \u4e94\u89d2\u573a\u5e97", "id": 133640, "pageNo": 0, "pageCount": null, "pageSize": 10, "ids": null, "endTime": null, "startTime": null}, {"cardNumFive": null, "isSupportYj": null, "cityName": null, "districtName": null, "shopinfo": {"mid": "888888854410167", "good_flag": "2", "new_flag": "2", "short_name": "\u7b2c\u4e00\u98df\u54c1", "short_name_pinyin": "diyishipin", "status": null, "address": null, "name": null, "id": "31491"}, "mid": "888888854410167", "shopId": "31491", "netid": null, "province": 901, "district": 601, "zipcode": null, "telephone": "63222777*529", "posDate": null, "destineTel": null, "togoTel": null, "trafficWay": "807\u3001947", "signBuilding": null, "businessArea": null, "selfRoom": null, "businessTime": null, "stall": null, "consume": null, "serviceFei": null, "favourable": null, "shopMemo": null, "appraise": null, "website": null, "memo": null, "payTypes": "\u6749\u5fb7\u5361", "shopTypes": "\u767e\u8d27", "consumeTypes": null, "cookTypes": null, "orderNum": 1000, "card4no": null, "card4noAcc": null, "district2": 405, "searchScope": null, "status": 1, "address": "\u771f\u5149\u8def1288\u53f7\u4e2d\u73af\u5e97", "name": "\u7b2c\u4e00\u98df\u54c1 \u4e2d\u73af\u5e97", "id": 133641, "pageNo": 0, "pageCount": null, "pageSize": 10, "ids": null, "endTime": null, "startTime": null}, {"cardNumFive": null, "isSupportYj": null, "cityName": null, "districtName": null, "shopinfo": {"mid": "888002154411191", "good_flag": null, "new_flag": null, "short_name": "\u7b2c\u4e00\u98df\u54c1", "short_name_pinyin": "diyishipin", "status": null, "address": null, "name": null, "id": "36496"}, "mid": "888002154411191", "shopId": "36496", "netid": null, "province": 901, "district": 601, "zipcode": null, "telephone": "63222777", "posDate": "20100926", "destineTel": null, "togoTel": null, "trafficWay": null, "signBuilding": null, "businessArea": null, "selfRoom": null, "businessTime": null, "stall": null, "consume": null, "serviceFei": null, "favourable": null, "shopMemo": null, "appraise": null, "website": null, "memo": null, "payTypes": "\u6749\u5fb7\u5361", "shopTypes": "\u767e\u8d27", "consumeTypes": null, "cookTypes": null, "orderNum": 1000, "card4no": null, "card4noAcc": null, "district2": 413, "searchScope": null, "status": 1, "address": "\u5357\u6865\u9547\u767e\u9f50\u8def588\u53f71\u697c", "name": "\u7b2c\u4e00\u98df\u54c1 \u5357\u6865\u5e97", "id": 151763, "pageNo": 0, "pageCount": null, "pageSize": 10, "ids": null, "endTime": null, "startTime": null}, {"cardNumFive": null, "isSupportYj": null, "cityName": null, "districtName": null, "shopinfo": {"mid": "888002154110563", "good_flag": null, "new_flag": null, "short_name": "\u7b2c\u4e00\u98df\u54c1", "short_name_pinyin": "diyishipin", "status": null, "address": null, "name": null, "id": "38959"}, "mid": "888002154110563", "shopId": "38959", "netid": null, "province": 901, "district": 601, "zipcode": null, "telephone": "58355677", "posDate": null, "destineTel": null, "togoTel": null, "trafficWay": null, "signBuilding": null, "businessArea": null, "selfRoom": null, "businessTime": null, "stall": null, "consume": null, "serviceFei": null, "favourable": null, "shopMemo": null, "appraise": null, "website": null, "memo": null, "payTypes": "\u6749\u5fb7\u5361", "shopTypes": "\u767e\u8d27", "consumeTypes": null, "cookTypes": null, "orderNum": 1000, "card4no": null, "card4noAcc": null, "district2": 418, "searchScope": null, "status": 1, "address": "\u5f20\u6768\u8def579\u53f71-3\u697c", "name": "\u7b2c\u4e00\u98df\u54c1 \u5f20\u6768\u5e97", "id": 164898, "pageNo": 0, "pageCount": null, "pageSize": 10, "ids": null, "endTime": null, "startTime": null}, {"cardNumFive": null, "isSupportYj": null, "cityName": null, "districtName": null, "shopinfo": {"mid": "888002154410280", "good_flag": null, "new_flag": null, "short_name": "\u7b2c\u4e00\u98df\u54c1", "short_name_pinyin": "diyishipin", "status": null, "address": null, "name": null, "id": "43103"}, "mid": "888002154410280", "shopId": "43103", "netid": null, "province": 901, "district": 601, "zipcode": null, "telephone": null, "posDate": null, "destineTel": null, "togoTel": null, "trafficWay": null, "signBuilding": null, "businessArea": null, "selfRoom": null, "businessTime": null, "stall": null, "consume": null, "serviceFei": null, "favourable": null, "shopMemo": null, "appraise": null, "website": null, "memo": null, "payTypes": "\u6749\u5fb7\u5361", "shopTypes": "\u96f6\u552e", "consumeTypes": null, "cookTypes": null, "orderNum": 1000, "card4no": null, "card4noAcc": null, "district2": 412, "searchScope": null, "status": 1, "address": "\u4e2d\u5c71\u4e2d\u8def71\u53f71\u5c42102\u5ba4-112\u5ba4\uff08A\u533a\uff09", "name": "\u7b2c\u4e00\u98df\u54c1 \u677e\u6c5f\u5e97", "id": 190997, "pageNo": 0, "pageCount": null, "pageSize": 10, "ids": null, "endTime": null, "startTime": null}, {"cardNumFive": null, "isSupportYj": null, "cityName": null, "districtName": null, "shopinfo": {"mid": "888002154410246", "good_flag": null, "new_flag": null, "short_name": "\u7b2c\u4e00\u98df\u54c1", "short_name_pinyin": "diyishipin", "status": null, "address": null, "name": null, "id": "43231"}, "mid": "888002154410246", "shopId": "43231", "netid": null, "province": 901, "district": 601, "zipcode": null, "telephone": null, "posDate": null, "destineTel": null, "togoTel": null, "trafficWay": null, "signBuilding": null, "businessArea": null, "selfRoom": null, "businessTime": null, "stall": null, "consume": null, "serviceFei": null, "favourable": null, "shopMemo": null, "appraise": null, "website": null, "memo": null, "payTypes": "\u6749\u5fb7\u5361", "shopTypes": "\u96f6\u552e", "consumeTypes": null, "cookTypes": null, "orderNum": 1000, "card4no": null, "card4noAcc": null, "district2": 401, "searchScope": null, "status": 1, "address": "\u8d35\u5dde\u8def85\u53f7", "name": "\u7b2c\u4e00\u98df\u54c1 \u8d35\u5dde\u8def\u5e97", "id": 193533, "pageNo": 0, "pageCount": null, "pageSize": 10, "ids": null, "endTime": null, "startTime": null}, {"cardNumFive": null, "isSupportYj": null, "cityName": null, "districtName": null, "shopinfo": {"mid": "888002154410222", "good_flag": "2", "new_flag": "2", "short_name": "\u7b2c\u4e00\u98df\u54c1", "short_name_pinyin": "diyishipin", "status": null, "address": null, "name": null, "id": "552801973682831360"}, "mid": "888002154410222", "shopId": "552801973682831360", "netid": null, "province": 901, "district": 601, "zipcode": null, "telephone": null, "posDate": null, "destineTel": null, "togoTel": null, "trafficWay": null, "signBuilding": null, "businessArea": null, "selfRoom": null, "businessTime": null, "stall": null, "consume": null, "serviceFei": null, "favourable": null, "shopMemo": null, "appraise": null, "website": null, "memo": null, "payTypes": "", "shopTypes": null, "consumeTypes": null, "cookTypes": null, "orderNum": null, "card4no": null, "card4noAcc": null, "district2": 416, "searchScope": null, "status": 1, "address": "\u4e00\u4e8c\u516b\u7eaa\u5ff5\u8def936\u53f7\u4e00\u5c42", "name": "\u5b9d\u5c71\u4e07\u8fbe\u5e97", "id": 552801972953022464, "pageNo": 0, "pageCount": null, "pageSize": 10, "ids": null, "endTime": null, "startTime": null}], "pageLimit": 1210, "size": 10}