{"pageCount": 1095, "count": 10942, "pageNo": 120, "subShopInfo": {"cardNumFive": "", "isSupportYj": "", "cityName": null, "districtName": null, "shopinfo": {"mid": null, "good_flag": null, "new_flag": null, "short_name": null, "short_name_pinyin": null, "status": null, "address": "", "name": "", "id": null}, "mid": null, "shopId": null, "netid": null, "province": 901, "district": null, "zipcode": null, "telephone": null, "posDate": null, "destineTel": null, "togoTel": null, "trafficWay": null, "signBuilding": null, "businessArea": null, "selfRoom": null, "businessTime": null, "stall": null, "consume": null, "serviceFei": null, "favourable": null, "shopMemo": "1", "appraise": null, "website": null, "memo": null, "payTypes": "", "shopTypes": "", "consumeTypes": null, "cookTypes": null, "orderNum": null, "card4no": null, "card4noAcc": null, "district2": null, "searchScope": null, "status": null, "address": "", "name": null, "id": null, "pageNo": 119, "pageCount": null, "pageSize": 10, "ids": null, "endTime": null, "startTime": null}, "list": [{"cardNumFive": null, "isSupportYj": null, "cityName": null, "districtName": null, "shopinfo": {"mid": "888888848120012", "good_flag": "2", "new_flag": "1", "short_name": "\u8fea\u4fe1\u901a", "short_name_pinyin": "dixintong", "status": null, "address": null, "name": null, "id": "31451"}, "mid": "888888848120012", "shopId": "31451", "netid": null, "province": 901, "district": 601, "zipcode": null, "telephone": "63221639", "posDate": "20080107", "destineTel": null, "togoTel": null, "trafficWay": "\u516c\u4ea4864 \u5730\u94c1\u4e8c\u53f7\u7ebf \u65c5\u6e3810\u53f7\u7ebf", "signBuilding": null, "businessArea": null, "selfRoom": null, "businessTime": null, "stall": null, "consume": null, "serviceFei": null, "favourable": null, "shopMemo": null, "appraise": null, "website": null, "memo": null, "payTypes": "\u6749\u5fb7\u5361", "shopTypes": "\u96f6\u552e,\u4e13\u5356", "consumeTypes": null, "cookTypes": null, "orderNum": 1000, "card4no": null, "card4noAcc": null, "district2": 401, "searchScope": null, "status": 1, "address": "\u5357\u4eac\u4e1c\u8def345\u53f7\u4e00\u697c", "name": "\u8fea\u4fe1\u901a \u5357\u4e1c\u4e8c\u5e97", "id": 133394, "pageNo": 0, "pageCount": null, "pageSize": 10, "ids": null, "endTime": null, "startTime": null}, {"cardNumFive": null, "isSupportYj": null, "cityName": null, "districtName": null, "shopinfo": {"mid": "888888848120012", "good_flag": "2", "new_flag": "1", "short_name": "\u8fea\u4fe1\u901a", "short_name_pinyin": "dixintong", "status": null, "address": null, "name": null, "id": "31451"}, "mid": "888888848120012", "shopId": "31451", "netid": null, "province": 901, "district": 601, "zipcode": null, "telephone": "68031593", "posDate": "20071207", "destineTel": null, "togoTel": null, "trafficWay": "\u5317\u5b89\u7ebf \u65c5\u6e386B\u7ebf", "signBuilding": null, "businessArea": null, "selfRoom": null, "businessTime": "9:00~21:00", "stall": null, "consume": null, "serviceFei": null, "favourable": null, "shopMemo": null, "appraise": null, "website": null, "memo": null, "payTypes": "\u6749\u5fb7\u5361", "shopTypes": "\u96f6\u552e,\u4e13\u5356", "consumeTypes": null, "cookTypes": null, "orderNum": 1000, "card4no": null, "card4noAcc": null, "district2": 418, "searchScope": null, "status": 1, "address": "\u6c47\u5357\u9547\u4e1c\u5927\u885744-46\u53f7", "name": "\u8fea\u4fe1\u901a \u5357\u6c47\u5e97", "id": 133396, "pageNo": 0, "pageCount": null, "pageSize": 10, "ids": null, "endTime": null, "startTime": null}, {"cardNumFive": null, "isSupportYj": null, "cityName": null, "districtName": null, "shopinfo": {"mid": "888888848120012", "good_flag": "2", "new_flag": "1", "short_name": "\u8fea\u4fe1\u901a", "short_name_pinyin": "dixintong", "status": null, "address": null, "name": null, "id": "31451"}, "mid": "888888848120012", "shopId": "31451", "netid": null, "province": 901, "district": 601, "zipcode": null, "telephone": "68031891", "posDate": "20071207", "destineTel": null, "togoTel": null, "trafficWay": "\u5357\u65b0\u7ebf \u6caa\u5357\u7ebf \u65c5\u6e382\u53f7\u7ebf", "signBuilding": null, "businessArea": null, "selfRoom": null, "businessTime": "9:00~21:00", "stall": null, "consume": null, "serviceFei": null, "favourable": null, "shopMemo": null, "appraise": null, "website": null, "memo": null, "payTypes": "\u6749\u5fb7\u5361", "shopTypes": "\u96f6\u552e,\u4e13\u5356", "consumeTypes": null, "cookTypes": null, "orderNum": 1000, "card4no": null, "card4noAcc": null, "district2": 418, "searchScope": null, "status": 1, "address": "\u4eba\u6c11\u4e1c\u8def2970\u30012972\u53f7", "name": "\u8fea\u4fe1\u901a \u5357\u6c47\u4e8c\u5e97", "id": 133397, "pageNo": 0, "pageCount": null, "pageSize": 10, "ids": null, "endTime": null, "startTime": null}, {"cardNumFive": null, "isSupportYj": null, "cityName": null, "districtName": null, "shopinfo": {"mid": "888888848120012", "good_flag": "2", "new_flag": "1", "short_name": "\u8fea\u4fe1\u901a", "short_name_pinyin": "dixintong", "status": null, "address": null, "name": null, "id": "31451"}, "mid": "888888848120012", "shopId": "31451", "netid": null, "province": 901, "district": 601, "zipcode": null, "telephone": "68030700", "posDate": "20071207", "destineTel": null, "togoTel": null, "trafficWay": "\u5357\u65b0\u7ebf \u6caa\u5357\u7ebf", "signBuilding": null, "businessArea": null, "selfRoom": null, "businessTime": "9:00~21:00", "stall": null, "consume": null, "serviceFei": null, "favourable": null, "shopMemo": null, "appraise": null, "website": null, "memo": null, "payTypes": "\u6749\u5fb7\u5361", "shopTypes": "\u96f6\u552e,\u4e13\u5356", "consumeTypes": null, "cookTypes": null, "orderNum": 1000, "card4no": null, "card4noAcc": null, "district2": 418, "searchScope": null, "status": 1, "address": "\u60e0\u5357\u9547\u57ce\u4e1c\u8def16\u53f7", "name": "\u8fea\u4fe1\u901a \u5357\u6c47\u4e09\u5e97", "id": 133399, "pageNo": 0, "pageCount": null, "pageSize": 10, "ids": null, "endTime": null, "startTime": null}, {"cardNumFive": null, "isSupportYj": null, "cityName": null, "districtName": null, "shopinfo": {"mid": "888888848120012", "good_flag": "2", "new_flag": "1", "short_name": "\u8fea\u4fe1\u901a", "short_name_pinyin": "dixintong", "status": null, "address": null, "name": null, "id": "31451"}, "mid": "888888848120012", "shopId": "31451", "netid": null, "province": 901, "district": 601, "zipcode": null, "telephone": "62536810", "posDate": "20071213", "destineTel": null, "togoTel": null, "trafficWay": "\u516c\u4ea4\uff19\uff12\uff17\u3000\uff11\uff14\uff18\u3000\u5730\u94c1\u4e8c\u53f7\u7ebf", "signBuilding": null, "businessArea": null, "selfRoom": null, "businessTime": "9:00~21:00", "stall": null, "consume": null, "serviceFei": null, "favourable": null, "shopMemo": null, "appraise": null, "website": null, "memo": null, "payTypes": "\u6749\u5fb7\u5361", "shopTypes": "\u96f6\u552e,\u4e13\u5356", "consumeTypes": null, "cookTypes": null, "orderNum": 1000, "card4no": null, "card4noAcc": null, "district2": 401, "searchScope": null, "status": 1, "address": "\u5357\u4eac\u897f\u8def771\u53f7", "name": "\u8fea\u4fe1\u901a \u5357\u4eac\u897f\u8def\u5e97", "id": 133400, "pageNo": 0, "pageCount": null, "pageSize": 10, "ids": null, "endTime": null, "startTime": null}, {"cardNumFive": null, "isSupportYj": null, "cityName": null, "districtName": null, "shopinfo": {"mid": "888888848120012", "good_flag": "2", "new_flag": "1", "short_name": "\u8fea\u4fe1\u901a", "short_name_pinyin": "dixintong", "status": null, "address": null, "name": null, "id": "31451"}, "mid": "888888848120012", "shopId": "31451", "netid": null, "province": 901, "district": 601, "zipcode": null, "telephone": "57106759", "posDate": "20071218", "destineTel": null, "togoTel": null, "trafficWay": "\u83b2\u5e84\u4e13\u7ebf \u6caa\u661f\u4e13\u7ebf \u9f99\u90b5\u4e13\u7ebf", "signBuilding": null, "businessArea": null, "selfRoom": null, "businessTime": "9:00~21:00", "stall": null, "consume": null, "serviceFei": null, "favourable": null, "shopMemo": null, "appraise": null, "website": null, "memo": null, "payTypes": "\u6749\u5fb7\u5361", "shopTypes": "\u96f6\u552e,\u4e13\u5356", "consumeTypes": null, "cookTypes": null, "orderNum": 1000, "card4no": null, "card4noAcc": null, "district2": 413, "searchScope": null, "status": 1, "address": "\u5357\u6865\u5357\u4e2d\u8def175\u53f7", "name": "\u8fea\u4fe1\u901a \u5357\u6865\u5e97", "id": 133401, "pageNo": 0, "pageCount": null, "pageSize": 10, "ids": null, "endTime": null, "startTime": null}, {"cardNumFive": null, "isSupportYj": null, "cityName": null, "districtName": null, "shopinfo": {"mid": "888888848120012", "good_flag": "2", "new_flag": "1", "short_name": "\u8fea\u4fe1\u901a", "short_name_pinyin": "dixintong", "status": null, "address": null, "name": null, "id": "31451"}, "mid": "888888848120012", "shopId": "31451", "netid": null, "province": 901, "district": 601, "zipcode": null, "telephone": "66820369", "posDate": "20071203", "destineTel": null, "togoTel": null, "trafficWay": "\u516c\u4ea4206 222", "signBuilding": null, "businessArea": null, "selfRoom": null, "businessTime": "9:00~21:00", "stall": null, "consume": null, "serviceFei": null, "favourable": null, "shopMemo": null, "appraise": null, "website": null, "memo": null, "payTypes": "\u6749\u5fb7\u5361", "shopTypes": "\u96f6\u552e,\u4e13\u5356", "consumeTypes": null, "cookTypes": null, "orderNum": 1000, "card4no": null, "card4noAcc": null, "district2": 410, "searchScope": null, "status": 1, "address": "\u5f6d\u6d66\u4e34\u6c7e\u8def368\u53f7", "name": "\u8fea\u4fe1\u901a \u5f6d\u6d66\u5e97", "id": 133402, "pageNo": 0, "pageCount": null, "pageSize": 10, "ids": null, "endTime": null, "startTime": null}, {"cardNumFive": null, "isSupportYj": null, "cityName": null, "districtName": null, "shopinfo": {"mid": "888888848120012", "good_flag": "2", "new_flag": "1", "short_name": "\u8fea\u4fe1\u901a", "short_name_pinyin": "dixintong", "status": null, "address": null, "name": null, "id": "31451"}, "mid": "888888848120012", "shopId": "31451", "netid": null, "province": 901, "district": 601, "zipcode": null, "telephone": "65182139", "posDate": "20071203", "destineTel": null, "togoTel": null, "trafficWay": "\u516c\u4ea4934 37 \u7533\u5ddd\u7ebf", "signBuilding": null, "businessArea": null, "selfRoom": null, "businessTime": "9:00~21:00", "stall": null, "consume": null, "serviceFei": null, "favourable": null, "shopMemo": null, "appraise": null, "website": null, "memo": null, "payTypes": "\u6749\u5fb7\u5361", "shopTypes": "\u96f6\u552e,\u4e13\u5356", "consumeTypes": null, "cookTypes": null, "orderNum": 1000, "card4no": null, "card4noAcc": null, "district2": 407, "searchScope": null, "status": 1, "address": "\u5e73\u51c9\u8def1495\u53f7\u4e00\u697c\u7532\u5ba4", "name": "\u8fea\u4fe1\u901a \u5e73\u51c9\u5e97", "id": 133403, "pageNo": 0, "pageCount": null, "pageSize": 10, "ids": null, "endTime": null, "startTime": null}, {"cardNumFive": null, "isSupportYj": null, "cityName": null, "districtName": null, "shopinfo": {"mid": "888888848120012", "good_flag": "2", "new_flag": "1", "short_name": "\u8fea\u4fe1\u901a", "short_name_pinyin": "dixintong", "status": null, "address": null, "name": null, "id": "31451"}, "mid": "888888848120012", "shopId": "31451", "netid": null, "province": 901, "district": 601, "zipcode": null, "telephone": "54861367", "posDate": "20071212", "destineTel": null, "togoTel": null, "trafficWay": "\u516c\u4ea4803 \u8398\u6c5f\u4e13\u7ebf", "signBuilding": null, "businessArea": null, "selfRoom": null, "businessTime": "9:00~21:00", "stall": null, "consume": null, "serviceFei": null, "favourable": null, "shopMemo": null, "appraise": null, "website": null, "memo": null, "payTypes": "\u6749\u5fb7\u5361", "shopTypes": "\u96f6\u552e,\u4e13\u5356", "consumeTypes": null, "cookTypes": null, "orderNum": 1000, "card4no": null, "card4noAcc": null, "district2": 409, "searchScope": null, "status": 1, "address": "\u4e03\u8398\u8def2023\u53f7", "name": "\u8fea\u4fe1\u901a \u4e03\u5b9d\u4e8c\u5e97", "id": 133405, "pageNo": 0, "pageCount": null, "pageSize": 10, "ids": null, "endTime": null, "startTime": null}, {"cardNumFive": null, "isSupportYj": null, "cityName": null, "districtName": null, "shopinfo": {"mid": "888888848120012", "good_flag": "2", "new_flag": "1", "short_name": "\u8fea\u4fe1\u901a", "short_name_pinyin": "dixintong", "status": null, "address": null, "name": null, "id": "31451"}, "mid": "888888848120012", "shopId": "31451", "netid": null, "province": 901, "district": 601, "zipcode": null, "telephone": "54869119", "posDate": "20071211", "destineTel": null, "togoTel": null, "trafficWay": "\u6caa\u677e\u7ebf \u5357\u4f58\u7ebf \u5929\u6885\u7ebf", "signBuilding": null, "businessArea": null, "selfRoom": null, "businessTime": "9:00~21:00", "stall": null, "consume": null, "serviceFei": null, "favourable": null, "shopMemo": null, "appraise": null, "website": null, "memo": null, "payTypes": "\u6749\u5fb7\u5361", "shopTypes": "\u96f6\u552e,\u4e13\u5356", "consumeTypes": null, "cookTypes": null, "orderNum": 1000, "card4no": null, "card4noAcc": null, "district2": 409, "searchScope": null, "status": 1, "address": "\u4e03\u8398\u8def3088\u53f7\u5546\u573a\u5e95\u697c", "name": "\u8fea\u4fe1\u901a \u4e03\u5b9d\u4e03\u8398\u5e97", "id": 133406, "pageNo": 0, "pageCount": null, "pageSize": 10, "ids": null, "endTime": null, "startTime": null}], "pageLimit": 1190, "size": 10}