{"pageCount": 1095, "count": 10942, "pageNo": 125, "subShopInfo": {"cardNumFive": "", "isSupportYj": "", "cityName": null, "districtName": null, "shopinfo": {"mid": null, "good_flag": null, "new_flag": null, "short_name": null, "short_name_pinyin": null, "status": null, "address": "", "name": "", "id": null}, "mid": null, "shopId": null, "netid": null, "province": 901, "district": null, "zipcode": null, "telephone": null, "posDate": null, "destineTel": null, "togoTel": null, "trafficWay": null, "signBuilding": null, "businessArea": null, "selfRoom": null, "businessTime": null, "stall": null, "consume": null, "serviceFei": null, "favourable": null, "shopMemo": "1", "appraise": null, "website": null, "memo": null, "payTypes": "", "shopTypes": "", "consumeTypes": null, "cookTypes": null, "orderNum": null, "card4no": null, "card4noAcc": null, "district2": null, "searchScope": null, "status": null, "address": "", "name": null, "id": null, "pageNo": 124, "pageCount": null, "pageSize": 10, "ids": null, "endTime": null, "startTime": null}, "list": [{"cardNumFive": null, "isSupportYj": null, "cityName": null, "districtName": null, "shopinfo": {"mid": "888888880430012", "good_flag": "2", "new_flag": "2", "short_name": "\u4e1c\u65b9\u773c\u955c", "short_name_pinyin": "dongfangyanjing", "status": null, "address": null, "name": null, "id": "31518"}, "mid": "888888880430012", "shopId": "31518", "netid": null, "province": 901, "district": 601, "zipcode": "200001", "telephone": "58928828", "posDate": "20070429", "destineTel": null, "togoTel": null, "trafficWay": "\u5f90\u5ddd\u4e13\u7ebf", "signBuilding": null, "businessArea": null, "selfRoom": "\u65e0", "businessTime": "8:00~21:00", "stall": null, "consume": null, "serviceFei": null, "favourable": null, "shopMemo": null, "appraise": null, "website": null, "memo": null, "payTypes": "\u6749\u5fb7\u5361", "shopTypes": "\u96f6\u552e,\u4e13\u5356", "consumeTypes": null, "cookTypes": null, "orderNum": 1000, "card4no": null, "card4noAcc": null, "district2": 418, "searchScope": null, "status": 1, "address": "\u5ddd\u6c99\u9547\u5ddd\u6c99\u8def4672\u53f7", "name": "\u4e1c\u65b9\u773c\u955c \u5ddd\u6c99\u8def\u4e8c\u5e97", "id": 133680, "pageNo": 0, "pageCount": null, "pageSize": 10, "ids": null, "endTime": null, "startTime": null}, {"cardNumFive": null, "isSupportYj": null, "cityName": null, "districtName": null, "shopinfo": {"mid": "888888880430012", "good_flag": "2", "new_flag": "2", "short_name": "\u4e1c\u65b9\u773c\u955c", "short_name_pinyin": "dongfangyanjing", "status": null, "address": null, "name": null, "id": "31518"}, "mid": "888888880430012", "shopId": "31518", "netid": null, "province": 901, "district": 601, "zipcode": "200001", "telephone": "58920993", "posDate": "20070429", "destineTel": null, "togoTel": null, "trafficWay": "\u5f90\u5ddd\u4e13\u7ebf", "signBuilding": null, "businessArea": null, "selfRoom": "\u65e0", "businessTime": "8:00~21:00", "stall": null, "consume": null, "serviceFei": null, "favourable": null, "shopMemo": null, "appraise": null, "website": null, "memo": null, "payTypes": "\u6749\u5fb7\u5361", "shopTypes": "\u96f6\u552e,\u4e13\u5356", "consumeTypes": null, "cookTypes": null, "orderNum": 1000, "card4no": null, "card4noAcc": null, "district2": 418, "searchScope": null, "status": 1, "address": "\u5ddd\u6c99\u9547\u5ddd\u6c99\u8def4800\u53f7", "name": "\u4e1c\u65b9\u773c\u955c \u5ddd\u6c99\u8def\u4e00\u5e97", "id": 133681, "pageNo": 0, "pageCount": null, "pageSize": 10, "ids": null, "endTime": null, "startTime": null}, {"cardNumFive": null, "isSupportYj": null, "cityName": null, "districtName": null, "shopinfo": {"mid": "888888880430060", "good_flag": "2", "new_flag": "2", "short_name": "\u4e1c\u65b9\u773c\u955c", "short_name_pinyin": "dongfangyanjing", "status": null, "address": null, "name": null, "id": "31519"}, "mid": "888888880430060", "shopId": "31519", "netid": null, "province": 901, "district": 601, "zipcode": null, "telephone": "68531972", "posDate": "20080711", "destineTel": null, "togoTel": null, "trafficWay": "\u516c\u4ea4170 \u65b0\u5ddd\u7ebf \u4e0a\u5ddd\u7ebf", "signBuilding": null, "businessArea": null, "selfRoom": null, "businessTime": null, "stall": null, "consume": null, "serviceFei": null, "favourable": null, "shopMemo": null, "appraise": null, "website": null, "memo": null, "payTypes": "\u6749\u5fb7\u5361", "shopTypes": "\u96f6\u552e,\u4e13\u5356", "consumeTypes": null, "cookTypes": null, "orderNum": 1000, "card4no": null, "card4noAcc": null, "district2": 418, "searchScope": null, "status": 1, "address": "\u5d2e\u5c71\u8def40\u53f7", "name": "\u4e1c\u65b9\u773c\u955c \u5d2e\u5c71\u5e97", "id": 133682, "pageNo": 0, "pageCount": null, "pageSize": 10, "ids": null, "endTime": null, "startTime": null}, {"cardNumFive": null, "isSupportYj": null, "cityName": null, "districtName": null, "shopinfo": {"mid": "888888880430088", "good_flag": "2", "new_flag": "1", "short_name": "\u4e1c\u65b9\u773c\u955c", "short_name_pinyin": "dongfangyanjing", "status": null, "address": null, "name": null, "id": "31520"}, "mid": "888888880430088", "shopId": "31520", "netid": null, "province": 901, "district": 601, "zipcode": null, "telephone": "34500008", "posDate": "20100111", "destineTel": null, "togoTel": null, "trafficWay": null, "signBuilding": null, "businessArea": null, "selfRoom": null, "businessTime": null, "stall": null, "consume": null, "serviceFei": null, "favourable": null, "shopMemo": null, "appraise": null, "website": null, "memo": null, "payTypes": "\u6749\u5fb7\u5361", "shopTypes": "\u96f6\u552e,\u4e13\u5356", "consumeTypes": null, "cookTypes": null, "orderNum": 1000, "card4no": null, "card4noAcc": null, "district2": 409, "searchScope": null, "status": 1, "address": "\u6d66\u6c5f\u9547\u6c5f\u6708\u8def1800\u53f7", "name": "\u4e1c\u65b9\u773c\u955c \u6c5f\u6708\u8def\u5e97", "id": 133684, "pageNo": 0, "pageCount": null, "pageSize": 10, "ids": null, "endTime": null, "startTime": null}, {"cardNumFive": null, "isSupportYj": null, "cityName": null, "districtName": null, "shopinfo": {"mid": "888888880430060", "good_flag": "2", "new_flag": "2", "short_name": "\u4e1c\u65b9\u773c\u955c", "short_name_pinyin": "dongfangyanjing", "status": null, "address": null, "name": null, "id": "31519"}, "mid": "888888880430060", "shopId": "31519", "netid": null, "province": 901, "district": 601, "zipcode": null, "telephone": "58796418", "posDate": "20080711", "destineTel": null, "togoTel": null, "trafficWay": "\u516c\u4ea4936 779", "signBuilding": null, "businessArea": null, "selfRoom": null, "businessTime": null, "stall": null, "consume": null, "serviceFei": null, "favourable": null, "shopMemo": null, "appraise": null, "website": null, "memo": null, "payTypes": "\u6749\u5fb7\u5361", "shopTypes": "\u96f6\u552e,\u4e13\u5356", "consumeTypes": null, "cookTypes": null, "orderNum": 1000, "card4no": null, "card4noAcc": null, "district2": 418, "searchScope": null, "status": 1, "address": "\u4e73\u5c71\u8def120\u53f7", "name": "\u4e1c\u65b9\u773c\u955c \u4e73\u5c71\u5e97", "id": 133689, "pageNo": 0, "pageCount": null, "pageSize": 10, "ids": null, "endTime": null, "startTime": null}, {"cardNumFive": null, "isSupportYj": null, "cityName": null, "districtName": null, "shopinfo": {"mid": "888888880430039", "good_flag": "2", "new_flag": "2", "short_name": "\u4e1c\u65b9\u773c\u955c", "short_name_pinyin": "dongfangyanjing", "status": null, "address": null, "name": null, "id": "31525"}, "mid": "888888880430039", "shopId": "31525", "netid": null, "province": 901, "district": 601, "zipcode": null, "telephone": "64605495", "posDate": "20071212", "destineTel": null, "togoTel": null, "trafficWay": "\u5730\u94c1\u4e00\u53f7\u7ebf", "signBuilding": null, "businessArea": "150\u5e73\u65b9\u7c73", "selfRoom": null, "businessTime": "10:00~22:00", "stall": null, "consume": null, "serviceFei": null, "favourable": null, "shopMemo": null, "appraise": null, "website": null, "memo": null, "payTypes": "\u6749\u5fb7\u5361", "shopTypes": "\u96f6\u552e,\u4e13\u5356", "consumeTypes": null, "cookTypes": null, "orderNum": 1000, "card4no": null, "card4noAcc": null, "district2": 409, "searchScope": null, "status": 1, "address": "\u8398\u6731\u8def335\u53f71\u5c42", "name": "\u4e1c\u65b9\u773c\u955c \u8398\u6731\u8def\u5e97", "id": 133694, "pageNo": 0, "pageCount": null, "pageSize": 10, "ids": null, "endTime": null, "startTime": null}, {"cardNumFive": null, "isSupportYj": null, "cityName": null, "districtName": null, "shopinfo": {"mid": "888888880430026", "good_flag": "2", "new_flag": "2", "short_name": "\u4e1c\u65b9\u773c\u955c", "short_name_pinyin": "dongfangyanjing", "status": null, "address": null, "name": null, "id": "31524"}, "mid": "888888880430026", "shopId": "31524", "netid": null, "province": 901, "district": 601, "zipcode": null, "telephone": "64924589", "posDate": "20070723", "destineTel": null, "togoTel": null, "trafficWay": null, "signBuilding": null, "businessArea": null, "selfRoom": null, "businessTime": null, "stall": null, "consume": null, "serviceFei": null, "favourable": null, "shopMemo": null, "appraise": null, "website": null, "memo": null, "payTypes": "\u6749\u5fb7\u5361", "shopTypes": "\u96f6\u552e,\u4e13\u5356", "consumeTypes": null, "cookTypes": null, "orderNum": 1000, "card4no": null, "card4noAcc": null, "district2": 409, "searchScope": null, "status": 1, "address": "\u8398\u6f6d\u8def59\u53f7", "name": "\u4e1c\u65b9\u773c\u955c \u8398\u5e84\u5e97", "id": 133695, "pageNo": 0, "pageCount": null, "pageSize": 10, "ids": null, "endTime": null, "startTime": null}, {"cardNumFive": null, "isSupportYj": null, "cityName": null, "districtName": null, "shopinfo": {"mid": "888888856410011", "good_flag": "2", "new_flag": "2", "short_name": "\u8c46\u8c46\u6696\u623f\u5987\u5a74\u7528\u54c1", "short_name_pinyin": "doudounuanfangfuyingyongpin", "status": null, "address": null, "name": null, "id": "31545"}, "mid": "888888856410011", "shopId": "31545", "netid": null, "province": 901, "district": 601, "zipcode": null, "telephone": "59576361", "posDate": "20080613", "destineTel": null, "togoTel": null, "trafficWay": null, "signBuilding": null, "businessArea": null, "selfRoom": null, "businessTime": null, "stall": null, "consume": null, "serviceFei": null, "favourable": null, "shopMemo": null, "appraise": null, "website": null, "memo": null, "payTypes": "\u6749\u5fb7\u5361", "shopTypes": "\u4e13\u5356", "consumeTypes": null, "cookTypes": null, "orderNum": 1000, "card4no": null, "card4noAcc": null, "district2": 411, "searchScope": null, "status": 1, "address": "\u660c\u5409\u8def231\u53f7", "name": "\u8c46\u8c46\u6696\u623f\u5987\u5a74\u7528\u54c1 \u5b89\u4ead\u5e97", "id": 133756, "pageNo": 0, "pageCount": null, "pageSize": 10, "ids": null, "endTime": null, "startTime": null}, {"cardNumFive": null, "isSupportYj": null, "cityName": null, "districtName": null, "shopinfo": {"mid": "888888856410011", "good_flag": "2", "new_flag": "2", "short_name": "\u8c46\u8c46\u6696\u623f\u5987\u5a74\u7528\u54c1", "short_name_pinyin": "doudounuanfangfuyingyongpin", "status": null, "address": null, "name": null, "id": "31545"}, "mid": "888888856410011", "shopId": "31545", "netid": null, "province": 901, "district": 601, "zipcode": null, "telephone": "50406489", "posDate": "20080612", "destineTel": null, "togoTel": null, "trafficWay": "\u516c\u4ea4602 81", "signBuilding": null, "businessArea": null, "selfRoom": null, "businessTime": null, "stall": null, "consume": null, "serviceFei": null, "favourable": null, "shopMemo": null, "appraise": null, "website": null, "memo": null, "payTypes": "\u6749\u5fb7\u5361", "shopTypes": "\u4e13\u5356", "consumeTypes": null, "cookTypes": null, "orderNum": 1000, "card4no": null, "card4noAcc": null, "district2": 418, "searchScope": null, "status": 1, "address": "\u548c\u9f99\u8def217\u53f7", "name": "\u8c46\u8c46\u6696\u623f\u5987\u5a74\u7528\u54c1 \u9ad8\u6865\u5e97", "id": 133757, "pageNo": 0, "pageCount": null, "pageSize": 10, "ids": null, "endTime": null, "startTime": null}, {"cardNumFive": null, "isSupportYj": null, "cityName": null, "districtName": null, "shopinfo": {"mid": "888888856410011", "good_flag": "2", "new_flag": "2", "short_name": "\u8c46\u8c46\u6696\u623f\u5987\u5a74\u7528\u54c1", "short_name_pinyin": "doudounuanfangfuyingyongpin", "status": null, "address": null, "name": null, "id": "31545"}, "mid": "888888856410011", "shopId": "31545", "netid": null, "province": 901, "district": 601, "zipcode": null, "telephone": "66780685", "posDate": "20080612", "destineTel": null, "togoTel": null, "trafficWay": "\u516c\u4ea4952B \u5b9d\u6768\u4e13\u7ebf", "signBuilding": null, "businessArea": null, "selfRoom": null, "businessTime": null, "stall": null, "consume": null, "serviceFei": null, "favourable": null, "shopMemo": null, "appraise": null, "website": null, "memo": null, "payTypes": "\u6749\u5fb7\u5361", "shopTypes": "\u4e13\u5356", "consumeTypes": null, "cookTypes": null, "orderNum": 1000, "card4no": null, "card4noAcc": null, "district2": 416, "searchScope": null, "status": 1, "address": "\u53cb\u8c0a\u8def102\u53f7", "name": "\u8c46\u8c46\u6696\u623f\u5987\u5a74\u7528\u54c1 \u53cb\u8c0a\u5e97", "id": 133758, "pageNo": 0, "pageCount": null, "pageSize": 10, "ids": null, "endTime": null, "startTime": null}], "pageLimit": 1240, "size": 10}