{"pageCount": 1095, "count": 10942, "pageNo": 124, "subShopInfo": {"cardNumFive": "", "isSupportYj": "", "cityName": null, "districtName": null, "shopinfo": {"mid": null, "good_flag": null, "new_flag": null, "short_name": null, "short_name_pinyin": null, "status": null, "address": "", "name": "", "id": null}, "mid": null, "shopId": null, "netid": null, "province": 901, "district": null, "zipcode": null, "telephone": null, "posDate": null, "destineTel": null, "togoTel": null, "trafficWay": null, "signBuilding": null, "businessArea": null, "selfRoom": null, "businessTime": null, "stall": null, "consume": null, "serviceFei": null, "favourable": null, "shopMemo": "1", "appraise": null, "website": null, "memo": null, "payTypes": "", "shopTypes": "", "consumeTypes": null, "cookTypes": null, "orderNum": null, "card4no": null, "card4noAcc": null, "district2": null, "searchScope": null, "status": null, "address": "", "name": null, "id": null, "pageNo": 123, "pageCount": null, "pageSize": 10, "ids": null, "endTime": null, "startTime": null}, "list": [{"cardNumFive": null, "isSupportYj": null, "cityName": null, "districtName": null, "shopinfo": {"mid": "888002158122545", "good_flag": null, "new_flag": null, "short_name": "\u4e1c\u65b9\u65e2\u767d", "short_name_pinyin": "dongfangjibai", "status": null, "address": null, "name": null, "id": "41347"}, "mid": "888002158122545", "shopId": "41347", "netid": null, "province": 901, "district": 601, "zipcode": null, "telephone": "51563505", "posDate": null, "destineTel": null, "togoTel": null, "trafficWay": null, "signBuilding": null, "businessArea": null, "selfRoom": null, "businessTime": null, "stall": null, "consume": null, "serviceFei": null, "favourable": null, "shopMemo": null, "appraise": null, "website": null, "memo": null, "payTypes": "\u6749\u5fb7\u5361", "shopTypes": "\u9910\u996e", "consumeTypes": null, "cookTypes": null, "orderNum": 1000, "card4no": null, "card4noAcc": null, "district2": 403, "searchScope": null, "status": 1, "address": "\u51ef\u65cb\u8def2561\u53f7", "name": "\u4e1c\u65b9\u65e2\u767d \u5b9c\u5c71\u5e97", "id": 181804, "pageNo": 0, "pageCount": null, "pageSize": 10, "ids": null, "endTime": null, "startTime": null}, {"cardNumFive": null, "isSupportYj": null, "cityName": null, "districtName": null, "shopinfo": {"mid": "888002158122545", "good_flag": null, "new_flag": null, "short_name": "\u4e1c\u65b9\u65e2\u767d", "short_name_pinyin": "dongfangjibai", "status": null, "address": null, "name": null, "id": "41347"}, "mid": "888002158122545", "shopId": "41347", "netid": null, "province": 901, "district": 601, "zipcode": null, "telephone": "28906785", "posDate": null, "destineTel": null, "togoTel": null, "trafficWay": null, "signBuilding": null, "businessArea": null, "selfRoom": null, "businessTime": null, "stall": null, "consume": null, "serviceFei": null, "favourable": null, "shopMemo": null, "appraise": null, "website": null, "memo": null, "payTypes": "\u6749\u5fb7\u5361", "shopTypes": "\u9910\u996e", "consumeTypes": null, "cookTypes": null, "orderNum": 1000, "card4no": null, "card4noAcc": null, "district2": 418, "searchScope": null, "status": 1, "address": "\u82b3\u7538\u8def1201\u53f7", "name": "\u4e1c\u65b9\u65e2\u767d \u65b0\u56fd\u9645\u535a\u89c8\u4e2d\u5fc3\u5e97", "id": 181805, "pageNo": 0, "pageCount": null, "pageSize": 10, "ids": null, "endTime": null, "startTime": null}, {"cardNumFive": null, "isSupportYj": null, "cityName": null, "districtName": null, "shopinfo": {"mid": "888002158122545", "good_flag": null, "new_flag": null, "short_name": "\u4e1c\u65b9\u65e2\u767d", "short_name_pinyin": "dongfangjibai", "status": null, "address": null, "name": null, "id": "41347"}, "mid": "888002158122545", "shopId": "41347", "netid": null, "province": 901, "district": 601, "zipcode": null, "telephone": "20249037", "posDate": null, "destineTel": null, "togoTel": null, "trafficWay": null, "signBuilding": null, "businessArea": null, "selfRoom": null, "businessTime": null, "stall": null, "consume": null, "serviceFei": null, "favourable": null, "shopMemo": null, "appraise": null, "website": null, "memo": null, "payTypes": "\u6749\u5fb7\u5361", "shopTypes": "\u9910\u996e", "consumeTypes": null, "cookTypes": null, "orderNum": 1000, "card4no": null, "card4noAcc": null, "district2": 418, "searchScope": null, "status": 1, "address": "\u4e16\u7eaa\u5927\u905355\u53f71\u697c", "name": "\u4e1c\u65b9\u65e2\u767d \u5c0f\u9646\u5bb6\u5634\u5e97", "id": 181806, "pageNo": 0, "pageCount": null, "pageSize": 10, "ids": null, "endTime": null, "startTime": null}, {"cardNumFive": null, "isSupportYj": null, "cityName": null, "districtName": null, "shopinfo": {"mid": "888002158122545", "good_flag": null, "new_flag": null, "short_name": "\u4e1c\u65b9\u65e2\u767d", "short_name_pinyin": "dongfangjibai", "status": null, "address": null, "name": null, "id": "41347"}, "mid": "888002158122545", "shopId": "41347", "netid": null, "province": 901, "district": 601, "zipcode": null, "telephone": "52341351", "posDate": null, "destineTel": null, "togoTel": null, "trafficWay": null, "signBuilding": null, "businessArea": null, "selfRoom": null, "businessTime": null, "stall": null, "consume": null, "serviceFei": null, "favourable": null, "shopMemo": null, "appraise": null, "website": null, "memo": null, "payTypes": "\u6749\u5fb7\u5361", "shopTypes": "\u9910\u996e", "consumeTypes": null, "cookTypes": null, "orderNum": 1000, "card4no": null, "card4noAcc": null, "district2": 405, "searchScope": null, "status": 1, "address": "\u957f\u5bff\u8def432\u53f7", "name": "\u4e1c\u65b9\u65e2\u767d \u957f\u5bff\u8def\u5e97", "id": 181807, "pageNo": 0, "pageCount": null, "pageSize": 10, "ids": null, "endTime": null, "startTime": null}, {"cardNumFive": null, "isSupportYj": null, "cityName": null, "districtName": null, "shopinfo": {"mid": "888002158122545", "good_flag": null, "new_flag": null, "short_name": "\u4e1c\u65b9\u65e2\u767d", "short_name_pinyin": "dongfangjibai", "status": null, "address": null, "name": null, "id": "41347"}, "mid": "888002158122545", "shopId": "41347", "netid": null, "province": 901, "district": 601, "zipcode": null, "telephone": "55137025", "posDate": null, "destineTel": null, "togoTel": null, "trafficWay": null, "signBuilding": null, "businessArea": null, "selfRoom": null, "businessTime": null, "stall": null, "consume": null, "serviceFei": null, "favourable": null, "shopMemo": null, "appraise": null, "website": null, "memo": null, "payTypes": "\u6749\u5fb7\u5361", "shopTypes": "\u9910\u996e", "consumeTypes": null, "cookTypes": null, "orderNum": 1000, "card4no": null, "card4noAcc": null, "district2": 407, "searchScope": null, "status": 1, "address": "\u9ec4\u5174\u8def1618\u53f71\u697c", "name": "\u4e1c\u65b9\u65e2\u767d \u56fd\u6743\u5e97", "id": 181808, "pageNo": 0, "pageCount": null, "pageSize": 10, "ids": null, "endTime": null, "startTime": null}, {"cardNumFive": null, "isSupportYj": null, "cityName": null, "districtName": null, "shopinfo": {"mid": "888888870110065", "good_flag": "2", "new_flag": "2", "short_name": "\u4e1c\u65b9\u7eff\u821f", "short_name_pinyin": "dongfangluzhou", "status": null, "address": null, "name": null, "id": "31513"}, "mid": "888888870110065", "shopId": "31513", "netid": null, "province": 901, "district": 601, "zipcode": null, "telephone": "59233000/59233000*3083", "posDate": "20090327", "destineTel": null, "togoTel": null, "trafficWay": null, "signBuilding": null, "businessArea": null, "selfRoom": null, "businessTime": null, "stall": null, "consume": null, "serviceFei": null, "favourable": null, "shopMemo": null, "appraise": null, "website": null, "memo": null, "payTypes": "\u6749\u5fb7\u5361", "shopTypes": "\u65c5\u6e38\u5f71\u9662", "consumeTypes": null, "cookTypes": null, "orderNum": 1000, "card4no": null, "card4noAcc": null, "district2": 417, "searchScope": null, "status": 1, "address": "\u6caa\u6e05\u5e73\u516c\u8def6888\u53f7\u603b\u53f0", "name": "\u4e1c\u65b9\u7eff\u821f \u5ea6\u5047\u6751", "id": 133674, "pageNo": 0, "pageCount": null, "pageSize": 10, "ids": null, "endTime": null, "startTime": null}, {"cardNumFive": null, "isSupportYj": null, "cityName": null, "districtName": null, "shopinfo": {"mid": "888888870110066", "good_flag": "1", "new_flag": "2", "short_name": "\u4e1c\u65b9\u7eff\u821f", "short_name_pinyin": "dongfangluzhou", "status": null, "address": null, "name": null, "id": "31514"}, "mid": "888888870110066", "shopId": "31514", "netid": null, "province": 901, "district": 601, "zipcode": null, "telephone": "59233000/59233000*3083", "posDate": "20090327", "destineTel": null, "togoTel": null, "trafficWay": null, "signBuilding": null, "businessArea": null, "selfRoom": null, "businessTime": null, "stall": null, "consume": null, "serviceFei": null, "favourable": null, "shopMemo": null, "appraise": null, "website": null, "memo": null, "payTypes": "\u6749\u5fb7\u5361", "shopTypes": "\u65c5\u6e38\u5f71\u9662", "consumeTypes": null, "cookTypes": null, "orderNum": 1000, "card4no": null, "card4noAcc": null, "district2": 417, "searchScope": null, "status": 1, "address": "\u6caa\u9752\u5e73\u516c\u8def6888\u53f7\uff085\u53f7\u95e8\u8fdb\u5165\uff0c\u5728\u4e52\u4e53\u9986\u9644\u8fd1\uff09", "name": "\u4e1c\u65b9\u7eff\u821f \u6caa\u9752\u5e73\u516c\u8def", "id": 133675, "pageNo": 0, "pageCount": null, "pageSize": 10, "ids": null, "endTime": null, "startTime": null}, {"cardNumFive": null, "isSupportYj": null, "cityName": null, "districtName": null, "shopinfo": {"mid": "888888870110066", "good_flag": "1", "new_flag": "2", "short_name": "\u4e1c\u65b9\u7eff\u821f", "short_name_pinyin": "dongfangluzhou", "status": null, "address": null, "name": null, "id": "31514"}, "mid": "888888870110066", "shopId": "31514", "netid": null, "province": 901, "district": 601, "zipcode": null, "telephone": "59233000*3083", "posDate": "20090327", "destineTel": null, "togoTel": null, "trafficWay": null, "signBuilding": null, "businessArea": null, "selfRoom": null, "businessTime": null, "stall": null, "consume": null, "serviceFei": null, "favourable": null, "shopMemo": null, "appraise": null, "website": null, "memo": null, "payTypes": "\u6749\u5fb7\u5361", "shopTypes": "\u65c5\u6e38\u5f71\u9662", "consumeTypes": null, "cookTypes": null, "orderNum": 1000, "card4no": null, "card4noAcc": null, "district2": 417, "searchScope": null, "status": 1, "address": "\u6caa\u6e05\u5e73\u516c\u8def6888\u53f7\u552e\u7968\u5904", "name": "\u4e1c\u65b9\u7eff\u821f \u9752\u5c11\u5e74\u6d3b\u52a8\u57fa\u5730", "id": 133676, "pageNo": 0, "pageCount": null, "pageSize": 10, "ids": null, "endTime": null, "startTime": null}, {"cardNumFive": null, "isSupportYj": null, "cityName": null, "districtName": null, "shopinfo": {"mid": "888888873990036", "good_flag": "2", "new_flag": "2", "short_name": "\u4e1c\u65b9\u7968\u52a1", "short_name_pinyin": "dongfangpiaowu", "status": null, "address": null, "name": null, "id": "31515"}, "mid": "888888873990036", "shopId": "31515", "netid": null, "province": 901, "district": 601, "zipcode": null, "telephone": null, "posDate": null, "destineTel": null, "togoTel": null, "trafficWay": null, "signBuilding": null, "businessArea": null, "selfRoom": null, "businessTime": null, "stall": null, "consume": null, "serviceFei": null, "favourable": null, "shopMemo": null, "appraise": null, "website": null, "memo": null, "payTypes": "\u6749\u5fb7\u5361", "shopTypes": "\u5176\u4ed6", "consumeTypes": null, "cookTypes": null, "orderNum": 1000, "card4no": null, "card4noAcc": null, "district2": 403, "searchScope": null, "status": 1, "address": "\u4e0a\u6d77\u5e02\u756a\u79ba\u8def888\u53f7", "name": "\u4e1c\u65b9\u7968\u52a1 \u756a\u79ba\u8def\u5e97", "id": 198646, "pageNo": 0, "pageCount": null, "pageSize": 10, "ids": null, "endTime": null, "startTime": null}, {"cardNumFive": null, "isSupportYj": null, "cityName": null, "districtName": null, "shopinfo": {"mid": "888888873990036", "good_flag": "2", "new_flag": "2", "short_name": "\u4e1c\u65b9\u7968\u52a1", "short_name_pinyin": "dongfangpiaowu", "status": null, "address": null, "name": null, "id": "31515"}, "mid": "888888873990036", "shopId": "31515", "netid": null, "province": 901, "district": 601, "zipcode": null, "telephone": null, "posDate": null, "destineTel": null, "togoTel": null, "trafficWay": null, "signBuilding": null, "businessArea": null, "selfRoom": null, "businessTime": null, "stall": null, "consume": null, "serviceFei": null, "favourable": null, "shopMemo": null, "appraise": null, "website": null, "memo": null, "payTypes": "\u6749\u5fb7\u5361", "shopTypes": "\u5176\u4ed6", "consumeTypes": null, "cookTypes": null, "orderNum": 1000, "card4no": null, "card4noAcc": null, "district2": 410, "searchScope": null, "status": 1, "address": "\u5e73\u578b\u5173\u8def1220\u53f71\u53f7\u697c1\u5c42", "name": "\u4e1c\u65b9\u7968\u52a1 \u5e73\u578b\u5173\u8def\u5e97", "id": 198647, "pageNo": 0, "pageCount": null, "pageSize": 10, "ids": null, "endTime": null, "startTime": null}], "pageLimit": 1230, "size": 10}