{"pageCount": 1095, "count": 10942, "pageNo": 128, "subShopInfo": {"cardNumFive": "", "isSupportYj": "", "cityName": null, "districtName": null, "shopinfo": {"mid": null, "good_flag": null, "new_flag": null, "short_name": null, "short_name_pinyin": null, "status": null, "address": "", "name": "", "id": null}, "mid": null, "shopId": null, "netid": null, "province": 901, "district": null, "zipcode": null, "telephone": null, "posDate": null, "destineTel": null, "togoTel": null, "trafficWay": null, "signBuilding": null, "businessArea": null, "selfRoom": null, "businessTime": null, "stall": null, "consume": null, "serviceFei": null, "favourable": null, "shopMemo": "1", "appraise": null, "website": null, "memo": null, "payTypes": "", "shopTypes": "", "consumeTypes": null, "cookTypes": null, "orderNum": null, "card4no": null, "card4noAcc": null, "district2": null, "searchScope": null, "status": null, "address": "", "name": null, "id": null, "pageNo": 127, "pageCount": null, "pageSize": 10, "ids": null, "endTime": null, "startTime": null}, "list": [{"cardNumFive": null, "isSupportYj": null, "cityName": null, "districtName": null, "shopinfo": {"mid": "888002158130163", "good_flag": null, "new_flag": null, "short_name": "DQ", "short_name_pinyin": "DQ", "status": null, "address": null, "name": null, "id": "43890"}, "mid": "888002158130163", "shopId": "43890", "netid": null, "province": 901, "district": 601, "zipcode": null, "telephone": null, "posDate": null, "destineTel": null, "togoTel": null, "trafficWay": null, "signBuilding": null, "businessArea": null, "selfRoom": null, "businessTime": null, "stall": null, "consume": null, "serviceFei": null, "favourable": null, "shopMemo": null, "appraise": null, "website": null, "memo": null, "payTypes": "\u6749\u5fb7\u5361", "shopTypes": "\u9910\u996e", "consumeTypes": null, "cookTypes": null, "orderNum": 1000, "card4no": null, "card4noAcc": null, "district2": 418, "searchScope": null, "status": 1, "address": "\u4e16\u7eaa\u5927\u905355\u53f7\u4e16\u7eaa\u6d6e\u5ead\u8d70\u5eca2\u5c425\u5ba4.(\u8fd1\u9646\u5bb6\u5634\u5730\u94c1\u7ad92\u30013\u53f7\u51fa\u53e3)", "name": "DQ \u4e0a\u6d77\u4e1c\u65b9\u6d6e\u5ead\u5e97", "id": 202169, "pageNo": 0, "pageCount": null, "pageSize": 10, "ids": null, "endTime": null, "startTime": null}, {"cardNumFive": null, "isSupportYj": null, "cityName": null, "districtName": null, "shopinfo": {"mid": "888002158130163", "good_flag": null, "new_flag": null, "short_name": "DQ", "short_name_pinyin": "DQ", "status": null, "address": null, "name": null, "id": "43890"}, "mid": "888002158130163", "shopId": "43890", "netid": null, "province": 901, "district": 601, "zipcode": null, "telephone": null, "posDate": null, "destineTel": null, "togoTel": null, "trafficWay": null, "signBuilding": null, "businessArea": null, "selfRoom": null, "businessTime": null, "stall": null, "consume": null, "serviceFei": null, "favourable": null, "shopMemo": null, "appraise": null, "website": null, "memo": null, "payTypes": "\u6749\u5fb7\u5361", "shopTypes": "\u9910\u996e", "consumeTypes": null, "cookTypes": null, "orderNum": 1000, "card4no": null, "card4noAcc": null, "district2": 405, "searchScope": null, "status": 1, "address": "\u6b66\u5b81\u8def\u666e\u96c4\u8def\u53e3\u6211\u683c\u5e7f\u573aB1\u5c42", "name": "DQ \u4e0a\u6d77\u6211\u683c\u5e97", "id": 202170, "pageNo": 0, "pageCount": null, "pageSize": 10, "ids": null, "endTime": null, "startTime": null}, {"cardNumFive": null, "isSupportYj": null, "cityName": null, "districtName": null, "shopinfo": {"mid": "888002158130163", "good_flag": null, "new_flag": null, "short_name": "DQ", "short_name_pinyin": "DQ", "status": null, "address": null, "name": null, "id": "43890"}, "mid": "888002158130163", "shopId": "43890", "netid": null, "province": 901, "district": 601, "zipcode": null, "telephone": null, "posDate": null, "destineTel": null, "togoTel": null, "trafficWay": null, "signBuilding": null, "businessArea": null, "selfRoom": null, "businessTime": null, "stall": null, "consume": null, "serviceFei": null, "favourable": null, "shopMemo": null, "appraise": null, "website": null, "memo": null, "payTypes": "\u6749\u5fb7\u5361", "shopTypes": "\u9910\u996e", "consumeTypes": null, "cookTypes": null, "orderNum": 1000, "card4no": null, "card4noAcc": null, "district2": 405, "searchScope": null, "status": 1, "address": "\u771f\u5149\u8def1288\u53f7\u767e\u8054\u4e2d\u73af\u8d2d\u7269\u4e2d\u5fc31\u5c42", "name": "DQ \u4e0a\u6d77\u767e\u8054\u4e2d\u73af\u5e97", "id": 202171, "pageNo": 0, "pageCount": null, "pageSize": 10, "ids": null, "endTime": null, "startTime": null}, {"cardNumFive": null, "isSupportYj": null, "cityName": null, "districtName": null, "shopinfo": {"mid": "888002158130163", "good_flag": null, "new_flag": null, "short_name": "DQ", "short_name_pinyin": "DQ", "status": null, "address": null, "name": null, "id": "43890"}, "mid": "888002158130163", "shopId": "43890", "netid": null, "province": 901, "district": 601, "zipcode": null, "telephone": null, "posDate": null, "destineTel": null, "togoTel": null, "trafficWay": null, "signBuilding": null, "businessArea": null, "selfRoom": null, "businessTime": null, "stall": null, "consume": null, "serviceFei": null, "favourable": null, "shopMemo": null, "appraise": null, "website": null, "memo": null, "payTypes": "\u6749\u5fb7\u5361", "shopTypes": "\u9910\u996e", "consumeTypes": null, "cookTypes": null, "orderNum": 1000, "card4no": null, "card4noAcc": null, "district2": 413, "searchScope": null, "status": 1, "address": "\u767e\u9f50\u8def588\u53f7\u98df\u54c1\u4e00\u5e971\u5c42", "name": "DQ \u4e0a\u6d77\u5949\u8d24\u767e\u8054\u5e97", "id": 202172, "pageNo": 0, "pageCount": null, "pageSize": 10, "ids": null, "endTime": null, "startTime": null}, {"cardNumFive": null, "isSupportYj": null, "cityName": null, "districtName": null, "shopinfo": {"mid": "888002158130163", "good_flag": null, "new_flag": null, "short_name": "DQ", "short_name_pinyin": "DQ", "status": null, "address": null, "name": null, "id": "43890"}, "mid": "888002158130163", "shopId": "43890", "netid": null, "province": 901, "district": 601, "zipcode": null, "telephone": null, "posDate": null, "destineTel": null, "togoTel": null, "trafficWay": null, "signBuilding": null, "businessArea": null, "selfRoom": null, "businessTime": null, "stall": null, "consume": null, "serviceFei": null, "favourable": null, "shopMemo": null, "appraise": null, "website": null, "memo": null, "payTypes": "\u6749\u5fb7\u5361", "shopTypes": "\u9910\u996e", "consumeTypes": null, "cookTypes": null, "orderNum": 1000, "card4no": null, "card4noAcc": null, "district2": 409, "searchScope": null, "status": 1, "address": "\u9e64\u5e86\u8def900\u53f7\u78a7\u6c5f\u5e7f\u573a2\u53f7\u697c103\u5546\u94fa", "name": "DQ \u4e0a\u6d77\u8001\u95f5\u884c\u5e97", "id": 202173, "pageNo": 0, "pageCount": null, "pageSize": 10, "ids": null, "endTime": null, "startTime": null}, {"cardNumFive": null, "isSupportYj": null, "cityName": null, "districtName": null, "shopinfo": {"mid": "888002158130163", "good_flag": null, "new_flag": null, "short_name": "DQ", "short_name_pinyin": "DQ", "status": null, "address": null, "name": null, "id": "43890"}, "mid": "888002158130163", "shopId": "43890", "netid": null, "province": 901, "district": 601, "zipcode": null, "telephone": null, "posDate": null, "destineTel": null, "togoTel": null, "trafficWay": null, "signBuilding": null, "businessArea": null, "selfRoom": null, "businessTime": null, "stall": null, "consume": null, "serviceFei": null, "favourable": null, "shopMemo": null, "appraise": null, "website": null, "memo": null, "payTypes": "\u6749\u5fb7\u5361", "shopTypes": "\u9910\u996e", "consumeTypes": null, "cookTypes": null, "orderNum": 1000, "card4no": null, "card4noAcc": null, "district2": 411, "searchScope": null, "status": 1, "address": "\u5609\u5b9a\u57ce\u4e2d\u8def138\u53f7\u7f57\u5bbe\u68ee\u5e7f\u573a1\u5c42", "name": "DQ \u4e0a\u6d77\u5609\u5b9a\u7f57\u5bbe\u68ee\u5e97", "id": 202174, "pageNo": 0, "pageCount": null, "pageSize": 10, "ids": null, "endTime": null, "startTime": null}, {"cardNumFive": null, "isSupportYj": null, "cityName": null, "districtName": null, "shopinfo": {"mid": "888002158130163", "good_flag": null, "new_flag": null, "short_name": "DQ", "short_name_pinyin": "DQ", "status": null, "address": null, "name": null, "id": "43890"}, "mid": "888002158130163", "shopId": "43890", "netid": null, "province": 901, "district": 601, "zipcode": null, "telephone": null, "posDate": null, "destineTel": null, "togoTel": null, "trafficWay": null, "signBuilding": null, "businessArea": null, "selfRoom": null, "businessTime": null, "stall": null, "consume": null, "serviceFei": null, "favourable": null, "shopMemo": null, "appraise": null, "website": null, "memo": null, "payTypes": "\u6749\u5fb7\u5361", "shopTypes": "\u9910\u996e", "consumeTypes": null, "cookTypes": null, "orderNum": 1000, "card4no": null, "card4noAcc": null, "district2": 413, "searchScope": null, "status": 1, "address": "\u73af\u57ce\u4e1c\u8def610-630\u53f7\u5357\u6865\u65b0\u90fd\u6c47\u751f\u6d3b\u5e7f\u573aA102\u5ba4", "name": "DQ \u4e0a\u6d77\u5949\u8d24\u65b0\u90fd\u6c47\u5e97", "id": 202175, "pageNo": 0, "pageCount": null, "pageSize": 10, "ids": null, "endTime": null, "startTime": null}, {"cardNumFive": null, "isSupportYj": null, "cityName": null, "districtName": null, "shopinfo": {"mid": "888002158130163", "good_flag": null, "new_flag": null, "short_name": "DQ", "short_name_pinyin": "DQ", "status": null, "address": null, "name": null, "id": "43890"}, "mid": "888002158130163", "shopId": "43890", "netid": null, "province": 901, "district": 601, "zipcode": null, "telephone": null, "posDate": null, "destineTel": null, "togoTel": null, "trafficWay": null, "signBuilding": null, "businessArea": null, "selfRoom": null, "businessTime": null, "stall": null, "consume": null, "serviceFei": null, "favourable": null, "shopMemo": null, "appraise": null, "website": null, "memo": null, "payTypes": "\u6749\u5fb7\u5361", "shopTypes": "\u9910\u996e", "consumeTypes": null, "cookTypes": null, "orderNum": 1000, "card4no": null, "card4noAcc": null, "district2": 409, "searchScope": null, "status": 1, "address": "\u6caa\u95f5\u8def6088\u53f7\u51ef\u5fb7\u9f99\u4e4b\u68a6\u95f5\u884c\u5e7f\u573aB1\u5c42B1-45\u53f7", "name": "DQ \u4e0a\u6d77\u8398\u5e84\u9f99\u4e4b\u68a6\u5e97", "id": 202176, "pageNo": 0, "pageCount": null, "pageSize": 10, "ids": null, "endTime": null, "startTime": null}, {"cardNumFive": null, "isSupportYj": null, "cityName": null, "districtName": null, "shopinfo": {"mid": "888002158130163", "good_flag": null, "new_flag": null, "short_name": "DQ", "short_name_pinyin": "DQ", "status": null, "address": null, "name": null, "id": "43890"}, "mid": "888002158130163", "shopId": "43890", "netid": null, "province": 901, "district": 601, "zipcode": null, "telephone": null, "posDate": null, "destineTel": null, "togoTel": null, "trafficWay": null, "signBuilding": null, "businessArea": null, "selfRoom": null, "businessTime": null, "stall": null, "consume": null, "serviceFei": null, "favourable": null, "shopMemo": null, "appraise": null, "website": null, "memo": null, "payTypes": "\u6749\u5fb7\u5361", "shopTypes": "\u9910\u996e", "consumeTypes": null, "cookTypes": null, "orderNum": 1000, "card4no": null, "card4noAcc": null, "district2": 407, "searchScope": null, "status": 1, "address": "\u9ec4\u5174\u8def1618\u53f7\u5927\u6da6\u53d1\u8d85\u5e021\u5c4228\u53f7\u67dc", "name": "DQ \u4e0a\u6d77\u9ec4\u5174\u5e97", "id": 202177, "pageNo": 0, "pageCount": null, "pageSize": 10, "ids": null, "endTime": null, "startTime": null}, {"cardNumFive": null, "isSupportYj": null, "cityName": null, "districtName": null, "shopinfo": {"mid": "888002158130163", "good_flag": null, "new_flag": null, "short_name": "DQ", "short_name_pinyin": "DQ", "status": null, "address": null, "name": null, "id": "43890"}, "mid": "888002158130163", "shopId": "43890", "netid": null, "province": 901, "district": 601, "zipcode": null, "telephone": null, "posDate": null, "destineTel": null, "togoTel": null, "trafficWay": null, "signBuilding": null, "businessArea": null, "selfRoom": null, "businessTime": null, "stall": null, "consume": null, "serviceFei": null, "favourable": null, "shopMemo": null, "appraise": null, "website": null, "memo": null, "payTypes": "\u6749\u5fb7\u5361", "shopTypes": "\u9910\u996e", "consumeTypes": null, "cookTypes": null, "orderNum": 1000, "card4no": null, "card4noAcc": null, "district2": 412, "searchScope": null, "status": 1, "address": "\u5e7f\u5bcc\u6797\u8def658\u5f04668\u53f7 \u4e07\u8fbe\u8d2d\u7269\u5546\u573a3\u5c423027\u5546\u94fa\u53f7", "name": "DQ \u4e0a\u6d77\u677e\u6c5f\u4e07\u8fbe\u5e97", "id": 202178, "pageNo": 0, "pageCount": null, "pageSize": 10, "ids": null, "endTime": null, "startTime": null}], "pageLimit": 1270, "size": 10}