{"pageCount": 1095, "count": 10942, "pageNo": 126, "subShopInfo": {"cardNumFive": "", "isSupportYj": "", "cityName": null, "districtName": null, "shopinfo": {"mid": null, "good_flag": null, "new_flag": null, "short_name": null, "short_name_pinyin": null, "status": null, "address": "", "name": "", "id": null}, "mid": null, "shopId": null, "netid": null, "province": 901, "district": null, "zipcode": null, "telephone": null, "posDate": null, "destineTel": null, "togoTel": null, "trafficWay": null, "signBuilding": null, "businessArea": null, "selfRoom": null, "businessTime": null, "stall": null, "consume": null, "serviceFei": null, "favourable": null, "shopMemo": "1", "appraise": null, "website": null, "memo": null, "payTypes": "", "shopTypes": "", "consumeTypes": null, "cookTypes": null, "orderNum": null, "card4no": null, "card4noAcc": null, "district2": null, "searchScope": null, "status": null, "address": "", "name": null, "id": null, "pageNo": 125, "pageCount": null, "pageSize": 10, "ids": null, "endTime": null, "startTime": null}, "list": [{"cardNumFive": null, "isSupportYj": null, "cityName": null, "districtName": null, "shopinfo": {"mid": "888888856410011", "good_flag": "2", "new_flag": "2", "short_name": "\u8c46\u8c46\u6696\u623f\u5987\u5a74\u7528\u54c1", "short_name_pinyin": "doudounuanfangfuyingyongpin", "status": null, "address": null, "name": null, "id": "31545"}, "mid": "888888856410011", "shopId": "31545", "netid": null, "province": 901, "district": 601, "zipcode": null, "telephone": "58656618", "posDate": "20080612", "destineTel": null, "togoTel": null, "trafficWay": "\u516c\u4ea4783 \u6cf0\u9ad8\u7ebf", "signBuilding": null, "businessArea": null, "selfRoom": null, "businessTime": null, "stall": null, "consume": null, "serviceFei": null, "favourable": null, "shopMemo": null, "appraise": null, "website": null, "memo": null, "payTypes": "\u6749\u5fb7\u5361", "shopTypes": "\u4e13\u5356", "consumeTypes": null, "cookTypes": null, "orderNum": 1000, "card4no": null, "card4noAcc": null, "district2": 418, "searchScope": null, "status": 1, "address": "\u91d1\u9ad8\u8def1038\u53f7", "name": "\u8c46\u8c46\u6696\u623f\u5987\u5a74\u7528\u54c1 \u81f3\u7231\u5929\u4f7f\u5e97", "id": 133759, "pageNo": 0, "pageCount": null, "pageSize": 10, "ids": null, "endTime": null, "startTime": null}, {"cardNumFive": null, "isSupportYj": null, "cityName": null, "districtName": null, "shopinfo": {"mid": "888888858120101", "good_flag": "2", "new_flag": "2", "short_name": "\u8c46\u635e\u574a", "short_name_pinyin": "doulaofang", "status": null, "address": null, "name": null, "id": "31546"}, "mid": "888888858120101", "shopId": "31546", "netid": null, "province": 901, "district": 601, "zipcode": "200062", "telephone": "62116277", "posDate": "20070130", "destineTel": "62111077", "togoTel": "62111077", "trafficWay": "\u5730\u94c1\u56db\u53f7\u7ebf 73", "signBuilding": "\u9f99\u4e4b\u68a6\u8d2d\u7269\u4e2d\u5fc3", "businessArea": null, "selfRoom": "\u65e0", "businessTime": "11:00~14:00 17:00~21:30 21:30~02:00", "stall": "\u65e0", "consume": null, "serviceFei": null, "favourable": null, "shopMemo": null, "appraise": null, "website": null, "memo": null, "payTypes": "\u6749\u5fb7\u5361", "shopTypes": "\u9910\u996e", "consumeTypes": "\u597d\u53cb\u5c0f\u805a,\u6d6a\u6f2b\u7ea6\u4f1a,\u4f11\u95f2\u5c31\u9910", "cookTypes": "\u706b\u9505", "orderNum": 1000, "card4no": null, "card4noAcc": null, "district2": 406, "searchScope": null, "status": 1, "address": "\u957f\u5b81\u8def1018\u53f7\u9f99\u4e4b\u68a6\u8d2d\u7269\u4e2d\u5fc38\u697c", "name": "\u8c46\u635e\u574a \u957f\u5b81\u5e97", "id": 133760, "pageNo": 0, "pageCount": null, "pageSize": 10, "ids": null, "endTime": null, "startTime": null}, {"cardNumFive": null, "isSupportYj": null, "cityName": null, "districtName": null, "shopinfo": {"mid": "888002158122058", "good_flag": "2", "new_flag": "2", "short_name": "\u8c46\u635e\u574a", "short_name_pinyin": "doulaofang", "status": null, "address": null, "name": null, "id": "31548"}, "mid": "888002158122058", "shopId": "31548", "netid": null, "province": 901, "district": 601, "zipcode": null, "telephone": null, "posDate": "20100223", "destineTel": null, "togoTel": null, "trafficWay": null, "signBuilding": null, "businessArea": null, "selfRoom": null, "businessTime": null, "stall": null, "consume": null, "serviceFei": null, "favourable": null, "shopMemo": null, "appraise": null, "website": null, "memo": "\u6301\u6749\u5fb7\u5361\u6d88\u8d39\u4e0d\u4eab\u53d7\u8be5\u5546\u6237\u5176\u4ed6\u4f18\u60e0\u653f\u7b56", "payTypes": "\u6749\u5fb7\u5361", "shopTypes": "\u9910\u996e", "consumeTypes": null, "cookTypes": null, "orderNum": 1000, "card4no": null, "card4noAcc": null, "district2": 401, "searchScope": null, "status": 1, "address": "\u5357\u4eac\u4e1c\u8def819\u53f78\u697c", "name": "\u8c46\u635e\u574a \u5357\u4eac\u4e1c\u8def\u5e97", "id": 133765, "pageNo": 0, "pageCount": null, "pageSize": 10, "ids": null, "endTime": null, "startTime": null}, {"cardNumFive": null, "isSupportYj": null, "cityName": null, "districtName": null, "shopinfo": {"mid": "888002158122060", "good_flag": "2", "new_flag": "2", "short_name": "\u8c46\u635e\u574a", "short_name_pinyin": "doulaofang", "status": null, "address": null, "name": null, "id": "31547"}, "mid": "888002158122060", "shopId": "31547", "netid": null, "province": 901, "district": 601, "zipcode": null, "telephone": "20233477", "posDate": "20100712", "destineTel": null, "togoTel": null, "trafficWay": null, "signBuilding": null, "businessArea": null, "selfRoom": null, "businessTime": null, "stall": null, "consume": null, "serviceFei": null, "favourable": null, "shopMemo": null, "appraise": null, "website": null, "memo": null, "payTypes": "\u6749\u5fb7\u5361", "shopTypes": "\u9910\u996e", "consumeTypes": null, "cookTypes": null, "orderNum": 1000, "card4no": null, "card4noAcc": null, "district2": 418, "searchScope": null, "status": 1, "address": "\u6d66\u4e1c\u5f20\u6768\u8def3611\u5f043\u53f7306\u5ba4", "name": "\u8c46\u635e\u574a \u5f20\u626c\u8def\u5e97", "id": 133771, "pageNo": 0, "pageCount": null, "pageSize": 10, "ids": null, "endTime": null, "startTime": null}, {"cardNumFive": null, "isSupportYj": null, "cityName": null, "districtName": null, "shopinfo": {"mid": "888002158122386", "good_flag": null, "new_flag": null, "short_name": "\u6597\u9999\u56ed", "short_name_pinyin": "douxiangyuan", "status": null, "address": null, "name": null, "id": "39765"}, "mid": "888002158122386", "shopId": "39765", "netid": null, "province": 901, "district": 601, "zipcode": null, "telephone": null, "posDate": null, "destineTel": null, "togoTel": null, "trafficWay": null, "signBuilding": null, "businessArea": null, "selfRoom": null, "businessTime": null, "stall": null, "consume": null, "serviceFei": null, "favourable": null, "shopMemo": null, "appraise": null, "website": null, "memo": null, "payTypes": "\u6749\u5fb7\u5361", "shopTypes": "\u9910\u996e", "consumeTypes": null, "cookTypes": null, "orderNum": 1000, "card4no": null, "card4noAcc": null, "district2": 418, "searchScope": null, "status": 1, "address": "\u91d1\u6865\u84dd\u5929\u8def518\u53f7", "name": "\u6597\u9999\u56ed \u91d1\u6865\u5e97", "id": 171329, "pageNo": 0, "pageCount": null, "pageSize": 10, "ids": null, "endTime": null, "startTime": null}, {"cardNumFive": null, "isSupportYj": null, "cityName": null, "districtName": null, "shopinfo": {"mid": "888002158122386", "good_flag": null, "new_flag": null, "short_name": "\u6597\u9999\u56ed", "short_name_pinyin": "douxiangyuan", "status": null, "address": null, "name": null, "id": "39765"}, "mid": "888002158122386", "shopId": "39765", "netid": null, "province": 901, "district": 601, "zipcode": null, "telephone": null, "posDate": null, "destineTel": null, "togoTel": null, "trafficWay": null, "signBuilding": null, "businessArea": null, "selfRoom": null, "businessTime": null, "stall": null, "consume": null, "serviceFei": null, "favourable": null, "shopMemo": null, "appraise": null, "website": null, "memo": null, "payTypes": "\u6749\u5fb7\u5361", "shopTypes": "\u9910\u996e", "consumeTypes": null, "cookTypes": null, "orderNum": 1000, "card4no": null, "card4noAcc": null, "district2": 404, "searchScope": null, "status": 1, "address": "\u5357\u4eac\u897f\u8def1601\u53f7\u5730\u4e0b2\u697c", "name": "\u6597\u9999\u56ed \u8d8a\u6d0b\u5e97", "id": 171332, "pageNo": 0, "pageCount": null, "pageSize": 10, "ids": null, "endTime": null, "startTime": null}, {"cardNumFive": null, "isSupportYj": null, "cityName": null, "districtName": null, "shopinfo": {"mid": "888002158122386", "good_flag": null, "new_flag": null, "short_name": "\u6597\u9999\u56ed", "short_name_pinyin": "douxiangyuan", "status": null, "address": null, "name": null, "id": "39765"}, "mid": "888002158122386", "shopId": "39765", "netid": null, "province": 901, "district": 601, "zipcode": null, "telephone": null, "posDate": null, "destineTel": null, "togoTel": null, "trafficWay": null, "signBuilding": null, "businessArea": null, "selfRoom": null, "businessTime": null, "stall": null, "consume": null, "serviceFei": null, "favourable": null, "shopMemo": null, "appraise": null, "website": null, "memo": null, "payTypes": "\u6749\u5fb7\u5361", "shopTypes": "\u9910\u996e", "consumeTypes": null, "cookTypes": null, "orderNum": 1000, "card4no": null, "card4noAcc": null, "district2": 404, "searchScope": null, "status": 1, "address": "\u4e07\u822a\u6e21\u8def889\u53f7\u5730\u4e0b1\u697c", "name": "\u6597\u9999\u56ed \u4e07\u822a\u6e21\u8def\u5e97", "id": 171338, "pageNo": 0, "pageCount": null, "pageSize": 10, "ids": null, "endTime": null, "startTime": null}, {"cardNumFive": null, "isSupportYj": null, "cityName": null, "districtName": null, "shopinfo": {"mid": "888002158122386", "good_flag": null, "new_flag": null, "short_name": "\u6597\u9999\u56ed", "short_name_pinyin": "douxiangyuan", "status": null, "address": null, "name": null, "id": "39765"}, "mid": "888002158122386", "shopId": "39765", "netid": null, "province": 901, "district": 601, "zipcode": null, "telephone": null, "posDate": null, "destineTel": null, "togoTel": null, "trafficWay": null, "signBuilding": null, "businessArea": null, "selfRoom": null, "businessTime": null, "stall": null, "consume": null, "serviceFei": null, "favourable": null, "shopMemo": null, "appraise": null, "website": null, "memo": null, "payTypes": "\u6749\u5fb7\u5361", "shopTypes": "\u9910\u996e", "consumeTypes": null, "cookTypes": null, "orderNum": 1000, "card4no": null, "card4noAcc": null, "district2": 416, "searchScope": null, "status": 1, "address": "\u4e00\u4e8c\u516b\u7eaa\u5ff5\u8def988\u5f041\u53f74\u697c", "name": "\u6597\u9999\u56ed \u5b9d\u5c71\u4e07\u8fbe\u5e97", "id": 171339, "pageNo": 0, "pageCount": null, "pageSize": 10, "ids": null, "endTime": null, "startTime": null}, {"cardNumFive": null, "isSupportYj": null, "cityName": null, "districtName": null, "shopinfo": {"mid": "888002158130163", "good_flag": null, "new_flag": null, "short_name": "DQ", "short_name_pinyin": "DQ", "status": null, "address": null, "name": null, "id": "43890"}, "mid": "888002158130163", "shopId": "43890", "netid": null, "province": 901, "district": 601, "zipcode": null, "telephone": null, "posDate": null, "destineTel": null, "togoTel": null, "trafficWay": null, "signBuilding": null, "businessArea": null, "selfRoom": null, "businessTime": null, "stall": null, "consume": null, "serviceFei": null, "favourable": null, "shopMemo": null, "appraise": null, "website": null, "memo": null, "payTypes": "\u6749\u5fb7\u5361", "shopTypes": "\u9910\u996e", "consumeTypes": null, "cookTypes": null, "orderNum": 1000, "card4no": null, "card4noAcc": null, "district2": 412, "searchScope": null, "status": 1, "address": "\u4e2d\u5c71\u4e2d\u8def568\u53f7B\u5ea7\u4e50\u9882\u574a102B\u94fa\u4f4d", "name": "DQ \u4e0a\u6d77\u677e\u6c5f\u5e73\u9ad8\u56fd\u9645\u5e97", "id": 202155, "pageNo": 0, "pageCount": null, "pageSize": 10, "ids": null, "endTime": null, "startTime": null}, {"cardNumFive": null, "isSupportYj": null, "cityName": null, "districtName": null, "shopinfo": {"mid": "888002158130163", "good_flag": null, "new_flag": null, "short_name": "DQ", "short_name_pinyin": "DQ", "status": null, "address": null, "name": null, "id": "43890"}, "mid": "888002158130163", "shopId": "43890", "netid": null, "province": 901, "district": 601, "zipcode": null, "telephone": null, "posDate": null, "destineTel": null, "togoTel": null, "trafficWay": null, "signBuilding": null, "businessArea": null, "selfRoom": null, "businessTime": null, "stall": null, "consume": null, "serviceFei": null, "favourable": null, "shopMemo": null, "appraise": null, "website": null, "memo": null, "payTypes": "\u6749\u5fb7\u5361", "shopTypes": "\u9910\u996e", "consumeTypes": null, "cookTypes": null, "orderNum": 1000, "card4no": null, "card4noAcc": null, "district2": 418, "searchScope": null, "status": 1, "address": "\u9646\u5bb6\u5634\u897f\u8def168\u53f7\u6b63\u5927\u5e7f\u573a8\u5c4208B-09", "name": "DQ \u4e0a\u6d77\u6b63\u5927\u5e97", "id": 202156, "pageNo": 0, "pageCount": null, "pageSize": 10, "ids": null, "endTime": null, "startTime": null}], "pageLimit": 1250, "size": 10}