{"pageCount": 1095, "count": 10942, "pageNo": 123, "subShopInfo": {"cardNumFive": "", "isSupportYj": "", "cityName": null, "districtName": null, "shopinfo": {"mid": null, "good_flag": null, "new_flag": null, "short_name": null, "short_name_pinyin": null, "status": null, "address": "", "name": "", "id": null}, "mid": null, "shopId": null, "netid": null, "province": 901, "district": null, "zipcode": null, "telephone": null, "posDate": null, "destineTel": null, "togoTel": null, "trafficWay": null, "signBuilding": null, "businessArea": null, "selfRoom": null, "businessTime": null, "stall": null, "consume": null, "serviceFei": null, "favourable": null, "shopMemo": "1", "appraise": null, "website": null, "memo": null, "payTypes": "", "shopTypes": "", "consumeTypes": null, "cookTypes": null, "orderNum": null, "card4no": null, "card4noAcc": null, "district2": null, "searchScope": null, "status": null, "address": "", "name": null, "id": null, "pageNo": 122, "pageCount": null, "pageSize": 10, "ids": null, "endTime": null, "startTime": null}, "list": [{"cardNumFive": null, "isSupportYj": null, "cityName": null, "districtName": null, "shopinfo": {"mid": "888002173890003", "good_flag": null, "new_flag": null, "short_name": "\u4e1c\u65b9cj", "short_name_pinyin": "dongfangcj", "status": null, "address": null, "name": null, "id": "35658"}, "mid": "888002173890003", "shopId": "35658", "netid": null, "province": 901, "district": 601, "zipcode": null, "telephone": null, "posDate": "20100722", "destineTel": null, "togoTel": null, "trafficWay": null, "signBuilding": null, "businessArea": null, "selfRoom": null, "businessTime": null, "stall": null, "consume": null, "serviceFei": null, "favourable": null, "shopMemo": null, "appraise": null, "website": null, "memo": "\u5f00\u901a\u65f6\u95f4\u5f85\u5b9a\uff0c\u656c\u8bf7\u671f\u5f85", "payTypes": "\u6749\u5fb7\u5361", "shopTypes": "\u7f51\u4e0a\u8d2d\u7269", "consumeTypes": null, "cookTypes": null, "orderNum": 1000, "card4no": null, "card4noAcc": null, "district2": 407, "searchScope": null, "status": 1, "address": "\u56fd\u5b9a\u8def400\u53f7", "name": "\u4e1c\u65b9cj \u56fd\u5b9a\u8def\u5e97", "id": 149160, "pageNo": 0, "pageCount": null, "pageSize": 10, "ids": null, "endTime": null, "startTime": null}, {"cardNumFive": null, "isSupportYj": null, "cityName": null, "districtName": null, "shopinfo": {"mid": "888002158122545", "good_flag": null, "new_flag": null, "short_name": "\u4e1c\u65b9\u65e2\u767d", "short_name_pinyin": "dongfangjibai", "status": null, "address": null, "name": null, "id": "41347"}, "mid": "888002158122545", "shopId": "41347", "netid": null, "province": 901, "district": 601, "zipcode": null, "telephone": "65112030", "posDate": null, "destineTel": null, "togoTel": null, "trafficWay": null, "signBuilding": null, "businessArea": null, "selfRoom": null, "businessTime": null, "stall": null, "consume": null, "serviceFei": null, "favourable": null, "shopMemo": null, "appraise": null, "website": null, "memo": null, "payTypes": "\u6749\u5fb7\u5361", "shopTypes": "\u9910\u996e", "consumeTypes": null, "cookTypes": null, "orderNum": 1000, "card4no": null, "card4noAcc": null, "district2": 407, "searchScope": null, "status": 1, "address": "\u6dde\u6caa\u8def77\u53f7\u5730\u4e0b1\u697c", "name": "\u4e1c\u65b9\u65e2\u767d \u4e07\u8fbe\u5e97", "id": 181794, "pageNo": 0, "pageCount": null, "pageSize": 10, "ids": null, "endTime": null, "startTime": null}, {"cardNumFive": null, "isSupportYj": null, "cityName": null, "districtName": null, "shopinfo": {"mid": "888002158122545", "good_flag": null, "new_flag": null, "short_name": "\u4e1c\u65b9\u65e2\u767d", "short_name_pinyin": "dongfangjibai", "status": null, "address": null, "name": null, "id": "41347"}, "mid": "888002158122545", "shopId": "41347", "netid": null, "province": 901, "district": 601, "zipcode": null, "telephone": "50276811", "posDate": null, "destineTel": null, "togoTel": null, "trafficWay": null, "signBuilding": null, "businessArea": null, "selfRoom": null, "businessTime": null, "stall": null, "consume": null, "serviceFei": null, "favourable": null, "shopMemo": null, "appraise": null, "website": null, "memo": null, "payTypes": "\u6749\u5fb7\u5361", "shopTypes": "\u9910\u996e", "consumeTypes": null, "cookTypes": null, "orderNum": 1000, "card4no": null, "card4noAcc": null, "district2": 418, "searchScope": null, "status": 1, "address": "\u78a7\u6ce2\u8def635\u53f7", "name": "\u4e1c\u65b9\u65e2\u767d \u9ad8\u79d1\u5e97", "id": 181795, "pageNo": 0, "pageCount": null, "pageSize": 10, "ids": null, "endTime": null, "startTime": null}, {"cardNumFive": null, "isSupportYj": null, "cityName": null, "districtName": null, "shopinfo": {"mid": "888002158122545", "good_flag": null, "new_flag": null, "short_name": "\u4e1c\u65b9\u65e2\u767d", "short_name_pinyin": "dongfangjibai", "status": null, "address": null, "name": null, "id": "41347"}, "mid": "888002158122545", "shopId": "41347", "netid": null, "province": 901, "district": 601, "zipcode": null, "telephone": "33873785", "posDate": null, "destineTel": null, "togoTel": null, "trafficWay": null, "signBuilding": null, "businessArea": null, "selfRoom": null, "businessTime": null, "stall": null, "consume": null, "serviceFei": null, "favourable": null, "shopMemo": null, "appraise": null, "website": null, "memo": null, "payTypes": "\u6749\u5fb7\u5361", "shopTypes": "\u9910\u996e", "consumeTypes": null, "cookTypes": null, "orderNum": 1000, "card4no": null, "card4noAcc": null, "district2": 416, "searchScope": null, "status": 1, "address": "\u957f\u6c5f\u897f\u8def2211\u53f7", "name": "\u4e1c\u65b9\u65e2\u767d \u5b9d\u5bb8\u5e97", "id": 181796, "pageNo": 0, "pageCount": null, "pageSize": 10, "ids": null, "endTime": null, "startTime": null}, {"cardNumFive": null, "isSupportYj": null, "cityName": null, "districtName": null, "shopinfo": {"mid": "888002158122545", "good_flag": null, "new_flag": null, "short_name": "\u4e1c\u65b9\u65e2\u767d", "short_name_pinyin": "dongfangjibai", "status": null, "address": null, "name": null, "id": "41347"}, "mid": "888002158122545", "shopId": "41347", "netid": null, "province": 901, "district": 601, "zipcode": null, "telephone": "63275933", "posDate": null, "destineTel": null, "togoTel": null, "trafficWay": null, "signBuilding": null, "businessArea": null, "selfRoom": null, "businessTime": null, "stall": null, "consume": null, "serviceFei": null, "favourable": null, "shopMemo": null, "appraise": null, "website": null, "memo": null, "payTypes": "\u6749\u5fb7\u5361", "shopTypes": "\u9910\u996e", "consumeTypes": null, "cookTypes": null, "orderNum": 1000, "card4no": null, "card4noAcc": null, "district2": 401, "searchScope": null, "status": 1, "address": "\u5357\u4eac\u897f\u8def190-208\u53f71\u697c", "name": "\u4e1c\u65b9\u65e2\u767d \u4eba\u6c11\u516c\u56ed\u5e97", "id": 181797, "pageNo": 0, "pageCount": null, "pageSize": 10, "ids": null, "endTime": null, "startTime": null}, {"cardNumFive": null, "isSupportYj": null, "cityName": null, "districtName": null, "shopinfo": {"mid": "888002158122545", "good_flag": null, "new_flag": null, "short_name": "\u4e1c\u65b9\u65e2\u767d", "short_name_pinyin": "dongfangjibai", "status": null, "address": null, "name": null, "id": "41347"}, "mid": "888002158122545", "shopId": "41347", "netid": null, "province": 901, "district": 601, "zipcode": null, "telephone": "68356091", "posDate": null, "destineTel": null, "togoTel": null, "trafficWay": null, "signBuilding": null, "businessArea": null, "selfRoom": null, "businessTime": null, "stall": null, "consume": null, "serviceFei": null, "favourable": null, "shopMemo": null, "appraise": null, "website": null, "memo": null, "payTypes": "\u6749\u5fb7\u5361", "shopTypes": "\u9910\u996e", "consumeTypes": null, "cookTypes": null, "orderNum": 1000, "card4no": null, "card4noAcc": null, "district2": 418, "searchScope": null, "status": 1, "address": "\u6d66\u4e1c\u56fd\u9645\u673a\u573a\u78c1\u60ac\u6d6e\u7ad92\u697cA05-\u7532", "name": "\u4e1c\u65b9\u65e2\u767d \u6d66\u4e1c\u673a\u573a\u5e97", "id": 181798, "pageNo": 0, "pageCount": null, "pageSize": 10, "ids": null, "endTime": null, "startTime": null}, {"cardNumFive": null, "isSupportYj": null, "cityName": null, "districtName": null, "shopinfo": {"mid": "888002158122545", "good_flag": null, "new_flag": null, "short_name": "\u4e1c\u65b9\u65e2\u767d", "short_name_pinyin": "dongfangjibai", "status": null, "address": null, "name": null, "id": "41347"}, "mid": "888002158122545", "shopId": "41347", "netid": null, "province": 901, "district": 601, "zipcode": null, "telephone": "67657082", "posDate": null, "destineTel": null, "togoTel": null, "trafficWay": null, "signBuilding": null, "businessArea": null, "selfRoom": null, "businessTime": null, "stall": null, "consume": null, "serviceFei": null, "favourable": null, "shopMemo": null, "appraise": null, "website": null, "memo": null, "payTypes": "\u6749\u5fb7\u5361", "shopTypes": "\u9910\u996e", "consumeTypes": null, "cookTypes": null, "orderNum": 1000, "card4no": null, "card4noAcc": null, "district2": 412, "searchScope": null, "status": 1, "address": "\u6797\u6e56\u8def888\u53f7\u6b22\u4e50\u8c37\u9633\u5149\u6e2f10\u53f7", "name": "\u4e1c\u65b9\u65e2\u767d \u6b22\u4e50\u8c37\u5e97", "id": 181800, "pageNo": 0, "pageCount": null, "pageSize": 10, "ids": null, "endTime": null, "startTime": null}, {"cardNumFive": null, "isSupportYj": null, "cityName": null, "districtName": null, "shopinfo": {"mid": "888002158122545", "good_flag": null, "new_flag": null, "short_name": "\u4e1c\u65b9\u65e2\u767d", "short_name_pinyin": "dongfangjibai", "status": null, "address": null, "name": null, "id": "41347"}, "mid": "888002158122545", "shopId": "41347", "netid": null, "province": 901, "district": 601, "zipcode": null, "telephone": "54190265", "posDate": null, "destineTel": null, "togoTel": null, "trafficWay": null, "signBuilding": null, "businessArea": null, "selfRoom": null, "businessTime": null, "stall": null, "consume": null, "serviceFei": null, "favourable": null, "shopMemo": null, "appraise": null, "website": null, "memo": null, "payTypes": "\u6749\u5fb7\u5361", "shopTypes": "\u9910\u996e", "consumeTypes": null, "cookTypes": null, "orderNum": 1000, "card4no": null, "card4noAcc": null, "district2": 409, "searchScope": null, "status": 1, "address": "\u6caa\u95f5\u8def9001-3\u53f7", "name": "\u4e1c\u65b9\u65e2\u767d \u94f6\u6cf0\u5e97", "id": 181801, "pageNo": 0, "pageCount": null, "pageSize": 10, "ids": null, "endTime": null, "startTime": null}, {"cardNumFive": null, "isSupportYj": null, "cityName": null, "districtName": null, "shopinfo": {"mid": "888002158122545", "good_flag": null, "new_flag": null, "short_name": "\u4e1c\u65b9\u65e2\u767d", "short_name_pinyin": "dongfangjibai", "status": null, "address": null, "name": null, "id": "41347"}, "mid": "888002158122545", "shopId": "41347", "netid": null, "province": 901, "district": 601, "zipcode": null, "telephone": "32529206", "posDate": null, "destineTel": null, "togoTel": null, "trafficWay": null, "signBuilding": null, "businessArea": null, "selfRoom": null, "businessTime": null, "stall": null, "consume": null, "serviceFei": null, "favourable": null, "shopMemo": null, "appraise": null, "website": null, "memo": null, "payTypes": "\u6749\u5fb7\u5361", "shopTypes": "\u9910\u996e", "consumeTypes": null, "cookTypes": null, "orderNum": 1000, "card4no": null, "card4noAcc": null, "district2": 405, "searchScope": null, "status": 1, "address": "\u4e2d\u5c71\u5317\u8def1855\u53f71\u697c", "name": "\u4e1c\u65b9\u65e2\u767d \u5149\u65b0\u4e50\u8d2d\u5e97", "id": 181802, "pageNo": 0, "pageCount": null, "pageSize": 10, "ids": null, "endTime": null, "startTime": null}, {"cardNumFive": null, "isSupportYj": null, "cityName": null, "districtName": null, "shopinfo": {"mid": "888002158122545", "good_flag": null, "new_flag": null, "short_name": "\u4e1c\u65b9\u65e2\u767d", "short_name_pinyin": "dongfangjibai", "status": null, "address": null, "name": null, "id": "41347"}, "mid": "888002158122545", "shopId": "41347", "netid": null, "province": 901, "district": 601, "zipcode": null, "telephone": "51511065", "posDate": null, "destineTel": null, "togoTel": null, "trafficWay": null, "signBuilding": null, "businessArea": null, "selfRoom": null, "businessTime": null, "stall": null, "consume": null, "serviceFei": null, "favourable": null, "shopMemo": null, "appraise": null, "website": null, "memo": null, "payTypes": "\u6749\u5fb7\u5361", "shopTypes": "\u9910\u996e", "consumeTypes": null, "cookTypes": null, "orderNum": 1000, "card4no": null, "card4noAcc": null, "district2": 406, "searchScope": null, "status": 1, "address": "\u7533\u6606\u8def1500\u53f7", "name": "\u4e1c\u65b9\u65e2\u767d \u8679\u6865\u706b\u8f66\u7ad9\u5e97", "id": 181803, "pageNo": 0, "pageCount": null, "pageSize": 10, "ids": null, "endTime": null, "startTime": null}], "pageLimit": 1220, "size": 10}