{"pageCount": 1095, "count": 10942, "pageNo": 121, "subShopInfo": {"cardNumFive": "", "isSupportYj": "", "cityName": null, "districtName": null, "shopinfo": {"mid": null, "good_flag": null, "new_flag": null, "short_name": null, "short_name_pinyin": null, "status": null, "address": "", "name": "", "id": null}, "mid": null, "shopId": null, "netid": null, "province": 901, "district": null, "zipcode": null, "telephone": null, "posDate": null, "destineTel": null, "togoTel": null, "trafficWay": null, "signBuilding": null, "businessArea": null, "selfRoom": null, "businessTime": null, "stall": null, "consume": null, "serviceFei": null, "favourable": null, "shopMemo": "1", "appraise": null, "website": null, "memo": null, "payTypes": "", "shopTypes": "", "consumeTypes": null, "cookTypes": null, "orderNum": null, "card4no": null, "card4noAcc": null, "district2": null, "searchScope": null, "status": null, "address": "", "name": null, "id": null, "pageNo": 120, "pageCount": null, "pageSize": 10, "ids": null, "endTime": null, "startTime": null}, "list": [{"cardNumFive": null, "isSupportYj": null, "cityName": null, "districtName": null, "shopinfo": {"mid": "888888848120012", "good_flag": "2", "new_flag": "1", "short_name": "\u8fea\u4fe1\u901a", "short_name_pinyin": "dixintong", "status": null, "address": null, "name": null, "id": "31451"}, "mid": "888888848120012", "shopId": "31451", "netid": null, "province": 901, "district": 601, "zipcode": null, "telephone": "67117851", "posDate": "20071213", "destineTel": null, "togoTel": null, "trafficWay": "\u83b2\u5e84\u7ebf \u6caa\u661f\u7ebf", "signBuilding": null, "businessArea": null, "selfRoom": null, "businessTime": "9:00~21:00", "stall": null, "consume": null, "serviceFei": null, "favourable": null, "shopMemo": null, "appraise": null, "website": null, "memo": null, "payTypes": "\u6749\u5fb7\u5361", "shopTypes": "\u96f6\u552e,\u4e13\u5356", "consumeTypes": null, "cookTypes": null, "orderNum": 1000, "card4no": null, "card4noAcc": null, "district2": 413, "searchScope": null, "status": 1, "address": "\u5357\u6865\u4eba\u6c11\u4e2d\u8def333\u53f7\u4e8c\u697c", "name": "\u8fea\u4fe1\u901a \u4eba\u6c11\u5e97", "id": 133408, "pageNo": 0, "pageCount": null, "pageSize": 10, "ids": null, "endTime": null, "startTime": null}, {"cardNumFive": null, "isSupportYj": null, "cityName": null, "districtName": null, "shopinfo": {"mid": "888888848120012", "good_flag": "2", "new_flag": "1", "short_name": "\u8fea\u4fe1\u901a", "short_name_pinyin": "dixintong", "status": null, "address": null, "name": null, "id": "31451"}, "mid": "888888848120012", "shopId": "31451", "netid": null, "province": 901, "district": 601, "zipcode": null, "telephone": "57231588", "posDate": "20071213", "destineTel": null, "togoTel": null, "trafficWay": null, "signBuilding": null, "businessArea": null, "selfRoom": null, "businessTime": "9:00~21:00", "stall": null, "consume": null, "serviceFei": null, "favourable": null, "shopMemo": null, "appraise": null, "website": null, "memo": null, "payTypes": "\u6749\u5fb7\u5361", "shopTypes": "\u96f6\u552e,\u4e13\u5356", "consumeTypes": null, "cookTypes": null, "orderNum": 1000, "card4no": null, "card4noAcc": null, "district2": 414, "searchScope": null, "status": 1, "address": "\u4ead\u6797\u9547\u534e\u4ead\u8def5-9\u53f7", "name": "\u8fea\u4fe1\u901a \u4ead\u6797\u5e97", "id": 133414, "pageNo": 0, "pageCount": null, "pageSize": 10, "ids": null, "endTime": null, "startTime": null}, {"cardNumFive": null, "isSupportYj": null, "cityName": null, "districtName": null, "shopinfo": {"mid": "888888848120012", "good_flag": "2", "new_flag": "1", "short_name": "\u8fea\u4fe1\u901a", "short_name_pinyin": "dixintong", "status": null, "address": null, "name": null, "id": "31451"}, "mid": "888888848120012", "shopId": "31451", "netid": null, "province": 901, "district": 601, "zipcode": null, "telephone": "51107073", "posDate": "20080214", "destineTel": null, "togoTel": null, "trafficWay": "\u6caa\u77f3\u7ebf \u83b2\u91d1\u7ebf \u677e\u9f99\u7ebf", "signBuilding": null, "businessArea": null, "selfRoom": null, "businessTime": null, "stall": null, "consume": null, "serviceFei": null, "favourable": null, "shopMemo": null, "appraise": null, "website": null, "memo": null, "payTypes": "\u6749\u5fb7\u5361", "shopTypes": "\u96f6\u552e,\u4e13\u5356", "consumeTypes": null, "cookTypes": null, "orderNum": 1000, "card4no": null, "card4noAcc": null, "district2": 412, "searchScope": null, "status": 1, "address": "\u65b0\u6865\u9547\u65b0\u5357\u8857381-387\u53f7\u4e50\u5bb6\u8d2d\u7269\u4e2d\u5fc3\u4e00\u697c", "name": "\u8fea\u4fe1\u901a \u65b0\u6865\u5e97", "id": 133417, "pageNo": 0, "pageCount": null, "pageSize": 10, "ids": null, "endTime": null, "startTime": null}, {"cardNumFive": null, "isSupportYj": null, "cityName": null, "districtName": null, "shopinfo": {"mid": "888888848120012", "good_flag": "2", "new_flag": "1", "short_name": "\u8fea\u4fe1\u901a", "short_name_pinyin": "dixintong", "status": null, "address": null, "name": null, "id": "31451"}, "mid": "888888848120012", "shopId": "31451", "netid": null, "province": 901, "district": 601, "zipcode": null, "telephone": "68124781", "posDate": "20071207", "destineTel": null, "togoTel": null, "trafficWay": null, "signBuilding": null, "businessArea": null, "selfRoom": null, "businessTime": "9:00~21:00", "stall": null, "consume": null, "serviceFei": null, "favourable": null, "shopMemo": null, "appraise": null, "website": null, "memo": null, "payTypes": "\u6749\u5fb7\u5361", "shopTypes": "\u96f6\u552e,\u4e13\u5356", "consumeTypes": null, "cookTypes": null, "orderNum": 1000, "card4no": null, "card4noAcc": null, "district2": 418, "searchScope": null, "status": 1, "address": "\u6c88\u5eb7\u8def1654\u53f7", "name": "\u8fea\u4fe1\u901a \u5468\u6d66\u5e97", "id": 133424, "pageNo": 0, "pageCount": null, "pageSize": 10, "ids": null, "endTime": null, "startTime": null}, {"cardNumFive": null, "isSupportYj": null, "cityName": null, "districtName": null, "shopinfo": {"mid": "888002148120051", "good_flag": null, "new_flag": null, "short_name": "\u8fea\u4fe1\u901a", "short_name_pinyin": "dixintong", "status": null, "address": null, "name": null, "id": "36217"}, "mid": "888002148120051", "shopId": "36217", "netid": null, "province": 901, "district": 601, "zipcode": null, "telephone": null, "posDate": "20100817", "destineTel": null, "togoTel": null, "trafficWay": null, "signBuilding": null, "businessArea": null, "selfRoom": null, "businessTime": null, "stall": null, "consume": null, "serviceFei": null, "favourable": null, "shopMemo": null, "appraise": null, "website": null, "memo": null, "payTypes": "\u6749\u5fb7\u5361", "shopTypes": "\u96f6\u552e", "consumeTypes": null, "cookTypes": null, "orderNum": 1000, "card4no": null, "card4noAcc": null, "district2": 414, "searchScope": null, "status": 1, "address": "\u536b\u96f6\u8def72\u53f7", "name": "\u8fea\u4fe1\u901a \u5ddd\u8fbe\u5e97", "id": 150937, "pageNo": 0, "pageCount": null, "pageSize": 10, "ids": null, "endTime": null, "startTime": null}, {"cardNumFive": null, "isSupportYj": null, "cityName": null, "districtName": null, "shopinfo": {"mid": "888002148120051", "good_flag": null, "new_flag": null, "short_name": "\u8fea\u4fe1\u901a", "short_name_pinyin": "dixintong", "status": null, "address": null, "name": null, "id": "36217"}, "mid": "888002148120051", "shopId": "36217", "netid": null, "province": 901, "district": 601, "zipcode": null, "telephone": "68032331", "posDate": "20100817", "destineTel": null, "togoTel": null, "trafficWay": null, "signBuilding": null, "businessArea": null, "selfRoom": null, "businessTime": null, "stall": null, "consume": null, "serviceFei": null, "favourable": null, "shopMemo": null, "appraise": null, "website": null, "memo": null, "payTypes": "\u6749\u5fb7\u5361", "shopTypes": "\u96f6\u552e", "consumeTypes": null, "cookTypes": null, "orderNum": 1000, "card4no": null, "card4noAcc": null, "district2": 418, "searchScope": null, "status": 1, "address": "\u60e0\u5357\u9547\u5357\u95e8\u5927\u885712-20\u53f7", "name": "\u8fea\u4fe1\u901a \u65d7\u8230\u5e97", "id": 150940, "pageNo": 0, "pageCount": null, "pageSize": 10, "ids": null, "endTime": null, "startTime": null}, {"cardNumFive": null, "isSupportYj": null, "cityName": null, "districtName": null, "shopinfo": {"mid": "888888848120012", "good_flag": "2", "new_flag": "1", "short_name": "\u8fea\u4fe1\u901a", "short_name_pinyin": "dixintong", "status": null, "address": null, "name": null, "id": "31451"}, "mid": "888888848120012", "shopId": "31451", "netid": null, "province": 901, "district": 601, "zipcode": null, "telephone": null, "posDate": null, "destineTel": null, "togoTel": null, "trafficWay": null, "signBuilding": null, "businessArea": null, "selfRoom": null, "businessTime": null, "stall": null, "consume": null, "serviceFei": null, "favourable": null, "shopMemo": null, "appraise": null, "website": null, "memo": null, "payTypes": "\u6749\u5fb7\u5361", "shopTypes": "\u4e13\u5356", "consumeTypes": null, "cookTypes": null, "orderNum": 1000, "card4no": null, "card4noAcc": null, "district2": 416, "searchScope": null, "status": 1, "address": "\u6caa\u592a\u8def3999\u53f7", "name": "\u8fea\u4fe1\u901a \u56fd\u8d38\u7cbe\u54c1\u5e97", "id": 170068, "pageNo": 0, "pageCount": null, "pageSize": 10, "ids": null, "endTime": null, "startTime": null}, {"cardNumFive": null, "isSupportYj": null, "cityName": null, "districtName": null, "shopinfo": {"mid": "888888848120012", "good_flag": "2", "new_flag": "1", "short_name": "\u8fea\u4fe1\u901a", "short_name_pinyin": "dixintong", "status": null, "address": null, "name": null, "id": "31451"}, "mid": "888888848120012", "shopId": "31451", "netid": null, "province": 901, "district": 601, "zipcode": null, "telephone": null, "posDate": null, "destineTel": null, "togoTel": null, "trafficWay": null, "signBuilding": null, "businessArea": null, "selfRoom": null, "businessTime": null, "stall": null, "consume": null, "serviceFei": null, "favourable": null, "shopMemo": null, "appraise": null, "website": null, "memo": null, "payTypes": "\u6749\u5fb7\u5361", "shopTypes": "\u4e13\u5356", "consumeTypes": null, "cookTypes": null, "orderNum": 1000, "card4no": null, "card4noAcc": null, "district2": 413, "searchScope": null, "status": 1, "address": "\u6cf0\u65e5\u9547\u65b0\u5efa\u8def80\u53f7", "name": "\u8fea\u4fe1\u901a \u6cf0\u65e5\u5e97", "id": 170069, "pageNo": 0, "pageCount": null, "pageSize": 10, "ids": null, "endTime": null, "startTime": null}, {"cardNumFive": null, "isSupportYj": null, "cityName": null, "districtName": null, "shopinfo": {"mid": "888888848120012", "good_flag": "2", "new_flag": "1", "short_name": "\u8fea\u4fe1\u901a", "short_name_pinyin": "dixintong", "status": null, "address": null, "name": null, "id": "31451"}, "mid": "888888848120012", "shopId": "31451", "netid": null, "province": 901, "district": 601, "zipcode": null, "telephone": null, "posDate": null, "destineTel": null, "togoTel": null, "trafficWay": null, "signBuilding": null, "businessArea": null, "selfRoom": null, "businessTime": null, "stall": null, "consume": null, "serviceFei": null, "favourable": null, "shopMemo": null, "appraise": null, "website": null, "memo": null, "payTypes": "\u6749\u5fb7\u5361", "shopTypes": "\u4e13\u5356", "consumeTypes": null, "cookTypes": null, "orderNum": 1000, "card4no": null, "card4noAcc": null, "district2": 406, "searchScope": null, "status": 1, "address": "\u6c5f\u82cf\u8def500\u53f7", "name": "\u8fea\u4fe1\u901a \u6c5f\u82cf\u8def\u65d7\u8230\u5e97", "id": 170070, "pageNo": 0, "pageCount": null, "pageSize": 10, "ids": null, "endTime": null, "startTime": null}, {"cardNumFive": null, "isSupportYj": null, "cityName": null, "districtName": null, "shopinfo": {"mid": "888888848120012", "good_flag": "2", "new_flag": "1", "short_name": "\u8fea\u4fe1\u901a", "short_name_pinyin": "dixintong", "status": null, "address": null, "name": null, "id": "31451"}, "mid": "888888848120012", "shopId": "31451", "netid": null, "province": 901, "district": 601, "zipcode": null, "telephone": null, "posDate": null, "destineTel": null, "togoTel": null, "trafficWay": null, "signBuilding": null, "businessArea": null, "selfRoom": null, "businessTime": null, "stall": null, "consume": null, "serviceFei": null, "favourable": null, "shopMemo": null, "appraise": null, "website": null, "memo": null, "payTypes": "\u6749\u5fb7\u5361", "shopTypes": "\u4e13\u5356", "consumeTypes": null, "cookTypes": null, "orderNum": 1000, "card4no": null, "card4noAcc": null, "district2": 416, "searchScope": null, "status": 1, "address": "\u53cb\u8c0a\u8def201\u53f7", "name": "\u8fea\u4fe1\u901a \u53cb\u8c0a\u5e97", "id": 170072, "pageNo": 0, "pageCount": null, "pageSize": 10, "ids": null, "endTime": null, "startTime": null}], "pageLimit": 1200, "size": 10}