{"pageCount": 1095, "count": 10942, "pageNo": 129, "subShopInfo": {"cardNumFive": "", "isSupportYj": "", "cityName": null, "districtName": null, "shopinfo": {"mid": null, "good_flag": null, "new_flag": null, "short_name": null, "short_name_pinyin": null, "status": null, "address": "", "name": "", "id": null}, "mid": null, "shopId": null, "netid": null, "province": 901, "district": null, "zipcode": null, "telephone": null, "posDate": null, "destineTel": null, "togoTel": null, "trafficWay": null, "signBuilding": null, "businessArea": null, "selfRoom": null, "businessTime": null, "stall": null, "consume": null, "serviceFei": null, "favourable": null, "shopMemo": "1", "appraise": null, "website": null, "memo": null, "payTypes": "", "shopTypes": "", "consumeTypes": null, "cookTypes": null, "orderNum": null, "card4no": null, "card4noAcc": null, "district2": null, "searchScope": null, "status": null, "address": "", "name": null, "id": null, "pageNo": 128, "pageCount": null, "pageSize": 10, "ids": null, "endTime": null, "startTime": null}, "list": [{"cardNumFive": null, "isSupportYj": null, "cityName": null, "districtName": null, "shopinfo": {"mid": "888002158130163", "good_flag": null, "new_flag": null, "short_name": "DQ", "short_name_pinyin": "DQ", "status": null, "address": null, "name": null, "id": "43890"}, "mid": "888002158130163", "shopId": "43890", "netid": null, "province": 901, "district": 601, "zipcode": null, "telephone": null, "posDate": null, "destineTel": null, "togoTel": null, "trafficWay": null, "signBuilding": null, "businessArea": null, "selfRoom": null, "businessTime": null, "stall": null, "consume": null, "serviceFei": null, "favourable": null, "shopMemo": null, "appraise": null, "website": null, "memo": null, "payTypes": "\u6749\u5fb7\u5361", "shopTypes": "\u9910\u996e", "consumeTypes": null, "cookTypes": null, "orderNum": 1000, "card4no": null, "card4noAcc": null, "district2": 403, "searchScope": null, "status": 1, "address": "\u5730\u94c11\u53f7\u7ebf\u4e0a\u6d77\u5357\u7ad9\u7ad9\u5385\u5c42C-105", "name": "DQ \u4e0a\u6d77\u5357\u7ad9\u4e8c\u5e97", "id": 202180, "pageNo": 0, "pageCount": null, "pageSize": 10, "ids": null, "endTime": null, "startTime": null}, {"cardNumFive": null, "isSupportYj": null, "cityName": null, "districtName": null, "shopinfo": {"mid": "888002158130163", "good_flag": null, "new_flag": null, "short_name": "DQ", "short_name_pinyin": "DQ", "status": null, "address": null, "name": null, "id": "43890"}, "mid": "888002158130163", "shopId": "43890", "netid": null, "province": 901, "district": 601, "zipcode": null, "telephone": null, "posDate": null, "destineTel": null, "togoTel": null, "trafficWay": null, "signBuilding": null, "businessArea": null, "selfRoom": null, "businessTime": null, "stall": null, "consume": null, "serviceFei": null, "favourable": null, "shopMemo": null, "appraise": null, "website": null, "memo": null, "payTypes": "\u6749\u5fb7\u5361", "shopTypes": "\u9910\u996e", "consumeTypes": null, "cookTypes": null, "orderNum": 1000, "card4no": null, "card4noAcc": null, "district2": 407, "searchScope": null, "status": 1, "address": "\u653f\u901a\u8def189\u53f7\u4e07\u8fbe\u5e7f\u573a\u7279\u529b\u5c4b\u65f6\u5c1a\u6c471\u5c42", "name": "DQ \u4e0a\u6d77\u4e94\u89d2\u573a\u4e07\u8fbe\u5e97", "id": 202181, "pageNo": 0, "pageCount": null, "pageSize": 10, "ids": null, "endTime": null, "startTime": null}, {"cardNumFive": null, "isSupportYj": null, "cityName": null, "districtName": null, "shopinfo": {"mid": "888002158130163", "good_flag": null, "new_flag": null, "short_name": "DQ", "short_name_pinyin": "DQ", "status": null, "address": null, "name": null, "id": "43890"}, "mid": "888002158130163", "shopId": "43890", "netid": null, "province": 901, "district": 601, "zipcode": null, "telephone": null, "posDate": null, "destineTel": null, "togoTel": null, "trafficWay": null, "signBuilding": null, "businessArea": null, "selfRoom": null, "businessTime": null, "stall": null, "consume": null, "serviceFei": null, "favourable": null, "shopMemo": null, "appraise": null, "website": null, "memo": null, "payTypes": "\u6749\u5fb7\u5361", "shopTypes": "\u9910\u996e", "consumeTypes": null, "cookTypes": null, "orderNum": 1000, "card4no": null, "card4noAcc": null, "district2": 408, "searchScope": null, "status": 1, "address": "\u897f\u6c5f\u6e7e\u8def388\u53f7 \u51ef\u5fb7\u9f99\u4e4b\u68a6\u5546\u573aB2\u5c42K39-K40a\uff0ck40b\u5546\u94fa", "name": "DQ \u4e0a\u6d77\u8679\u53e3\u9f99\u4e4b\u68a6\u5e97", "id": 202182, "pageNo": 0, "pageCount": null, "pageSize": 10, "ids": null, "endTime": null, "startTime": null}, {"cardNumFive": null, "isSupportYj": null, "cityName": null, "districtName": null, "shopinfo": {"mid": "888002158130163", "good_flag": null, "new_flag": null, "short_name": "DQ", "short_name_pinyin": "DQ", "status": null, "address": null, "name": null, "id": "43890"}, "mid": "888002158130163", "shopId": "43890", "netid": null, "province": 901, "district": 601, "zipcode": null, "telephone": null, "posDate": null, "destineTel": null, "togoTel": null, "trafficWay": null, "signBuilding": null, "businessArea": null, "selfRoom": null, "businessTime": null, "stall": null, "consume": null, "serviceFei": null, "favourable": null, "shopMemo": null, "appraise": null, "website": null, "memo": null, "payTypes": "\u6749\u5fb7\u5361", "shopTypes": "\u9910\u996e", "consumeTypes": null, "cookTypes": null, "orderNum": 1000, "card4no": null, "card4noAcc": null, "district2": 410, "searchScope": null, "status": 1, "address": "\u5171\u548c\u65b0\u8def1978\u53f7\u5927\u5b81\u56fd\u9645\u5546\u4e1a\u5e7f\u573a1\u5c42\uff08E1\uff09\u5e62107C\u3001108C\u3001109C", "name": "DQ \u4e0a\u6d77\u5927\u5b81\u5e97", "id": 202183, "pageNo": 0, "pageCount": null, "pageSize": 10, "ids": null, "endTime": null, "startTime": null}, {"cardNumFive": null, "isSupportYj": null, "cityName": null, "districtName": null, "shopinfo": {"mid": "888002158130163", "good_flag": null, "new_flag": null, "short_name": "DQ", "short_name_pinyin": "DQ", "status": null, "address": null, "name": null, "id": "43890"}, "mid": "888002158130163", "shopId": "43890", "netid": null, "province": 901, "district": 601, "zipcode": null, "telephone": null, "posDate": null, "destineTel": null, "togoTel": null, "trafficWay": null, "signBuilding": null, "businessArea": null, "selfRoom": null, "businessTime": null, "stall": null, "consume": null, "serviceFei": null, "favourable": null, "shopMemo": null, "appraise": null, "website": null, "memo": null, "payTypes": "\u6749\u5fb7\u5361", "shopTypes": "\u9910\u996e", "consumeTypes": null, "cookTypes": null, "orderNum": 1000, "card4no": null, "card4noAcc": null, "district2": 410, "searchScope": null, "status": 1, "address": "\u897f\u85cf\u5317\u8def198\u53f7\uff08\u8fd1\u6d77\u5b81\u8def\uff09\u5927\u60a6\u57ce\uff08\u4e8c\u671f\uff09NB1-15", "name": "DQ \u4e0a\u6d77\u897f\u85cf\u8def\u5927\u60a6\u57ce\u5e97", "id": 202184, "pageNo": 0, "pageCount": null, "pageSize": 10, "ids": null, "endTime": null, "startTime": null}, {"cardNumFive": null, "isSupportYj": null, "cityName": null, "districtName": null, "shopinfo": {"mid": "888002158130163", "good_flag": null, "new_flag": null, "short_name": "DQ", "short_name_pinyin": "DQ", "status": null, "address": null, "name": null, "id": "43890"}, "mid": "888002158130163", "shopId": "43890", "netid": null, "province": 901, "district": 601, "zipcode": null, "telephone": null, "posDate": null, "destineTel": null, "togoTel": null, "trafficWay": null, "signBuilding": null, "businessArea": null, "selfRoom": null, "businessTime": null, "stall": null, "consume": null, "serviceFei": null, "favourable": null, "shopMemo": null, "appraise": null, "website": null, "memo": null, "payTypes": "\u6749\u5fb7\u5361", "shopTypes": "\u9910\u996e", "consumeTypes": null, "cookTypes": null, "orderNum": 1000, "card4no": null, "card4noAcc": null, "district2": 407, "searchScope": null, "status": 1, "address": "\u6dde\u6caa\u8def8\u53f7 \u626c\u65cf\u767e\u8d27B1\u5c42G09-B01-037", "name": "DQ \u4e0a\u6d77\u53c8\u4e00\u57ce\u4e8c\u5e97", "id": 202185, "pageNo": 0, "pageCount": null, "pageSize": 10, "ids": null, "endTime": null, "startTime": null}, {"cardNumFive": null, "isSupportYj": null, "cityName": null, "districtName": null, "shopinfo": {"mid": "888002158130163", "good_flag": null, "new_flag": null, "short_name": "DQ", "short_name_pinyin": "DQ", "status": null, "address": null, "name": null, "id": "43890"}, "mid": "888002158130163", "shopId": "43890", "netid": null, "province": 901, "district": 601, "zipcode": null, "telephone": null, "posDate": null, "destineTel": null, "togoTel": null, "trafficWay": null, "signBuilding": null, "businessArea": null, "selfRoom": null, "businessTime": null, "stall": null, "consume": null, "serviceFei": null, "favourable": null, "shopMemo": null, "appraise": null, "website": null, "memo": null, "payTypes": "\u6749\u5fb7\u5361", "shopTypes": "\u9910\u996e", "consumeTypes": null, "cookTypes": null, "orderNum": 1000, "card4no": null, "card4noAcc": null, "district2": 407, "searchScope": null, "status": 1, "address": "\u56fd\u548c\u8def777\u53f7 \u4e2d\u539f\u57ce\u5e02\u5e7f\u573a2\u5ea71\u697c2101", "name": "DQ \u4e0a\u6d77\u4e2d\u539f\u57ce\u5e02\u5e7f\u573a\u5e97", "id": 202186, "pageNo": 0, "pageCount": null, "pageSize": 10, "ids": null, "endTime": null, "startTime": null}, {"cardNumFive": null, "isSupportYj": null, "cityName": null, "districtName": null, "shopinfo": {"mid": "888002158130163", "good_flag": null, "new_flag": null, "short_name": "DQ", "short_name_pinyin": "DQ", "status": null, "address": null, "name": null, "id": "43890"}, "mid": "888002158130163", "shopId": "43890", "netid": null, "province": 901, "district": 601, "zipcode": null, "telephone": null, "posDate": null, "destineTel": null, "togoTel": null, "trafficWay": null, "signBuilding": null, "businessArea": null, "selfRoom": null, "businessTime": null, "stall": null, "consume": null, "serviceFei": null, "favourable": null, "shopMemo": null, "appraise": null, "website": null, "memo": null, "payTypes": "\u6749\u5fb7\u5361", "shopTypes": "\u9910\u996e", "consumeTypes": null, "cookTypes": null, "orderNum": 1000, "card4no": null, "card4noAcc": null, "district2": 409, "searchScope": null, "status": 1, "address": "\u9648\u884c\u516c\u8def2688\u53f7 \u5bb6\u4e50\u798f\u5546\u573a1\u5c42102\u5546\u94fa", "name": "DQ \u4e0a\u6d77\u6d66\u6c5f\u9547\u5e97", "id": 202187, "pageNo": 0, "pageCount": null, "pageSize": 10, "ids": null, "endTime": null, "startTime": null}, {"cardNumFive": null, "isSupportYj": null, "cityName": null, "districtName": null, "shopinfo": {"mid": "888002158130163", "good_flag": null, "new_flag": null, "short_name": "DQ", "short_name_pinyin": "DQ", "status": null, "address": null, "name": null, "id": "43890"}, "mid": "888002158130163", "shopId": "43890", "netid": null, "province": 901, "district": 601, "zipcode": null, "telephone": null, "posDate": null, "destineTel": null, "togoTel": null, "trafficWay": null, "signBuilding": null, "businessArea": null, "selfRoom": null, "businessTime": null, "stall": null, "consume": null, "serviceFei": null, "favourable": null, "shopMemo": null, "appraise": null, "website": null, "memo": null, "payTypes": "\u6749\u5fb7\u5361", "shopTypes": "\u9910\u996e", "consumeTypes": null, "cookTypes": null, "orderNum": 1000, "card4no": null, "card4noAcc": null, "district2": 418, "searchScope": null, "status": 1, "address": "\u6caa\u5357\u516c\u8def3449\u53f7 \u4e07\u8fbe\u5546\u4e1a\u5e7f\u573aB\u95e81\u5c42109\u5546\u94fa\u53f7", "name": "DQ \u4e0a\u6d77\u5468\u6d66\u4e07\u8fbe\u5e97", "id": 202188, "pageNo": 0, "pageCount": null, "pageSize": 10, "ids": null, "endTime": null, "startTime": null}, {"cardNumFive": null, "isSupportYj": null, "cityName": null, "districtName": null, "shopinfo": {"mid": "888002158130163", "good_flag": null, "new_flag": null, "short_name": "DQ", "short_name_pinyin": "DQ", "status": null, "address": null, "name": null, "id": "43890"}, "mid": "888002158130163", "shopId": "43890", "netid": null, "province": 901, "district": 601, "zipcode": null, "telephone": null, "posDate": null, "destineTel": null, "togoTel": null, "trafficWay": null, "signBuilding": null, "businessArea": null, "selfRoom": null, "businessTime": null, "stall": null, "consume": null, "serviceFei": null, "favourable": null, "shopMemo": null, "appraise": null, "website": null, "memo": null, "payTypes": "\u6749\u5fb7\u5361", "shopTypes": "\u9910\u996e", "consumeTypes": null, "cookTypes": null, "orderNum": 1000, "card4no": null, "card4noAcc": null, "district2": 409, "searchScope": null, "status": 1, "address": "\u8679\u4e95\u8def288\u53f7\u4e50\u8679\u574a1\u5c42", "name": "DQ \u4e0a\u6d77\u8679\u4e95\u5e97", "id": 202189, "pageNo": 0, "pageCount": null, "pageSize": 10, "ids": null, "endTime": null, "startTime": null}], "pageLimit": 1280, "size": 10}