{"pageCount": 1095, "count": 10942, "pageNo": 135, "subShopInfo": {"cardNumFive": "", "isSupportYj": "", "cityName": null, "districtName": null, "shopinfo": {"mid": null, "good_flag": null, "new_flag": null, "short_name": null, "short_name_pinyin": null, "status": null, "address": "", "name": "", "id": null}, "mid": null, "shopId": null, "netid": null, "province": 901, "district": null, "zipcode": null, "telephone": null, "posDate": null, "destineTel": null, "togoTel": null, "trafficWay": null, "signBuilding": null, "businessArea": null, "selfRoom": null, "businessTime": null, "stall": null, "consume": null, "serviceFei": null, "favourable": null, "shopMemo": "1", "appraise": null, "website": null, "memo": null, "payTypes": "", "shopTypes": "", "consumeTypes": null, "cookTypes": null, "orderNum": null, "card4no": null, "card4noAcc": null, "district2": null, "searchScope": null, "status": null, "address": "", "name": null, "id": null, "pageNo": 134, "pageCount": null, "pageSize": 10, "ids": null, "endTime": null, "startTime": null}, "list": [{"cardNumFive": null, "isSupportYj": null, "cityName": null, "districtName": null, "shopinfo": {"mid": "888888853110001", "good_flag": null, "new_flag": null, "short_name": "\u591a\u6837\u5c4b", "short_name_pinyin": "duoyangwu", "status": null, "address": null, "name": null, "id": "37435"}, "mid": "888888853110001", "shopId": "37435", "netid": null, "province": 901, "district": 601, "zipcode": null, "telephone": null, "posDate": null, "destineTel": null, "togoTel": null, "trafficWay": null, "signBuilding": null, "businessArea": null, "selfRoom": null, "businessTime": null, "stall": null, "consume": null, "serviceFei": null, "favourable": null, "shopMemo": null, "appraise": null, "website": null, "memo": null, "payTypes": "\u6749\u5fb7\u5361", "shopTypes": "\u96f6\u552e", "consumeTypes": null, "cookTypes": null, "orderNum": 1000, "card4no": null, "card4noAcc": null, "district2": 403, "searchScope": null, "status": 1, "address": "\u5929\u7b49\u8def188\u53f7", "name": "\u591a\u6837\u5c4b \u65d7\u8230\u5e97", "id": 158757, "pageNo": 0, "pageCount": null, "pageSize": 10, "ids": null, "endTime": null, "startTime": null}, {"cardNumFive": null, "isSupportYj": null, "cityName": null, "districtName": null, "shopinfo": {"mid": "888888856910083", "good_flag": "2", "new_flag": "2", "short_name": "\u9102\u5c14\u591a\u65af", "short_name_pinyin": "eerduosiyangrongdian", "status": null, "address": null, "name": null, "id": "31565"}, "mid": "888888856910083", "shopId": "31565", "netid": null, "province": 901, "district": 601, "zipcode": null, "telephone": "62128067", "posDate": "20071011", "destineTel": null, "togoTel": null, "trafficWay": "\u516c\u4ea444 923 572", "signBuilding": null, "businessArea": "150\u5e73\u65b9\u7c73", "selfRoom": null, "businessTime": null, "stall": "\u6709", "consume": null, "serviceFei": null, "favourable": null, "shopMemo": null, "appraise": null, "website": null, "memo": null, "payTypes": "\u6749\u5fb7\u5361", "shopTypes": "\u4e13\u5356", "consumeTypes": null, "cookTypes": null, "orderNum": 1000, "card4no": null, "card4noAcc": null, "district2": 406, "searchScope": null, "status": 1, "address": "\u957f\u5b81\u8def320\u53f7", "name": "\u9102\u5c14\u591a\u65af \u957f\u5b81\u8def\u5e97", "id": 133789, "pageNo": 0, "pageCount": null, "pageSize": 10, "ids": null, "endTime": null, "startTime": null}, {"cardNumFive": null, "isSupportYj": null, "cityName": null, "districtName": null, "shopinfo": {"mid": "888888856910083", "good_flag": "2", "new_flag": "2", "short_name": "\u9102\u5c14\u591a\u65af", "short_name_pinyin": "eerduosiyangrongdian", "status": null, "address": null, "name": null, "id": "31565"}, "mid": "888888856910083", "shopId": "31565", "netid": null, "province": 901, "district": 601, "zipcode": null, "telephone": "64079884", "posDate": "20080114", "destineTel": null, "togoTel": null, "trafficWay": "\u516c\u4ea4836 572", "signBuilding": null, "businessArea": null, "selfRoom": null, "businessTime": null, "stall": null, "consume": null, "serviceFei": null, "favourable": null, "shopMemo": null, "appraise": null, "website": null, "memo": null, "payTypes": "\u6749\u5fb7\u5361", "shopTypes": "\u4e13\u5356", "consumeTypes": null, "cookTypes": null, "orderNum": 1000, "card4no": null, "card4noAcc": null, "district2": 403, "searchScope": null, "status": 1, "address": "\u51ef\u65cb\u8def1669\u53f7", "name": "\u9102\u5c14\u591a\u65af \u51ef\u65cb\u8def\u516c\u53f8\u603b\u90e8", "id": 133792, "pageNo": 0, "pageCount": null, "pageSize": 10, "ids": null, "endTime": null, "startTime": null}, {"cardNumFive": null, "isSupportYj": null, "cityName": null, "districtName": null, "shopinfo": {"mid": "888888856910083", "good_flag": "2", "new_flag": "2", "short_name": "\u9102\u5c14\u591a\u65af", "short_name_pinyin": "eerduosiyangrongdian", "status": null, "address": null, "name": null, "id": "31565"}, "mid": "888888856910083", "shopId": "31565", "netid": null, "province": 901, "district": 601, "zipcode": null, "telephone": "64079884", "posDate": null, "destineTel": null, "togoTel": null, "trafficWay": null, "signBuilding": null, "businessArea": null, "selfRoom": null, "businessTime": null, "stall": null, "consume": null, "serviceFei": null, "favourable": null, "shopMemo": null, "appraise": null, "website": null, "memo": null, "payTypes": "\u6749\u5fb7\u5361", "shopTypes": "\u4e13\u5356", "consumeTypes": null, "cookTypes": null, "orderNum": 1000, "card4no": null, "card4noAcc": null, "district2": 404, "searchScope": null, "status": 1, "address": "\u9655\u897f\u5317\u8def147-149\u53f7", "name": "\u9102\u5c14\u591a\u65af \u9655\u897f\u5317\u8def\u5e97", "id": 133793, "pageNo": 0, "pageCount": null, "pageSize": 10, "ids": null, "endTime": null, "startTime": null}, {"cardNumFive": null, "isSupportYj": null, "cityName": null, "districtName": null, "shopinfo": {"mid": "888002156910479", "good_flag": null, "new_flag": "2", "short_name": "ELAND", "short_name_pinyin": "eland", "status": null, "address": null, "name": null, "id": "40453"}, "mid": "888002156910479", "shopId": "40453", "netid": null, "province": 901, "district": 601, "zipcode": null, "telephone": null, "posDate": null, "destineTel": null, "togoTel": null, "trafficWay": null, "signBuilding": null, "businessArea": null, "selfRoom": null, "businessTime": null, "stall": null, "consume": null, "serviceFei": null, "favourable": null, "shopMemo": null, "appraise": null, "website": null, "memo": null, "payTypes": "\u6749\u5fb7\u5361", "shopTypes": "\u4e13\u5356", "consumeTypes": null, "cookTypes": null, "orderNum": 1000, "card4no": null, "card4noAcc": null, "district2": 405, "searchScope": null, "status": 1, "address": "\u957f\u5bff\u8def155\u53f7", "name": "ELAND \u5df4\u9ece\u6625\u5929\u5e97", "id": 175030, "pageNo": 0, "pageCount": null, "pageSize": 10, "ids": null, "endTime": null, "startTime": null}, {"cardNumFive": null, "isSupportYj": null, "cityName": null, "districtName": null, "shopinfo": {"mid": "888002156910479", "good_flag": null, "new_flag": "2", "short_name": "ELAND", "short_name_pinyin": "eland", "status": null, "address": null, "name": null, "id": "40453"}, "mid": "888002156910479", "shopId": "40453", "netid": null, "province": 901, "district": 601, "zipcode": null, "telephone": null, "posDate": null, "destineTel": null, "togoTel": null, "trafficWay": null, "signBuilding": null, "businessArea": null, "selfRoom": null, "businessTime": null, "stall": null, "consume": null, "serviceFei": null, "favourable": null, "shopMemo": null, "appraise": null, "website": null, "memo": null, "payTypes": "\u6749\u5fb7\u5361", "shopTypes": "\u4e13\u5356", "consumeTypes": null, "cookTypes": null, "orderNum": 1000, "card4no": null, "card4noAcc": null, "district2": 409, "searchScope": null, "status": 1, "address": "\u90fd\u5e02\u8def5001\u53f7", "name": "ELAND \u90fd\u5e02\u4ef2\u76db\u5e97", "id": 175031, "pageNo": 0, "pageCount": null, "pageSize": 10, "ids": null, "endTime": null, "startTime": null}, {"cardNumFive": null, "isSupportYj": null, "cityName": null, "districtName": null, "shopinfo": {"mid": "888002156910479", "good_flag": null, "new_flag": "2", "short_name": "ELAND", "short_name_pinyin": "eland", "status": null, "address": null, "name": null, "id": "40453"}, "mid": "888002156910479", "shopId": "40453", "netid": null, "province": 901, "district": 601, "zipcode": null, "telephone": null, "posDate": null, "destineTel": null, "togoTel": null, "trafficWay": null, "signBuilding": null, "businessArea": null, "selfRoom": null, "businessTime": null, "stall": null, "consume": null, "serviceFei": null, "favourable": null, "shopMemo": null, "appraise": null, "website": null, "memo": null, "payTypes": "\u6749\u5fb7\u5361", "shopTypes": "\u4e13\u5356", "consumeTypes": null, "cookTypes": null, "orderNum": 1000, "card4no": null, "card4noAcc": null, "district2": 418, "searchScope": null, "status": 1, "address": "\u5f20\u6768\u8def3611\u5f041-7\u53f7", "name": "ELAND \u5927\u5b81\u91d1\u6865\u5e97", "id": 175033, "pageNo": 0, "pageCount": null, "pageSize": 10, "ids": null, "endTime": null, "startTime": null}, {"cardNumFive": null, "isSupportYj": null, "cityName": null, "districtName": null, "shopinfo": {"mid": "888002156910479", "good_flag": null, "new_flag": "2", "short_name": "ELAND", "short_name_pinyin": "eland", "status": null, "address": null, "name": null, "id": "40453"}, "mid": "888002156910479", "shopId": "40453", "netid": null, "province": 901, "district": 601, "zipcode": null, "telephone": null, "posDate": null, "destineTel": null, "togoTel": null, "trafficWay": null, "signBuilding": null, "businessArea": null, "selfRoom": null, "businessTime": null, "stall": null, "consume": null, "serviceFei": null, "favourable": null, "shopMemo": null, "appraise": null, "website": null, "memo": null, "payTypes": "\u6749\u5fb7\u5361", "shopTypes": "\u4e13\u5356", "consumeTypes": null, "cookTypes": null, "orderNum": 1000, "card4no": null, "card4noAcc": null, "district2": 401, "searchScope": null, "status": 1, "address": "\u5357\u4eac\u4e1c\u8def353\u53f7", "name": "ELAND 353\u5e7f\u573a\u5e97", "id": 175035, "pageNo": 0, "pageCount": null, "pageSize": 10, "ids": null, "endTime": null, "startTime": null}, {"cardNumFive": null, "isSupportYj": null, "cityName": null, "districtName": null, "shopinfo": {"mid": "888002156910479", "good_flag": null, "new_flag": "2", "short_name": "ELAND", "short_name_pinyin": "eland", "status": null, "address": null, "name": null, "id": "40453"}, "mid": "888002156910479", "shopId": "40453", "netid": null, "province": 901, "district": 601, "zipcode": null, "telephone": null, "posDate": null, "destineTel": null, "togoTel": null, "trafficWay": null, "signBuilding": null, "businessArea": null, "selfRoom": null, "businessTime": null, "stall": null, "consume": null, "serviceFei": null, "favourable": null, "shopMemo": null, "appraise": null, "website": null, "memo": null, "payTypes": "\u6749\u5fb7\u5361", "shopTypes": "\u4e13\u5356", "consumeTypes": null, "cookTypes": null, "orderNum": 1000, "card4no": null, "card4noAcc": null, "district2": 418, "searchScope": null, "status": 1, "address": "\u9646\u5bb6\u5634\u897f\u8def168\u53f7", "name": "ELAND \u6b63\u5927\u5e7f\u573a\u5e97", "id": 175036, "pageNo": 0, "pageCount": null, "pageSize": 10, "ids": null, "endTime": null, "startTime": null}, {"cardNumFive": null, "isSupportYj": null, "cityName": null, "districtName": null, "shopinfo": {"mid": "888002156910479", "good_flag": null, "new_flag": "2", "short_name": "ELAND", "short_name_pinyin": "eland", "status": null, "address": null, "name": null, "id": "40453"}, "mid": "888002156910479", "shopId": "40453", "netid": null, "province": 901, "district": 601, "zipcode": null, "telephone": null, "posDate": null, "destineTel": null, "togoTel": null, "trafficWay": null, "signBuilding": null, "businessArea": null, "selfRoom": null, "businessTime": null, "stall": null, "consume": null, "serviceFei": null, "favourable": null, "shopMemo": null, "appraise": null, "website": null, "memo": null, "payTypes": "\u6749\u5fb7\u5361", "shopTypes": "\u4e13\u5356", "consumeTypes": null, "cookTypes": null, "orderNum": 1000, "card4no": null, "card4noAcc": null, "district2": 408, "searchScope": null, "status": 1, "address": "\u897f\u6c5f\u6e7e\u8def388\u53f7", "name": "ELAND \u8679\u53e3\u9f99\u4e4b\u68a6\u5e97", "id": 175037, "pageNo": 0, "pageCount": null, "pageSize": 10, "ids": null, "endTime": null, "startTime": null}], "pageLimit": 1340, "size": 10}