{"pageCount": 1095, "count": 10942, "pageNo": 130, "subShopInfo": {"cardNumFive": "", "isSupportYj": "", "cityName": null, "districtName": null, "shopinfo": {"mid": null, "good_flag": null, "new_flag": null, "short_name": null, "short_name_pinyin": null, "status": null, "address": "", "name": "", "id": null}, "mid": null, "shopId": null, "netid": null, "province": 901, "district": null, "zipcode": null, "telephone": null, "posDate": null, "destineTel": null, "togoTel": null, "trafficWay": null, "signBuilding": null, "businessArea": null, "selfRoom": null, "businessTime": null, "stall": null, "consume": null, "serviceFei": null, "favourable": null, "shopMemo": "1", "appraise": null, "website": null, "memo": null, "payTypes": "", "shopTypes": "", "consumeTypes": null, "cookTypes": null, "orderNum": null, "card4no": null, "card4noAcc": null, "district2": null, "searchScope": null, "status": null, "address": "", "name": null, "id": null, "pageNo": 129, "pageCount": null, "pageSize": 10, "ids": null, "endTime": null, "startTime": null}, "list": [{"cardNumFive": null, "isSupportYj": null, "cityName": null, "districtName": null, "shopinfo": {"mid": "888002158130163", "good_flag": null, "new_flag": null, "short_name": "DQ", "short_name_pinyin": "DQ", "status": null, "address": null, "name": null, "id": "43890"}, "mid": "888002158130163", "shopId": "43890", "netid": null, "province": 901, "district": 601, "zipcode": null, "telephone": null, "posDate": null, "destineTel": null, "togoTel": null, "trafficWay": null, "signBuilding": null, "businessArea": null, "selfRoom": null, "businessTime": null, "stall": null, "consume": null, "serviceFei": null, "favourable": null, "shopMemo": null, "appraise": null, "website": null, "memo": null, "payTypes": "\u6749\u5fb7\u5361", "shopTypes": "\u9910\u996e", "consumeTypes": null, "cookTypes": null, "orderNum": 1000, "card4no": null, "card4noAcc": null, "district2": 409, "searchScope": null, "status": 1, "address": "\u4e03\u8398\u8def3655\u53f7\u5609\u8302\u8d2d\u7269\u5e7f\u573a1\u697c", "name": "DQ \u4e0a\u6d77\u4e03\u5b9d\u5609\u8302\u5e97", "id": 202190, "pageNo": 0, "pageCount": null, "pageSize": 10, "ids": null, "endTime": null, "startTime": null}, {"cardNumFive": null, "isSupportYj": null, "cityName": null, "districtName": null, "shopinfo": {"mid": "888002158130163", "good_flag": null, "new_flag": null, "short_name": "DQ", "short_name_pinyin": "DQ", "status": null, "address": null, "name": null, "id": "43890"}, "mid": "888002158130163", "shopId": "43890", "netid": null, "province": 901, "district": 601, "zipcode": null, "telephone": null, "posDate": null, "destineTel": null, "togoTel": null, "trafficWay": null, "signBuilding": null, "businessArea": null, "selfRoom": null, "businessTime": null, "stall": null, "consume": null, "serviceFei": null, "favourable": null, "shopMemo": null, "appraise": null, "website": null, "memo": null, "payTypes": "\u6749\u5fb7\u5361", "shopTypes": "\u9910\u996e", "consumeTypes": null, "cookTypes": null, "orderNum": 1000, "card4no": null, "card4noAcc": null, "district2": 405, "searchScope": null, "status": 1, "address": "\u957f\u5bff\u8def155\u53f7\u5df4\u9ece\u6625\u59296\u697c11\u53f7\u5546\u94fa", "name": "DQ \u4e0a\u6d77\u8c03\u9891\u58f9\u5e97", "id": 202191, "pageNo": 0, "pageCount": null, "pageSize": 10, "ids": null, "endTime": null, "startTime": null}, {"cardNumFive": null, "isSupportYj": null, "cityName": null, "districtName": null, "shopinfo": {"mid": "888002158130163", "good_flag": null, "new_flag": null, "short_name": "DQ", "short_name_pinyin": "DQ", "status": null, "address": null, "name": null, "id": "43890"}, "mid": "888002158130163", "shopId": "43890", "netid": null, "province": 901, "district": 601, "zipcode": null, "telephone": null, "posDate": null, "destineTel": null, "togoTel": null, "trafficWay": null, "signBuilding": null, "businessArea": null, "selfRoom": null, "businessTime": null, "stall": null, "consume": null, "serviceFei": null, "favourable": null, "shopMemo": null, "appraise": null, "website": null, "memo": null, "payTypes": "\u6749\u5fb7\u5361", "shopTypes": "\u9910\u996e", "consumeTypes": null, "cookTypes": null, "orderNum": 1000, "card4no": null, "card4noAcc": null, "district2": 416, "searchScope": null, "status": 1, "address": "\u771f\u534e\u8def888\u53f7\u5730\u4e0b\u4e00\u5c4226\u53f7\u5546\u94fa", "name": "DQ \u4e0a\u6d77\u5927\u534e\u5e97", "id": 202192, "pageNo": 0, "pageCount": null, "pageSize": 10, "ids": null, "endTime": null, "startTime": null}, {"cardNumFive": null, "isSupportYj": null, "cityName": null, "districtName": null, "shopinfo": {"mid": "888002158130163", "good_flag": null, "new_flag": null, "short_name": "DQ", "short_name_pinyin": "DQ", "status": null, "address": null, "name": null, "id": "43890"}, "mid": "888002158130163", "shopId": "43890", "netid": null, "province": 901, "district": 601, "zipcode": null, "telephone": null, "posDate": null, "destineTel": null, "togoTel": null, "trafficWay": null, "signBuilding": null, "businessArea": null, "selfRoom": null, "businessTime": null, "stall": null, "consume": null, "serviceFei": null, "favourable": null, "shopMemo": null, "appraise": null, "website": null, "memo": null, "payTypes": "\u6749\u5fb7\u5361", "shopTypes": "\u9910\u996e", "consumeTypes": null, "cookTypes": null, "orderNum": 1000, "card4no": null, "card4noAcc": null, "district2": 411, "searchScope": null, "status": 1, "address": "\u58a8\u7389\u5357\u8def1055\u53f7117\u5ba4", "name": "DQ \u5b89\u4ead\u5609\u4ead\u835f\u5e97", "id": 202193, "pageNo": 0, "pageCount": null, "pageSize": 10, "ids": null, "endTime": null, "startTime": null}, {"cardNumFive": null, "isSupportYj": null, "cityName": null, "districtName": null, "shopinfo": {"mid": "888002158130163", "good_flag": null, "new_flag": null, "short_name": "DQ", "short_name_pinyin": "DQ", "status": null, "address": null, "name": null, "id": "43890"}, "mid": "888002158130163", "shopId": "43890", "netid": null, "province": 901, "district": 601, "zipcode": null, "telephone": null, "posDate": null, "destineTel": null, "togoTel": null, "trafficWay": null, "signBuilding": null, "businessArea": null, "selfRoom": null, "businessTime": null, "stall": null, "consume": null, "serviceFei": null, "favourable": null, "shopMemo": null, "appraise": null, "website": null, "memo": null, "payTypes": "\u6749\u5fb7\u5361", "shopTypes": "\u9910\u996e", "consumeTypes": null, "cookTypes": null, "orderNum": 1000, "card4no": null, "card4noAcc": null, "district2": 418, "searchScope": null, "status": 1, "address": "\u5ddd\u6c99\u8def5558\u5f042\u53f7\u697c106\u5ba4", "name": "DQ \u4e0a\u6d77\u5ddd\u6c99\u4e1c\u6d77\u5cb8\u5e97", "id": 202196, "pageNo": 0, "pageCount": null, "pageSize": 10, "ids": null, "endTime": null, "startTime": null}, {"cardNumFive": null, "isSupportYj": null, "cityName": null, "districtName": null, "shopinfo": {"mid": "888002158130163", "good_flag": null, "new_flag": null, "short_name": "DQ", "short_name_pinyin": "DQ", "status": null, "address": null, "name": null, "id": "43890"}, "mid": "888002158130163", "shopId": "43890", "netid": null, "province": 901, "district": 601, "zipcode": null, "telephone": null, "posDate": null, "destineTel": null, "togoTel": null, "trafficWay": null, "signBuilding": null, "businessArea": null, "selfRoom": null, "businessTime": null, "stall": null, "consume": null, "serviceFei": null, "favourable": null, "shopMemo": null, "appraise": null, "website": null, "memo": null, "payTypes": "\u6749\u5fb7\u5361", "shopTypes": "\u9910\u996e", "consumeTypes": null, "cookTypes": null, "orderNum": 1000, "card4no": null, "card4noAcc": null, "district2": 411, "searchScope": null, "status": 1, "address": "\u4f73\u901a\u8def3\u53f7 \u4e2d\u51b6\u7965\u817e\u57ce\u5e02\u5e7f\u573a\u5546\u573a3\u5c4207\u5546\u94fa\u53f7", "name": "DQ \u4e0a\u6d77\u5357\u7fd4\u5e97", "id": 202199, "pageNo": 0, "pageCount": null, "pageSize": 10, "ids": null, "endTime": null, "startTime": null}, {"cardNumFive": null, "isSupportYj": null, "cityName": null, "districtName": null, "shopinfo": {"mid": "888002158130163", "good_flag": null, "new_flag": null, "short_name": "DQ", "short_name_pinyin": "DQ", "status": null, "address": null, "name": null, "id": "43890"}, "mid": "888002158130163", "shopId": "43890", "netid": null, "province": 901, "district": 601, "zipcode": null, "telephone": null, "posDate": null, "destineTel": null, "togoTel": null, "trafficWay": null, "signBuilding": null, "businessArea": null, "selfRoom": null, "businessTime": null, "stall": null, "consume": null, "serviceFei": null, "favourable": null, "shopMemo": null, "appraise": null, "website": null, "memo": null, "payTypes": "\u6749\u5fb7\u5361", "shopTypes": "\u9910\u996e", "consumeTypes": null, "cookTypes": null, "orderNum": 1000, "card4no": null, "card4noAcc": null, "district2": 414, "searchScope": null, "status": 1, "address": "\u536b\u96f6\u8def\u84dd\u8272\u6d77\u5cb8\u751f\u6d3b\u5e7f\u573a\u5730\u4e0a\u4e00\u5c42L1-25", "name": "DQ \u4e0a\u6d77\u91d1\u5c71\u84dd\u8272\u6d77\u5cb8\u5e97", "id": 202205, "pageNo": 0, "pageCount": null, "pageSize": 10, "ids": null, "endTime": null, "startTime": null}, {"cardNumFive": null, "isSupportYj": null, "cityName": null, "districtName": null, "shopinfo": {"mid": "888002158130163", "good_flag": null, "new_flag": null, "short_name": "DQ", "short_name_pinyin": "DQ", "status": null, "address": null, "name": null, "id": "43890"}, "mid": "888002158130163", "shopId": "43890", "netid": null, "province": 901, "district": 601, "zipcode": null, "telephone": null, "posDate": null, "destineTel": null, "togoTel": null, "trafficWay": null, "signBuilding": null, "businessArea": null, "selfRoom": null, "businessTime": null, "stall": null, "consume": null, "serviceFei": null, "favourable": null, "shopMemo": null, "appraise": null, "website": null, "memo": null, "payTypes": "\u6749\u5fb7\u5361", "shopTypes": "\u9910\u996e", "consumeTypes": null, "cookTypes": null, "orderNum": 1000, "card4no": null, "card4noAcc": null, "district2": 416, "searchScope": null, "status": 1, "address": "\u7261\u4e39\u6c5f\u8def1258\u53f7\u6613\u4e70\u5f97\u8d85\u5e021\u5c42", "name": "DQ \u4e0a\u6d77\u5b9d\u5c71\u5b89\u4fe1\u5e97", "id": 202207, "pageNo": 0, "pageCount": null, "pageSize": 10, "ids": null, "endTime": null, "startTime": null}, {"cardNumFive": null, "isSupportYj": null, "cityName": null, "districtName": null, "shopinfo": {"mid": "888888872300134", "good_flag": "2", "new_flag": "2", "short_name": "\u72ec\u9886\u7f8e\u5bb9\u7f8e\u53d1", "short_name_pinyin": "dulingmeirongmeifa", "status": null, "address": null, "name": null, "id": "31556"}, "mid": "888888872300134", "shopId": "31556", "netid": null, "province": 901, "district": 601, "zipcode": null, "telephone": null, "posDate": "20080611", "destineTel": null, "togoTel": null, "trafficWay": "\u516c\u4ea4776 \u5730\u94c1\u56db\u53f7\u7ebf", "signBuilding": null, "businessArea": null, "selfRoom": null, "businessTime": null, "stall": null, "consume": null, "serviceFei": null, "favourable": null, "shopMemo": null, "appraise": null, "website": null, "memo": null, "payTypes": "\u6749\u5fb7\u5361", "shopTypes": "\u7f8e\u5bb9\u7f8e\u53d1", "consumeTypes": null, "cookTypes": null, "orderNum": 1000, "card4no": null, "card4noAcc": null, "district2": 417, "searchScope": null, "status": 1, "address": "\u534e\u65b0\u8857509\u53f7", "name": "\u72ec\u9886\u7f8e\u5bb9\u7f8e\u53d1 \u534e\u65b0\u5e97", "id": 133774, "pageNo": 0, "pageCount": null, "pageSize": 10, "ids": null, "endTime": null, "startTime": null}, {"cardNumFive": null, "isSupportYj": null, "cityName": null, "districtName": null, "shopinfo": {"mid": "888888872300134", "good_flag": "2", "new_flag": "2", "short_name": "\u72ec\u9886\u7f8e\u5bb9\u7f8e\u53d1", "short_name_pinyin": "dulingmeirongmeifa", "status": null, "address": null, "name": null, "id": "31556"}, "mid": "888888872300134", "shopId": "31556", "netid": null, "province": 901, "district": 601, "zipcode": null, "telephone": null, "posDate": "20080612", "destineTel": null, "togoTel": null, "trafficWay": "\u516c\u4ea4748 \u5357\u4f58\u7ebf", "signBuilding": null, "businessArea": null, "selfRoom": null, "businessTime": null, "stall": null, "consume": null, "serviceFei": null, "favourable": null, "shopMemo": null, "appraise": null, "website": null, "memo": null, "payTypes": "\u6749\u5fb7\u5361", "shopTypes": "\u7f8e\u5bb9\u7f8e\u53d1", "consumeTypes": null, "cookTypes": null, "orderNum": 1000, "card4no": null, "card4noAcc": null, "district2": 412, "searchScope": null, "status": 1, "address": "\u4e5d\u4ead\u5927\u8857731\u53f7", "name": "\u72ec\u9886\u7f8e\u5bb9\u7f8e\u53d1 \u4e5d\u4ead\u5e97", "id": 133775, "pageNo": 0, "pageCount": null, "pageSize": 10, "ids": null, "endTime": null, "startTime": null}], "pageLimit": 1290, "size": 10}