{"pageCount": 1095, "count": 10942, "pageNo": 133, "subShopInfo": {"cardNumFive": "", "isSupportYj": "", "cityName": null, "districtName": null, "shopinfo": {"mid": null, "good_flag": null, "new_flag": null, "short_name": null, "short_name_pinyin": null, "status": null, "address": "", "name": "", "id": null}, "mid": null, "shopId": null, "netid": null, "province": 901, "district": null, "zipcode": null, "telephone": null, "posDate": null, "destineTel": null, "togoTel": null, "trafficWay": null, "signBuilding": null, "businessArea": null, "selfRoom": null, "businessTime": null, "stall": null, "consume": null, "serviceFei": null, "favourable": null, "shopMemo": "1", "appraise": null, "website": null, "memo": null, "payTypes": "", "shopTypes": "", "consumeTypes": null, "cookTypes": null, "orderNum": null, "card4no": null, "card4noAcc": null, "district2": null, "searchScope": null, "status": null, "address": "", "name": null, "id": null, "pageNo": 132, "pageCount": null, "pageSize": 10, "ids": null, "endTime": null, "startTime": null}, "list": [{"cardNumFive": null, "isSupportYj": null, "cityName": null, "districtName": null, "shopinfo": {"mid": "888002154620087", "good_flag": null, "new_flag": null, "short_name": "\u591a\u4e50\u4e4b\u65e5", "short_name_pinyin": "duolezhiri", "status": null, "address": null, "name": null, "id": "43416"}, "mid": "888002154620087", "shopId": "43416", "netid": null, "province": 901, "district": 601, "zipcode": null, "telephone": null, "posDate": null, "destineTel": null, "togoTel": null, "trafficWay": null, "signBuilding": null, "businessArea": null, "selfRoom": null, "businessTime": null, "stall": null, "consume": null, "serviceFei": null, "favourable": null, "shopMemo": null, "appraise": null, "website": null, "memo": null, "payTypes": "\u6749\u5fb7\u5361", "shopTypes": "\u9762\u5305\u897f\u997c", "consumeTypes": null, "cookTypes": null, "orderNum": 1000, "card4no": null, "card4noAcc": null, "district2": 405, "searchScope": null, "status": 1, "address": "\u771f\u5317\u8def818\u53f7N-B2-02-A+B", "name": "\u591a\u4e50\u4e4b\u65e5 \u771f\u5317\u8def\u5e97", "id": 195841, "pageNo": 0, "pageCount": null, "pageSize": 10, "ids": null, "endTime": null, "startTime": null}, {"cardNumFive": null, "isSupportYj": null, "cityName": null, "districtName": null, "shopinfo": {"mid": "888002154620097", "good_flag": null, "new_flag": null, "short_name": "\u591a\u4e50\u4e4b\u65e5", "short_name_pinyin": "duolezhiri", "status": null, "address": null, "name": null, "id": "43522"}, "mid": "888002154620097", "shopId": "43522", "netid": null, "province": 901, "district": 601, "zipcode": null, "telephone": null, "posDate": null, "destineTel": null, "togoTel": null, "trafficWay": null, "signBuilding": null, "businessArea": null, "selfRoom": null, "businessTime": null, "stall": null, "consume": null, "serviceFei": null, "favourable": null, "shopMemo": null, "appraise": null, "website": null, "memo": null, "payTypes": "\u6749\u5fb7\u5361", "shopTypes": "\u9762\u5305\u897f\u997c", "consumeTypes": null, "cookTypes": null, "orderNum": 1000, "card4no": null, "card4noAcc": null, "district2": 410, "searchScope": null, "status": 1, "address": "\u6c5f\u573a\u8def1228\u5f04\u4e0a\u6d77\u534f\u4fe1\u661f\u5149\u5e7f\u573a1\u5c42NL147\u53f7", "name": "\u591a\u4e50\u4e4b\u65e5 \u6c5f\u573a\u8def\u5e97", "id": 197158, "pageNo": 0, "pageCount": null, "pageSize": 10, "ids": null, "endTime": null, "startTime": null}, {"cardNumFive": null, "isSupportYj": null, "cityName": null, "districtName": null, "shopinfo": {"mid": "888002154620107", "good_flag": null, "new_flag": null, "short_name": "\u591a\u4e50\u4e4b\u65e5", "short_name_pinyin": "duolezhiri", "status": null, "address": null, "name": null, "id": "43563"}, "mid": "888002154620107", "shopId": "43563", "netid": null, "province": 901, "district": 601, "zipcode": null, "telephone": null, "posDate": null, "destineTel": null, "togoTel": null, "trafficWay": null, "signBuilding": null, "businessArea": null, "selfRoom": null, "businessTime": null, "stall": null, "consume": null, "serviceFei": null, "favourable": null, "shopMemo": null, "appraise": null, "website": null, "memo": null, "payTypes": "\u6749\u5fb7\u5361", "shopTypes": "\u9762\u5305\u897f\u997c", "consumeTypes": null, "cookTypes": null, "orderNum": 1000, "card4no": null, "card4noAcc": null, "district2": 407, "searchScope": null, "status": 1, "address": "\u5b81\u56fd\u8def218\u53f7\u7b2c1\u5c42G56-F01-1-025B\u5ba4", "name": "\u591a\u4e50\u4e4b\u65e5 \u5b81\u56fd\u8def\u5e97", "id": 197792, "pageNo": 0, "pageCount": null, "pageSize": 10, "ids": null, "endTime": null, "startTime": null}, {"cardNumFive": null, "isSupportYj": null, "cityName": null, "districtName": null, "shopinfo": {"mid": "888002154620104", "good_flag": null, "new_flag": null, "short_name": "\u591a\u4e50\u4e4b\u65e5", "short_name_pinyin": "duolezhiri", "status": null, "address": null, "name": null, "id": "43565"}, "mid": "888002154620104", "shopId": "43565", "netid": null, "province": 901, "district": 601, "zipcode": null, "telephone": null, "posDate": null, "destineTel": null, "togoTel": null, "trafficWay": null, "signBuilding": null, "businessArea": null, "selfRoom": null, "businessTime": null, "stall": null, "consume": null, "serviceFei": null, "favourable": null, "shopMemo": null, "appraise": null, "website": null, "memo": null, "payTypes": "\u6749\u5fb7\u5361", "shopTypes": "\u9762\u5305\u897f\u997c", "consumeTypes": null, "cookTypes": null, "orderNum": 1000, "card4no": null, "card4noAcc": null, "district2": 410, "searchScope": null, "status": 1, "address": "\u4e07\u8363\u8def1256-1258\u53f71\u5c42102\u5ba4", "name": "\u591a\u4e50\u4e4b\u65e5 \u4e07\u8363\u8def\u5e97", "id": 197829, "pageNo": 0, "pageCount": null, "pageSize": 10, "ids": null, "endTime": null, "startTime": null}, {"cardNumFive": null, "isSupportYj": null, "cityName": null, "districtName": null, "shopinfo": {"mid": "888002154620111", "good_flag": null, "new_flag": null, "short_name": "\u591a\u4e50\u4e4b\u65e5", "short_name_pinyin": "duolezhiri", "status": null, "address": null, "name": null, "id": "43595"}, "mid": "888002154620111", "shopId": "43595", "netid": null, "province": 901, "district": 601, "zipcode": null, "telephone": null, "posDate": null, "destineTel": null, "togoTel": null, "trafficWay": null, "signBuilding": null, "businessArea": null, "selfRoom": null, "businessTime": null, "stall": null, "consume": null, "serviceFei": null, "favourable": null, "shopMemo": null, "appraise": null, "website": null, "memo": null, "payTypes": "\u6749\u5fb7\u5361", "shopTypes": "\u9762\u5305\u897f\u997c", "consumeTypes": null, "cookTypes": null, "orderNum": 1000, "card4no": null, "card4noAcc": null, "district2": 412, "searchScope": null, "status": 1, "address": "\u677e\u6c47\u4e2d\u8def568\u53f7B\u5ea7115\u5355\u5143", "name": "\u591a\u4e50\u4e4b\u65e5 \u677e\u6c47\u4e2d\u8def\u5e97", "id": 198585, "pageNo": 0, "pageCount": null, "pageSize": 10, "ids": null, "endTime": null, "startTime": null}, {"cardNumFive": null, "isSupportYj": null, "cityName": null, "districtName": null, "shopinfo": {"mid": "888002154620110", "good_flag": null, "new_flag": null, "short_name": "\u591a\u4e50\u4e4b\u65e5", "short_name_pinyin": "duolezhiri", "status": null, "address": null, "name": null, "id": "43590"}, "mid": "888002154620110", "shopId": "43590", "netid": null, "province": 901, "district": 601, "zipcode": null, "telephone": null, "posDate": null, "destineTel": null, "togoTel": null, "trafficWay": null, "signBuilding": null, "businessArea": null, "selfRoom": null, "businessTime": null, "stall": null, "consume": null, "serviceFei": null, "favourable": null, "shopMemo": null, "appraise": null, "website": null, "memo": null, "payTypes": "\u6749\u5fb7\u5361", "shopTypes": "\u9762\u5305\u897f\u997c", "consumeTypes": null, "cookTypes": null, "orderNum": 1000, "card4no": null, "card4noAcc": null, "district2": 418, "searchScope": null, "status": 1, "address": "\u4e1c\u65b9\u8def1367\u53f7\u5bcc\u90fd\u5e7f\u573a\u4e00\u5c42L1-1B", "name": "\u591a\u4e50\u4e4b\u65e5 \u4e1c\u65b9\u8def\u5e97", "id": 198815, "pageNo": 0, "pageCount": null, "pageSize": 10, "ids": null, "endTime": null, "startTime": null}, {"cardNumFive": null, "isSupportYj": null, "cityName": null, "districtName": null, "shopinfo": {"mid": "888002154620113", "good_flag": null, "new_flag": null, "short_name": "\u591a\u4e50\u4e4b\u65e5", "short_name_pinyin": "duolezhiri", "status": null, "address": null, "name": null, "id": "43591"}, "mid": "888002154620113", "shopId": "43591", "netid": null, "province": 901, "district": 601, "zipcode": null, "telephone": null, "posDate": null, "destineTel": null, "togoTel": null, "trafficWay": null, "signBuilding": null, "businessArea": null, "selfRoom": null, "businessTime": null, "stall": null, "consume": null, "serviceFei": null, "favourable": null, "shopMemo": null, "appraise": null, "website": null, "memo": null, "payTypes": "\u6749\u5fb7\u5361", "shopTypes": "\u9762\u5305\u897f\u997c", "consumeTypes": null, "cookTypes": null, "orderNum": 1000, "card4no": null, "card4noAcc": null, "district2": 406, "searchScope": null, "status": 1, "address": "\u4ed9\u971e\u897f\u8def88\u53f71\u5c42G05-F01-1-102\u5ba4", "name": "\u591a\u4e50\u4e4b\u65e5 \u4ed9\u971e\u897f\u8def\u5e97", "id": 198831, "pageNo": 0, "pageCount": null, "pageSize": 10, "ids": null, "endTime": null, "startTime": null}, {"cardNumFive": null, "isSupportYj": null, "cityName": null, "districtName": null, "shopinfo": {"mid": "888002154620118", "good_flag": null, "new_flag": null, "short_name": "\u591a\u4e50\u4e4b\u65e5", "short_name_pinyin": "duolezhiri", "status": null, "address": null, "name": null, "id": "43882"}, "mid": "888002154620118", "shopId": "43882", "netid": null, "province": 901, "district": 601, "zipcode": null, "telephone": null, "posDate": null, "destineTel": null, "togoTel": null, "trafficWay": null, "signBuilding": null, "businessArea": null, "selfRoom": null, "businessTime": null, "stall": null, "consume": null, "serviceFei": null, "favourable": null, "shopMemo": null, "appraise": null, "website": null, "memo": null, "payTypes": "\u6749\u5fb7\u5361", "shopTypes": "\u9762\u5305\u897f\u997c", "consumeTypes": null, "cookTypes": null, "orderNum": 1000, "card4no": null, "card4noAcc": null, "district2": 406, "searchScope": null, "status": 1, "address": "\u8305\u53f0\u8def179\u53f7\u91d1\u8679\u6865L112\u5546\u94fa", "name": "\u591a\u4e50\u4e4b\u65e5 \u8305\u53f0\u8def\u5e97", "id": 202048, "pageNo": 0, "pageCount": null, "pageSize": 10, "ids": null, "endTime": null, "startTime": null}, {"cardNumFive": null, "isSupportYj": null, "cityName": null, "districtName": null, "shopinfo": {"mid": "888002154620119", "good_flag": null, "new_flag": null, "short_name": "\u591a\u4e50\u4e4b\u65e5", "short_name_pinyin": "duolezhiri", "status": null, "address": null, "name": null, "id": "43883"}, "mid": "888002154620119", "shopId": "43883", "netid": null, "province": 901, "district": 601, "zipcode": null, "telephone": null, "posDate": null, "destineTel": null, "togoTel": null, "trafficWay": null, "signBuilding": null, "businessArea": null, "selfRoom": null, "businessTime": null, "stall": null, "consume": null, "serviceFei": null, "favourable": null, "shopMemo": null, "appraise": null, "website": null, "memo": null, "payTypes": "\u6749\u5fb7\u5361", "shopTypes": "\u9762\u5305\u897f\u997c", "consumeTypes": null, "cookTypes": null, "orderNum": 1000, "card4no": null, "card4noAcc": null, "district2": 406, "searchScope": null, "status": 1, "address": "\u6c34\u57ce\u5357\u8def268\u53f7\u53e4\u5317\u5bb6\u4e50\u798f\u4e00\u5c42GB-37\u5546\u94fa", "name": "\u591a\u4e50\u4e4b\u65e5 \u53e4\u5317\u5bb6\u4e50\u798f\u5e97", "id": 202051, "pageNo": 0, "pageCount": null, "pageSize": 10, "ids": null, "endTime": null, "startTime": null}, {"cardNumFive": null, "isSupportYj": null, "cityName": null, "districtName": null, "shopinfo": {"mid": "888002154620117", "good_flag": null, "new_flag": null, "short_name": "\u591a\u4e50\u4e4b\u65e5", "short_name_pinyin": "duolezhiri", "status": null, "address": null, "name": null, "id": "43886"}, "mid": "888002154620117", "shopId": "43886", "netid": null, "province": 901, "district": 601, "zipcode": null, "telephone": null, "posDate": null, "destineTel": null, "togoTel": null, "trafficWay": null, "signBuilding": null, "businessArea": null, "selfRoom": null, "businessTime": null, "stall": null, "consume": null, "serviceFei": null, "favourable": null, "shopMemo": null, "appraise": null, "website": null, "memo": null, "payTypes": "\u6749\u5fb7\u5361", "shopTypes": "\u9762\u5305\u897f\u997c", "consumeTypes": null, "cookTypes": null, "orderNum": 1000, "card4no": null, "card4noAcc": null, "district2": 409, "searchScope": null, "status": 1, "address": "\u6f15\u5b9d\u8def3366\u53f7\u4e0a\u6d77\u4e03\u5b9d\u4e07\u79d1\u5e7f\u573a\u5546\u573a1\u5c42L151C", "name": "\u591a\u4e50\u4e4b\u65e5 \u4e03\u5b9d\u4e07\u79d1\u5e97", "id": 202080, "pageNo": 0, "pageCount": null, "pageSize": 10, "ids": null, "endTime": null, "startTime": null}], "pageLimit": 1320, "size": 10}