{"pageCount": 1095, "count": 10942, "pageNo": 134, "subShopInfo": {"cardNumFive": "", "isSupportYj": "", "cityName": null, "districtName": null, "shopinfo": {"mid": null, "good_flag": null, "new_flag": null, "short_name": null, "short_name_pinyin": null, "status": null, "address": "", "name": "", "id": null}, "mid": null, "shopId": null, "netid": null, "province": 901, "district": null, "zipcode": null, "telephone": null, "posDate": null, "destineTel": null, "togoTel": null, "trafficWay": null, "signBuilding": null, "businessArea": null, "selfRoom": null, "businessTime": null, "stall": null, "consume": null, "serviceFei": null, "favourable": null, "shopMemo": "1", "appraise": null, "website": null, "memo": null, "payTypes": "", "shopTypes": "", "consumeTypes": null, "cookTypes": null, "orderNum": null, "card4no": null, "card4noAcc": null, "district2": null, "searchScope": null, "status": null, "address": "", "name": null, "id": null, "pageNo": 133, "pageCount": null, "pageSize": 10, "ids": null, "endTime": null, "startTime": null}, "list": [{"cardNumFive": null, "isSupportYj": null, "cityName": null, "districtName": null, "shopinfo": {"mid": "888002154620123", "good_flag": null, "new_flag": null, "short_name": "\u591a\u4e50\u4e4b\u65e5", "short_name_pinyin": "duolezhiri", "status": null, "address": null, "name": null, "id": "43893"}, "mid": "888002154620123", "shopId": "43893", "netid": null, "province": 901, "district": 601, "zipcode": null, "telephone": null, "posDate": null, "destineTel": null, "togoTel": null, "trafficWay": null, "signBuilding": null, "businessArea": null, "selfRoom": null, "businessTime": null, "stall": null, "consume": null, "serviceFei": null, "favourable": null, "shopMemo": null, "appraise": null, "website": null, "memo": null, "payTypes": "\u6749\u5fb7\u5361", "shopTypes": "\u9762\u5305\u897f\u997c", "consumeTypes": null, "cookTypes": null, "orderNum": 1000, "card4no": null, "card4noAcc": null, "district2": 418, "searchScope": null, "status": 1, "address": "\u82b3\u7538\u8def258\u5f0433\u53f7", "name": "\u591a\u4e50\u4e4b\u65e5 \u82b3\u7538\u8def\u5e97", "id": 202225, "pageNo": 0, "pageCount": null, "pageSize": 10, "ids": null, "endTime": null, "startTime": null}, {"cardNumFive": null, "isSupportYj": null, "cityName": null, "districtName": null, "shopinfo": {"mid": "888002154620115", "good_flag": null, "new_flag": null, "short_name": "\u591a\u4e50\u4e4b\u65e5", "short_name_pinyin": "duolezhiri", "status": null, "address": null, "name": null, "id": "43894"}, "mid": "888002154620115", "shopId": "43894", "netid": null, "province": 901, "district": 601, "zipcode": null, "telephone": null, "posDate": null, "destineTel": null, "togoTel": null, "trafficWay": null, "signBuilding": null, "businessArea": null, "selfRoom": null, "businessTime": null, "stall": null, "consume": null, "serviceFei": null, "favourable": null, "shopMemo": null, "appraise": null, "website": null, "memo": null, "payTypes": "\u6749\u5fb7\u5361", "shopTypes": "\u9762\u5305\u897f\u997c", "consumeTypes": null, "cookTypes": null, "orderNum": 1000, "card4no": null, "card4noAcc": null, "district2": 418, "searchScope": null, "status": 1, "address": "\u4e01\u9999\u8def880\u5f04\u4e01\u9999\u56fd\u9645\u5546\u4e1a\u4e2d\u5fc3L111-2\u5355\u5143", "name": "\u591a\u4e50\u4e4b\u65e5 \u4e01\u9999\u8def\u5e97", "id": 202226, "pageNo": 0, "pageCount": null, "pageSize": 10, "ids": null, "endTime": null, "startTime": null}, {"cardNumFive": null, "isSupportYj": null, "cityName": null, "districtName": null, "shopinfo": {"mid": "888002154620127", "good_flag": null, "new_flag": null, "short_name": "\u591a\u4e50\u4e4b\u65e5", "short_name_pinyin": "duolezhiri", "status": null, "address": null, "name": null, "id": "43897"}, "mid": "888002154620127", "shopId": "43897", "netid": null, "province": 901, "district": 601, "zipcode": null, "telephone": null, "posDate": null, "destineTel": null, "togoTel": null, "trafficWay": null, "signBuilding": null, "businessArea": null, "selfRoom": null, "businessTime": null, "stall": null, "consume": null, "serviceFei": null, "favourable": null, "shopMemo": null, "appraise": null, "website": null, "memo": null, "payTypes": "\u6749\u5fb7\u5361", "shopTypes": "\u9762\u5305\u897f\u997c", "consumeTypes": null, "cookTypes": null, "orderNum": 1000, "card4no": null, "card4noAcc": null, "district2": 416, "searchScope": null, "status": 1, "address": "\u957f\u6c5f\u897f\u8def2211\u53f7\u6613\u4e70\u5f97\u8d85\u5e021\u697cA-69\u53f7\u5546\u94fa", "name": "\u591a\u4e50\u4e4b\u65e5 \u957f\u6c5f\u897f\u8def\u5e97", "id": 202256, "pageNo": 0, "pageCount": null, "pageSize": 10, "ids": null, "endTime": null, "startTime": null}, {"cardNumFive": null, "isSupportYj": null, "cityName": null, "districtName": null, "shopinfo": {"mid": "888002154620141", "good_flag": "2", "new_flag": "2", "short_name": "\u591a\u4e50\u4e4b\u65e5", "short_name_pinyin": "duolezhiri", "status": null, "address": null, "name": null, "id": "418057310082957312"}, "mid": "888002154620141", "shopId": "418057310082957312", "netid": null, "province": 901, "district": 601, "zipcode": null, "telephone": null, "posDate": null, "destineTel": null, "togoTel": null, "trafficWay": null, "signBuilding": null, "businessArea": null, "selfRoom": null, "businessTime": null, "stall": null, "consume": null, "serviceFei": null, "favourable": null, "shopMemo": null, "appraise": null, "website": null, "memo": null, "payTypes": "\u6749\u5fb7\u5361,", "shopTypes": "\u9762\u5305\u897f\u997c", "consumeTypes": null, "cookTypes": null, "orderNum": null, "card4no": null, "card4noAcc": null, "district2": 409, "searchScope": null, "status": 1, "address": "\u9e64\u5e86\u8def900\u53f71\u53f7\u697c1075\u30011077\u5ba4", "name": "\u9e64\u5e86\u8def\u5206\u5e97", "id": 418057308900163584, "pageNo": 0, "pageCount": null, "pageSize": 10, "ids": null, "endTime": null, "startTime": null}, {"cardNumFive": null, "isSupportYj": null, "cityName": null, "districtName": null, "shopinfo": {"mid": "888002154620143", "good_flag": "2", "new_flag": "2", "short_name": "\u591a\u4e50\u4e4b\u65e5", "short_name_pinyin": "duolezhiri", "status": null, "address": null, "name": null, "id": "418057312352075776"}, "mid": "888002154620143", "shopId": "418057312352075776", "netid": null, "province": 901, "district": 601, "zipcode": null, "telephone": null, "posDate": null, "destineTel": null, "togoTel": null, "trafficWay": null, "signBuilding": null, "businessArea": null, "selfRoom": null, "businessTime": null, "stall": null, "consume": null, "serviceFei": null, "favourable": null, "shopMemo": null, "appraise": null, "website": null, "memo": null, "payTypes": "\u6749\u5fb7\u5361,", "shopTypes": "\u9762\u5305\u897f\u997c", "consumeTypes": null, "cookTypes": null, "orderNum": null, "card4no": null, "card4noAcc": null, "district2": 418, "searchScope": null, "status": 1, "address": "\u9646\u5bb6\u5634\u73af\u8def1318\u53f7\u5730\u4e0b\u4e00\u5c4204\u5355\u5143", "name": "\u9646\u5bb6\u5634\u73af\u8def\u5e97", "id": 418057311123144704, "pageNo": 0, "pageCount": null, "pageSize": 10, "ids": null, "endTime": null, "startTime": null}, {"cardNumFive": null, "isSupportYj": null, "cityName": null, "districtName": null, "shopinfo": {"mid": "888002154620142", "good_flag": "2", "new_flag": "2", "short_name": "\u591a\u4e50\u4e4b\u65e5", "short_name_pinyin": "duolezhiri", "status": null, "address": null, "name": null, "id": "418057319406895104"}, "mid": "888002154620142", "shopId": "418057319406895104", "netid": null, "province": 901, "district": 601, "zipcode": null, "telephone": null, "posDate": null, "destineTel": null, "togoTel": null, "trafficWay": null, "signBuilding": null, "businessArea": null, "selfRoom": null, "businessTime": null, "stall": null, "consume": null, "serviceFei": null, "favourable": null, "shopMemo": null, "appraise": null, "website": null, "memo": null, "payTypes": "\u6749\u5fb7\u5361,", "shopTypes": "\u9762\u5305\u897f\u997c", "consumeTypes": null, "cookTypes": null, "orderNum": null, "card4no": null, "card4noAcc": null, "district2": 409, "searchScope": null, "status": 1, "address": "\u9648\u884c\u516c\u8def2688\u53f7110-111\u5ba4", "name": "\u9648\u884c\u516c\u8def\u5206\u5e97", "id": 418057318228295680, "pageNo": 0, "pageCount": null, "pageSize": 10, "ids": null, "endTime": null, "startTime": null}, {"cardNumFive": null, "isSupportYj": null, "cityName": null, "districtName": null, "shopinfo": {"mid": "888002154620145", "good_flag": "2", "new_flag": "2", "short_name": "\u591a\u4e50\u4e4b\u65e5", "short_name_pinyin": "duolezhiri", "status": null, "address": null, "name": null, "id": "418057377728692224"}, "mid": "888002154620145", "shopId": "418057377728692224", "netid": null, "province": 901, "district": 601, "zipcode": null, "telephone": null, "posDate": null, "destineTel": null, "togoTel": null, "trafficWay": null, "signBuilding": null, "businessArea": null, "selfRoom": null, "businessTime": null, "stall": null, "consume": null, "serviceFei": null, "favourable": null, "shopMemo": null, "appraise": null, "website": null, "memo": null, "payTypes": "\u6749\u5fb7\u5361,", "shopTypes": "\u9762\u5305\u897f\u997c", "consumeTypes": null, "cookTypes": null, "orderNum": null, "card4no": null, "card4noAcc": null, "district2": 416, "searchScope": null, "status": 1, "address": "\u4e39\u971e\u5c71\u8def50\u5f041\u53f7", "name": "\u4e39\u971e\u5c71\u8def\u5206\u5e97", "id": 418057376499761152, "pageNo": 0, "pageCount": null, "pageSize": 10, "ids": null, "endTime": null, "startTime": null}, {"cardNumFive": null, "isSupportYj": null, "cityName": null, "districtName": null, "shopinfo": {"mid": "888002154620124", "good_flag": "2", "new_flag": "2", "short_name": "\u591a\u4e50\u4e4b\u65e5", "short_name_pinyin": "duolezhiri", "status": null, "address": null, "name": null, "id": "423171648133267456"}, "mid": "888002154620124", "shopId": "423171648133267456", "netid": null, "province": 901, "district": 601, "zipcode": null, "telephone": null, "posDate": null, "destineTel": null, "togoTel": null, "trafficWay": null, "signBuilding": null, "businessArea": null, "selfRoom": null, "businessTime": null, "stall": null, "consume": null, "serviceFei": null, "favourable": null, "shopMemo": null, "appraise": null, "website": null, "memo": null, "payTypes": "\u6749\u5fb7\u5361,", "shopTypes": "\u9762\u5305\u897f\u997c", "consumeTypes": null, "cookTypes": null, "orderNum": null, "card4no": null, "card4noAcc": null, "district2": 409, "searchScope": null, "status": 1, "address": "\u7533\u957f\u8def988\u5f04\u4e00\u697cT7-102A\u5355\u5143 CJ\u5927\u697c\u4e00\u697c", "name": "\u7533\u957f\u8def\u5e97", "id": 423171646476517376, "pageNo": 0, "pageCount": null, "pageSize": 10, "ids": null, "endTime": null, "startTime": null}, {"cardNumFive": null, "isSupportYj": null, "cityName": null, "districtName": null, "shopinfo": {"mid": "888002154620102", "good_flag": null, "new_flag": null, "short_name": "\u591a\u4e50\u4e4b\u65e5", "short_name_pinyin": "duolezzhiri", "status": null, "address": null, "name": null, "id": "43523"}, "mid": "888002154620102", "shopId": "43523", "netid": null, "province": 901, "district": 601, "zipcode": null, "telephone": null, "posDate": null, "destineTel": null, "togoTel": null, "trafficWay": null, "signBuilding": null, "businessArea": null, "selfRoom": null, "businessTime": null, "stall": null, "consume": null, "serviceFei": null, "favourable": null, "shopMemo": null, "appraise": null, "website": null, "memo": null, "payTypes": "\u6749\u5fb7\u5361", "shopTypes": "\u9762\u5305\u897f\u997c", "consumeTypes": null, "cookTypes": null, "orderNum": 1000, "card4no": null, "card4noAcc": null, "district2": 407, "searchScope": null, "status": 1, "address": "\u6c5f\u6e7e\u57ce\u8def99\u53f7\u5c1a\u6d66\u5546\u52a1\u4e2d\u5fc35\u680b\u4e00\u697c104A\u5ba4", "name": "\u591a\u4e50\u4e4b\u65e5 \u6c5f\u6e7e\u57ce\u8def\u5e97", "id": 197176, "pageNo": 0, "pageCount": null, "pageSize": 10, "ids": null, "endTime": null, "startTime": null}, {"cardNumFive": null, "isSupportYj": null, "cityName": null, "districtName": null, "shopinfo": {"mid": "888002153111105", "good_flag": "2", "new_flag": "1", "short_name": "\u591a\u6837\u5c4b", "short_name_pinyin": "duoyangwu", "status": null, "address": null, "name": null, "id": "31563"}, "mid": "888002153111105", "shopId": "31563", "netid": null, "province": 901, "district": 601, "zipcode": null, "telephone": null, "posDate": "20100223", "destineTel": null, "togoTel": null, "trafficWay": null, "signBuilding": null, "businessArea": null, "selfRoom": null, "businessTime": null, "stall": null, "consume": null, "serviceFei": null, "favourable": null, "shopMemo": null, "appraise": null, "website": null, "memo": null, "payTypes": "\u6749\u5fb7\u5361", "shopTypes": "\u96f6\u552e", "consumeTypes": null, "cookTypes": null, "orderNum": 1000, "card4no": null, "card4noAcc": null, "district2": 418, "searchScope": null, "status": 1, "address": "\u6d66\u4e1c\u65b0\u533a\u5f20\u6768\u8def3611\u5f04A-1-146", "name": "\u591a\u6837\u5c4b \u91d1\u6865\u5e97", "id": 133785, "pageNo": 0, "pageCount": null, "pageSize": 10, "ids": null, "endTime": null, "startTime": null}], "pageLimit": 1330, "size": 10}