{"pageCount": 1095, "count": 10942, "pageNo": 138, "subShopInfo": {"cardNumFive": "", "isSupportYj": "", "cityName": null, "districtName": null, "shopinfo": {"mid": null, "good_flag": null, "new_flag": null, "short_name": null, "short_name_pinyin": null, "status": null, "address": "", "name": "", "id": null}, "mid": null, "shopId": null, "netid": null, "province": 901, "district": null, "zipcode": null, "telephone": null, "posDate": null, "destineTel": null, "togoTel": null, "trafficWay": null, "signBuilding": null, "businessArea": null, "selfRoom": null, "businessTime": null, "stall": null, "consume": null, "serviceFei": null, "favourable": null, "shopMemo": "1", "appraise": null, "website": null, "memo": null, "payTypes": "", "shopTypes": "", "consumeTypes": null, "cookTypes": null, "orderNum": null, "card4no": null, "card4noAcc": null, "district2": null, "searchScope": null, "status": null, "address": "", "name": null, "id": null, "pageNo": 137, "pageCount": null, "pageSize": 10, "ids": null, "endTime": null, "startTime": null}, "list": [{"cardNumFive": null, "isSupportYj": null, "cityName": null, "districtName": null, "shopinfo": {"mid": "888888856910069", "good_flag": "2", "new_flag": "2", "short_name": "\u68b5\u4e1d\u5185\u633a\u5185\u8863", "short_name_pinyin": "fansineitingneiyi", "status": null, "address": null, "name": null, "id": "31580"}, "mid": "888888856910069", "shopId": "31580", "netid": null, "province": 901, "district": 601, "zipcode": null, "telephone": "50702032", "posDate": "20071023", "destineTel": null, "togoTel": null, "trafficWay": "\u96a7\u9053\u516d\u7ebf \u4e0a\u5ddd\u7ebf \u516c\u4ea4785", "signBuilding": null, "businessArea": null, "selfRoom": null, "businessTime": "7:00~23:00", "stall": "\u65e0", "consume": null, "serviceFei": null, "favourable": null, "shopMemo": null, "appraise": null, "website": null, "memo": null, "payTypes": ",\u6749\u5fb7\u5361", "shopTypes": "\u4e13\u5356", "consumeTypes": null, "cookTypes": null, "orderNum": 1000, "card4no": null, "card4noAcc": null, "district2": 418, "searchScope": null, "status": 1, "address": "\u91d1\u6768\u8def659\u53f7", "name": "\u68b5\u4e1d\u5185\u633a\u5185\u8863 \u91d1\u6768\u5e97", "id": 133829, "pageNo": 0, "pageCount": null, "pageSize": 10, "ids": null, "endTime": null, "startTime": null}, {"cardNumFive": null, "isSupportYj": null, "cityName": null, "districtName": null, "shopinfo": {"mid": "888888856910069", "good_flag": "2", "new_flag": "2", "short_name": "\u68b5\u4e1d\u5185\u633a\u5185\u8863", "short_name_pinyin": "fansineitingneiyi", "status": null, "address": null, "name": null, "id": "31580"}, "mid": "888888856910069", "shopId": "31580", "netid": null, "province": 901, "district": 601, "zipcode": null, "telephone": "54704101", "posDate": "20070904", "destineTel": null, "togoTel": null, "trafficWay": "\u5f90\u95f5\u7ebf \u4e1c\u576a\u7ebf \u5730\u94c1\u4e00\u53f7\u7ebf", "signBuilding": null, "businessArea": null, "selfRoom": null, "businessTime": "7:00~23:00", "stall": "\u65e0", "consume": "50\u5143", "serviceFei": null, "favourable": null, "shopMemo": "\u54c1\u724c\u5185\u8863\u8fde\u9501", "appraise": null, "website": null, "memo": null, "payTypes": "\u6749\u5fb7\u5361", "shopTypes": "\u4e13\u5356", "consumeTypes": null, "cookTypes": null, "orderNum": 1000, "card4no": null, "card4noAcc": null, "district2": 409, "searchScope": null, "status": 1, "address": "\u6caa\u95f5\u8def131\u53f7\u597d\u53c8\u591a\u5927\u5356\u573a1\u697c", "name": "\u68b5\u4e1d\u5185\u633a\u5185\u8863 \u95f5\u884c\u5e97", "id": 133830, "pageNo": 0, "pageCount": null, "pageSize": 10, "ids": null, "endTime": null, "startTime": null}, {"cardNumFive": null, "isSupportYj": null, "cityName": null, "districtName": null, "shopinfo": {"mid": "888888856910069", "good_flag": "2", "new_flag": "2", "short_name": "\u68b5\u4e1d\u5185\u633a\u5185\u8863", "short_name_pinyin": "fansineitingneiyi", "status": null, "address": null, "name": null, "id": "31580"}, "mid": "888888856910069", "shopId": "31580", "netid": null, "province": 901, "district": 601, "zipcode": null, "telephone": "63582563", "posDate": "20070919", "destineTel": null, "togoTel": null, "trafficWay": "\u5730\u94c1\u4e00\u53f7\u7ebf \u516c\u4ea449", "signBuilding": "\u4eba\u6c11\u5e7f\u573a", "businessArea": null, "selfRoom": "\u65e0", "businessTime": "7:00~23:00", "stall": "\u65e0", "consume": "50\u5143", "serviceFei": null, "favourable": null, "shopMemo": "\u54c1\u724c\u5185\u8863\u8fde\u9501", "appraise": null, "website": null, "memo": null, "payTypes": "\u6749\u5fb7\u5361", "shopTypes": "\u4e13\u5356", "consumeTypes": null, "cookTypes": null, "orderNum": 1000, "card4no": null, "card4noAcc": null, "district2": 401, "searchScope": null, "status": 1, "address": "\u4eba\u6c11\u5e7f\u573a\u540d\u5e97\u885788\u53f7", "name": "\u68b5\u4e1d\u5185\u633a\u5185\u8863 \u540d\u5e97\u8857", "id": 133831, "pageNo": 0, "pageCount": null, "pageSize": 10, "ids": null, "endTime": null, "startTime": null}, {"cardNumFive": null, "isSupportYj": null, "cityName": null, "districtName": null, "shopinfo": {"mid": "888888856910069", "good_flag": "2", "new_flag": "2", "short_name": "\u68b5\u4e1d\u5185\u633a\u5185\u8863", "short_name_pinyin": "fansineitingneiyi", "status": null, "address": null, "name": null, "id": "31580"}, "mid": "888888856910069", "shopId": "31580", "netid": null, "province": 901, "district": 601, "zipcode": null, "telephone": "56166057", "posDate": "20070906", "destineTel": null, "togoTel": null, "trafficWay": "\u65c5\u6e385\u53f7\u7ebf \u5b9d\u5c711\u8def", "signBuilding": null, "businessArea": null, "selfRoom": null, "businessTime": "7:00~23:00", "stall": "\u65e0", "consume": "50\u5143", "serviceFei": null, "favourable": null, "shopMemo": "\u54c1\u724c\u5185\u8863\u8fde\u9501", "appraise": null, "website": null, "memo": null, "payTypes": "\u6749\u5fb7\u5361", "shopTypes": "\u4e13\u5356", "consumeTypes": null, "cookTypes": null, "orderNum": 1000, "card4no": null, "card4noAcc": null, "district2": 416, "searchScope": null, "status": 1, "address": "\u7261\u4e39\u6c5f\u8def298\u53f7\u519c\u5de5\u5546\u8d85\u5e021\u697c", "name": "\u68b5\u4e1d\u5185\u633a\u5185\u8863 \u7261\u4e39\u6c5f1\u5e97", "id": 133832, "pageNo": 0, "pageCount": null, "pageSize": 10, "ids": null, "endTime": null, "startTime": null}, {"cardNumFive": null, "isSupportYj": null, "cityName": null, "districtName": null, "shopinfo": {"mid": "888888856910069", "good_flag": "2", "new_flag": "2", "short_name": "\u68b5\u4e1d\u5185\u633a\u5185\u8863", "short_name_pinyin": "fansineitingneiyi", "status": null, "address": null, "name": null, "id": "31580"}, "mid": "888888856910069", "shopId": "31580", "netid": null, "province": 901, "district": 601, "zipcode": null, "telephone": "68032263", "posDate": "20070905", "destineTel": null, "togoTel": null, "trafficWay": "\u65c5\u6e382\u53f7\u7ebf \u60e0\u677e\u7ebf", "signBuilding": null, "businessArea": null, "selfRoom": null, "businessTime": "7:00~23:00", "stall": "\u65e0", "consume": "50\u5143", "serviceFei": null, "favourable": null, "shopMemo": "\u54c1\u724c\u5185\u8863\u8fde\u9501", "appraise": null, "website": null, "memo": null, "payTypes": "\u6749\u5fb7\u5361", "shopTypes": "\u4e13\u5356", "consumeTypes": null, "cookTypes": null, "orderNum": 1000, "card4no": null, "card4noAcc": null, "district2": 418, "searchScope": null, "status": 1, "address": "\u60e0\u5357\u9547\u4e1c\u95e8\u5927\u8857245\u53f7", "name": "\u68b5\u4e1d\u5185\u633a\u5185\u8863 \u5357\u6c47\u5e97", "id": 133834, "pageNo": 0, "pageCount": null, "pageSize": 10, "ids": null, "endTime": null, "startTime": null}, {"cardNumFive": null, "isSupportYj": null, "cityName": null, "districtName": null, "shopinfo": {"mid": "888888856910069", "good_flag": "2", "new_flag": "2", "short_name": "\u68b5\u4e1d\u5185\u633a\u5185\u8863", "short_name_pinyin": "fansineitingneiyi", "status": null, "address": null, "name": null, "id": "31580"}, "mid": "888888856910069", "shopId": "31580", "netid": null, "province": 901, "district": 601, "zipcode": null, "telephone": "57183070", "posDate": "20070914", "destineTel": null, "togoTel": null, "trafficWay": "\u9f99\u90b5\u4e13\u7ebf \u4e0a\u90b5\u7ebf \u8398\u56e2\u7ebf", "signBuilding": null, "businessArea": null, "selfRoom": "\u65e0", "businessTime": "7:00~23:00", "stall": "\u65e0", "consume": "50\u5143", "serviceFei": null, "favourable": null, "shopMemo": "\u54c1\u724c\u5185\u8863\u8fde\u9501", "appraise": null, "website": null, "memo": null, "payTypes": "\u6749\u5fb7\u5361", "shopTypes": "\u4e13\u5356", "consumeTypes": null, "cookTypes": null, "orderNum": 1000, "card4no": null, "card4noAcc": null, "district2": 413, "searchScope": null, "status": 1, "address": "\u4eba\u6c11\u4e2d\u8def63\u53f7", "name": "\u68b5\u4e1d\u5185\u633a\u5185\u8863 \u5357\u6865\u5e97", "id": 133835, "pageNo": 0, "pageCount": null, "pageSize": 10, "ids": null, "endTime": null, "startTime": null}, {"cardNumFive": null, "isSupportYj": null, "cityName": null, "districtName": null, "shopinfo": {"mid": "888888856910069", "good_flag": "2", "new_flag": "2", "short_name": "\u68b5\u4e1d\u5185\u633a\u5185\u8863", "short_name_pinyin": "fansineitingneiyi", "status": null, "address": null, "name": null, "id": "31580"}, "mid": "888888856910069", "shopId": "31580", "netid": null, "province": 901, "district": 601, "zipcode": null, "telephone": null, "posDate": "20070914", "destineTel": null, "togoTel": null, "trafficWay": "\u6caa\u677e\u7ebf \u5929\u6885\u7ebf", "signBuilding": null, "businessArea": null, "selfRoom": null, "businessTime": "7:00~23:00", "stall": null, "consume": null, "serviceFei": null, "favourable": null, "shopMemo": null, "appraise": null, "website": null, "memo": null, "payTypes": "\u6749\u5fb7\u5361", "shopTypes": "\u4e13\u5356", "consumeTypes": null, "cookTypes": null, "orderNum": 1000, "card4no": null, "card4noAcc": null, "district2": 409, "searchScope": null, "status": 1, "address": "\u4e03\u5b9d\u9547\u9752\u5e74\u8def259\u53f7", "name": "\u68b5\u4e1d\u5185\u633a\u5185\u8863 \u4e03\u5b9d\u5e97", "id": 133836, "pageNo": 0, "pageCount": null, "pageSize": 10, "ids": null, "endTime": null, "startTime": null}, {"cardNumFive": null, "isSupportYj": null, "cityName": null, "districtName": null, "shopinfo": {"mid": "888888856910069", "good_flag": "2", "new_flag": "2", "short_name": "\u68b5\u4e1d\u5185\u633a\u5185\u8863", "short_name_pinyin": "fansineitingneiyi", "status": null, "address": null, "name": null, "id": "31580"}, "mid": "888888856910069", "shopId": "31580", "netid": null, "province": 901, "district": 601, "zipcode": null, "telephone": "57937210", "posDate": "20070905", "destineTel": null, "togoTel": null, "trafficWay": "\u65c5\u6e384\u53f7\u7ebf \u77f3\u9752\u7ebf", "signBuilding": null, "businessArea": null, "selfRoom": null, "businessTime": "7:00~23:00", "stall": "\u65e0", "consume": "50\u5143", "serviceFei": null, "favourable": null, "shopMemo": "\u54c1\u724c\u5185\u8863\u8fde\u9501", "appraise": null, "website": null, "memo": null, "payTypes": "\u6749\u5fb7\u5361", "shopTypes": "\u4e13\u5356", "consumeTypes": null, "cookTypes": null, "orderNum": 1000, "card4no": null, "card4noAcc": null, "district2": 417, "searchScope": null, "status": 1, "address": "\u57ce\u4e2d\u5357\u8def505\u53f7", "name": "\u68b5\u4e1d\u5185\u633a\u5185\u8863 \u9752\u6d661\u5e97", "id": 133837, "pageNo": 0, "pageCount": null, "pageSize": 10, "ids": null, "endTime": null, "startTime": null}, {"cardNumFive": null, "isSupportYj": null, "cityName": null, "districtName": null, "shopinfo": {"mid": "888888856910069", "good_flag": "2", "new_flag": "2", "short_name": "\u68b5\u4e1d\u5185\u633a\u5185\u8863", "short_name_pinyin": "fansineitingneiyi", "status": null, "address": null, "name": null, "id": "31580"}, "mid": "888888856910069", "shopId": "31580", "netid": null, "province": 901, "district": 601, "zipcode": null, "telephone": "58957846", "posDate": "20070905", "destineTel": null, "togoTel": null, "trafficWay": "\u65c5\u6e384\u53f7\u7ebf \u77f3\u9752\u7ebf", "signBuilding": null, "businessArea": null, "selfRoom": null, "businessTime": "7:00~23:00", "stall": "\u65e0", "consume": "50\u5143", "serviceFei": null, "favourable": null, "shopMemo": "\u54c1\u724c\u5185\u8863\u8fde\u9501", "appraise": null, "website": null, "memo": null, "payTypes": "\u6749\u5fb7\u5361", "shopTypes": "\u4e13\u5356", "consumeTypes": null, "cookTypes": null, "orderNum": 1000, "card4no": null, "card4noAcc": null, "district2": 417, "searchScope": null, "status": 1, "address": "\u57ce\u4e2d\u5357\u8def433\u53f7", "name": "\u68b5\u4e1d\u5185\u633a\u5185\u8863 \u9752\u6d662\u5e97", "id": 133838, "pageNo": 0, "pageCount": null, "pageSize": 10, "ids": null, "endTime": null, "startTime": null}, {"cardNumFive": null, "isSupportYj": null, "cityName": null, "districtName": null, "shopinfo": {"mid": "888888856910069", "good_flag": "2", "new_flag": "2", "short_name": "\u68b5\u4e1d\u5185\u633a\u5185\u8863", "short_name_pinyin": "fansineitingneiyi", "status": null, "address": null, "name": null, "id": "31580"}, "mid": "888888856910069", "shopId": "31580", "netid": null, "province": 901, "district": 601, "zipcode": null, "telephone": null, "posDate": "20070914", "destineTel": null, "togoTel": null, "trafficWay": "\u5730\u94c1\u4e8c\u53f7\u7ebf \u516c\u4ea4985", "signBuilding": null, "businessArea": null, "selfRoom": null, "businessTime": "7:00~23:00", "stall": "\u65e0", "consume": "50\u5143", "serviceFei": null, "favourable": null, "shopMemo": "\u54c1\u724c\u5185\u8863\u8fde\u9501", "appraise": null, "website": null, "memo": null, "payTypes": "\u6749\u5fb7\u5361", "shopTypes": "\u4e13\u5356", "consumeTypes": null, "cookTypes": null, "orderNum": 1000, "card4no": null, "card4noAcc": null, "district2": 418, "searchScope": null, "status": 1, "address": "\u4e73\u5c71\u8def76\u53f7", "name": "\u68b5\u4e1d\u5185\u633a\u5185\u8863 \u4e73\u5c71\u5e97", "id": 133839, "pageNo": 0, "pageCount": null, "pageSize": 10, "ids": null, "endTime": null, "startTime": null}], "pageLimit": 1370, "size": 10}