{"pageCount": 1095, "count": 10942, "pageNo": 136, "subShopInfo": {"cardNumFive": "", "isSupportYj": "", "cityName": null, "districtName": null, "shopinfo": {"mid": null, "good_flag": null, "new_flag": null, "short_name": null, "short_name_pinyin": null, "status": null, "address": "", "name": "", "id": null}, "mid": null, "shopId": null, "netid": null, "province": 901, "district": null, "zipcode": null, "telephone": null, "posDate": null, "destineTel": null, "togoTel": null, "trafficWay": null, "signBuilding": null, "businessArea": null, "selfRoom": null, "businessTime": null, "stall": null, "consume": null, "serviceFei": null, "favourable": null, "shopMemo": "1", "appraise": null, "website": null, "memo": null, "payTypes": "", "shopTypes": "", "consumeTypes": null, "cookTypes": null, "orderNum": null, "card4no": null, "card4noAcc": null, "district2": null, "searchScope": null, "status": null, "address": "", "name": null, "id": null, "pageNo": 135, "pageCount": null, "pageSize": 10, "ids": null, "endTime": null, "startTime": null}, "list": [{"cardNumFive": null, "isSupportYj": null, "cityName": null, "districtName": null, "shopinfo": {"mid": "888002156910479", "good_flag": null, "new_flag": "2", "short_name": "ELAND", "short_name_pinyin": "eland", "status": null, "address": null, "name": null, "id": "40453"}, "mid": "888002156910479", "shopId": "40453", "netid": null, "province": 901, "district": 601, "zipcode": null, "telephone": null, "posDate": null, "destineTel": null, "togoTel": null, "trafficWay": null, "signBuilding": null, "businessArea": null, "selfRoom": null, "businessTime": null, "stall": null, "consume": null, "serviceFei": null, "favourable": null, "shopMemo": null, "appraise": null, "website": null, "memo": null, "payTypes": "\u6749\u5fb7\u5361", "shopTypes": "\u4e13\u5356", "consumeTypes": null, "cookTypes": null, "orderNum": 1000, "card4no": null, "card4noAcc": null, "district2": 407, "searchScope": null, "status": 1, "address": "\u653f\u901a\u8def189\u53f7", "name": "ELAND \u7279\u529b\u5c4b\u5e97", "id": 175038, "pageNo": 0, "pageCount": null, "pageSize": 10, "ids": null, "endTime": null, "startTime": null}, {"cardNumFive": null, "isSupportYj": null, "cityName": null, "districtName": null, "shopinfo": {"mid": "888002156910480", "good_flag": null, "new_flag": null, "short_name": "ELAND", "short_name_pinyin": "eland", "status": null, "address": null, "name": null, "id": "40454"}, "mid": "888002156910480", "shopId": "40454", "netid": null, "province": 901, "district": 601, "zipcode": null, "telephone": null, "posDate": null, "destineTel": null, "togoTel": null, "trafficWay": null, "signBuilding": null, "businessArea": null, "selfRoom": null, "businessTime": null, "stall": null, "consume": null, "serviceFei": null, "favourable": null, "shopMemo": null, "appraise": null, "website": null, "memo": null, "payTypes": "\u6749\u5fb7\u5361", "shopTypes": "\u4e13\u5356", "consumeTypes": null, "cookTypes": null, "orderNum": 1000, "card4no": null, "card4noAcc": null, "district2": 418, "searchScope": null, "status": 1, "address": "\u82b1\u6728\u8def1378\u53f71\u697c", "name": "ELAND \u6d66\u4e1c\u5609\u91cc\u5e97", "id": 175040, "pageNo": 0, "pageCount": null, "pageSize": 10, "ids": null, "endTime": null, "startTime": null}, {"cardNumFive": null, "isSupportYj": null, "cityName": null, "districtName": null, "shopinfo": {"mid": "888002156910479", "good_flag": null, "new_flag": "2", "short_name": "ELAND", "short_name_pinyin": "eland", "status": null, "address": null, "name": null, "id": "40453"}, "mid": "888002156910479", "shopId": "40453", "netid": null, "province": 901, "district": 601, "zipcode": null, "telephone": null, "posDate": null, "destineTel": null, "togoTel": null, "trafficWay": null, "signBuilding": null, "businessArea": null, "selfRoom": null, "businessTime": null, "stall": null, "consume": null, "serviceFei": null, "favourable": null, "shopMemo": null, "appraise": null, "website": null, "memo": null, "payTypes": "\u6749\u5fb7\u5361,", "shopTypes": null, "consumeTypes": null, "cookTypes": null, "orderNum": null, "card4no": null, "card4noAcc": null, "district2": 412, "searchScope": null, "status": 1, "address": "\u65b0\u677e\u6c5f\u8def925\u53f7\u5f00\u5143\u5730\u4e2d\u6d77\u4e8c\u697cEland/Paw In Paw", "name": "\u65b0\u677e\u6c5f\u8def\u5e97", "id": 565224401839063040, "pageNo": 0, "pageCount": null, "pageSize": 10, "ids": null, "endTime": null, "startTime": null}, {"cardNumFive": null, "isSupportYj": null, "cityName": null, "districtName": null, "shopinfo": {"mid": "888002156910479", "good_flag": null, "new_flag": "2", "short_name": "ELAND", "short_name_pinyin": "eland", "status": null, "address": null, "name": null, "id": "40453"}, "mid": "888002156910479", "shopId": "40453", "netid": null, "province": 901, "district": 601, "zipcode": null, "telephone": null, "posDate": null, "destineTel": null, "togoTel": null, "trafficWay": null, "signBuilding": null, "businessArea": null, "selfRoom": null, "businessTime": null, "stall": null, "consume": null, "serviceFei": null, "favourable": null, "shopMemo": null, "appraise": null, "website": null, "memo": null, "payTypes": "\u6749\u5fb7\u5361,", "shopTypes": null, "consumeTypes": null, "cookTypes": null, "orderNum": null, "card4no": null, "card4noAcc": null, "district2": 409, "searchScope": null, "status": 1, "address": "\u5408\u5ddd\u8def2570\u53f7\u4e09\u671f1\u53f7\u697c4\u697c", "name": "\u5408\u5ddd\u8def\u5e97", "id": 565224402258493440, "pageNo": 0, "pageCount": null, "pageSize": 10, "ids": null, "endTime": null, "startTime": null}, {"cardNumFive": null, "isSupportYj": null, "cityName": null, "districtName": null, "shopinfo": {"mid": "888002154410267", "good_flag": null, "new_flag": null, "short_name": "FANCL", "short_name_pinyin": "fancl", "status": null, "address": null, "name": null, "id": "41200"}, "mid": "888002154410267", "shopId": "41200", "netid": null, "province": 901, "district": 601, "zipcode": null, "telephone": "50472399", "posDate": null, "destineTel": null, "togoTel": null, "trafficWay": null, "signBuilding": null, "businessArea": null, "selfRoom": null, "businessTime": null, "stall": null, "consume": null, "serviceFei": null, "favourable": null, "shopMemo": null, "appraise": null, "website": null, "memo": null, "payTypes": "\u6749\u5fb7\u5361", "shopTypes": "\u4e13\u5356", "consumeTypes": null, "cookTypes": null, "orderNum": 1000, "card4no": null, "card4noAcc": null, "district2": 418, "searchScope": null, "status": 1, "address": "\u9646\u5bb6\u5634\u897f\u8def168\u53f71\u697c", "name": "FANCL \u6b63\u5927\u5e7f\u573a\u5e97", "id": 180409, "pageNo": 0, "pageCount": null, "pageSize": 10, "ids": null, "endTime": null, "startTime": null}, {"cardNumFive": null, "isSupportYj": null, "cityName": null, "districtName": null, "shopinfo": {"mid": "888002154410267", "good_flag": null, "new_flag": null, "short_name": "FANCL", "short_name_pinyin": "fancl", "status": null, "address": null, "name": null, "id": "41200"}, "mid": "888002154410267", "shopId": "41200", "netid": null, "province": 901, "district": 601, "zipcode": null, "telephone": null, "posDate": null, "destineTel": null, "togoTel": null, "trafficWay": null, "signBuilding": null, "businessArea": null, "selfRoom": null, "businessTime": null, "stall": null, "consume": null, "serviceFei": null, "favourable": null, "shopMemo": null, "appraise": null, "website": null, "memo": null, "payTypes": "\u6749\u5fb7\u5361", "shopTypes": "\u4e13\u5356", "consumeTypes": null, "cookTypes": null, "orderNum": 1000, "card4no": null, "card4noAcc": null, "district2": 407, "searchScope": null, "status": 1, "address": "\u6dde\u6caa\u8def77\u53f7\u5730\u4e0b1\u697c", "name": "FANCL \u6dde\u6caa\u8def\u5e97", "id": 180410, "pageNo": 0, "pageCount": null, "pageSize": 10, "ids": null, "endTime": null, "startTime": null}, {"cardNumFive": null, "isSupportYj": null, "cityName": null, "districtName": null, "shopinfo": {"mid": "888002154410267", "good_flag": null, "new_flag": null, "short_name": "FANCL", "short_name_pinyin": "fancl", "status": null, "address": null, "name": null, "id": "41200"}, "mid": "888002154410267", "shopId": "41200", "netid": null, "province": 901, "district": 601, "zipcode": null, "telephone": "50120721", "posDate": null, "destineTel": null, "togoTel": null, "trafficWay": null, "signBuilding": null, "businessArea": null, "selfRoom": null, "businessTime": null, "stall": null, "consume": null, "serviceFei": null, "favourable": null, "shopMemo": null, "appraise": null, "website": null, "memo": null, "payTypes": "\u6749\u5fb7\u5361", "shopTypes": "\u4e13\u5356", "consumeTypes": null, "cookTypes": null, "orderNum": 1000, "card4no": null, "card4noAcc": null, "district2": 418, "searchScope": null, "status": 1, "address": "\u4e16\u7eaa\u5927\u90538\u53f7\u5730\u4e0b1\u697c", "name": "FANCL \u56fd\u91d1\u4e2d\u5fc3\u5e97", "id": 180412, "pageNo": 0, "pageCount": null, "pageSize": 10, "ids": null, "endTime": null, "startTime": null}, {"cardNumFive": null, "isSupportYj": null, "cityName": null, "districtName": null, "shopinfo": {"mid": "888888858120566", "good_flag": "2", "new_flag": "2", "short_name": "\u623f\u5730\u5927\u53a6\u9152\u5bb6", "short_name_pinyin": "fangdidaxiajiujia", "status": null, "address": null, "name": null, "id": "31585"}, "mid": "888888858120566", "shopId": "31585", "netid": null, "province": 901, "district": 601, "zipcode": null, "telephone": null, "posDate": "20090107", "destineTel": null, "togoTel": null, "trafficWay": "\u516c\u4ea4939 15 21", "signBuilding": "\u623f\u5730\u5c40", "businessArea": "2000", "selfRoom": null, "businessTime": "6:30~20:00", "stall": "\u6709", "consume": null, "serviceFei": null, "favourable": null, "shopMemo": null, "appraise": null, "website": null, "memo": null, "payTypes": "\u6749\u5fb7\u5361", "shopTypes": "\u9910\u996e", "consumeTypes": null, "cookTypes": null, "orderNum": 1000, "card4no": null, "card4noAcc": null, "district2": 401, "searchScope": null, "status": 1, "address": "\u5317\u4eac\u897f\u8def95-99\u53f7", "name": "\u623f\u5730\u5927\u53a6\u9152\u5bb6 \u5317\u4eac\u897f\u8def\u5e97", "id": 133849, "pageNo": 0, "pageCount": null, "pageSize": 10, "ids": null, "endTime": null, "startTime": null}, {"cardNumFive": null, "isSupportYj": null, "cityName": null, "districtName": null, "shopinfo": {"mid": "888002156910583", "good_flag": "2", "new_flag": "2", "short_name": "\u51e1\u5c1a\u670d\u9970", "short_name_pinyin": "fanshangfushi", "status": null, "address": null, "name": null, "id": "552801573328125952"}, "mid": "888002156910583", "shopId": "552801573328125952", "netid": null, "province": 901, "district": 601, "zipcode": null, "telephone": null, "posDate": null, "destineTel": null, "togoTel": null, "trafficWay": null, "signBuilding": null, "businessArea": null, "selfRoom": null, "businessTime": null, "stall": null, "consume": null, "serviceFei": null, "favourable": null, "shopMemo": null, "appraise": null, "website": null, "memo": null, "payTypes": "", "shopTypes": null, "consumeTypes": null, "cookTypes": null, "orderNum": null, "card4no": null, "card4noAcc": null, "district2": 408, "searchScope": null, "status": 1, "address": "\u897f\u6c5f\u6e7e\u8def388\u53f7A4-44", "name": "\u8679\u53e3\u9f99\u4e4b\u68a6", "id": 552801572589928448, "pageNo": 0, "pageCount": null, "pageSize": 10, "ids": null, "endTime": null, "startTime": null}, {"cardNumFive": null, "isSupportYj": null, "cityName": null, "districtName": null, "shopinfo": {"mid": "888002156910583", "good_flag": "2", "new_flag": "2", "short_name": "\u51e1\u5c1a\u670d\u9970", "short_name_pinyin": "fanshangfushi", "status": null, "address": null, "name": null, "id": "552801573328125952"}, "mid": "888002156910583", "shopId": "552801573328125952", "netid": null, "province": 901, "district": 601, "zipcode": null, "telephone": null, "posDate": null, "destineTel": null, "togoTel": null, "trafficWay": null, "signBuilding": null, "businessArea": null, "selfRoom": null, "businessTime": null, "stall": null, "consume": null, "serviceFei": null, "favourable": null, "shopMemo": null, "appraise": null, "website": null, "memo": null, "payTypes": "", "shopTypes": null, "consumeTypes": null, "cookTypes": null, "orderNum": null, "card4no": null, "card4noAcc": null, "district2": 407, "searchScope": null, "status": 1, "address": "\u7fd4\u6bb7\u8def1099\u53f7\u5408\u751f\u6c472\u697cB31\u53f7CAT", "name": "\u5408\u751f\u6c47\u5e97", "id": 552801573432983552, "pageNo": 0, "pageCount": null, "pageSize": 10, "ids": null, "endTime": null, "startTime": null}], "pageLimit": 1350, "size": 10}