{"pageCount": 1095, "count": 10942, "pageNo": 139, "subShopInfo": {"cardNumFive": "", "isSupportYj": "", "cityName": null, "districtName": null, "shopinfo": {"mid": null, "good_flag": null, "new_flag": null, "short_name": null, "short_name_pinyin": null, "status": null, "address": "", "name": "", "id": null}, "mid": null, "shopId": null, "netid": null, "province": 901, "district": null, "zipcode": null, "telephone": null, "posDate": null, "destineTel": null, "togoTel": null, "trafficWay": null, "signBuilding": null, "businessArea": null, "selfRoom": null, "businessTime": null, "stall": null, "consume": null, "serviceFei": null, "favourable": null, "shopMemo": "1", "appraise": null, "website": null, "memo": null, "payTypes": "", "shopTypes": "", "consumeTypes": null, "cookTypes": null, "orderNum": null, "card4no": null, "card4noAcc": null, "district2": null, "searchScope": null, "status": null, "address": "", "name": null, "id": null, "pageNo": 138, "pageCount": null, "pageSize": 10, "ids": null, "endTime": null, "startTime": null}, "list": [{"cardNumFive": null, "isSupportYj": null, "cityName": null, "districtName": null, "shopinfo": {"mid": "888888856910069", "good_flag": "2", "new_flag": "2", "short_name": "\u68b5\u4e1d\u5185\u633a\u5185\u8863", "short_name_pinyin": "fansineitingneiyi", "status": null, "address": null, "name": null, "id": "31580"}, "mid": "888888856910069", "shopId": "31580", "netid": null, "province": 901, "district": 601, "zipcode": null, "telephone": "57725293", "posDate": "20070904", "destineTel": null, "togoTel": null, "trafficWay": "\u60e0\u677e\u7ebf \u6caa\u677e\u7ebf", "signBuilding": null, "businessArea": null, "selfRoom": null, "businessTime": "7:00~23:00", "stall": "\u65e0", "consume": "50\u5143", "serviceFei": null, "favourable": null, "shopMemo": "\u54c1\u724c\u5185\u8863\u8fde\u9501", "appraise": null, "website": null, "memo": null, "payTypes": "\u6749\u5fb7\u5361", "shopTypes": "\u4e13\u5356", "consumeTypes": null, "cookTypes": null, "orderNum": 1000, "card4no": null, "card4noAcc": null, "district2": 412, "searchScope": null, "status": 1, "address": "\u4e2d\u5c71\u4e2d\u8def219-5\u5e95\u697c\u4e1c\u4fa7\u534a\u95f4", "name": "\u68b5\u4e1d\u5185\u633a\u5185\u8863 \u677e\u6c5f2\u5e97", "id": 133841, "pageNo": 0, "pageCount": null, "pageSize": 10, "ids": null, "endTime": null, "startTime": null}, {"cardNumFive": null, "isSupportYj": null, "cityName": null, "districtName": null, "shopinfo": {"mid": "888888856910069", "good_flag": "2", "new_flag": "2", "short_name": "\u68b5\u4e1d\u5185\u633a\u5185\u8863", "short_name_pinyin": "fansineitingneiyi", "status": null, "address": null, "name": null, "id": "31580"}, "mid": "888888856910069", "shopId": "31580", "netid": null, "province": 901, "district": 601, "zipcode": null, "telephone": "58113857", "posDate": "20070904", "destineTel": null, "togoTel": null, "trafficWay": "\u4e07\u91ce\u7ebf \u6885\u5468\u7ebf", "signBuilding": null, "businessArea": null, "selfRoom": null, "businessTime": "7:00~23:00", "stall": "\u65e0", "consume": "50\u5143", "serviceFei": null, "favourable": null, "shopMemo": "\u54c1\u724c\u5185\u8863\u8fde\u9501", "appraise": null, "website": null, "memo": null, "payTypes": "\u6749\u5fb7\u5361", "shopTypes": "\u4e13\u5356", "consumeTypes": null, "cookTypes": null, "orderNum": 1000, "card4no": null, "card4noAcc": null, "district2": 418, "searchScope": null, "status": 1, "address": "\u5468\u6d66\u9547\u4e2d\u5927\u8857116\u53f7", "name": "\u68b5\u4e1d\u5185\u633a\u5185\u8863 \u5468\u6d66\u5e97", "id": 133844, "pageNo": 0, "pageCount": null, "pageSize": 10, "ids": null, "endTime": null, "startTime": null}, {"cardNumFive": null, "isSupportYj": null, "cityName": null, "districtName": null, "shopinfo": {"mid": "888002154110696", "good_flag": null, "new_flag": null, "short_name": "\u98de\u725b\u7f51", "short_name_pinyin": "feiniuwang", "status": null, "address": null, "name": null, "id": "43566"}, "mid": "888002154110696", "shopId": "43566", "netid": null, "province": 901, "district": 601, "zipcode": null, "telephone": null, "posDate": null, "destineTel": null, "togoTel": null, "trafficWay": null, "signBuilding": null, "businessArea": null, "selfRoom": null, "businessTime": null, "stall": null, "consume": null, "serviceFei": null, "favourable": null, "shopMemo": null, "appraise": null, "website": null, "memo": null, "payTypes": "\u6749\u5fb7\u5361", "shopTypes": "\u8d85\u5e02", "consumeTypes": null, "cookTypes": null, "orderNum": 1000, "card4no": null, "card4noAcc": null, "district2": 410, "searchScope": null, "status": 1, "address": "\u6c5f\u573a\u897f\u8def220\u53f7A\u5e62", "name": "\u98de\u725b\u7f51 \u98de\u725b\u7f51", "id": 197835, "pageNo": 0, "pageCount": null, "pageSize": 10, "ids": null, "endTime": null, "startTime": null}, {"cardNumFive": null, "isSupportYj": null, "cityName": null, "districtName": null, "shopinfo": {"mid": "888888853110105", "good_flag": null, "new_flag": null, "short_name": "\u98de\u6d32\u56fd\u9645", "short_name_pinyin": "feizhouguoji", "status": null, "address": null, "name": null, "id": "41886"}, "mid": "888888853110105", "shopId": "41886", "netid": null, "province": 901, "district": 601, "zipcode": null, "telephone": null, "posDate": null, "destineTel": null, "togoTel": null, "trafficWay": null, "signBuilding": null, "businessArea": null, "selfRoom": null, "businessTime": null, "stall": null, "consume": null, "serviceFei": null, "favourable": null, "shopMemo": null, "appraise": null, "website": null, "memo": null, "payTypes": "\u6749\u5fb7\u5361", "shopTypes": "\u767e\u8d27", "consumeTypes": null, "cookTypes": null, "orderNum": 1000, "card4no": null, "card4noAcc": null, "district2": 403, "searchScope": null, "status": 1, "address": "\u96f6\u9675\u8def889\u53f7", "name": "\u98de\u6d32\u56fd\u9645 \u5f90\u6c47\u5e97", "id": 186264, "pageNo": 0, "pageCount": null, "pageSize": 10, "ids": null, "endTime": null, "startTime": null}, {"cardNumFive": null, "isSupportYj": null, "cityName": null, "districtName": null, "shopinfo": {"mid": "888888859440006", "good_flag": "2", "new_flag": "2", "short_name": "\u67ab\u53f6\u949f\u8868", "short_name_pinyin": "fengyezhongbiao", "status": null, "address": null, "name": null, "id": "31597"}, "mid": "888888859440006", "shopId": "31597", "netid": null, "province": 901, "district": 601, "zipcode": null, "telephone": "69725130", "posDate": "20071226", "destineTel": null, "togoTel": null, "trafficWay": "\u516c\u4ea4\u4e0a\u6731\u7ebf \u6caa\u9752\u7ebf", "signBuilding": null, "businessArea": "50\u5e73\u65b9\u7c73\u5de6\u53f3", "selfRoom": null, "businessTime": "9:00~22:00", "stall": "\u6709", "consume": null, "serviceFei": null, "favourable": null, "shopMemo": null, "appraise": null, "website": null, "memo": null, "payTypes": "\u6749\u5fb7\u5361", "shopTypes": "\u4e13\u5356", "consumeTypes": null, "cookTypes": null, "orderNum": 1000, "card4no": null, "card4noAcc": null, "district2": 417, "searchScope": null, "status": 1, "address": "\u76c8\u6e2f\u8def555\u53f7", "name": "\u67ab\u53f6\u949f\u8868 \u76c8\u6e2f\u8def\u5e97", "id": 133871, "pageNo": 0, "pageCount": null, "pageSize": 10, "ids": null, "endTime": null, "startTime": null}, {"cardNumFive": null, "isSupportYj": null, "cityName": null, "districtName": null, "shopinfo": {"mid": "888002156910478", "good_flag": "2", "new_flag": "2", "short_name": "F.NY", "short_name_pinyin": "fny", "status": null, "address": null, "name": null, "id": "40041"}, "mid": "888002156910478", "shopId": "40041", "netid": null, "province": 901, "district": 601, "zipcode": null, "telephone": null, "posDate": null, "destineTel": null, "togoTel": null, "trafficWay": null, "signBuilding": null, "businessArea": null, "selfRoom": null, "businessTime": null, "stall": null, "consume": null, "serviceFei": null, "favourable": null, "shopMemo": null, "appraise": null, "website": null, "memo": null, "payTypes": "\u6749\u5fb7\u5361", "shopTypes": "\u4e13\u5356", "consumeTypes": null, "cookTypes": null, "orderNum": 1000, "card4no": null, "card4noAcc": null, "district2": 412, "searchScope": null, "status": 1, "address": "\u4e2d\u5c71\u4e8c\u8def121\u53f7", "name": "F.NY \u677e\u6c5f\u5e97", "id": 173378, "pageNo": 0, "pageCount": null, "pageSize": 10, "ids": null, "endTime": null, "startTime": null}, {"cardNumFive": null, "isSupportYj": null, "cityName": null, "districtName": null, "shopinfo": {"mid": "888002156910478", "good_flag": "2", "new_flag": "2", "short_name": "F.NY", "short_name_pinyin": "fny", "status": null, "address": null, "name": null, "id": "40041"}, "mid": "888002156910478", "shopId": "40041", "netid": null, "province": 901, "district": 601, "zipcode": null, "telephone": "62330311", "posDate": null, "destineTel": null, "togoTel": null, "trafficWay": null, "signBuilding": null, "businessArea": null, "selfRoom": null, "businessTime": null, "stall": null, "consume": null, "serviceFei": null, "favourable": null, "shopMemo": null, "appraise": null, "website": null, "memo": null, "payTypes": "\u6749\u5fb7\u5361", "shopTypes": "\u4e13\u5356", "consumeTypes": null, "cookTypes": null, "orderNum": 1000, "card4no": null, "card4noAcc": null, "district2": 406, "searchScope": null, "status": 1, "address": "\u4ed9\u971e\u8def461\u53f7", "name": "F.NY  \u4ed9\u971e\u5e97", "id": 173380, "pageNo": 0, "pageCount": null, "pageSize": 10, "ids": null, "endTime": null, "startTime": null}, {"cardNumFive": null, "isSupportYj": null, "cityName": null, "districtName": null, "shopinfo": {"mid": "888002156910478", "good_flag": "2", "new_flag": "2", "short_name": "F.NY", "short_name_pinyin": "fny", "status": null, "address": null, "name": null, "id": "40041"}, "mid": "888002156910478", "shopId": "40041", "netid": null, "province": 901, "district": 601, "zipcode": null, "telephone": "37028697", "posDate": null, "destineTel": null, "togoTel": null, "trafficWay": null, "signBuilding": null, "businessArea": null, "selfRoom": null, "businessTime": null, "stall": null, "consume": null, "serviceFei": null, "favourable": null, "shopMemo": null, "appraise": null, "website": null, "memo": null, "payTypes": "\u6749\u5fb7\u5361", "shopTypes": "\u4e13\u5356", "consumeTypes": null, "cookTypes": null, "orderNum": 1000, "card4no": null, "card4noAcc": null, "district2": 412, "searchScope": null, "status": 1, "address": "\u677e\u6c5f\u533a\u65b0\u677e\u6c5f\u8def925\u5f041\u697c", "name": "F.NY \u65b0\u677e\u6c5f\u8def\u5e97", "id": 173381, "pageNo": 0, "pageCount": null, "pageSize": 10, "ids": null, "endTime": null, "startTime": null}, {"cardNumFive": null, "isSupportYj": null, "cityName": null, "districtName": null, "shopinfo": {"mid": "888888853110029", "good_flag": "2", "new_flag": "2", "short_name": "FOXTOWN", "short_name_pinyin": "foxtown", "status": null, "address": null, "name": null, "id": "31016"}, "mid": "888888853110029", "shopId": "31016", "netid": null, "province": 901, "district": 601, "zipcode": null, "telephone": null, "posDate": "20070612", "destineTel": null, "togoTel": null, "trafficWay": "\u9f99\u6ee8\u7ebf", "signBuilding": "\u5357\u6c47\u5927\u5b66\u57ce", "businessArea": null, "selfRoom": "\u65e0", "businessTime": null, "stall": "\u65e0", "consume": null, "serviceFei": null, "favourable": null, "shopMemo": null, "appraise": null, "website": null, "memo": null, "payTypes": "\u6749\u5fb7\u5361", "shopTypes": "\u767e\u8d27", "consumeTypes": null, "cookTypes": null, "orderNum": 1000, "card4no": null, "card4noAcc": null, "district2": 418, "searchScope": null, "status": 1, "address": "\u5357\u6c47\u9547\u4eba\u6c11\u4e1c\u8def22\u5f049\u5e622\u697c", "name": "FOXTOWN \u5357\u6c47\u5e97", "id": 131978, "pageNo": 0, "pageCount": null, "pageSize": 10, "ids": null, "endTime": null, "startTime": null}, {"cardNumFive": null, "isSupportYj": null, "cityName": null, "districtName": null, "shopinfo": {"mid": "888002153310102", "good_flag": "2", "new_flag": "1", "short_name": "\u798f\u5bb6\u8d85\u5e02", "short_name_pinyin": "fujiachaoshi", "status": null, "address": null, "name": null, "id": "31602"}, "mid": "888002153310102", "shopId": "31602", "netid": null, "province": 901, "district": 601, "zipcode": null, "telephone": "67793008", "posDate": "20100611", "destineTel": null, "togoTel": null, "trafficWay": null, "signBuilding": null, "businessArea": null, "selfRoom": null, "businessTime": null, "stall": null, "consume": null, "serviceFei": null, "favourable": null, "shopMemo": null, "appraise": null, "website": null, "memo": null, "payTypes": "\u6749\u5fb7\u5361", "shopTypes": "\u8d85\u5e02", "consumeTypes": null, "cookTypes": null, "orderNum": 1000, "card4no": null, "card4noAcc": null, "district2": 412, "searchScope": null, "status": 1, "address": "\u677e\u6c5f\u533a\u65b0\u6ee8\u9547\u5171\u9752\u8def1258\u53f7", "name": "\u798f\u5bb6\u8d85\u5e02 \u5171\u9752\u8def\u5e97", "id": 133876, "pageNo": 0, "pageCount": null, "pageSize": 10, "ids": null, "endTime": null, "startTime": null}], "pageLimit": 1380, "size": 10}