{"pageCount": 1095, "count": 10942, "pageNo": 137, "subShopInfo": {"cardNumFive": "", "isSupportYj": "", "cityName": null, "districtName": null, "shopinfo": {"mid": null, "good_flag": null, "new_flag": null, "short_name": null, "short_name_pinyin": null, "status": null, "address": "", "name": "", "id": null}, "mid": null, "shopId": null, "netid": null, "province": 901, "district": null, "zipcode": null, "telephone": null, "posDate": null, "destineTel": null, "togoTel": null, "trafficWay": null, "signBuilding": null, "businessArea": null, "selfRoom": null, "businessTime": null, "stall": null, "consume": null, "serviceFei": null, "favourable": null, "shopMemo": "1", "appraise": null, "website": null, "memo": null, "payTypes": "", "shopTypes": "", "consumeTypes": null, "cookTypes": null, "orderNum": null, "card4no": null, "card4noAcc": null, "district2": null, "searchScope": null, "status": null, "address": "", "name": null, "id": null, "pageNo": 136, "pageCount": null, "pageSize": 10, "ids": null, "endTime": null, "startTime": null}, "list": [{"cardNumFive": null, "isSupportYj": null, "cityName": null, "districtName": null, "shopinfo": {"mid": "888002156910583", "good_flag": "2", "new_flag": "2", "short_name": "\u51e1\u5c1a\u670d\u9970", "short_name_pinyin": "fanshangfushi", "status": null, "address": null, "name": null, "id": "552801573328125952"}, "mid": "888002156910583", "shopId": "552801573328125952", "netid": null, "province": 901, "district": 601, "zipcode": null, "telephone": null, "posDate": null, "destineTel": null, "togoTel": null, "trafficWay": null, "signBuilding": null, "businessArea": null, "selfRoom": null, "businessTime": null, "stall": null, "consume": null, "serviceFei": null, "favourable": null, "shopMemo": null, "appraise": null, "website": null, "memo": null, "payTypes": "", "shopTypes": null, "consumeTypes": null, "cookTypes": null, "orderNum": null, "card4no": null, "card4noAcc": null, "district2": 407, "searchScope": null, "status": 1, "address": "\u63a7\u6c5f\u8def1628\u53f71F\uff08ZN\uff09", "name": "\u63a7\u6c5f\u8def\u5e97", "id": 552801573785305088, "pageNo": 0, "pageCount": null, "pageSize": 10, "ids": null, "endTime": null, "startTime": null}, {"cardNumFive": null, "isSupportYj": null, "cityName": null, "districtName": null, "shopinfo": {"mid": "888002156910583", "good_flag": "2", "new_flag": "2", "short_name": "\u51e1\u5c1a\u670d\u9970", "short_name_pinyin": "fanshangfushi", "status": null, "address": null, "name": null, "id": "552801573328125952"}, "mid": "888002156910583", "shopId": "552801573328125952", "netid": null, "province": 901, "district": 601, "zipcode": null, "telephone": null, "posDate": null, "destineTel": null, "togoTel": null, "trafficWay": null, "signBuilding": null, "businessArea": null, "selfRoom": null, "businessTime": null, "stall": null, "consume": null, "serviceFei": null, "favourable": null, "shopMemo": null, "appraise": null, "website": null, "memo": null, "payTypes": "", "shopTypes": null, "consumeTypes": null, "cookTypes": null, "orderNum": null, "card4no": null, "card4noAcc": null, "district2": 405, "searchScope": null, "status": 1, "address": "\u4e2d\u5c71\u5317\u8def3300\u53f72\u697cL2118", "name": "\u73af\u7403\u6e2f\u5e97", "id": 552801574154403840, "pageNo": 0, "pageCount": null, "pageSize": 10, "ids": null, "endTime": null, "startTime": null}, {"cardNumFive": null, "isSupportYj": null, "cityName": null, "districtName": null, "shopinfo": {"mid": "888002156910583", "good_flag": "2", "new_flag": "2", "short_name": "\u51e1\u5c1a\u670d\u9970", "short_name_pinyin": "fanshangfushi", "status": null, "address": null, "name": null, "id": "552801573328125952"}, "mid": "888002156910583", "shopId": "552801573328125952", "netid": null, "province": 901, "district": 601, "zipcode": null, "telephone": null, "posDate": null, "destineTel": null, "togoTel": null, "trafficWay": null, "signBuilding": null, "businessArea": null, "selfRoom": null, "businessTime": null, "stall": null, "consume": null, "serviceFei": null, "favourable": null, "shopMemo": null, "appraise": null, "website": null, "memo": null, "payTypes": "", "shopTypes": null, "consumeTypes": null, "cookTypes": null, "orderNum": null, "card4no": null, "card4noAcc": null, "district2": 411, "searchScope": null, "status": 1, "address": "\u58a8\u7389\u5357\u8def1055\u53f7\u5609\u4ead\u835f\u57ce\u5e02\u751f\u6d3b\u5e7f\u573a2\u697cCAT\uff08ZN\uff09", "name": "\u5609\u4ead\u835f\u57ce\u5e02\u751f\u6d3b\u5e7f\u573a\u5e97", "id": 552801574506725376, "pageNo": 0, "pageCount": null, "pageSize": 10, "ids": null, "endTime": null, "startTime": null}, {"cardNumFive": null, "isSupportYj": null, "cityName": null, "districtName": null, "shopinfo": {"mid": "888002156910583", "good_flag": "2", "new_flag": "2", "short_name": "\u51e1\u5c1a\u670d\u9970", "short_name_pinyin": "fanshangfushi", "status": null, "address": null, "name": null, "id": "552801573328125952"}, "mid": "888002156910583", "shopId": "552801573328125952", "netid": null, "province": 901, "district": 601, "zipcode": null, "telephone": null, "posDate": null, "destineTel": null, "togoTel": null, "trafficWay": null, "signBuilding": null, "businessArea": null, "selfRoom": null, "businessTime": null, "stall": null, "consume": null, "serviceFei": null, "favourable": null, "shopMemo": null, "appraise": null, "website": null, "memo": null, "payTypes": "", "shopTypes": null, "consumeTypes": null, "cookTypes": null, "orderNum": null, "card4no": null, "card4noAcc": null, "district2": 406, "searchScope": null, "status": 1, "address": "\u957f\u5b81\u8def1018\u53f75\u697c5001\u5ba4\uff08ZN\uff09", "name": "\u9f99\u4e4b\u68a6\u5e97", "id": 552801574867435520, "pageNo": 0, "pageCount": null, "pageSize": 10, "ids": null, "endTime": null, "startTime": null}, {"cardNumFive": null, "isSupportYj": null, "cityName": null, "districtName": null, "shopinfo": {"mid": "888002156910583", "good_flag": "2", "new_flag": "2", "short_name": "\u51e1\u5c1a\u670d\u9970", "short_name_pinyin": "fanshangfushi", "status": null, "address": null, "name": null, "id": "552801573328125952"}, "mid": "888002156910583", "shopId": "552801573328125952", "netid": null, "province": 901, "district": 601, "zipcode": null, "telephone": null, "posDate": null, "destineTel": null, "togoTel": null, "trafficWay": null, "signBuilding": null, "businessArea": null, "selfRoom": null, "businessTime": null, "stall": null, "consume": null, "serviceFei": null, "favourable": null, "shopMemo": null, "appraise": null, "website": null, "memo": null, "payTypes": "", "shopTypes": null, "consumeTypes": null, "cookTypes": null, "orderNum": null, "card4no": null, "card4noAcc": null, "district2": 409, "searchScope": null, "status": 1, "address": "\u5434\u4e2d\u8def1799\u53f7LG138\u5ba4", "name": "\u4e07\u8c61\u57ce\u5e97", "id": 552801575232339968, "pageNo": 0, "pageCount": null, "pageSize": 10, "ids": null, "endTime": null, "startTime": null}, {"cardNumFive": null, "isSupportYj": null, "cityName": null, "districtName": null, "shopinfo": {"mid": "888002156910583", "good_flag": "2", "new_flag": "2", "short_name": "\u51e1\u5c1a\u670d\u9970", "short_name_pinyin": "fanshangfushi", "status": null, "address": null, "name": null, "id": "552801573328125952"}, "mid": "888002156910583", "shopId": "552801573328125952", "netid": null, "province": 901, "district": 601, "zipcode": null, "telephone": null, "posDate": null, "destineTel": null, "togoTel": null, "trafficWay": null, "signBuilding": null, "businessArea": null, "selfRoom": null, "businessTime": null, "stall": null, "consume": null, "serviceFei": null, "favourable": null, "shopMemo": null, "appraise": null, "website": null, "memo": null, "payTypes": "", "shopTypes": null, "consumeTypes": null, "cookTypes": null, "orderNum": null, "card4no": null, "card4noAcc": null, "district2": 409, "searchScope": null, "status": 1, "address": "\u6f15\u5b9d\u8def3366\u53f74FL433CAT", "name": "\u4e03\u5b9d\u4e07\u79d1\u5e97", "id": 552801575567884288, "pageNo": 0, "pageCount": null, "pageSize": 10, "ids": null, "endTime": null, "startTime": null}, {"cardNumFive": null, "isSupportYj": null, "cityName": null, "districtName": null, "shopinfo": {"mid": "888002156910583", "good_flag": "2", "new_flag": "2", "short_name": "\u51e1\u5c1a\u670d\u9970", "short_name_pinyin": "fanshangfushi", "status": null, "address": null, "name": null, "id": "552801573328125952"}, "mid": "888002156910583", "shopId": "552801573328125952", "netid": null, "province": 901, "district": 601, "zipcode": null, "telephone": null, "posDate": null, "destineTel": null, "togoTel": null, "trafficWay": null, "signBuilding": null, "businessArea": null, "selfRoom": null, "businessTime": null, "stall": null, "consume": null, "serviceFei": null, "favourable": null, "shopMemo": null, "appraise": null, "website": null, "memo": null, "payTypes": "", "shopTypes": null, "consumeTypes": null, "cookTypes": null, "orderNum": null, "card4no": null, "card4noAcc": null, "district2": 418, "searchScope": null, "status": 1, "address": "\u6b63\u5927\u5e7f\u573a\u9646\u5bb6\u5634\u897f\u8def168\u53f74\u697cCAT", "name": "\u6b63\u5927\u5e7f\u573a\u5e97", "id": 552801575911817216, "pageNo": 0, "pageCount": null, "pageSize": 10, "ids": null, "endTime": null, "startTime": null}, {"cardNumFive": null, "isSupportYj": null, "cityName": null, "districtName": null, "shopinfo": {"mid": "888888856910069", "good_flag": "2", "new_flag": "2", "short_name": "\u68b5\u4e1d\u5185\u633a\u5185\u8863", "short_name_pinyin": "fansineitingneiyi", "status": null, "address": null, "name": null, "id": "31580"}, "mid": "888888856910069", "shopId": "31580", "netid": null, "province": 901, "district": 601, "zipcode": null, "telephone": "58983011", "posDate": "20070905", "destineTel": null, "togoTel": null, "trafficWay": "\u65c5\u6e386B\u53f7\u7ebf \u5317\u5b89\u7ebf", "signBuilding": null, "businessArea": null, "selfRoom": null, "businessTime": null, "stall": "\u65e0", "consume": "50\u5143", "serviceFei": null, "favourable": null, "shopMemo": "\u54c1\u724c\u5185\u8863\u8fde\u9501", "appraise": null, "website": null, "memo": null, "payTypes": "\u6749\u5fb7\u5361", "shopTypes": "\u4e13\u5356", "consumeTypes": null, "cookTypes": null, "orderNum": 1000, "card4no": null, "card4noAcc": null, "district2": 418, "searchScope": null, "status": 1, "address": "\u5ddd\u6c99\u9547\u65b0\u6e90\u8def254\u53f7", "name": "\u68b5\u4e1d\u5185\u633a\u5185\u8863 \u5ddd\u6c992\u5e97", "id": 133822, "pageNo": 0, "pageCount": null, "pageSize": 10, "ids": null, "endTime": null, "startTime": null}, {"cardNumFive": null, "isSupportYj": null, "cityName": null, "districtName": null, "shopinfo": {"mid": "888888856910069", "good_flag": "2", "new_flag": "2", "short_name": "\u68b5\u4e1d\u5185\u633a\u5185\u8863", "short_name_pinyin": "fansineitingneiyi", "status": null, "address": null, "name": null, "id": "31580"}, "mid": "888888856910069", "shopId": "31580", "netid": null, "province": 901, "district": 601, "zipcode": null, "telephone": "58679969", "posDate": "20070907", "destineTel": null, "togoTel": null, "trafficWay": "\u516c\u4ea4962 508 936", "signBuilding": null, "businessArea": null, "selfRoom": null, "businessTime": null, "stall": "\u65e0", "consume": "50\u5143", "serviceFei": null, "favourable": null, "shopMemo": "\u54c1\u724c\u5185\u8863\u8fde\u9501", "appraise": null, "website": null, "memo": null, "payTypes": "\u6749\u5fb7\u5361", "shopTypes": "\u4e13\u5356", "consumeTypes": null, "cookTypes": null, "orderNum": 1000, "card4no": null, "card4noAcc": null, "district2": 418, "searchScope": null, "status": 1, "address": "\u9ad8\u6865\u9547\u5927\u540c\u8def306\u53f7", "name": "\u68b5\u4e1d\u5185\u633a\u5185\u8863 \u9ad8\u6865\u5e97", "id": 133825, "pageNo": 0, "pageCount": null, "pageSize": 10, "ids": null, "endTime": null, "startTime": null}, {"cardNumFive": null, "isSupportYj": null, "cityName": null, "districtName": null, "shopinfo": {"mid": "888888856910069", "good_flag": "2", "new_flag": "2", "short_name": "\u68b5\u4e1d\u5185\u633a\u5185\u8863", "short_name_pinyin": "fansineitingneiyi", "status": null, "address": null, "name": null, "id": "31580"}, "mid": "888888856910069", "shopId": "31580", "netid": null, "province": 901, "district": 601, "zipcode": null, "telephone": "59530465", "posDate": "20070904", "destineTel": null, "togoTel": null, "trafficWay": "\u65c5\u6e384\u53f7\u7ebf \u77f3\u9752\u7ebf", "signBuilding": null, "businessArea": null, "selfRoom": null, "businessTime": null, "stall": "\u65e0", "consume": "50\u5143", "serviceFei": null, "favourable": null, "shopMemo": "\u54c1\u724c\u5185\u8863\u8fde\u9501", "appraise": null, "website": null, "memo": null, "payTypes": "\u6749\u5fb7\u5361", "shopTypes": "\u4e13\u5356", "consumeTypes": null, "cookTypes": null, "orderNum": 1000, "card4no": null, "card4noAcc": null, "district2": 411, "searchScope": null, "status": 1, "address": "\u57ce\u4e2d\u8def55\u53f7-11", "name": "\u68b5\u4e1d\u5185\u633a\u5185\u8863 \u5609\u5b9a1\u5e97", "id": 133826, "pageNo": 0, "pageCount": null, "pageSize": 10, "ids": null, "endTime": null, "startTime": null}], "pageLimit": 1360, "size": 10}