{"pageCount": 1095, "count": 10942, "pageNo": 132, "subShopInfo": {"cardNumFive": "", "isSupportYj": "", "cityName": null, "districtName": null, "shopinfo": {"mid": null, "good_flag": null, "new_flag": null, "short_name": null, "short_name_pinyin": null, "status": null, "address": "", "name": "", "id": null}, "mid": null, "shopId": null, "netid": null, "province": 901, "district": null, "zipcode": null, "telephone": null, "posDate": null, "destineTel": null, "togoTel": null, "trafficWay": null, "signBuilding": null, "businessArea": null, "selfRoom": null, "businessTime": null, "stall": null, "consume": null, "serviceFei": null, "favourable": null, "shopMemo": "1", "appraise": null, "website": null, "memo": null, "payTypes": "", "shopTypes": "", "consumeTypes": null, "cookTypes": null, "orderNum": null, "card4no": null, "card4noAcc": null, "district2": null, "searchScope": null, "status": null, "address": "", "name": null, "id": null, "pageNo": 131, "pageCount": null, "pageSize": 10, "ids": null, "endTime": null, "startTime": null}, "list": [{"cardNumFive": null, "isSupportYj": null, "cityName": null, "districtName": null, "shopinfo": {"mid": "888002154620066", "good_flag": null, "new_flag": null, "short_name": "\u591a\u4e50\u4e4b\u65e5", "short_name_pinyin": "duolezhiri", "status": null, "address": null, "name": null, "id": "43127"}, "mid": "888002154620066", "shopId": "43127", "netid": null, "province": 901, "district": 601, "zipcode": null, "telephone": null, "posDate": null, "destineTel": null, "togoTel": null, "trafficWay": null, "signBuilding": null, "businessArea": null, "selfRoom": null, "businessTime": null, "stall": null, "consume": null, "serviceFei": null, "favourable": null, "shopMemo": null, "appraise": null, "website": null, "memo": null, "payTypes": "\u6749\u5fb7\u5361", "shopTypes": "\u9762\u5305\u897f\u997c", "consumeTypes": null, "cookTypes": null, "orderNum": 1000, "card4no": null, "card4noAcc": null, "district2": 404, "searchScope": null, "status": 1, "address": "\u611a\u56ed\u8def106\u53f71\u697c1\u533a\u57df\u7b2c3\u53f7\u623f\u5c4b", "name": "\u591a\u4e50\u4e4b\u65e5 \u611a\u56ed\u8def\u5e97", "id": 193131, "pageNo": 0, "pageCount": null, "pageSize": 10, "ids": null, "endTime": null, "startTime": null}, {"cardNumFive": null, "isSupportYj": null, "cityName": null, "districtName": null, "shopinfo": {"mid": "888002154620063", "good_flag": null, "new_flag": null, "short_name": "\u591a\u4e50\u4e4b\u65e5", "short_name_pinyin": "duolezhiri", "status": null, "address": null, "name": null, "id": "43128"}, "mid": "888002154620063", "shopId": "43128", "netid": null, "province": 901, "district": 601, "zipcode": null, "telephone": null, "posDate": null, "destineTel": null, "togoTel": null, "trafficWay": null, "signBuilding": null, "businessArea": null, "selfRoom": null, "businessTime": null, "stall": null, "consume": null, "serviceFei": null, "favourable": null, "shopMemo": null, "appraise": null, "website": null, "memo": null, "payTypes": "\u6749\u5fb7\u5361", "shopTypes": "\u9762\u5305\u897f\u997c", "consumeTypes": null, "cookTypes": null, "orderNum": 1000, "card4no": null, "card4noAcc": null, "district2": 405, "searchScope": null, "status": 1, "address": "\u957f\u5bff\u8def1118\u53f7\u4e00\u5c42", "name": "\u591a\u4e50\u4e4b\u65e5 \u957f\u5bff\u8def\u5e97", "id": 193135, "pageNo": 0, "pageCount": null, "pageSize": 10, "ids": null, "endTime": null, "startTime": null}, {"cardNumFive": null, "isSupportYj": null, "cityName": null, "districtName": null, "shopinfo": {"mid": "888002154620062", "good_flag": null, "new_flag": null, "short_name": "\u591a\u4e50\u4e4b\u65e5", "short_name_pinyin": "duolezhiri", "status": null, "address": null, "name": null, "id": "43129"}, "mid": "888002154620062", "shopId": "43129", "netid": null, "province": 901, "district": 601, "zipcode": null, "telephone": null, "posDate": null, "destineTel": null, "togoTel": null, "trafficWay": null, "signBuilding": null, "businessArea": null, "selfRoom": null, "businessTime": null, "stall": null, "consume": null, "serviceFei": null, "favourable": null, "shopMemo": null, "appraise": null, "website": null, "memo": null, "payTypes": "\u6749\u5fb7\u5361", "shopTypes": "\u9762\u5305\u897f\u997c", "consumeTypes": null, "cookTypes": null, "orderNum": 1000, "card4no": null, "card4noAcc": null, "district2": 405, "searchScope": null, "status": 1, "address": "\u4e2d\u6f6d\u8def41\u53f7", "name": "\u591a\u4e50\u4e4b\u65e5 \u4e2d\u6f6d\u8def\u5e97", "id": 193136, "pageNo": 0, "pageCount": null, "pageSize": 10, "ids": null, "endTime": null, "startTime": null}, {"cardNumFive": null, "isSupportYj": null, "cityName": null, "districtName": null, "shopinfo": {"mid": "888002154620067", "good_flag": null, "new_flag": null, "short_name": "\u591a\u4e50\u4e4b\u65e5", "short_name_pinyin": "duolezhiri", "status": null, "address": null, "name": null, "id": "43130"}, "mid": "888002154620067", "shopId": "43130", "netid": null, "province": 901, "district": 601, "zipcode": null, "telephone": null, "posDate": null, "destineTel": null, "togoTel": null, "trafficWay": null, "signBuilding": null, "businessArea": null, "selfRoom": null, "businessTime": null, "stall": null, "consume": null, "serviceFei": null, "favourable": null, "shopMemo": null, "appraise": null, "website": null, "memo": null, "payTypes": "\u6749\u5fb7\u5361", "shopTypes": "\u9762\u5305\u897f\u997c", "consumeTypes": null, "cookTypes": null, "orderNum": 1000, "card4no": null, "card4noAcc": null, "district2": 416, "searchScope": null, "status": 1, "address": "\u771f\u534e\u8def950\u53f71\u697c101\u5ba4", "name": "\u591a\u4e50\u4e4b\u65e5 \u771f\u534e\u8def\u5e97", "id": 193137, "pageNo": 0, "pageCount": null, "pageSize": 10, "ids": null, "endTime": null, "startTime": null}, {"cardNumFive": null, "isSupportYj": null, "cityName": null, "districtName": null, "shopinfo": {"mid": "888002154620071", "good_flag": null, "new_flag": null, "short_name": "\u591a\u4e50\u4e4b\u65e5", "short_name_pinyin": "duolezhiri", "status": null, "address": null, "name": null, "id": "43240"}, "mid": "888002154620071", "shopId": "43240", "netid": null, "province": 901, "district": 601, "zipcode": null, "telephone": null, "posDate": null, "destineTel": null, "togoTel": null, "trafficWay": null, "signBuilding": null, "businessArea": null, "selfRoom": null, "businessTime": null, "stall": null, "consume": null, "serviceFei": null, "favourable": null, "shopMemo": null, "appraise": null, "website": null, "memo": null, "payTypes": "\u6749\u5fb7\u5361", "shopTypes": "\u9762\u5305\u897f\u997c", "consumeTypes": null, "cookTypes": null, "orderNum": 1000, "card4no": null, "card4noAcc": null, "district2": 403, "searchScope": null, "status": 1, "address": "\u7530\u6797\u4e1c\u8def75\u53f71\u697c103\u94fa\u4f4d", "name": "\u591a\u4e50\u4e4b\u65e5 \u7530\u6797\u4e1c\u8def\u5e97", "id": 193565, "pageNo": 0, "pageCount": null, "pageSize": 10, "ids": null, "endTime": null, "startTime": null}, {"cardNumFive": null, "isSupportYj": null, "cityName": null, "districtName": null, "shopinfo": {"mid": "888002154620072", "good_flag": null, "new_flag": null, "short_name": "\u591a\u4e50\u4e4b\u65e5", "short_name_pinyin": "duolezhiri", "status": null, "address": null, "name": null, "id": "43241"}, "mid": "888002154620072", "shopId": "43241", "netid": null, "province": 901, "district": 601, "zipcode": null, "telephone": null, "posDate": null, "destineTel": null, "togoTel": null, "trafficWay": null, "signBuilding": null, "businessArea": null, "selfRoom": null, "businessTime": null, "stall": null, "consume": null, "serviceFei": null, "favourable": null, "shopMemo": null, "appraise": null, "website": null, "memo": null, "payTypes": "\u6749\u5fb7\u5361", "shopTypes": "\u9762\u5305\u897f\u997c", "consumeTypes": null, "cookTypes": null, "orderNum": 1000, "card4no": null, "card4noAcc": null, "district2": 401, "searchScope": null, "status": 1, "address": "\u9646\u5bb6\u6d5c\u8def1100\u53f71F-01A", "name": "\u591a\u4e50\u4e4b\u65e5 \u9646\u5bb6\u6d5c\u8def\u5206\u5e97", "id": 193567, "pageNo": 0, "pageCount": null, "pageSize": 10, "ids": null, "endTime": null, "startTime": null}, {"cardNumFive": null, "isSupportYj": null, "cityName": null, "districtName": null, "shopinfo": {"mid": "888002154620085", "good_flag": null, "new_flag": null, "short_name": "\u591a\u4e50\u4e4b\u65e5", "short_name_pinyin": "duolezhiri", "status": null, "address": null, "name": null, "id": "43373"}, "mid": "888002154620085", "shopId": "43373", "netid": null, "province": 901, "district": 601, "zipcode": null, "telephone": null, "posDate": null, "destineTel": null, "togoTel": null, "trafficWay": null, "signBuilding": null, "businessArea": null, "selfRoom": null, "businessTime": null, "stall": null, "consume": null, "serviceFei": null, "favourable": null, "shopMemo": null, "appraise": null, "website": null, "memo": null, "payTypes": "\u6749\u5fb7\u5361", "shopTypes": "\u9762\u5305\u897f\u997c", "consumeTypes": null, "cookTypes": null, "orderNum": 1000, "card4no": null, "card4noAcc": null, "district2": 418, "searchScope": null, "status": 1, "address": "\u4e16\u7eaa\u5927\u9053100\u53f7B102-1", "name": "\u591a\u4e50\u4e4b\u65e5 \u4e16\u7eaa\u5927\u9053\u4e8c\u5206\u5e97", "id": 195509, "pageNo": 0, "pageCount": null, "pageSize": 10, "ids": null, "endTime": null, "startTime": null}, {"cardNumFive": null, "isSupportYj": null, "cityName": null, "districtName": null, "shopinfo": {"mid": "888002154620083", "good_flag": null, "new_flag": null, "short_name": "\u591a\u4e50\u4e4b\u65e5", "short_name_pinyin": "duolezhiri", "status": null, "address": null, "name": null, "id": "43385"}, "mid": "888002154620083", "shopId": "43385", "netid": null, "province": 901, "district": 601, "zipcode": null, "telephone": null, "posDate": null, "destineTel": null, "togoTel": null, "trafficWay": null, "signBuilding": null, "businessArea": null, "selfRoom": null, "businessTime": null, "stall": null, "consume": null, "serviceFei": null, "favourable": null, "shopMemo": null, "appraise": null, "website": null, "memo": null, "payTypes": "\u6749\u5fb7\u5361", "shopTypes": "\u9762\u5305\u897f\u997c", "consumeTypes": null, "cookTypes": null, "orderNum": 1000, "card4no": null, "card4noAcc": null, "district2": 406, "searchScope": null, "status": 1, "address": "\u5929\u5c71\u8def900\u53f71\u5c42106\u5ba4", "name": "\u591a\u4e50\u4e4b\u65e5 \u5929\u5c71\u8def\u4e8c\u5e97", "id": 195563, "pageNo": 0, "pageCount": null, "pageSize": 10, "ids": null, "endTime": null, "startTime": null}, {"cardNumFive": null, "isSupportYj": null, "cityName": null, "districtName": null, "shopinfo": {"mid": "888002154620084", "good_flag": null, "new_flag": null, "short_name": "\u591a\u4e50\u4e4b\u65e5", "short_name_pinyin": "duolezhiri", "status": null, "address": null, "name": null, "id": "43390"}, "mid": "888002154620084", "shopId": "43390", "netid": null, "province": 901, "district": 601, "zipcode": null, "telephone": null, "posDate": null, "destineTel": null, "togoTel": null, "trafficWay": null, "signBuilding": null, "businessArea": null, "selfRoom": null, "businessTime": null, "stall": null, "consume": null, "serviceFei": null, "favourable": null, "shopMemo": null, "appraise": null, "website": null, "memo": null, "payTypes": "\u6749\u5fb7\u5361", "shopTypes": "\u9762\u5305\u897f\u997c", "consumeTypes": null, "cookTypes": null, "orderNum": 1000, "card4no": null, "card4noAcc": null, "district2": 406, "searchScope": null, "status": 1, "address": "\u6b66\u5937\u8def777\u53f719\u5e62CIR001", "name": "\u591a\u4e50\u4e4b\u65e5 \u6b66\u5937\u8def\u5e97", "id": 195592, "pageNo": 0, "pageCount": null, "pageSize": 10, "ids": null, "endTime": null, "startTime": null}, {"cardNumFive": null, "isSupportYj": null, "cityName": null, "districtName": null, "shopinfo": {"mid": "888002154620086", "good_flag": null, "new_flag": null, "short_name": "\u591a\u4e50\u4e4b\u65e5", "short_name_pinyin": "duolezhiri", "status": null, "address": null, "name": null, "id": "43415"}, "mid": "888002154620086", "shopId": "43415", "netid": null, "province": 901, "district": 601, "zipcode": null, "telephone": null, "posDate": null, "destineTel": null, "togoTel": null, "trafficWay": null, "signBuilding": null, "businessArea": null, "selfRoom": null, "businessTime": null, "stall": null, "consume": null, "serviceFei": null, "favourable": null, "shopMemo": null, "appraise": null, "website": null, "memo": null, "payTypes": "\u6749\u5fb7\u5361", "shopTypes": "\u9762\u5305\u897f\u997c", "consumeTypes": null, "cookTypes": null, "orderNum": 1000, "card4no": null, "card4noAcc": null, "district2": 410, "searchScope": null, "status": 1, "address": "\u5b9d\u5c71\u8def180\u53f71\u5c42-1", "name": "\u591a\u4e50\u4e4b\u65e5 \u5b9d\u5c71\u8def\u5e97", "id": 195837, "pageNo": 0, "pageCount": null, "pageSize": 10, "ids": null, "endTime": null, "startTime": null}], "pageLimit": 1310, "size": 10}