{"pageCount": 1095, "count": 10942, "pageNo": 131, "subShopInfo": {"cardNumFive": "", "isSupportYj": "", "cityName": null, "districtName": null, "shopinfo": {"mid": null, "good_flag": null, "new_flag": null, "short_name": null, "short_name_pinyin": null, "status": null, "address": "", "name": "", "id": null}, "mid": null, "shopId": null, "netid": null, "province": 901, "district": null, "zipcode": null, "telephone": null, "posDate": null, "destineTel": null, "togoTel": null, "trafficWay": null, "signBuilding": null, "businessArea": null, "selfRoom": null, "businessTime": null, "stall": null, "consume": null, "serviceFei": null, "favourable": null, "shopMemo": "1", "appraise": null, "website": null, "memo": null, "payTypes": "", "shopTypes": "", "consumeTypes": null, "cookTypes": null, "orderNum": null, "card4no": null, "card4noAcc": null, "district2": null, "searchScope": null, "status": null, "address": "", "name": null, "id": null, "pageNo": 130, "pageCount": null, "pageSize": 10, "ids": null, "endTime": null, "startTime": null}, "list": [{"cardNumFive": null, "isSupportYj": null, "cityName": null, "districtName": null, "shopinfo": {"mid": "888888872300134", "good_flag": "2", "new_flag": "2", "short_name": "\u72ec\u9886\u7f8e\u5bb9\u7f8e\u53d1", "short_name_pinyin": "dulingmeirongmeifa", "status": null, "address": null, "name": null, "id": "31556"}, "mid": "888888872300134", "shopId": "31556", "netid": null, "province": 901, "district": 601, "zipcode": null, "telephone": null, "posDate": "20080612", "destineTel": null, "togoTel": null, "trafficWay": "\u516c\u4ea4776 \u5730\u94c1\u56db\u53f7\u7ebf", "signBuilding": null, "businessArea": null, "selfRoom": null, "businessTime": null, "stall": null, "consume": null, "serviceFei": null, "favourable": null, "shopMemo": null, "appraise": null, "website": null, "memo": null, "payTypes": "\u6749\u5fb7\u5361", "shopTypes": "\u7f8e\u5bb9\u7f8e\u53d1", "consumeTypes": null, "cookTypes": null, "orderNum": 1000, "card4no": null, "card4noAcc": null, "district2": 417, "searchScope": null, "status": 1, "address": "\u4eac\u534e\u8def228\u53f7", "name": "\u72ec\u9886\u7f8e\u5bb9\u7f8e\u53d1 \u5f90\u6cfe\u5e97", "id": 133777, "pageNo": 0, "pageCount": null, "pageSize": 10, "ids": null, "endTime": null, "startTime": null}, {"cardNumFive": null, "isSupportYj": null, "cityName": null, "districtName": null, "shopinfo": {"mid": "888888858120523", "good_flag": "2", "new_flag": "2", "short_name": "\u591a\u4e50\u661f", "short_name_pinyin": "duolexing", "status": null, "address": null, "name": null, "id": "31561"}, "mid": "888888858120523", "shopId": "31561", "netid": null, "province": 901, "district": 601, "zipcode": null, "telephone": "64417799", "posDate": "20081223", "destineTel": null, "togoTel": null, "trafficWay": "\u516c\u4ea420 37 \u5730\u94c1\u4e8c\u53f7\u7ebf", "signBuilding": null, "businessArea": null, "selfRoom": null, "businessTime": "8:00~22:00", "stall": null, "consume": "100-200\u5143/\u4f4d", "serviceFei": null, "favourable": null, "shopMemo": null, "appraise": null, "website": null, "memo": null, "payTypes": "\u6749\u5fb7\u5361", "shopTypes": "\u9910\u996e", "consumeTypes": null, "cookTypes": null, "orderNum": 1000, "card4no": null, "card4noAcc": null, "district2": 401, "searchScope": null, "status": 1, "address": "\u5357\u4eac\u897f\u8def1649\u53f7\u9759\u5b89\u516c\u56ed\u51859\u53f7", "name": "\u591a\u4e50\u661f \u5357\u4eac\u897f\u8def\u5e97", "id": 133782, "pageNo": 0, "pageCount": null, "pageSize": 10, "ids": null, "endTime": null, "startTime": null}, {"cardNumFive": null, "isSupportYj": null, "cityName": null, "districtName": null, "shopinfo": {"mid": "888002154620056", "good_flag": null, "new_flag": null, "short_name": "\u591a\u4e50\u4e4b\u65e5", "short_name_pinyin": "duolezhiri", "status": null, "address": null, "name": null, "id": "43102"}, "mid": "888002154620056", "shopId": "43102", "netid": null, "province": 901, "district": 601, "zipcode": null, "telephone": null, "posDate": null, "destineTel": null, "togoTel": null, "trafficWay": null, "signBuilding": null, "businessArea": null, "selfRoom": null, "businessTime": null, "stall": null, "consume": null, "serviceFei": null, "favourable": null, "shopMemo": null, "appraise": null, "website": null, "memo": null, "payTypes": "\u6749\u5fb7\u5361", "shopTypes": "\u4fbf\u5229\u5e97", "consumeTypes": null, "cookTypes": null, "orderNum": 1000, "card4no": null, "card4noAcc": null, "district2": 405, "searchScope": null, "status": 1, "address": "\u5927\u6e21\u6cb3\u8def168\u5f0456\u53f71\u5c42101\u5ba4", "name": "\u591a\u4e50\u4e4b\u65e5 \u5927\u6e21\u6cb3\u8def\u5e97", "id": 190994, "pageNo": 0, "pageCount": null, "pageSize": 10, "ids": null, "endTime": null, "startTime": null}, {"cardNumFive": null, "isSupportYj": null, "cityName": null, "districtName": null, "shopinfo": {"mid": "888002154620053", "good_flag": null, "new_flag": null, "short_name": "\u591a\u4e50\u4e4b\u65e5", "short_name_pinyin": "duolezhiri", "status": null, "address": null, "name": null, "id": "43105"}, "mid": "888002154620053", "shopId": "43105", "netid": null, "province": 901, "district": 601, "zipcode": null, "telephone": null, "posDate": null, "destineTel": null, "togoTel": null, "trafficWay": null, "signBuilding": null, "businessArea": null, "selfRoom": null, "businessTime": null, "stall": null, "consume": null, "serviceFei": null, "favourable": null, "shopMemo": null, "appraise": null, "website": null, "memo": null, "payTypes": "\u6749\u5fb7\u5361", "shopTypes": "\u9762\u5305\u897f\u997c", "consumeTypes": null, "cookTypes": null, "orderNum": 1000, "card4no": null, "card4noAcc": null, "district2": 409, "searchScope": null, "status": 1, "address": "\u90fd\u5e02\u8def5001\u53f7\u5730\u4e0b\u4e00\u5c42B1F17\u53f7\u94fa\u4f4d", "name": "\u591a\u4e50\u4e4b\u65e5 \u8398\u6731\u5e97", "id": 191005, "pageNo": 0, "pageCount": null, "pageSize": 10, "ids": null, "endTime": null, "startTime": null}, {"cardNumFive": null, "isSupportYj": null, "cityName": null, "districtName": null, "shopinfo": {"mid": "888002154620058", "good_flag": null, "new_flag": null, "short_name": "\u591a\u4e50\u4e4b\u65e5", "short_name_pinyin": "duolezhiri", "status": null, "address": null, "name": null, "id": "43106"}, "mid": "888002154620058", "shopId": "43106", "netid": null, "province": 901, "district": 601, "zipcode": null, "telephone": null, "posDate": null, "destineTel": null, "togoTel": null, "trafficWay": null, "signBuilding": null, "businessArea": null, "selfRoom": null, "businessTime": null, "stall": null, "consume": null, "serviceFei": null, "favourable": null, "shopMemo": null, "appraise": null, "website": null, "memo": null, "payTypes": "\u6749\u5fb7\u5361", "shopTypes": "\u9762\u5305\u897f\u997c", "consumeTypes": null, "cookTypes": null, "orderNum": 1000, "card4no": null, "card4noAcc": null, "district2": 406, "searchScope": null, "status": 1, "address": "\u5929\u5c71\u8def341\u53f7\u7b2c2\u5e62107\u5355\u5143", "name": "\u591a\u4e50\u4e4b\u65e5 \u5929\u5c71\u8def\u5e97", "id": 191009, "pageNo": 0, "pageCount": null, "pageSize": 10, "ids": null, "endTime": null, "startTime": null}, {"cardNumFive": null, "isSupportYj": null, "cityName": null, "districtName": null, "shopinfo": {"mid": "888002154620055", "good_flag": null, "new_flag": null, "short_name": "\u591a\u4e50\u4e4b\u65e5", "short_name_pinyin": "duolezhiri", "status": null, "address": null, "name": null, "id": "43108"}, "mid": "888002154620055", "shopId": "43108", "netid": null, "province": 901, "district": 601, "zipcode": null, "telephone": null, "posDate": null, "destineTel": null, "togoTel": null, "trafficWay": null, "signBuilding": null, "businessArea": null, "selfRoom": null, "businessTime": null, "stall": null, "consume": null, "serviceFei": null, "favourable": null, "shopMemo": null, "appraise": null, "website": null, "memo": null, "payTypes": "\u6749\u5fb7\u5361", "shopTypes": "\u9762\u5305\u897f\u997c", "consumeTypes": null, "cookTypes": null, "orderNum": 1000, "card4no": null, "card4noAcc": null, "district2": 416, "searchScope": null, "status": 1, "address": "\u7261\u4e39\u6c5f\u8def1258\u53f71\u697c1F-A-04\u53f7", "name": "\u591a\u4e50\u4e4b\u65e5 \u7261\u4e39\u6c5f\u8def\u5e97", "id": 191014, "pageNo": 0, "pageCount": null, "pageSize": 10, "ids": null, "endTime": null, "startTime": null}, {"cardNumFive": null, "isSupportYj": null, "cityName": null, "districtName": null, "shopinfo": {"mid": "888002154620052", "good_flag": null, "new_flag": null, "short_name": "\u591a\u4e50\u4e4b\u65e5", "short_name_pinyin": "duolezhiri", "status": null, "address": null, "name": null, "id": "43109"}, "mid": "888002154620052", "shopId": "43109", "netid": null, "province": 901, "district": 601, "zipcode": null, "telephone": null, "posDate": null, "destineTel": null, "togoTel": null, "trafficWay": null, "signBuilding": null, "businessArea": null, "selfRoom": null, "businessTime": null, "stall": null, "consume": null, "serviceFei": null, "favourable": null, "shopMemo": null, "appraise": null, "website": null, "memo": null, "payTypes": "\u6749\u5fb7\u5361", "shopTypes": "\u9762\u5305\u897f\u997c", "consumeTypes": null, "cookTypes": null, "orderNum": 1000, "card4no": null, "card4noAcc": null, "district2": 409, "searchScope": null, "status": 1, "address": "\u8679\u6cc9\u8def1078\u53f78\u5e621\u5c4207\u5355\u5143", "name": "\u591a\u4e50\u4e4b\u65e5 \u8679\u6cc9\u8def\u5e97", "id": 191027, "pageNo": 0, "pageCount": null, "pageSize": 10, "ids": null, "endTime": null, "startTime": null}, {"cardNumFive": null, "isSupportYj": null, "cityName": null, "districtName": null, "shopinfo": {"mid": "888002154620057", "good_flag": null, "new_flag": null, "short_name": "\u591a\u4e50\u4e4b\u65e5", "short_name_pinyin": "duolezhiri", "status": null, "address": null, "name": null, "id": "43110"}, "mid": "888002154620057", "shopId": "43110", "netid": null, "province": 901, "district": 601, "zipcode": null, "telephone": null, "posDate": null, "destineTel": null, "togoTel": null, "trafficWay": null, "signBuilding": null, "businessArea": null, "selfRoom": null, "businessTime": null, "stall": null, "consume": null, "serviceFei": null, "favourable": null, "shopMemo": null, "appraise": null, "website": null, "memo": null, "payTypes": "\u6749\u5fb7\u5361", "shopTypes": "\u9762\u5305\u897f\u997c", "consumeTypes": null, "cookTypes": null, "orderNum": 1000, "card4no": null, "card4noAcc": null, "district2": 403, "searchScope": null, "status": 1, "address": "\u6d66\u5317\u8def9\u53f7102\u5ba4", "name": "\u591a\u4e50\u4e4b\u65e5 \u6d66\u5317\u8def\u5e97", "id": 191031, "pageNo": 0, "pageCount": null, "pageSize": 10, "ids": null, "endTime": null, "startTime": null}, {"cardNumFive": null, "isSupportYj": null, "cityName": null, "districtName": null, "shopinfo": {"mid": "888002154620059", "good_flag": null, "new_flag": null, "short_name": "\u591a\u4e50\u4e4b\u65e5", "short_name_pinyin": "duolezhiri", "status": null, "address": null, "name": null, "id": "43112"}, "mid": "888002154620059", "shopId": "43112", "netid": null, "province": 901, "district": 601, "zipcode": null, "telephone": null, "posDate": null, "destineTel": null, "togoTel": null, "trafficWay": null, "signBuilding": null, "businessArea": null, "selfRoom": null, "businessTime": null, "stall": null, "consume": null, "serviceFei": null, "favourable": null, "shopMemo": null, "appraise": null, "website": null, "memo": null, "payTypes": "\u6749\u5fb7\u5361", "shopTypes": "\u9762\u5305\u897f\u997c", "consumeTypes": null, "cookTypes": null, "orderNum": 1000, "card4no": null, "card4noAcc": null, "district2": 403, "searchScope": null, "status": 1, "address": "\u4e1c\u5b89\u8def599\u53f71-102\u5ba4", "name": "\u591a\u4e50\u4e4b\u65e5 \u4e1c\u5b89\u8def\u5e97", "id": 191034, "pageNo": 0, "pageCount": null, "pageSize": 10, "ids": null, "endTime": null, "startTime": null}, {"cardNumFive": null, "isSupportYj": null, "cityName": null, "districtName": null, "shopinfo": {"mid": "888002154620064", "good_flag": null, "new_flag": null, "short_name": "\u591a\u4e50\u4e4b\u65e5", "short_name_pinyin": "duolezhiri", "status": null, "address": null, "name": null, "id": "43126"}, "mid": "888002154620064", "shopId": "43126", "netid": null, "province": 901, "district": 601, "zipcode": null, "telephone": null, "posDate": null, "destineTel": null, "togoTel": null, "trafficWay": null, "signBuilding": null, "businessArea": null, "selfRoom": null, "businessTime": null, "stall": null, "consume": null, "serviceFei": null, "favourable": null, "shopMemo": null, "appraise": null, "website": null, "memo": null, "payTypes": "\u6749\u5fb7\u5361", "shopTypes": "\u9762\u5305\u897f\u997c", "consumeTypes": null, "cookTypes": null, "orderNum": 1000, "card4no": null, "card4noAcc": null, "district2": 408, "searchScope": null, "status": 1, "address": "\u4e34\u5e73\u8def133\u5f0414\u53f7\u5730\u4e0b\u4e00\u5c42B-003\u53f7", "name": "\u591a\u4e50\u4e4b\u65e5 \u4e34\u5e73\u8def\u5e97", "id": 193130, "pageNo": 0, "pageCount": null, "pageSize": 10, "ids": null, "endTime": null, "startTime": null}], "pageLimit": 1300, "size": 10}