{"pageCount": 1095, "count": 10942, "pageNo": 149, "subShopInfo": {"cardNumFive": "", "isSupportYj": "", "cityName": null, "districtName": null, "shopinfo": {"mid": null, "good_flag": null, "new_flag": null, "short_name": null, "short_name_pinyin": null, "status": null, "address": "", "name": "", "id": null}, "mid": null, "shopId": null, "netid": null, "province": 901, "district": null, "zipcode": null, "telephone": null, "posDate": null, "destineTel": null, "togoTel": null, "trafficWay": null, "signBuilding": null, "businessArea": null, "selfRoom": null, "businessTime": null, "stall": null, "consume": null, "serviceFei": null, "favourable": null, "shopMemo": "1", "appraise": null, "website": null, "memo": null, "payTypes": "", "shopTypes": "", "consumeTypes": null, "cookTypes": null, "orderNum": null, "card4no": null, "card4noAcc": null, "district2": null, "searchScope": null, "status": null, "address": "", "name": null, "id": null, "pageNo": 148, "pageCount": null, "pageSize": 10, "ids": null, "endTime": null, "startTime": null}, "list": [{"cardNumFive": null, "isSupportYj": null, "cityName": null, "districtName": null, "shopinfo": {"mid": "888002156911313", "good_flag": "2", "new_flag": "1", "short_name": "\u54e5\u5f1f", "short_name_pinyin": "gedi", "status": null, "address": null, "name": null, "id": "31635"}, "mid": "888002156911313", "shopId": "31635", "netid": null, "province": 901, "district": 601, "zipcode": null, "telephone": null, "posDate": "20100202", "destineTel": null, "togoTel": null, "trafficWay": null, "signBuilding": null, "businessArea": null, "selfRoom": null, "businessTime": null, "stall": null, "consume": null, "serviceFei": null, "favourable": null, "shopMemo": null, "appraise": null, "website": null, "memo": null, "payTypes": "\u6749\u5fb7\u5361", "shopTypes": "\u670d\u9970\u5bb6\u7eba", "consumeTypes": null, "cookTypes": null, "orderNum": 1000, "card4no": null, "card4noAcc": null, "district2": 401, "searchScope": null, "status": 1, "address": "\u96c1\u8361\u8def45\u53f7", "name": "\u54e5\u5f1f \u96c1\u8361\u5e97", "id": 134011, "pageNo": 0, "pageCount": null, "pageSize": 10, "ids": null, "endTime": null, "startTime": null}, {"cardNumFive": null, "isSupportYj": null, "cityName": null, "districtName": null, "shopinfo": {"mid": "888002156911312", "good_flag": "2", "new_flag": "1", "short_name": "\u54e5\u5f1f", "short_name_pinyin": "gedi", "status": null, "address": null, "name": null, "id": "31632"}, "mid": "888002156911312", "shopId": "31632", "netid": null, "province": 901, "district": 601, "zipcode": null, "telephone": null, "posDate": "20100202", "destineTel": null, "togoTel": null, "trafficWay": null, "signBuilding": null, "businessArea": null, "selfRoom": null, "businessTime": null, "stall": null, "consume": null, "serviceFei": null, "favourable": null, "shopMemo": null, "appraise": null, "website": null, "memo": null, "payTypes": "\u6749\u5fb7\u5361", "shopTypes": "\u670d\u9970\u5bb6\u7eba", "consumeTypes": null, "cookTypes": null, "orderNum": 1000, "card4no": null, "card4noAcc": null, "district2": 418, "searchScope": null, "status": 1, "address": "\u5468\u6d66\u9547\u5eb7\u6c88\u8def1562\u53f7", "name": "\u54e5\u5f1f \u5468\u6d66\u5e97", "id": 134013, "pageNo": 0, "pageCount": null, "pageSize": 10, "ids": null, "endTime": null, "startTime": null}, {"cardNumFive": null, "isSupportYj": null, "cityName": null, "districtName": null, "shopinfo": {"mid": "888002154410310", "good_flag": null, "new_flag": null, "short_name": "\u6b4c\u5e1d\u68b5", "short_name_pinyin": "gedifan", "status": null, "address": null, "name": null, "id": "43884"}, "mid": "888002154410310", "shopId": "43884", "netid": null, "province": 901, "district": 601, "zipcode": null, "telephone": null, "posDate": null, "destineTel": null, "togoTel": null, "trafficWay": null, "signBuilding": null, "businessArea": null, "selfRoom": null, "businessTime": null, "stall": null, "consume": null, "serviceFei": null, "favourable": null, "shopMemo": null, "appraise": null, "website": null, "memo": null, "payTypes": "\u6749\u5fb7\u5361", "shopTypes": null, "consumeTypes": null, "cookTypes": null, "orderNum": 1000, "card4no": null, "card4noAcc": null, "district2": 418, "searchScope": null, "status": 1, "address": "\u4e16\u7eaa\u5927\u90531217\u53f7\u4e00\u5c42101\u5ba4\u4e4bG59-F01-0-026\u5ba4", "name": "\u6b4c\u5e1d\u68b5 \u4e0a\u6d77\u4e16\u7eaa\u5927\u90fd\u4f1a\u5e97", "id": 202058, "pageNo": 0, "pageCount": null, "pageSize": 10, "ids": null, "endTime": null, "startTime": null}, {"cardNumFive": null, "isSupportYj": null, "cityName": null, "districtName": null, "shopinfo": {"mid": "888002154410310", "good_flag": null, "new_flag": null, "short_name": "\u6b4c\u5e1d\u68b5", "short_name_pinyin": "gedifan", "status": null, "address": null, "name": null, "id": "43884"}, "mid": "888002154410310", "shopId": "43884", "netid": null, "province": 901, "district": 601, "zipcode": null, "telephone": null, "posDate": null, "destineTel": null, "togoTel": null, "trafficWay": null, "signBuilding": null, "businessArea": null, "selfRoom": null, "businessTime": null, "stall": null, "consume": null, "serviceFei": null, "favourable": null, "shopMemo": null, "appraise": null, "website": null, "memo": null, "payTypes": "\u6749\u5fb7\u5361", "shopTypes": null, "consumeTypes": null, "cookTypes": null, "orderNum": 1000, "card4no": null, "card4noAcc": null, "district2": 409, "searchScope": null, "status": 1, "address": "\u6f15\u5b9d\u8def3366\u53f7\u5730\u4e0a\u4e00\u5c42L130\u53f7\u5355\u5143", "name": "\u6b4c\u5e1d\u68b5 \u4e0a\u6d77\u4e03\u5b9d\u4e07\u79d1\u5e97", "id": 202081, "pageNo": 0, "pageCount": null, "pageSize": 10, "ids": null, "endTime": null, "startTime": null}, {"cardNumFive": null, "isSupportYj": null, "cityName": null, "districtName": null, "shopinfo": {"mid": "888002159771035", "good_flag": null, "new_flag": null, "short_name": "\u6b4c\u8bd7\u739b", "short_name_pinyin": "geshima", "status": null, "address": null, "name": null, "id": "37465"}, "mid": "888002159771035", "shopId": "37465", "netid": null, "province": 901, "district": 601, "zipcode": null, "telephone": "52620323", "posDate": null, "destineTel": null, "togoTel": null, "trafficWay": null, "signBuilding": null, "businessArea": null, "selfRoom": null, "businessTime": null, "stall": null, "consume": null, "serviceFei": null, "favourable": null, "shopMemo": null, "appraise": null, "website": null, "memo": null, "payTypes": "\u6749\u5fb7\u5361", "shopTypes": "\u96f6\u552e", "consumeTypes": null, "cookTypes": null, "orderNum": 1000, "card4no": null, "card4noAcc": null, "district2": 405, "searchScope": null, "status": 1, "address": "\u94dc\u5ddd\u8def1688\u53f7", "name": "\u6b4c\u8bd7\u739b \u4e50\u8d2d\u771f\u5317\u5e97", "id": 158874, "pageNo": 0, "pageCount": null, "pageSize": 10, "ids": null, "endTime": null, "startTime": null}, {"cardNumFive": null, "isSupportYj": null, "cityName": null, "districtName": null, "shopinfo": {"mid": "888002159771035", "good_flag": null, "new_flag": null, "short_name": "\u6b4c\u8bd7\u739b", "short_name_pinyin": "geshima", "status": null, "address": null, "name": null, "id": "37465"}, "mid": "888002159771035", "shopId": "37465", "netid": null, "province": 901, "district": 601, "zipcode": null, "telephone": "33832469", "posDate": null, "destineTel": null, "togoTel": null, "trafficWay": null, "signBuilding": null, "businessArea": null, "selfRoom": null, "businessTime": null, "stall": null, "consume": null, "serviceFei": null, "favourable": null, "shopMemo": null, "appraise": null, "website": null, "memo": null, "payTypes": "\u6749\u5fb7\u5361", "shopTypes": "\u96f6\u552e", "consumeTypes": null, "cookTypes": null, "orderNum": 1000, "card4no": null, "card4noAcc": null, "district2": 418, "searchScope": null, "status": 1, "address": "\u9ad8\u79d1\u4e2d\u8def2859\u53f7\u4e00\u697c", "name": "\u6b4c\u8bd7\u739b \u5bb6\u4e50\u798f\u5f20\u6c5f\u5e97", "id": 158877, "pageNo": 0, "pageCount": null, "pageSize": 10, "ids": null, "endTime": null, "startTime": null}, {"cardNumFive": null, "isSupportYj": null, "cityName": null, "districtName": null, "shopinfo": {"mid": "888002159771035", "good_flag": null, "new_flag": null, "short_name": "\u6b4c\u8bd7\u739b", "short_name_pinyin": "geshima", "status": null, "address": null, "name": null, "id": "37465"}, "mid": "888002159771035", "shopId": "37465", "netid": null, "province": 901, "district": 601, "zipcode": null, "telephone": "50170803", "posDate": null, "destineTel": null, "togoTel": null, "trafficWay": null, "signBuilding": null, "businessArea": null, "selfRoom": null, "businessTime": null, "stall": null, "consume": null, "serviceFei": null, "favourable": null, "shopMemo": null, "appraise": null, "website": null, "memo": null, "payTypes": "\u6749\u5fb7\u5361", "shopTypes": "\u96f6\u552e", "consumeTypes": null, "cookTypes": null, "orderNum": 1000, "card4no": null, "card4noAcc": null, "district2": 418, "searchScope": null, "status": 1, "address": "\u6210\u5c71\u8def480\u53f7\u5730\u4e0b\u4e00\u5c42C-18\u5546\u94fa", "name": "\u6b4c\u8bd7\u739b \u4e16\u7eaa\u8054\u534e\u6210\u5c71\u8def\u5e97", "id": 158880, "pageNo": 0, "pageCount": null, "pageSize": 10, "ids": null, "endTime": null, "startTime": null}, {"cardNumFive": null, "isSupportYj": null, "cityName": null, "districtName": null, "shopinfo": {"mid": "888002159771035", "good_flag": null, "new_flag": null, "short_name": "\u6b4c\u8bd7\u739b", "short_name_pinyin": "geshima", "status": null, "address": null, "name": null, "id": "37465"}, "mid": "888002159771035", "shopId": "37465", "netid": null, "province": 901, "district": 601, "zipcode": null, "telephone": null, "posDate": null, "destineTel": null, "togoTel": null, "trafficWay": null, "signBuilding": null, "businessArea": null, "selfRoom": null, "businessTime": null, "stall": null, "consume": null, "serviceFei": null, "favourable": null, "shopMemo": null, "appraise": null, "website": null, "memo": null, "payTypes": "\u6749\u5fb7\u5361", "shopTypes": "\u96f6\u552e", "consumeTypes": null, "cookTypes": null, "orderNum": 1000, "card4no": null, "card4noAcc": null, "district2": 401, "searchScope": null, "status": 1, "address": "\u8087\u5609\u6d5c\u8def128\u53f7", "name": "\u6b4c\u8bd7\u739b \u4e50\u8d2d\u5362\u6e7e\u5e97", "id": 158884, "pageNo": 0, "pageCount": null, "pageSize": 10, "ids": null, "endTime": null, "startTime": null}, {"cardNumFive": null, "isSupportYj": null, "cityName": null, "districtName": null, "shopinfo": {"mid": "888002159771035", "good_flag": null, "new_flag": null, "short_name": "\u6b4c\u8bd7\u739b", "short_name_pinyin": "geshima", "status": null, "address": null, "name": null, "id": "37465"}, "mid": "888002159771035", "shopId": "37465", "netid": null, "province": 901, "district": 601, "zipcode": null, "telephone": null, "posDate": null, "destineTel": null, "togoTel": null, "trafficWay": null, "signBuilding": null, "businessArea": null, "selfRoom": null, "businessTime": null, "stall": null, "consume": null, "serviceFei": null, "favourable": null, "shopMemo": null, "appraise": null, "website": null, "memo": null, "payTypes": "\u6749\u5fb7\u5361", "shopTypes": "\u96f6\u552e", "consumeTypes": null, "cookTypes": null, "orderNum": 1000, "card4no": null, "card4noAcc": null, "district2": 418, "searchScope": null, "status": 1, "address": "\u5e74\u5bb6\u6d5c\u8def437\u53f7", "name": "\u6b4c\u8bd7\u739b \u5357\u6c47\u4e07\u8fbe\u5e7f\u573a", "id": 158886, "pageNo": 0, "pageCount": null, "pageSize": 10, "ids": null, "endTime": null, "startTime": null}, {"cardNumFive": null, "isSupportYj": null, "cityName": null, "districtName": null, "shopinfo": {"mid": "888002150940084", "good_flag": "2", "new_flag": "1", "short_name": "\u6208\u7279\u73e0\u5b9d", "short_name_pinyin": "getezhubao", "status": null, "address": null, "name": null, "id": "31631"}, "mid": "888002150940084", "shopId": "31631", "netid": null, "province": 901, "district": 601, "zipcode": null, "telephone": null, "posDate": "20100618", "destineTel": null, "togoTel": null, "trafficWay": null, "signBuilding": null, "businessArea": null, "selfRoom": null, "businessTime": null, "stall": null, "consume": null, "serviceFei": null, "favourable": null, "shopMemo": null, "appraise": null, "website": null, "memo": null, "payTypes": "\u6749\u5fb7\u5361", "shopTypes": "\u9970\u54c1", "consumeTypes": null, "cookTypes": null, "orderNum": 1000, "card4no": null, "card4noAcc": null, "district2": 418, "searchScope": null, "status": 1, "address": "\u6d66\u4e1c\u4e1c\u7ee3\u8def1237\u53f7", "name": "\u6208\u7279\u73e0\u5b9d \u4e1c\u7ee3\u8def\u5e97", "id": 133993, "pageNo": 0, "pageCount": null, "pageSize": 10, "ids": null, "endTime": null, "startTime": null}], "pageLimit": 1480, "size": 10}