{"pageCount": 1095, "count": 10942, "pageNo": 146, "subShopInfo": {"cardNumFive": "", "isSupportYj": "", "cityName": null, "districtName": null, "shopinfo": {"mid": null, "good_flag": null, "new_flag": null, "short_name": null, "short_name_pinyin": null, "status": null, "address": "", "name": "", "id": null}, "mid": null, "shopId": null, "netid": null, "province": 901, "district": null, "zipcode": null, "telephone": null, "posDate": null, "destineTel": null, "togoTel": null, "trafficWay": null, "signBuilding": null, "businessArea": null, "selfRoom": null, "businessTime": null, "stall": null, "consume": null, "serviceFei": null, "favourable": null, "shopMemo": "1", "appraise": null, "website": null, "memo": null, "payTypes": "", "shopTypes": "", "consumeTypes": null, "cookTypes": null, "orderNum": null, "card4no": null, "card4noAcc": null, "district2": null, "searchScope": null, "status": null, "address": "", "name": null, "id": null, "pageNo": 145, "pageCount": null, "pageSize": 10, "ids": null, "endTime": null, "startTime": null}, "list": [{"cardNumFive": null, "isSupportYj": null, "cityName": null, "districtName": null, "shopinfo": {"mid": "888888853990132", "good_flag": "2", "new_flag": "2", "short_name": "\u9ad8\u672c\u5546\u8d38", "short_name_pinyin": "gaobenshangmao", "status": null, "address": null, "name": null, "id": "31626"}, "mid": "888888853990132", "shopId": "31626", "netid": null, "province": 901, "district": 601, "zipcode": null, "telephone": null, "posDate": "20080916", "destineTel": null, "togoTel": null, "trafficWay": "\u516c\u4ea4137 870 \u5730\u94c1\u516b\u53f7\u7ebf", "signBuilding": "\u56fd\u7f8e\u7535\u5668", "businessArea": "40", "selfRoom": null, "businessTime": "10:00~20:00", "stall": "\u65e0", "consume": null, "serviceFei": null, "favourable": null, "shopMemo": null, "appraise": null, "website": null, "memo": null, "payTypes": "\u6749\u5fb7\u5361", "shopTypes": "\u4e13\u5356", "consumeTypes": null, "cookTypes": null, "orderNum": 1000, "card4no": null, "card4noAcc": null, "district2": 407, "searchScope": null, "status": 1, "address": "\u4f73\u6728\u65af\u8def325\u53f72\u697c209\u5ba4", "name": "\u9ad8\u672c\u5546\u8d38 \u4f73\u6728\u65af\u8def\u5e97", "id": 133962, "pageNo": 0, "pageCount": null, "pageSize": 10, "ids": null, "endTime": null, "startTime": null}, {"cardNumFive": null, "isSupportYj": null, "cityName": null, "districtName": null, "shopinfo": {"mid": "888888854410076", "good_flag": "2", "new_flag": "1", "short_name": "\u9ad8\u535a\u7279", "short_name_pinyin": "gaobote", "status": null, "address": null, "name": null, "id": "31627"}, "mid": "888888854410076", "shopId": "31627", "netid": null, "province": 901, "district": 601, "zipcode": null, "telephone": "66363953", "posDate": "20080202", "destineTel": null, "togoTel": null, "trafficWay": "\u516c\u4ea4830 923 937", "signBuilding": "\u8fd1\u5927\u534e\u4e09\u8def", "businessArea": null, "selfRoom": null, "businessTime": "08:30~20:30", "stall": null, "consume": null, "serviceFei": null, "favourable": null, "shopMemo": "\u4fdd\u5065\u98df\u54c1", "appraise": null, "website": null, "memo": null, "payTypes": "\u6749\u5fb7\u5361", "shopTypes": "\u4e13\u5356", "consumeTypes": null, "cookTypes": null, "orderNum": 1000, "card4no": null, "card4noAcc": null, "district2": 416, "searchScope": null, "status": 1, "address": "\u5927\u534e\u8def859\u53f7", "name": "\u9ad8\u535a\u7279 \u5927\u534e\u5e97", "id": 133965, "pageNo": 0, "pageCount": null, "pageSize": 10, "ids": null, "endTime": null, "startTime": null}, {"cardNumFive": null, "isSupportYj": null, "cityName": null, "districtName": null, "shopinfo": {"mid": "888888854410076", "good_flag": "2", "new_flag": "1", "short_name": "\u9ad8\u535a\u7279", "short_name_pinyin": "gaobote", "status": null, "address": null, "name": null, "id": "31627"}, "mid": "888888854410076", "shopId": "31627", "netid": null, "province": 901, "district": 601, "zipcode": null, "telephone": "50691884", "posDate": "20080407", "destineTel": null, "togoTel": null, "trafficWay": "\u516c\u4ea4971 170 799", "signBuilding": null, "businessArea": null, "selfRoom": null, "businessTime": "08:30~20:30", "stall": null, "consume": null, "serviceFei": null, "favourable": null, "shopMemo": null, "appraise": null, "website": null, "memo": null, "payTypes": "\u6749\u5fb7\u5361", "shopTypes": "\u4e13\u5356", "consumeTypes": null, "cookTypes": null, "orderNum": 1000, "card4no": null, "card4noAcc": null, "district2": 418, "searchScope": null, "status": 1, "address": "\u4e1c\u6ce2\u8def180\u53f7", "name": "\u9ad8\u535a\u7279 \u4e1c\u6ce2\u5e97", "id": 133966, "pageNo": 0, "pageCount": null, "pageSize": 10, "ids": null, "endTime": null, "startTime": null}, {"cardNumFive": null, "isSupportYj": null, "cityName": null, "districtName": null, "shopinfo": {"mid": "888888854410076", "good_flag": "2", "new_flag": "1", "short_name": "\u9ad8\u535a\u7279", "short_name_pinyin": "gaobote", "status": null, "address": null, "name": null, "id": "31627"}, "mid": "888888854410076", "shopId": "31627", "netid": null, "province": 901, "district": 601, "zipcode": null, "telephone": "50913545", "posDate": "20080407", "destineTel": null, "togoTel": null, "trafficWay": "\u516c\u4ea4451 \u9f99\u5927\u7ebf", "signBuilding": null, "businessArea": null, "selfRoom": null, "businessTime": "08:30~20:30", "stall": null, "consume": null, "serviceFei": null, "favourable": null, "shopMemo": null, "appraise": null, "website": null, "memo": null, "payTypes": "\u6749\u5fb7\u5361", "shopTypes": "\u4e13\u5356", "consumeTypes": null, "cookTypes": null, "orderNum": 1000, "card4no": null, "card4noAcc": null, "district2": 418, "searchScope": null, "status": 1, "address": "\u9ad8\u79d1\u897f\u8def2863\u53f7", "name": "\u9ad8\u535a\u7279 \u9ad8\u79d1\u897f\u5e97", "id": 133967, "pageNo": 0, "pageCount": null, "pageSize": 10, "ids": null, "endTime": null, "startTime": null}, {"cardNumFive": null, "isSupportYj": null, "cityName": null, "districtName": null, "shopinfo": {"mid": "888888854410076", "good_flag": "2", "new_flag": "1", "short_name": "\u9ad8\u535a\u7279", "short_name_pinyin": "gaobote", "status": null, "address": null, "name": null, "id": "31627"}, "mid": "888888854410076", "shopId": "31627", "netid": null, "province": 901, "district": 601, "zipcode": null, "telephone": "55382209", "posDate": "20080407", "destineTel": null, "togoTel": null, "trafficWay": "\u516c\u4ea4518 597 140", "signBuilding": null, "businessArea": null, "selfRoom": null, "businessTime": "08:30~20:30", "stall": null, "consume": null, "serviceFei": null, "favourable": null, "shopMemo": null, "appraise": null, "website": null, "memo": null, "payTypes": "\u6749\u5fb7\u5361", "shopTypes": "\u4e13\u5356", "consumeTypes": null, "cookTypes": null, "orderNum": 1000, "card4no": null, "card4noAcc": null, "district2": 410, "searchScope": null, "status": 1, "address": "\u6cbd\u6e90\u8def88\u53f7-2", "name": "\u9ad8\u535a\u7279 \u6cbd\u6e90\u5e97", "id": 133968, "pageNo": 0, "pageCount": null, "pageSize": 10, "ids": null, "endTime": null, "startTime": null}, {"cardNumFive": null, "isSupportYj": null, "cityName": null, "districtName": null, "shopinfo": {"mid": "888888854410076", "good_flag": "2", "new_flag": "1", "short_name": "\u9ad8\u535a\u7279", "short_name_pinyin": "gaobote", "status": null, "address": null, "name": null, "id": "31627"}, "mid": "888888854410076", "shopId": "31627", "netid": null, "province": 901, "district": 601, "zipcode": null, "telephone": null, "posDate": "20080407", "destineTel": null, "togoTel": null, "trafficWay": "\u516c\u4ea4537 910 \u5730\u94c1\u516b\u53f7\u7ebf", "signBuilding": null, "businessArea": null, "selfRoom": null, "businessTime": "08:30~20:30", "stall": null, "consume": null, "serviceFei": null, "favourable": null, "shopMemo": null, "appraise": null, "website": null, "memo": null, "payTypes": "\u6749\u5fb7\u5361", "shopTypes": "\u4e13\u5356", "consumeTypes": null, "cookTypes": null, "orderNum": 1000, "card4no": null, "card4noAcc": null, "district2": 407, "searchScope": null, "status": 1, "address": "\u56fd\u548c\u8def1000\u53f7", "name": "\u9ad8\u535a\u7279 \u56fd\u548c\u5e97", "id": 133969, "pageNo": 0, "pageCount": null, "pageSize": 10, "ids": null, "endTime": null, "startTime": null}, {"cardNumFive": null, "isSupportYj": null, "cityName": null, "districtName": null, "shopinfo": {"mid": "888888854410076", "good_flag": "2", "new_flag": "1", "short_name": "\u9ad8\u535a\u7279", "short_name_pinyin": "gaobote", "status": null, "address": null, "name": null, "id": "31627"}, "mid": "888888854410076", "shopId": "31627", "netid": null, "province": 901, "district": 601, "zipcode": null, "telephone": "66225285", "posDate": "20080202", "destineTel": null, "togoTel": null, "trafficWay": "\u5730\u94c1\u4e00\u53f7\u7ebf \u516c\u4ea4705", "signBuilding": "\u8fd1\u901a\u6cb3\u8def", "businessArea": null, "selfRoom": null, "businessTime": "08:30~20:30", "stall": null, "consume": null, "serviceFei": null, "favourable": null, "shopMemo": "\u4fdd\u5065\u98df\u54c1", "appraise": null, "website": null, "memo": null, "payTypes": "\u6749\u5fb7\u5361", "shopTypes": "\u4e13\u5356", "consumeTypes": null, "cookTypes": null, "orderNum": 1000, "card4no": null, "card4noAcc": null, "district2": 416, "searchScope": null, "status": 1, "address": "\u547c\u739b\u8def680\u53f7", "name": "\u9ad8\u535a\u7279 \u547c\u739b\u5e97", "id": 133970, "pageNo": 0, "pageCount": null, "pageSize": 10, "ids": null, "endTime": null, "startTime": null}, {"cardNumFive": null, "isSupportYj": null, "cityName": null, "districtName": null, "shopinfo": {"mid": "888888854410076", "good_flag": "2", "new_flag": "1", "short_name": "\u9ad8\u535a\u7279", "short_name_pinyin": "gaobote", "status": null, "address": null, "name": null, "id": "31627"}, "mid": "888888854410076", "shopId": "31627", "netid": null, "province": 901, "district": 601, "zipcode": null, "telephone": "55961822", "posDate": "20080202", "destineTel": null, "togoTel": null, "trafficWay": "\u516c\u4ea4220 \u5730\u94c1\u516b\u53f7\u7ebf", "signBuilding": "\u8fd1\u6253\u864e\u5c71\u8def", "businessArea": null, "selfRoom": null, "businessTime": "08:30~20:30", "stall": null, "consume": null, "serviceFei": null, "favourable": null, "shopMemo": "\u4fdd\u5065\u98df\u54c1", "appraise": null, "website": null, "memo": null, "payTypes": "\u6749\u5fb7\u5361", "shopTypes": "\u4e13\u5356", "consumeTypes": null, "cookTypes": null, "orderNum": 1000, "card4no": null, "card4noAcc": null, "district2": 407, "searchScope": null, "status": 1, "address": "\u8fbd\u6e90\u897f\u8def160\u53f7\u4e59", "name": "\u9ad8\u535a\u7279 \u63a7\u6c5f\u5e97", "id": 133972, "pageNo": 0, "pageCount": null, "pageSize": 10, "ids": null, "endTime": null, "startTime": null}, {"cardNumFive": null, "isSupportYj": null, "cityName": null, "districtName": null, "shopinfo": {"mid": "888888854410076", "good_flag": "2", "new_flag": "1", "short_name": "\u9ad8\u535a\u7279", "short_name_pinyin": "gaobote", "status": null, "address": null, "name": null, "id": "31627"}, "mid": "888888854410076", "shopId": "31627", "netid": null, "province": 901, "district": 601, "zipcode": null, "telephone": "59154846", "posDate": "20100111", "destineTel": null, "togoTel": null, "trafficWay": null, "signBuilding": null, "businessArea": null, "selfRoom": null, "businessTime": "08:30~20:30", "stall": null, "consume": null, "serviceFei": null, "favourable": null, "shopMemo": null, "appraise": null, "website": null, "memo": null, "payTypes": "\u6749\u5fb7\u5361", "shopTypes": "\u4e13\u5356", "consumeTypes": null, "cookTypes": null, "orderNum": 1000, "card4no": null, "card4noAcc": null, "district2": 411, "searchScope": null, "status": 1, "address": "\u80b2\u82f1\u8857579\u53f7", "name": "\u9ad8\u535a\u7279 \u9a6c\u9646\u5e97", "id": 133973, "pageNo": 0, "pageCount": null, "pageSize": 10, "ids": null, "endTime": null, "startTime": null}, {"cardNumFive": null, "isSupportYj": null, "cityName": null, "districtName": null, "shopinfo": {"mid": "888888854410076", "good_flag": "2", "new_flag": "1", "short_name": "\u9ad8\u535a\u7279", "short_name_pinyin": "gaobote", "status": null, "address": null, "name": null, "id": "31627"}, "mid": "888888854410076", "shopId": "31627", "netid": null, "province": 901, "district": 601, "zipcode": null, "telephone": "63142807", "posDate": "20080407", "destineTel": null, "togoTel": null, "trafficWay": "\u516c\u4ea4109 18 \u5730\u94c1\u516b\u53f7\u7ebf", "signBuilding": null, "businessArea": null, "selfRoom": null, "businessTime": "08:30~20:30", "stall": null, "consume": null, "serviceFei": null, "favourable": null, "shopMemo": null, "appraise": null, "website": null, "memo": null, "payTypes": "\u6749\u5fb7\u5361", "shopTypes": "\u4e13\u5356", "consumeTypes": null, "cookTypes": null, "orderNum": 1000, "card4no": null, "card4noAcc": null, "district2": 401, "searchScope": null, "status": 1, "address": "\u5357\u8f66\u7ad9\u8def450\u5f041\u53f7", "name": "\u9ad8\u535a\u7279 \u5357\u8f66\u7ad9\u5e97", "id": 133974, "pageNo": 0, "pageCount": null, "pageSize": 10, "ids": null, "endTime": null, "startTime": null}], "pageLimit": 1450, "size": 10}