{"pageCount": 1095, "count": 10942, "pageNo": 145, "subShopInfo": {"cardNumFive": "", "isSupportYj": "", "cityName": null, "districtName": null, "shopinfo": {"mid": null, "good_flag": null, "new_flag": null, "short_name": null, "short_name_pinyin": null, "status": null, "address": "", "name": "", "id": null}, "mid": null, "shopId": null, "netid": null, "province": 901, "district": null, "zipcode": null, "telephone": null, "posDate": null, "destineTel": null, "togoTel": null, "trafficWay": null, "signBuilding": null, "businessArea": null, "selfRoom": null, "businessTime": null, "stall": null, "consume": null, "serviceFei": null, "favourable": null, "shopMemo": "1", "appraise": null, "website": null, "memo": null, "payTypes": "", "shopTypes": "", "consumeTypes": null, "cookTypes": null, "orderNum": null, "card4no": null, "card4noAcc": null, "district2": null, "searchScope": null, "status": null, "address": "", "name": null, "id": null, "pageNo": 144, "pageCount": null, "pageSize": 10, "ids": null, "endTime": null, "startTime": null}, "list": [{"cardNumFive": null, "isSupportYj": null, "cityName": null, "districtName": null, "shopinfo": {"mid": "888888859120064", "good_flag": null, "new_flag": null, "short_name": "\u590d\u7f8e\u5927\u836f\u623f\uff08\u539f\u590d\u661f\u5927\u836f\u623f\uff09", "short_name_pinyin": "fumeidayaofang\uff08yuanfuxingdayaofang\uff09", "status": null, "address": null, "name": null, "id": "31609"}, "mid": "888888859120064", "shopId": "31609", "netid": null, "province": 901, "district": 601, "zipcode": null, "telephone": "63321791", "posDate": "20090224", "destineTel": null, "togoTel": null, "trafficWay": null, "signBuilding": null, "businessArea": null, "selfRoom": null, "businessTime": null, "stall": null, "consume": null, "serviceFei": null, "favourable": null, "shopMemo": null, "appraise": null, "website": null, "memo": null, "payTypes": "\u6749\u5fb7\u5361", "shopTypes": "\u836f\u5e97", "consumeTypes": null, "cookTypes": null, "orderNum": 1000, "card4no": null, "card4noAcc": null, "district2": 401, "searchScope": null, "status": 1, "address": "\u4e2d\u534e\u8def292\u53f7", "name": "\u590d\u7f8e\u5927\u836f\u623f\uff08\u539f\u590d\u661f\u5927\u836f\u623f\uff09 \u4e2d\u534e\u8def\u5e97", "id": 133942, "pageNo": 0, "pageCount": null, "pageSize": 10, "ids": null, "endTime": null, "startTime": null}, {"cardNumFive": null, "isSupportYj": null, "cityName": null, "districtName": null, "shopinfo": {"mid": "888888859120064", "good_flag": null, "new_flag": null, "short_name": "\u590d\u7f8e\u5927\u836f\u623f\uff08\u539f\u590d\u661f\u5927\u836f\u623f\uff09", "short_name_pinyin": "fumeidayaofang\uff08yuanfuxingdayaofang\uff09", "status": null, "address": null, "name": null, "id": "31609"}, "mid": "888888859120064", "shopId": "31609", "netid": null, "province": 901, "district": 601, "zipcode": null, "telephone": "56556624", "posDate": null, "destineTel": null, "togoTel": null, "trafficWay": "95 823 929", "signBuilding": null, "businessArea": null, "selfRoom": null, "businessTime": null, "stall": null, "consume": null, "serviceFei": null, "favourable": null, "shopMemo": null, "appraise": null, "website": null, "memo": null, "payTypes": "\u6749\u5fb7\u5361", "shopTypes": "\u836f\u5e97", "consumeTypes": null, "cookTypes": null, "orderNum": 1000, "card4no": null, "card4noAcc": null, "district2": 410, "searchScope": null, "status": 1, "address": "\u4e2d\u534e\u65b0\u8def957\u53f7", "name": "\u590d\u7f8e\u5927\u836f\u623f\uff08\u539f\u590d\u661f\u5927\u836f\u623f\uff09 \u4e2d\u534e\u65b0\u8def\u4e8c\u5e97", "id": 133943, "pageNo": 0, "pageCount": null, "pageSize": 10, "ids": null, "endTime": null, "startTime": null}, {"cardNumFive": null, "isSupportYj": null, "cityName": null, "districtName": null, "shopinfo": {"mid": "888888859120077", "good_flag": "2", "new_flag": "2", "short_name": "\u590d\u7f8e\u5927\u836f\u623f\uff08\u539f\u590d\u661f\u5927\u836f\u623f\uff09", "short_name_pinyin": "fumeidayaofang\uff08yuanfuxingdayaofang\uff09", "status": null, "address": null, "name": null, "id": "31614"}, "mid": "888888859120077", "shopId": "31614", "netid": null, "province": 901, "district": 601, "zipcode": null, "telephone": "64426300", "posDate": "20080221", "destineTel": null, "togoTel": null, "trafficWay": "\u516c\u4ea4703 \u8398\u90b5\u7ebf \u5f90\u95f5\u7ebf", "signBuilding": null, "businessArea": null, "selfRoom": null, "businessTime": null, "stall": null, "consume": null, "serviceFei": null, "favourable": null, "shopMemo": null, "appraise": null, "website": null, "memo": null, "payTypes": "\u6749\u5fb7\u5361", "shopTypes": "\u836f\u5e97", "consumeTypes": null, "cookTypes": null, "orderNum": 1000, "card4no": null, "card4noAcc": null, "district2": 409, "searchScope": null, "status": 1, "address": "\u90fd\u5e02\u8def3519\u53f7", "name": "\u590d\u7f8e\u5927\u836f\u623f\uff08\u539f\u590d\u661f\u5927\u836f\u623f\uff09 \u989b\u76db\u5927\u836f\u623f", "id": 133946, "pageNo": 0, "pageCount": null, "pageSize": 10, "ids": null, "endTime": null, "startTime": null}, {"cardNumFive": null, "isSupportYj": null, "cityName": null, "districtName": null, "shopinfo": {"mid": "888888859120064", "good_flag": null, "new_flag": null, "short_name": "\u590d\u7f8e\u5927\u836f\u623f\uff08\u539f\u590d\u661f\u5927\u836f\u623f\uff09", "short_name_pinyin": "fumeidayaofang\uff08yuanfuxingdayaofang\uff09", "status": null, "address": null, "name": null, "id": "31609"}, "mid": "888888859120064", "shopId": "31609", "netid": null, "province": 901, "district": 601, "zipcode": null, "telephone": "62985394", "posDate": null, "destineTel": null, "togoTel": null, "trafficWay": "112 837 24", "signBuilding": null, "businessArea": null, "selfRoom": null, "businessTime": null, "stall": null, "consume": null, "serviceFei": null, "favourable": null, "shopMemo": null, "appraise": null, "website": null, "memo": null, "payTypes": "\u6749\u5fb7\u5361", "shopTypes": "\u836f\u5e97", "consumeTypes": null, "cookTypes": null, "orderNum": 1000, "card4no": null, "card4noAcc": null, "district2": 405, "searchScope": null, "status": 1, "address": "\u897f\u5eb7\u8def1289\u53f7", "name": "\u590d\u7f8e\u5927\u836f\u623f\uff08\u539f\u590d\u661f\u5927\u836f\u623f\uff09 \u603b\u5e97", "id": 133947, "pageNo": 0, "pageCount": null, "pageSize": 10, "ids": null, "endTime": null, "startTime": null}, {"cardNumFive": null, "isSupportYj": null, "cityName": null, "districtName": null, "shopinfo": {"mid": "888888859120064", "good_flag": null, "new_flag": null, "short_name": "\u590d\u7f8e\u5927\u836f\u623f\uff08\u539f\u590d\u661f\u5927\u836f\u623f\uff09", "short_name_pinyin": "fumeidayaofang\uff08yuanfuxingdayaofang\uff09", "status": null, "address": null, "name": null, "id": "36203"}, "mid": "888888859120064", "shopId": "36203", "netid": null, "province": 901, "district": 601, "zipcode": null, "telephone": "63222680", "posDate": "20100812", "destineTel": null, "togoTel": null, "trafficWay": null, "signBuilding": null, "businessArea": null, "selfRoom": null, "businessTime": null, "stall": null, "consume": null, "serviceFei": null, "favourable": null, "shopMemo": null, "appraise": null, "website": null, "memo": null, "payTypes": "\u6749\u5fb7\u5361", "shopTypes": "\u836f\u5e97", "consumeTypes": null, "cookTypes": null, "orderNum": 1000, "card4no": null, "card4noAcc": null, "district2": 401, "searchScope": null, "status": 1, "address": "\u9ec4\u6d66\u533a\u798f\u5efa\u4e2d\u8def429\u53f7", "name": "\u590d\u7f8e\u5927\u836f\u623f\uff08\u539f\u590d\u661f\u5927\u836f\u623f\uff09 \u798f\u5efa\u4e2d\u8def\u5e97", "id": 150797, "pageNo": 0, "pageCount": null, "pageSize": 10, "ids": null, "endTime": null, "startTime": null}, {"cardNumFive": null, "isSupportYj": null, "cityName": null, "districtName": null, "shopinfo": {"mid": "888888859120064", "good_flag": null, "new_flag": null, "short_name": "\u590d\u7f8e\u5927\u836f\u623f\uff08\u539f\u590d\u661f\u5927\u836f\u623f\uff09", "short_name_pinyin": "fumeidayaofang\uff08yuanfuxingdayaofang\uff09", "status": null, "address": null, "name": null, "id": "36203"}, "mid": "888888859120064", "shopId": "36203", "netid": null, "province": 901, "district": 601, "zipcode": null, "telephone": "20233248", "posDate": "20100812", "destineTel": null, "togoTel": null, "trafficWay": null, "signBuilding": null, "businessArea": null, "selfRoom": null, "businessTime": null, "stall": null, "consume": null, "serviceFei": null, "favourable": null, "shopMemo": null, "appraise": null, "website": null, "memo": null, "payTypes": "\u6749\u5fb7\u5361", "shopTypes": "\u836f\u5e97", "consumeTypes": null, "cookTypes": null, "orderNum": 1000, "card4no": null, "card4noAcc": null, "district2": 418, "searchScope": null, "status": 1, "address": "\u6d66\u4e1c\u65b0\u533a\u5f20\u6768\u8def3611\u5f041\u53f7147\u5ba4", "name": "\u590d\u7f8e\u5927\u836f\u623f\uff08\u539f\u590d\u661f\u5927\u836f\u623f\uff09 \u91d1\u6865\u5e97", "id": 150798, "pageNo": 0, "pageCount": null, "pageSize": 10, "ids": null, "endTime": null, "startTime": null}, {"cardNumFive": null, "isSupportYj": null, "cityName": null, "districtName": null, "shopinfo": {"mid": "888888859120064", "good_flag": null, "new_flag": null, "short_name": "\u590d\u7f8e\u5927\u836f\u623f\uff08\u539f\u590d\u661f\u5927\u836f\u623f\uff09", "short_name_pinyin": "fumeidayaofang\uff08yuanfuxingdayaofang\uff09", "status": null, "address": null, "name": null, "id": "36203"}, "mid": "888888859120064", "shopId": "36203", "netid": null, "province": 901, "district": 601, "zipcode": null, "telephone": "39536592", "posDate": "20100813", "destineTel": null, "togoTel": null, "trafficWay": null, "signBuilding": null, "businessArea": null, "selfRoom": null, "businessTime": null, "stall": null, "consume": null, "serviceFei": null, "favourable": null, "shopMemo": null, "appraise": null, "website": null, "memo": null, "payTypes": "\u6749\u5fb7\u5361", "shopTypes": "\u836f\u5e97", "consumeTypes": null, "cookTypes": null, "orderNum": 1000, "card4no": null, "card4noAcc": null, "district2": 411, "searchScope": null, "status": 1, "address": "\u5609\u5b9a\u533a\u82b3\u6797\u8def798\u5f041\u5e623\u53f7", "name": "\u590d\u7f8e\u5927\u836f\u623f\uff08\u539f\u590d\u661f\u5927\u836f\u623f\uff09 \u5357\u7fd4\u5e97", "id": 150800, "pageNo": 0, "pageCount": null, "pageSize": 10, "ids": null, "endTime": null, "startTime": null}, {"cardNumFive": null, "isSupportYj": null, "cityName": null, "districtName": null, "shopinfo": {"mid": "888888859120064", "good_flag": null, "new_flag": null, "short_name": "\u590d\u7f8e\u5927\u836f\u623f\uff08\u539f\u590d\u661f\u5927\u836f\u623f\uff09", "short_name_pinyin": "fumeidayaofang\uff08yuanfuxingdayaofang\uff09", "status": null, "address": null, "name": null, "id": "36203"}, "mid": "888888859120064", "shopId": "36203", "netid": null, "province": 901, "district": 601, "zipcode": null, "telephone": "62882016", "posDate": "20100812", "destineTel": null, "togoTel": null, "trafficWay": null, "signBuilding": null, "businessArea": null, "selfRoom": null, "businessTime": null, "stall": null, "consume": null, "serviceFei": null, "favourable": null, "shopMemo": null, "appraise": null, "website": null, "memo": null, "payTypes": "\u6749\u5fb7\u5361", "shopTypes": "\u836f\u5e97", "consumeTypes": null, "cookTypes": null, "orderNum": 1000, "card4no": null, "card4noAcc": null, "district2": 404, "searchScope": null, "status": 1, "address": "\u9759\u5b89\u533a\u897f\u5eb7\u8def865\u53f7", "name": "\u590d\u7f8e\u5927\u836f\u623f\uff08\u539f\u590d\u661f\u5927\u836f\u623f\uff09 \u65b0\u4e30\u8def\u5e97", "id": 150802, "pageNo": 0, "pageCount": null, "pageSize": 10, "ids": null, "endTime": null, "startTime": null}, {"cardNumFive": null, "isSupportYj": null, "cityName": null, "districtName": null, "shopinfo": {"mid": "888888857190044", "good_flag": "2", "new_flag": "2", "short_name": "\u5bcc\u4e4b\u5c9b\u5bb6\u5177", "short_name_pinyin": "fuzhidaojiaju", "status": null, "address": null, "name": null, "id": "31619"}, "mid": "888888857190044", "shopId": "31619", "netid": null, "province": 901, "district": 601, "zipcode": null, "telephone": "56446298", "posDate": "20090402", "destineTel": null, "togoTel": null, "trafficWay": null, "signBuilding": null, "businessArea": "1000", "selfRoom": null, "businessTime": null, "stall": "\u6709", "consume": null, "serviceFei": null, "favourable": null, "shopMemo": null, "appraise": null, "website": null, "memo": null, "payTypes": "\u6749\u5fb7\u5361", "shopTypes": "\u4e13\u5356", "consumeTypes": null, "cookTypes": null, "orderNum": 1000, "card4no": null, "card4noAcc": null, "district2": 416, "searchScope": null, "status": 1, "address": "\u957f\u9038\u8def15\u53f7\u5efa\u914d\u9f99\u5bb6\u5c45\u57ce\u56db\u697c4088/4198/4288\u53f7", "name": "\u5bcc\u4e4b\u5c9b\u5bb6\u5177 \u957f\u9038\u8def\u5e97", "id": 133952, "pageNo": 0, "pageCount": null, "pageSize": 10, "ids": null, "endTime": null, "startTime": null}, {"cardNumFive": null, "isSupportYj": null, "cityName": null, "districtName": null, "shopinfo": {"mid": "888888857190044", "good_flag": "2", "new_flag": "2", "short_name": "\u5bcc\u4e4b\u5c9b\u5bb6\u5177", "short_name_pinyin": "fuzhidaojiaju", "status": null, "address": null, "name": null, "id": "31619"}, "mid": "888888857190044", "shopId": "31619", "netid": null, "province": 901, "district": 601, "zipcode": null, "telephone": "62248133", "posDate": "20090402", "destineTel": null, "togoTel": null, "trafficWay": null, "signBuilding": null, "businessArea": null, "selfRoom": null, "businessTime": null, "stall": null, "consume": null, "serviceFei": null, "favourable": null, "shopMemo": null, "appraise": null, "website": null, "memo": null, "payTypes": "\u6749\u5fb7\u5361", "shopTypes": "\u4e13\u5356", "consumeTypes": null, "cookTypes": null, "orderNum": 1000, "card4no": null, "card4noAcc": null, "district2": 405, "searchScope": null, "status": 1, "address": "\u94dc\u5ddd\u8def185\u53f7\u91d1\u76db\u88c5\u9970\u5bb6\u5177\u5e7f\u573a\u56db\u697c\u4e2d\u533a9002\u53f7", "name": "\u5bcc\u4e4b\u5c9b\u5bb6\u5177 \u94dc\u5ddd\u8def\u5e97", "id": 133954, "pageNo": 0, "pageCount": null, "pageSize": 10, "ids": null, "endTime": null, "startTime": null}], "pageLimit": 1440, "size": 10}