{"pageCount": 1095, "count": 10942, "pageNo": 140, "subShopInfo": {"cardNumFive": "", "isSupportYj": "", "cityName": null, "districtName": null, "shopinfo": {"mid": null, "good_flag": null, "new_flag": null, "short_name": null, "short_name_pinyin": null, "status": null, "address": "", "name": "", "id": null}, "mid": null, "shopId": null, "netid": null, "province": 901, "district": null, "zipcode": null, "telephone": null, "posDate": null, "destineTel": null, "togoTel": null, "trafficWay": null, "signBuilding": null, "businessArea": null, "selfRoom": null, "businessTime": null, "stall": null, "consume": null, "serviceFei": null, "favourable": null, "shopMemo": "1", "appraise": null, "website": null, "memo": null, "payTypes": "", "shopTypes": "", "consumeTypes": null, "cookTypes": null, "orderNum": null, "card4no": null, "card4noAcc": null, "district2": null, "searchScope": null, "status": null, "address": "", "name": null, "id": null, "pageNo": 139, "pageCount": null, "pageSize": 10, "ids": null, "endTime": null, "startTime": null}, "list": [{"cardNumFive": null, "isSupportYj": null, "cityName": null, "districtName": null, "shopinfo": {"mid": "888888854410065", "good_flag": "2", "new_flag": "2", "short_name": "\u798f\u541b\u5802", "short_name_pinyin": "fujuntang", "status": null, "address": null, "name": null, "id": "31603"}, "mid": "888888854410065", "shopId": "31603", "netid": null, "province": 901, "district": 601, "zipcode": null, "telephone": "33775422", "posDate": "20071224", "destineTel": null, "togoTel": null, "trafficWay": "\u516c\u4ea4922 510", "signBuilding": null, "businessArea": "70\u5e73\u65b9\u7c73", "selfRoom": null, "businessTime": "9:00~20:30", "stall": "\u65e0", "consume": null, "serviceFei": null, "favourable": null, "shopMemo": "\u4fdd\u5065\u54c1\u4e13\u5356", "appraise": null, "website": null, "memo": null, "payTypes": "\u6749\u5fb7\u5361", "shopTypes": "\u836f\u5e97", "consumeTypes": null, "cookTypes": null, "orderNum": 1000, "card4no": null, "card4noAcc": null, "district2": 408, "searchScope": null, "status": 1, "address": "\u5468\u5bb6\u5634\u8def365\u53f7\u5e95\u5c42", "name": "\u798f\u541b\u5802 \u5468\u5bb6\u5634\u8def\u5e97", "id": 133877, "pageNo": 0, "pageCount": null, "pageSize": 10, "ids": null, "endTime": null, "startTime": null}, {"cardNumFive": null, "isSupportYj": null, "cityName": null, "districtName": null, "shopinfo": {"mid": "888888859120064", "good_flag": null, "new_flag": null, "short_name": "\u590d\u7f8e\u5927\u836f\u623f\uff08\u539f\u590d\u661f\u5927\u836f\u623f\uff09", "short_name_pinyin": "fumeidayaofang\uff08yuanfuxingdayaofang\uff09", "status": null, "address": null, "name": null, "id": "31609"}, "mid": "888888859120064", "shopId": "31609", "netid": null, "province": 901, "district": 601, "zipcode": null, "telephone": "64300400", "posDate": null, "destineTel": null, "togoTel": null, "trafficWay": "\u8398\u8377\u7ebf \u7533\u95f5\u7ebf \u4e1c\u576a\u7ebf", "signBuilding": null, "businessArea": null, "selfRoom": null, "businessTime": null, "stall": null, "consume": null, "serviceFei": null, "favourable": null, "shopMemo": null, "appraise": null, "website": null, "memo": null, "payTypes": "\u6749\u5fb7\u5361", "shopTypes": "\u836f\u5e97", "consumeTypes": null, "cookTypes": null, "orderNum": 1000, "card4no": null, "card4noAcc": null, "district2": 409, "searchScope": null, "status": 1, "address": "\u5bbe\u5ddd\u8def315\u53f714\u5ba4", "name": "\u590d\u7f8e\u5927\u836f\u623f\uff08\u539f\u590d\u661f\u5927\u836f\u623f\uff09 \u5bbe\u5ddd\u8def\u5e97", "id": 133884, "pageNo": 0, "pageCount": null, "pageSize": 10, "ids": null, "endTime": null, "startTime": null}, {"cardNumFive": null, "isSupportYj": null, "cityName": null, "districtName": null, "shopinfo": {"mid": "888888859120064", "good_flag": null, "new_flag": null, "short_name": "\u590d\u7f8e\u5927\u836f\u623f\uff08\u539f\u590d\u661f\u5927\u836f\u623f\uff09", "short_name_pinyin": "fumeidayaofang\uff08yuanfuxingdayaofang\uff09", "status": null, "address": null, "name": null, "id": "31609"}, "mid": "888888859120064", "shopId": "31609", "netid": null, "province": 901, "district": 601, "zipcode": null, "telephone": "32240524", "posDate": null, "destineTel": null, "togoTel": null, "trafficWay": "\u5730\u94c1\u4e09\u53f7\u7ebf 69 838", "signBuilding": null, "businessArea": null, "selfRoom": null, "businessTime": null, "stall": null, "consume": null, "serviceFei": null, "favourable": null, "shopMemo": null, "appraise": null, "website": null, "memo": null, "payTypes": "\u6749\u5fb7\u5361", "shopTypes": "\u836f\u5e97", "consumeTypes": null, "cookTypes": null, "orderNum": 1000, "card4no": null, "card4noAcc": null, "district2": 405, "searchScope": null, "status": 1, "address": "\u66f9\u6768\u8def673\u53f7", "name": "\u590d\u7f8e\u5927\u836f\u623f\uff08\u539f\u590d\u661f\u5927\u836f\u623f\uff09 \u66f9\u6768\u8def\u5e97", "id": 133885, "pageNo": 0, "pageCount": null, "pageSize": 10, "ids": null, "endTime": null, "startTime": null}, {"cardNumFive": null, "isSupportYj": null, "cityName": null, "districtName": null, "shopinfo": {"mid": "888888859120064", "good_flag": null, "new_flag": null, "short_name": "\u590d\u7f8e\u5927\u836f\u623f\uff08\u539f\u590d\u661f\u5927\u836f\u623f\uff09", "short_name_pinyin": "fumeidayaofang\uff08yuanfuxingdayaofang\uff09", "status": null, "address": null, "name": null, "id": "31609"}, "mid": "888888859120064", "shopId": "31609", "netid": null, "province": 901, "district": 601, "zipcode": null, "telephone": "34083545", "posDate": null, "destineTel": null, "togoTel": null, "trafficWay": "703 162", "signBuilding": null, "businessArea": null, "selfRoom": null, "businessTime": null, "stall": null, "consume": null, "serviceFei": null, "favourable": null, "shopMemo": null, "appraise": null, "website": null, "memo": null, "payTypes": "\u6749\u5fb7\u5361", "shopTypes": "\u836f\u5e97", "consumeTypes": null, "cookTypes": null, "orderNum": 1000, "card4no": null, "card4noAcc": null, "district2": 409, "searchScope": null, "status": 1, "address": "\u7579\u753a\u8def99\u5f04117\u53f7105\u5ba4", "name": "\u590d\u7f8e\u5927\u836f\u623f\uff08\u539f\u590d\u661f\u5927\u836f\u623f\uff09 \u6625\u7533\u836f\u623f", "id": 133887, "pageNo": 0, "pageCount": null, "pageSize": 10, "ids": null, "endTime": null, "startTime": null}, {"cardNumFive": null, "isSupportYj": null, "cityName": null, "districtName": null, "shopinfo": {"mid": "888888859120064", "good_flag": null, "new_flag": null, "short_name": "\u590d\u7f8e\u5927\u836f\u623f\uff08\u539f\u590d\u661f\u5927\u836f\u623f\uff09", "short_name_pinyin": "fumeidayaofang\uff08yuanfuxingdayaofang\uff09", "status": null, "address": null, "name": null, "id": "31609"}, "mid": "888888859120064", "shopId": "31609", "netid": null, "province": 901, "district": 601, "zipcode": null, "telephone": "66670400", "posDate": null, "destineTel": null, "togoTel": null, "trafficWay": "58 963 844", "signBuilding": null, "businessArea": null, "selfRoom": null, "businessTime": null, "stall": null, "consume": null, "serviceFei": null, "favourable": null, "shopMemo": null, "appraise": null, "website": null, "memo": null, "payTypes": "\u6749\u5fb7\u5361", "shopTypes": "\u836f\u5e97", "consumeTypes": null, "cookTypes": null, "orderNum": 1000, "card4no": null, "card4noAcc": null, "district2": 416, "searchScope": null, "status": 1, "address": "\u884c\u77e5\u8def44\u53f7", "name": "\u590d\u7f8e\u5927\u836f\u623f\uff08\u539f\u590d\u661f\u5927\u836f\u623f\uff09 \u5927\u534e\u5e97", "id": 133888, "pageNo": 0, "pageCount": null, "pageSize": 10, "ids": null, "endTime": null, "startTime": null}, {"cardNumFive": null, "isSupportYj": null, "cityName": null, "districtName": null, "shopinfo": {"mid": "888888859120064", "good_flag": null, "new_flag": null, "short_name": "\u590d\u7f8e\u5927\u836f\u623f\uff08\u539f\u590d\u661f\u5927\u836f\u623f\uff09", "short_name_pinyin": "fumeidayaofang\uff08yuanfuxingdayaofang\uff09", "status": null, "address": null, "name": null, "id": "31609"}, "mid": "888888859120064", "shopId": "31609", "netid": null, "province": 901, "district": 601, "zipcode": null, "telephone": "35111002", "posDate": "20080408", "destineTel": null, "togoTel": null, "trafficWay": "\u516c\u4ea4145 37 123", "signBuilding": null, "businessArea": null, "selfRoom": null, "businessTime": null, "stall": null, "consume": null, "serviceFei": null, "favourable": null, "shopMemo": null, "appraise": null, "website": null, "memo": null, "payTypes": "\u6749\u5fb7\u5361", "shopTypes": "\u836f\u5e97", "consumeTypes": null, "cookTypes": null, "orderNum": 1000, "card4no": null, "card4noAcc": null, "district2": 408, "searchScope": null, "status": 1, "address": "\u4e1c\u6c49\u9633\u8def328\u53f7", "name": "\u590d\u7f8e\u5927\u836f\u623f\uff08\u539f\u590d\u661f\u5927\u836f\u623f\uff09 \u4e1c\u6c49\u9633\u8def\u5e97", "id": 133889, "pageNo": 0, "pageCount": null, "pageSize": 10, "ids": null, "endTime": null, "startTime": null}, {"cardNumFive": null, "isSupportYj": null, "cityName": null, "districtName": null, "shopinfo": {"mid": "888888859120064", "good_flag": null, "new_flag": null, "short_name": "\u590d\u7f8e\u5927\u836f\u623f\uff08\u539f\u590d\u661f\u5927\u836f\u623f\uff09", "short_name_pinyin": "fumeidayaofang\uff08yuanfuxingdayaofang\uff09", "status": null, "address": null, "name": null, "id": "31609"}, "mid": "888888859120064", "shopId": "31609", "netid": null, "province": 901, "district": 601, "zipcode": null, "telephone": "59189564", "posDate": null, "destineTel": null, "togoTel": null, "trafficWay": "765 837 948", "signBuilding": null, "businessArea": null, "selfRoom": null, "businessTime": null, "stall": null, "consume": null, "serviceFei": null, "favourable": null, "shopMemo": null, "appraise": null, "website": null, "memo": null, "payTypes": "\u6749\u5fb7\u5361", "shopTypes": "\u836f\u5e97", "consumeTypes": null, "cookTypes": null, "orderNum": 1000, "card4no": null, "card4noAcc": null, "district2": 411, "searchScope": null, "status": 1, "address": "\u4e30\u5e84\u5317\u8def66\u53f7", "name": "\u590d\u7f8e\u5927\u836f\u623f\uff08\u539f\u590d\u661f\u5927\u836f\u623f\uff09 \u4e30\u5e84\u5e97", "id": 133890, "pageNo": 0, "pageCount": null, "pageSize": 10, "ids": null, "endTime": null, "startTime": null}, {"cardNumFive": null, "isSupportYj": null, "cityName": null, "districtName": null, "shopinfo": {"mid": "888888859120064", "good_flag": null, "new_flag": null, "short_name": "\u590d\u7f8e\u5927\u836f\u623f\uff08\u539f\u590d\u661f\u5927\u836f\u623f\uff09", "short_name_pinyin": "fumeidayaofang\uff08yuanfuxingdayaofang\uff09", "status": null, "address": null, "name": null, "id": "31609"}, "mid": "888888859120064", "shopId": "31609", "netid": null, "province": 901, "district": 601, "zipcode": null, "telephone": "36050348", "posDate": null, "destineTel": null, "togoTel": null, "trafficWay": "112 859 822", "signBuilding": null, "businessArea": null, "selfRoom": null, "businessTime": null, "stall": null, "consume": null, "serviceFei": null, "favourable": null, "shopMemo": null, "appraise": null, "website": null, "memo": null, "payTypes": "\u6749\u5fb7\u5361", "shopTypes": "\u836f\u5e97", "consumeTypes": null, "cookTypes": null, "orderNum": 1000, "card4no": null, "card4noAcc": null, "district2": 405, "searchScope": null, "status": 1, "address": "\u7518\u6cc9\u8def578\u53f7", "name": "\u590d\u7f8e\u5927\u836f\u623f\uff08\u539f\u590d\u661f\u5927\u836f\u623f\uff09 \u7518\u6cc9\u8def\u5e97", "id": 133891, "pageNo": 0, "pageCount": null, "pageSize": 10, "ids": null, "endTime": null, "startTime": null}, {"cardNumFive": null, "isSupportYj": null, "cityName": null, "districtName": null, "shopinfo": {"mid": "888888859120064", "good_flag": null, "new_flag": null, "short_name": "\u590d\u7f8e\u5927\u836f\u623f\uff08\u539f\u590d\u661f\u5927\u836f\u623f\uff09", "short_name_pinyin": "fumeidayaofang\uff08yuanfuxingdayaofang\uff09", "status": null, "address": null, "name": null, "id": "31609"}, "mid": "888888859120064", "shopId": "31609", "netid": null, "province": 901, "district": 601, "zipcode": null, "telephone": "51110013", "posDate": null, "destineTel": null, "togoTel": null, "trafficWay": "946 732 764", "signBuilding": null, "businessArea": null, "selfRoom": null, "businessTime": null, "stall": null, "consume": null, "serviceFei": null, "favourable": null, "shopMemo": null, "appraise": null, "website": null, "memo": null, "payTypes": "\u6749\u5fb7\u5361", "shopTypes": "\u836f\u5e97", "consumeTypes": null, "cookTypes": null, "orderNum": 1000, "card4no": null, "card4noAcc": null, "district2": 409, "searchScope": null, "status": 1, "address": "\u987e\u6234\u8def655\u53f7", "name": "\u590d\u7f8e\u5927\u836f\u623f\uff08\u539f\u590d\u661f\u5927\u836f\u623f\uff09 \u987e\u6234\u8def\u5206\u5e97", "id": 133892, "pageNo": 0, "pageCount": null, "pageSize": 10, "ids": null, "endTime": null, "startTime": null}, {"cardNumFive": null, "isSupportYj": null, "cityName": null, "districtName": null, "shopinfo": {"mid": "888888859120136", "good_flag": "1", "new_flag": "2", "short_name": "\u590d\u7f8e\u5927\u836f\u623f\uff08\u539f\u590d\u661f\u5927\u836f\u623f\uff09", "short_name_pinyin": "fumeidayaofang\uff08yuanfuxingdayaofang\uff09", "status": null, "address": null, "name": null, "id": "31610"}, "mid": "888888859120136", "shopId": "31610", "netid": null, "province": 901, "district": 601, "zipcode": null, "telephone": "54403190", "posDate": "20081106", "destineTel": null, "togoTel": null, "trafficWay": "\u516c\u4ea4218 729", "signBuilding": null, "businessArea": null, "selfRoom": null, "businessTime": "9:00~18:30", "stall": "\u65e0", "consume": null, "serviceFei": null, "favourable": null, "shopMemo": null, "appraise": null, "website": null, "memo": null, "payTypes": "\u6749\u5fb7\u5361", "shopTypes": "\u836f\u5e97", "consumeTypes": null, "cookTypes": null, "orderNum": 1000, "card4no": null, "card4noAcc": null, "district2": 409, "searchScope": null, "status": 1, "address": "\u666f\u8054\u8def922\u53f7", "name": "\u590d\u7f8e\u5927\u836f\u623f\uff08\u539f\u590d\u661f\u5927\u836f\u623f\uff09 \u8679\u6885\u5357\u8def\u5e97", "id": 133893, "pageNo": 0, "pageCount": null, "pageSize": 10, "ids": null, "endTime": null, "startTime": null}], "pageLimit": 1390, "size": 10}