{"pageCount": 1095, "count": 10942, "pageNo": 143, "subShopInfo": {"cardNumFive": "", "isSupportYj": "", "cityName": null, "districtName": null, "shopinfo": {"mid": null, "good_flag": null, "new_flag": null, "short_name": null, "short_name_pinyin": null, "status": null, "address": "", "name": "", "id": null}, "mid": null, "shopId": null, "netid": null, "province": 901, "district": null, "zipcode": null, "telephone": null, "posDate": null, "destineTel": null, "togoTel": null, "trafficWay": null, "signBuilding": null, "businessArea": null, "selfRoom": null, "businessTime": null, "stall": null, "consume": null, "serviceFei": null, "favourable": null, "shopMemo": "1", "appraise": null, "website": null, "memo": null, "payTypes": "", "shopTypes": "", "consumeTypes": null, "cookTypes": null, "orderNum": null, "card4no": null, "card4noAcc": null, "district2": null, "searchScope": null, "status": null, "address": "", "name": null, "id": null, "pageNo": 142, "pageCount": null, "pageSize": 10, "ids": null, "endTime": null, "startTime": null}, "list": [{"cardNumFive": null, "isSupportYj": null, "cityName": null, "districtName": null, "shopinfo": {"mid": "888888859120064", "good_flag": null, "new_flag": null, "short_name": "\u590d\u7f8e\u5927\u836f\u623f\uff08\u539f\u590d\u661f\u5927\u836f\u623f\uff09", "short_name_pinyin": "fumeidayaofang\uff08yuanfuxingdayaofang\uff09", "status": null, "address": null, "name": null, "id": "31609"}, "mid": "888888859120064", "shopId": "31609", "netid": null, "province": 901, "district": 601, "zipcode": null, "telephone": "35053578", "posDate": "20080407", "destineTel": null, "togoTel": null, "trafficWay": "\u516c\u4ea4537 952 100", "signBuilding": null, "businessArea": null, "selfRoom": null, "businessTime": null, "stall": null, "consume": null, "serviceFei": null, "favourable": null, "shopMemo": null, "appraise": null, "website": null, "memo": null, "payTypes": "\u6749\u5fb7\u5361", "shopTypes": "\u836f\u5e97", "consumeTypes": null, "cookTypes": null, "orderNum": 1000, "card4no": null, "card4noAcc": null, "district2": 407, "searchScope": null, "status": 1, "address": "\u4e09\u95e8\u8def356\u53f7", "name": "\u590d\u7f8e\u5927\u836f\u623f\uff08\u539f\u590d\u661f\u5927\u836f\u623f\uff09 \u4e09\u95e8\u8def\u5e97", "id": 133918, "pageNo": 0, "pageCount": null, "pageSize": 10, "ids": null, "endTime": null, "startTime": null}, {"cardNumFive": null, "isSupportYj": null, "cityName": null, "districtName": null, "shopinfo": {"mid": "888888859120064", "good_flag": null, "new_flag": null, "short_name": "\u590d\u7f8e\u5927\u836f\u623f\uff08\u539f\u590d\u661f\u5927\u836f\u623f\uff09", "short_name_pinyin": "fumeidayaofang\uff08yuanfuxingdayaofang\uff09", "status": null, "address": null, "name": null, "id": "31609"}, "mid": "888888859120064", "shopId": "31609", "netid": null, "province": 901, "district": 601, "zipcode": null, "telephone": "51075031/51075241", "posDate": "20070917", "destineTel": null, "togoTel": null, "trafficWay": "\u516c\u4ea4830 69 506", "signBuilding": null, "businessArea": null, "selfRoom": null, "businessTime": null, "stall": null, "consume": null, "serviceFei": null, "favourable": null, "shopMemo": null, "appraise": null, "website": null, "memo": null, "payTypes": "\u6749\u5fb7\u5361", "shopTypes": "\u836f\u5e97", "consumeTypes": null, "cookTypes": null, "orderNum": 1000, "card4no": null, "card4noAcc": null, "district2": 405, "searchScope": null, "status": 1, "address": "\u9655\u897f\u5317\u8def1662\u53f7", "name": "\u590d\u7f8e\u5927\u836f\u623f\uff08\u539f\u590d\u661f\u5927\u836f\u623f\uff09 \u9655\u897f\u5317\u8def\u5e97", "id": 133919, "pageNo": 0, "pageCount": null, "pageSize": 10, "ids": null, "endTime": null, "startTime": null}, {"cardNumFive": null, "isSupportYj": null, "cityName": null, "districtName": null, "shopinfo": {"mid": "888888859120064", "good_flag": null, "new_flag": null, "short_name": "\u590d\u7f8e\u5927\u836f\u623f\uff08\u539f\u590d\u661f\u5927\u836f\u623f\uff09", "short_name_pinyin": "fumeidayaofang\uff08yuanfuxingdayaofang\uff09", "status": null, "address": null, "name": null, "id": "31609"}, "mid": "888888859120064", "shopId": "31609", "netid": null, "province": 901, "district": 601, "zipcode": null, "telephone": "36110412", "posDate": null, "destineTel": null, "togoTel": null, "trafficWay": "\u5730\u94c1\u4e00\u53f7\u7ebf 916 114", "signBuilding": null, "businessArea": null, "selfRoom": null, "businessTime": null, "stall": null, "consume": null, "serviceFei": null, "favourable": null, "shopMemo": null, "appraise": null, "website": null, "memo": null, "payTypes": "\u6749\u5fb7\u5361", "shopTypes": "\u836f\u5e97", "consumeTypes": null, "cookTypes": null, "orderNum": 1000, "card4no": null, "card4noAcc": null, "district2": 416, "searchScope": null, "status": 1, "address": "\u901a\u6cb3\u8def104\u53f7", "name": "\u590d\u7f8e\u5927\u836f\u623f\uff08\u539f\u590d\u661f\u5927\u836f\u623f\uff09 \u901a\u6cb3\u8def\u5e97", "id": 133921, "pageNo": 0, "pageCount": null, "pageSize": 10, "ids": null, "endTime": null, "startTime": null}, {"cardNumFive": null, "isSupportYj": null, "cityName": null, "districtName": null, "shopinfo": {"mid": "888888859120064", "good_flag": null, "new_flag": null, "short_name": "\u590d\u7f8e\u5927\u836f\u623f\uff08\u539f\u590d\u661f\u5927\u836f\u623f\uff09", "short_name_pinyin": "fumeidayaofang\uff08yuanfuxingdayaofang\uff09", "status": null, "address": null, "name": null, "id": "31609"}, "mid": "888888859120064", "shopId": "31609", "netid": null, "province": 901, "district": 601, "zipcode": null, "telephone": "52620204", "posDate": null, "destineTel": null, "togoTel": null, "trafficWay": "827 706 950", "signBuilding": null, "businessArea": null, "selfRoom": null, "businessTime": null, "stall": null, "consume": null, "serviceFei": null, "favourable": null, "shopMemo": null, "appraise": null, "website": null, "memo": null, "payTypes": "\u6749\u5fb7\u5361", "shopTypes": "\u836f\u5e97", "consumeTypes": null, "cookTypes": null, "orderNum": 1000, "card4no": null, "card4noAcc": null, "district2": 405, "searchScope": null, "status": 1, "address": "\u94dc\u5ddd\u8def2006\u53f7", "name": "\u590d\u7f8e\u5927\u836f\u623f\uff08\u539f\u590d\u661f\u5927\u836f\u623f\uff09 \u94dc\u5ddd\u8def\u5e97", "id": 133922, "pageNo": 0, "pageCount": null, "pageSize": 10, "ids": null, "endTime": null, "startTime": null}, {"cardNumFive": null, "isSupportYj": null, "cityName": null, "districtName": null, "shopinfo": {"mid": "888888859120064", "good_flag": null, "new_flag": null, "short_name": "\u590d\u7f8e\u5927\u836f\u623f\uff08\u539f\u590d\u661f\u5927\u836f\u623f\uff09", "short_name_pinyin": "fumeidayaofang\uff08yuanfuxingdayaofang\uff09", "status": null, "address": null, "name": null, "id": "31609"}, "mid": "888888859120064", "shopId": "31609", "netid": null, "province": 901, "district": 601, "zipcode": null, "telephone": "62989339", "posDate": null, "destineTel": null, "togoTel": null, "trafficWay": "950 948 930", "signBuilding": null, "businessArea": null, "selfRoom": null, "businessTime": null, "stall": null, "consume": null, "serviceFei": null, "favourable": null, "shopMemo": null, "appraise": null, "website": null, "memo": null, "payTypes": "\u6749\u5fb7\u5361", "shopTypes": "\u836f\u5e97", "consumeTypes": null, "cookTypes": null, "orderNum": 1000, "card4no": null, "card4noAcc": null, "district2": 405, "searchScope": null, "status": 1, "address": "\u957f\u5bff\u8def517\u53f7", "name": "\u590d\u7f8e\u5927\u836f\u623f\uff08\u539f\u590d\u661f\u5927\u836f\u623f\uff09 \u4e07\u91cc\u5e97", "id": 133923, "pageNo": 0, "pageCount": null, "pageSize": 10, "ids": null, "endTime": null, "startTime": null}, {"cardNumFive": null, "isSupportYj": null, "cityName": null, "districtName": null, "shopinfo": {"mid": "888888859120064", "good_flag": null, "new_flag": null, "short_name": "\u590d\u7f8e\u5927\u836f\u623f\uff08\u539f\u590d\u661f\u5927\u836f\u623f\uff09", "short_name_pinyin": "fumeidayaofang\uff08yuanfuxingdayaofang\uff09", "status": null, "address": null, "name": null, "id": "31609"}, "mid": "888888859120064", "shopId": "31609", "netid": null, "province": 901, "district": 601, "zipcode": null, "telephone": "32023298", "posDate": null, "destineTel": null, "togoTel": null, "trafficWay": "837 765 948", "signBuilding": null, "businessArea": null, "selfRoom": null, "businessTime": null, "stall": null, "consume": null, "serviceFei": null, "favourable": null, "shopMemo": null, "appraise": null, "website": null, "memo": null, "payTypes": "\u6749\u5fb7\u5361", "shopTypes": "\u836f\u5e97", "consumeTypes": null, "cookTypes": null, "orderNum": 1000, "card4no": null, "card4noAcc": null, "district2": 405, "searchScope": null, "status": 1, "address": "\u6e05\u5cea\u8def244\u53f7", "name": "\u590d\u7f8e\u5927\u836f\u623f\uff08\u539f\u590d\u661f\u5927\u836f\u623f\uff09 \u4e07\u9547\u5e97", "id": 133924, "pageNo": 0, "pageCount": null, "pageSize": 10, "ids": null, "endTime": null, "startTime": null}, {"cardNumFive": null, "isSupportYj": null, "cityName": null, "districtName": null, "shopinfo": {"mid": "888888859120064", "good_flag": null, "new_flag": null, "short_name": "\u590d\u7f8e\u5927\u836f\u623f\uff08\u539f\u590d\u661f\u5927\u836f\u623f\uff09", "short_name_pinyin": "fumeidayaofang\uff08yuanfuxingdayaofang\uff09", "status": null, "address": null, "name": null, "id": "31609"}, "mid": "888888859120064", "shopId": "31609", "netid": null, "province": 901, "district": 601, "zipcode": null, "telephone": "67799056", "posDate": null, "destineTel": null, "togoTel": null, "trafficWay": "\u677e\u8398\u7ebf \u677e\u9648\u4e13\u7ebf", "signBuilding": null, "businessArea": null, "selfRoom": null, "businessTime": null, "stall": null, "consume": null, "serviceFei": null, "favourable": null, "shopMemo": null, "appraise": null, "website": null, "memo": null, "payTypes": "\u6749\u5fb7\u5361", "shopTypes": "\u836f\u5e97", "consumeTypes": null, "cookTypes": null, "orderNum": 1000, "card4no": null, "card4noAcc": null, "district2": 412, "searchScope": null, "status": 1, "address": "\u6587\u6c47\u8def746\u53f7", "name": "\u590d\u7f8e\u5927\u836f\u623f\uff08\u539f\u590d\u661f\u5927\u836f\u623f\uff09 \u6587\u6c47\u5e97", "id": 133925, "pageNo": 0, "pageCount": null, "pageSize": 10, "ids": null, "endTime": null, "startTime": null}, {"cardNumFive": null, "isSupportYj": null, "cityName": null, "districtName": null, "shopinfo": {"mid": "888888859120064", "good_flag": null, "new_flag": null, "short_name": "\u590d\u7f8e\u5927\u836f\u623f\uff08\u539f\u590d\u661f\u5927\u836f\u623f\uff09", "short_name_pinyin": "fumeidayaofang\uff08yuanfuxingdayaofang\uff09", "status": null, "address": null, "name": null, "id": "31609"}, "mid": "888888859120064", "shopId": "31609", "netid": null, "province": 901, "district": 601, "zipcode": null, "telephone": "54775408", "posDate": null, "destineTel": null, "togoTel": null, "trafficWay": "931 776 548", "signBuilding": null, "businessArea": null, "selfRoom": null, "businessTime": null, "stall": null, "consume": null, "serviceFei": null, "favourable": null, "shopMemo": null, "appraise": null, "website": null, "memo": null, "payTypes": "\u6749\u5fb7\u5361", "shopTypes": "\u836f\u5e97", "consumeTypes": null, "cookTypes": null, "orderNum": 1000, "card4no": null, "card4noAcc": null, "district2": 409, "searchScope": null, "status": 1, "address": "\u5434\u4e2d\u8def541\u53f7", "name": "\u590d\u7f8e\u5927\u836f\u623f\uff08\u539f\u590d\u661f\u5927\u836f\u623f\uff09 \u5434\u4e2d\u5e97", "id": 133926, "pageNo": 0, "pageCount": null, "pageSize": 10, "ids": null, "endTime": null, "startTime": null}, {"cardNumFive": null, "isSupportYj": null, "cityName": null, "districtName": null, "shopinfo": {"mid": "888888859120113", "good_flag": "2", "new_flag": "2", "short_name": "\u590d\u7f8e\u5927\u836f\u623f\uff08\u539f\u590d\u661f\u5927\u836f\u623f\uff09", "short_name_pinyin": "fumeidayaofang\uff08yuanfuxingdayaofang\uff09", "status": null, "address": null, "name": null, "id": "31612"}, "mid": "888888859120113", "shopId": "31612", "netid": null, "province": 901, "district": 601, "zipcode": null, "telephone": "33828613", "posDate": "20080616", "destineTel": null, "togoTel": null, "trafficWay": "\u516c\u4ea4791 455 \u5730\u94c1\u516d\u53f7\u7ebf", "signBuilding": null, "businessArea": null, "selfRoom": null, "businessTime": "8:00~22:00", "stall": "\u65e0", "consume": null, "serviceFei": null, "favourable": null, "shopMemo": null, "appraise": null, "website": null, "memo": null, "payTypes": "\u6749\u5fb7\u5361", "shopTypes": "\u836f\u5e97", "consumeTypes": null, "cookTypes": null, "orderNum": 1000, "card4no": null, "card4noAcc": null, "district2": 418, "searchScope": null, "status": 1, "address": "\u4e94\u83b2\u8def1677\u53f7", "name": "\u590d\u7f8e\u5927\u836f\u623f\uff08\u539f\u590d\u661f\u5927\u836f\u623f\uff09 \u4e94\u83b2\u8def\u5e97", "id": 133927, "pageNo": 0, "pageCount": null, "pageSize": 10, "ids": null, "endTime": null, "startTime": null}, {"cardNumFive": null, "isSupportYj": null, "cityName": null, "districtName": null, "shopinfo": {"mid": "888888859120064", "good_flag": null, "new_flag": null, "short_name": "\u590d\u7f8e\u5927\u836f\u623f\uff08\u539f\u590d\u661f\u5927\u836f\u623f\uff09", "short_name_pinyin": "fumeidayaofang\uff08yuanfuxingdayaofang\uff09", "status": null, "address": null, "name": null, "id": "31609"}, "mid": "888888859120064", "shopId": "31609", "netid": null, "province": 901, "district": 601, "zipcode": null, "telephone": "66342910", "posDate": "20090224", "destineTel": null, "togoTel": null, "trafficWay": null, "signBuilding": null, "businessArea": null, "selfRoom": null, "businessTime": null, "stall": null, "consume": null, "serviceFei": null, "favourable": null, "shopMemo": null, "appraise": null, "website": null, "memo": null, "payTypes": "\u6749\u5fb7\u5361", "shopTypes": "\u836f\u5e97", "consumeTypes": null, "cookTypes": null, "orderNum": 1000, "card4no": null, "card4noAcc": null, "district2": 405, "searchScope": null, "status": 1, "address": "\u6b66\u5a01\u4e1c\u8def316\u53f7", "name": "\u590d\u7f8e\u5927\u836f\u623f\uff08\u539f\u590d\u661f\u5927\u836f\u623f\uff09 \u6b66\u5a01\u4e1c\u8def\u5e97", "id": 133928, "pageNo": 0, "pageCount": null, "pageSize": 10, "ids": null, "endTime": null, "startTime": null}], "pageLimit": 1420, "size": 10}