{"pageCount": 1095, "count": 10942, "pageNo": 144, "subShopInfo": {"cardNumFive": "", "isSupportYj": "", "cityName": null, "districtName": null, "shopinfo": {"mid": null, "good_flag": null, "new_flag": null, "short_name": null, "short_name_pinyin": null, "status": null, "address": "", "name": "", "id": null}, "mid": null, "shopId": null, "netid": null, "province": 901, "district": null, "zipcode": null, "telephone": null, "posDate": null, "destineTel": null, "togoTel": null, "trafficWay": null, "signBuilding": null, "businessArea": null, "selfRoom": null, "businessTime": null, "stall": null, "consume": null, "serviceFei": null, "favourable": null, "shopMemo": "1", "appraise": null, "website": null, "memo": null, "payTypes": "", "shopTypes": "", "consumeTypes": null, "cookTypes": null, "orderNum": null, "card4no": null, "card4noAcc": null, "district2": null, "searchScope": null, "status": null, "address": "", "name": null, "id": null, "pageNo": 143, "pageCount": null, "pageSize": 10, "ids": null, "endTime": null, "startTime": null}, "list": [{"cardNumFive": null, "isSupportYj": null, "cityName": null, "districtName": null, "shopinfo": {"mid": "888888859120064", "good_flag": null, "new_flag": null, "short_name": "\u590d\u7f8e\u5927\u836f\u623f\uff08\u539f\u590d\u661f\u5927\u836f\u623f\uff09", "short_name_pinyin": "fumeidayaofang\uff08yuanfuxingdayaofang\uff09", "status": null, "address": null, "name": null, "id": "31609"}, "mid": "888888859120064", "shopId": "31609", "netid": null, "province": 901, "district": 601, "zipcode": null, "telephone": "52620373", "posDate": null, "destineTel": null, "togoTel": null, "trafficWay": null, "signBuilding": null, "businessArea": null, "selfRoom": null, "businessTime": null, "stall": null, "consume": null, "serviceFei": null, "favourable": null, "shopMemo": null, "appraise": null, "website": null, "memo": null, "payTypes": "\u6749\u5fb7\u5361", "shopTypes": "\u836f\u5e97", "consumeTypes": null, "cookTypes": null, "orderNum": 1000, "card4no": null, "card4noAcc": null, "district2": 405, "searchScope": null, "status": 1, "address": "\u6843\u6d66\u516c\u8def209\u53f7", "name": "\u590d\u7f8e\u5927\u836f\u623f\uff08\u539f\u590d\u661f\u5927\u836f\u623f\uff09 \u897f\u7ad9\u5e97", "id": 133929, "pageNo": 0, "pageCount": null, "pageSize": 10, "ids": null, "endTime": null, "startTime": null}, {"cardNumFive": null, "isSupportYj": null, "cityName": null, "districtName": null, "shopinfo": {"mid": "888888859120064", "good_flag": null, "new_flag": null, "short_name": "\u590d\u7f8e\u5927\u836f\u623f\uff08\u539f\u590d\u661f\u5927\u836f\u623f\uff09", "short_name_pinyin": "fumeidayaofang\uff08yuanfuxingdayaofang\uff09", "status": null, "address": null, "name": null, "id": "31609"}, "mid": "888888859120064", "shopId": "31609", "netid": null, "province": 901, "district": 601, "zipcode": null, "telephone": "55155812", "posDate": "20090224", "destineTel": null, "togoTel": null, "trafficWay": null, "signBuilding": null, "businessArea": null, "selfRoom": null, "businessTime": null, "stall": null, "consume": null, "serviceFei": null, "favourable": null, "shopMemo": null, "appraise": null, "website": null, "memo": null, "payTypes": "\u6749\u5fb7\u5361", "shopTypes": "\u836f\u5e97", "consumeTypes": null, "cookTypes": null, "orderNum": 1000, "card4no": null, "card4noAcc": null, "district2": 408, "searchScope": null, "status": 1, "address": "\u7965\u5fb7\u8def325-1\u53f7", "name": "\u590d\u7f8e\u5927\u836f\u623f\uff08\u539f\u590d\u661f\u5927\u836f\u623f\uff09 \u7965\u5fb7\u8def\u5e97", "id": 133930, "pageNo": 0, "pageCount": null, "pageSize": 10, "ids": null, "endTime": null, "startTime": null}, {"cardNumFive": null, "isSupportYj": null, "cityName": null, "districtName": null, "shopinfo": {"mid": "888888859120096", "good_flag": "1", "new_flag": "2", "short_name": "\u590d\u7f8e\u5927\u836f\u623f\uff08\u539f\u590d\u661f\u5927\u836f\u623f\uff09", "short_name_pinyin": "fumeidayaofang\uff08yuanfuxingdayaofang\uff09", "status": null, "address": null, "name": null, "id": "31613"}, "mid": "888888859120096", "shopId": "31613", "netid": null, "province": 901, "district": 601, "zipcode": null, "telephone": "65363689", "posDate": "20080331", "destineTel": null, "togoTel": null, "trafficWay": "\u516c\u4ea4537 952 \u5730\u94c1\u4e09\u53f7\u7ebf", "signBuilding": null, "businessArea": "50\u5e73\u65b9\u7c73", "selfRoom": null, "businessTime": "7:30~22:00", "stall": null, "consume": null, "serviceFei": null, "favourable": null, "shopMemo": null, "appraise": null, "website": null, "memo": null, "payTypes": "\u6749\u5fb7\u5361", "shopTypes": "\u836f\u5e97", "consumeTypes": null, "cookTypes": null, "orderNum": 1000, "card4no": null, "card4noAcc": null, "district2": 408, "searchScope": null, "status": 1, "address": "\u65b0\u5e02\u5357\u8def569\u53f7", "name": "\u590d\u7f8e\u5927\u836f\u623f\uff08\u539f\u590d\u661f\u5927\u836f\u623f\uff09 \u65b0\u5e02\u5357\u8def\u5e97", "id": 133931, "pageNo": 0, "pageCount": null, "pageSize": 10, "ids": null, "endTime": null, "startTime": null}, {"cardNumFive": null, "isSupportYj": null, "cityName": null, "districtName": null, "shopinfo": {"mid": "888888859120064", "good_flag": null, "new_flag": null, "short_name": "\u590d\u7f8e\u5927\u836f\u623f\uff08\u539f\u590d\u661f\u5927\u836f\u623f\uff09", "short_name_pinyin": "fumeidayaofang\uff08yuanfuxingdayaofang\uff09", "status": null, "address": null, "name": null, "id": "31609"}, "mid": "888888859120064", "shopId": "31609", "netid": null, "province": 901, "district": 601, "zipcode": null, "telephone": "56615389", "posDate": null, "destineTel": null, "togoTel": null, "trafficWay": "869 78 40", "signBuilding": null, "businessArea": null, "selfRoom": null, "businessTime": null, "stall": null, "consume": null, "serviceFei": null, "favourable": null, "shopMemo": null, "appraise": null, "website": null, "memo": null, "payTypes": "\u6749\u5fb7\u5361", "shopTypes": "\u836f\u5e97", "consumeTypes": null, "cookTypes": null, "orderNum": 1000, "card4no": null, "card4noAcc": null, "district2": 405, "searchScope": null, "status": 1, "address": "\u5ef6\u957f\u897f\u8def456\u53f7", "name": "\u590d\u7f8e\u5927\u836f\u623f\uff08\u539f\u590d\u661f\u5927\u836f\u623f\uff09 \u674f\u6797\u5e97", "id": 133932, "pageNo": 0, "pageCount": null, "pageSize": 10, "ids": null, "endTime": null, "startTime": null}, {"cardNumFive": null, "isSupportYj": null, "cityName": null, "districtName": null, "shopinfo": {"mid": "888888859120064", "good_flag": null, "new_flag": null, "short_name": "\u590d\u7f8e\u5927\u836f\u623f\uff08\u539f\u590d\u661f\u5927\u836f\u623f\uff09", "short_name_pinyin": "fumeidayaofang\uff08yuanfuxingdayaofang\uff09", "status": null, "address": null, "name": null, "id": "31609"}, "mid": "888888859120064", "shopId": "31609", "netid": null, "province": 901, "district": 601, "zipcode": null, "telephone": "52510075", "posDate": null, "destineTel": null, "togoTel": null, "trafficWay": "947 837", "signBuilding": null, "businessArea": null, "selfRoom": null, "businessTime": null, "stall": null, "consume": null, "serviceFei": null, "favourable": null, "shopMemo": null, "appraise": null, "website": null, "memo": null, "payTypes": "\u6749\u5fb7\u5361", "shopTypes": "\u836f\u5e97", "consumeTypes": null, "cookTypes": null, "orderNum": 1000, "card4no": null, "card4noAcc": null, "district2": 405, "searchScope": null, "status": 1, "address": "\u6885\u5cad\u5357\u8def167\u53f7", "name": "\u590d\u7f8e\u5927\u836f\u623f\uff08\u539f\u590d\u661f\u5927\u836f\u623f\uff09 \u674f\u5c71\u5e97", "id": 133933, "pageNo": 0, "pageCount": null, "pageSize": 10, "ids": null, "endTime": null, "startTime": null}, {"cardNumFive": null, "isSupportYj": null, "cityName": null, "districtName": null, "shopinfo": {"mid": "888888859120064", "good_flag": null, "new_flag": null, "short_name": "\u590d\u7f8e\u5927\u836f\u623f\uff08\u539f\u590d\u661f\u5927\u836f\u623f\uff09", "short_name_pinyin": "fumeidayaofang\uff08yuanfuxingdayaofang\uff09", "status": null, "address": null, "name": null, "id": "31609"}, "mid": "888888859120064", "shopId": "31609", "netid": null, "province": 901, "district": 601, "zipcode": null, "telephone": "66953395", "posDate": null, "destineTel": null, "togoTel": null, "trafficWay": "517 838", "signBuilding": null, "businessArea": null, "selfRoom": null, "businessTime": null, "stall": null, "consume": null, "serviceFei": null, "favourable": null, "shopMemo": null, "appraise": null, "website": null, "memo": null, "payTypes": "\u6749\u5fb7\u5361", "shopTypes": "\u836f\u5e97", "consumeTypes": null, "cookTypes": null, "orderNum": 1000, "card4no": null, "card4noAcc": null, "district2": 405, "searchScope": null, "status": 1, "address": "\u94f6\u674f\u8def38\u53f7", "name": "\u590d\u7f8e\u5927\u836f\u623f\uff08\u539f\u590d\u661f\u5927\u836f\u623f\uff09 \u94f6\u674f\u5e97", "id": 133935, "pageNo": 0, "pageCount": null, "pageSize": 10, "ids": null, "endTime": null, "startTime": null}, {"cardNumFive": null, "isSupportYj": null, "cityName": null, "districtName": null, "shopinfo": {"mid": "888888859120064", "good_flag": null, "new_flag": null, "short_name": "\u590d\u7f8e\u5927\u836f\u623f\uff08\u539f\u590d\u661f\u5927\u836f\u623f\uff09", "short_name_pinyin": "fumeidayaofang\uff08yuanfuxingdayaofang\uff09", "status": null, "address": null, "name": null, "id": "31609"}, "mid": "888888859120064", "shopId": "31609", "netid": null, "province": 901, "district": 601, "zipcode": null, "telephone": "62769345", "posDate": null, "destineTel": null, "togoTel": null, "trafficWay": "112 19 506", "signBuilding": null, "businessArea": null, "selfRoom": null, "businessTime": null, "stall": null, "consume": null, "serviceFei": null, "favourable": null, "shopMemo": null, "appraise": null, "website": null, "memo": null, "payTypes": "\u6749\u5fb7\u5361", "shopTypes": "\u836f\u5e97", "consumeTypes": null, "cookTypes": null, "orderNum": 1000, "card4no": null, "card4noAcc": null, "district2": 405, "searchScope": null, "status": 1, "address": "\u5b89\u8fdc\u8def192\u53f7", "name": "\u590d\u7f8e\u5927\u836f\u623f\uff08\u539f\u590d\u661f\u5927\u836f\u623f\uff09 \u7389\u4f5b\u5e97", "id": 133936, "pageNo": 0, "pageCount": null, "pageSize": 10, "ids": null, "endTime": null, "startTime": null}, {"cardNumFive": null, "isSupportYj": null, "cityName": null, "districtName": null, "shopinfo": {"mid": "888888859120064", "good_flag": null, "new_flag": null, "short_name": "\u590d\u7f8e\u5927\u836f\u623f\uff08\u539f\u590d\u661f\u5927\u836f\u623f\uff09", "short_name_pinyin": "fumeidayaofang\uff08yuanfuxingdayaofang\uff09", "status": null, "address": null, "name": null, "id": "31609"}, "mid": "888888859120064", "shopId": "31609", "netid": null, "province": 901, "district": 601, "zipcode": null, "telephone": "56446548/56446549", "posDate": null, "destineTel": null, "togoTel": null, "trafficWay": "\u5730\u94c1\u4e09\u53f7\u7ebf 851 849", "signBuilding": null, "businessArea": null, "selfRoom": null, "businessTime": null, "stall": null, "consume": null, "serviceFei": null, "favourable": null, "shopMemo": null, "appraise": null, "website": null, "memo": null, "payTypes": "\u6749\u5fb7\u5361", "shopTypes": "\u836f\u5e97", "consumeTypes": null, "cookTypes": null, "orderNum": 1000, "card4no": null, "card4noAcc": null, "district2": 416, "searchScope": null, "status": 1, "address": "\u9038\u4ed9\u8def3456\u5f0424\u53f7\u4e59", "name": "\u590d\u7f8e\u5927\u836f\u623f\uff08\u539f\u590d\u661f\u5927\u836f\u623f\uff09 \u5f20\u884c\u836f\u5e97", "id": 133938, "pageNo": 0, "pageCount": null, "pageSize": 10, "ids": null, "endTime": null, "startTime": null}, {"cardNumFive": null, "isSupportYj": null, "cityName": null, "districtName": null, "shopinfo": {"mid": "888888859120064", "good_flag": null, "new_flag": null, "short_name": "\u590d\u7f8e\u5927\u836f\u623f\uff08\u539f\u590d\u661f\u5927\u836f\u623f\uff09", "short_name_pinyin": "fumeidayaofang\uff08yuanfuxingdayaofang\uff09", "status": null, "address": null, "name": null, "id": "31609"}, "mid": "888888859120064", "shopId": "31609", "netid": null, "province": 901, "district": 601, "zipcode": null, "telephone": "52844533", "posDate": null, "destineTel": null, "togoTel": null, "trafficWay": "\u6caa\u5510\u7ebf 838 822", "signBuilding": null, "businessArea": null, "selfRoom": null, "businessTime": null, "stall": null, "consume": null, "serviceFei": null, "favourable": null, "shopMemo": null, "appraise": null, "website": null, "memo": null, "payTypes": "\u6749\u5fb7\u5361", "shopTypes": "\u836f\u5e97", "consumeTypes": null, "cookTypes": null, "orderNum": 1000, "card4no": null, "card4noAcc": null, "district2": 405, "searchScope": null, "status": 1, "address": "\u771f\u5317\u8def3007\u53f7", "name": "\u590d\u7f8e\u5927\u836f\u623f\uff08\u539f\u590d\u661f\u5927\u836f\u623f\uff09 \u771f\u5317\u8def\u5e97", "id": 133939, "pageNo": 0, "pageCount": null, "pageSize": 10, "ids": null, "endTime": null, "startTime": null}, {"cardNumFive": null, "isSupportYj": null, "cityName": null, "districtName": null, "shopinfo": {"mid": "888888859120064", "good_flag": null, "new_flag": null, "short_name": "\u590d\u7f8e\u5927\u836f\u623f\uff08\u539f\u590d\u661f\u5927\u836f\u623f\uff09", "short_name_pinyin": "fumeidayaofang\uff08yuanfuxingdayaofang\uff09", "status": null, "address": null, "name": null, "id": "31609"}, "mid": "888888859120064", "shopId": "31609", "netid": null, "province": 901, "district": 601, "zipcode": null, "telephone": "66357057", "posDate": null, "destineTel": null, "togoTel": null, "trafficWay": "112 510 78", "signBuilding": null, "businessArea": null, "selfRoom": null, "businessTime": null, "stall": null, "consume": null, "serviceFei": null, "favourable": null, "shopMemo": null, "appraise": null, "website": null, "memo": null, "payTypes": "\u6749\u5fb7\u5361", "shopTypes": "\u836f\u5e97", "consumeTypes": null, "cookTypes": null, "orderNum": 1000, "card4no": null, "card4noAcc": null, "district2": 416, "searchScope": null, "status": 1, "address": "\u5927\u534e\u4e09\u8def447\u53f7", "name": "\u590d\u7f8e\u5927\u836f\u623f\uff08\u539f\u590d\u661f\u5927\u836f\u623f\uff09 \u771f\u534e\u5e97", "id": 133940, "pageNo": 0, "pageCount": null, "pageSize": 10, "ids": null, "endTime": null, "startTime": null}], "pageLimit": 1430, "size": 10}