{"pageCount": 1095, "count": 10942, "pageNo": 147, "subShopInfo": {"cardNumFive": "", "isSupportYj": "", "cityName": null, "districtName": null, "shopinfo": {"mid": null, "good_flag": null, "new_flag": null, "short_name": null, "short_name_pinyin": null, "status": null, "address": "", "name": "", "id": null}, "mid": null, "shopId": null, "netid": null, "province": 901, "district": null, "zipcode": null, "telephone": null, "posDate": null, "destineTel": null, "togoTel": null, "trafficWay": null, "signBuilding": null, "businessArea": null, "selfRoom": null, "businessTime": null, "stall": null, "consume": null, "serviceFei": null, "favourable": null, "shopMemo": "1", "appraise": null, "website": null, "memo": null, "payTypes": "", "shopTypes": "", "consumeTypes": null, "cookTypes": null, "orderNum": null, "card4no": null, "card4noAcc": null, "district2": null, "searchScope": null, "status": null, "address": "", "name": null, "id": null, "pageNo": 146, "pageCount": null, "pageSize": 10, "ids": null, "endTime": null, "startTime": null}, "list": [{"cardNumFive": null, "isSupportYj": null, "cityName": null, "districtName": null, "shopinfo": {"mid": "888888854410076", "good_flag": "2", "new_flag": "1", "short_name": "\u9ad8\u535a\u7279", "short_name_pinyin": "gaobote", "status": null, "address": null, "name": null, "id": "31627"}, "mid": "888888854410076", "shopId": "31627", "netid": null, "province": 901, "district": 601, "zipcode": null, "telephone": "68019341", "posDate": "20100111", "destineTel": null, "togoTel": null, "trafficWay": null, "signBuilding": null, "businessArea": null, "selfRoom": null, "businessTime": "08:30~20:30", "stall": null, "consume": null, "serviceFei": null, "favourable": null, "shopMemo": null, "appraise": null, "website": null, "memo": null, "payTypes": "\u6749\u5fb7\u5361", "shopTypes": "\u4e13\u5356", "consumeTypes": null, "cookTypes": null, "orderNum": 1000, "card4no": null, "card4noAcc": null, "district2": 418, "searchScope": null, "status": 1, "address": "\u60e0\u5357\u9547\u516c\u56ed\u65b0\u675110\u53f7", "name": "\u9ad8\u535a\u7279 \u5357\u6c47\u5e97", "id": 133975, "pageNo": 0, "pageCount": null, "pageSize": 10, "ids": null, "endTime": null, "startTime": null}, {"cardNumFive": null, "isSupportYj": null, "cityName": null, "districtName": null, "shopinfo": {"mid": "888888854410076", "good_flag": "2", "new_flag": "1", "short_name": "\u9ad8\u535a\u7279", "short_name_pinyin": "gaobote", "status": null, "address": null, "name": null, "id": "31627"}, "mid": "888888854410076", "shopId": "31627", "netid": null, "province": 901, "district": 601, "zipcode": null, "telephone": "69717620", "posDate": "20100111", "destineTel": null, "togoTel": null, "trafficWay": null, "signBuilding": null, "businessArea": null, "selfRoom": null, "businessTime": "08:30~20:30", "stall": null, "consume": null, "serviceFei": null, "favourable": null, "shopMemo": null, "appraise": null, "website": null, "memo": null, "payTypes": "\u6749\u5fb7\u5361", "shopTypes": "\u4e13\u5356", "consumeTypes": null, "cookTypes": null, "orderNum": 1000, "card4no": null, "card4noAcc": null, "district2": 417, "searchScope": null, "status": 1, "address": "\u5916\u9752\u677e\u516c\u8def6048\u5f0420\u53f7", "name": "\u9ad8\u535a\u7279 \u9752\u6d66\u5e97", "id": 133977, "pageNo": 0, "pageCount": null, "pageSize": 10, "ids": null, "endTime": null, "startTime": null}, {"cardNumFive": null, "isSupportYj": null, "cityName": null, "districtName": null, "shopinfo": {"mid": "888888854410076", "good_flag": "2", "new_flag": "1", "short_name": "\u9ad8\u535a\u7279", "short_name_pinyin": "gaobote", "status": null, "address": null, "name": null, "id": "31627"}, "mid": "888888854410076", "shopId": "31627", "netid": null, "province": 901, "district": 601, "zipcode": null, "telephone": "62057032", "posDate": "20080202", "destineTel": null, "togoTel": null, "trafficWay": "\u516c\u4ea4830 69", "signBuilding": "\u8fd1\u6c49\u9634\u8def", "businessArea": null, "selfRoom": null, "businessTime": "08:30~20:30", "stall": null, "consume": null, "serviceFei": null, "favourable": null, "shopMemo": "\u4fdd\u5065\u98df\u54c1", "appraise": null, "website": null, "memo": null, "payTypes": "\u6749\u5fb7\u5361", "shopTypes": "\u4e13\u5356", "consumeTypes": null, "cookTypes": null, "orderNum": 1000, "card4no": null, "card4noAcc": null, "district2": 405, "searchScope": null, "status": 1, "address": "\u77f3\u6cc9\u8def49\u5f041\u53f7", "name": "\u9ad8\u535a\u7279 \u77f3\u6cc9\u5e97", "id": 133979, "pageNo": 0, "pageCount": null, "pageSize": 10, "ids": null, "endTime": null, "startTime": null}, {"cardNumFive": null, "isSupportYj": null, "cityName": null, "districtName": null, "shopinfo": {"mid": "888888854410076", "good_flag": "2", "new_flag": "1", "short_name": "\u9ad8\u535a\u7279", "short_name_pinyin": "gaobote", "status": null, "address": null, "name": null, "id": "31627"}, "mid": "888888854410076", "shopId": "31627", "netid": null, "province": 901, "district": 601, "zipcode": null, "telephone": "66272847", "posDate": "20100111", "destineTel": null, "togoTel": null, "trafficWay": null, "signBuilding": null, "businessArea": null, "selfRoom": null, "businessTime": "08:30~20:30", "stall": null, "consume": null, "serviceFei": null, "favourable": null, "shopMemo": null, "appraise": null, "website": null, "memo": null, "payTypes": "\u6749\u5fb7\u5361", "shopTypes": "\u4e13\u5356", "consumeTypes": null, "cookTypes": null, "orderNum": 1000, "card4no": null, "card4noAcc": null, "district2": 405, "searchScope": null, "status": 1, "address": "\u7ea2\u68c9\u8def78\u53f7", "name": "\u9ad8\u535a\u7279 \u6843\u6d66\u5e97", "id": 133980, "pageNo": 0, "pageCount": null, "pageSize": 10, "ids": null, "endTime": null, "startTime": null}, {"cardNumFive": null, "isSupportYj": null, "cityName": null, "districtName": null, "shopinfo": {"mid": "888888854410076", "good_flag": "2", "new_flag": "1", "short_name": "\u9ad8\u535a\u7279", "short_name_pinyin": "gaobote", "status": null, "address": null, "name": null, "id": "31627"}, "mid": "888888854410076", "shopId": "31627", "netid": null, "province": 901, "district": 601, "zipcode": null, "telephone": "65236951", "posDate": "20080202", "destineTel": null, "togoTel": null, "trafficWay": "\u516c\u4ea4966 \u5730\u94c1\u516b\u53f7\u7ebf", "signBuilding": "\u8fd1\u5305\u5934\u8def", "businessArea": null, "selfRoom": null, "businessTime": "08:30~20:30", "stall": null, "consume": null, "serviceFei": null, "favourable": null, "shopMemo": "\u4fdd\u5065\u98df\u54c1", "appraise": null, "website": null, "memo": null, "payTypes": "\u6749\u5fb7\u5361", "shopTypes": "\u4e13\u5356", "consumeTypes": null, "cookTypes": null, "orderNum": 1000, "card4no": null, "card4noAcc": null, "district2": 407, "searchScope": null, "status": 1, "address": "\u56fd\u548c\u8def1308\u53f7", "name": "\u9ad8\u535a\u7279 \u6768\u6d66\u5e97", "id": 133981, "pageNo": 0, "pageCount": null, "pageSize": 10, "ids": null, "endTime": null, "startTime": null}, {"cardNumFive": null, "isSupportYj": null, "cityName": null, "districtName": null, "shopinfo": {"mid": "888888854410076", "good_flag": "2", "new_flag": "1", "short_name": "\u9ad8\u535a\u7279", "short_name_pinyin": "gaobote", "status": null, "address": null, "name": null, "id": "31627"}, "mid": "888888854410076", "shopId": "31627", "netid": null, "province": 901, "district": 601, "zipcode": null, "telephone": "54972040", "posDate": "20080202", "destineTel": null, "togoTel": null, "trafficWay": "\u516c\u4ea4830 205 93", "signBuilding": "\u8fd1\u94a6\u5dde\u5357\u8def", "businessArea": null, "selfRoom": null, "businessTime": "08:30~20:30", "stall": null, "consume": null, "serviceFei": null, "favourable": null, "shopMemo": "\u4fdd\u5065\u98df\u54c1", "appraise": null, "website": null, "memo": null, "payTypes": "\u6749\u5fb7\u5361", "shopTypes": "\u4e13\u5356", "consumeTypes": null, "cookTypes": null, "orderNum": 1000, "card4no": null, "card4noAcc": null, "district2": 403, "searchScope": null, "status": 1, "address": "\u67f3\u5dde\u8def595\u53f7", "name": "\u9ad8\u535a\u7279 \u5b9c\u5c71\u5e97", "id": 133982, "pageNo": 0, "pageCount": null, "pageSize": 10, "ids": null, "endTime": null, "startTime": null}, {"cardNumFive": null, "isSupportYj": null, "cityName": null, "districtName": null, "shopinfo": {"mid": "888888854410076", "good_flag": "2", "new_flag": "1", "short_name": "\u9ad8\u535a\u7279", "short_name_pinyin": "gaobote", "status": null, "address": null, "name": null, "id": "31627"}, "mid": "888888854410076", "shopId": "31627", "netid": null, "province": 901, "district": 601, "zipcode": null, "telephone": "56604939", "posDate": "20080407", "destineTel": null, "togoTel": null, "trafficWay": "\u516c\u4ea4952B 848 \u5b9d\u6768\u7801\u5934\u4e13\u7ebf", "signBuilding": null, "businessArea": null, "selfRoom": null, "businessTime": "08:30~20:30", "stall": null, "consume": null, "serviceFei": null, "favourable": null, "shopMemo": null, "appraise": null, "website": null, "memo": null, "payTypes": "\u6749\u5fb7\u5361", "shopTypes": "\u4e13\u5356", "consumeTypes": null, "cookTypes": null, "orderNum": 1000, "card4no": null, "card4noAcc": null, "district2": 416, "searchScope": null, "status": 1, "address": "\u53cb\u8c0a\u652f\u8def302\u53f7103\u5ba4", "name": "\u9ad8\u535a\u7279 \u53cb\u8c0a\u652f\u5e97", "id": 133983, "pageNo": 0, "pageCount": null, "pageSize": 10, "ids": null, "endTime": null, "startTime": null}, {"cardNumFive": null, "isSupportYj": null, "cityName": null, "districtName": null, "shopinfo": {"mid": "888888854410076", "good_flag": "2", "new_flag": "1", "short_name": "\u9ad8\u535a\u7279", "short_name_pinyin": "gaobote", "status": null, "address": null, "name": null, "id": "31627"}, "mid": "888888854410076", "shopId": "31627", "netid": null, "province": 901, "district": 601, "zipcode": null, "telephone": "59911918", "posDate": "20080407", "destineTel": null, "togoTel": null, "trafficWay": "\u516c\u4ea4\u6caa\u5510\u7ebf \u65c5\u6e38\u516d\u53f7\u7ebf", "signBuilding": null, "businessArea": null, "selfRoom": null, "businessTime": "08:30~20:30", "stall": null, "consume": null, "serviceFei": null, "favourable": null, "shopMemo": null, "appraise": null, "website": null, "memo": null, "payTypes": "\u6749\u5fb7\u5361", "shopTypes": "\u4e13\u5356", "consumeTypes": null, "cookTypes": null, "orderNum": 1000, "card4no": null, "card4noAcc": null, "district2": 411, "searchScope": null, "status": 1, "address": "\u4e2d\u4e0b\u5858\u8857120\u53f72\u5ba4", "name": "\u9ad8\u535a\u7279 \u4e2d\u4e0b\u5858\u8857\u5e97", "id": 133985, "pageNo": 0, "pageCount": null, "pageSize": 10, "ids": null, "endTime": null, "startTime": null}, {"cardNumFive": null, "isSupportYj": null, "cityName": null, "districtName": null, "shopinfo": {"mid": "888002153110252", "good_flag": null, "new_flag": null, "short_name": "\u9ad8\u5c9b\u5c4b\u767e\u8d27", "short_name_pinyin": "gaodaowubaihuo", "status": null, "address": null, "name": null, "id": "40947"}, "mid": "888002153110252", "shopId": "40947", "netid": null, "province": 901, "district": 601, "zipcode": null, "telephone": "22232688", "posDate": null, "destineTel": null, "togoTel": null, "trafficWay": null, "signBuilding": null, "businessArea": null, "selfRoom": null, "businessTime": null, "stall": null, "consume": null, "serviceFei": null, "favourable": null, "shopMemo": null, "appraise": null, "website": null, "memo": null, "payTypes": "\u6749\u5fb7\u5361", "shopTypes": "\u767e\u8d27", "consumeTypes": null, "cookTypes": null, "orderNum": 1000, "card4no": null, "card4noAcc": null, "district2": 406, "searchScope": null, "status": 1, "address": "\u8679\u6865\u8def1438\u53f7", "name": "\u9ad8\u5c9b\u5c4b\u767e\u8d27 \u53e4\u5317\u5f90\u6c47\u5e97", "id": 177863, "pageNo": 0, "pageCount": null, "pageSize": 10, "ids": null, "endTime": null, "startTime": null}, {"cardNumFive": null, "isSupportYj": null, "cityName": null, "districtName": null, "shopinfo": {"mid": "888002156911312", "good_flag": "2", "new_flag": "1", "short_name": "\u54e5\u5f1f", "short_name_pinyin": "gedi", "status": null, "address": null, "name": null, "id": "31632"}, "mid": "888002156911312", "shopId": "31632", "netid": null, "province": 901, "district": 601, "zipcode": null, "telephone": null, "posDate": "20100202", "destineTel": null, "togoTel": null, "trafficWay": null, "signBuilding": null, "businessArea": null, "selfRoom": null, "businessTime": null, "stall": null, "consume": null, "serviceFei": null, "favourable": null, "shopMemo": null, "appraise": null, "website": null, "memo": null, "payTypes": "\u6749\u5fb7\u5361", "shopTypes": "\u670d\u9970\u5bb6\u7eba", "consumeTypes": null, "cookTypes": null, "orderNum": 1000, "card4no": null, "card4noAcc": null, "district2": 413, "searchScope": null, "status": 1, "address": "\u5357\u5949\u516c\u8def9661\u53f7", "name": "\u54e5\u5f1f \u963f\u739b\u65bd\u5949\u8d24\u5e97", "id": 133994, "pageNo": 0, "pageCount": null, "pageSize": 10, "ids": null, "endTime": null, "startTime": null}], "pageLimit": 1460, "size": 10}