{"pageCount": 1095, "count": 10942, "pageNo": 142, "subShopInfo": {"cardNumFive": "", "isSupportYj": "", "cityName": null, "districtName": null, "shopinfo": {"mid": null, "good_flag": null, "new_flag": null, "short_name": null, "short_name_pinyin": null, "status": null, "address": "", "name": "", "id": null}, "mid": null, "shopId": null, "netid": null, "province": 901, "district": null, "zipcode": null, "telephone": null, "posDate": null, "destineTel": null, "togoTel": null, "trafficWay": null, "signBuilding": null, "businessArea": null, "selfRoom": null, "businessTime": null, "stall": null, "consume": null, "serviceFei": null, "favourable": null, "shopMemo": "1", "appraise": null, "website": null, "memo": null, "payTypes": "", "shopTypes": "", "consumeTypes": null, "cookTypes": null, "orderNum": null, "card4no": null, "card4noAcc": null, "district2": null, "searchScope": null, "status": null, "address": "", "name": null, "id": null, "pageNo": 141, "pageCount": null, "pageSize": 10, "ids": null, "endTime": null, "startTime": null}, "list": [{"cardNumFive": null, "isSupportYj": null, "cityName": null, "districtName": null, "shopinfo": {"mid": "888888859120064", "good_flag": null, "new_flag": null, "short_name": "\u590d\u7f8e\u5927\u836f\u623f\uff08\u539f\u590d\u661f\u5927\u836f\u623f\uff09", "short_name_pinyin": "fumeidayaofang\uff08yuanfuxingdayaofang\uff09", "status": null, "address": null, "name": null, "id": "31609"}, "mid": "888888859120064", "shopId": "31609", "netid": null, "province": 901, "district": 601, "zipcode": null, "telephone": "52620569", "posDate": "20070917", "destineTel": null, "togoTel": null, "trafficWay": "\u516c\u4ea4947 \u65c5\u6e386B\u7ebf", "signBuilding": null, "businessArea": null, "selfRoom": null, "businessTime": null, "stall": null, "consume": null, "serviceFei": null, "favourable": null, "shopMemo": null, "appraise": null, "website": null, "memo": null, "payTypes": "\u6749\u5fb7\u5361", "shopTypes": "\u836f\u5e97", "consumeTypes": null, "cookTypes": null, "orderNum": 1000, "card4no": null, "card4noAcc": null, "district2": 405, "searchScope": null, "status": 1, "address": "\u6885\u5ddd\u8def1516\u53f7\u4e59", "name": "\u590d\u7f8e\u5927\u836f\u623f\uff08\u539f\u590d\u661f\u5927\u836f\u623f\uff09 \u6885\u5ddd\u5e97", "id": 133907, "pageNo": 0, "pageCount": null, "pageSize": 10, "ids": null, "endTime": null, "startTime": null}, {"cardNumFive": null, "isSupportYj": null, "cityName": null, "districtName": null, "shopinfo": {"mid": "888888859120064", "good_flag": null, "new_flag": null, "short_name": "\u590d\u7f8e\u5927\u836f\u623f\uff08\u539f\u590d\u661f\u5927\u836f\u623f\uff09", "short_name_pinyin": "fumeidayaofang\uff08yuanfuxingdayaofang\uff09", "status": null, "address": null, "name": null, "id": "31609"}, "mid": "888888859120064", "shopId": "31609", "netid": null, "province": 901, "district": 601, "zipcode": null, "telephone": "62547993", "posDate": null, "destineTel": null, "togoTel": null, "trafficWay": "\u5730\u94c1\u4e09\u53f7\u7ebf 01 837", "signBuilding": null, "businessArea": null, "selfRoom": null, "businessTime": null, "stall": null, "consume": null, "serviceFei": null, "favourable": null, "shopMemo": null, "appraise": null, "website": null, "memo": null, "payTypes": "\u6749\u5fb7\u5361", "shopTypes": "\u836f\u5e97", "consumeTypes": null, "cookTypes": null, "orderNum": 1000, "card4no": null, "card4noAcc": null, "district2": 405, "searchScope": null, "status": 1, "address": "\u66f9\u6768\u4e8c\u6751207\u53f7", "name": "\u590d\u7f8e\u5927\u836f\u623f\uff08\u539f\u590d\u661f\u5927\u836f\u623f\uff09 \u6885\u5cad\u8def\u5e97", "id": 133908, "pageNo": 0, "pageCount": null, "pageSize": 10, "ids": null, "endTime": null, "startTime": null}, {"cardNumFive": null, "isSupportYj": null, "cityName": null, "districtName": null, "shopinfo": {"mid": "888888859120064", "good_flag": null, "new_flag": null, "short_name": "\u590d\u7f8e\u5927\u836f\u623f\uff08\u539f\u590d\u661f\u5927\u836f\u623f\uff09", "short_name_pinyin": "fumeidayaofang\uff08yuanfuxingdayaofang\uff09", "status": null, "address": null, "name": null, "id": "31609"}, "mid": "888888859120064", "shopId": "31609", "netid": null, "province": 901, "district": 601, "zipcode": null, "telephone": "32130176", "posDate": null, "destineTel": null, "togoTel": null, "trafficWay": "\u5730\u94c1\u4e09\u53f7\u7ebf 01 837", "signBuilding": null, "businessArea": null, "selfRoom": null, "businessTime": null, "stall": null, "consume": null, "serviceFei": null, "favourable": null, "shopMemo": null, "appraise": null, "website": null, "memo": null, "payTypes": "\u6749\u5fb7\u5361", "shopTypes": "\u836f\u5e97", "consumeTypes": null, "cookTypes": null, "orderNum": 1000, "card4no": null, "card4noAcc": null, "district2": 405, "searchScope": null, "status": 1, "address": "\u66f9\u6768\u8def415\u53f7", "name": "\u590d\u7f8e\u5927\u836f\u623f\uff08\u539f\u590d\u661f\u5927\u836f\u623f\uff09 \u6c11\u5eb7\u5e97", "id": 133909, "pageNo": 0, "pageCount": null, "pageSize": 10, "ids": null, "endTime": null, "startTime": null}, {"cardNumFive": null, "isSupportYj": null, "cityName": null, "districtName": null, "shopinfo": {"mid": "888888859120064", "good_flag": null, "new_flag": null, "short_name": "\u590d\u7f8e\u5927\u836f\u623f\uff08\u539f\u590d\u661f\u5927\u836f\u623f\uff09", "short_name_pinyin": "fumeidayaofang\uff08yuanfuxingdayaofang\uff09", "status": null, "address": null, "name": null, "id": "31609"}, "mid": "888888859120064", "shopId": "31609", "netid": null, "province": 901, "district": 601, "zipcode": null, "telephone": "32060301", "posDate": null, "destineTel": null, "togoTel": null, "trafficWay": "112", "signBuilding": null, "businessArea": null, "selfRoom": null, "businessTime": null, "stall": null, "consume": null, "serviceFei": null, "favourable": null, "shopMemo": null, "appraise": null, "website": null, "memo": null, "payTypes": "\u6749\u5fb7\u5361", "shopTypes": "\u836f\u5e97", "consumeTypes": null, "cookTypes": null, "orderNum": 1000, "card4no": null, "card4noAcc": null, "district2": 405, "searchScope": null, "status": 1, "address": "\u5b81\u5f3a\u8def196\u53f7", "name": "\u590d\u7f8e\u5927\u836f\u623f\uff08\u539f\u590d\u661f\u5927\u836f\u623f\uff09 \u5b81\u5f3a\u8def\u5e97", "id": 133910, "pageNo": 0, "pageCount": null, "pageSize": 10, "ids": null, "endTime": null, "startTime": null}, {"cardNumFive": null, "isSupportYj": null, "cityName": null, "districtName": null, "shopinfo": {"mid": "888888859120064", "good_flag": null, "new_flag": null, "short_name": "\u590d\u7f8e\u5927\u836f\u623f\uff08\u539f\u590d\u661f\u5927\u836f\u623f\uff09", "short_name_pinyin": "fumeidayaofang\uff08yuanfuxingdayaofang\uff09", "status": null, "address": null, "name": null, "id": "31609"}, "mid": "888888859120064", "shopId": "31609", "netid": null, "province": 901, "district": 601, "zipcode": null, "telephone": "62447145/62235929", "posDate": null, "destineTel": null, "togoTel": null, "trafficWay": "136 947 \u5730\u94c1\u4e09\u53f7\u7ebf", "signBuilding": null, "businessArea": null, "selfRoom": null, "businessTime": null, "stall": null, "consume": null, "serviceFei": null, "favourable": null, "shopMemo": null, "appraise": null, "website": null, "memo": null, "payTypes": "\u6749\u5fb7\u5361", "shopTypes": "\u836f\u5e97", "consumeTypes": null, "cookTypes": null, "orderNum": 1000, "card4no": null, "card4noAcc": null, "district2": 405, "searchScope": null, "status": 1, "address": "\u5b81\u590f\u8def448\u53f7", "name": "\u590d\u7f8e\u5927\u836f\u623f\uff08\u539f\u590d\u661f\u5927\u836f\u623f\uff09 \u5b81\u590f\u8def\u5e97", "id": 133911, "pageNo": 0, "pageCount": null, "pageSize": 10, "ids": null, "endTime": null, "startTime": null}, {"cardNumFive": null, "isSupportYj": null, "cityName": null, "districtName": null, "shopinfo": {"mid": "888888859120064", "good_flag": null, "new_flag": null, "short_name": "\u590d\u7f8e\u5927\u836f\u623f\uff08\u539f\u590d\u661f\u5927\u836f\u623f\uff09", "short_name_pinyin": "fumeidayaofang\uff08yuanfuxingdayaofang\uff09", "status": null, "address": null, "name": null, "id": "31609"}, "mid": "888888859120064", "shopId": "31609", "netid": null, "province": 901, "district": 601, "zipcode": null, "telephone": "65072921/65072920", "posDate": "20070919", "destineTel": null, "togoTel": null, "trafficWay": "\u516c\u4ea4829 937 \u65c5\u6e3810\u53f7\u7ebf", "signBuilding": null, "businessArea": null, "selfRoom": null, "businessTime": null, "stall": null, "consume": null, "serviceFei": null, "favourable": null, "shopMemo": null, "appraise": null, "website": null, "memo": null, "payTypes": "\u6749\u5fb7\u5361", "shopTypes": "\u836f\u5e97", "consumeTypes": null, "cookTypes": null, "orderNum": 1000, "card4no": null, "card4noAcc": null, "district2": 408, "searchScope": null, "status": 1, "address": "\u6b27\u9633\u8def695\u53f7", "name": "\u590d\u7f8e\u5927\u836f\u623f\uff08\u539f\u590d\u661f\u5927\u836f\u623f\uff09 \u6b27\u9633\u8def\u5e97", "id": 133913, "pageNo": 0, "pageCount": null, "pageSize": 10, "ids": null, "endTime": null, "startTime": null}, {"cardNumFive": null, "isSupportYj": null, "cityName": null, "districtName": null, "shopinfo": {"mid": "888888859120064", "good_flag": null, "new_flag": null, "short_name": "\u590d\u7f8e\u5927\u836f\u623f\uff08\u539f\u590d\u661f\u5927\u836f\u623f\uff09", "short_name_pinyin": "fumeidayaofang\uff08yuanfuxingdayaofang\uff09", "status": null, "address": null, "name": null, "id": "31609"}, "mid": "888888859120064", "shopId": "31609", "netid": null, "province": 901, "district": 601, "zipcode": null, "telephone": "63164041", "posDate": null, "destineTel": null, "togoTel": null, "trafficWay": "18 109 \u5730\u94c1\u4e00\u53f7\u7ebf", "signBuilding": null, "businessArea": null, "selfRoom": null, "businessTime": null, "stall": null, "consume": null, "serviceFei": null, "favourable": null, "shopMemo": null, "appraise": null, "website": null, "memo": null, "payTypes": "\u6749\u5fb7\u5361", "shopTypes": "\u836f\u5e97", "consumeTypes": null, "cookTypes": null, "orderNum": 1000, "card4no": null, "card4noAcc": null, "district2": 401, "searchScope": null, "status": 1, "address": "\u666e\u80b2\u897f\u8def48\u53f7", "name": "\u590d\u7f8e\u5927\u836f\u623f\uff08\u539f\u590d\u661f\u5927\u836f\u623f\uff09 \u666e\u80b2\u897f\u8def\u5e97", "id": 133914, "pageNo": 0, "pageCount": null, "pageSize": 10, "ids": null, "endTime": null, "startTime": null}, {"cardNumFive": null, "isSupportYj": null, "cityName": null, "districtName": null, "shopinfo": {"mid": "888888859120064", "good_flag": null, "new_flag": null, "short_name": "\u590d\u7f8e\u5927\u836f\u623f\uff08\u539f\u590d\u661f\u5927\u836f\u623f\uff09", "short_name_pinyin": "fumeidayaofang\uff08yuanfuxingdayaofang\uff09", "status": null, "address": null, "name": null, "id": "31609"}, "mid": "888888859120064", "shopId": "31609", "netid": null, "province": 901, "district": 601, "zipcode": null, "telephone": "54500764", "posDate": null, "destineTel": null, "togoTel": null, "trafficWay": "927 931 506", "signBuilding": null, "businessArea": null, "selfRoom": null, "businessTime": null, "stall": null, "consume": null, "serviceFei": null, "favourable": null, "shopMemo": null, "appraise": null, "website": null, "memo": null, "payTypes": "\u6749\u5fb7\u5361", "shopTypes": "\u836f\u5e97", "consumeTypes": null, "cookTypes": null, "orderNum": 1000, "card4no": null, "card4noAcc": null, "district2": 403, "searchScope": null, "status": 1, "address": "\u94a6\u5dde\u5317\u8def994\u53f7", "name": "\u590d\u7f8e\u5927\u836f\u623f\uff08\u539f\u590d\u661f\u5927\u836f\u623f\uff09 \u94a6\u5dde\u5317\u8def\u5e97", "id": 133915, "pageNo": 0, "pageCount": null, "pageSize": 10, "ids": null, "endTime": null, "startTime": null}, {"cardNumFive": null, "isSupportYj": null, "cityName": null, "districtName": null, "shopinfo": {"mid": "888888859120064", "good_flag": null, "new_flag": null, "short_name": "\u590d\u7f8e\u5927\u836f\u623f\uff08\u539f\u590d\u661f\u5927\u836f\u623f\uff09", "short_name_pinyin": "fumeidayaofang\uff08yuanfuxingdayaofang\uff09", "status": null, "address": null, "name": null, "id": "31609"}, "mid": "888888859120064", "shopId": "31609", "netid": null, "province": 901, "district": 601, "zipcode": null, "telephone": "56318707", "posDate": null, "destineTel": null, "togoTel": null, "trafficWay": "\u516c\u4ea4108 537 18", "signBuilding": null, "businessArea": null, "selfRoom": null, "businessTime": null, "stall": null, "consume": null, "serviceFei": null, "favourable": null, "shopMemo": null, "appraise": null, "website": null, "memo": null, "payTypes": "\u6749\u5fb7\u5361", "shopTypes": "\u836f\u5e97", "consumeTypes": null, "cookTypes": null, "orderNum": 1000, "card4no": null, "card4noAcc": null, "district2": 410, "searchScope": null, "status": 1, "address": "\u5b9d\u5c71\u8def\u8857\u9053\u866c\u6c5f\u8def1018\u53f7", "name": "\u590d\u7f8e\u5927\u836f\u623f\uff08\u539f\u590d\u661f\u5927\u836f\u623f\uff09 \u866c\u6c5f\u8def\u5e97", "id": 133916, "pageNo": 0, "pageCount": null, "pageSize": 10, "ids": null, "endTime": null, "startTime": null}, {"cardNumFive": null, "isSupportYj": null, "cityName": null, "districtName": null, "shopinfo": {"mid": "888888859120064", "good_flag": null, "new_flag": null, "short_name": "\u590d\u7f8e\u5927\u836f\u623f\uff08\u539f\u590d\u661f\u5927\u836f\u623f\uff09", "short_name_pinyin": "fumeidayaofang\uff08yuanfuxingdayaofang\uff09", "status": null, "address": null, "name": null, "id": "31609"}, "mid": "888888859120064", "shopId": "31609", "netid": null, "province": 901, "district": 601, "zipcode": null, "telephone": "68020688", "posDate": null, "destineTel": null, "togoTel": null, "trafficWay": "\u5468\u5357\u7ebf \u5357\u65b0\u4e13\u7ebf", "signBuilding": null, "businessArea": null, "selfRoom": null, "businessTime": null, "stall": null, "consume": null, "serviceFei": null, "favourable": null, "shopMemo": null, "appraise": null, "website": null, "memo": null, "payTypes": "\u6749\u5fb7\u5361", "shopTypes": "\u836f\u5e97", "consumeTypes": null, "cookTypes": null, "orderNum": 1000, "card4no": null, "card4noAcc": null, "district2": 418, "searchScope": null, "status": 1, "address": "\u60e0\u5357\u9547\u4eba\u6c11\u4e1c\u8def22\u5f045\u53f7", "name": "\u590d\u7f8e\u5927\u836f\u623f\uff08\u539f\u590d\u661f\u5927\u836f\u623f\uff09 \u4eba\u6c11\u4e1c\u8def\u5e97", "id": 133917, "pageNo": 0, "pageCount": null, "pageSize": 10, "ids": null, "endTime": null, "startTime": null}], "pageLimit": 1410, "size": 10}