{"pageCount": 1095, "count": 10942, "pageNo": 150, "subShopInfo": {"cardNumFive": "", "isSupportYj": "", "cityName": null, "districtName": null, "shopinfo": {"mid": null, "good_flag": null, "new_flag": null, "short_name": null, "short_name_pinyin": null, "status": null, "address": "", "name": "", "id": null}, "mid": null, "shopId": null, "netid": null, "province": 901, "district": null, "zipcode": null, "telephone": null, "posDate": null, "destineTel": null, "togoTel": null, "trafficWay": null, "signBuilding": null, "businessArea": null, "selfRoom": null, "businessTime": null, "stall": null, "consume": null, "serviceFei": null, "favourable": null, "shopMemo": "1", "appraise": null, "website": null, "memo": null, "payTypes": "", "shopTypes": "", "consumeTypes": null, "cookTypes": null, "orderNum": null, "card4no": null, "card4noAcc": null, "district2": null, "searchScope": null, "status": null, "address": "", "name": null, "id": null, "pageNo": 149, "pageCount": null, "pageSize": 10, "ids": null, "endTime": null, "startTime": null}, "list": [{"cardNumFive": null, "isSupportYj": null, "cityName": null, "districtName": null, "shopinfo": {"mid": "888002153110003", "good_flag": null, "new_flag": null, "short_name": "GrandVision\u89c2\u89c6\u754c", "short_name_pinyin": "GrandVision", "status": null, "address": null, "name": null, "id": "43493"}, "mid": "888002153110003", "shopId": "43493", "netid": null, "province": 901, "district": 601, "zipcode": null, "telephone": null, "posDate": null, "destineTel": null, "togoTel": null, "trafficWay": null, "signBuilding": null, "businessArea": null, "selfRoom": null, "businessTime": null, "stall": null, "consume": null, "serviceFei": null, "favourable": null, "shopMemo": null, "appraise": null, "website": null, "memo": null, "payTypes": "\u6749\u5fb7\u5361", "shopTypes": "\u4e13\u5356", "consumeTypes": null, "cookTypes": null, "orderNum": 1000, "card4no": null, "card4noAcc": null, "district2": 403, "searchScope": null, "status": 1, "address": "\u7530\u6797\u8def36\u53f7", "name": "GrandVision\u89c2\u89c6\u754c \u7530\u6797\u5e97", "id": 196996, "pageNo": 0, "pageCount": null, "pageSize": 10, "ids": null, "endTime": null, "startTime": null}, {"cardNumFive": null, "isSupportYj": null, "cityName": null, "districtName": null, "shopinfo": {"mid": "888002153110003", "good_flag": null, "new_flag": null, "short_name": "GrandVision\u89c2\u89c6\u754c", "short_name_pinyin": "GrandVision", "status": null, "address": null, "name": null, "id": "43493"}, "mid": "888002153110003", "shopId": "43493", "netid": null, "province": 901, "district": 601, "zipcode": null, "telephone": null, "posDate": null, "destineTel": null, "togoTel": null, "trafficWay": null, "signBuilding": null, "businessArea": null, "selfRoom": null, "businessTime": null, "stall": null, "consume": null, "serviceFei": null, "favourable": null, "shopMemo": null, "appraise": null, "website": null, "memo": null, "payTypes": "\u6749\u5fb7\u5361", "shopTypes": "\u4e13\u5356", "consumeTypes": null, "cookTypes": null, "orderNum": 1000, "card4no": null, "card4noAcc": null, "district2": 409, "searchScope": null, "status": 1, "address": "\u6caa\u95f5\u8def7388\u53f71\u697c043", "name": "GrandVision\u89c2\u89c6\u754c \u5357\u65b9\u5e97", "id": 196997, "pageNo": 0, "pageCount": null, "pageSize": 10, "ids": null, "endTime": null, "startTime": null}, {"cardNumFive": null, "isSupportYj": null, "cityName": null, "districtName": null, "shopinfo": {"mid": "888002153110003", "good_flag": null, "new_flag": null, "short_name": "GrandVision\u89c2\u89c6\u754c", "short_name_pinyin": "GrandVision", "status": null, "address": null, "name": null, "id": "43493"}, "mid": "888002153110003", "shopId": "43493", "netid": null, "province": 901, "district": 601, "zipcode": null, "telephone": null, "posDate": null, "destineTel": null, "togoTel": null, "trafficWay": null, "signBuilding": null, "businessArea": null, "selfRoom": null, "businessTime": null, "stall": null, "consume": null, "serviceFei": null, "favourable": null, "shopMemo": null, "appraise": null, "website": null, "memo": null, "payTypes": "\u6749\u5fb7\u5361", "shopTypes": "\u4e13\u5356", "consumeTypes": null, "cookTypes": null, "orderNum": 1000, "card4no": null, "card4noAcc": null, "district2": 401, "searchScope": null, "status": 1, "address": "\u5357\u4eac\u4e1c\u8def409\u53f7-459\u53f7 \u7f6e\u5730\u5e7f\u573a 1 \u697c", "name": "GrandVision\u89c2\u89c6\u754c \u7f6e\u5730\u5e97", "id": 196998, "pageNo": 0, "pageCount": null, "pageSize": 10, "ids": null, "endTime": null, "startTime": null}, {"cardNumFive": null, "isSupportYj": null, "cityName": null, "districtName": null, "shopinfo": {"mid": "888002153110003", "good_flag": null, "new_flag": null, "short_name": "GrandVision\u89c2\u89c6\u754c", "short_name_pinyin": "GrandVision", "status": null, "address": null, "name": null, "id": "43493"}, "mid": "888002153110003", "shopId": "43493", "netid": null, "province": 901, "district": 601, "zipcode": null, "telephone": null, "posDate": null, "destineTel": null, "togoTel": null, "trafficWay": null, "signBuilding": null, "businessArea": null, "selfRoom": null, "businessTime": null, "stall": null, "consume": null, "serviceFei": null, "favourable": null, "shopMemo": null, "appraise": null, "website": null, "memo": null, "payTypes": "\u6749\u5fb7\u5361", "shopTypes": "\u4e13\u5356", "consumeTypes": null, "cookTypes": null, "orderNum": 1000, "card4no": null, "card4noAcc": null, "district2": 403, "searchScope": null, "status": 1, "address": "\u8087\u5609\u6d5c\u8def1111\u53f7\u5f90\u5bb6\u6c47\u7f8e\u7f57\u57ce1\u697c\uff08\u7f8e\u7f57\u5e97\uff09", "name": "GrandVision\u89c2\u89c6\u754c \u7f8e\u7f57\u5e97", "id": 196999, "pageNo": 0, "pageCount": null, "pageSize": 10, "ids": null, "endTime": null, "startTime": null}, {"cardNumFive": null, "isSupportYj": null, "cityName": null, "districtName": null, "shopinfo": {"mid": "888002153110003", "good_flag": null, "new_flag": null, "short_name": "GrandVision\u89c2\u89c6\u754c", "short_name_pinyin": "GrandVision", "status": null, "address": null, "name": null, "id": "43493"}, "mid": "888002153110003", "shopId": "43493", "netid": null, "province": 901, "district": 601, "zipcode": null, "telephone": null, "posDate": null, "destineTel": null, "togoTel": null, "trafficWay": null, "signBuilding": null, "businessArea": null, "selfRoom": null, "businessTime": null, "stall": null, "consume": null, "serviceFei": null, "favourable": null, "shopMemo": null, "appraise": null, "website": null, "memo": null, "payTypes": "\u6749\u5fb7\u5361", "shopTypes": "\u4e13\u5356", "consumeTypes": null, "cookTypes": null, "orderNum": 1000, "card4no": null, "card4noAcc": null, "district2": 404, "searchScope": null, "status": 1, "address": "\u4e07\u822a\u6e21\u8def2\u53f7", "name": "GrandVision\u89c2\u89c6\u754c \u4e07\u822a\u5e97", "id": 197000, "pageNo": 0, "pageCount": null, "pageSize": 10, "ids": null, "endTime": null, "startTime": null}, {"cardNumFive": null, "isSupportYj": null, "cityName": null, "districtName": null, "shopinfo": {"mid": "888002153110003", "good_flag": null, "new_flag": null, "short_name": "GrandVision\u89c2\u89c6\u754c", "short_name_pinyin": "GrandVision", "status": null, "address": null, "name": null, "id": "43493"}, "mid": "888002153110003", "shopId": "43493", "netid": null, "province": 901, "district": 601, "zipcode": null, "telephone": null, "posDate": null, "destineTel": null, "togoTel": null, "trafficWay": null, "signBuilding": null, "businessArea": null, "selfRoom": null, "businessTime": null, "stall": null, "consume": null, "serviceFei": null, "favourable": null, "shopMemo": null, "appraise": null, "website": null, "memo": null, "payTypes": "\u6749\u5fb7\u5361", "shopTypes": "\u4e13\u5356", "consumeTypes": null, "cookTypes": null, "orderNum": 1000, "card4no": null, "card4noAcc": null, "district2": 408, "searchScope": null, "status": 1, "address": "\u897f\u6c5f\u6e7e\u8def388\u53f7\u8679\u53e3\u9f99\u4e4b\u68a6B2-08", "name": "GrandVision\u89c2\u89c6\u754c \u8679\u53e3\u9f99\u4e4b\u68a6\u5e97", "id": 197001, "pageNo": 0, "pageCount": null, "pageSize": 10, "ids": null, "endTime": null, "startTime": null}, {"cardNumFive": null, "isSupportYj": null, "cityName": null, "districtName": null, "shopinfo": {"mid": "888002153110003", "good_flag": null, "new_flag": null, "short_name": "GrandVision\u89c2\u89c6\u754c", "short_name_pinyin": "GrandVision", "status": null, "address": null, "name": null, "id": "43493"}, "mid": "888002153110003", "shopId": "43493", "netid": null, "province": 901, "district": 601, "zipcode": null, "telephone": null, "posDate": null, "destineTel": null, "togoTel": null, "trafficWay": null, "signBuilding": null, "businessArea": null, "selfRoom": null, "businessTime": null, "stall": null, "consume": null, "serviceFei": null, "favourable": null, "shopMemo": null, "appraise": null, "website": null, "memo": null, "payTypes": "\u6749\u5fb7\u5361", "shopTypes": "\u4e13\u5356", "consumeTypes": null, "cookTypes": null, "orderNum": 1000, "card4no": null, "card4noAcc": null, "district2": 408, "searchScope": null, "status": 1, "address": "\u4e34\u5e73\u8def123\u53f7\u745e\u8679\u65b0\u57ce\u4e8c\u671f\u5546\u573a108\u5ba4", "name": "GrandVision\u89c2\u89c6\u754c \u745e\u8679\u574a\u5e97", "id": 197003, "pageNo": 0, "pageCount": null, "pageSize": 10, "ids": null, "endTime": null, "startTime": null}, {"cardNumFive": null, "isSupportYj": null, "cityName": null, "districtName": null, "shopinfo": {"mid": "888002153110003", "good_flag": null, "new_flag": null, "short_name": "GrandVision\u89c2\u89c6\u754c", "short_name_pinyin": "GrandVision", "status": null, "address": null, "name": null, "id": "43493"}, "mid": "888002153110003", "shopId": "43493", "netid": null, "province": 901, "district": 601, "zipcode": null, "telephone": null, "posDate": null, "destineTel": null, "togoTel": null, "trafficWay": null, "signBuilding": null, "businessArea": null, "selfRoom": null, "businessTime": null, "stall": null, "consume": null, "serviceFei": null, "favourable": null, "shopMemo": null, "appraise": null, "website": null, "memo": null, "payTypes": "\u6749\u5fb7\u5361", "shopTypes": "\u4e13\u5356", "consumeTypes": null, "cookTypes": null, "orderNum": 1000, "card4no": null, "card4noAcc": null, "district2": 418, "searchScope": null, "status": 1, "address": "\u7956\u51b2\u4e4b\u8def1239\u5f047\u53f7B1-28-3", "name": "GrandVision\u89c2\u89c6\u754c \u957f\u6cf0\u5e97", "id": 197005, "pageNo": 0, "pageCount": null, "pageSize": 10, "ids": null, "endTime": null, "startTime": null}, {"cardNumFive": null, "isSupportYj": null, "cityName": null, "districtName": null, "shopinfo": {"mid": "888002153110003", "good_flag": null, "new_flag": null, "short_name": "GrandVision\u89c2\u89c6\u754c", "short_name_pinyin": "GrandVision", "status": null, "address": null, "name": null, "id": "43493"}, "mid": "888002153110003", "shopId": "43493", "netid": null, "province": 901, "district": 601, "zipcode": null, "telephone": null, "posDate": null, "destineTel": null, "togoTel": null, "trafficWay": null, "signBuilding": null, "businessArea": null, "selfRoom": null, "businessTime": null, "stall": null, "consume": null, "serviceFei": null, "favourable": null, "shopMemo": null, "appraise": null, "website": null, "memo": null, "payTypes": "\u6749\u5fb7\u5361", "shopTypes": "\u4e13\u5356", "consumeTypes": null, "cookTypes": null, "orderNum": 1000, "card4no": null, "card4noAcc": null, "district2": 405, "searchScope": null, "status": 1, "address": "\u5927\u6e21\u6cb3\u8def168\u5f04136\u53f71\u5c4205A", "name": "GrandVision\u89c2\u89c6\u754c \u957f\u98ce\u666f\u7554\u5e97", "id": 197146, "pageNo": 0, "pageCount": null, "pageSize": 10, "ids": null, "endTime": null, "startTime": null}, {"cardNumFive": null, "isSupportYj": null, "cityName": null, "districtName": null, "shopinfo": {"mid": "888002148120064", "good_flag": null, "new_flag": null, "short_name": "\u5149\u5927\u901a\u4fe1", "short_name_pinyin": "guangdatongxin", "status": null, "address": null, "name": null, "id": "39637"}, "mid": "888002148120064", "shopId": "39637", "netid": null, "province": 901, "district": 601, "zipcode": null, "telephone": "20249278", "posDate": null, "destineTel": null, "togoTel": null, "trafficWay": null, "signBuilding": null, "businessArea": null, "selfRoom": null, "businessTime": null, "stall": null, "consume": null, "serviceFei": null, "favourable": null, "shopMemo": null, "appraise": null, "website": null, "memo": null, "payTypes": "\u6749\u5fb7\u5361", "shopTypes": "\u4e13\u5356", "consumeTypes": null, "cookTypes": null, "orderNum": 1000, "card4no": null, "card4noAcc": null, "district2": 418, "searchScope": null, "status": 1, "address": "\u9ad8\u79d1\u897f\u8def2110\u53f71\u697c", "name": "\u5149\u5927\u901a\u4fe1 \u7531\u7531\u6c83\u5c14\u739b\u5e97", "id": 169975, "pageNo": 0, "pageCount": null, "pageSize": 10, "ids": null, "endTime": null, "startTime": null}], "pageLimit": 1490, "size": 10}