{"pageCount": 1095, "count": 10942, "pageNo": 153, "subShopInfo": {"cardNumFive": "", "isSupportYj": "", "cityName": null, "districtName": null, "shopinfo": {"mid": null, "good_flag": null, "new_flag": null, "short_name": null, "short_name_pinyin": null, "status": null, "address": "", "name": "", "id": null}, "mid": null, "shopId": null, "netid": null, "province": 901, "district": null, "zipcode": null, "telephone": null, "posDate": null, "destineTel": null, "togoTel": null, "trafficWay": null, "signBuilding": null, "businessArea": null, "selfRoom": null, "businessTime": null, "stall": null, "consume": null, "serviceFei": null, "favourable": null, "shopMemo": "1", "appraise": null, "website": null, "memo": null, "payTypes": "", "shopTypes": "", "consumeTypes": null, "cookTypes": null, "orderNum": null, "card4no": null, "card4noAcc": null, "district2": null, "searchScope": null, "status": null, "address": "", "name": null, "id": null, "pageNo": 152, "pageCount": null, "pageSize": 10, "ids": null, "endTime": null, "startTime": null}, "list": [{"cardNumFive": null, "isSupportYj": null, "cityName": null, "districtName": null, "shopinfo": {"mid": "888888854110131", "good_flag": null, "new_flag": null, "short_name": "\u5149\u660e\u4fbf\u5229", "short_name_pinyin": "guangmingbianli", "status": null, "address": null, "name": null, "id": "31651"}, "mid": "888888854110131", "shopId": "31651", "netid": null, "province": 901, "district": 601, "zipcode": null, "telephone": "63044091", "posDate": "20080829", "destineTel": null, "togoTel": null, "trafficWay": "\u516c\u4ea4814 146\u5185\u5708 96", "signBuilding": null, "businessArea": null, "selfRoom": null, "businessTime": null, "stall": null, "consume": null, "serviceFei": null, "favourable": null, "shopMemo": null, "appraise": null, "website": null, "memo": null, "payTypes": "\u6749\u5fb7\u5361", "shopTypes": "\u4fbf\u5229\u5e97", "consumeTypes": null, "cookTypes": null, "orderNum": 1000, "card4no": null, "card4noAcc": null, "district2": 401, "searchScope": null, "status": 1, "address": "\u6253\u6d66\u8def319\u53f7", "name": "\u5149\u660e\u4fbf\u5229 \u6253\u6d66\u5e97", "id": 134080, "pageNo": 0, "pageCount": null, "pageSize": 10, "ids": null, "endTime": null, "startTime": null}, {"cardNumFive": null, "isSupportYj": null, "cityName": null, "districtName": null, "shopinfo": {"mid": "888888854110131", "good_flag": null, "new_flag": null, "short_name": "\u5149\u660e\u4fbf\u5229", "short_name_pinyin": "guangmingbianli", "status": null, "address": null, "name": null, "id": "31651"}, "mid": "888888854110131", "shopId": "31651", "netid": null, "province": 901, "district": 601, "zipcode": null, "telephone": "66390205", "posDate": "20080829", "destineTel": null, "togoTel": null, "trafficWay": "\u516c\u4ea4923738737", "signBuilding": null, "businessArea": null, "selfRoom": null, "businessTime": null, "stall": null, "consume": null, "serviceFei": null, "favourable": null, "shopMemo": null, "appraise": null, "website": null, "memo": null, "payTypes": "\u6749\u5fb7\u5361", "shopTypes": "\u4fbf\u5229\u5e97", "consumeTypes": null, "cookTypes": null, "orderNum": 1000, "card4no": null, "card4noAcc": null, "district2": 416, "searchScope": null, "status": 1, "address": "\u5927\u534e\u8def1480\u53f7", "name": "\u5149\u660e\u4fbf\u5229 \u5927\u534e\u5e97", "id": 134081, "pageNo": 0, "pageCount": null, "pageSize": 10, "ids": null, "endTime": null, "startTime": null}, {"cardNumFive": null, "isSupportYj": null, "cityName": null, "districtName": null, "shopinfo": {"mid": "888888854110131", "good_flag": null, "new_flag": null, "short_name": "\u5149\u660e\u4fbf\u5229", "short_name_pinyin": "guangmingbianli", "status": null, "address": null, "name": null, "id": "31651"}, "mid": "888888854110131", "shopId": "31651", "netid": null, "province": 901, "district": 601, "zipcode": null, "telephone": "65797343", "posDate": "20080822", "destineTel": null, "togoTel": null, "trafficWay": "\u516c\u4ea4829 933 \u5730\u94c1\u516b\u53f7\u7ebf", "signBuilding": null, "businessArea": null, "selfRoom": null, "businessTime": null, "stall": null, "consume": null, "serviceFei": null, "favourable": null, "shopMemo": null, "appraise": null, "website": null, "memo": null, "payTypes": "\u6749\u5fb7\u5361", "shopTypes": "\u4fbf\u5229\u5e97", "consumeTypes": null, "cookTypes": null, "orderNum": 1000, "card4no": null, "card4noAcc": null, "district2": 407, "searchScope": null, "status": 1, "address": "\u5927\u8fde\u897f\u8def1556\u53f7", "name": "\u5149\u660e\u4fbf\u5229 \u5927\u8fde\u5e97", "id": 134082, "pageNo": 0, "pageCount": null, "pageSize": 10, "ids": null, "endTime": null, "startTime": null}, {"cardNumFive": null, "isSupportYj": null, "cityName": null, "districtName": null, "shopinfo": {"mid": "888888854110131", "good_flag": null, "new_flag": null, "short_name": "\u5149\u660e\u4fbf\u5229", "short_name_pinyin": "guangmingbianli", "status": null, "address": null, "name": null, "id": "31651"}, "mid": "888888854110131", "shopId": "31651", "netid": null, "province": 901, "district": 601, "zipcode": null, "telephone": "63560575", "posDate": "20080913", "destineTel": null, "togoTel": null, "trafficWay": "\u516c\u4ea437 921 \u5730\u94c1\u4e8c\u53f7\u7ebf", "signBuilding": null, "businessArea": null, "selfRoom": null, "businessTime": null, "stall": null, "consume": null, "serviceFei": null, "favourable": null, "shopMemo": null, "appraise": null, "website": null, "memo": null, "payTypes": "\u6749\u5fb7\u5361", "shopTypes": "\u4fbf\u5229\u5e97", "consumeTypes": null, "cookTypes": null, "orderNum": 1000, "card4no": null, "card4noAcc": null, "district2": 408, "searchScope": null, "status": 1, "address": "\u5927\u540d\u8def245\u53f7", "name": "\u5149\u660e\u4fbf\u5229 \u5927\u540d\u5e97", "id": 134083, "pageNo": 0, "pageCount": null, "pageSize": 10, "ids": null, "endTime": null, "startTime": null}, {"cardNumFive": null, "isSupportYj": null, "cityName": null, "districtName": null, "shopinfo": {"mid": "888888854110131", "good_flag": null, "new_flag": null, "short_name": "\u5149\u660e\u4fbf\u5229", "short_name_pinyin": "guangmingbianli", "status": null, "address": null, "name": null, "id": "31651"}, "mid": "888888854110131", "shopId": "31651", "netid": null, "province": 901, "district": 601, "zipcode": null, "telephone": "66250612", "posDate": "20080911", "destineTel": null, "togoTel": null, "trafficWay": "\u516c\u4ea458 974 \u5730\u94c1\u4e00\u3001\u516b\u53f7\u7ebf", "signBuilding": null, "businessArea": null, "selfRoom": null, "businessTime": null, "stall": null, "consume": null, "serviceFei": null, "favourable": null, "shopMemo": null, "appraise": null, "website": null, "memo": null, "payTypes": "\u6749\u5fb7\u5361", "shopTypes": "\u4fbf\u5229\u5e97", "consumeTypes": null, "cookTypes": null, "orderNum": 1000, "card4no": null, "card4noAcc": null, "district2": 410, "searchScope": null, "status": 1, "address": "\u5927\u5b81\u8def883\u5f0415\u53f7\u4e59", "name": "\u5149\u660e\u4fbf\u5229 \u5927\u5b81\u5e97", "id": 134084, "pageNo": 0, "pageCount": null, "pageSize": 10, "ids": null, "endTime": null, "startTime": null}, {"cardNumFive": null, "isSupportYj": null, "cityName": null, "districtName": null, "shopinfo": {"mid": "888888854110131", "good_flag": null, "new_flag": null, "short_name": "\u5149\u660e\u4fbf\u5229", "short_name_pinyin": "guangmingbianli", "status": null, "address": null, "name": null, "id": "31651"}, "mid": "888888854110131", "shopId": "31651", "netid": null, "province": 901, "district": 601, "zipcode": null, "telephone": "65430862", "posDate": "20080914", "destineTel": null, "togoTel": null, "trafficWay": "\u516c\u4ea4135 853", "signBuilding": null, "businessArea": null, "selfRoom": null, "businessTime": null, "stall": null, "consume": null, "serviceFei": null, "favourable": null, "shopMemo": null, "appraise": null, "website": null, "memo": null, "payTypes": "\u6749\u5fb7\u5361", "shopTypes": "\u4fbf\u5229\u5e97", "consumeTypes": null, "cookTypes": null, "orderNum": 1000, "card4no": null, "card4noAcc": null, "district2": 407, "searchScope": null, "status": 1, "address": "\u677e\u6f58\u8def10\u53f7", "name": "\u5149\u660e\u4fbf\u5229 \u5927\u6865\u5e97", "id": 134085, "pageNo": 0, "pageCount": null, "pageSize": 10, "ids": null, "endTime": null, "startTime": null}, {"cardNumFive": null, "isSupportYj": null, "cityName": null, "districtName": null, "shopinfo": {"mid": "888888854110131", "good_flag": null, "new_flag": null, "short_name": "\u5149\u660e\u4fbf\u5229", "short_name_pinyin": "guangmingbianli", "status": null, "address": null, "name": null, "id": "31651"}, "mid": "888888854110131", "shopId": "31651", "netid": null, "province": 901, "district": 601, "zipcode": null, "telephone": "63047478", "posDate": "20080910", "destineTel": null, "togoTel": null, "trafficWay": "\u516c\u4ea4780 932 \u96a7\u9053\u516b\u7ebf", "signBuilding": null, "businessArea": null, "selfRoom": null, "businessTime": null, "stall": null, "consume": null, "serviceFei": null, "favourable": null, "shopMemo": null, "appraise": null, "website": null, "memo": null, "payTypes": "\u6749\u5fb7\u5361", "shopTypes": "\u4fbf\u5229\u5e97", "consumeTypes": null, "cookTypes": null, "orderNum": 1000, "card4no": null, "card4noAcc": null, "district2": 401, "searchScope": null, "status": 1, "address": "\u9c81\u73ed\u8def168\u5f044\u53f7\u697c", "name": "\u5149\u660e\u4fbf\u5229 \u5927\u540c\u82b1\u56ed\u5e97", "id": 134086, "pageNo": 0, "pageCount": null, "pageSize": 10, "ids": null, "endTime": null, "startTime": null}, {"cardNumFive": null, "isSupportYj": null, "cityName": null, "districtName": null, "shopinfo": {"mid": "888888854110131", "good_flag": null, "new_flag": null, "short_name": "\u5149\u660e\u4fbf\u5229", "short_name_pinyin": "guangmingbianli", "status": null, "address": null, "name": null, "id": "31651"}, "mid": "888888854110131", "shopId": "31651", "netid": null, "province": 901, "district": 601, "zipcode": null, "telephone": "63174172", "posDate": "20080828", "destineTel": null, "togoTel": null, "trafficWay": "\u516c\u4ea446 930 \u5730\u94c1\u4e00\u53f7\u7ebf", "signBuilding": null, "businessArea": null, "selfRoom": null, "businessTime": null, "stall": null, "consume": null, "serviceFei": null, "favourable": null, "shopMemo": null, "appraise": null, "website": null, "memo": null, "payTypes": "\u6749\u5fb7\u5361", "shopTypes": "\u4fbf\u5229\u5e97", "consumeTypes": null, "cookTypes": null, "orderNum": 1000, "card4no": null, "card4noAcc": null, "district2": 410, "searchScope": null, "status": 1, "address": "\u5927\u7edf\u8def135\u53f7", "name": "\u5149\u660e\u4fbf\u5229 \u5927\u7edf\u5e97", "id": 134087, "pageNo": 0, "pageCount": null, "pageSize": 10, "ids": null, "endTime": null, "startTime": null}, {"cardNumFive": null, "isSupportYj": null, "cityName": null, "districtName": null, "shopinfo": {"mid": "888888854110131", "good_flag": null, "new_flag": null, "short_name": "\u5149\u660e\u4fbf\u5229", "short_name_pinyin": "guangmingbianli", "status": null, "address": null, "name": null, "id": "31651"}, "mid": "888888854110131", "shopId": "31651", "netid": null, "province": 901, "district": 601, "zipcode": null, "telephone": "68569411", "posDate": "20080910", "destineTel": null, "togoTel": null, "trafficWay": "\u516c\u4ea4775 935 \u96a7\u9053\u516d\u7ebf", "signBuilding": null, "businessArea": null, "selfRoom": null, "businessTime": null, "stall": null, "consume": null, "serviceFei": null, "favourable": null, "shopMemo": null, "appraise": null, "website": null, "memo": null, "payTypes": "\u6749\u5fb7\u5361", "shopTypes": "\u4fbf\u5229\u5e97", "consumeTypes": null, "cookTypes": null, "orderNum": 1000, "card4no": null, "card4noAcc": null, "district2": 408, "searchScope": null, "status": 1, "address": "\u5fb7\u5e73\u8def1205\u53f7", "name": "\u5149\u660e\u4fbf\u5229 \u5fb7\u5e73\u5e97", "id": 134088, "pageNo": 0, "pageCount": null, "pageSize": 10, "ids": null, "endTime": null, "startTime": null}, {"cardNumFive": null, "isSupportYj": null, "cityName": null, "districtName": null, "shopinfo": {"mid": "888888854110131", "good_flag": null, "new_flag": null, "short_name": "\u5149\u660e\u4fbf\u5229", "short_name_pinyin": "guangmingbianli", "status": null, "address": null, "name": null, "id": "31651"}, "mid": "888888854110131", "shopId": "31651", "netid": null, "province": 901, "district": 601, "zipcode": null, "telephone": "56323790", "posDate": "20080901", "destineTel": null, "togoTel": null, "trafficWay": "\u516c\u4ea418 537 \u5730\u94c1\u4e09\u53f7\u7ebf", "signBuilding": null, "businessArea": null, "selfRoom": null, "businessTime": null, "stall": null, "consume": null, "serviceFei": null, "favourable": null, "shopMemo": null, "appraise": null, "website": null, "memo": null, "payTypes": "\u6749\u5fb7\u5361", "shopTypes": "\u4fbf\u5229\u5e97", "consumeTypes": null, "cookTypes": null, "orderNum": 1000, "card4no": null, "card4noAcc": null, "district2": 408, "searchScope": null, "status": 1, "address": "\u4e1c\u5b9d\u5174\u8def643\u53f7", "name": "\u5149\u660e\u4fbf\u5229 \u4e1c\u5b9d\u5174\u5e97", "id": 134089, "pageNo": 0, "pageCount": null, "pageSize": 10, "ids": null, "endTime": null, "startTime": null}], "pageLimit": 1520, "size": 10}