{"pageCount": 1095, "count": 10942, "pageNo": 151, "subShopInfo": {"cardNumFive": "", "isSupportYj": "", "cityName": null, "districtName": null, "shopinfo": {"mid": null, "good_flag": null, "new_flag": null, "short_name": null, "short_name_pinyin": null, "status": null, "address": "", "name": "", "id": null}, "mid": null, "shopId": null, "netid": null, "province": 901, "district": null, "zipcode": null, "telephone": null, "posDate": null, "destineTel": null, "togoTel": null, "trafficWay": null, "signBuilding": null, "businessArea": null, "selfRoom": null, "businessTime": null, "stall": null, "consume": null, "serviceFei": null, "favourable": null, "shopMemo": "1", "appraise": null, "website": null, "memo": null, "payTypes": "", "shopTypes": "", "consumeTypes": null, "cookTypes": null, "orderNum": null, "card4no": null, "card4noAcc": null, "district2": null, "searchScope": null, "status": null, "address": "", "name": null, "id": null, "pageNo": 150, "pageCount": null, "pageSize": 10, "ids": null, "endTime": null, "startTime": null}, "list": [{"cardNumFive": null, "isSupportYj": null, "cityName": null, "districtName": null, "shopinfo": {"mid": "888888848120001", "good_flag": "2", "new_flag": "2", "short_name": "\u5149\u5927\u901a\u8baf\u5929\u5730", "short_name_pinyin": "guangdatongxuntiandi", "status": null, "address": null, "name": null, "id": "31650"}, "mid": "888888848120001", "shopId": "31650", "netid": null, "province": 901, "district": 601, "zipcode": null, "telephone": "66262427", "posDate": "20061129", "destineTel": null, "togoTel": null, "trafficWay": "\u516c\u4ea4117 517 859", "signBuilding": null, "businessArea": null, "selfRoom": null, "businessTime": "8:00~01:00", "stall": null, "consume": null, "serviceFei": null, "favourable": null, "shopMemo": null, "appraise": null, "website": null, "memo": null, "payTypes": "\u6749\u5fb7\u5361", "shopTypes": "\u4e13\u5356", "consumeTypes": null, "cookTypes": null, "orderNum": 1000, "card4no": null, "card4noAcc": null, "district2": 405, "searchScope": null, "status": 1, "address": "\u96ea\u677e\u8def168\u53f7\u4e16\u7eaa\u8054\u534e\u5e95\u697c", "name": "\u5149\u5927\u901a\u8baf\u5929\u5730 \u96ea\u677e\u8def\u5e97", "id": 134061, "pageNo": 0, "pageCount": null, "pageSize": 10, "ids": null, "endTime": null, "startTime": null}, {"cardNumFive": null, "isSupportYj": null, "cityName": null, "districtName": null, "shopinfo": {"mid": "888888854410119", "good_flag": "2", "new_flag": "2", "short_name": "\u5e7f\u826f\u5174\u98df\u54c1", "short_name_pinyin": "guangliangxingshipin", "status": null, "address": null, "name": null, "id": "31654"}, "mid": "888888854410119", "shopId": "31654", "netid": null, "province": 901, "district": 601, "zipcode": null, "telephone": "51710028", "posDate": "20080929", "destineTel": null, "togoTel": null, "trafficWay": "\u516c\u4ea449 \u5730\u94c1\u4e00\u3001\u4e8c\u3001\u516b\u53f7\u7ebf", "signBuilding": null, "businessArea": null, "selfRoom": null, "businessTime": null, "stall": null, "consume": null, "serviceFei": null, "favourable": null, "shopMemo": null, "appraise": null, "website": null, "memo": null, "payTypes": "\u6749\u5fb7\u5361", "shopTypes": "\u8d85\u5e02", "consumeTypes": null, "cookTypes": null, "orderNum": 1000, "card4no": null, "card4noAcc": null, "district2": 401, "searchScope": null, "status": 1, "address": "\u4eba\u6c11\u5e7f\u573a\u8fea\u7f8e\u8d2d\u7269\u4e2d\u5fc3226\u5546\u94fa", "name": "\u5e7f\u826f\u5174\u98df\u54c1 \u8fea\u7f8e\u5e97", "id": 134720, "pageNo": 0, "pageCount": null, "pageSize": 10, "ids": null, "endTime": null, "startTime": null}, {"cardNumFive": null, "isSupportYj": null, "cityName": null, "districtName": null, "shopinfo": {"mid": "888888854410119", "good_flag": "2", "new_flag": "2", "short_name": "\u5e7f\u826f\u5174\u98df\u54c1", "short_name_pinyin": "guangliangxingshipin", "status": null, "address": null, "name": null, "id": "31654"}, "mid": "888888854410119", "shopId": "31654", "netid": null, "province": 901, "district": 601, "zipcode": null, "telephone": "51710028", "posDate": "20081005", "destineTel": null, "togoTel": null, "trafficWay": "\u516c\u4ea4\u9752\u6d663\u8def \u9752\u6d669\u8def", "signBuilding": null, "businessArea": null, "selfRoom": null, "businessTime": null, "stall": null, "consume": null, "serviceFei": null, "favourable": null, "shopMemo": null, "appraise": null, "website": null, "memo": null, "payTypes": "\u6749\u5fb7\u5361", "shopTypes": "\u8d85\u5e02", "consumeTypes": null, "cookTypes": null, "orderNum": 1000, "card4no": null, "card4noAcc": null, "district2": 417, "searchScope": null, "status": 1, "address": "\u516c\u56ed\u8def700-718\u53f7\u4e16\u7eaa\u8054\u534e", "name": "\u5e7f\u826f\u5174\u98df\u54c1 \u516c\u56ed\u8def\u5e97", "id": 134722, "pageNo": 0, "pageCount": null, "pageSize": 10, "ids": null, "endTime": null, "startTime": null}, {"cardNumFive": null, "isSupportYj": null, "cityName": null, "districtName": null, "shopinfo": {"mid": "888888854410119", "good_flag": "2", "new_flag": "2", "short_name": "\u5e7f\u826f\u5174\u98df\u54c1", "short_name_pinyin": "guangliangxingshipin", "status": null, "address": null, "name": null, "id": "31654"}, "mid": "888888854410119", "shopId": "31654", "netid": null, "province": 901, "district": 601, "zipcode": null, "telephone": "51710028", "posDate": "20081209", "destineTel": null, "togoTel": null, "trafficWay": "\u516c\u4ea449 921 \u5730\u94c1\u4e8c\u53f7\u7ebf", "signBuilding": null, "businessArea": "200", "selfRoom": null, "businessTime": "9:00~23:00", "stall": null, "consume": null, "serviceFei": null, "favourable": null, "shopMemo": null, "appraise": null, "website": null, "memo": null, "payTypes": "\u6749\u5fb7\u5361", "shopTypes": "\u8d85\u5e02", "consumeTypes": null, "cookTypes": null, "orderNum": 1000, "card4no": null, "card4noAcc": null, "district2": 404, "searchScope": null, "status": 1, "address": "\u5357\u4eac\u897f\u8def1168\u53f7425\u5ba4", "name": "\u5e7f\u826f\u5174\u98df\u54c1 \u5357\u4eac\u897f\u8def\u5e97", "id": 134725, "pageNo": 0, "pageCount": null, "pageSize": 10, "ids": null, "endTime": null, "startTime": null}, {"cardNumFive": null, "isSupportYj": null, "cityName": null, "districtName": null, "shopinfo": {"mid": "888888854410119", "good_flag": "2", "new_flag": "2", "short_name": "\u5e7f\u826f\u5174\u98df\u54c1", "short_name_pinyin": "guangliangxingshipin", "status": null, "address": null, "name": null, "id": "31654"}, "mid": "888888854410119", "shopId": "31654", "netid": null, "province": 901, "district": 601, "zipcode": null, "telephone": "51710028", "posDate": "20080930", "destineTel": null, "togoTel": null, "trafficWay": "\u516c\u4ea449 925 \u5730\u94c1\u4e00\u53f7\u7ebf", "signBuilding": null, "businessArea": null, "selfRoom": null, "businessTime": null, "stall": null, "consume": null, "serviceFei": null, "favourable": null, "shopMemo": null, "appraise": null, "website": null, "memo": null, "payTypes": "\u6749\u5fb7\u5361", "shopTypes": "\u8d85\u5e02", "consumeTypes": null, "cookTypes": null, "orderNum": 1000, "card4no": null, "card4noAcc": null, "district2": 401, "searchScope": null, "status": 1, "address": "\u9655\u897f\u5357\u8def252\u53f7", "name": "\u5e7f\u826f\u5174\u98df\u54c1 \u9655\u897f\u5357\u8def\u5e97", "id": 134727, "pageNo": 0, "pageCount": null, "pageSize": 10, "ids": null, "endTime": null, "startTime": null}, {"cardNumFive": null, "isSupportYj": null, "cityName": null, "districtName": null, "shopinfo": {"mid": "888888854110131", "good_flag": null, "new_flag": null, "short_name": "\u5149\u660e\u4fbf\u5229", "short_name_pinyin": "guangmingbianli", "status": null, "address": null, "name": null, "id": "31651"}, "mid": "888888854110131", "shopId": "31651", "netid": null, "province": 901, "district": 601, "zipcode": null, "telephone": "56819466", "posDate": "20080910", "destineTel": null, "togoTel": null, "trafficWay": "\u516c\u4ea498 912", "signBuilding": null, "businessArea": null, "selfRoom": null, "businessTime": null, "stall": null, "consume": null, "serviceFei": null, "favourable": null, "shopMemo": null, "appraise": null, "website": null, "memo": null, "payTypes": "\u6749\u5fb7\u5361", "shopTypes": "\u4fbf\u5229\u5e97", "consumeTypes": null, "cookTypes": null, "orderNum": 1000, "card4no": null, "card4noAcc": null, "district2": 408, "searchScope": null, "status": 1, "address": "\u5b89\u6c7e\u8def776\u53f7", "name": "\u5149\u660e\u4fbf\u5229 \u5b89\u6c7e\u5e97", "id": 134062, "pageNo": 0, "pageCount": null, "pageSize": 10, "ids": null, "endTime": null, "startTime": null}, {"cardNumFive": null, "isSupportYj": null, "cityName": null, "districtName": null, "shopinfo": {"mid": "888888854110131", "good_flag": null, "new_flag": null, "short_name": "\u5149\u660e\u4fbf\u5229", "short_name_pinyin": "guangmingbianli", "status": null, "address": null, "name": null, "id": "31651"}, "mid": "888888854110131", "shopId": "31651", "netid": null, "province": 901, "district": 601, "zipcode": null, "telephone": "62195166", "posDate": "20080826", "destineTel": null, "togoTel": null, "trafficWay": "\u516c\u4ea448 925 936", "signBuilding": null, "businessArea": null, "selfRoom": null, "businessTime": null, "stall": null, "consume": null, "serviceFei": null, "favourable": null, "shopMemo": null, "appraise": null, "website": null, "memo": null, "payTypes": "\u6749\u5fb7\u5361", "shopTypes": "\u4fbf\u5229\u5e97", "consumeTypes": null, "cookTypes": null, "orderNum": 1000, "card4no": null, "card4noAcc": null, "district2": 406, "searchScope": null, "status": 1, "address": "\u5b89\u987a\u8def328\u53f7", "name": "\u5149\u660e\u4fbf\u5229 \u5b89\u987a\u5e97", "id": 134063, "pageNo": 0, "pageCount": null, "pageSize": 10, "ids": null, "endTime": null, "startTime": null}, {"cardNumFive": null, "isSupportYj": null, "cityName": null, "districtName": null, "shopinfo": {"mid": "888888854110131", "good_flag": null, "new_flag": null, "short_name": "\u5149\u660e\u4fbf\u5229", "short_name_pinyin": "guangmingbianli", "status": null, "address": null, "name": null, "id": "31651"}, "mid": "888888854110131", "shopId": "31651", "netid": null, "province": 901, "district": 601, "zipcode": null, "telephone": "65586018", "posDate": "20080826", "destineTel": null, "togoTel": null, "trafficWay": "\u516c\u4ea4942 137 \u5730\u94c1\u516b\u53f7\u7ebf", "signBuilding": null, "businessArea": null, "selfRoom": null, "businessTime": null, "stall": null, "consume": null, "serviceFei": null, "favourable": null, "shopMemo": null, "appraise": null, "website": null, "memo": null, "payTypes": "\u6749\u5fb7\u5361", "shopTypes": "\u4fbf\u5229\u5e97", "consumeTypes": null, "cookTypes": null, "orderNum": 1000, "card4no": null, "card4noAcc": null, "district2": 407, "searchScope": null, "status": 1, "address": "\u5305\u5934\u8def286-288\u53f7", "name": "\u5149\u660e\u4fbf\u5229 \u5305\u5934\u5e97", "id": 134065, "pageNo": 0, "pageCount": null, "pageSize": 10, "ids": null, "endTime": null, "startTime": null}, {"cardNumFive": null, "isSupportYj": null, "cityName": null, "districtName": null, "shopinfo": {"mid": "888888854110131", "good_flag": null, "new_flag": null, "short_name": "\u5149\u660e\u4fbf\u5229", "short_name_pinyin": "guangmingbianli", "status": null, "address": null, "name": null, "id": "31651"}, "mid": "888888854110131", "shopId": "31651", "netid": null, "province": 901, "district": 601, "zipcode": null, "telephone": "66591857", "posDate": "20080911", "destineTel": null, "togoTel": null, "trafficWay": "\u516c\u4ea4952 952B \u5b9d\u6768\u7801\u5934\u4e13\u7ebf", "signBuilding": null, "businessArea": null, "selfRoom": null, "businessTime": null, "stall": null, "consume": null, "serviceFei": null, "favourable": null, "shopMemo": null, "appraise": null, "website": null, "memo": null, "payTypes": "\u6749\u5fb7\u5361", "shopTypes": "\u4fbf\u5229\u5e97", "consumeTypes": null, "cookTypes": null, "orderNum": 1000, "card4no": null, "card4noAcc": null, "district2": 416, "searchScope": null, "status": 1, "address": "\u5b9d\u6797\u8def259\u53f7", "name": "\u5149\u660e\u4fbf\u5229 \u5b9d\u6797\u5e97", "id": 134066, "pageNo": 0, "pageCount": null, "pageSize": 10, "ids": null, "endTime": null, "startTime": null}, {"cardNumFive": null, "isSupportYj": null, "cityName": null, "districtName": null, "shopinfo": {"mid": "888888854110131", "good_flag": null, "new_flag": null, "short_name": "\u5149\u660e\u4fbf\u5229", "short_name_pinyin": "guangmingbianli", "status": null, "address": null, "name": null, "id": "31651"}, "mid": "888888854110131", "shopId": "31651", "netid": null, "province": 901, "district": 601, "zipcode": null, "telephone": "65407003", "posDate": "20080825", "destineTel": null, "togoTel": null, "trafficWay": "\u516c\u4ea447 952 \u5730\u94c1\u4e09\u53f7\u7ebf", "signBuilding": null, "businessArea": null, "selfRoom": null, "businessTime": null, "stall": null, "consume": null, "serviceFei": null, "favourable": null, "shopMemo": null, "appraise": null, "website": null, "memo": null, "payTypes": "\u6749\u5fb7\u5361", "shopTypes": "\u4fbf\u5229\u5e97", "consumeTypes": null, "cookTypes": null, "orderNum": 1000, "card4no": null, "card4noAcc": null, "district2": 408, "searchScope": null, "status": 1, "address": "\u5b9d\u5c71\u8def830\u53f7", "name": "\u5149\u660e\u4fbf\u5229 \u5b9d\u5c71\u4e8c\u5e97", "id": 134067, "pageNo": 0, "pageCount": null, "pageSize": 10, "ids": null, "endTime": null, "startTime": null}], "pageLimit": 1500, "size": 10}