{"pageCount": 1095, "count": 10942, "pageNo": 164, "subShopInfo": {"cardNumFive": "", "isSupportYj": "", "cityName": null, "districtName": null, "shopinfo": {"mid": null, "good_flag": null, "new_flag": null, "short_name": null, "short_name_pinyin": null, "status": null, "address": "", "name": "", "id": null}, "mid": null, "shopId": null, "netid": null, "province": 901, "district": null, "zipcode": null, "telephone": null, "posDate": null, "destineTel": null, "togoTel": null, "trafficWay": null, "signBuilding": null, "businessArea": null, "selfRoom": null, "businessTime": null, "stall": null, "consume": null, "serviceFei": null, "favourable": null, "shopMemo": "1", "appraise": null, "website": null, "memo": null, "payTypes": "", "shopTypes": "", "consumeTypes": null, "cookTypes": null, "orderNum": null, "card4no": null, "card4noAcc": null, "district2": null, "searchScope": null, "status": null, "address": "", "name": null, "id": null, "pageNo": 163, "pageCount": null, "pageSize": 10, "ids": null, "endTime": null, "startTime": null}, "list": [{"cardNumFive": null, "isSupportYj": null, "cityName": null, "districtName": null, "shopinfo": {"mid": "888888854110131", "good_flag": null, "new_flag": null, "short_name": "\u5149\u660e\u4fbf\u5229", "short_name_pinyin": "guangmingbianli", "status": null, "address": null, "name": null, "id": "31651"}, "mid": "888888854110131", "shopId": "31651", "netid": null, "province": 901, "district": 601, "zipcode": null, "telephone": "56171496", "posDate": "20080911", "destineTel": null, "togoTel": null, "trafficWay": "\u516c\u4ea490 719", "signBuilding": null, "businessArea": null, "selfRoom": null, "businessTime": null, "stall": null, "consume": null, "serviceFei": null, "favourable": null, "shopMemo": null, "appraise": null, "website": null, "memo": null, "payTypes": "\u6749\u5fb7\u5361", "shopTypes": "\u4fbf\u5229\u5e97", "consumeTypes": null, "cookTypes": null, "orderNum": 1000, "card4no": null, "card4noAcc": null, "district2": 416, "searchScope": null, "status": 1, "address": "\u6c38\u6e05\u8def331\u53f7", "name": "\u5149\u660e\u4fbf\u5229 \u6c38\u6e05\u5e97", "id": 134220, "pageNo": 0, "pageCount": null, "pageSize": 10, "ids": null, "endTime": null, "startTime": null}, {"cardNumFive": null, "isSupportYj": null, "cityName": null, "districtName": null, "shopinfo": {"mid": "888888854110131", "good_flag": null, "new_flag": null, "short_name": "\u5149\u660e\u4fbf\u5229", "short_name_pinyin": "guangmingbianli", "status": null, "address": null, "name": null, "id": "31651"}, "mid": "888888854110131", "shopId": "31651", "netid": null, "province": 901, "district": 601, "zipcode": null, "telephone": "62170815", "posDate": "20080826", "destineTel": null, "togoTel": null, "trafficWay": "\u516c\u4ea4824 830 506", "signBuilding": null, "businessArea": null, "selfRoom": null, "businessTime": null, "stall": null, "consume": null, "serviceFei": null, "favourable": null, "shopMemo": null, "appraise": null, "website": null, "memo": null, "payTypes": "\u6749\u5fb7\u5361", "shopTypes": "\u4fbf\u5229\u5e97", "consumeTypes": null, "cookTypes": null, "orderNum": 1000, "card4no": null, "card4noAcc": null, "district2": 404, "searchScope": null, "status": 1, "address": "\u4f59\u59da\u8def305\u53f7", "name": "\u5149\u660e\u4fbf\u5229 \u4f59\u59da\u5e97", "id": 134221, "pageNo": 0, "pageCount": null, "pageSize": 10, "ids": null, "endTime": null, "startTime": null}, {"cardNumFive": null, "isSupportYj": null, "cityName": null, "districtName": null, "shopinfo": {"mid": "888888854110131", "good_flag": null, "new_flag": null, "short_name": "\u5149\u660e\u4fbf\u5229", "short_name_pinyin": "guangmingbianli", "status": null, "address": null, "name": null, "id": "31651"}, "mid": "888888854110131", "shopId": "31651", "netid": null, "province": 901, "district": 601, "zipcode": null, "telephone": null, "posDate": "20100517", "destineTel": null, "togoTel": null, "trafficWay": null, "signBuilding": null, "businessArea": null, "selfRoom": null, "businessTime": null, "stall": null, "consume": null, "serviceFei": null, "favourable": null, "shopMemo": null, "appraise": null, "website": null, "memo": null, "payTypes": "\u6749\u5fb7\u5361", "shopTypes": "\u4fbf\u5229\u5e97", "consumeTypes": null, "cookTypes": null, "orderNum": 1000, "card4no": null, "card4noAcc": null, "district2": 416, "searchScope": null, "status": 1, "address": "\u5f20\u5e99\u8857\u9053\u901a\u6cb3\u8def660\u53f7", "name": "\u5149\u660e\u4fbf\u5229 \u5f20\u5e99\u8857\u9053\u5e97", "id": 134224, "pageNo": 0, "pageCount": null, "pageSize": 10, "ids": null, "endTime": null, "startTime": null}, {"cardNumFive": null, "isSupportYj": null, "cityName": null, "districtName": null, "shopinfo": {"mid": "888888854110131", "good_flag": null, "new_flag": null, "short_name": "\u5149\u660e\u4fbf\u5229", "short_name_pinyin": "guangmingbianli", "status": null, "address": null, "name": null, "id": "31651"}, "mid": "888888854110131", "shopId": "31651", "netid": null, "province": 901, "district": 601, "zipcode": null, "telephone": "59857332", "posDate": "20080829", "destineTel": null, "togoTel": null, "trafficWay": "\u516c\u4ea4\u5f90\u84b8\u4e13\u7ebf \u6caa\u9752\u4e13\u7ebf \u5f90\u84b8\u4e13\u7ebf\u533a\u95f4", "signBuilding": null, "businessArea": null, "selfRoom": null, "businessTime": null, "stall": null, "consume": null, "serviceFei": null, "favourable": null, "shopMemo": null, "appraise": null, "website": null, "memo": null, "payTypes": "\u6749\u5fb7\u5361", "shopTypes": "\u4fbf\u5229\u5e97", "consumeTypes": null, "cookTypes": null, "orderNum": 1000, "card4no": null, "card4noAcc": null, "district2": 417, "searchScope": null, "status": 1, "address": "\u7ae0\u6d5c\u8def42\u53f7", "name": "\u5149\u660e\u4fbf\u5229 \u7ae0\u6d5c\u5e97", "id": 134225, "pageNo": 0, "pageCount": null, "pageSize": 10, "ids": null, "endTime": null, "startTime": null}, {"cardNumFive": null, "isSupportYj": null, "cityName": null, "districtName": null, "shopinfo": {"mid": "888888854110131", "good_flag": null, "new_flag": null, "short_name": "\u5149\u660e\u4fbf\u5229", "short_name_pinyin": "guangmingbianli", "status": null, "address": null, "name": null, "id": "31651"}, "mid": "888888854110131", "shopId": "31651", "netid": null, "province": 901, "district": 601, "zipcode": null, "telephone": "53066026", "posDate": "20080829", "destineTel": null, "togoTel": null, "trafficWay": "\u516c\u4ea418 109 \u5730\u94c1\u516b\u53f7\u7ebf", "signBuilding": null, "businessArea": null, "selfRoom": null, "businessTime": null, "stall": null, "consume": null, "serviceFei": null, "favourable": null, "shopMemo": null, "appraise": null, "website": null, "memo": null, "payTypes": "\u6749\u5fb7\u5361", "shopTypes": "\u4fbf\u5229\u5e97", "consumeTypes": null, "cookTypes": null, "orderNum": 1000, "card4no": null, "card4noAcc": null, "district2": 401, "searchScope": null, "status": 1, "address": "\u8087\u5468\u8def173\u53f7", "name": "\u5149\u660e\u4fbf\u5229 \u8087\u5468\u5e97", "id": 134226, "pageNo": 0, "pageCount": null, "pageSize": 10, "ids": null, "endTime": null, "startTime": null}, {"cardNumFive": null, "isSupportYj": null, "cityName": null, "districtName": null, "shopinfo": {"mid": "888888854110131", "good_flag": null, "new_flag": null, "short_name": "\u5149\u660e\u4fbf\u5229", "short_name_pinyin": "guangmingbianli", "status": null, "address": null, "name": null, "id": "31651"}, "mid": "888888854110131", "shopId": "31651", "netid": null, "province": 901, "district": 601, "zipcode": null, "telephone": "56635737", "posDate": "20080829", "destineTel": null, "togoTel": null, "trafficWay": "\u516c\u4ea4515 963", "signBuilding": null, "businessArea": null, "selfRoom": null, "businessTime": null, "stall": null, "consume": null, "serviceFei": null, "favourable": null, "shopMemo": null, "appraise": null, "website": null, "memo": null, "payTypes": "\u6749\u5fb7\u5361", "shopTypes": "\u4fbf\u5229\u5e97", "consumeTypes": null, "cookTypes": null, "orderNum": 1000, "card4no": null, "card4noAcc": null, "district2": 410, "searchScope": null, "status": 1, "address": "\u6b62\u56ed\u8def281\u53f7", "name": "\u5149\u660e\u4fbf\u5229 \u6b62\u56ed\u5e97", "id": 134230, "pageNo": 0, "pageCount": null, "pageSize": 10, "ids": null, "endTime": null, "startTime": null}, {"cardNumFive": null, "isSupportYj": null, "cityName": null, "districtName": null, "shopinfo": {"mid": "888888854110131", "good_flag": null, "new_flag": null, "short_name": "\u5149\u660e\u4fbf\u5229", "short_name_pinyin": "guangmingbianli", "status": null, "address": null, "name": null, "id": "31651"}, "mid": "888888854110131", "shopId": "31651", "netid": null, "province": 901, "district": 601, "zipcode": null, "telephone": "56975896", "posDate": "20080911", "destineTel": null, "togoTel": null, "trafficWay": "\u516c\u4ea4108 518 \u96a7\u9053\u516b\u7ebf", "signBuilding": null, "businessArea": null, "selfRoom": null, "businessTime": null, "stall": null, "consume": null, "serviceFei": null, "favourable": null, "shopMemo": null, "appraise": null, "website": null, "memo": null, "payTypes": "\u6749\u5fb7\u5361", "shopTypes": "\u4fbf\u5229\u5e97", "consumeTypes": null, "cookTypes": null, "orderNum": 1000, "card4no": null, "card4noAcc": null, "district2": 410, "searchScope": null, "status": 1, "address": "\u82b7\u6c5f\u4e2d\u8def541\u53f7", "name": "\u5149\u660e\u4fbf\u5229 \u82b7\u4e2d\u5e97", "id": 134232, "pageNo": 0, "pageCount": null, "pageSize": 10, "ids": null, "endTime": null, "startTime": null}, {"cardNumFive": null, "isSupportYj": null, "cityName": null, "districtName": null, "shopinfo": {"mid": "888888854110131", "good_flag": null, "new_flag": null, "short_name": "\u5149\u660e\u4fbf\u5229", "short_name_pinyin": "guangmingbianli", "status": null, "address": null, "name": null, "id": "31651"}, "mid": "888888854110131", "shopId": "31651", "netid": null, "province": 901, "district": 601, "zipcode": null, "telephone": "65241954", "posDate": "20080822", "destineTel": null, "togoTel": null, "trafficWay": "\u516c\u4ea4942 61", "signBuilding": null, "businessArea": null, "selfRoom": null, "businessTime": null, "stall": null, "consume": null, "serviceFei": null, "favourable": null, "shopMemo": null, "appraise": null, "website": null, "memo": null, "payTypes": "\u6749\u5fb7\u5361", "shopTypes": "\u4fbf\u5229\u5e97", "consumeTypes": null, "cookTypes": null, "orderNum": 1000, "card4no": null, "card4noAcc": null, "district2": 407, "searchScope": null, "status": 1, "address": "\u5f00\u9c81\u8def511\u53f7", "name": "\u5149\u660e\u4fbf\u5229 \u4e2d\u539f\u5e97", "id": 134235, "pageNo": 0, "pageCount": null, "pageSize": 10, "ids": null, "endTime": null, "startTime": null}, {"cardNumFive": null, "isSupportYj": null, "cityName": null, "districtName": null, "shopinfo": {"mid": "888888854110131", "good_flag": null, "new_flag": null, "short_name": "\u5149\u660e\u4fbf\u5229", "short_name_pinyin": "guangmingbianli", "status": null, "address": null, "name": null, "id": "31651"}, "mid": "888888854110131", "shopId": "31651", "netid": null, "province": 901, "district": 601, "zipcode": null, "telephone": "65416716", "posDate": "20080913", "destineTel": null, "togoTel": null, "trafficWay": "\u516c\u4ea437 47 921", "signBuilding": null, "businessArea": null, "selfRoom": null, "businessTime": null, "stall": null, "consume": null, "serviceFei": null, "favourable": null, "shopMemo": null, "appraise": null, "website": null, "memo": null, "payTypes": "\u6749\u5fb7\u5361", "shopTypes": "\u4fbf\u5229\u5e97", "consumeTypes": null, "cookTypes": null, "orderNum": 1000, "card4no": null, "card4noAcc": null, "district2": 408, "searchScope": null, "status": 1, "address": "\u957f\u9633\u8def73\u53f7", "name": "\u5149\u660e\u4fbf\u5229 \u821f\u5c71\u5e97", "id": 134236, "pageNo": 0, "pageCount": null, "pageSize": 10, "ids": null, "endTime": null, "startTime": null}, {"cardNumFive": null, "isSupportYj": null, "cityName": null, "districtName": null, "shopinfo": {"mid": "888888854110131", "good_flag": null, "new_flag": null, "short_name": "\u5149\u660e\u4fbf\u5229", "short_name_pinyin": "guangmingbianli", "status": null, "address": null, "name": null, "id": "31651"}, "mid": "888888854110131", "shopId": "31651", "netid": null, "province": 901, "district": 601, "zipcode": null, "telephone": "66528181", "posDate": "20080913", "destineTel": null, "togoTel": null, "trafficWay": "\u516c\u4ea448 108 \u5730\u94c1\u4e00\u53f7\u7ebf", "signBuilding": null, "businessArea": null, "selfRoom": null, "businessTime": null, "stall": null, "consume": null, "serviceFei": null, "favourable": null, "shopMemo": null, "appraise": null, "website": null, "memo": null, "payTypes": "\u6749\u5fb7\u5361", "shopTypes": "\u4fbf\u5229\u5e97", "consumeTypes": null, "cookTypes": null, "orderNum": 1000, "card4no": null, "card4noAcc": null, "district2": 408, "searchScope": null, "status": 1, "address": "\u682a\u6d32\u8def252-256\u53f7", "name": "\u5149\u660e\u4fbf\u5229 \u682a\u6d32\u5e97", "id": 134237, "pageNo": 0, "pageCount": null, "pageSize": 10, "ids": null, "endTime": null, "startTime": null}], "pageLimit": 1630, "size": 10}