{"pageCount": 1095, "count": 10942, "pageNo": 160, "subShopInfo": {"cardNumFive": "", "isSupportYj": "", "cityName": null, "districtName": null, "shopinfo": {"mid": null, "good_flag": null, "new_flag": null, "short_name": null, "short_name_pinyin": null, "status": null, "address": "", "name": "", "id": null}, "mid": null, "shopId": null, "netid": null, "province": 901, "district": null, "zipcode": null, "telephone": null, "posDate": null, "destineTel": null, "togoTel": null, "trafficWay": null, "signBuilding": null, "businessArea": null, "selfRoom": null, "businessTime": null, "stall": null, "consume": null, "serviceFei": null, "favourable": null, "shopMemo": "1", "appraise": null, "website": null, "memo": null, "payTypes": "", "shopTypes": "", "consumeTypes": null, "cookTypes": null, "orderNum": null, "card4no": null, "card4noAcc": null, "district2": null, "searchScope": null, "status": null, "address": "", "name": null, "id": null, "pageNo": 159, "pageCount": null, "pageSize": 10, "ids": null, "endTime": null, "startTime": null}, "list": [{"cardNumFive": null, "isSupportYj": null, "cityName": null, "districtName": null, "shopinfo": {"mid": "888888854110131", "good_flag": null, "new_flag": null, "short_name": "\u5149\u660e\u4fbf\u5229", "short_name_pinyin": "guangmingbianli", "status": null, "address": null, "name": null, "id": "31651"}, "mid": "888888854110131", "shopId": "31651", "netid": null, "province": 901, "district": 601, "zipcode": null, "telephone": "65010608", "posDate": "20080913", "destineTel": null, "togoTel": null, "trafficWay": "\u516c\u4ea4123 \u5730\u94c1\u516b\u53f7\u7ebf", "signBuilding": null, "businessArea": null, "selfRoom": null, "businessTime": null, "stall": null, "consume": null, "serviceFei": null, "favourable": null, "shopMemo": null, "appraise": null, "website": null, "memo": null, "payTypes": "\u6749\u5fb7\u5361", "shopTypes": "\u4fbf\u5229\u5e97", "consumeTypes": null, "cookTypes": null, "orderNum": 1000, "card4no": null, "card4noAcc": null, "district2": 408, "searchScope": null, "status": 1, "address": "\u5929\u5b9d\u8def576\u53f7", "name": "\u5149\u660e\u4fbf\u5229 \u98d8\u9e70\u5e97", "id": 134166, "pageNo": 0, "pageCount": null, "pageSize": 10, "ids": null, "endTime": null, "startTime": null}, {"cardNumFive": null, "isSupportYj": null, "cityName": null, "districtName": null, "shopinfo": {"mid": "888888854110131", "good_flag": null, "new_flag": null, "short_name": "\u5149\u660e\u4fbf\u5229", "short_name_pinyin": "guangmingbianli", "status": null, "address": null, "name": null, "id": "31651"}, "mid": "888888854110131", "shopId": "31651", "netid": null, "province": 901, "district": 601, "zipcode": null, "telephone": "65672814", "posDate": "20080826", "destineTel": null, "togoTel": null, "trafficWay": "\u516c\u4ea460 145 135", "signBuilding": null, "businessArea": null, "selfRoom": null, "businessTime": null, "stall": null, "consume": null, "serviceFei": null, "favourable": null, "shopMemo": null, "appraise": null, "website": null, "memo": null, "payTypes": "\u6749\u5fb7\u5361", "shopTypes": "\u4fbf\u5229\u5e97", "consumeTypes": null, "cookTypes": null, "orderNum": 1000, "card4no": null, "card4noAcc": null, "district2": 407, "searchScope": null, "status": 1, "address": "\u5e73\u51c9\u8def2663\u53f7", "name": "\u5149\u660e\u4fbf\u5229 \u5e73\u51c9\u5e97", "id": 134167, "pageNo": 0, "pageCount": null, "pageSize": 10, "ids": null, "endTime": null, "startTime": null}, {"cardNumFive": null, "isSupportYj": null, "cityName": null, "districtName": null, "shopinfo": {"mid": "888888854110131", "good_flag": null, "new_flag": null, "short_name": "\u5149\u660e\u4fbf\u5229", "short_name_pinyin": "guangmingbianli", "status": null, "address": null, "name": null, "id": "31651"}, "mid": "888888854110131", "shopId": "31651", "netid": null, "province": 901, "district": 601, "zipcode": null, "telephone": "65806891", "posDate": "20080911", "destineTel": null, "togoTel": null, "trafficWay": "\u516c\u4ea4135 135\u533a\u95f4 934", "signBuilding": null, "businessArea": null, "selfRoom": null, "businessTime": null, "stall": null, "consume": null, "serviceFei": null, "favourable": null, "shopMemo": null, "appraise": null, "website": null, "memo": null, "payTypes": "\u6749\u5fb7\u5361", "shopTypes": "\u4fbf\u5229\u5e97", "consumeTypes": null, "cookTypes": null, "orderNum": 1000, "card4no": null, "card4noAcc": null, "district2": 407, "searchScope": null, "status": 1, "address": "\u5e73\u51c9\u8def2557\u53f7", "name": "\u5149\u660e\u4fbf\u5229 \u5e73\u51c9\u8def\u5e97", "id": 134168, "pageNo": 0, "pageCount": null, "pageSize": 10, "ids": null, "endTime": null, "startTime": null}, {"cardNumFive": null, "isSupportYj": null, "cityName": null, "districtName": null, "shopinfo": {"mid": "888888854110131", "good_flag": null, "new_flag": null, "short_name": "\u5149\u660e\u4fbf\u5229", "short_name_pinyin": "guangmingbianli", "status": null, "address": null, "name": null, "id": "31651"}, "mid": "888888854110131", "shopId": "31651", "netid": null, "province": 901, "district": 601, "zipcode": null, "telephone": "52172861", "posDate": "20080913", "destineTel": null, "togoTel": null, "trafficWay": "\u516c\u4ea4\u5730\u94c1\u4e8c\u53f7\u7ebf", "signBuilding": null, "businessArea": null, "selfRoom": null, "businessTime": null, "stall": null, "consume": null, "serviceFei": null, "favourable": null, "shopMemo": null, "appraise": null, "website": null, "memo": null, "payTypes": "\u6749\u5fb7\u5361", "shopTypes": "\u4fbf\u5229\u5e97", "consumeTypes": null, "cookTypes": null, "orderNum": 1000, "card4no": null, "card4noAcc": null, "district2": 406, "searchScope": null, "status": 1, "address": "\u84b2\u677e\u5317\u8def23\u53f7", "name": "\u5149\u660e\u4fbf\u5229 \u84b2\u677e\u4e8c\u5e97", "id": 134169, "pageNo": 0, "pageCount": null, "pageSize": 10, "ids": null, "endTime": null, "startTime": null}, {"cardNumFive": null, "isSupportYj": null, "cityName": null, "districtName": null, "shopinfo": {"mid": "888888854110131", "good_flag": null, "new_flag": null, "short_name": "\u5149\u660e\u4fbf\u5229", "short_name_pinyin": "guangmingbianli", "status": null, "address": null, "name": null, "id": "31651"}, "mid": "888888854110131", "shopId": "31651", "netid": null, "province": 901, "district": 601, "zipcode": null, "telephone": "52172761", "posDate": "20080913", "destineTel": null, "togoTel": null, "trafficWay": "\u516c\u4ea4\u5730\u94c1\u4e8c\u53f7\u7ebf", "signBuilding": null, "businessArea": null, "selfRoom": null, "businessTime": null, "stall": null, "consume": null, "serviceFei": null, "favourable": null, "shopMemo": null, "appraise": null, "website": null, "memo": null, "payTypes": "\u6749\u5fb7\u5361", "shopTypes": "\u4fbf\u5229\u5e97", "consumeTypes": null, "cookTypes": null, "orderNum": 1000, "card4no": null, "card4noAcc": null, "district2": 406, "searchScope": null, "status": 1, "address": "\u84b2\u677e\u5317\u8def9\u53f71-2", "name": "\u5149\u660e\u4fbf\u5229 \u84b2\u677e\u4e00\u5e97", "id": 134170, "pageNo": 0, "pageCount": null, "pageSize": 10, "ids": null, "endTime": null, "startTime": null}, {"cardNumFive": null, "isSupportYj": null, "cityName": null, "districtName": null, "shopinfo": {"mid": "888888854110131", "good_flag": null, "new_flag": null, "short_name": "\u5149\u660e\u4fbf\u5229", "short_name_pinyin": "guangmingbianli", "status": null, "address": null, "name": null, "id": "31651"}, "mid": "888888854110131", "shopId": "31651", "netid": null, "province": 901, "district": 601, "zipcode": null, "telephone": "50865037", "posDate": "20080829", "destineTel": null, "togoTel": null, "trafficWay": "\u516c\u4ea4780 782 980", "signBuilding": null, "businessArea": null, "selfRoom": null, "businessTime": null, "stall": null, "consume": null, "serviceFei": null, "favourable": null, "shopMemo": null, "appraise": null, "website": null, "memo": null, "payTypes": "\u6749\u5fb7\u5361", "shopTypes": "\u4fbf\u5229\u5e97", "consumeTypes": null, "cookTypes": null, "orderNum": 1000, "card4no": null, "card4noAcc": null, "district2": 418, "searchScope": null, "status": 1, "address": "\u6d66\u4e09\u8def653\u53f7", "name": "\u5149\u660e\u4fbf\u5229 \u6d66\u4e09\u5e97", "id": 134171, "pageNo": 0, "pageCount": null, "pageSize": 10, "ids": null, "endTime": null, "startTime": null}, {"cardNumFive": null, "isSupportYj": null, "cityName": null, "districtName": null, "shopinfo": {"mid": "888888854110131", "good_flag": null, "new_flag": null, "short_name": "\u5149\u660e\u4fbf\u5229", "short_name_pinyin": "guangmingbianli", "status": null, "address": null, "name": null, "id": "31651"}, "mid": "888888854110131", "shopId": "31651", "netid": null, "province": 901, "district": 601, "zipcode": null, "telephone": "56655772", "posDate": "20080911", "destineTel": null, "togoTel": null, "trafficWay": "\u516c\u4ea446 518 \u5730\u94c1\u4e00\u53f7\u7ebf", "signBuilding": null, "businessArea": null, "selfRoom": null, "businessTime": null, "stall": null, "consume": null, "serviceFei": null, "favourable": null, "shopMemo": null, "appraise": null, "website": null, "memo": null, "payTypes": "\u6749\u5fb7\u5361", "shopTypes": "\u4fbf\u5229\u5e97", "consumeTypes": null, "cookTypes": null, "orderNum": 1000, "card4no": null, "card4noAcc": null, "district2": 410, "searchScope": null, "status": 1, "address": "\u666e\u5584\u8def580\u53f7", "name": "\u5149\u660e\u4fbf\u5229 \u666e\u5584\u4e8c\u5e97", "id": 134172, "pageNo": 0, "pageCount": null, "pageSize": 10, "ids": null, "endTime": null, "startTime": null}, {"cardNumFive": null, "isSupportYj": null, "cityName": null, "districtName": null, "shopinfo": {"mid": "888888854110131", "good_flag": null, "new_flag": null, "short_name": "\u5149\u660e\u4fbf\u5229", "short_name_pinyin": "guangmingbianli", "status": null, "address": null, "name": null, "id": "31651"}, "mid": "888888854110131", "shopId": "31651", "netid": null, "province": 901, "district": 601, "zipcode": null, "telephone": "64459917", "posDate": "20080822", "destineTel": null, "togoTel": null, "trafficWay": "\u516c\u4ea443 \u5730\u94c1\u4e00\u53f7\u7ebf", "signBuilding": null, "businessArea": null, "selfRoom": null, "businessTime": null, "stall": null, "consume": null, "serviceFei": null, "favourable": null, "shopMemo": null, "appraise": null, "website": null, "memo": null, "payTypes": "\u6749\u5fb7\u5361", "shopTypes": "\u4fbf\u5229\u5e97", "consumeTypes": null, "cookTypes": null, "orderNum": 1000, "card4no": null, "card4noAcc": null, "district2": 403, "searchScope": null, "status": 1, "address": "\u8087\u5bb6\u6d5c\u8def376\u53f7", "name": "\u5149\u660e\u4fbf\u5229 \u8f7b\u5de5\u5e97", "id": 134174, "pageNo": 0, "pageCount": null, "pageSize": 10, "ids": null, "endTime": null, "startTime": null}, {"cardNumFive": null, "isSupportYj": null, "cityName": null, "districtName": null, "shopinfo": {"mid": "888888854110131", "good_flag": null, "new_flag": null, "short_name": "\u5149\u660e\u4fbf\u5229", "short_name_pinyin": "guangmingbianli", "status": null, "address": null, "name": null, "id": "31651"}, "mid": "888888854110131", "shopId": "31651", "netid": null, "province": 901, "district": 601, "zipcode": null, "telephone": "64163126", "posDate": "20080827", "destineTel": null, "togoTel": null, "trafficWay": "\u516c\u4ea443 104 985", "signBuilding": null, "businessArea": null, "selfRoom": null, "businessTime": null, "stall": null, "consume": null, "serviceFei": null, "favourable": null, "shopMemo": null, "appraise": null, "website": null, "memo": null, "payTypes": "\u6749\u5fb7\u5361", "shopTypes": "\u4fbf\u5229\u5e97", "consumeTypes": null, "cookTypes": null, "orderNum": 1000, "card4no": null, "card4noAcc": null, "district2": 403, "searchScope": null, "status": 1, "address": "\u6e05\u771f\u8def60\u53f7", "name": "\u5149\u660e\u4fbf\u5229 \u6e05\u771f\u5e97", "id": 134175, "pageNo": 0, "pageCount": null, "pageSize": 10, "ids": null, "endTime": null, "startTime": null}, {"cardNumFive": null, "isSupportYj": null, "cityName": null, "districtName": null, "shopinfo": {"mid": "888888854110131", "good_flag": null, "new_flag": null, "short_name": "\u5149\u660e\u4fbf\u5229", "short_name_pinyin": "guangmingbianli", "status": null, "address": null, "name": null, "id": "31651"}, "mid": "888888854110131", "shopId": "31651", "netid": null, "province": 901, "district": 601, "zipcode": null, "telephone": "66690542", "posDate": "20080901", "destineTel": null, "togoTel": null, "trafficWay": "\u516c\u4ea446 916 \u5730\u94c1\u4e00\u53f7\u7ebf", "signBuilding": null, "businessArea": null, "selfRoom": null, "businessTime": null, "stall": null, "consume": null, "serviceFei": null, "favourable": null, "shopMemo": null, "appraise": null, "website": null, "memo": null, "payTypes": "\u6749\u5fb7\u5361", "shopTypes": "\u4fbf\u5229\u5e97", "consumeTypes": null, "cookTypes": null, "orderNum": 1000, "card4no": null, "card4noAcc": null, "district2": 410, "searchScope": null, "status": 1, "address": "\u66f2\u6c83\u8def354\u53f7", "name": "\u5149\u660e\u4fbf\u5229 \u66f2\u6c83\u5e97", "id": 134176, "pageNo": 0, "pageCount": null, "pageSize": 10, "ids": null, "endTime": null, "startTime": null}], "pageLimit": 1590, "size": 10}