{"pageCount": 1095, "count": 10942, "pageNo": 173, "subShopInfo": {"cardNumFive": "", "isSupportYj": "", "cityName": null, "districtName": null, "shopinfo": {"mid": null, "good_flag": null, "new_flag": null, "short_name": null, "short_name_pinyin": null, "status": null, "address": "", "name": "", "id": null}, "mid": null, "shopId": null, "netid": null, "province": 901, "district": null, "zipcode": null, "telephone": null, "posDate": null, "destineTel": null, "togoTel": null, "trafficWay": null, "signBuilding": null, "businessArea": null, "selfRoom": null, "businessTime": null, "stall": null, "consume": null, "serviceFei": null, "favourable": null, "shopMemo": "1", "appraise": null, "website": null, "memo": null, "payTypes": "", "shopTypes": "", "consumeTypes": null, "cookTypes": null, "orderNum": null, "card4no": null, "card4noAcc": null, "district2": null, "searchScope": null, "status": null, "address": "", "name": null, "id": null, "pageNo": 172, "pageCount": null, "pageSize": 10, "ids": null, "endTime": null, "startTime": null}, "list": [{"cardNumFive": null, "isSupportYj": null, "cityName": null, "districtName": null, "shopinfo": {"mid": "888888854410134", "good_flag": "2", "new_flag": "1", "short_name": "\u5149\u660e\u65b0\u9c9c\u5c4b", "short_name_pinyin": "guangmingxinxianwu", "status": null, "address": null, "name": null, "id": "31652"}, "mid": "888888854410134", "shopId": "31652", "netid": null, "province": 901, "district": 601, "zipcode": null, "telephone": "56698888*4143", "posDate": null, "destineTel": null, "togoTel": null, "trafficWay": null, "signBuilding": null, "businessArea": null, "selfRoom": null, "businessTime": null, "stall": null, "consume": null, "serviceFei": null, "favourable": null, "shopMemo": null, "appraise": null, "website": null, "memo": null, "payTypes": "\u6749\u5fb7\u5361", "shopTypes": "\u4fbf\u5229\u5e97", "consumeTypes": null, "cookTypes": null, "orderNum": 1000, "card4no": null, "card4noAcc": null, "district2": 416, "searchScope": null, "status": 1, "address": "\u7261\u4e39\u6c5f\u8def1813\u53f7", "name": "\u5149\u660e\u65b0\u9c9c\u5c4b \u5b9d\u5c71\u5bbe\u9986\u5e97", "id": 183285, "pageNo": 0, "pageCount": null, "pageSize": 10, "ids": null, "endTime": null, "startTime": null}, {"cardNumFive": null, "isSupportYj": null, "cityName": null, "districtName": null, "shopinfo": {"mid": "888888856910342", "good_flag": "1", "new_flag": "1", "short_name": "\u5e7f\u5dde\u9f0e\u5c1a\uff08\u6b27\u65f6\u529b\uff09", "short_name_pinyin": "guangzhoudingshang\uff08oushili\uff09", "status": null, "address": null, "name": null, "id": "31657"}, "mid": "888888856910342", "shopId": "31657", "netid": null, "province": 901, "district": 601, "zipcode": null, "telephone": null, "posDate": "20091228", "destineTel": null, "togoTel": null, "trafficWay": null, "signBuilding": null, "businessArea": null, "selfRoom": null, "businessTime": null, "stall": null, "consume": null, "serviceFei": null, "favourable": null, "shopMemo": null, "appraise": null, "website": null, "memo": null, "payTypes": "\u6749\u5fb7\u5361", "shopTypes": "\u670d\u9970\u5bb6\u7eba", "consumeTypes": null, "cookTypes": null, "orderNum": 1000, "card4no": null, "card4noAcc": null, "district2": 418, "searchScope": null, "status": 1, "address": "\u82b3\u7538\u8def300\u53f7A\u533a", "name": "\u5e7f\u5dde\u9f0e\u5c1a\uff08\u6b27\u65f6\u529b\uff09 \u8054\u6d0b\u5e97", "id": 134732, "pageNo": 0, "pageCount": null, "pageSize": 10, "ids": null, "endTime": null, "startTime": null}, {"cardNumFive": null, "isSupportYj": null, "cityName": null, "districtName": null, "shopinfo": {"mid": "888888856910341", "good_flag": "1", "new_flag": "1", "short_name": "\u5e7f\u5dde\u9f0e\u5c1a\uff08\u6b27\u65f6\u529b\uff09", "short_name_pinyin": "guangzhoudingshang\uff08oushili\uff09", "status": null, "address": null, "name": null, "id": "31662"}, "mid": "888888856910341", "shopId": "31662", "netid": null, "province": 901, "district": 601, "zipcode": null, "telephone": null, "posDate": "20091228", "destineTel": null, "togoTel": null, "trafficWay": null, "signBuilding": null, "businessArea": null, "selfRoom": null, "businessTime": null, "stall": null, "consume": null, "serviceFei": null, "favourable": null, "shopMemo": null, "appraise": null, "website": null, "memo": null, "payTypes": "\u6749\u5fb7\u5361", "shopTypes": "\u670d\u9970\u5bb6\u7eba", "consumeTypes": null, "cookTypes": null, "orderNum": 1000, "card4no": null, "card4noAcc": null, "district2": 410, "searchScope": null, "status": 1, "address": "\u5171\u548c\u65b0\u8def1918\u53f71\u5c42104A\u3001105A\u3001106A", "name": "\u5e7f\u5dde\u9f0e\u5c1a\uff08\u6b27\u65f6\u529b\uff09 \u95f8\u5317\u5927\u5b81\u5e97", "id": 134737, "pageNo": 0, "pageCount": null, "pageSize": 10, "ids": null, "endTime": null, "startTime": null}, {"cardNumFive": null, "isSupportYj": null, "cityName": null, "districtName": null, "shopinfo": {"mid": "888888856910347", "good_flag": "1", "new_flag": "1", "short_name": "\u5e7f\u5dde\u9f0e\u5c1a\uff08\u6b27\u65f6\u529b\uff09", "short_name_pinyin": "guangzhoudingshang\uff08oushili\uff09", "status": null, "address": null, "name": null, "id": "31663"}, "mid": "888888856910347", "shopId": "31663", "netid": null, "province": 901, "district": 601, "zipcode": null, "telephone": null, "posDate": "20091228", "destineTel": null, "togoTel": null, "trafficWay": null, "signBuilding": null, "businessArea": null, "selfRoom": null, "businessTime": null, "stall": null, "consume": null, "serviceFei": null, "favourable": null, "shopMemo": null, "appraise": null, "website": null, "memo": null, "payTypes": "\u6749\u5fb7\u5361", "shopTypes": "\u670d\u9970\u5bb6\u7eba", "consumeTypes": null, "cookTypes": null, "orderNum": 1000, "card4no": null, "card4noAcc": null, "district2": 418, "searchScope": null, "status": 1, "address": "\u9646\u5bb6\u5634\u897f\u8def168\u53f72F12-14", "name": "\u5e7f\u5dde\u9f0e\u5c1a\uff08\u6b27\u65f6\u529b\uff09 \u6b63\u5927\u5e7f\u573a", "id": 134738, "pageNo": 0, "pageCount": null, "pageSize": 10, "ids": null, "endTime": null, "startTime": null}, {"cardNumFive": null, "isSupportYj": null, "cityName": null, "districtName": null, "shopinfo": {"mid": "888888859460001", "good_flag": "2", "new_flag": "2", "short_name": "\u51a0\u9f99\u7167\u76f8", "short_name_pinyin": "guanlongzhaoxiang", "status": null, "address": null, "name": null, "id": "31646"}, "mid": "888888859460001", "shopId": "31646", "netid": null, "province": 901, "district": 601, "zipcode": null, "telephone": null, "posDate": "20070720", "destineTel": null, "togoTel": null, "trafficWay": "\u5730\u94c1\u4e00\u53f7\u7ebf", "signBuilding": null, "businessArea": null, "selfRoom": null, "businessTime": null, "stall": "\u65e0", "consume": null, "serviceFei": null, "favourable": null, "shopMemo": null, "appraise": null, "website": null, "memo": null, "payTypes": "\u6749\u5fb7\u5361", "shopTypes": "\u5176\u4ed6", "consumeTypes": null, "cookTypes": null, "orderNum": 1000, "card4no": null, "card4noAcc": null, "district2": 401, "searchScope": null, "status": 1, "address": "\u6dee\u6d77\u4e2d\u8def988\u53f7", "name": "\u51a0\u9f99\u7167\u76f8 \u6dee\u6d77\u5e97", "id": 134043, "pageNo": 0, "pageCount": null, "pageSize": 10, "ids": null, "endTime": null, "startTime": null}, {"cardNumFive": null, "isSupportYj": null, "cityName": null, "districtName": null, "shopinfo": {"mid": "888888859460001", "good_flag": "2", "new_flag": "2", "short_name": "\u51a0\u9f99\u7167\u76f8", "short_name_pinyin": "guanlongzhaoxiang", "status": null, "address": null, "name": null, "id": "31646"}, "mid": "888888859460001", "shopId": "31646", "netid": null, "province": 901, "district": 601, "zipcode": null, "telephone": null, "posDate": "20070720", "destineTel": null, "togoTel": null, "trafficWay": "\u516c\u4ea449 20 \u5730\u94c1\u4e8c\u53f7\u7ebf", "signBuilding": null, "businessArea": null, "selfRoom": null, "businessTime": null, "stall": "\u65e0", "consume": null, "serviceFei": null, "favourable": null, "shopMemo": null, "appraise": null, "website": null, "memo": null, "payTypes": "\u6749\u5fb7\u5361", "shopTypes": "\u5176\u4ed6", "consumeTypes": null, "cookTypes": null, "orderNum": 1000, "card4no": null, "card4noAcc": null, "district2": 401, "searchScope": null, "status": 1, "address": "\u5357\u4eac\u4e1c\u8def340-372\u53f7\u4e00\u697c", "name": "\u51a0\u9f99\u7167\u76f8 \u5357\u4eac\u4e1c\u8def\u603b\u5e97", "id": 134045, "pageNo": 0, "pageCount": null, "pageSize": 10, "ids": null, "endTime": null, "startTime": null}, {"cardNumFive": null, "isSupportYj": null, "cityName": null, "districtName": null, "shopinfo": {"mid": "888888854410149", "good_flag": "2", "new_flag": "2", "short_name": "\u51a0\u751f\u56ed", "short_name_pinyin": "guanshengyuan", "status": null, "address": null, "name": null, "id": "31647"}, "mid": "888888854410149", "shopId": "31647", "netid": null, "province": 901, "district": 601, "zipcode": null, "telephone": null, "posDate": "200908", "destineTel": null, "togoTel": null, "trafficWay": "\u516c\u4ea4169\u3001220", "signBuilding": null, "businessArea": null, "selfRoom": null, "businessTime": null, "stall": null, "consume": null, "serviceFei": null, "favourable": null, "shopMemo": null, "appraise": null, "website": null, "memo": null, "payTypes": "\u6749\u5fb7\u5361", "shopTypes": "\u96f6\u552e", "consumeTypes": null, "cookTypes": null, "orderNum": 1000, "card4no": null, "card4noAcc": null, "district2": 407, "searchScope": null, "status": 1, "address": "\u63a7\u6c5f\u8def435\u53f7", "name": "\u51a0\u751f\u56ed \u63a7\u6c5f\u5e97", "id": 134049, "pageNo": 0, "pageCount": null, "pageSize": 10, "ids": null, "endTime": null, "startTime": null}, {"cardNumFive": null, "isSupportYj": null, "cityName": null, "districtName": null, "shopinfo": {"mid": "888888854410149", "good_flag": "2", "new_flag": "2", "short_name": "\u51a0\u751f\u56ed", "short_name_pinyin": "guanshengyuan", "status": null, "address": null, "name": null, "id": "31647"}, "mid": "888888854410149", "shopId": "31647", "netid": null, "province": 901, "district": 601, "zipcode": null, "telephone": null, "posDate": "200908", "destineTel": null, "togoTel": null, "trafficWay": "\u516c\u4ea4551\u3001948", "signBuilding": null, "businessArea": null, "selfRoom": null, "businessTime": null, "stall": null, "consume": null, "serviceFei": null, "favourable": null, "shopMemo": null, "appraise": null, "website": null, "memo": null, "payTypes": "\u6749\u5fb7\u5361", "shopTypes": "\u96f6\u552e", "consumeTypes": null, "cookTypes": null, "orderNum": 1000, "card4no": null, "card4noAcc": null, "district2": 405, "searchScope": null, "status": 1, "address": "\u6885\u5ddd\u8def293\u53f7", "name": "\u51a0\u751f\u56ed \u6885\u5ddd\u5e97", "id": 134051, "pageNo": 0, "pageCount": null, "pageSize": 10, "ids": null, "endTime": null, "startTime": null}, {"cardNumFive": null, "isSupportYj": null, "cityName": null, "districtName": null, "shopinfo": {"mid": "888888854410149", "good_flag": "2", "new_flag": "2", "short_name": "\u51a0\u751f\u56ed", "short_name_pinyin": "guanshengyuan", "status": null, "address": null, "name": null, "id": "31647"}, "mid": "888888854410149", "shopId": "31647", "netid": null, "province": 901, "district": 601, "zipcode": null, "telephone": null, "posDate": "200908", "destineTel": null, "togoTel": null, "trafficWay": "\u516c\u4ea4837\u3001948", "signBuilding": null, "businessArea": null, "selfRoom": null, "businessTime": null, "stall": null, "consume": null, "serviceFei": null, "favourable": null, "shopMemo": null, "appraise": null, "website": null, "memo": null, "payTypes": "\u6749\u5fb7\u5361", "shopTypes": "\u96f6\u552e", "consumeTypes": null, "cookTypes": null, "orderNum": 1000, "card4no": null, "card4noAcc": null, "district2": 405, "searchScope": null, "status": 1, "address": "\u5ef6\u5ddd\u8def9\u53f7", "name": "\u51a0\u751f\u56ed \u5ef6\u5ddd\u5e97", "id": 134052, "pageNo": 0, "pageCount": null, "pageSize": 10, "ids": null, "endTime": null, "startTime": null}, {"cardNumFive": null, "isSupportYj": null, "cityName": null, "districtName": null, "shopinfo": {"mid": "888888854410149", "good_flag": "2", "new_flag": "2", "short_name": "\u51a0\u751f\u56ed", "short_name_pinyin": "guanshengyuan", "status": null, "address": null, "name": null, "id": "31647"}, "mid": "888888854410149", "shopId": "31647", "netid": null, "province": 901, "district": 601, "zipcode": null, "telephone": null, "posDate": "200908", "destineTel": null, "togoTel": null, "trafficWay": "\u516c\u4ea433\u3001135", "signBuilding": null, "businessArea": null, "selfRoom": null, "businessTime": null, "stall": null, "consume": null, "serviceFei": null, "favourable": null, "shopMemo": null, "appraise": null, "website": null, "memo": null, "payTypes": "\u6749\u5fb7\u5361", "shopTypes": "\u96f6\u552e", "consumeTypes": null, "cookTypes": null, "orderNum": 1000, "card4no": null, "card4noAcc": null, "district2": 407, "searchScope": null, "status": 1, "address": "\u5468\u5bb6\u5634\u8def4295\u53f7", "name": "\u51a0\u751f\u56ed \u5468\u5bb6\u5634\u5e97", "id": 134053, "pageNo": 0, "pageCount": null, "pageSize": 10, "ids": null, "endTime": null, "startTime": null}], "pageLimit": 1720, "size": 10}