{"pageCount": 1095, "count": 10942, "pageNo": 177, "subShopInfo": {"cardNumFive": "", "isSupportYj": "", "cityName": null, "districtName": null, "shopinfo": {"mid": null, "good_flag": null, "new_flag": null, "short_name": null, "short_name_pinyin": null, "status": null, "address": "", "name": "", "id": null}, "mid": null, "shopId": null, "netid": null, "province": 901, "district": null, "zipcode": null, "telephone": null, "posDate": null, "destineTel": null, "togoTel": null, "trafficWay": null, "signBuilding": null, "businessArea": null, "selfRoom": null, "businessTime": null, "stall": null, "consume": null, "serviceFei": null, "favourable": null, "shopMemo": "1", "appraise": null, "website": null, "memo": null, "payTypes": "", "shopTypes": "", "consumeTypes": null, "cookTypes": null, "orderNum": null, "card4no": null, "card4noAcc": null, "district2": null, "searchScope": null, "status": null, "address": "", "name": null, "id": null, "pageNo": 176, "pageCount": null, "pageSize": 10, "ids": null, "endTime": null, "startTime": null}, "list": [{"cardNumFive": null, "isSupportYj": null, "cityName": null, "districtName": null, "shopinfo": {"mid": "888888859120002", "good_flag": "2", "new_flag": "2", "short_name": "\u56fd\u5927\u4e0a\u8679", "short_name_pinyin": "guodashanghong", "status": null, "address": null, "name": null, "id": "31672"}, "mid": "888888859120002", "shopId": "31672", "netid": null, "province": 901, "district": 601, "zipcode": "201100", "telephone": "64135233", "posDate": "20070314", "destineTel": "64135233", "togoTel": "64135233", "trafficWay": "\u4e1c\u576a\u7ebf 704B\u7ebf \u4e1c\u95f5\u7ebf", "signBuilding": null, "businessArea": "200~1000\u5e73\u7c73", "selfRoom": "\u65e0", "businessTime": "7:30~20:00", "stall": "\u65e0", "consume": null, "serviceFei": null, "favourable": null, "shopMemo": null, "appraise": null, "website": null, "memo": null, "payTypes": "\u6749\u5fb7\u5361", "shopTypes": "\u836f\u5e97", "consumeTypes": null, "cookTypes": null, "orderNum": 1000, "card4no": null, "card4noAcc": null, "district2": 409, "searchScope": null, "status": 1, "address": "\u8398\u5e84\u9547\u6c34\u6e05\u8def293\u53f7", "name": "\u56fd\u5927\u4e0a\u8679 \u6c34\u6e05\u5e97", "id": 134777, "pageNo": 0, "pageCount": null, "pageSize": 10, "ids": null, "endTime": null, "startTime": null}, {"cardNumFive": null, "isSupportYj": null, "cityName": null, "districtName": null, "shopinfo": {"mid": "888888859120002", "good_flag": "2", "new_flag": "2", "short_name": "\u56fd\u5927\u4e0a\u8679", "short_name_pinyin": "guodashanghong", "status": null, "address": null, "name": null, "id": "31672"}, "mid": "888888859120002", "shopId": "31672", "netid": null, "province": 901, "district": 601, "zipcode": null, "telephone": "64529170", "posDate": "20061128", "destineTel": null, "togoTel": null, "trafficWay": "\u516c\u4ea4729 \u7533\u95f5\u7ebf", "signBuilding": null, "businessArea": "200~1000\u5e73\u7c73", "selfRoom": "\u65e0", "businessTime": "7:30~20:00", "stall": null, "consume": null, "serviceFei": null, "favourable": null, "shopMemo": null, "appraise": null, "website": null, "memo": null, "payTypes": "\u6749\u5fb7\u5361", "shopTypes": "\u836f\u5e97", "consumeTypes": null, "cookTypes": null, "orderNum": 1000, "card4no": null, "card4noAcc": null, "district2": 409, "searchScope": null, "status": 1, "address": "\u5251\u5ddd\u8def140\u53f7", "name": "\u56fd\u5927\u4e0a\u8679 \u5434\u6cfe\u5e97", "id": 134783, "pageNo": 0, "pageCount": null, "pageSize": 10, "ids": null, "endTime": null, "startTime": null}, {"cardNumFive": null, "isSupportYj": null, "cityName": null, "districtName": null, "shopinfo": {"mid": "888888859120002", "good_flag": "2", "new_flag": "2", "short_name": "\u56fd\u5927\u4e0a\u8679", "short_name_pinyin": "guodashanghong", "status": null, "address": null, "name": null, "id": "31672"}, "mid": "888888859120002", "shopId": "31672", "netid": null, "province": 901, "district": 601, "zipcode": null, "telephone": "64986209", "posDate": "20090108", "destineTel": null, "togoTel": null, "trafficWay": "\u516c\u4ea4704b\u7ebf 756\u533a\u95f4", "signBuilding": null, "businessArea": null, "selfRoom": null, "businessTime": null, "stall": null, "consume": null, "serviceFei": null, "favourable": null, "shopMemo": null, "appraise": null, "website": null, "memo": null, "payTypes": "\u6749\u5fb7\u5361", "shopTypes": "\u836f\u5e97", "consumeTypes": null, "cookTypes": null, "orderNum": 1000, "card4no": null, "card4noAcc": null, "district2": 409, "searchScope": null, "status": 1, "address": "\u758f\u5f71\u8def1155\u53f7", "name": "\u56fd\u5927\u4e0a\u8679 \u8398\u897f\u5e97", "id": 134785, "pageNo": 0, "pageCount": null, "pageSize": 10, "ids": null, "endTime": null, "startTime": null}, {"cardNumFive": null, "isSupportYj": null, "cityName": null, "districtName": null, "shopinfo": {"mid": "888888859120002", "good_flag": "2", "new_flag": "2", "short_name": "\u56fd\u5927\u4e0a\u8679", "short_name_pinyin": "guodashanghong", "status": null, "address": null, "name": null, "id": "31672"}, "mid": "888888859120002", "shopId": "31672", "netid": null, "province": 901, "district": 601, "zipcode": null, "telephone": "64922354", "posDate": "20070608", "destineTel": null, "togoTel": null, "trafficWay": "\u5730\u94c1\u4e8c\u53f7\u7ebf", "signBuilding": null, "businessArea": null, "selfRoom": "\u65e0", "businessTime": null, "stall": "\u65e0", "consume": null, "serviceFei": null, "favourable": null, "shopMemo": null, "appraise": null, "website": null, "memo": null, "payTypes": "\u6749\u5fb7\u5361", "shopTypes": "\u836f\u5e97", "consumeTypes": null, "cookTypes": null, "orderNum": 1000, "card4no": null, "card4noAcc": null, "district2": 409, "searchScope": null, "status": 1, "address": "\u8398\u4e2d\u8def98\u53f7", "name": "\u56fd\u5927\u4e0a\u8679 \u8398\u5e84\u5e97", "id": 134786, "pageNo": 0, "pageCount": null, "pageSize": 10, "ids": null, "endTime": null, "startTime": null}, {"cardNumFive": null, "isSupportYj": null, "cityName": null, "districtName": null, "shopinfo": {"mid": "888888859120002", "good_flag": "2", "new_flag": "2", "short_name": "\u56fd\u5927\u4e0a\u8679", "short_name_pinyin": "guodashanghong", "status": null, "address": null, "name": null, "id": "31672"}, "mid": "888888859120002", "shopId": "31672", "netid": null, "province": 901, "district": 601, "zipcode": null, "telephone": "64919056", "posDate": "20070615", "destineTel": null, "togoTel": null, "trafficWay": "\u9c81\u8398\u7ebf", "signBuilding": null, "businessArea": null, "selfRoom": "\u65e0", "businessTime": null, "stall": "\u65e0", "consume": null, "serviceFei": null, "favourable": null, "shopMemo": null, "appraise": null, "website": null, "memo": null, "payTypes": "\u6749\u5fb7\u5361", "shopTypes": "\u836f\u5e97", "consumeTypes": null, "cookTypes": null, "orderNum": 1000, "card4no": null, "card4noAcc": null, "district2": 418, "searchScope": null, "status": 1, "address": "\u9c81\u6c47\u9547\u95f8\u822a\u8def2563\u53f7", "name": "\u56fd\u5927\u4e0a\u8679 \u95f8\u822a\u5e97", "id": 134787, "pageNo": 0, "pageCount": null, "pageSize": 10, "ids": null, "endTime": null, "startTime": null}, {"cardNumFive": null, "isSupportYj": null, "cityName": null, "districtName": null, "shopinfo": {"mid": "888888859120002", "good_flag": "2", "new_flag": "2", "short_name": "\u56fd\u5927\u4e0a\u8679", "short_name_pinyin": "guodashanghong", "status": null, "address": null, "name": null, "id": "31672"}, "mid": "888888859120002", "shopId": "31672", "netid": null, "province": 901, "district": 601, "zipcode": "200237", "telephone": "64760770", "posDate": "20070314", "destineTel": "64760770", "togoTel": "64760770", "trafficWay": "\u516c\u4ea4218 725", "signBuilding": null, "businessArea": "200~1000\u5e73\u7c73", "selfRoom": "\u65e0", "businessTime": "7:30~20:00", "stall": "\u65e0", "consume": null, "serviceFei": null, "favourable": null, "shopMemo": null, "appraise": null, "website": null, "memo": null, "payTypes": "\u6749\u5fb7\u5361", "shopTypes": "\u836f\u5e97", "consumeTypes": null, "cookTypes": null, "orderNum": 1000, "card4no": null, "card4noAcc": null, "district2": 409, "searchScope": null, "status": 1, "address": "\u8398\u6731\u8def1922\u53f7", "name": "\u56fd\u5927\u4e0a\u8679 \u6731\u884c\u5e97", "id": 134789, "pageNo": 0, "pageCount": null, "pageSize": 10, "ids": null, "endTime": null, "startTime": null}, {"cardNumFive": null, "isSupportYj": null, "cityName": null, "districtName": null, "shopinfo": {"mid": "888888859120002", "good_flag": "2", "new_flag": "2", "short_name": "\u56fd\u5927\u4e0a\u8679", "short_name_pinyin": "guodashanghong", "status": null, "address": null, "name": null, "id": "31672"}, "mid": "888888859120002", "shopId": "31672", "netid": null, "province": 901, "district": 601, "zipcode": null, "telephone": "64890142", "posDate": "20090108", "destineTel": null, "togoTel": null, "trafficWay": "\u516c\u4ea4\u8398\u90b5\u4e13\u7ebf \u9a6c\u8398\u7ebf 703", "signBuilding": null, "businessArea": null, "selfRoom": null, "businessTime": null, "stall": null, "consume": null, "serviceFei": null, "favourable": null, "shopMemo": null, "appraise": null, "website": null, "memo": null, "payTypes": "\u6749\u5fb7\u5361", "shopTypes": "\u836f\u5e97", "consumeTypes": null, "cookTypes": null, "orderNum": 1000, "card4no": null, "card4noAcc": null, "district2": 409, "searchScope": null, "status": 1, "address": "\u989b\u5efa\u8def96\u53f7", "name": "\u56fd\u5927\u4e0a\u8679 \u989b\u6865\u5e97", "id": 134790, "pageNo": 0, "pageCount": null, "pageSize": 10, "ids": null, "endTime": null, "startTime": null}, {"cardNumFive": null, "isSupportYj": null, "cityName": null, "districtName": null, "shopinfo": {"mid": "888888859120026", "good_flag": null, "new_flag": null, "short_name": "\u56fd\u5927\u836f\u623f", "short_name_pinyin": "guodayaofang", "status": null, "address": null, "name": null, "id": "31674"}, "mid": "888888859120026", "shopId": "31674", "netid": null, "province": 901, "district": 601, "zipcode": null, "telephone": null, "posDate": null, "destineTel": null, "togoTel": null, "trafficWay": null, "signBuilding": null, "businessArea": null, "selfRoom": null, "businessTime": null, "stall": null, "consume": null, "serviceFei": null, "favourable": null, "shopMemo": null, "appraise": null, "website": null, "memo": null, "payTypes": "\u6749\u5fb7\u5361", "shopTypes": "\u836f\u5e97", "consumeTypes": null, "cookTypes": null, "orderNum": 1000, "card4no": null, "card4noAcc": null, "district2": 401, "searchScope": null, "status": 1, "address": "\u9ec4\u6d66\u533a\u534a\u6dde\u56ed\u8def641\u53f7", "name": "\u56fd\u5927\u836f\u623f \u534a\u6dde\u56ed\u8def\u5e97", "id": 134791, "pageNo": 0, "pageCount": null, "pageSize": 10, "ids": null, "endTime": null, "startTime": null}, {"cardNumFive": null, "isSupportYj": null, "cityName": null, "districtName": null, "shopinfo": {"mid": "888888859120026", "good_flag": null, "new_flag": null, "short_name": "\u56fd\u5927\u836f\u623f", "short_name_pinyin": "guodayaofang", "status": null, "address": null, "name": null, "id": "31674"}, "mid": "888888859120026", "shopId": "31674", "netid": null, "province": 901, "district": 601, "zipcode": null, "telephone": "66552892", "posDate": "200910", "destineTel": null, "togoTel": null, "trafficWay": "80\u3001137\u3001577", "signBuilding": null, "businessArea": null, "selfRoom": null, "businessTime": null, "stall": null, "consume": null, "serviceFei": null, "favourable": null, "shopMemo": null, "appraise": null, "website": null, "memo": null, "payTypes": "\u6749\u5fb7\u5361", "shopTypes": "\u836f\u5e97", "consumeTypes": null, "cookTypes": null, "orderNum": 1000, "card4no": null, "card4noAcc": null, "district2": 407, "searchScope": null, "status": 1, "address": "\u5305\u5934\u5357\u8def642\u53f7", "name": "\u56fd\u5927\u836f\u623f \u5305\u5934\u5357\u8def\u5e97", "id": 134792, "pageNo": 0, "pageCount": null, "pageSize": 10, "ids": null, "endTime": null, "startTime": null}, {"cardNumFive": null, "isSupportYj": null, "cityName": null, "districtName": null, "shopinfo": {"mid": "888888859120026", "good_flag": null, "new_flag": null, "short_name": "\u56fd\u5927\u836f\u623f", "short_name_pinyin": "guodayaofang", "status": null, "address": null, "name": null, "id": "31674"}, "mid": "888888859120026", "shopId": "31674", "netid": null, "province": 901, "district": 601, "zipcode": null, "telephone": "63169596", "posDate": "20070918", "destineTel": null, "togoTel": null, "trafficWay": "\u516c\u4ea4814 \u5927\u6865\u516d\u7ebf", "signBuilding": null, "businessArea": null, "selfRoom": null, "businessTime": null, "stall": null, "consume": null, "serviceFei": null, "favourable": null, "shopMemo": null, "appraise": null, "website": null, "memo": null, "payTypes": "\u6749\u5fb7\u5361", "shopTypes": "\u836f\u5e97", "consumeTypes": null, "cookTypes": null, "orderNum": 1000, "card4no": null, "card4noAcc": null, "district2": 401, "searchScope": null, "status": 1, "address": "\u4fdd\u5c6f\u8def133\u53f7", "name": "\u56fd\u5927\u836f\u623f \u4fdd\u5c6f\u5e97", "id": 134793, "pageNo": 0, "pageCount": null, "pageSize": 10, "ids": null, "endTime": null, "startTime": null}], "pageLimit": 1760, "size": 10}