{"pageCount": 1095, "count": 10942, "pageNo": 174, "subShopInfo": {"cardNumFive": "", "isSupportYj": "", "cityName": null, "districtName": null, "shopinfo": {"mid": null, "good_flag": null, "new_flag": null, "short_name": null, "short_name_pinyin": null, "status": null, "address": "", "name": "", "id": null}, "mid": null, "shopId": null, "netid": null, "province": 901, "district": null, "zipcode": null, "telephone": null, "posDate": null, "destineTel": null, "togoTel": null, "trafficWay": null, "signBuilding": null, "businessArea": null, "selfRoom": null, "businessTime": null, "stall": null, "consume": null, "serviceFei": null, "favourable": null, "shopMemo": "1", "appraise": null, "website": null, "memo": null, "payTypes": "", "shopTypes": "", "consumeTypes": null, "cookTypes": null, "orderNum": null, "card4no": null, "card4noAcc": null, "district2": null, "searchScope": null, "status": null, "address": "", "name": null, "id": null, "pageNo": 173, "pageCount": null, "pageSize": 10, "ids": null, "endTime": null, "startTime": null}, "list": [{"cardNumFive": null, "isSupportYj": null, "cityName": null, "districtName": null, "shopinfo": {"mid": "888888857340008", "good_flag": "2", "new_flag": "2", "short_name": "\u51a0\u829d\u9716\u624b\u673a", "short_name_pinyin": "guanzhilinshouji", "status": null, "address": null, "name": null, "id": "31648"}, "mid": "888888857340008", "shopId": "31648", "netid": null, "province": 901, "district": 601, "zipcode": "201800", "telephone": "69522199", "posDate": "20070420", "destineTel": null, "togoTel": null, "trafficWay": "\u4e0a\u90b5\u7ebf \u5f90\u95f5\u7ebf", "signBuilding": null, "businessArea": null, "selfRoom": null, "businessTime": null, "stall": "\u65e0", "consume": null, "serviceFei": null, "favourable": null, "shopMemo": null, "appraise": null, "website": null, "memo": null, "payTypes": "\u6749\u5fb7\u5361", "shopTypes": "\u96f6\u552e,\u4e13\u5356", "consumeTypes": null, "cookTypes": null, "orderNum": 1000, "card4no": null, "card4noAcc": null, "district2": 411, "searchScope": null, "status": 1, "address": "\u57ce\u4e2d\u8def\uff12\u53f7", "name": "\u51a0\u829d\u9716\u624b\u673a \u5609\u5b9a\u5e97", "id": 134054, "pageNo": 0, "pageCount": null, "pageSize": 10, "ids": null, "endTime": null, "startTime": null}, {"cardNumFive": null, "isSupportYj": null, "cityName": null, "districtName": null, "shopinfo": {"mid": "888888856310002", "good_flag": "2", "new_flag": "1", "short_name": "\u53e4\u4eca", "short_name_pinyin": "gujin", "status": null, "address": null, "name": null, "id": "31642"}, "mid": "888888856310002", "shopId": "31642", "netid": null, "province": 901, "district": 601, "zipcode": null, "telephone": null, "posDate": "20100525", "destineTel": null, "togoTel": null, "trafficWay": null, "signBuilding": null, "businessArea": null, "selfRoom": null, "businessTime": null, "stall": null, "consume": null, "serviceFei": null, "favourable": null, "shopMemo": null, "appraise": null, "website": null, "memo": null, "payTypes": "\u6749\u5fb7\u5361", "shopTypes": "\u670d\u9970\u5bb6\u7eba\uff0c\u4e13\u5356", "consumeTypes": null, "cookTypes": null, "orderNum": 1000, "card4no": null, "card4noAcc": null, "district2": 401, "searchScope": null, "status": 1, "address": "\u897f\u51cc\u5bb6\u5b85\u8def157\u53f7-159\u53f7", "name": "\u53e4\u4eca \u5bb6\u5b85\u8def\u5e97", "id": 134035, "pageNo": 0, "pageCount": null, "pageSize": 10, "ids": null, "endTime": null, "startTime": null}, {"cardNumFive": null, "isSupportYj": null, "cityName": null, "districtName": null, "shopinfo": {"mid": "888888856310002", "good_flag": "2", "new_flag": "1", "short_name": "\u53e4\u4eca", "short_name_pinyin": "gujin", "status": null, "address": null, "name": null, "id": "31642"}, "mid": "888888856310002", "shopId": "31642", "netid": null, "province": 901, "district": 601, "zipcode": null, "telephone": null, "posDate": null, "destineTel": null, "togoTel": null, "trafficWay": null, "signBuilding": null, "businessArea": null, "selfRoom": null, "businessTime": null, "stall": null, "consume": null, "serviceFei": null, "favourable": null, "shopMemo": null, "appraise": null, "website": null, "memo": null, "payTypes": "\u6749\u5fb7\u5361", "shopTypes": "\u4e13\u5356", "consumeTypes": null, "cookTypes": null, "orderNum": 1000, "card4no": null, "card4noAcc": null, "district2": 408, "searchScope": null, "status": 1, "address": "\u4e34\u5e73\u8def64\u53f7", "name": "\u53e4\u4eca \u4e34\u5e73\u5e97", "id": 169332, "pageNo": 0, "pageCount": null, "pageSize": 10, "ids": null, "endTime": null, "startTime": null}, {"cardNumFive": null, "isSupportYj": null, "cityName": null, "districtName": null, "shopinfo": {"mid": "888888856310002", "good_flag": "2", "new_flag": "1", "short_name": "\u53e4\u4eca", "short_name_pinyin": "gujin", "status": null, "address": null, "name": null, "id": "31642"}, "mid": "888888856310002", "shopId": "31642", "netid": null, "province": 901, "district": 601, "zipcode": null, "telephone": "50202100", "posDate": null, "destineTel": null, "togoTel": null, "trafficWay": null, "signBuilding": null, "businessArea": null, "selfRoom": null, "businessTime": null, "stall": null, "consume": null, "serviceFei": null, "favourable": null, "shopMemo": null, "appraise": null, "website": null, "memo": null, "payTypes": "\u6749\u5fb7\u5361", "shopTypes": "\u4e13\u5356", "consumeTypes": null, "cookTypes": null, "orderNum": 1000, "card4no": null, "card4noAcc": null, "district2": 418, "searchScope": null, "status": 1, "address": "\u957f\u5c9b\u8def1171\u53f7", "name": "\u53e4\u4eca \u957f\u5c9b\u5e97", "id": 169333, "pageNo": 0, "pageCount": null, "pageSize": 10, "ids": null, "endTime": null, "startTime": null}, {"cardNumFive": null, "isSupportYj": null, "cityName": null, "districtName": null, "shopinfo": {"mid": "888888856310002", "good_flag": "2", "new_flag": "1", "short_name": "\u53e4\u4eca", "short_name_pinyin": "gujin", "status": null, "address": null, "name": null, "id": "31642"}, "mid": "888888856310002", "shopId": "31642", "netid": null, "province": 901, "district": 601, "zipcode": null, "telephone": "36527891", "posDate": null, "destineTel": null, "togoTel": null, "trafficWay": null, "signBuilding": null, "businessArea": null, "selfRoom": null, "businessTime": null, "stall": null, "consume": null, "serviceFei": null, "favourable": null, "shopMemo": null, "appraise": null, "website": null, "memo": null, "payTypes": "\u6749\u5fb7\u5361", "shopTypes": "\u4e13\u5356", "consumeTypes": null, "cookTypes": null, "orderNum": 1000, "card4no": null, "card4noAcc": null, "district2": 410, "searchScope": null, "status": 1, "address": "\u5e73\u578b\u5173\u8def108\u53f71\u697c", "name": "\u53e4\u4eca \u5927\u6da6\u53d1\u5e73\u578b\u5173\u5e97", "id": 170079, "pageNo": 0, "pageCount": null, "pageSize": 10, "ids": null, "endTime": null, "startTime": null}, {"cardNumFive": null, "isSupportYj": null, "cityName": null, "districtName": null, "shopinfo": {"mid": "888888856310002", "good_flag": "2", "new_flag": "1", "short_name": "\u53e4\u4eca", "short_name_pinyin": "gujin", "status": null, "address": null, "name": null, "id": "31642"}, "mid": "888888856310002", "shopId": "31642", "netid": null, "province": 901, "district": 601, "zipcode": null, "telephone": "55155557", "posDate": null, "destineTel": null, "togoTel": null, "trafficWay": null, "signBuilding": null, "businessArea": null, "selfRoom": null, "businessTime": null, "stall": null, "consume": null, "serviceFei": null, "favourable": null, "shopMemo": null, "appraise": null, "website": null, "memo": null, "payTypes": "\u6749\u5fb7\u5361", "shopTypes": "\u4e13\u5356", "consumeTypes": null, "cookTypes": null, "orderNum": 1000, "card4no": null, "card4noAcc": null, "district2": 410, "searchScope": null, "status": 1, "address": "\u95fb\u559c\u8def1101\u53f7", "name": "\u53e4\u4eca \u95fb\u559c\u5e97", "id": 170080, "pageNo": 0, "pageCount": null, "pageSize": 10, "ids": null, "endTime": null, "startTime": null}, {"cardNumFive": null, "isSupportYj": null, "cityName": null, "districtName": null, "shopinfo": {"mid": "888888856310002", "good_flag": "2", "new_flag": "1", "short_name": "\u53e4\u4eca", "short_name_pinyin": "gujin", "status": null, "address": null, "name": null, "id": "31642"}, "mid": "888888856310002", "shopId": "31642", "netid": null, "province": 901, "district": 601, "zipcode": null, "telephone": "34230568", "posDate": null, "destineTel": null, "togoTel": null, "trafficWay": null, "signBuilding": null, "businessArea": null, "selfRoom": null, "businessTime": null, "stall": null, "consume": null, "serviceFei": null, "favourable": null, "shopMemo": null, "appraise": null, "website": null, "memo": null, "payTypes": "\u6749\u5fb7\u5361", "shopTypes": "\u4e13\u5356", "consumeTypes": null, "cookTypes": null, "orderNum": 1000, "card4no": null, "card4noAcc": null, "district2": 403, "searchScope": null, "status": 1, "address": "\u756a\u611a\u8def795\u53f71\u697c", "name": "\u53e4\u4eca \u756a\u611a\u8def\u5e97", "id": 171303, "pageNo": 0, "pageCount": null, "pageSize": 10, "ids": null, "endTime": null, "startTime": null}, {"cardNumFive": null, "isSupportYj": null, "cityName": null, "districtName": null, "shopinfo": {"mid": "888888856310002", "good_flag": "2", "new_flag": "1", "short_name": "\u53e4\u4eca", "short_name_pinyin": "gujin", "status": null, "address": null, "name": null, "id": "31642"}, "mid": "888888856310002", "shopId": "31642", "netid": null, "province": 901, "district": 601, "zipcode": null, "telephone": "56418077", "posDate": null, "destineTel": null, "togoTel": null, "trafficWay": null, "signBuilding": null, "businessArea": null, "selfRoom": null, "businessTime": null, "stall": null, "consume": null, "serviceFei": null, "favourable": null, "shopMemo": null, "appraise": null, "website": null, "memo": null, "payTypes": "\u6749\u5fb7\u5361", "shopTypes": "\u4e13\u5356", "consumeTypes": null, "cookTypes": null, "orderNum": 1000, "card4no": null, "card4noAcc": null, "district2": 405, "searchScope": null, "status": 1, "address": "\u65b0\u6751\u8def1500\u53f72\u697c", "name": "\u53e4\u4eca \u5bb6\u4e50\u798f\u4e07\u91cc\u5e97", "id": 171304, "pageNo": 0, "pageCount": null, "pageSize": 10, "ids": null, "endTime": null, "startTime": null}, {"cardNumFive": null, "isSupportYj": null, "cityName": null, "districtName": null, "shopinfo": {"mid": "888888856310002", "good_flag": "2", "new_flag": "1", "short_name": "\u53e4\u4eca", "short_name_pinyin": "gujin", "status": null, "address": null, "name": null, "id": "31642"}, "mid": "888888856310002", "shopId": "31642", "netid": null, "province": 901, "district": 601, "zipcode": null, "telephone": "34973382", "posDate": null, "destineTel": null, "togoTel": null, "trafficWay": null, "signBuilding": null, "businessArea": null, "selfRoom": null, "businessTime": null, "stall": null, "consume": null, "serviceFei": null, "favourable": null, "shopMemo": null, "appraise": null, "website": null, "memo": null, "payTypes": "\u6749\u5fb7\u5361", "shopTypes": "\u4e13\u5356", "consumeTypes": null, "cookTypes": null, "orderNum": 1000, "card4no": null, "card4noAcc": null, "district2": 409, "searchScope": null, "status": 1, "address": "\u6caa\u95f5\u8def7866\u5f0413\u53f7", "name": "\u53e4\u4eca \u83b2\u82b1\u5e7f\u573a\u5e97", "id": 171305, "pageNo": 0, "pageCount": null, "pageSize": 10, "ids": null, "endTime": null, "startTime": null}, {"cardNumFive": null, "isSupportYj": null, "cityName": null, "districtName": null, "shopinfo": {"mid": "888888856310002", "good_flag": "2", "new_flag": "1", "short_name": "\u53e4\u4eca", "short_name_pinyin": "gujin", "status": null, "address": null, "name": null, "id": "31642"}, "mid": "888888856310002", "shopId": "31642", "netid": null, "province": 901, "district": 601, "zipcode": null, "telephone": null, "posDate": null, "destineTel": null, "togoTel": null, "trafficWay": null, "signBuilding": null, "businessArea": null, "selfRoom": null, "businessTime": null, "stall": null, "consume": null, "serviceFei": null, "favourable": null, "shopMemo": null, "appraise": null, "website": null, "memo": null, "payTypes": "\u6749\u5fb7\u5361", "shopTypes": "\u4e13\u5356", "consumeTypes": null, "cookTypes": null, "orderNum": 1000, "card4no": null, "card4noAcc": null, "district2": 407, "searchScope": null, "status": 1, "address": "\u56fd\u987a\u4e1c\u8def238\u53f7", "name": "\u53e4\u4eca \u56fd\u987a\u4e1c\u8def\u5e97", "id": 171306, "pageNo": 0, "pageCount": null, "pageSize": 10, "ids": null, "endTime": null, "startTime": null}], "pageLimit": 1730, "size": 10}