{"pageCount": 1095, "count": 10942, "pageNo": 175, "subShopInfo": {"cardNumFive": "", "isSupportYj": "", "cityName": null, "districtName": null, "shopinfo": {"mid": null, "good_flag": null, "new_flag": null, "short_name": null, "short_name_pinyin": null, "status": null, "address": "", "name": "", "id": null}, "mid": null, "shopId": null, "netid": null, "province": 901, "district": null, "zipcode": null, "telephone": null, "posDate": null, "destineTel": null, "togoTel": null, "trafficWay": null, "signBuilding": null, "businessArea": null, "selfRoom": null, "businessTime": null, "stall": null, "consume": null, "serviceFei": null, "favourable": null, "shopMemo": "1", "appraise": null, "website": null, "memo": null, "payTypes": "", "shopTypes": "", "consumeTypes": null, "cookTypes": null, "orderNum": null, "card4no": null, "card4noAcc": null, "district2": null, "searchScope": null, "status": null, "address": "", "name": null, "id": null, "pageNo": 174, "pageCount": null, "pageSize": 10, "ids": null, "endTime": null, "startTime": null}, "list": [{"cardNumFive": null, "isSupportYj": null, "cityName": null, "districtName": null, "shopinfo": {"mid": "888002156910024", "good_flag": null, "new_flag": null, "short_name": "\u53e4\u4eca", "short_name_pinyin": "gujin", "status": null, "address": null, "name": null, "id": "43491"}, "mid": "888002156910024", "shopId": "43491", "netid": null, "province": 901, "district": 601, "zipcode": null, "telephone": null, "posDate": null, "destineTel": null, "togoTel": null, "trafficWay": null, "signBuilding": null, "businessArea": null, "selfRoom": null, "businessTime": null, "stall": null, "consume": null, "serviceFei": null, "favourable": null, "shopMemo": null, "appraise": null, "website": null, "memo": null, "payTypes": "\u6749\u5fb7\u5361", "shopTypes": "\u4e13\u5356", "consumeTypes": null, "cookTypes": null, "orderNum": 1000, "card4no": null, "card4noAcc": null, "district2": 401, "searchScope": null, "status": 1, "address": "\u4eba\u6c11\u5927\u905362\u53f7", "name": "\u53e4\u4eca \u4eba\u6c11\u5927\u9053\u5e97", "id": 196962, "pageNo": 0, "pageCount": null, "pageSize": 10, "ids": null, "endTime": null, "startTime": null}, {"cardNumFive": null, "isSupportYj": null, "cityName": null, "districtName": null, "shopinfo": {"mid": "888002156910024", "good_flag": null, "new_flag": null, "short_name": "\u53e4\u4eca", "short_name_pinyin": "gujin", "status": null, "address": null, "name": null, "id": "43491"}, "mid": "888002156910024", "shopId": "43491", "netid": null, "province": 901, "district": 601, "zipcode": null, "telephone": null, "posDate": null, "destineTel": null, "togoTel": null, "trafficWay": null, "signBuilding": null, "businessArea": null, "selfRoom": null, "businessTime": null, "stall": null, "consume": null, "serviceFei": null, "favourable": null, "shopMemo": null, "appraise": null, "website": null, "memo": null, "payTypes": "\u6749\u5fb7\u5361", "shopTypes": "\u4e13\u5356", "consumeTypes": null, "cookTypes": null, "orderNum": 1000, "card4no": null, "card4noAcc": null, "district2": 410, "searchScope": null, "status": 1, "address": "\u5ef6\u957f\u4e2d\u8def463\u53f7", "name": "\u53e4\u4eca \u5ef6\u957f\u4e2d\u8def\u5e97", "id": 196963, "pageNo": 0, "pageCount": null, "pageSize": 10, "ids": null, "endTime": null, "startTime": null}, {"cardNumFive": null, "isSupportYj": null, "cityName": null, "districtName": null, "shopinfo": {"mid": "888888859120002", "good_flag": "2", "new_flag": "2", "short_name": "\u56fd\u5927\u4e0a\u8679", "short_name_pinyin": "guodashanghong", "status": null, "address": null, "name": null, "id": "31672"}, "mid": "888888859120002", "shopId": "31672", "netid": null, "province": 901, "district": 601, "zipcode": null, "telephone": "64901929", "posDate": "20070924", "destineTel": null, "togoTel": null, "trafficWay": null, "signBuilding": null, "businessArea": null, "selfRoom": null, "businessTime": null, "stall": null, "consume": null, "serviceFei": null, "favourable": null, "shopMemo": null, "appraise": null, "website": null, "memo": null, "payTypes": "\u6749\u5fb7\u5361", "shopTypes": "\u836f\u5e97", "consumeTypes": null, "cookTypes": null, "orderNum": 1000, "card4no": null, "card4noAcc": null, "district2": 409, "searchScope": null, "status": 1, "address": "\u5317\u6865\u9547\u65b0\u5efa\u8def8\u53f7", "name": "\u56fd\u5927\u4e0a\u8679 \u5317\u6865\u5e97", "id": 134750, "pageNo": 0, "pageCount": null, "pageSize": 10, "ids": null, "endTime": null, "startTime": null}, {"cardNumFive": null, "isSupportYj": null, "cityName": null, "districtName": null, "shopinfo": {"mid": "888888859120002", "good_flag": "2", "new_flag": "2", "short_name": "\u56fd\u5927\u4e0a\u8679", "short_name_pinyin": "guodashanghong", "status": null, "address": null, "name": null, "id": "31672"}, "mid": "888888859120002", "shopId": "31672", "netid": null, "province": 901, "district": 601, "zipcode": null, "telephone": "64974321", "posDate": "20070614", "destineTel": null, "togoTel": null, "trafficWay": "\u516c\u4ea4729 729B", "signBuilding": null, "businessArea": null, "selfRoom": null, "businessTime": null, "stall": null, "consume": null, "serviceFei": null, "favourable": null, "shopMemo": null, "appraise": null, "website": null, "memo": null, "payTypes": "\u6749\u5fb7\u5361", "shopTypes": "\u836f\u5e97", "consumeTypes": null, "cookTypes": null, "orderNum": 1000, "card4no": null, "card4noAcc": null, "district2": 409, "searchScope": null, "status": 1, "address": "\u66f9\u884c\u9547\u66f9\u5efa\u8def216\u53f7", "name": "\u56fd\u5927\u4e0a\u8679 \u66f9\u884c\u5e97", "id": 134751, "pageNo": 0, "pageCount": null, "pageSize": 10, "ids": null, "endTime": null, "startTime": null}, {"cardNumFive": null, "isSupportYj": null, "cityName": null, "districtName": null, "shopinfo": {"mid": "888888859120002", "good_flag": "2", "new_flag": "2", "short_name": "\u56fd\u5927\u4e0a\u8679", "short_name_pinyin": "guodashanghong", "status": null, "address": null, "name": null, "id": "31672"}, "mid": "888888859120002", "shopId": "31672", "netid": null, "province": 901, "district": 601, "zipcode": null, "telephone": "64292491", "posDate": "20070821", "destineTel": null, "togoTel": null, "trafficWay": "\u516c\u4ea443 \u5357\u820d\u7ebf", "signBuilding": null, "businessArea": null, "selfRoom": null, "businessTime": null, "stall": null, "consume": null, "serviceFei": null, "favourable": null, "shopMemo": null, "appraise": null, "website": null, "memo": null, "payTypes": "\u6749\u5fb7\u5361", "shopTypes": "\u836f\u5e97", "consumeTypes": null, "cookTypes": null, "orderNum": 1000, "card4no": null, "card4noAcc": null, "district2": 409, "searchScope": null, "status": 1, "address": "\u9648\u884c\u9547\u65b0\u885758\u53f7", "name": "\u56fd\u5927\u4e0a\u8679 \u9648\u884c\u5e97", "id": 134753, "pageNo": 0, "pageCount": null, "pageSize": 10, "ids": null, "endTime": null, "startTime": null}, {"cardNumFive": null, "isSupportYj": null, "cityName": null, "districtName": null, "shopinfo": {"mid": "888888859120002", "good_flag": "2", "new_flag": "2", "short_name": "\u56fd\u5927\u4e0a\u8679", "short_name_pinyin": "guodashanghong", "status": null, "address": null, "name": null, "id": "31672"}, "mid": "888888859120002", "shopId": "31672", "netid": null, "province": 901, "district": 601, "zipcode": null, "telephone": "64890277", "posDate": "20070827", "destineTel": null, "togoTel": null, "trafficWay": "\u5730\u94c1\u4e94\u53f7\u7ebf \u4e1c\u576a\u7ebf \u5f90\u95f5\u7ebf", "signBuilding": null, "businessArea": null, "selfRoom": null, "businessTime": null, "stall": null, "consume": null, "serviceFei": null, "favourable": null, "shopMemo": null, "appraise": null, "website": null, "memo": null, "payTypes": "\u6749\u5fb7\u5361", "shopTypes": "\u836f\u5e97", "consumeTypes": null, "cookTypes": null, "orderNum": 1000, "card4no": null, "card4noAcc": null, "district2": 409, "searchScope": null, "status": 1, "address": "\u989b\u6865\u9547\u989b\u5174\u8def20\u53f7", "name": "\u56fd\u5927\u4e0a\u8679 \u534e\u661f\u5e97", "id": 134757, "pageNo": 0, "pageCount": null, "pageSize": 10, "ids": null, "endTime": null, "startTime": null}, {"cardNumFive": null, "isSupportYj": null, "cityName": null, "districtName": null, "shopinfo": {"mid": "888888859120002", "good_flag": "2", "new_flag": "2", "short_name": "\u56fd\u5927\u4e0a\u8679", "short_name_pinyin": "guodashanghong", "status": null, "address": null, "name": null, "id": "31672"}, "mid": "888888859120002", "shopId": "31672", "netid": null, "province": 901, "district": 601, "zipcode": null, "telephone": "62963448", "posDate": "20070823", "destineTel": null, "togoTel": null, "trafficWay": null, "signBuilding": null, "businessArea": null, "selfRoom": null, "businessTime": null, "stall": null, "consume": null, "serviceFei": null, "favourable": null, "shopMemo": null, "appraise": null, "website": null, "memo": null, "payTypes": "\u6749\u5fb7\u5361", "shopTypes": "\u836f\u5e97", "consumeTypes": null, "cookTypes": null, "orderNum": 1000, "card4no": null, "card4noAcc": null, "district2": 409, "searchScope": null, "status": 1, "address": "\u7eaa\u738b\u9547\u7965\u5bbe\u65b0\u6751811\u53f7", "name": "\u56fd\u5927\u4e0a\u8679 \u7eaa\u7fdf\u5e97", "id": 134759, "pageNo": 0, "pageCount": null, "pageSize": 10, "ids": null, "endTime": null, "startTime": null}, {"cardNumFive": null, "isSupportYj": null, "cityName": null, "districtName": null, "shopinfo": {"mid": "888888859120002", "good_flag": "2", "new_flag": "2", "short_name": "\u56fd\u5927\u4e0a\u8679", "short_name_pinyin": "guodashanghong", "status": null, "address": null, "name": null, "id": "31672"}, "mid": "888888859120002", "shopId": "31672", "netid": null, "province": 901, "district": 601, "zipcode": null, "telephone": "64637800", "posDate": "20080229", "destineTel": null, "togoTel": null, "trafficWay": "\u8398\u8377\u7ebf \u95f5\u9a6c\u7ebf \u5730\u94c1\u4e94\u53f7\u7ebf", "signBuilding": null, "businessArea": null, "selfRoom": null, "businessTime": null, "stall": null, "consume": null, "serviceFei": null, "favourable": null, "shopMemo": null, "appraise": null, "website": null, "memo": null, "payTypes": "\u6749\u5fb7\u5361", "shopTypes": "\u836f\u5e97", "consumeTypes": null, "cookTypes": null, "orderNum": 1000, "card4no": null, "card4noAcc": null, "district2": 403, "searchScope": null, "status": 1, "address": "\u666f\u8c37\u8def170\u53f7", "name": "\u56fd\u5927\u4e0a\u8679 \u666f\u8c37\u5e97", "id": 134760, "pageNo": 0, "pageCount": null, "pageSize": 10, "ids": null, "endTime": null, "startTime": null}, {"cardNumFive": null, "isSupportYj": null, "cityName": null, "districtName": null, "shopinfo": {"mid": "888888859120002", "good_flag": "2", "new_flag": "2", "short_name": "\u56fd\u5927\u4e0a\u8679", "short_name_pinyin": "guodashanghong", "status": null, "address": null, "name": null, "id": "31672"}, "mid": "888888859120002", "shopId": "31672", "netid": null, "province": 901, "district": 601, "zipcode": "200240", "telephone": "54308497", "posDate": "20061128", "destineTel": "54308497", "togoTel": "54308497", "trafficWay": "\u8398\u8377\u7ebf \u5730\u94c1\u4e94\u53f7\u7ebf", "signBuilding": null, "businessArea": "200~1000\u5e73\u7c73", "selfRoom": "\u65e0", "businessTime": "7:30~20:00", "stall": "\u65e0", "consume": null, "serviceFei": null, "favourable": null, "shopMemo": null, "appraise": null, "website": null, "memo": null, "payTypes": "\u6749\u5fb7\u5361", "shopTypes": "\u836f\u5e97", "consumeTypes": null, "cookTypes": null, "orderNum": 1000, "card4no": null, "card4noAcc": null, "district2": 409, "searchScope": null, "status": 1, "address": "\u666f\u8c37\u8def202-1\u53f7", "name": "\u56fd\u5927\u4e0a\u8679 \u666f\u534e\u5e97", "id": 134761, "pageNo": 0, "pageCount": null, "pageSize": 10, "ids": null, "endTime": null, "startTime": null}, {"cardNumFive": null, "isSupportYj": null, "cityName": null, "districtName": null, "shopinfo": {"mid": "888888859120002", "good_flag": "2", "new_flag": "2", "short_name": "\u56fd\u5927\u4e0a\u8679", "short_name_pinyin": "guodashanghong", "status": null, "address": null, "name": null, "id": "31672"}, "mid": "888888859120002", "shopId": "31672", "netid": null, "province": 901, "district": 601, "zipcode": null, "telephone": "64780304", "posDate": null, "destineTel": null, "togoTel": null, "trafficWay": "748 91 \u8398\u5317\u4e13\u7ebf", "signBuilding": null, "businessArea": null, "selfRoom": null, "businessTime": null, "stall": null, "consume": null, "serviceFei": null, "favourable": null, "shopMemo": null, "appraise": null, "website": null, "memo": null, "payTypes": "\u6749\u5fb7\u5361", "shopTypes": "\u836f\u5e97", "consumeTypes": null, "cookTypes": null, "orderNum": 1000, "card4no": null, "card4noAcc": null, "district2": 409, "searchScope": null, "status": 1, "address": "\u8054\u660e\u8def18\u53f7", "name": "\u56fd\u5927\u4e0a\u8679 \u8054\u660e\u5e97", "id": 134763, "pageNo": 0, "pageCount": null, "pageSize": 10, "ids": null, "endTime": null, "startTime": null}], "pageLimit": 1740, "size": 10}