{"pageCount": 1095, "count": 10942, "pageNo": 172, "subShopInfo": {"cardNumFive": "", "isSupportYj": "", "cityName": null, "districtName": null, "shopinfo": {"mid": null, "good_flag": null, "new_flag": null, "short_name": null, "short_name_pinyin": null, "status": null, "address": "", "name": "", "id": null}, "mid": null, "shopId": null, "netid": null, "province": 901, "district": null, "zipcode": null, "telephone": null, "posDate": null, "destineTel": null, "togoTel": null, "trafficWay": null, "signBuilding": null, "businessArea": null, "selfRoom": null, "businessTime": null, "stall": null, "consume": null, "serviceFei": null, "favourable": null, "shopMemo": "1", "appraise": null, "website": null, "memo": null, "payTypes": "", "shopTypes": "", "consumeTypes": null, "cookTypes": null, "orderNum": null, "card4no": null, "card4noAcc": null, "district2": null, "searchScope": null, "status": null, "address": "", "name": null, "id": null, "pageNo": 171, "pageCount": null, "pageSize": 10, "ids": null, "endTime": null, "startTime": null}, "list": [{"cardNumFive": null, "isSupportYj": null, "cityName": null, "districtName": null, "shopinfo": {"mid": "888888854110131", "good_flag": null, "new_flag": null, "short_name": "\u5149\u660e\u4fbf\u5229", "short_name_pinyin": "guangmingbianli", "status": null, "address": null, "name": null, "id": "31651"}, "mid": "888888854110131", "shopId": "31651", "netid": null, "province": 901, "district": 601, "zipcode": null, "telephone": "66670693", "posDate": null, "destineTel": null, "togoTel": null, "trafficWay": null, "signBuilding": null, "businessArea": null, "selfRoom": null, "businessTime": null, "stall": null, "consume": null, "serviceFei": null, "favourable": null, "shopMemo": null, "appraise": null, "website": null, "memo": null, "payTypes": "\u6749\u5fb7\u5361", "shopTypes": "\u4fbf\u5229\u5e97", "consumeTypes": null, "cookTypes": null, "orderNum": 1000, "card4no": null, "card4noAcc": null, "district2": 416, "searchScope": null, "status": 1, "address": "\u65b0\u6caa\u8def1059\u5f0430\u53f7", "name": "\u5149\u660e\u4fbf\u5229 \u99a8\u534e\u5e97", "id": 175072, "pageNo": 0, "pageCount": null, "pageSize": 10, "ids": null, "endTime": null, "startTime": null}, {"cardNumFive": null, "isSupportYj": null, "cityName": null, "districtName": null, "shopinfo": {"mid": "888888854110131", "good_flag": null, "new_flag": null, "short_name": "\u5149\u660e\u4fbf\u5229", "short_name_pinyin": "guangmingbianli", "status": null, "address": null, "name": null, "id": "31651"}, "mid": "888888854110131", "shopId": "31651", "netid": null, "province": 901, "district": 601, "zipcode": null, "telephone": "56944020", "posDate": null, "destineTel": null, "togoTel": null, "trafficWay": null, "signBuilding": null, "businessArea": null, "selfRoom": null, "businessTime": null, "stall": null, "consume": null, "serviceFei": null, "favourable": null, "shopMemo": null, "appraise": null, "website": null, "memo": null, "payTypes": "\u6749\u5fb7\u5361", "shopTypes": "\u4fbf\u5229\u5e97", "consumeTypes": null, "cookTypes": null, "orderNum": 1000, "card4no": null, "card4noAcc": null, "district2": 405, "searchScope": null, "status": 1, "address": "\u5ef6\u957f\u897f\u8def176\u53f7", "name": "\u5149\u660e\u4fbf\u5229 \u5ef6\u957f\u897f\u5e97", "id": 175073, "pageNo": 0, "pageCount": null, "pageSize": 10, "ids": null, "endTime": null, "startTime": null}, {"cardNumFive": null, "isSupportYj": null, "cityName": null, "districtName": null, "shopinfo": {"mid": "888888854110131", "good_flag": null, "new_flag": null, "short_name": "\u5149\u660e\u4fbf\u5229", "short_name_pinyin": "guangmingbianli", "status": null, "address": null, "name": null, "id": "31651"}, "mid": "888888854110131", "shopId": "31651", "netid": null, "province": 901, "district": 601, "zipcode": null, "telephone": "56634347", "posDate": null, "destineTel": null, "togoTel": null, "trafficWay": null, "signBuilding": null, "businessArea": null, "selfRoom": null, "businessTime": null, "stall": null, "consume": null, "serviceFei": null, "favourable": null, "shopMemo": null, "appraise": null, "website": null, "memo": null, "payTypes": "\u6749\u5fb7\u5361", "shopTypes": "\u4fbf\u5229\u5e97", "consumeTypes": null, "cookTypes": null, "orderNum": 1000, "card4no": null, "card4noAcc": null, "district2": 410, "searchScope": null, "status": 1, "address": "\u6b62\u56ed\u8def252\u53f7", "name": "\u5149\u660e\u4fbf\u5229 \u6b62\u56ed\u4e8c\u5e97", "id": 175074, "pageNo": 0, "pageCount": null, "pageSize": 10, "ids": null, "endTime": null, "startTime": null}, {"cardNumFive": null, "isSupportYj": null, "cityName": null, "districtName": null, "shopinfo": {"mid": "888888854110131", "good_flag": null, "new_flag": null, "short_name": "\u5149\u660e\u4fbf\u5229", "short_name_pinyin": "guangmingbianli", "status": null, "address": null, "name": null, "id": "31651"}, "mid": "888888854110131", "shopId": "31651", "netid": null, "province": 901, "district": 601, "zipcode": null, "telephone": "56986011", "posDate": null, "destineTel": null, "togoTel": null, "trafficWay": null, "signBuilding": null, "businessArea": null, "selfRoom": null, "businessTime": null, "stall": null, "consume": null, "serviceFei": null, "favourable": null, "shopMemo": null, "appraise": null, "website": null, "memo": null, "payTypes": "\u6749\u5fb7\u5361", "shopTypes": "\u4fbf\u5229\u5e97", "consumeTypes": null, "cookTypes": null, "orderNum": 1000, "card4no": null, "card4noAcc": null, "district2": 410, "searchScope": null, "status": 1, "address": "\u82b7\u6c5f\u897f\u8def284\u53f7", "name": "\u5149\u660e\u4fbf\u5229 \u82b7\u6c5f\u5e97", "id": 175075, "pageNo": 0, "pageCount": null, "pageSize": 10, "ids": null, "endTime": null, "startTime": null}, {"cardNumFive": null, "isSupportYj": null, "cityName": null, "districtName": null, "shopinfo": {"mid": "888888854110131", "good_flag": null, "new_flag": null, "short_name": "\u5149\u660e\u4fbf\u5229", "short_name_pinyin": "guangmingbianli", "status": null, "address": null, "name": null, "id": "31651"}, "mid": "888888854110131", "shopId": "31651", "netid": null, "province": 901, "district": 601, "zipcode": null, "telephone": "55237096", "posDate": null, "destineTel": null, "togoTel": null, "trafficWay": null, "signBuilding": null, "businessArea": null, "selfRoom": null, "businessTime": null, "stall": null, "consume": null, "serviceFei": null, "favourable": null, "shopMemo": null, "appraise": null, "website": null, "memo": null, "payTypes": "\u6749\u5fb7\u5361", "shopTypes": "\u4fbf\u5229\u5e97", "consumeTypes": null, "cookTypes": null, "orderNum": 1000, "card4no": null, "card4noAcc": null, "district2": 407, "searchScope": null, "status": 1, "address": "\u4e2d\u539f\u8def14\u53f7", "name": "\u5149\u660e\u4fbf\u5229 \u4e2d\u539f\u4e8c\u5e97", "id": 175076, "pageNo": 0, "pageCount": null, "pageSize": 10, "ids": null, "endTime": null, "startTime": null}, {"cardNumFive": null, "isSupportYj": null, "cityName": null, "districtName": null, "shopinfo": {"mid": "888888854110131", "good_flag": null, "new_flag": null, "short_name": "\u5149\u660e\u4fbf\u5229", "short_name_pinyin": "guangmingbianli", "status": null, "address": null, "name": null, "id": "31651"}, "mid": "888888854110131", "shopId": "31651", "netid": null, "province": 901, "district": 601, "zipcode": null, "telephone": null, "posDate": null, "destineTel": null, "togoTel": null, "trafficWay": null, "signBuilding": null, "businessArea": null, "selfRoom": null, "businessTime": null, "stall": null, "consume": null, "serviceFei": null, "favourable": null, "shopMemo": null, "appraise": null, "website": null, "memo": null, "payTypes": "\u6749\u5fb7\u5361", "shopTypes": "\u4fbf\u5229\u5e97", "consumeTypes": null, "cookTypes": null, "orderNum": 1000, "card4no": null, "card4noAcc": null, "district2": 406, "searchScope": null, "status": 1, "address": "\u91d1\u949f\u8def328\u53f7", "name": "\u5149\u660e\u4fbf\u5229 \u91d1\u949f\u5e97", "id": 175077, "pageNo": 0, "pageCount": null, "pageSize": 10, "ids": null, "endTime": null, "startTime": null}, {"cardNumFive": null, "isSupportYj": null, "cityName": null, "districtName": null, "shopinfo": {"mid": "888888854110131", "good_flag": null, "new_flag": null, "short_name": "\u5149\u660e\u4fbf\u5229", "short_name_pinyin": "guangmingbianli", "status": null, "address": null, "name": null, "id": "31651"}, "mid": "888888854110131", "shopId": "31651", "netid": null, "province": 901, "district": 601, "zipcode": null, "telephone": "64655221", "posDate": null, "destineTel": null, "togoTel": null, "trafficWay": null, "signBuilding": null, "businessArea": null, "selfRoom": null, "businessTime": null, "stall": null, "consume": null, "serviceFei": null, "favourable": null, "shopMemo": null, "appraise": null, "website": null, "memo": null, "payTypes": "\u6749\u5fb7\u5361", "shopTypes": "\u4fbf\u5229\u5e97", "consumeTypes": null, "cookTypes": null, "orderNum": 1000, "card4no": null, "card4noAcc": null, "district2": 409, "searchScope": null, "status": 1, "address": "\u83b2\u82b1\u8def2150\u5f0424\u53f7", "name": "\u5149\u660e\u4fbf\u5229 \u83b2\u82b1\u5e97", "id": 175078, "pageNo": 0, "pageCount": null, "pageSize": 10, "ids": null, "endTime": null, "startTime": null}, {"cardNumFive": null, "isSupportYj": null, "cityName": null, "districtName": null, "shopinfo": {"mid": "888888854110131", "good_flag": null, "new_flag": null, "short_name": "\u5149\u660e\u4fbf\u5229", "short_name_pinyin": "guangmingbianli", "status": null, "address": null, "name": null, "id": "31651"}, "mid": "888888854110131", "shopId": "31651", "netid": null, "province": 901, "district": 601, "zipcode": null, "telephone": null, "posDate": null, "destineTel": null, "togoTel": null, "trafficWay": null, "signBuilding": null, "businessArea": null, "selfRoom": null, "businessTime": null, "stall": null, "consume": null, "serviceFei": null, "favourable": null, "shopMemo": null, "appraise": null, "website": null, "memo": null, "payTypes": "\u6749\u5fb7\u5361", "shopTypes": "\u4fbf\u5229\u5e97", "consumeTypes": null, "cookTypes": null, "orderNum": 1000, "card4no": null, "card4noAcc": null, "district2": 408, "searchScope": null, "status": 1, "address": "\u653f\u7acb\u8def625\u53f7", "name": "\u5149\u660e\u4fbf\u5229 \u653f\u7acb\u5e97", "id": 175079, "pageNo": 0, "pageCount": null, "pageSize": 10, "ids": null, "endTime": null, "startTime": null}, {"cardNumFive": null, "isSupportYj": null, "cityName": null, "districtName": null, "shopinfo": {"mid": "888888854110131", "good_flag": null, "new_flag": null, "short_name": "\u5149\u660e\u4fbf\u5229", "short_name_pinyin": "guangmingbianli", "status": null, "address": null, "name": null, "id": "31651"}, "mid": "888888854110131", "shopId": "31651", "netid": null, "province": 901, "district": 601, "zipcode": null, "telephone": null, "posDate": null, "destineTel": null, "togoTel": null, "trafficWay": null, "signBuilding": null, "businessArea": null, "selfRoom": null, "businessTime": null, "stall": null, "consume": null, "serviceFei": null, "favourable": null, "shopMemo": null, "appraise": null, "website": null, "memo": null, "payTypes": "\u6749\u5fb7\u5361", "shopTypes": "\u4fbf\u5229\u5e97", "consumeTypes": null, "cookTypes": null, "orderNum": 1000, "card4no": null, "card4noAcc": null, "district2": 418, "searchScope": null, "status": 1, "address": "\u5b59\u6865\u8def256\u53f7", "name": "\u5149\u660e\u4fbf\u5229 \u5e86\u8fde\u5e97", "id": 175080, "pageNo": 0, "pageCount": null, "pageSize": 10, "ids": null, "endTime": null, "startTime": null}, {"cardNumFive": null, "isSupportYj": null, "cityName": null, "districtName": null, "shopinfo": {"mid": "888888854410134", "good_flag": "2", "new_flag": "1", "short_name": "\u5149\u660e\u65b0\u9c9c\u5c4b", "short_name_pinyin": "guangmingxinxianwu", "status": null, "address": null, "name": null, "id": "31652"}, "mid": "888888854410134", "shopId": "31652", "netid": null, "province": 901, "district": 601, "zipcode": null, "telephone": "50702891", "posDate": null, "destineTel": null, "togoTel": null, "trafficWay": null, "signBuilding": null, "businessArea": null, "selfRoom": null, "businessTime": null, "stall": null, "consume": null, "serviceFei": null, "favourable": null, "shopMemo": null, "appraise": null, "website": null, "memo": null, "payTypes": "\u6749\u5fb7\u5361", "shopTypes": "\u4fbf\u5229\u5e97", "consumeTypes": null, "cookTypes": null, "orderNum": 1000, "card4no": null, "card4noAcc": null, "district2": 418, "searchScope": null, "status": 1, "address": "\u91d1\u53e3\u8def376\u53f7", "name": "\u5149\u660e\u65b0\u9c9c\u5c4b \u91d1\u53e3\u8def\u5e97", "id": 134412, "pageNo": 0, "pageCount": null, "pageSize": 10, "ids": null, "endTime": null, "startTime": null}], "pageLimit": 1710, "size": 10}