{"pageCount": 1095, "count": 10942, "pageNo": 170, "subShopInfo": {"cardNumFive": "", "isSupportYj": "", "cityName": null, "districtName": null, "shopinfo": {"mid": null, "good_flag": null, "new_flag": null, "short_name": null, "short_name_pinyin": null, "status": null, "address": "", "name": "", "id": null}, "mid": null, "shopId": null, "netid": null, "province": 901, "district": null, "zipcode": null, "telephone": null, "posDate": null, "destineTel": null, "togoTel": null, "trafficWay": null, "signBuilding": null, "businessArea": null, "selfRoom": null, "businessTime": null, "stall": null, "consume": null, "serviceFei": null, "favourable": null, "shopMemo": "1", "appraise": null, "website": null, "memo": null, "payTypes": "", "shopTypes": "", "consumeTypes": null, "cookTypes": null, "orderNum": null, "card4no": null, "card4noAcc": null, "district2": null, "searchScope": null, "status": null, "address": "", "name": null, "id": null, "pageNo": 169, "pageCount": null, "pageSize": 10, "ids": null, "endTime": null, "startTime": null}, "list": [{"cardNumFive": null, "isSupportYj": null, "cityName": null, "districtName": null, "shopinfo": {"mid": "888888854110131", "good_flag": null, "new_flag": null, "short_name": "\u5149\u660e\u4fbf\u5229", "short_name_pinyin": "guangmingbianli", "status": null, "address": null, "name": null, "id": "31651"}, "mid": "888888854110131", "shopId": "31651", "netid": null, "province": 901, "district": 601, "zipcode": null, "telephone": null, "posDate": null, "destineTel": null, "togoTel": null, "trafficWay": null, "signBuilding": null, "businessArea": null, "selfRoom": null, "businessTime": null, "stall": null, "consume": null, "serviceFei": null, "favourable": null, "shopMemo": null, "appraise": null, "website": null, "memo": null, "payTypes": "\u6749\u5fb7\u5361", "shopTypes": "\u4fbf\u5229\u5e97", "consumeTypes": null, "cookTypes": null, "orderNum": 1000, "card4no": null, "card4noAcc": null, "district2": 407, "searchScope": null, "status": 1, "address": "\u7709\u5dde\u8def70\u5f042\u53f7", "name": "\u5149\u660e\u4fbf\u5229 \u7709\u5dde\u4e8c\u5e97", "id": 175049, "pageNo": 0, "pageCount": null, "pageSize": 10, "ids": null, "endTime": null, "startTime": null}, {"cardNumFive": null, "isSupportYj": null, "cityName": null, "districtName": null, "shopinfo": {"mid": "888888854110131", "good_flag": null, "new_flag": null, "short_name": "\u5149\u660e\u4fbf\u5229", "short_name_pinyin": "guangmingbianli", "status": null, "address": null, "name": null, "id": "31651"}, "mid": "888888854110131", "shopId": "31651", "netid": null, "province": 901, "district": 601, "zipcode": null, "telephone": "50783983", "posDate": null, "destineTel": null, "togoTel": null, "trafficWay": null, "signBuilding": null, "businessArea": null, "selfRoom": null, "businessTime": null, "stall": null, "consume": null, "serviceFei": null, "favourable": null, "shopMemo": null, "appraise": null, "website": null, "memo": null, "payTypes": "\u6749\u5fb7\u5361", "shopTypes": "\u4fbf\u5229\u5e97", "consumeTypes": null, "cookTypes": null, "orderNum": 1000, "card4no": null, "card4noAcc": null, "district2": 418, "searchScope": null, "status": 1, "address": "\u660c\u91cc\u4e1c\u8def359\u53f7", "name": "\u5149\u660e\u4fbf\u5229 \u660c\u91cc\u5e97", "id": 175051, "pageNo": 0, "pageCount": null, "pageSize": 10, "ids": null, "endTime": null, "startTime": null}, {"cardNumFive": null, "isSupportYj": null, "cityName": null, "districtName": null, "shopinfo": {"mid": "888888854110131", "good_flag": null, "new_flag": null, "short_name": "\u5149\u660e\u4fbf\u5229", "short_name_pinyin": "guangmingbianli", "status": null, "address": null, "name": null, "id": "31651"}, "mid": "888888854110131", "shopId": "31651", "netid": null, "province": 901, "district": 601, "zipcode": null, "telephone": "65639055", "posDate": null, "destineTel": null, "togoTel": null, "trafficWay": null, "signBuilding": null, "businessArea": null, "selfRoom": null, "businessTime": null, "stall": null, "consume": null, "serviceFei": null, "favourable": null, "shopMemo": null, "appraise": null, "website": null, "memo": null, "payTypes": "\u6749\u5fb7\u5361", "shopTypes": "\u4fbf\u5229\u5e97", "consumeTypes": null, "cookTypes": null, "orderNum": 1000, "card4no": null, "card4noAcc": null, "district2": 407, "searchScope": null, "status": 1, "address": "\u6253\u864e\u5c71\u8def94-96\u53f7", "name": "\u5149\u660e\u4fbf\u5229 \u6253\u864e\u5c71\u5e97", "id": 175052, "pageNo": 0, "pageCount": null, "pageSize": 10, "ids": null, "endTime": null, "startTime": null}, {"cardNumFive": null, "isSupportYj": null, "cityName": null, "districtName": null, "shopinfo": {"mid": "888888854110131", "good_flag": null, "new_flag": null, "short_name": "\u5149\u660e\u4fbf\u5229", "short_name_pinyin": "guangmingbianli", "status": null, "address": null, "name": null, "id": "31651"}, "mid": "888888854110131", "shopId": "31651", "netid": null, "province": 901, "district": 601, "zipcode": null, "telephone": "58468162", "posDate": null, "destineTel": null, "togoTel": null, "trafficWay": null, "signBuilding": null, "businessArea": null, "selfRoom": null, "businessTime": null, "stall": null, "consume": null, "serviceFei": null, "favourable": null, "shopMemo": null, "appraise": null, "website": null, "memo": null, "payTypes": "\u6749\u5fb7\u5361", "shopTypes": "\u4fbf\u5229\u5e97", "consumeTypes": null, "cookTypes": null, "orderNum": 1000, "card4no": null, "card4noAcc": null, "district2": 418, "searchScope": null, "status": 1, "address": "\u6d66\u4e1c\u5927\u90532637\u53f7", "name": "\u5149\u660e\u4fbf\u5229 \u5927\u9053\u5e97", "id": 175053, "pageNo": 0, "pageCount": null, "pageSize": 10, "ids": null, "endTime": null, "startTime": null}, {"cardNumFive": null, "isSupportYj": null, "cityName": null, "districtName": null, "shopinfo": {"mid": "888888854110131", "good_flag": null, "new_flag": null, "short_name": "\u5149\u660e\u4fbf\u5229", "short_name_pinyin": "guangmingbianli", "status": null, "address": null, "name": null, "id": "31651"}, "mid": "888888854110131", "shopId": "31651", "netid": null, "province": 901, "district": 601, "zipcode": null, "telephone": "68732249", "posDate": null, "destineTel": null, "togoTel": null, "trafficWay": null, "signBuilding": null, "businessArea": null, "selfRoom": null, "businessTime": null, "stall": null, "consume": null, "serviceFei": null, "favourable": null, "shopMemo": null, "appraise": null, "website": null, "memo": null, "payTypes": "\u6749\u5fb7\u5361", "shopTypes": "\u4fbf\u5229\u5e97", "consumeTypes": null, "cookTypes": null, "orderNum": 1000, "card4no": null, "card4noAcc": null, "district2": 418, "searchScope": null, "status": 1, "address": "\u5ce8\u5c71\u8def191-193\u53f7", "name": "\u5149\u660e\u4fbf\u5229 \u5ce8\u5c71\u5e97", "id": 175054, "pageNo": 0, "pageCount": null, "pageSize": 10, "ids": null, "endTime": null, "startTime": null}, {"cardNumFive": null, "isSupportYj": null, "cityName": null, "districtName": null, "shopinfo": {"mid": "888888854110131", "good_flag": null, "new_flag": null, "short_name": "\u5149\u660e\u4fbf\u5229", "short_name_pinyin": "guangmingbianli", "status": null, "address": null, "name": null, "id": "31651"}, "mid": "888888854110131", "shopId": "31651", "netid": null, "province": 901, "district": 601, "zipcode": null, "telephone": "59183869", "posDate": null, "destineTel": null, "togoTel": null, "trafficWay": null, "signBuilding": null, "businessArea": null, "selfRoom": null, "businessTime": null, "stall": null, "consume": null, "serviceFei": null, "favourable": null, "shopMemo": null, "appraise": null, "website": null, "memo": null, "payTypes": "\u6749\u5fb7\u5361", "shopTypes": "\u4fbf\u5229\u5e97", "consumeTypes": null, "cookTypes": null, "orderNum": 1000, "card4no": null, "card4noAcc": null, "district2": 411, "searchScope": null, "status": 1, "address": "\u4e30\u5e84\u8def368\u53f7", "name": "\u5149\u660e\u4fbf\u5229 \u4e30\u5e84\u5e97", "id": 175055, "pageNo": 0, "pageCount": null, "pageSize": 10, "ids": null, "endTime": null, "startTime": null}, {"cardNumFive": null, "isSupportYj": null, "cityName": null, "districtName": null, "shopinfo": {"mid": "888888854110131", "good_flag": null, "new_flag": null, "short_name": "\u5149\u660e\u4fbf\u5229", "short_name_pinyin": "guangmingbianli", "status": null, "address": null, "name": null, "id": "31651"}, "mid": "888888854110131", "shopId": "31651", "netid": null, "province": 901, "district": 601, "zipcode": null, "telephone": "65403760", "posDate": null, "destineTel": null, "togoTel": null, "trafficWay": null, "signBuilding": null, "businessArea": null, "selfRoom": null, "businessTime": null, "stall": null, "consume": null, "serviceFei": null, "favourable": null, "shopMemo": null, "appraise": null, "website": null, "memo": null, "payTypes": "\u6749\u5fb7\u5361", "shopTypes": "\u4fbf\u5229\u5e97", "consumeTypes": null, "cookTypes": null, "orderNum": 1000, "card4no": null, "card4noAcc": null, "district2": 408, "searchScope": null, "status": 1, "address": "\u6d77\u4f26\u897f\u8def8\u53f7", "name": "\u5149\u660e\u4fbf\u5229 \u6d77\u4f26\u5e97", "id": 175056, "pageNo": 0, "pageCount": null, "pageSize": 10, "ids": null, "endTime": null, "startTime": null}, {"cardNumFive": null, "isSupportYj": null, "cityName": null, "districtName": null, "shopinfo": {"mid": "888888854110131", "good_flag": null, "new_flag": null, "short_name": "\u5149\u660e\u4fbf\u5229", "short_name_pinyin": "guangmingbianli", "status": null, "address": null, "name": null, "id": "31651"}, "mid": "888888854110131", "shopId": "31651", "netid": null, "province": 901, "district": 601, "zipcode": null, "telephone": "65180162", "posDate": null, "destineTel": null, "togoTel": null, "trafficWay": null, "signBuilding": null, "businessArea": null, "selfRoom": null, "businessTime": null, "stall": null, "consume": null, "serviceFei": null, "favourable": null, "shopMemo": null, "appraise": null, "website": null, "memo": null, "payTypes": "\u6749\u5fb7\u5361", "shopTypes": "\u4fbf\u5229\u5e97", "consumeTypes": null, "cookTypes": null, "orderNum": 1000, "card4no": null, "card4noAcc": null, "district2": 407, "searchScope": null, "status": 1, "address": "\u676d\u5dde\u8def847\u53f7", "name": "\u5149\u660e\u4fbf\u5229 \u676d\u5dde\u5e97", "id": 175057, "pageNo": 0, "pageCount": null, "pageSize": 10, "ids": null, "endTime": null, "startTime": null}, {"cardNumFive": null, "isSupportYj": null, "cityName": null, "districtName": null, "shopinfo": {"mid": "888888854110131", "good_flag": null, "new_flag": null, "short_name": "\u5149\u660e\u4fbf\u5229", "short_name_pinyin": "guangmingbianli", "status": null, "address": null, "name": null, "id": "31651"}, "mid": "888888854110131", "shopId": "31651", "netid": null, "province": 901, "district": 601, "zipcode": null, "telephone": "56636370", "posDate": null, "destineTel": null, "togoTel": null, "trafficWay": null, "signBuilding": null, "businessArea": null, "selfRoom": null, "businessTime": null, "stall": null, "consume": null, "serviceFei": null, "favourable": null, "shopMemo": null, "appraise": null, "website": null, "memo": null, "payTypes": "\u6749\u5fb7\u5361", "shopTypes": "\u4fbf\u5229\u5e97", "consumeTypes": null, "cookTypes": null, "orderNum": 1000, "card4no": null, "card4noAcc": null, "district2": 410, "searchScope": null, "status": 1, "address": "\u4e2d\u5174\u8def485\u53f7", "name": "\u5149\u660e\u4fbf\u5229 \u9e3f\u5174\u5e97", "id": 175058, "pageNo": 0, "pageCount": null, "pageSize": 10, "ids": null, "endTime": null, "startTime": null}, {"cardNumFive": null, "isSupportYj": null, "cityName": null, "districtName": null, "shopinfo": {"mid": "888888854110131", "good_flag": null, "new_flag": null, "short_name": "\u5149\u660e\u4fbf\u5229", "short_name_pinyin": "guangmingbianli", "status": null, "address": null, "name": null, "id": "31651"}, "mid": "888888854110131", "shopId": "31651", "netid": null, "province": 901, "district": 601, "zipcode": null, "telephone": "62040314", "posDate": null, "destineTel": null, "togoTel": null, "trafficWay": null, "signBuilding": null, "businessArea": null, "selfRoom": null, "businessTime": null, "stall": null, "consume": null, "serviceFei": null, "favourable": null, "shopMemo": null, "appraise": null, "website": null, "memo": null, "payTypes": "\u6749\u5fb7\u5361", "shopTypes": "\u4fbf\u5229\u5e97", "consumeTypes": null, "cookTypes": null, "orderNum": 1000, "card4no": null, "card4noAcc": null, "district2": 405, "searchScope": null, "status": 1, "address": "\u5c9a\u768b\u897f\u8def222\u53f7", "name": "\u5149\u660e\u4fbf\u5229 \u5c9a\u768b\u897f\u5e97", "id": 175059, "pageNo": 0, "pageCount": null, "pageSize": 10, "ids": null, "endTime": null, "startTime": null}], "pageLimit": 1690, "size": 10}