{"pageCount": 1095, "count": 10942, "pageNo": 176, "subShopInfo": {"cardNumFive": "", "isSupportYj": "", "cityName": null, "districtName": null, "shopinfo": {"mid": null, "good_flag": null, "new_flag": null, "short_name": null, "short_name_pinyin": null, "status": null, "address": "", "name": "", "id": null}, "mid": null, "shopId": null, "netid": null, "province": 901, "district": null, "zipcode": null, "telephone": null, "posDate": null, "destineTel": null, "togoTel": null, "trafficWay": null, "signBuilding": null, "businessArea": null, "selfRoom": null, "businessTime": null, "stall": null, "consume": null, "serviceFei": null, "favourable": null, "shopMemo": "1", "appraise": null, "website": null, "memo": null, "payTypes": "", "shopTypes": "", "consumeTypes": null, "cookTypes": null, "orderNum": null, "card4no": null, "card4noAcc": null, "district2": null, "searchScope": null, "status": null, "address": "", "name": null, "id": null, "pageNo": 175, "pageCount": null, "pageSize": 10, "ids": null, "endTime": null, "startTime": null}, "list": [{"cardNumFive": null, "isSupportYj": null, "cityName": null, "districtName": null, "shopinfo": {"mid": "888888859120002", "good_flag": "2", "new_flag": "2", "short_name": "\u56fd\u5927\u4e0a\u8679", "short_name_pinyin": "guodashanghong", "status": null, "address": null, "name": null, "id": "31672"}, "mid": "888888859120002", "shopId": "31672", "netid": null, "province": 901, "district": 601, "zipcode": null, "telephone": "54724824", "posDate": "20070823", "destineTel": null, "togoTel": null, "trafficWay": "\u5730\u94c1\u4e94\u53f7\u7ebf \u8398\u8377\u7ebf", "signBuilding": "\u6606\u9633\u8def\u53e3", "businessArea": null, "selfRoom": null, "businessTime": null, "stall": null, "consume": null, "serviceFei": null, "favourable": null, "shopMemo": null, "appraise": null, "website": null, "memo": null, "payTypes": "\u6749\u5fb7\u5361", "shopTypes": "\u836f\u5e97", "consumeTypes": null, "cookTypes": null, "orderNum": 1000, "card4no": null, "card4noAcc": null, "district2": 409, "searchScope": null, "status": 1, "address": "\u6606\u9633\u8def360\u53f7", "name": "\u56fd\u5927\u4e0a\u8679 \u90bb\u677e\u5e97", "id": 134764, "pageNo": 0, "pageCount": null, "pageSize": 10, "ids": null, "endTime": null, "startTime": null}, {"cardNumFive": null, "isSupportYj": null, "cityName": null, "districtName": null, "shopinfo": {"mid": "888888859120002", "good_flag": "2", "new_flag": "2", "short_name": "\u56fd\u5927\u4e0a\u8679", "short_name_pinyin": "guodashanghong", "status": null, "address": null, "name": null, "id": "31672"}, "mid": "888888859120002", "shopId": "31672", "netid": null, "province": 901, "district": 601, "zipcode": null, "telephone": "54800126", "posDate": "20070823", "destineTel": null, "togoTel": null, "trafficWay": "\u516c\u4ea4120 953", "signBuilding": null, "businessArea": null, "selfRoom": null, "businessTime": null, "stall": null, "consume": null, "serviceFei": null, "favourable": null, "shopMemo": null, "appraise": null, "website": null, "memo": null, "payTypes": "\u6749\u5fb7\u5361", "shopTypes": "\u836f\u5e97", "consumeTypes": null, "cookTypes": null, "orderNum": 1000, "card4no": null, "card4noAcc": null, "district2": 403, "searchScope": null, "status": 1, "address": "\u4e1c\u5170\u8def137\u53f7", "name": "\u56fd\u5927\u4e0a\u8679 \u9647\u5bff\u5e97", "id": 134766, "pageNo": 0, "pageCount": null, "pageSize": 10, "ids": null, "endTime": null, "startTime": null}, {"cardNumFive": null, "isSupportYj": null, "cityName": null, "districtName": null, "shopinfo": {"mid": "888888859120002", "good_flag": "2", "new_flag": "2", "short_name": "\u56fd\u5927\u4e0a\u8679", "short_name_pinyin": "guodashanghong", "status": null, "address": null, "name": null, "id": "31672"}, "mid": "888888859120002", "shopId": "31672", "netid": null, "province": 901, "district": 601, "zipcode": null, "telephone": "64911469", "posDate": "20070718", "destineTel": null, "togoTel": null, "trafficWay": "\u9c81\u8398\u7ebf", "signBuilding": null, "businessArea": null, "selfRoom": null, "businessTime": null, "stall": null, "consume": null, "serviceFei": null, "favourable": null, "shopMemo": null, "appraise": null, "website": null, "memo": null, "payTypes": "\u6749\u5fb7\u5361", "shopTypes": "\u836f\u5e97", "consumeTypes": null, "cookTypes": null, "orderNum": 1000, "card4no": null, "card4noAcc": null, "district2": 418, "searchScope": null, "status": 1, "address": "\u9c81\u6c47\u9547\u95f8\u822a\u8def2673\u53f7", "name": "\u56fd\u5927\u4e0a\u8679 \u9c81\u6c47\u5e97", "id": 134767, "pageNo": 0, "pageCount": null, "pageSize": 10, "ids": null, "endTime": null, "startTime": null}, {"cardNumFive": null, "isSupportYj": null, "cityName": null, "districtName": null, "shopinfo": {"mid": "888888859120002", "good_flag": "2", "new_flag": "2", "short_name": "\u56fd\u5927\u4e0a\u8679", "short_name_pinyin": "guodashanghong", "status": null, "address": null, "name": null, "id": "31672"}, "mid": "888888859120002", "shopId": "31672", "netid": null, "province": 901, "district": 601, "zipcode": null, "telephone": "64091590", "posDate": "20070823", "destineTel": null, "togoTel": null, "trafficWay": null, "signBuilding": null, "businessArea": null, "selfRoom": null, "businessTime": null, "stall": null, "consume": null, "serviceFei": null, "favourable": null, "shopMemo": null, "appraise": null, "website": null, "memo": null, "payTypes": "\u6749\u5fb7\u5361", "shopTypes": "\u836f\u5e97", "consumeTypes": null, "cookTypes": null, "orderNum": 1000, "card4no": null, "card4noAcc": null, "district2": 409, "searchScope": null, "status": 1, "address": "\u9a6c\u6865\u9547\u897f\u8857", "name": "\u56fd\u5927\u4e0a\u8679 \u9a6c\u6865\u5e97", "id": 134768, "pageNo": 0, "pageCount": null, "pageSize": 10, "ids": null, "endTime": null, "startTime": null}, {"cardNumFive": null, "isSupportYj": null, "cityName": null, "districtName": null, "shopinfo": {"mid": "888888859120002", "good_flag": "2", "new_flag": "2", "short_name": "\u56fd\u5927\u4e0a\u8679", "short_name_pinyin": "guodashanghong", "status": null, "address": null, "name": null, "id": "31672"}, "mid": "888888859120002", "shopId": "31672", "netid": null, "province": 901, "district": 601, "zipcode": "200237", "telephone": "64102796", "posDate": "20070314", "destineTel": "64102796", "togoTel": "64102796", "trafficWay": "\u516c\u4ea4218 50 704", "signBuilding": null, "businessArea": "200~1000\u5e73\u7c73", "selfRoom": "\u65e0", "businessTime": "7:30~20:00", "stall": "\u65e0", "consume": null, "serviceFei": null, "favourable": null, "shopMemo": null, "appraise": null, "website": null, "memo": null, "payTypes": "\u6749\u5fb7\u5361", "shopTypes": "\u836f\u5e97", "consumeTypes": null, "cookTypes": null, "orderNum": 1000, "card4no": null, "card4noAcc": null, "district2": 409, "searchScope": null, "status": 1, "address": "\u6885\u9647\u4e00\u675128-30\u53f7", "name": "\u56fd\u5927\u4e0a\u8679 \u6885\u9647\u5e97", "id": 134769, "pageNo": 0, "pageCount": null, "pageSize": 10, "ids": null, "endTime": null, "startTime": null}, {"cardNumFive": null, "isSupportYj": null, "cityName": null, "districtName": null, "shopinfo": {"mid": "888888859120002", "good_flag": "2", "new_flag": "2", "short_name": "\u56fd\u5927\u4e0a\u8679", "short_name_pinyin": "guodashanghong", "status": null, "address": null, "name": null, "id": "31672"}, "mid": "888888859120002", "shopId": "31672", "netid": null, "province": 901, "district": 601, "zipcode": null, "telephone": "58885431", "posDate": "20090108", "destineTel": null, "togoTel": null, "trafficWay": "\u516c\u4ea4978 \u65bd\u5d02\u4e13\u7ebf 610", "signBuilding": null, "businessArea": null, "selfRoom": null, "businessTime": null, "stall": null, "consume": null, "serviceFei": null, "favourable": null, "shopMemo": null, "appraise": null, "website": null, "memo": null, "payTypes": "\u6749\u5fb7\u5361", "shopTypes": "\u836f\u5e97", "consumeTypes": null, "cookTypes": null, "orderNum": 1000, "card4no": null, "card4noAcc": null, "district2": 406, "searchScope": null, "status": 1, "address": "\u6816\u971e\u8def288\u53f7", "name": "\u56fd\u5927\u4e0a\u8679 \u6885\u56ed\u5e97", "id": 134770, "pageNo": 0, "pageCount": null, "pageSize": 10, "ids": null, "endTime": null, "startTime": null}, {"cardNumFive": null, "isSupportYj": null, "cityName": null, "districtName": null, "shopinfo": {"mid": "888888859120126", "good_flag": "2", "new_flag": "2", "short_name": "\u56fd\u5927\u4e0a\u8679", "short_name_pinyin": "guodashanghong", "status": null, "address": null, "name": null, "id": "31673"}, "mid": "888888859120126", "shopId": "31673", "netid": null, "province": 901, "district": 601, "zipcode": null, "telephone": "64619108", "posDate": "20080820", "destineTel": null, "togoTel": null, "trafficWay": "\u5730\u94c1\u4e5d\u53f7\u7ebf\u4e03\u5b9d\u8def\u7ad9", "signBuilding": null, "businessArea": null, "selfRoom": null, "businessTime": "8:00~21:00", "stall": "\u65e0", "consume": null, "serviceFei": null, "favourable": null, "shopMemo": null, "appraise": null, "website": null, "memo": null, "payTypes": "\u6749\u5fb7\u5361", "shopTypes": "\u836f\u5e97", "consumeTypes": null, "cookTypes": null, "orderNum": 1000, "card4no": null, "card4noAcc": null, "district2": 409, "searchScope": null, "status": 1, "address": "\u4e03\u8398\u8def\u4f73\u5b9d\u4e00\u67511-51\u53f7", "name": "\u56fd\u5927\u4e0a\u8679 \u4e03\u5b9d\u5e97", "id": 134773, "pageNo": 0, "pageCount": null, "pageSize": 10, "ids": null, "endTime": null, "startTime": null}, {"cardNumFive": null, "isSupportYj": null, "cityName": null, "districtName": null, "shopinfo": {"mid": "888888859120002", "good_flag": "2", "new_flag": "2", "short_name": "\u56fd\u5927\u4e0a\u8679", "short_name_pinyin": "guodashanghong", "status": null, "address": null, "name": null, "id": "31672"}, "mid": "888888859120002", "shopId": "31672", "netid": null, "province": 901, "district": 601, "zipcode": null, "telephone": "64781749", "posDate": "20070809", "destineTel": null, "togoTel": null, "trafficWay": "\u516c\u4ea492 953", "signBuilding": null, "businessArea": "200~1000\u5e73\u7c73", "selfRoom": "\u65e0", "businessTime": "7:30~20:00", "stall": null, "consume": null, "serviceFei": null, "favourable": null, "shopMemo": null, "appraise": null, "website": null, "memo": null, "payTypes": "\u6749\u5fb7\u5361", "shopTypes": "\u836f\u5e97", "consumeTypes": null, "cookTypes": null, "orderNum": 1000, "card4no": null, "card4noAcc": null, "district2": 409, "searchScope": null, "status": 1, "address": "\u9752\u5e74\u8def294-296\u53f7", "name": "\u56fd\u5927\u4e0a\u8679 \u4e0a\u8679\u5e97", "id": 134774, "pageNo": 0, "pageCount": null, "pageSize": 10, "ids": null, "endTime": null, "startTime": null}, {"cardNumFive": null, "isSupportYj": null, "cityName": null, "districtName": null, "shopinfo": {"mid": "888888859120002", "good_flag": "2", "new_flag": "2", "short_name": "\u56fd\u5927\u4e0a\u8679", "short_name_pinyin": "guodashanghong", "status": null, "address": null, "name": null, "id": "31672"}, "mid": "888888859120002", "shopId": "31672", "netid": null, "province": 901, "district": 601, "zipcode": null, "telephone": "54422189", "posDate": "20071119", "destineTel": null, "togoTel": null, "trafficWay": "\u516c\u4ea4712 747 \u5f90\u95f5\u7ebf", "signBuilding": null, "businessArea": null, "selfRoom": null, "businessTime": null, "stall": null, "consume": null, "serviceFei": null, "favourable": null, "shopMemo": null, "appraise": null, "website": null, "memo": null, "payTypes": "\u6749\u5fb7\u5361", "shopTypes": "\u836f\u5e97", "consumeTypes": null, "cookTypes": null, "orderNum": 1000, "card4no": null, "card4noAcc": null, "district2": 409, "searchScope": null, "status": 1, "address": "\u7533\u5317\u8def300-302\u53f7", "name": "\u56fd\u5927\u4e0a\u8679 \u7533\u5317\u5e97", "id": 134775, "pageNo": 0, "pageCount": null, "pageSize": 10, "ids": null, "endTime": null, "startTime": null}, {"cardNumFive": null, "isSupportYj": null, "cityName": null, "districtName": null, "shopinfo": {"mid": "888888859120002", "good_flag": "2", "new_flag": "2", "short_name": "\u56fd\u5927\u4e0a\u8679", "short_name_pinyin": "guodashanghong", "status": null, "address": null, "name": null, "id": "31672"}, "mid": "888888859120002", "shopId": "31672", "netid": null, "province": 901, "district": 601, "zipcode": null, "telephone": "64611142", "posDate": "20090108", "destineTel": null, "togoTel": null, "trafficWay": "\u516c\u4ea4\u53e4\u534e\u7ebf 91 \u6caa\u9752\u4e13\u7ebf", "signBuilding": null, "businessArea": null, "selfRoom": null, "businessTime": null, "stall": null, "consume": null, "serviceFei": null, "favourable": null, "shopMemo": null, "appraise": null, "website": null, "memo": null, "payTypes": "\u6749\u5fb7\u5361", "shopTypes": "\u836f\u5e97", "consumeTypes": null, "cookTypes": null, "orderNum": 1000, "card4no": null, "card4noAcc": null, "district2": 409, "searchScope": null, "status": 1, "address": "\u5434\u5b9d\u8def1011\u53f7", "name": "\u56fd\u5927\u4e0a\u8679 \u7533\u9f99\u5e97", "id": 134776, "pageNo": 0, "pageCount": null, "pageSize": 10, "ids": null, "endTime": null, "startTime": null}], "pageLimit": 1750, "size": 10}