{"pageCount": 1095, "count": 10942, "pageNo": 185, "subShopInfo": {"cardNumFive": "", "isSupportYj": "", "cityName": null, "districtName": null, "shopinfo": {"mid": null, "good_flag": null, "new_flag": null, "short_name": null, "short_name_pinyin": null, "status": null, "address": "", "name": "", "id": null}, "mid": null, "shopId": null, "netid": null, "province": 901, "district": null, "zipcode": null, "telephone": null, "posDate": null, "destineTel": null, "togoTel": null, "trafficWay": null, "signBuilding": null, "businessArea": null, "selfRoom": null, "businessTime": null, "stall": null, "consume": null, "serviceFei": null, "favourable": null, "shopMemo": "1", "appraise": null, "website": null, "memo": null, "payTypes": "", "shopTypes": "", "consumeTypes": null, "cookTypes": null, "orderNum": null, "card4no": null, "card4noAcc": null, "district2": null, "searchScope": null, "status": null, "address": "", "name": null, "id": null, "pageNo": 184, "pageCount": null, "pageSize": 10, "ids": null, "endTime": null, "startTime": null}, "list": [{"cardNumFive": null, "isSupportYj": null, "cityName": null, "districtName": null, "shopinfo": {"mid": "888888859120026", "good_flag": null, "new_flag": null, "short_name": "\u56fd\u5927\u836f\u623f", "short_name_pinyin": "guodayaofang", "status": null, "address": null, "name": null, "id": "31674"}, "mid": "888888859120026", "shopId": "31674", "netid": null, "province": 901, "district": 601, "zipcode": null, "telephone": "58391794", "posDate": "20070604", "destineTel": null, "togoTel": null, "trafficWay": "\u516c\u4ea4782", "signBuilding": null, "businessArea": "200~1000\u5e73\u7c73", "selfRoom": "\u65e0", "businessTime": "24\u5c0f\u65f6", "stall": "\u65e0", "consume": null, "serviceFei": null, "favourable": null, "shopMemo": null, "appraise": null, "website": null, "memo": null, "payTypes": "\u6749\u5fb7\u5361", "shopTypes": "\u836f\u5e97", "consumeTypes": null, "cookTypes": null, "orderNum": 1000, "card4no": null, "card4noAcc": null, "district2": 418, "searchScope": null, "status": 1, "address": "\u4e25\u6865\u8def66\u53f7", "name": "\u56fd\u5927\u836f\u623f \u4e25\u6865\u5e97", "id": 134874, "pageNo": 0, "pageCount": null, "pageSize": 10, "ids": null, "endTime": null, "startTime": null}, {"cardNumFive": null, "isSupportYj": null, "cityName": null, "districtName": null, "shopinfo": {"mid": "888888859120026", "good_flag": null, "new_flag": null, "short_name": "\u56fd\u5927\u836f\u623f", "short_name_pinyin": "guodayaofang", "status": null, "address": null, "name": null, "id": "31674"}, "mid": "888888859120026", "shopId": "31674", "netid": null, "province": 901, "district": 601, "zipcode": null, "telephone": "58413032", "posDate": "20070927", "destineTel": null, "togoTel": null, "trafficWay": "\u516c\u4ea4572 780 795", "signBuilding": null, "businessArea": null, "selfRoom": null, "businessTime": null, "stall": null, "consume": null, "serviceFei": null, "favourable": null, "shopMemo": null, "appraise": null, "website": null, "memo": null, "payTypes": "\u6749\u5fb7\u5361", "shopTypes": "\u836f\u5e97", "consumeTypes": null, "cookTypes": null, "orderNum": 1000, "card4no": null, "card4noAcc": null, "district2": 418, "searchScope": null, "status": 1, "address": "\u6c38\u6cf0\u8def530\u53f7", "name": "\u56fd\u5927\u836f\u623f \u6c38\u6cf0\u5e97", "id": 134876, "pageNo": 0, "pageCount": null, "pageSize": 10, "ids": null, "endTime": null, "startTime": null}, {"cardNumFive": null, "isSupportYj": null, "cityName": null, "districtName": null, "shopinfo": {"mid": "888888859120026", "good_flag": null, "new_flag": null, "short_name": "\u56fd\u5927\u836f\u623f", "short_name_pinyin": "guodayaofang", "status": null, "address": null, "name": null, "id": "31674"}, "mid": "888888859120026", "shopId": "31674", "netid": null, "province": 901, "district": 601, "zipcode": null, "telephone": null, "posDate": null, "destineTel": null, "togoTel": null, "trafficWay": null, "signBuilding": null, "businessArea": null, "selfRoom": null, "businessTime": null, "stall": null, "consume": null, "serviceFei": null, "favourable": null, "shopMemo": null, "appraise": null, "website": null, "memo": null, "payTypes": "\u6749\u5fb7\u5361", "shopTypes": "\u836f\u5e97", "consumeTypes": null, "cookTypes": null, "orderNum": 1000, "card4no": null, "card4noAcc": null, "district2": 418, "searchScope": null, "status": 1, "address": "\u5fa1\u9752\u8def1027\u53f7", "name": "\u56fd\u5927\u836f\u623f \u5fa1\u9752\u5e97", "id": 134877, "pageNo": 0, "pageCount": null, "pageSize": 10, "ids": null, "endTime": null, "startTime": null}, {"cardNumFive": null, "isSupportYj": null, "cityName": null, "districtName": null, "shopinfo": {"mid": "888888859120026", "good_flag": null, "new_flag": null, "short_name": "\u56fd\u5927\u836f\u623f", "short_name_pinyin": "guodayaofang", "status": null, "address": null, "name": null, "id": "31674"}, "mid": "888888859120026", "shopId": "31674", "netid": null, "province": 901, "district": 601, "zipcode": null, "telephone": "58363241", "posDate": "20070929", "destineTel": null, "togoTel": null, "trafficWay": "\u516c\u4ea4584 451 938", "signBuilding": null, "businessArea": null, "selfRoom": null, "businessTime": null, "stall": null, "consume": null, "serviceFei": null, "favourable": null, "shopMemo": null, "appraise": null, "website": null, "memo": null, "payTypes": "\u6749\u5fb7\u5361", "shopTypes": "\u836f\u5e97", "consumeTypes": null, "cookTypes": null, "orderNum": 1000, "card4no": null, "card4noAcc": null, "district2": 418, "searchScope": null, "status": 1, "address": "\u5f20\u6768\u8def501\u53f72\u697c", "name": "\u56fd\u5927\u836f\u623f \u5f20\u6768\u5e97", "id": 134878, "pageNo": 0, "pageCount": null, "pageSize": 10, "ids": null, "endTime": null, "startTime": null}, {"cardNumFive": null, "isSupportYj": null, "cityName": null, "districtName": null, "shopinfo": {"mid": "888888859120026", "good_flag": null, "new_flag": null, "short_name": "\u56fd\u5927\u836f\u623f", "short_name_pinyin": "guodayaofang", "status": null, "address": null, "name": null, "id": "31674"}, "mid": "888888859120026", "shopId": "31674", "netid": null, "province": 901, "district": 601, "zipcode": null, "telephone": "66552892", "posDate": null, "destineTel": null, "togoTel": null, "trafficWay": "105\u300101\u3001768", "signBuilding": null, "businessArea": null, "selfRoom": null, "businessTime": null, "stall": null, "consume": null, "serviceFei": null, "favourable": null, "shopMemo": null, "appraise": null, "website": null, "memo": null, "payTypes": "\u6749\u5fb7\u5361", "shopTypes": "\u836f\u5e97", "consumeTypes": null, "cookTypes": null, "orderNum": 1000, "card4no": null, "card4noAcc": null, "district2": 405, "searchScope": null, "status": 1, "address": "\u6b66\u5b81\u8def955\u5f0430\u53f7", "name": "\u56fd\u5927\u836f\u623f \u4e2d\u5b81\u5e97", "id": 134879, "pageNo": 0, "pageCount": null, "pageSize": 10, "ids": null, "endTime": null, "startTime": null}, {"cardNumFive": null, "isSupportYj": null, "cityName": null, "districtName": null, "shopinfo": {"mid": "888888859120026", "good_flag": null, "new_flag": null, "short_name": "\u56fd\u5927\u836f\u623f", "short_name_pinyin": "guodayaofang", "status": null, "address": null, "name": null, "id": "31674"}, "mid": "888888859120026", "shopId": "31674", "netid": null, "province": 901, "district": 601, "zipcode": null, "telephone": "66552892", "posDate": "200909", "destineTel": null, "togoTel": null, "trafficWay": "\u516c\u4ea4808\u3001224", "signBuilding": null, "businessArea": null, "selfRoom": null, "businessTime": null, "stall": null, "consume": null, "serviceFei": null, "favourable": null, "shopMemo": null, "appraise": null, "website": null, "memo": null, "payTypes": "\u6749\u5fb7\u5361", "shopTypes": "\u836f\u5e97", "consumeTypes": null, "cookTypes": null, "orderNum": 1000, "card4no": null, "card4noAcc": null, "district2": 406, "searchScope": null, "status": 1, "address": "\u4e2d\u5c71\u897f\u8def1277\u53f71-116\u53f7", "name": "\u56fd\u5927\u836f\u623f \u4e2d\u5c71\u897f\u8def\u5e97", "id": 134880, "pageNo": 0, "pageCount": null, "pageSize": 10, "ids": null, "endTime": null, "startTime": null}, {"cardNumFive": null, "isSupportYj": null, "cityName": null, "districtName": null, "shopinfo": {"mid": "888888859120026", "good_flag": null, "new_flag": null, "short_name": "\u56fd\u5927\u836f\u623f", "short_name_pinyin": "guodayaofang", "status": null, "address": null, "name": null, "id": "31674"}, "mid": "888888859120026", "shopId": "31674", "netid": null, "province": 901, "district": 601, "zipcode": null, "telephone": "33776421", "posDate": "20070927", "destineTel": null, "togoTel": null, "trafficWay": "\u516c\u4ea4145 19 870", "signBuilding": null, "businessArea": null, "selfRoom": null, "businessTime": null, "stall": null, "consume": null, "serviceFei": null, "favourable": null, "shopMemo": null, "appraise": null, "website": null, "memo": null, "payTypes": "\u6749\u5fb7\u5361", "shopTypes": "\u836f\u5e97", "consumeTypes": null, "cookTypes": null, "orderNum": 1000, "card4no": null, "card4noAcc": null, "district2": 407, "searchScope": null, "status": 1, "address": "\u5468\u5bb6\u5634\u8def2289\u53f7", "name": "\u56fd\u5927\u836f\u623f \u5468\u5bb6\u5634\u8def\u5e97", "id": 134881, "pageNo": 0, "pageCount": null, "pageSize": 10, "ids": null, "endTime": null, "startTime": null}, {"cardNumFive": null, "isSupportYj": null, "cityName": null, "districtName": null, "shopinfo": {"mid": "888888859120026", "good_flag": null, "new_flag": null, "short_name": "\u56fd\u5927\u836f\u623f", "short_name_pinyin": "guodayaofang", "status": null, "address": null, "name": null, "id": "31674"}, "mid": "888888859120026", "shopId": "31674", "netid": null, "province": 901, "district": 601, "zipcode": null, "telephone": "62067955", "posDate": "20071009", "destineTel": null, "togoTel": null, "trafficWay": "\u516c\u4ea4754 838 \u65c5\u6e386A\u7ebf", "signBuilding": null, "businessArea": null, "selfRoom": null, "businessTime": null, "stall": null, "consume": null, "serviceFei": null, "favourable": null, "shopMemo": null, "appraise": null, "website": null, "memo": null, "payTypes": "\u6749\u5fb7\u5361", "shopTypes": "\u836f\u5e97", "consumeTypes": null, "cookTypes": null, "orderNum": 1000, "card4no": null, "card4noAcc": null, "district2": 405, "searchScope": null, "status": 1, "address": "\u5b50\u6d32\u8def689\u53f7", "name": "\u56fd\u5927\u836f\u623f \u5b50\u6d32\u5e97", "id": 134882, "pageNo": 0, "pageCount": null, "pageSize": 10, "ids": null, "endTime": null, "startTime": null}, {"cardNumFive": null, "isSupportYj": null, "cityName": null, "districtName": null, "shopinfo": {"mid": "888888859120026", "good_flag": null, "new_flag": null, "short_name": "\u56fd\u5927\u836f\u623f", "short_name_pinyin": "guodayaofang", "status": null, "address": null, "name": null, "id": "36200"}, "mid": "888888859120026", "shopId": "36200", "netid": null, "province": 901, "district": 601, "zipcode": null, "telephone": "52668628", "posDate": "20100811", "destineTel": null, "togoTel": null, "trafficWay": null, "signBuilding": null, "businessArea": null, "selfRoom": null, "businessTime": null, "stall": null, "consume": null, "serviceFei": null, "favourable": null, "shopMemo": null, "appraise": null, "website": null, "memo": null, "payTypes": "\u6749\u5fb7\u5361", "shopTypes": "\u836f\u623f", "consumeTypes": null, "cookTypes": null, "orderNum": 1000, "card4no": null, "card4noAcc": null, "district2": 416, "searchScope": null, "status": 1, "address": "\u5171\u548c\u65b0\u8def4703\u5f04126\u53f7\u4e19", "name": "\u56fd\u5927\u836f\u623f \u5171\u548c\u65b0\u8def\u5e97", "id": 150787, "pageNo": 0, "pageCount": null, "pageSize": 10, "ids": null, "endTime": null, "startTime": null}, {"cardNumFive": null, "isSupportYj": null, "cityName": null, "districtName": null, "shopinfo": {"mid": "888888859120026", "good_flag": null, "new_flag": null, "short_name": "\u56fd\u5927\u836f\u623f", "short_name_pinyin": "guodayaofang", "status": null, "address": null, "name": null, "id": "36200"}, "mid": "888888859120026", "shopId": "36200", "netid": null, "province": 901, "district": 601, "zipcode": null, "telephone": "24286562", "posDate": "20100816", "destineTel": null, "togoTel": null, "trafficWay": null, "signBuilding": null, "businessArea": null, "selfRoom": null, "businessTime": null, "stall": null, "consume": null, "serviceFei": null, "favourable": null, "shopMemo": null, "appraise": null, "website": null, "memo": null, "payTypes": "\u6749\u5fb7\u5361", "shopTypes": "\u836f\u5e97", "consumeTypes": null, "cookTypes": null, "orderNum": 1000, "card4no": null, "card4noAcc": null, "district2": 409, "searchScope": null, "status": 1, "address": "\u95f5\u884c\u533a\u7533\u6606\u8def1500\u53f7CF304C\u5ba4", "name": "\u56fd\u5927\u836f\u623f \u7533\u6606\u8def\u5e97", "id": 150944, "pageNo": 0, "pageCount": null, "pageSize": 10, "ids": null, "endTime": null, "startTime": null}], "pageLimit": 1840, "size": 10}