{"pageCount": 1095, "count": 10942, "pageNo": 186, "subShopInfo": {"cardNumFive": "", "isSupportYj": "", "cityName": null, "districtName": null, "shopinfo": {"mid": null, "good_flag": null, "new_flag": null, "short_name": null, "short_name_pinyin": null, "status": null, "address": "", "name": "", "id": null}, "mid": null, "shopId": null, "netid": null, "province": 901, "district": null, "zipcode": null, "telephone": null, "posDate": null, "destineTel": null, "togoTel": null, "trafficWay": null, "signBuilding": null, "businessArea": null, "selfRoom": null, "businessTime": null, "stall": null, "consume": null, "serviceFei": null, "favourable": null, "shopMemo": "1", "appraise": null, "website": null, "memo": null, "payTypes": "", "shopTypes": "", "consumeTypes": null, "cookTypes": null, "orderNum": null, "card4no": null, "card4noAcc": null, "district2": null, "searchScope": null, "status": null, "address": "", "name": null, "id": null, "pageNo": 185, "pageCount": null, "pageSize": 10, "ids": null, "endTime": null, "startTime": null}, "list": [{"cardNumFive": null, "isSupportYj": null, "cityName": null, "districtName": null, "shopinfo": {"mid": "888888859120026", "good_flag": null, "new_flag": null, "short_name": "\u56fd\u5927\u836f\u623f", "short_name_pinyin": "guodayaofang", "status": null, "address": null, "name": null, "id": "39228"}, "mid": "888888859120026", "shopId": "39228", "netid": null, "province": 901, "district": 601, "zipcode": null, "telephone": null, "posDate": null, "destineTel": null, "togoTel": null, "trafficWay": null, "signBuilding": null, "businessArea": null, "selfRoom": null, "businessTime": null, "stall": null, "consume": null, "serviceFei": null, "favourable": null, "shopMemo": null, "appraise": null, "website": null, "memo": null, "payTypes": "\u6749\u5fb7\u5361", "shopTypes": "\u836f\u5e97", "consumeTypes": null, "cookTypes": null, "orderNum": 1000, "card4no": null, "card4noAcc": null, "district2": 418, "searchScope": null, "status": 1, "address": "\u4e66\u9662\u9547\u9996\u5584\u8857609\u53f71\u697c", "name": "\u56fd\u5927\u836f\u623f \u9996\u5584\u8857\u5e97", "id": 167383, "pageNo": 0, "pageCount": null, "pageSize": 10, "ids": null, "endTime": null, "startTime": null}, {"cardNumFive": null, "isSupportYj": null, "cityName": null, "districtName": null, "shopinfo": {"mid": "888888859120026", "good_flag": null, "new_flag": null, "short_name": "\u56fd\u5927\u836f\u623f", "short_name_pinyin": "guodayaofang", "status": null, "address": null, "name": null, "id": "39228"}, "mid": "888888859120026", "shopId": "39228", "netid": null, "province": 901, "district": 601, "zipcode": null, "telephone": null, "posDate": null, "destineTel": null, "togoTel": null, "trafficWay": null, "signBuilding": null, "businessArea": null, "selfRoom": null, "businessTime": null, "stall": null, "consume": null, "serviceFei": null, "favourable": null, "shopMemo": null, "appraise": null, "website": null, "memo": null, "payTypes": "\u6749\u5fb7\u5361", "shopTypes": "\u836f\u5e97", "consumeTypes": null, "cookTypes": null, "orderNum": 1000, "card4no": null, "card4noAcc": null, "district2": 405, "searchScope": null, "status": 1, "address": "\u6885\u5ddd\u8def257\u53f7", "name": "\u56fd\u5927\u836f\u623f \u6885\u5ddd\u4e8c\u5e97", "id": 167384, "pageNo": 0, "pageCount": null, "pageSize": 10, "ids": null, "endTime": null, "startTime": null}, {"cardNumFive": null, "isSupportYj": null, "cityName": null, "districtName": null, "shopinfo": {"mid": "888888859120026", "good_flag": null, "new_flag": null, "short_name": "\u56fd\u5927\u836f\u623f", "short_name_pinyin": "guodayaofang", "status": null, "address": null, "name": null, "id": "39228"}, "mid": "888888859120026", "shopId": "39228", "netid": null, "province": 901, "district": 601, "zipcode": null, "telephone": null, "posDate": null, "destineTel": null, "togoTel": null, "trafficWay": null, "signBuilding": null, "businessArea": null, "selfRoom": null, "businessTime": null, "stall": null, "consume": null, "serviceFei": null, "favourable": null, "shopMemo": null, "appraise": null, "website": null, "memo": null, "payTypes": "\u6749\u5fb7\u5361", "shopTypes": "\u836f\u5e97", "consumeTypes": null, "cookTypes": null, "orderNum": 1000, "card4no": null, "card4noAcc": null, "district2": 408, "searchScope": null, "status": 1, "address": "\u66f2\u9633\u8def102\u53f7", "name": "\u56fd\u5927\u836f\u623f \u66f2\u9633\u8def\u5e97", "id": 167386, "pageNo": 0, "pageCount": null, "pageSize": 10, "ids": null, "endTime": null, "startTime": null}, {"cardNumFive": null, "isSupportYj": null, "cityName": null, "districtName": null, "shopinfo": {"mid": "888888859120026", "good_flag": null, "new_flag": null, "short_name": "\u56fd\u5927\u836f\u623f", "short_name_pinyin": "guodayaofang", "status": null, "address": null, "name": null, "id": "39228"}, "mid": "888888859120026", "shopId": "39228", "netid": null, "province": 901, "district": 601, "zipcode": null, "telephone": null, "posDate": null, "destineTel": null, "togoTel": null, "trafficWay": null, "signBuilding": null, "businessArea": null, "selfRoom": null, "businessTime": null, "stall": null, "consume": null, "serviceFei": null, "favourable": null, "shopMemo": null, "appraise": null, "website": null, "memo": null, "payTypes": "\u6749\u5fb7\u5361", "shopTypes": "\u836f\u5e97", "consumeTypes": null, "cookTypes": null, "orderNum": 1000, "card4no": null, "card4noAcc": null, "district2": 401, "searchScope": null, "status": 1, "address": "\u5149\u542f\u5357\u8def305-307\u53f7", "name": "\u56fd\u5927\u836f\u623f \u5149\u542f\u5357\u8def\u5e97", "id": 167387, "pageNo": 0, "pageCount": null, "pageSize": 10, "ids": null, "endTime": null, "startTime": null}, {"cardNumFive": null, "isSupportYj": null, "cityName": null, "districtName": null, "shopinfo": {"mid": "888888859120026", "good_flag": null, "new_flag": null, "short_name": "\u56fd\u5927\u836f\u623f", "short_name_pinyin": "guodayaofang", "status": null, "address": null, "name": null, "id": "39228"}, "mid": "888888859120026", "shopId": "39228", "netid": null, "province": 901, "district": 601, "zipcode": null, "telephone": null, "posDate": null, "destineTel": null, "togoTel": null, "trafficWay": null, "signBuilding": null, "businessArea": null, "selfRoom": null, "businessTime": null, "stall": null, "consume": null, "serviceFei": null, "favourable": null, "shopMemo": null, "appraise": null, "website": null, "memo": null, "payTypes": "\u6749\u5fb7\u5361", "shopTypes": "\u836f\u5e97", "consumeTypes": null, "cookTypes": null, "orderNum": 1000, "card4no": null, "card4noAcc": null, "district2": 401, "searchScope": null, "status": 1, "address": "\u6d59\u6c5f\u4e2d\u8def661\u53f7", "name": "\u56fd\u5927\u836f\u623f \u6d59\u6c5f\u4e2d\u8def\u5e97", "id": 167388, "pageNo": 0, "pageCount": null, "pageSize": 10, "ids": null, "endTime": null, "startTime": null}, {"cardNumFive": null, "isSupportYj": null, "cityName": null, "districtName": null, "shopinfo": {"mid": "888888859120026", "good_flag": null, "new_flag": null, "short_name": "\u56fd\u5927\u836f\u623f", "short_name_pinyin": "guodayaofang", "status": null, "address": null, "name": null, "id": "39228"}, "mid": "888888859120026", "shopId": "39228", "netid": null, "province": 901, "district": 601, "zipcode": null, "telephone": null, "posDate": null, "destineTel": null, "togoTel": null, "trafficWay": null, "signBuilding": null, "businessArea": null, "selfRoom": null, "businessTime": null, "stall": null, "consume": null, "serviceFei": null, "favourable": null, "shopMemo": null, "appraise": null, "website": null, "memo": null, "payTypes": "\u6749\u5fb7\u5361", "shopTypes": "\u836f\u5e97", "consumeTypes": null, "cookTypes": null, "orderNum": 1000, "card4no": null, "card4noAcc": null, "district2": 404, "searchScope": null, "status": 1, "address": "\u6b66\u5b81\u5357\u8def115\u53f71\u697c", "name": "\u56fd\u5927\u836f\u623f \u6b66\u5b81\u5357\u8def\u5e97", "id": 167389, "pageNo": 0, "pageCount": null, "pageSize": 10, "ids": null, "endTime": null, "startTime": null}, {"cardNumFive": null, "isSupportYj": null, "cityName": null, "districtName": null, "shopinfo": {"mid": "888888859120026", "good_flag": null, "new_flag": null, "short_name": "\u56fd\u5927\u836f\u623f", "short_name_pinyin": "guodayaofang", "status": null, "address": null, "name": null, "id": "39228"}, "mid": "888888859120026", "shopId": "39228", "netid": null, "province": 901, "district": 601, "zipcode": null, "telephone": null, "posDate": null, "destineTel": null, "togoTel": null, "trafficWay": null, "signBuilding": null, "businessArea": null, "selfRoom": null, "businessTime": null, "stall": null, "consume": null, "serviceFei": null, "favourable": null, "shopMemo": null, "appraise": null, "website": null, "memo": null, "payTypes": "\u6749\u5fb7\u5361", "shopTypes": "\u836f\u5e97", "consumeTypes": null, "cookTypes": null, "orderNum": 1000, "card4no": null, "card4noAcc": null, "district2": 418, "searchScope": null, "status": 1, "address": "\u677f\u6cc9\u8def300\u53f7", "name": "\u56fd\u5927\u836f\u623f \u677f\u6cc9\u5e97", "id": 167390, "pageNo": 0, "pageCount": null, "pageSize": 10, "ids": null, "endTime": null, "startTime": null}, {"cardNumFive": null, "isSupportYj": null, "cityName": null, "districtName": null, "shopinfo": {"mid": "888888859120026", "good_flag": null, "new_flag": null, "short_name": "\u56fd\u5927\u836f\u623f", "short_name_pinyin": "guodayaofang", "status": null, "address": null, "name": null, "id": "39228"}, "mid": "888888859120026", "shopId": "39228", "netid": null, "province": 901, "district": 601, "zipcode": null, "telephone": null, "posDate": null, "destineTel": null, "togoTel": null, "trafficWay": null, "signBuilding": null, "businessArea": null, "selfRoom": null, "businessTime": null, "stall": null, "consume": null, "serviceFei": null, "favourable": null, "shopMemo": null, "appraise": null, "website": null, "memo": null, "payTypes": "\u6749\u5fb7\u5361", "shopTypes": "\u836f\u5e97", "consumeTypes": null, "cookTypes": null, "orderNum": 1000, "card4no": null, "card4noAcc": null, "district2": 418, "searchScope": null, "status": 1, "address": "\u677f\u6cc9\u8def872\u53f71\u697c", "name": "\u56fd\u5927\u836f\u623f \u6768\u4e1c\u5e97", "id": 167391, "pageNo": 0, "pageCount": null, "pageSize": 10, "ids": null, "endTime": null, "startTime": null}, {"cardNumFive": null, "isSupportYj": null, "cityName": null, "districtName": null, "shopinfo": {"mid": "888888859120026", "good_flag": null, "new_flag": null, "short_name": "\u56fd\u5927\u836f\u623f", "short_name_pinyin": "guodayaofang", "status": null, "address": null, "name": null, "id": "39228"}, "mid": "888888859120026", "shopId": "39228", "netid": null, "province": 901, "district": 601, "zipcode": null, "telephone": null, "posDate": null, "destineTel": null, "togoTel": null, "trafficWay": null, "signBuilding": null, "businessArea": null, "selfRoom": null, "businessTime": null, "stall": null, "consume": null, "serviceFei": null, "favourable": null, "shopMemo": null, "appraise": null, "website": null, "memo": null, "payTypes": "\u6749\u5fb7\u5361", "shopTypes": "\u836f\u5e97", "consumeTypes": null, "cookTypes": null, "orderNum": 1000, "card4no": null, "card4noAcc": null, "district2": 418, "searchScope": null, "status": 1, "address": "\u4e01\u9999\u8def1399\u5f0430\u53f72\u697c06\u5ba4", "name": "\u56fd\u5927\u836f\u623f \u4e01\u9999\u8def\u5e97", "id": 167392, "pageNo": 0, "pageCount": null, "pageSize": 10, "ids": null, "endTime": null, "startTime": null}, {"cardNumFive": null, "isSupportYj": null, "cityName": null, "districtName": null, "shopinfo": {"mid": "888888859120026", "good_flag": null, "new_flag": null, "short_name": "\u56fd\u5927\u836f\u623f", "short_name_pinyin": "guodayaofang", "status": null, "address": null, "name": null, "id": "39228"}, "mid": "888888859120026", "shopId": "39228", "netid": null, "province": 901, "district": 601, "zipcode": null, "telephone": null, "posDate": null, "destineTel": null, "togoTel": null, "trafficWay": null, "signBuilding": null, "businessArea": null, "selfRoom": null, "businessTime": null, "stall": null, "consume": null, "serviceFei": null, "favourable": null, "shopMemo": null, "appraise": null, "website": null, "memo": null, "payTypes": "\u6749\u5fb7\u5361", "shopTypes": "\u836f\u5e97", "consumeTypes": null, "cookTypes": null, "orderNum": 1000, "card4no": null, "card4noAcc": null, "district2": 418, "searchScope": null, "status": 1, "address": "\u4e07\u7965\u9547\u7965\u5b89\u8def45\u53f7", "name": "\u56fd\u5927\u836f\u623f \u7965\u5b89\u8def\u5e97", "id": 167393, "pageNo": 0, "pageCount": null, "pageSize": 10, "ids": null, "endTime": null, "startTime": null}], "pageLimit": 1850, "size": 10}