{"pageCount": 1095, "count": 10942, "pageNo": 182, "subShopInfo": {"cardNumFive": "", "isSupportYj": "", "cityName": null, "districtName": null, "shopinfo": {"mid": null, "good_flag": null, "new_flag": null, "short_name": null, "short_name_pinyin": null, "status": null, "address": "", "name": "", "id": null}, "mid": null, "shopId": null, "netid": null, "province": 901, "district": null, "zipcode": null, "telephone": null, "posDate": null, "destineTel": null, "togoTel": null, "trafficWay": null, "signBuilding": null, "businessArea": null, "selfRoom": null, "businessTime": null, "stall": null, "consume": null, "serviceFei": null, "favourable": null, "shopMemo": "1", "appraise": null, "website": null, "memo": null, "payTypes": "", "shopTypes": "", "consumeTypes": null, "cookTypes": null, "orderNum": null, "card4no": null, "card4noAcc": null, "district2": null, "searchScope": null, "status": null, "address": "", "name": null, "id": null, "pageNo": 181, "pageCount": null, "pageSize": 10, "ids": null, "endTime": null, "startTime": null}, "list": [{"cardNumFive": null, "isSupportYj": null, "cityName": null, "districtName": null, "shopinfo": {"mid": "888888859120026", "good_flag": null, "new_flag": null, "short_name": "\u56fd\u5927\u836f\u623f", "short_name_pinyin": "guodayaofang", "status": null, "address": null, "name": null, "id": "31674"}, "mid": "888888859120026", "shopId": "31674", "netid": null, "province": 901, "district": 601, "zipcode": null, "telephone": "66552892", "posDate": null, "destineTel": null, "togoTel": null, "trafficWay": null, "signBuilding": null, "businessArea": null, "selfRoom": null, "businessTime": null, "stall": null, "consume": null, "serviceFei": null, "favourable": null, "shopMemo": null, "appraise": null, "website": null, "memo": null, "payTypes": "\u6749\u5fb7\u5361", "shopTypes": "\u836f\u5e97", "consumeTypes": null, "cookTypes": null, "orderNum": 1000, "card4no": null, "card4noAcc": null, "district2": 403, "searchScope": null, "status": 1, "address": "\u9f99\u534e\u8def2307\u53f71-2\u5c42", "name": "\u56fd\u5927\u836f\u623f \u9f99\u534e\u8def\u5e97", "id": 134839, "pageNo": 0, "pageCount": null, "pageSize": 10, "ids": null, "endTime": null, "startTime": null}, {"cardNumFive": null, "isSupportYj": null, "cityName": null, "districtName": null, "shopinfo": {"mid": "888888859120026", "good_flag": null, "new_flag": null, "short_name": "\u56fd\u5927\u836f\u623f", "short_name_pinyin": "guodayaofang", "status": null, "address": null, "name": null, "id": "31674"}, "mid": "888888859120026", "shopId": "31674", "netid": null, "province": 901, "district": 601, "zipcode": null, "telephone": "54143708", "posDate": "20070815", "destineTel": null, "togoTel": null, "trafficWay": "\u516c\u4ea4120 764 732", "signBuilding": null, "businessArea": null, "selfRoom": null, "businessTime": null, "stall": null, "consume": null, "serviceFei": null, "favourable": null, "shopMemo": null, "appraise": null, "website": null, "memo": null, "payTypes": "\u6749\u5fb7\u5361", "shopTypes": "\u836f\u5e97", "consumeTypes": null, "cookTypes": null, "orderNum": 1000, "card4no": null, "card4noAcc": null, "district2": 409, "searchScope": null, "status": 1, "address": "\u9f99\u8317\u8def1098\u53f7", "name": "\u56fd\u5927\u836f\u623f \u9f99\u8317\u8def\u5e97", "id": 134840, "pageNo": 0, "pageCount": null, "pageSize": 10, "ids": null, "endTime": null, "startTime": null}, {"cardNumFive": null, "isSupportYj": null, "cityName": null, "districtName": null, "shopinfo": {"mid": "888888859120026", "good_flag": null, "new_flag": null, "short_name": "\u56fd\u5927\u836f\u623f", "short_name_pinyin": "guodayaofang", "status": null, "address": null, "name": null, "id": "31674"}, "mid": "888888859120026", "shopId": "31674", "netid": null, "province": 901, "district": 601, "zipcode": null, "telephone": "66552892", "posDate": "200909", "destineTel": null, "togoTel": null, "trafficWay": "\u516c\u4ea4820\u3001720", "signBuilding": null, "businessArea": null, "selfRoom": null, "businessTime": null, "stall": null, "consume": null, "serviceFei": null, "favourable": null, "shopMemo": null, "appraise": null, "website": null, "memo": null, "payTypes": "\u6749\u5fb7\u5361", "shopTypes": "\u836f\u5e97", "consumeTypes": null, "cookTypes": null, "orderNum": 1000, "card4no": null, "card4noAcc": null, "district2": 403, "searchScope": null, "status": 1, "address": "\u9f99\u5434\u8def344\u53f7", "name": "\u56fd\u5927\u836f\u623f \u9f99\u5434\u8def\u5e97", "id": 134841, "pageNo": 0, "pageCount": null, "pageSize": 10, "ids": null, "endTime": null, "startTime": null}, {"cardNumFive": null, "isSupportYj": null, "cityName": null, "districtName": null, "shopinfo": {"mid": "888888859120026", "good_flag": null, "new_flag": null, "short_name": "\u56fd\u5927\u836f\u623f", "short_name_pinyin": "guodayaofang", "status": null, "address": null, "name": null, "id": "31674"}, "mid": "888888859120026", "shopId": "31674", "netid": null, "province": 901, "district": 601, "zipcode": null, "telephone": "64537487", "posDate": "20070814", "destineTel": null, "togoTel": null, "trafficWay": "\u516c\u4ea4703 \u5730\u94c1\u4e00\u53f7\u7ebf", "signBuilding": null, "businessArea": null, "selfRoom": null, "businessTime": null, "stall": null, "consume": null, "serviceFei": null, "favourable": null, "shopMemo": null, "appraise": null, "website": null, "memo": null, "payTypes": "\u6749\u5fb7\u5361", "shopTypes": "\u836f\u5e97", "consumeTypes": null, "cookTypes": null, "orderNum": 1000, "card4no": null, "card4noAcc": null, "district2": 409, "searchScope": null, "status": 1, "address": "\u7f57\u9526\u8def451\u53f7", "name": "\u56fd\u5927\u836f\u623f \u7f57\u9526\u5e97", "id": 134843, "pageNo": 0, "pageCount": null, "pageSize": 10, "ids": null, "endTime": null, "startTime": null}, {"cardNumFive": null, "isSupportYj": null, "cityName": null, "districtName": null, "shopinfo": {"mid": "888888859120026", "good_flag": null, "new_flag": null, "short_name": "\u56fd\u5927\u836f\u623f", "short_name_pinyin": "guodayaofang", "status": null, "address": null, "name": null, "id": "31674"}, "mid": "888888859120026", "shopId": "31674", "netid": null, "province": 901, "district": 601, "zipcode": null, "telephone": "65432731", "posDate": "20070723", "destineTel": null, "togoTel": null, "trafficWay": "\u516c\u4ea4135\u533a\u95f4", "signBuilding": null, "businessArea": null, "selfRoom": null, "businessTime": null, "stall": null, "consume": null, "serviceFei": null, "favourable": null, "shopMemo": null, "appraise": null, "website": null, "memo": null, "payTypes": "\u6749\u5fb7\u5361", "shopTypes": "\u836f\u5e97", "consumeTypes": null, "cookTypes": null, "orderNum": 1000, "card4no": null, "card4noAcc": null, "district2": 408, "searchScope": null, "status": 1, "address": "\u7709\u5dde\u8def127\u53f7", "name": "\u56fd\u5927\u836f\u623f \u7709\u5dde\u8def\u5e97", "id": 134844, "pageNo": 0, "pageCount": null, "pageSize": 10, "ids": null, "endTime": null, "startTime": null}, {"cardNumFive": null, "isSupportYj": null, "cityName": null, "districtName": null, "shopinfo": {"mid": "888888859120026", "good_flag": null, "new_flag": null, "short_name": "\u56fd\u5927\u836f\u623f", "short_name_pinyin": "guodayaofang", "status": null, "address": null, "name": null, "id": "31674"}, "mid": "888888859120026", "shopId": "31674", "netid": null, "province": 901, "district": 601, "zipcode": null, "telephone": "50451758", "posDate": "20071012", "destineTel": null, "togoTel": null, "trafficWay": "\u516c\u4ea4984 929 451", "signBuilding": null, "businessArea": null, "selfRoom": null, "businessTime": null, "stall": null, "consume": null, "serviceFei": null, "favourable": null, "shopMemo": null, "appraise": null, "website": null, "memo": null, "payTypes": "\u6749\u5fb7\u5361", "shopTypes": "\u836f\u5e97", "consumeTypes": null, "cookTypes": null, "orderNum": 1000, "card4no": null, "card4noAcc": null, "district2": 418, "searchScope": null, "status": 1, "address": "\u6885\u82b1\u8def163\u53f7", "name": "\u56fd\u5927\u836f\u623f \u6885\u82b1\u5e97", "id": 134846, "pageNo": 0, "pageCount": null, "pageSize": 10, "ids": null, "endTime": null, "startTime": null}, {"cardNumFive": null, "isSupportYj": null, "cityName": null, "districtName": null, "shopinfo": {"mid": "888888859120026", "good_flag": null, "new_flag": null, "short_name": "\u56fd\u5927\u836f\u623f", "short_name_pinyin": "guodayaofang", "status": null, "address": null, "name": null, "id": "31674"}, "mid": "888888859120026", "shopId": "31674", "netid": null, "province": 901, "district": 601, "zipcode": null, "telephone": "65057570", "posDate": "20071030", "destineTel": null, "togoTel": null, "trafficWay": "\u516c\u4ea4910 966 537", "signBuilding": null, "businessArea": null, "selfRoom": null, "businessTime": null, "stall": null, "consume": null, "serviceFei": null, "favourable": null, "shopMemo": null, "appraise": null, "website": null, "memo": null, "payTypes": "\u6749\u5fb7\u5361", "shopTypes": "\u836f\u5e97", "consumeTypes": null, "cookTypes": null, "orderNum": 1000, "card4no": null, "card4noAcc": null, "district2": 407, "searchScope": null, "status": 1, "address": "\u6c11\u4eac\u8def818\u53f7", "name": "\u56fd\u5927\u836f\u623f \u6c11\u4eac\u5e97", "id": 134847, "pageNo": 0, "pageCount": null, "pageSize": 10, "ids": null, "endTime": null, "startTime": null}, {"cardNumFive": null, "isSupportYj": null, "cityName": null, "districtName": null, "shopinfo": {"mid": "888888859120026", "good_flag": null, "new_flag": null, "short_name": "\u56fd\u5927\u836f\u623f", "short_name_pinyin": "guodayaofang", "status": null, "address": null, "name": null, "id": "31674"}, "mid": "888888859120026", "shopId": "31674", "netid": null, "province": 901, "district": 601, "zipcode": null, "telephone": "66552892", "posDate": null, "destineTel": null, "togoTel": null, "trafficWay": "\u5858\u56db\u7ebf\u3001451\u8def", "signBuilding": null, "businessArea": null, "selfRoom": null, "businessTime": null, "stall": null, "consume": null, "serviceFei": null, "favourable": null, "shopMemo": null, "appraise": null, "website": null, "memo": null, "payTypes": "\u6749\u5fb7\u5361", "shopTypes": "\u836f\u5e97", "consumeTypes": null, "cookTypes": null, "orderNum": 1000, "card4no": null, "card4noAcc": null, "district2": 418, "searchScope": null, "status": 1, "address": "\u79c0\u6c88\u8def218\u53f7", "name": "\u56fd\u5927\u836f\u623f \u5357\u6c47\u5e97", "id": 134848, "pageNo": 0, "pageCount": null, "pageSize": 10, "ids": null, "endTime": null, "startTime": null}, {"cardNumFive": null, "isSupportYj": null, "cityName": null, "districtName": null, "shopinfo": {"mid": "888888859120026", "good_flag": null, "new_flag": null, "short_name": "\u56fd\u5927\u836f\u623f", "short_name_pinyin": "guodayaofang", "status": null, "address": null, "name": null, "id": "31674"}, "mid": "888888859120026", "shopId": "31674", "netid": null, "province": 901, "district": 601, "zipcode": null, "telephone": "33610873", "posDate": "20080129", "destineTel": null, "togoTel": null, "trafficWay": null, "signBuilding": null, "businessArea": null, "selfRoom": null, "businessTime": null, "stall": null, "consume": null, "serviceFei": null, "favourable": null, "shopMemo": null, "appraise": null, "website": null, "memo": null, "payTypes": "\u6749\u5fb7\u5361", "shopTypes": "\u836f\u5e97", "consumeTypes": null, "cookTypes": null, "orderNum": 1000, "card4no": null, "card4noAcc": null, "district2": 413, "searchScope": null, "status": 1, "address": "\u767e\u9f50\u8def588\u53f7", "name": "\u56fd\u5927\u836f\u623f \u5357\u6865\u5e97", "id": 134849, "pageNo": 0, "pageCount": null, "pageSize": 10, "ids": null, "endTime": null, "startTime": null}, {"cardNumFive": null, "isSupportYj": null, "cityName": null, "districtName": null, "shopinfo": {"mid": "888888859120026", "good_flag": null, "new_flag": null, "short_name": "\u56fd\u5927\u836f\u623f", "short_name_pinyin": "guodayaofang", "status": null, "address": null, "name": null, "id": "31674"}, "mid": "888888859120026", "shopId": "31674", "netid": null, "province": 901, "district": 601, "zipcode": null, "telephone": null, "posDate": null, "destineTel": null, "togoTel": null, "trafficWay": null, "signBuilding": null, "businessArea": null, "selfRoom": null, "businessTime": null, "stall": null, "consume": null, "serviceFei": null, "favourable": null, "shopMemo": null, "appraise": null, "website": null, "memo": null, "payTypes": "\u6749\u5fb7\u5361", "shopTypes": "\u836f\u5e97", "consumeTypes": null, "cookTypes": null, "orderNum": 1000, "card4no": null, "card4noAcc": null, "district2": 418, "searchScope": null, "status": 1, "address": "\u6ce5\u57ce\u8def138-140\u53f7", "name": "\u56fd\u5927\u836f\u623f \u6ce5\u57ce\u8def\u5e97", "id": 134850, "pageNo": 0, "pageCount": null, "pageSize": 10, "ids": null, "endTime": null, "startTime": null}], "pageLimit": 1810, "size": 10}