{"pageCount": 1095, "count": 10942, "pageNo": 183, "subShopInfo": {"cardNumFive": "", "isSupportYj": "", "cityName": null, "districtName": null, "shopinfo": {"mid": null, "good_flag": null, "new_flag": null, "short_name": null, "short_name_pinyin": null, "status": null, "address": "", "name": "", "id": null}, "mid": null, "shopId": null, "netid": null, "province": 901, "district": null, "zipcode": null, "telephone": null, "posDate": null, "destineTel": null, "togoTel": null, "trafficWay": null, "signBuilding": null, "businessArea": null, "selfRoom": null, "businessTime": null, "stall": null, "consume": null, "serviceFei": null, "favourable": null, "shopMemo": "1", "appraise": null, "website": null, "memo": null, "payTypes": "", "shopTypes": "", "consumeTypes": null, "cookTypes": null, "orderNum": null, "card4no": null, "card4noAcc": null, "district2": null, "searchScope": null, "status": null, "address": "", "name": null, "id": null, "pageNo": 182, "pageCount": null, "pageSize": 10, "ids": null, "endTime": null, "startTime": null}, "list": [{"cardNumFive": null, "isSupportYj": null, "cityName": null, "districtName": null, "shopinfo": {"mid": "888888859120026", "good_flag": null, "new_flag": null, "short_name": "\u56fd\u5927\u836f\u623f", "short_name_pinyin": "guodayaofang", "status": null, "address": null, "name": null, "id": "31674"}, "mid": "888888859120026", "shopId": "31674", "netid": null, "province": 901, "district": 601, "zipcode": null, "telephone": "58723454", "posDate": "20070531", "destineTel": null, "togoTel": null, "trafficWay": "\u516c\u4ea4734 786", "signBuilding": null, "businessArea": "200~1000\u5e73\u7c73", "selfRoom": "\u65e0", "businessTime": "24\u5c0f\u65f6", "stall": "\u65e0", "consume": null, "serviceFei": null, "favourable": null, "shopMemo": null, "appraise": null, "website": null, "memo": null, "payTypes": "\u6749\u5fb7\u5361", "shopTypes": "\u836f\u5e97", "consumeTypes": null, "cookTypes": null, "orderNum": 1000, "card4no": null, "card4noAcc": null, "district2": 418, "searchScope": null, "status": 1, "address": "\u6d66\u4e1c\u5357\u8def3893\u53f7", "name": "\u56fd\u5927\u836f\u623f \u6d66\u4e1c\u5357\u8def\u5e97", "id": 134851, "pageNo": 0, "pageCount": null, "pageSize": 10, "ids": null, "endTime": null, "startTime": null}, {"cardNumFive": null, "isSupportYj": null, "cityName": null, "districtName": null, "shopinfo": {"mid": "888888859120026", "good_flag": null, "new_flag": null, "short_name": "\u56fd\u5927\u836f\u623f", "short_name_pinyin": "guodayaofang", "status": null, "address": null, "name": null, "id": "31674"}, "mid": "888888859120026", "shopId": "31674", "netid": null, "province": 901, "district": 601, "zipcode": null, "telephone": "64786704", "posDate": "20070706", "destineTel": null, "togoTel": null, "trafficWay": "\u516c\u4ea4953 92", "signBuilding": null, "businessArea": null, "selfRoom": null, "businessTime": null, "stall": null, "consume": null, "serviceFei": null, "favourable": null, "shopMemo": null, "appraise": null, "website": null, "memo": null, "payTypes": "\u6749\u5fb7\u5361", "shopTypes": "\u836f\u5e97", "consumeTypes": null, "cookTypes": null, "orderNum": 1000, "card4no": null, "card4noAcc": null, "district2": 409, "searchScope": null, "status": 1, "address": "\u4e03\u8398\u8def2299\u5f0428\u53f7", "name": "\u56fd\u5927\u836f\u623f \u4e03\u8398\u8def\u5e97", "id": 134852, "pageNo": 0, "pageCount": null, "pageSize": 10, "ids": null, "endTime": null, "startTime": null}, {"cardNumFive": null, "isSupportYj": null, "cityName": null, "districtName": null, "shopinfo": {"mid": "888888859120026", "good_flag": null, "new_flag": null, "short_name": "\u56fd\u5927\u836f\u623f", "short_name_pinyin": "guodayaofang", "status": null, "address": null, "name": null, "id": "31674"}, "mid": "888888859120026", "shopId": "31674", "netid": null, "province": 901, "district": 601, "zipcode": "200235", "telephone": null, "posDate": "20070312", "destineTel": null, "togoTel": null, "trafficWay": "\u516c\u4ea4157 50 703B\u7ebf", "signBuilding": null, "businessArea": "200~1000\u5e73\u7c73", "selfRoom": "\u65e0", "businessTime": "24\u5c0f\u65f6", "stall": "\u65e0", "consume": null, "serviceFei": null, "favourable": null, "shopMemo": null, "appraise": null, "website": null, "memo": null, "payTypes": "\u6749\u5fb7\u5361", "shopTypes": "\u836f\u5e97", "consumeTypes": null, "cookTypes": null, "orderNum": 1000, "card4no": null, "card4noAcc": null, "district2": 403, "searchScope": null, "status": 1, "address": "\u94a6\u5dde\u8def136\u53f7", "name": "\u56fd\u5927\u836f\u623f \u94a6\u5dde\u5e97", "id": 134853, "pageNo": 0, "pageCount": null, "pageSize": 10, "ids": null, "endTime": null, "startTime": null}, {"cardNumFive": null, "isSupportYj": null, "cityName": null, "districtName": null, "shopinfo": {"mid": "888888859120026", "good_flag": null, "new_flag": null, "short_name": "\u56fd\u5927\u836f\u623f", "short_name_pinyin": "guodayaofang", "status": null, "address": null, "name": null, "id": "31674"}, "mid": "888888859120026", "shopId": "31674", "netid": null, "province": 901, "district": 601, "zipcode": null, "telephone": "58975246", "posDate": "20071015", "destineTel": null, "togoTel": null, "trafficWay": "\u516c\u4ea4989 \u5ddd\u4e1c\u7ebf", "signBuilding": null, "businessArea": null, "selfRoom": null, "businessTime": null, "stall": null, "consume": null, "serviceFei": null, "favourable": null, "shopMemo": null, "appraise": null, "website": null, "memo": null, "payTypes": "\u6749\u5fb7\u5361", "shopTypes": "\u836f\u5e97", "consumeTypes": null, "cookTypes": null, "orderNum": 1000, "card4no": null, "card4noAcc": null, "district2": 418, "searchScope": null, "status": 1, "address": "\u5408\u5e86\u9547\u5e86\u8363\u8def267\u53f7", "name": "\u56fd\u5927\u836f\u623f \u5e86\u8363\u5e97", "id": 134855, "pageNo": 0, "pageCount": null, "pageSize": 10, "ids": null, "endTime": null, "startTime": null}, {"cardNumFive": null, "isSupportYj": null, "cityName": null, "districtName": null, "shopinfo": {"mid": "888888859120026", "good_flag": null, "new_flag": null, "short_name": "\u56fd\u5927\u836f\u623f", "short_name_pinyin": "guodayaofang", "status": null, "address": null, "name": null, "id": "31674"}, "mid": "888888859120026", "shopId": "31674", "netid": null, "province": 901, "district": 601, "zipcode": null, "telephone": "65369578", "posDate": "20071009", "destineTel": null, "togoTel": null, "trafficWay": "\u516c\u4ea466 952 \u5730\u94c1\u4e09\u53f7\u7ebf", "signBuilding": null, "businessArea": null, "selfRoom": null, "businessTime": null, "stall": null, "consume": null, "serviceFei": null, "favourable": null, "shopMemo": null, "appraise": null, "website": null, "memo": null, "payTypes": "\u6749\u5fb7\u5361", "shopTypes": "\u836f\u5e97", "consumeTypes": null, "cookTypes": null, "orderNum": 1000, "card4no": null, "card4noAcc": null, "district2": 408, "searchScope": null, "status": 1, "address": "\u4e09\u95e8\u8def747\u5f0466\u53f7", "name": "\u56fd\u5927\u836f\u623f \u4e09\u95e8\u8def\u5e97", "id": 134856, "pageNo": 0, "pageCount": null, "pageSize": 10, "ids": null, "endTime": null, "startTime": null}, {"cardNumFive": null, "isSupportYj": null, "cityName": null, "districtName": null, "shopinfo": {"mid": "888888859120026", "good_flag": null, "new_flag": null, "short_name": "\u56fd\u5927\u836f\u623f", "short_name_pinyin": "guodayaofang", "status": null, "address": null, "name": null, "id": "31674"}, "mid": "888888859120026", "shopId": "31674", "netid": null, "province": 901, "district": 601, "zipcode": null, "telephone": "58322642", "posDate": "20071012", "destineTel": null, "togoTel": null, "trafficWay": "\u6caa\u5858\u7ebf \u4e07\u91ce\u7ebf", "signBuilding": null, "businessArea": null, "selfRoom": null, "businessTime": null, "stall": null, "consume": null, "serviceFei": null, "favourable": null, "shopMemo": null, "appraise": null, "website": null, "memo": null, "payTypes": "\u6749\u5fb7\u5361", "shopTypes": "\u836f\u5e97", "consumeTypes": null, "cookTypes": null, "orderNum": 1000, "card4no": null, "card4noAcc": null, "district2": 418, "searchScope": null, "status": 1, "address": "\u4e0a\u5357\u8def3092\u53f7", "name": "\u56fd\u5927\u836f\u623f \u4e0a\u5357\u5e97", "id": 134857, "pageNo": 0, "pageCount": null, "pageSize": 10, "ids": null, "endTime": null, "startTime": null}, {"cardNumFive": null, "isSupportYj": null, "cityName": null, "districtName": null, "shopinfo": {"mid": "888888859120026", "good_flag": null, "new_flag": null, "short_name": "\u56fd\u5927\u836f\u623f", "short_name_pinyin": "guodayaofang", "status": null, "address": null, "name": null, "id": "31674"}, "mid": "888888859120026", "shopId": "31674", "netid": null, "province": 901, "district": 601, "zipcode": null, "telephone": "65368811", "posDate": "20070808", "destineTel": null, "togoTel": null, "trafficWay": "\u516c\u4ea4876 537 \u5730\u94c1\u4e09\u53f7\u7ebf", "signBuilding": null, "businessArea": null, "selfRoom": null, "businessTime": null, "stall": null, "consume": null, "serviceFei": null, "favourable": null, "shopMemo": null, "appraise": null, "website": null, "memo": null, "payTypes": "\u6749\u5fb7\u5361", "shopTypes": "\u836f\u5e97", "consumeTypes": null, "cookTypes": null, "orderNum": 1000, "card4no": null, "card4noAcc": null, "district2": 408, "searchScope": null, "status": 1, "address": "\u6c34\u7535\u8def1071\u53f7", "name": "\u56fd\u5927\u836f\u623f \u6c34\u7535\u5e97", "id": 134858, "pageNo": 0, "pageCount": null, "pageSize": 10, "ids": null, "endTime": null, "startTime": null}, {"cardNumFive": null, "isSupportYj": null, "cityName": null, "districtName": null, "shopinfo": {"mid": "888888859120026", "good_flag": null, "new_flag": null, "short_name": "\u56fd\u5927\u836f\u623f", "short_name_pinyin": "guodayaofang", "status": null, "address": null, "name": null, "id": "31674"}, "mid": "888888859120026", "shopId": "31674", "netid": null, "province": 901, "district": 601, "zipcode": null, "telephone": "64663664", "posDate": "20071009", "destineTel": null, "togoTel": null, "trafficWay": "\u516c\u4ea443 43\u533a\u95f4 931", "signBuilding": null, "businessArea": null, "selfRoom": null, "businessTime": null, "stall": null, "consume": null, "serviceFei": null, "favourable": null, "shopMemo": null, "appraise": null, "website": null, "memo": null, "payTypes": "\u6749\u5fb7\u5361", "shopTypes": "\u836f\u5e97", "consumeTypes": null, "cookTypes": null, "orderNum": 1000, "card4no": null, "card4noAcc": null, "district2": 401, "searchScope": null, "status": 1, "address": "\u6cf0\u5eb7\u8def166\u53f7", "name": "\u56fd\u5927\u836f\u623f \u6cf0\u5eb7\u5e97", "id": 134859, "pageNo": 0, "pageCount": null, "pageSize": 10, "ids": null, "endTime": null, "startTime": null}, {"cardNumFive": null, "isSupportYj": null, "cityName": null, "districtName": null, "shopinfo": {"mid": "888888859120026", "good_flag": null, "new_flag": null, "short_name": "\u56fd\u5927\u836f\u623f", "short_name_pinyin": "guodayaofang", "status": null, "address": null, "name": null, "id": "31674"}, "mid": "888888859120026", "shopId": "31674", "netid": null, "province": 901, "district": 601, "zipcode": "200333", "telephone": "62594071", "posDate": "20070307", "destineTel": "62594071", "togoTel": "62594071", "trafficWay": "\u516c\u4ea473 224 924", "signBuilding": null, "businessArea": "200~1000\u5e73\u7c73", "selfRoom": "\u65e0", "businessTime": "24\u5c0f\u65f6", "stall": "\u65e0", "consume": null, "serviceFei": null, "favourable": null, "shopMemo": null, "appraise": null, "website": null, "memo": null, "payTypes": "\u6749\u5fb7\u5361", "shopTypes": "\u836f\u5e97", "consumeTypes": null, "cookTypes": null, "orderNum": 1000, "card4no": null, "card4noAcc": null, "district2": 406, "searchScope": null, "status": 1, "address": "\u5929\u5c71\u8def1654\u53f7", "name": "\u56fd\u5927\u836f\u623f \u5929\u5c71\u5e97", "id": 134860, "pageNo": 0, "pageCount": null, "pageSize": 10, "ids": null, "endTime": null, "startTime": null}, {"cardNumFive": null, "isSupportYj": null, "cityName": null, "districtName": null, "shopinfo": {"mid": "888888859120026", "good_flag": null, "new_flag": null, "short_name": "\u56fd\u5927\u836f\u623f", "short_name_pinyin": "guodayaofang", "status": null, "address": null, "name": null, "id": "31674"}, "mid": "888888859120026", "shopId": "31674", "netid": null, "province": 901, "district": 601, "zipcode": null, "telephone": "58305947", "posDate": "20070723", "destineTel": null, "togoTel": null, "trafficWay": "\u516c\u4ea4980 \u5730\u94c1\u56db,\u4e8c\u53f7\u7ebf", "signBuilding": null, "businessArea": null, "selfRoom": null, "businessTime": null, "stall": null, "consume": null, "serviceFei": null, "favourable": null, "shopMemo": null, "appraise": null, "website": null, "memo": null, "payTypes": "\u6749\u5fb7\u5361", "shopTypes": "\u836f\u5e97", "consumeTypes": null, "cookTypes": null, "orderNum": 1000, "card4no": null, "card4noAcc": null, "district2": 418, "searchScope": null, "status": 1, "address": "\u6f4d\u574a\u8def182\u53f7", "name": "\u56fd\u5927\u836f\u623f \u6f4d\u574a\u5e97", "id": 134862, "pageNo": 0, "pageCount": null, "pageSize": 10, "ids": null, "endTime": null, "startTime": null}], "pageLimit": 1820, "size": 10}