{"pageCount": 1095, "count": 10942, "pageNo": 188, "subShopInfo": {"cardNumFive": "", "isSupportYj": "", "cityName": null, "districtName": null, "shopinfo": {"mid": null, "good_flag": null, "new_flag": null, "short_name": null, "short_name_pinyin": null, "status": null, "address": "", "name": "", "id": null}, "mid": null, "shopId": null, "netid": null, "province": 901, "district": null, "zipcode": null, "telephone": null, "posDate": null, "destineTel": null, "togoTel": null, "trafficWay": null, "signBuilding": null, "businessArea": null, "selfRoom": null, "businessTime": null, "stall": null, "consume": null, "serviceFei": null, "favourable": null, "shopMemo": "1", "appraise": null, "website": null, "memo": null, "payTypes": "", "shopTypes": "", "consumeTypes": null, "cookTypes": null, "orderNum": null, "card4no": null, "card4noAcc": null, "district2": null, "searchScope": null, "status": null, "address": "", "name": null, "id": null, "pageNo": 187, "pageCount": null, "pageSize": 10, "ids": null, "endTime": null, "startTime": null}, "list": [{"cardNumFive": null, "isSupportYj": null, "cityName": null, "districtName": null, "shopinfo": {"mid": "888002159120063", "good_flag": "2", "new_flag": "2", "short_name": "\u56fd\u5927\u836f\u623f", "short_name_pinyin": "guodayaofang", "status": null, "address": null, "name": null, "id": "565224361032679424"}, "mid": "888002159120063", "shopId": "565224361032679424", "netid": null, "province": 901, "district": 601, "zipcode": null, "telephone": null, "posDate": null, "destineTel": null, "togoTel": null, "trafficWay": null, "signBuilding": null, "businessArea": null, "selfRoom": null, "businessTime": null, "stall": null, "consume": null, "serviceFei": null, "favourable": null, "shopMemo": null, "appraise": null, "website": null, "memo": null, "payTypes": "\u6749\u5fb7\u5361,", "shopTypes": null, "consumeTypes": null, "cookTypes": null, "orderNum": null, "card4no": null, "card4noAcc": null, "district2": 409, "searchScope": null, "status": 1, "address": "\u7e41\u5174\u8def479\u53f7108 109\u5ba4", "name": "\u7e41\u5174\u8def\u5e97", "id": 565224359094910976, "pageNo": 0, "pageCount": null, "pageSize": 10, "ids": null, "endTime": null, "startTime": null}, {"cardNumFive": null, "isSupportYj": null, "cityName": null, "districtName": null, "shopinfo": {"mid": "888002159120063", "good_flag": "2", "new_flag": "2", "short_name": "\u56fd\u5927\u836f\u623f", "short_name_pinyin": "guodayaofang", "status": null, "address": null, "name": null, "id": "565224361032679424"}, "mid": "888002159120063", "shopId": "565224361032679424", "netid": null, "province": 901, "district": 601, "zipcode": null, "telephone": null, "posDate": null, "destineTel": null, "togoTel": null, "trafficWay": null, "signBuilding": null, "businessArea": null, "selfRoom": null, "businessTime": null, "stall": null, "consume": null, "serviceFei": null, "favourable": null, "shopMemo": null, "appraise": null, "website": null, "memo": null, "payTypes": "\u6749\u5fb7\u5361,", "shopTypes": null, "consumeTypes": null, "cookTypes": null, "orderNum": null, "card4no": null, "card4noAcc": null, "district2": 416, "searchScope": null, "status": 1, "address": "\u6f58\u5e7f\u8def1837\u53f7", "name": "\u6f58\u5e7f\u8def\u5e97", "id": 565224359916994560, "pageNo": 0, "pageCount": null, "pageSize": 10, "ids": null, "endTime": null, "startTime": null}, {"cardNumFive": null, "isSupportYj": null, "cityName": null, "districtName": null, "shopinfo": {"mid": "888002159120063", "good_flag": "2", "new_flag": "2", "short_name": "\u56fd\u5927\u836f\u623f", "short_name_pinyin": "guodayaofang", "status": null, "address": null, "name": null, "id": "565224361032679424"}, "mid": "888002159120063", "shopId": "565224361032679424", "netid": null, "province": 901, "district": 601, "zipcode": null, "telephone": null, "posDate": null, "destineTel": null, "togoTel": null, "trafficWay": null, "signBuilding": null, "businessArea": null, "selfRoom": null, "businessTime": null, "stall": null, "consume": null, "serviceFei": null, "favourable": null, "shopMemo": null, "appraise": null, "website": null, "memo": null, "payTypes": "\u6749\u5fb7\u5361,", "shopTypes": null, "consumeTypes": null, "cookTypes": null, "orderNum": null, "card4no": null, "card4noAcc": null, "district2": 416, "searchScope": null, "status": 1, "address": "\u6708\u7f57\u8def2400\u53f712\u5e62-2", "name": "\u6708\u7f57\u8def\u5e97", "id": 565224360290287616, "pageNo": 0, "pageCount": null, "pageSize": 10, "ids": null, "endTime": null, "startTime": null}, {"cardNumFive": null, "isSupportYj": null, "cityName": null, "districtName": null, "shopinfo": {"mid": "888888853110078", "good_flag": "2", "new_flag": "2", "short_name": "\u56fd\u9645\u5546\u54c1\u5e7f\u573a", "short_name_pinyin": "guojishangpinguangchang", "status": null, "address": null, "name": null, "id": "31676"}, "mid": "888888853110078", "shopId": "31676", "netid": null, "province": 901, "district": 601, "zipcode": null, "telephone": "58682786\u300158662252\u300158662260", "posDate": "20080917", "destineTel": null, "togoTel": null, "trafficWay": "\u516c\u4ea4968 815 \u5730\u94c1\u516d\u53f7\u7ebf", "signBuilding": "\u5916\u9ad8\u6865\u4fdd\u7a0e\u533a3\u53f7\u95e8", "businessArea": null, "selfRoom": null, "businessTime": null, "stall": null, "consume": null, "serviceFei": null, "favourable": null, "shopMemo": null, "appraise": null, "website": null, "memo": null, "payTypes": "\u6749\u5fb7\u5361", "shopTypes": "\u767e\u8d27", "consumeTypes": null, "cookTypes": null, "orderNum": 1000, "card4no": null, "card4noAcc": null, "district2": 418, "searchScope": null, "status": 1, "address": "\u65e5\u4eac\u8def2\u53f7", "name": "\u56fd\u9645\u5546\u54c1\u5e7f\u573a \u65e5\u4eac\u8def", "id": 134884, "pageNo": 0, "pageCount": null, "pageSize": 10, "ids": null, "endTime": null, "startTime": null}, {"cardNumFive": null, "isSupportYj": null, "cityName": null, "districtName": null, "shopinfo": {"mid": "888888858120318", "good_flag": "2", "new_flag": "2", "short_name": "\u8c37\u6cf0\u996d\u5e97", "short_name_pinyin": "gutaifandian", "status": null, "address": null, "name": null, "id": "31645"}, "mid": "888888858120318", "shopId": "31645", "netid": null, "province": 901, "district": 601, "zipcode": null, "telephone": "62462777", "posDate": null, "destineTel": null, "togoTel": null, "trafficWay": "93 40 136 824", "signBuilding": null, "businessArea": "6000\u5e73\u65b9\u7c73", "selfRoom": "37", "businessTime": "11:00~21:00", "stall": null, "consume": null, "serviceFei": null, "favourable": null, "shopMemo": null, "appraise": null, "website": null, "memo": null, "payTypes": ",,,\u6749\u5fb7\u5361", "shopTypes": "\u9910\u996e", "consumeTypes": null, "cookTypes": null, "orderNum": 1000, "card4no": null, "card4noAcc": null, "district2": 404, "searchScope": null, "status": 1, "address": "\u5ef6\u5e73\u8def121\u53f71-3\u5c42", "name": "\u8c37\u6cf0\u996d\u5e97 \u5ef6\u5e73\u8def\u5e97", "id": 134042, "pageNo": 0, "pageCount": null, "pageSize": 10, "ids": null, "endTime": null, "startTime": null}, {"cardNumFive": null, "isSupportYj": null, "cityName": null, "districtName": null, "shopinfo": {"mid": "888888858130036", "good_flag": "2", "new_flag": "1", "short_name": "\u54c8\u6839\u8fbe\u65af", "short_name_pinyin": "hagendasi", "status": null, "address": null, "name": null, "id": "31679"}, "mid": "888888858130036", "shopId": "31679", "netid": null, "province": 901, "district": 601, "zipcode": null, "telephone": "58364135", "posDate": "20081011", "destineTel": null, "togoTel": null, "trafficWay": "\u516c\u4ea4584 783 \u5730\u94c1\u4e8c\u53f7\u7ebf", "signBuilding": null, "businessArea": null, "selfRoom": null, "businessTime": null, "stall": null, "consume": null, "serviceFei": null, "favourable": null, "shopMemo": null, "appraise": null, "website": null, "memo": null, "payTypes": "\u6749\u5fb7\u5361", "shopTypes": "\u9910\u996e", "consumeTypes": null, "cookTypes": null, "orderNum": 1000, "card4no": null, "card4noAcc": null, "district2": 418, "searchScope": null, "status": 1, "address": "\u6d66\u4e1c\u5357\u8def1111\u53f7\u7b2c\u4e00\u516b\u4f70\u4f34\u9996\u5c42", "name": "\u54c8\u6839\u8fbe\u65af \u516b\u4f70\u4f34\u5e97", "id": 134890, "pageNo": 0, "pageCount": null, "pageSize": 10, "ids": null, "endTime": null, "startTime": null}, {"cardNumFive": null, "isSupportYj": null, "cityName": null, "districtName": null, "shopinfo": {"mid": "888888858130036", "good_flag": "2", "new_flag": "1", "short_name": "\u54c8\u6839\u8fbe\u65af", "short_name_pinyin": "hagendasi", "status": null, "address": null, "name": null, "id": "31679"}, "mid": "888888858130036", "shopId": "31679", "netid": null, "province": 901, "district": 601, "zipcode": null, "telephone": "58880621", "posDate": "20080827", "destineTel": null, "togoTel": null, "trafficWay": "\u516c\u4ea4985 \u5730\u94c1\u4e8c\u53f7\u7ebf", "signBuilding": null, "businessArea": null, "selfRoom": null, "businessTime": "10:00~22:00", "stall": null, "consume": null, "serviceFei": null, "favourable": null, "shopMemo": null, "appraise": null, "website": null, "memo": null, "payTypes": "\u6749\u5fb7\u5361", "shopTypes": "\u9910\u996e", "consumeTypes": null, "cookTypes": null, "orderNum": 1000, "card4no": null, "card4noAcc": null, "district2": 418, "searchScope": null, "status": 1, "address": "\u6ee8\u6c5f\u5bcc\u90fd\u6bb5\u7801\u5934\u5317\u4fa7\u7aef", "name": "\u54c8\u6839\u8fbe\u65af \u6ee8\u6c5f\u5e97", "id": 134892, "pageNo": 0, "pageCount": null, "pageSize": 10, "ids": null, "endTime": null, "startTime": null}, {"cardNumFive": null, "isSupportYj": null, "cityName": null, "districtName": null, "shopinfo": {"mid": "888888858130036", "good_flag": "2", "new_flag": "1", "short_name": "\u54c8\u6839\u8fbe\u65af", "short_name_pinyin": "hagendasi", "status": null, "address": null, "name": null, "id": "31679"}, "mid": "888888858130036", "shopId": "31679", "netid": null, "province": 901, "district": 601, "zipcode": null, "telephone": "50430018", "posDate": "20080827", "destineTel": null, "togoTel": null, "trafficWay": "\u516c\u4ea4602 987", "signBuilding": null, "businessArea": null, "selfRoom": null, "businessTime": "10:00~22:00", "stall": null, "consume": null, "serviceFei": null, "favourable": null, "shopMemo": null, "appraise": null, "website": null, "memo": null, "payTypes": "\u6749\u5fb7\u5361", "shopTypes": "\u9910\u996e", "consumeTypes": null, "cookTypes": null, "orderNum": 1000, "card4no": null, "card4noAcc": null, "district2": 418, "searchScope": null, "status": 1, "address": "\u82b3\u7538\u8def199\u5f0432\u53f7\u8bc1\u5927\u5927\u62c7\u6307\u5e7f\u573a\u9996\u5c42", "name": "\u54c8\u6839\u8fbe\u65af \u5927\u62c7\u6307\u5e97", "id": 134894, "pageNo": 0, "pageCount": null, "pageSize": 10, "ids": null, "endTime": null, "startTime": null}, {"cardNumFive": null, "isSupportYj": null, "cityName": null, "districtName": null, "shopinfo": {"mid": "888888858130036", "good_flag": "2", "new_flag": "1", "short_name": "\u54c8\u6839\u8fbe\u65af", "short_name_pinyin": "hagendasi", "status": null, "address": null, "name": null, "id": "31679"}, "mid": "888888858130036", "shopId": "31679", "netid": null, "province": 901, "district": 601, "zipcode": null, "telephone": "56770031", "posDate": "20080827", "destineTel": null, "togoTel": null, "trafficWay": "\u516c\u4ea4210 253 \u5730\u94c1\u4e00\u53f7\u7ebf", "signBuilding": null, "businessArea": null, "selfRoom": null, "businessTime": "10:00~22:00", "stall": null, "consume": null, "serviceFei": null, "favourable": null, "shopMemo": null, "appraise": null, "website": null, "memo": null, "payTypes": "\u6749\u5fb7\u5361", "shopTypes": "\u9910\u996e", "consumeTypes": null, "cookTypes": null, "orderNum": 1000, "card4no": null, "card4noAcc": null, "district2": 410, "searchScope": null, "status": 1, "address": "\u5171\u548c\u65b0\u8def1918\u53f7\u5927\u5b81\u56fd\u9645\u5546\u4e1a\u5e7f\u573a\u4e00\u5c42101B\u5ba4", "name": "\u54c8\u6839\u8fbe\u65af \u5927\u5b81\u5e97", "id": 134895, "pageNo": 0, "pageCount": null, "pageSize": 10, "ids": null, "endTime": null, "startTime": null}, {"cardNumFive": null, "isSupportYj": null, "cityName": null, "districtName": null, "shopinfo": {"mid": "888888858130036", "good_flag": "2", "new_flag": "1", "short_name": "\u54c8\u6839\u8fbe\u65af", "short_name_pinyin": "hagendasi", "status": null, "address": null, "name": null, "id": "31679"}, "mid": "888888858130036", "shopId": "31679", "netid": null, "province": 901, "district": 601, "zipcode": null, "telephone": "62759863", "posDate": "20080827", "destineTel": null, "togoTel": null, "trafficWay": "\u516c\u4ea472 836 855", "signBuilding": null, "businessArea": null, "selfRoom": null, "businessTime": "10:00~22:00", "stall": null, "consume": null, "serviceFei": null, "favourable": null, "shopMemo": null, "appraise": null, "website": null, "memo": null, "payTypes": "\u6749\u5fb7\u5361", "shopTypes": "\u9910\u996e", "consumeTypes": null, "cookTypes": null, "orderNum": 1000, "card4no": null, "card4noAcc": null, "district2": 406, "searchScope": null, "status": 1, "address": "\u9075\u4e49\u5357\u8def6\u53f7\u8679\u6865\u53cb\u8c0a1\u697c", "name": "\u54c8\u6839\u8fbe\u65af \u8679\u6865\u53cb\u8c0a\u5e97", "id": 134897, "pageNo": 0, "pageCount": null, "pageSize": 10, "ids": null, "endTime": null, "startTime": null}], "pageLimit": 1870, "size": 10}