{"pageCount": 1095, "count": 10942, "pageNo": 191, "subShopInfo": {"cardNumFive": "", "isSupportYj": "", "cityName": null, "districtName": null, "shopinfo": {"mid": null, "good_flag": null, "new_flag": null, "short_name": null, "short_name_pinyin": null, "status": null, "address": "", "name": "", "id": null}, "mid": null, "shopId": null, "netid": null, "province": 901, "district": null, "zipcode": null, "telephone": null, "posDate": null, "destineTel": null, "togoTel": null, "trafficWay": null, "signBuilding": null, "businessArea": null, "selfRoom": null, "businessTime": null, "stall": null, "consume": null, "serviceFei": null, "favourable": null, "shopMemo": "1", "appraise": null, "website": null, "memo": null, "payTypes": "", "shopTypes": "", "consumeTypes": null, "cookTypes": null, "orderNum": null, "card4no": null, "card4noAcc": null, "district2": null, "searchScope": null, "status": null, "address": "", "name": null, "id": null, "pageNo": 190, "pageCount": null, "pageSize": 10, "ids": null, "endTime": null, "startTime": null}, "list": [{"cardNumFive": null, "isSupportYj": null, "cityName": null, "districtName": null, "shopinfo": {"mid": "888888858130036", "good_flag": null, "new_flag": null, "short_name": "\u54c8\u6839\u8fbe\u65af", "short_name_pinyin": "hagendasi", "status": null, "address": null, "name": null, "id": "38251"}, "mid": "888888858130036", "shopId": "38251", "netid": null, "province": 901, "district": 601, "zipcode": null, "telephone": "56087357", "posDate": null, "destineTel": null, "togoTel": null, "trafficWay": null, "signBuilding": null, "businessArea": null, "selfRoom": null, "businessTime": null, "stall": null, "consume": null, "serviceFei": null, "favourable": null, "shopMemo": null, "appraise": null, "website": null, "memo": null, "payTypes": "\u6749\u5fb7\u5361", "shopTypes": "\u9910\u996e", "consumeTypes": null, "cookTypes": null, "orderNum": 1000, "card4no": null, "card4noAcc": null, "district2": 408, "searchScope": null, "status": 1, "address": "\u897f\u6c5f\u6e7e\u8def388\u53f71\u697c", "name": "\u54c8\u6839\u8fbe\u65af \u8679\u53e3\u9f99\u4e4b\u68a6\u5e97", "id": 163243, "pageNo": 0, "pageCount": null, "pageSize": 10, "ids": null, "endTime": null, "startTime": null}, {"cardNumFive": null, "isSupportYj": null, "cityName": null, "districtName": null, "shopinfo": {"mid": "888888858130036", "good_flag": null, "new_flag": null, "short_name": "\u54c8\u6839\u8fbe\u65af", "short_name_pinyin": "hagendasi", "status": null, "address": null, "name": null, "id": "39227"}, "mid": "888888858130036", "shopId": "39227", "netid": null, "province": 901, "district": 601, "zipcode": null, "telephone": null, "posDate": null, "destineTel": null, "togoTel": null, "trafficWay": null, "signBuilding": null, "businessArea": null, "selfRoom": null, "businessTime": null, "stall": null, "consume": null, "serviceFei": null, "favourable": null, "shopMemo": null, "appraise": null, "website": null, "memo": null, "payTypes": "\u6749\u5fb7\u5361", "shopTypes": "\u9910\u996e", "consumeTypes": null, "cookTypes": null, "orderNum": 1000, "card4no": null, "card4noAcc": null, "district2": 403, "searchScope": null, "status": 1, "address": "\u5b9c\u5c71\u8def455\u53f7", "name": "\u54c8\u6839\u8fbe\u65af \u5149\u542f\u57ce\u5e97", "id": 167381, "pageNo": 0, "pageCount": null, "pageSize": 10, "ids": null, "endTime": null, "startTime": null}, {"cardNumFive": null, "isSupportYj": null, "cityName": null, "districtName": null, "shopinfo": {"mid": "888888858130036", "good_flag": null, "new_flag": null, "short_name": "\u54c8\u6839\u8fbe\u65af", "short_name_pinyin": "hagendasi", "status": null, "address": null, "name": null, "id": "39227"}, "mid": "888888858130036", "shopId": "39227", "netid": null, "province": 901, "district": 601, "zipcode": null, "telephone": null, "posDate": null, "destineTel": null, "togoTel": null, "trafficWay": null, "signBuilding": null, "businessArea": null, "selfRoom": null, "businessTime": null, "stall": null, "consume": null, "serviceFei": null, "favourable": null, "shopMemo": null, "appraise": null, "website": null, "memo": null, "payTypes": "\u6749\u5fb7\u5361", "shopTypes": "\u9910\u996e", "consumeTypes": null, "cookTypes": null, "orderNum": 1000, "card4no": null, "card4noAcc": null, "district2": 416, "searchScope": null, "status": 1, "address": "\u4e00\u4e8c\u516b\u7eaa\u5ff5\u8def988\u5f041\u53f7", "name": "\u54c8\u6839\u8fbe\u65af \u5b9d\u5c71\u5e97", "id": 167382, "pageNo": 0, "pageCount": null, "pageSize": 10, "ids": null, "endTime": null, "startTime": null}, {"cardNumFive": null, "isSupportYj": null, "cityName": null, "districtName": null, "shopinfo": {"mid": "888888858130036", "good_flag": "2", "new_flag": "1", "short_name": "\u54c8\u6839\u8fbe\u65af", "short_name_pinyin": "hagendasi", "status": null, "address": null, "name": null, "id": "31679"}, "mid": "888888858130036", "shopId": "31679", "netid": null, "province": 901, "district": 601, "zipcode": null, "telephone": null, "posDate": null, "destineTel": null, "togoTel": null, "trafficWay": null, "signBuilding": null, "businessArea": null, "selfRoom": null, "businessTime": null, "stall": null, "consume": null, "serviceFei": null, "favourable": null, "shopMemo": null, "appraise": null, "website": null, "memo": null, "payTypes": "\u6749\u5fb7\u5361", "shopTypes": "\u9910\u996e", "consumeTypes": null, "cookTypes": null, "orderNum": 1000, "card4no": null, "card4noAcc": null, "district2": 411, "searchScope": null, "status": 1, "address": "\u58a8\u7389\u5357\u8def1055\u53f7143-145\u5ba4", "name": "\u54c8\u6839\u8fbe\u65af \u5b89\u4ead\u5e97", "id": 168500, "pageNo": 0, "pageCount": null, "pageSize": 10, "ids": null, "endTime": null, "startTime": null}, {"cardNumFive": null, "isSupportYj": null, "cityName": null, "districtName": null, "shopinfo": {"mid": "888888858130036", "good_flag": "2", "new_flag": "1", "short_name": "\u54c8\u6839\u8fbe\u65af", "short_name_pinyin": "hagendasi", "status": null, "address": null, "name": null, "id": "31679"}, "mid": "888888858130036", "shopId": "31679", "netid": null, "province": 901, "district": 601, "zipcode": null, "telephone": "60959398", "posDate": null, "destineTel": null, "togoTel": null, "trafficWay": null, "signBuilding": null, "businessArea": null, "selfRoom": null, "businessTime": null, "stall": null, "consume": null, "serviceFei": null, "favourable": null, "shopMemo": null, "appraise": null, "website": null, "memo": null, "payTypes": "\u6749\u5fb7\u5361", "shopTypes": "\u9910\u996e", "consumeTypes": null, "cookTypes": null, "orderNum": 1000, "card4no": null, "card4noAcc": null, "district2": 408, "searchScope": null, "status": 1, "address": "\u4e34\u5e73\u8def123\u53f7\u745e\u8679\u65b0\u57ce\u4e8c\u671f\u5546\u573a1\u697c", "name": "\u54c8\u6839\u8fbe\u65af \u745e\u8679\u65b0\u57ce\u5e97", "id": 181819, "pageNo": 0, "pageCount": null, "pageSize": 10, "ids": null, "endTime": null, "startTime": null}, {"cardNumFive": null, "isSupportYj": null, "cityName": null, "districtName": null, "shopinfo": {"mid": "888888858130036", "good_flag": "2", "new_flag": "1", "short_name": "\u54c8\u6839\u8fbe\u65af", "short_name_pinyin": "hagendasi", "status": null, "address": null, "name": null, "id": "31679"}, "mid": "888888858130036", "shopId": "31679", "netid": null, "province": 901, "district": 601, "zipcode": null, "telephone": "63752680", "posDate": null, "destineTel": null, "togoTel": null, "trafficWay": null, "signBuilding": null, "businessArea": null, "selfRoom": null, "businessTime": null, "stall": null, "consume": null, "serviceFei": null, "favourable": null, "shopMemo": null, "appraise": null, "website": null, "memo": null, "payTypes": "\u6749\u5fb7\u5361", "shopTypes": "\u9910\u996e", "consumeTypes": null, "cookTypes": null, "orderNum": 1000, "card4no": null, "card4noAcc": null, "district2": 401, "searchScope": null, "status": 1, "address": "\u6dee\u6d77\u4e2d\u8def138\u53f7", "name": "\u54c8\u6839\u8fbe\u65af \u65e0\u9650\u5ea6\u5e97", "id": 181820, "pageNo": 0, "pageCount": null, "pageSize": 10, "ids": null, "endTime": null, "startTime": null}, {"cardNumFive": null, "isSupportYj": null, "cityName": null, "districtName": null, "shopinfo": {"mid": "888888858130036", "good_flag": "2", "new_flag": "1", "short_name": "\u54c8\u6839\u8fbe\u65af", "short_name_pinyin": "hagendasi", "status": null, "address": null, "name": null, "id": "31679"}, "mid": "888888858130036", "shopId": "31679", "netid": null, "province": 901, "district": 601, "zipcode": null, "telephone": null, "posDate": null, "destineTel": null, "togoTel": null, "trafficWay": null, "signBuilding": null, "businessArea": null, "selfRoom": null, "businessTime": null, "stall": null, "consume": null, "serviceFei": null, "favourable": null, "shopMemo": null, "appraise": null, "website": null, "memo": null, "payTypes": "\u6749\u5fb7\u5361", "shopTypes": "\u9910\u996e", "consumeTypes": null, "cookTypes": null, "orderNum": 1000, "card4no": null, "card4noAcc": null, "district2": 405, "searchScope": null, "status": 1, "address": "\u4e2d\u5c71\u5317\u8def3300\u53f7L1102-L1103\u5546\u94fa", "name": "\u54c8\u6839\u8fbe\u65af \u6708\u661f\u5e97", "id": 181821, "pageNo": 0, "pageCount": null, "pageSize": 10, "ids": null, "endTime": null, "startTime": null}, {"cardNumFive": null, "isSupportYj": null, "cityName": null, "districtName": null, "shopinfo": {"mid": "888888858130036", "good_flag": "2", "new_flag": "1", "short_name": "\u54c8\u6839\u8fbe\u65af", "short_name_pinyin": "hagendasi", "status": null, "address": null, "name": null, "id": "31679"}, "mid": "888888858130036", "shopId": "31679", "netid": null, "province": 901, "district": 601, "zipcode": null, "telephone": null, "posDate": null, "destineTel": null, "togoTel": null, "trafficWay": null, "signBuilding": null, "businessArea": null, "selfRoom": null, "businessTime": null, "stall": null, "consume": null, "serviceFei": null, "favourable": null, "shopMemo": null, "appraise": null, "website": null, "memo": null, "payTypes": "\u6749\u5fb7\u5361", "shopTypes": "\u9910\u996e", "consumeTypes": null, "cookTypes": null, "orderNum": 1000, "card4no": null, "card4noAcc": null, "district2": 406, "searchScope": null, "status": 1, "address": "\u4ed9\u971e\u8def99\u53f7", "name": "\u54c8\u6839\u8fbe\u65af \u5c1a\u5609\u4e2d\u5fc3\u5e97", "id": 181822, "pageNo": 0, "pageCount": null, "pageSize": 10, "ids": null, "endTime": null, "startTime": null}, {"cardNumFive": null, "isSupportYj": null, "cityName": null, "districtName": null, "shopinfo": {"mid": "888888858130036", "good_flag": "2", "new_flag": "1", "short_name": "\u54c8\u6839\u8fbe\u65af", "short_name_pinyin": "hagendasi", "status": null, "address": null, "name": null, "id": "31679"}, "mid": "888888858130036", "shopId": "31679", "netid": null, "province": 901, "district": 601, "zipcode": null, "telephone": "54355201", "posDate": null, "destineTel": null, "togoTel": null, "trafficWay": null, "signBuilding": null, "businessArea": null, "selfRoom": null, "businessTime": null, "stall": null, "consume": null, "serviceFei": null, "favourable": null, "shopMemo": null, "appraise": null, "website": null, "memo": null, "payTypes": "\u6749\u5fb7\u5361", "shopTypes": "\u9910\u996e", "consumeTypes": null, "cookTypes": null, "orderNum": 1000, "card4no": null, "card4noAcc": null, "district2": 403, "searchScope": null, "status": 1, "address": "\u5929\u94a5\u6865\u8def580\u53f71F03A\u53f7\u5546\u94fa", "name": "\u54c8\u6839\u8fbe\u65af \u661f\u6e38\u57ce\u5e97", "id": 181823, "pageNo": 0, "pageCount": null, "pageSize": 10, "ids": null, "endTime": null, "startTime": null}, {"cardNumFive": null, "isSupportYj": null, "cityName": null, "districtName": null, "shopinfo": {"mid": "888888858130036", "good_flag": "2", "new_flag": "1", "short_name": "\u54c8\u6839\u8fbe\u65af", "short_name_pinyin": "hagendasi", "status": null, "address": null, "name": null, "id": "31679"}, "mid": "888888858130036", "shopId": "31679", "netid": null, "province": 901, "district": 601, "zipcode": null, "telephone": "61157356", "posDate": null, "destineTel": null, "togoTel": null, "trafficWay": null, "signBuilding": null, "businessArea": null, "selfRoom": null, "businessTime": null, "stall": null, "consume": null, "serviceFei": null, "favourable": null, "shopMemo": null, "appraise": null, "website": null, "memo": null, "payTypes": "\u6749\u5fb7\u5361", "shopTypes": "\u9910\u996e", "consumeTypes": null, "cookTypes": null, "orderNum": 1000, "card4no": null, "card4noAcc": null, "district2": 406, "searchScope": null, "status": 1, "address": "\u5929\u5c71\u8def900\u53f71\u697c", "name": "\u54c8\u6839\u8fbe\u65af \u5929\u5c71\u6c47\u91d1\u5e97", "id": 181824, "pageNo": 0, "pageCount": null, "pageSize": 10, "ids": null, "endTime": null, "startTime": null}], "pageLimit": 1900, "size": 10}