{"pageCount": 1095, "count": 10942, "pageNo": 198, "subShopInfo": {"cardNumFive": "", "isSupportYj": "", "cityName": null, "districtName": null, "shopinfo": {"mid": null, "good_flag": null, "new_flag": null, "short_name": null, "short_name_pinyin": null, "status": null, "address": "", "name": "", "id": null}, "mid": null, "shopId": null, "netid": null, "province": 901, "district": null, "zipcode": null, "telephone": null, "posDate": null, "destineTel": null, "togoTel": null, "trafficWay": null, "signBuilding": null, "businessArea": null, "selfRoom": null, "businessTime": null, "stall": null, "consume": null, "serviceFei": null, "favourable": null, "shopMemo": "1", "appraise": null, "website": null, "memo": null, "payTypes": "", "shopTypes": "", "consumeTypes": null, "cookTypes": null, "orderNum": null, "card4no": null, "card4noAcc": null, "district2": null, "searchScope": null, "status": null, "address": "", "name": null, "id": null, "pageNo": 197, "pageCount": null, "pageSize": 10, "ids": null, "endTime": null, "startTime": null}, "list": [{"cardNumFive": null, "isSupportYj": null, "cityName": null, "districtName": null, "shopinfo": {"mid": "888888859120181", "good_flag": "1", "new_flag": "2", "short_name": "\u6d77\u738b\u661f\u8fb0", "short_name_pinyin": "haiwangxingchen", "status": null, "address": null, "name": null, "id": "31691"}, "mid": "888888859120181", "shopId": "31691", "netid": null, "province": 901, "district": 601, "zipcode": null, "telephone": "61230214", "posDate": null, "destineTel": null, "togoTel": null, "trafficWay": "36\u300169", "signBuilding": null, "businessArea": null, "selfRoom": null, "businessTime": null, "stall": null, "consume": null, "serviceFei": null, "favourable": null, "shopMemo": null, "appraise": null, "website": null, "memo": null, "payTypes": "\u6749\u5fb7\u5361", "shopTypes": "\u836f\u5e97", "consumeTypes": null, "cookTypes": null, "orderNum": 1000, "card4no": null, "card4noAcc": null, "district2": 405, "searchScope": null, "status": 1, "address": "\u4e1c\u65b0\u8def76\u53f7", "name": "\u6d77\u738b\u661f\u8fb0 \u4e1c\u65b0\u5e97", "id": 134974, "pageNo": 0, "pageCount": null, "pageSize": 10, "ids": null, "endTime": null, "startTime": null}, {"cardNumFive": null, "isSupportYj": null, "cityName": null, "districtName": null, "shopinfo": {"mid": "888888859120181", "good_flag": "1", "new_flag": "2", "short_name": "\u6d77\u738b\u661f\u8fb0", "short_name_pinyin": "haiwangxingchen", "status": null, "address": null, "name": null, "id": "31691"}, "mid": "888888859120181", "shopId": "31691", "netid": null, "province": 901, "district": 601, "zipcode": null, "telephone": "54809612", "posDate": null, "destineTel": null, "togoTel": null, "trafficWay": "152\u3001700", "signBuilding": null, "businessArea": null, "selfRoom": null, "businessTime": null, "stall": null, "consume": null, "serviceFei": null, "favourable": null, "shopMemo": null, "appraise": null, "website": null, "memo": null, "payTypes": "\u6749\u5fb7\u5361", "shopTypes": "\u836f\u5e97", "consumeTypes": null, "cookTypes": null, "orderNum": 1000, "card4no": null, "card4noAcc": null, "district2": 409, "searchScope": null, "status": 1, "address": "\u53e4\u7f8e\u8def717\u53f7", "name": "\u6d77\u738b\u661f\u8fb0 \u53e4\u7f8e\u5e97", "id": 134976, "pageNo": 0, "pageCount": null, "pageSize": 10, "ids": null, "endTime": null, "startTime": null}, {"cardNumFive": null, "isSupportYj": null, "cityName": null, "districtName": null, "shopinfo": {"mid": "888888859120181", "good_flag": "1", "new_flag": "2", "short_name": "\u6d77\u738b\u661f\u8fb0", "short_name_pinyin": "haiwangxingchen", "status": null, "address": null, "name": null, "id": "31691"}, "mid": "888888859120181", "shopId": "31691", "netid": null, "province": 901, "district": 601, "zipcode": null, "telephone": "54807249", "posDate": null, "destineTel": null, "togoTel": null, "trafficWay": "700\u3001747", "signBuilding": null, "businessArea": null, "selfRoom": null, "businessTime": null, "stall": null, "consume": null, "serviceFei": null, "favourable": null, "shopMemo": null, "appraise": null, "website": null, "memo": null, "payTypes": "\u6749\u5fb7\u5361", "shopTypes": "\u836f\u5e97", "consumeTypes": null, "cookTypes": null, "orderNum": 1000, "card4no": null, "card4noAcc": null, "district2": 409, "searchScope": null, "status": 1, "address": "\u53e4\u7f8e\u8def420\u53f7103\u5ba4", "name": "\u6d77\u738b\u661f\u8fb0 \u53e4\u7f8e\u4e8c\u5e97", "id": 134977, "pageNo": 0, "pageCount": null, "pageSize": 10, "ids": null, "endTime": null, "startTime": null}, {"cardNumFive": null, "isSupportYj": null, "cityName": null, "districtName": null, "shopinfo": {"mid": "888888859120181", "good_flag": "1", "new_flag": "2", "short_name": "\u6d77\u738b\u661f\u8fb0", "short_name_pinyin": "haiwangxingchen", "status": null, "address": null, "name": null, "id": "31691"}, "mid": "888888859120181", "shopId": "31691", "netid": null, "province": 901, "district": 601, "zipcode": null, "telephone": "65269308", "posDate": null, "destineTel": null, "togoTel": null, "trafficWay": "21\u300166\u3001975", "signBuilding": null, "businessArea": null, "selfRoom": null, "businessTime": null, "stall": null, "consume": null, "serviceFei": null, "favourable": null, "shopMemo": null, "appraise": null, "website": null, "memo": null, "payTypes": "\u6749\u5fb7\u5361", "shopTypes": "\u836f\u5e97", "consumeTypes": null, "cookTypes": null, "orderNum": 1000, "card4no": null, "card4noAcc": null, "district2": 408, "searchScope": null, "status": 1, "address": "\u5e7f\u7075\u56db\u8def577\u53f7", "name": "\u6d77\u738b\u661f\u8fb0 \u5e7f\u7075\u5e97", "id": 134978, "pageNo": 0, "pageCount": null, "pageSize": 10, "ids": null, "endTime": null, "startTime": null}, {"cardNumFive": null, "isSupportYj": null, "cityName": null, "districtName": null, "shopinfo": {"mid": "888888859120181", "good_flag": "1", "new_flag": "2", "short_name": "\u6d77\u738b\u661f\u8fb0", "short_name_pinyin": "haiwangxingchen", "status": null, "address": null, "name": null, "id": "31691"}, "mid": "888888859120181", "shopId": "31691", "netid": null, "province": 901, "district": 601, "zipcode": null, "telephone": "64074883", "posDate": null, "destineTel": null, "togoTel": null, "trafficWay": "26\u300176", "signBuilding": null, "businessArea": null, "selfRoom": null, "businessTime": null, "stall": null, "consume": null, "serviceFei": null, "favourable": null, "shopMemo": null, "appraise": null, "website": null, "memo": null, "payTypes": "\u6749\u5fb7\u5361", "shopTypes": "\u836f\u5e97", "consumeTypes": null, "cookTypes": null, "orderNum": 1000, "card4no": null, "card4noAcc": null, "district2": 403, "searchScope": null, "status": 1, "address": "\u8679\u6865\u8def550\u53f7F\u5ea7", "name": "\u6d77\u738b\u661f\u8fb0 \u8679\u6865\u5e97", "id": 134979, "pageNo": 0, "pageCount": null, "pageSize": 10, "ids": null, "endTime": null, "startTime": null}, {"cardNumFive": null, "isSupportYj": null, "cityName": null, "districtName": null, "shopinfo": {"mid": "888888859120181", "good_flag": "1", "new_flag": "2", "short_name": "\u6d77\u738b\u661f\u8fb0", "short_name_pinyin": "haiwangxingchen", "status": null, "address": null, "name": null, "id": "31691"}, "mid": "888888859120181", "shopId": "31691", "netid": null, "province": 901, "district": 601, "zipcode": null, "telephone": "56749913", "posDate": null, "destineTel": null, "togoTel": null, "trafficWay": "118\u3001951\u3001749", "signBuilding": null, "businessArea": null, "selfRoom": null, "businessTime": null, "stall": null, "consume": null, "serviceFei": null, "favourable": null, "shopMemo": null, "appraise": null, "website": null, "memo": null, "payTypes": "\u6749\u5fb7\u5361", "shopTypes": "\u836f\u5e97", "consumeTypes": null, "cookTypes": null, "orderNum": 1000, "card4no": null, "card4noAcc": null, "district2": 416, "searchScope": null, "status": 1, "address": "\u864e\u6797\u8def101-103\u53f7", "name": "\u6d77\u738b\u661f\u8fb0 \u864e\u6797\u5e97", "id": 134980, "pageNo": 0, "pageCount": null, "pageSize": 10, "ids": null, "endTime": null, "startTime": null}, {"cardNumFive": null, "isSupportYj": null, "cityName": null, "districtName": null, "shopinfo": {"mid": "888888859120181", "good_flag": "1", "new_flag": "2", "short_name": "\u6d77\u738b\u661f\u8fb0", "short_name_pinyin": "haiwangxingchen", "status": null, "address": null, "name": null, "id": "31691"}, "mid": "888888859120181", "shopId": "31691", "netid": null, "province": 901, "district": 601, "zipcode": null, "telephone": "61451263", "posDate": null, "destineTel": null, "togoTel": null, "trafficWay": "804\u3001809", "signBuilding": null, "businessArea": null, "selfRoom": null, "businessTime": null, "stall": null, "consume": null, "serviceFei": null, "favourable": null, "shopMemo": null, "appraise": null, "website": null, "memo": null, "payTypes": "\u6749\u5fb7\u5361", "shopTypes": "\u836f\u5e97", "consumeTypes": null, "cookTypes": null, "orderNum": 1000, "card4no": null, "card4noAcc": null, "district2": 409, "searchScope": null, "status": 1, "address": "\u534e\u5149\u8def300\u5f04370\u53f7", "name": "\u6d77\u738b\u661f\u8fb0 \u534e\u5149\u5e97", "id": 134981, "pageNo": 0, "pageCount": null, "pageSize": 10, "ids": null, "endTime": null, "startTime": null}, {"cardNumFive": null, "isSupportYj": null, "cityName": null, "districtName": null, "shopinfo": {"mid": "888888859120181", "good_flag": "1", "new_flag": "2", "short_name": "\u6d77\u738b\u661f\u8fb0", "short_name_pinyin": "haiwangxingchen", "status": null, "address": null, "name": null, "id": "31691"}, "mid": "888888859120181", "shopId": "31691", "netid": null, "province": 901, "district": 601, "zipcode": null, "telephone": "66403791", "posDate": null, "destineTel": null, "togoTel": null, "trafficWay": "923\u3001762", "signBuilding": null, "businessArea": null, "selfRoom": null, "businessTime": null, "stall": null, "consume": null, "serviceFei": null, "favourable": null, "shopMemo": null, "appraise": null, "website": null, "memo": null, "payTypes": "\u6749\u5fb7\u5361", "shopTypes": "\u836f\u5e97", "consumeTypes": null, "cookTypes": null, "orderNum": 1000, "card4no": null, "card4noAcc": null, "district2": 416, "searchScope": null, "status": 1, "address": "\u5927\u534e\u4e09\u8def8\u53f7", "name": "\u6d77\u738b\u661f\u8fb0 \u534e\u7075\u5e97", "id": 134982, "pageNo": 0, "pageCount": null, "pageSize": 10, "ids": null, "endTime": null, "startTime": null}, {"cardNumFive": null, "isSupportYj": null, "cityName": null, "districtName": null, "shopinfo": {"mid": "888888859120181", "good_flag": "1", "new_flag": "2", "short_name": "\u6d77\u738b\u661f\u8fb0", "short_name_pinyin": "haiwangxingchen", "status": null, "address": null, "name": null, "id": "31691"}, "mid": "888888859120181", "shopId": "31691", "netid": null, "province": 901, "district": 601, "zipcode": null, "telephone": "32260472", "posDate": null, "destineTel": null, "togoTel": null, "trafficWay": "113\u3001827", "signBuilding": null, "businessArea": null, "selfRoom": null, "businessTime": null, "stall": null, "consume": null, "serviceFei": null, "favourable": null, "shopMemo": null, "appraise": null, "website": null, "memo": null, "payTypes": "\u6749\u5fb7\u5361", "shopTypes": "\u836f\u5e97", "consumeTypes": null, "cookTypes": null, "orderNum": 1000, "card4no": null, "card4noAcc": null, "district2": 406, "searchScope": null, "status": 1, "address": "\u6dee\u6d77\u897f\u8def570\u53f7", "name": "\u6d77\u738b\u661f\u8fb0 \u6dee\u6d77\u897f\u5e97", "id": 134983, "pageNo": 0, "pageCount": null, "pageSize": 10, "ids": null, "endTime": null, "startTime": null}, {"cardNumFive": null, "isSupportYj": null, "cityName": null, "districtName": null, "shopinfo": {"mid": "888888859120181", "good_flag": "1", "new_flag": "2", "short_name": "\u6d77\u738b\u661f\u8fb0", "short_name_pinyin": "haiwangxingchen", "status": null, "address": null, "name": null, "id": "31691"}, "mid": "888888859120181", "shopId": "31691", "netid": null, "province": 901, "district": 601, "zipcode": null, "telephone": "54357188", "posDate": null, "destineTel": null, "togoTel": null, "trafficWay": "178\u3001820\u3001733", "signBuilding": null, "businessArea": null, "selfRoom": null, "businessTime": null, "stall": null, "consume": null, "serviceFei": null, "favourable": null, "shopMemo": null, "appraise": null, "website": null, "memo": null, "payTypes": "\u6749\u5fb7\u5361", "shopTypes": "\u836f\u5e97", "consumeTypes": null, "cookTypes": null, "orderNum": 1000, "card4no": null, "card4noAcc": null, "district2": 403, "searchScope": null, "status": 1, "address": "\u9ec4\u77f3\u8def28\u53f7", "name": "\u6d77\u738b\u661f\u8fb0 \u9ec4\u77f3\u5e97", "id": 134984, "pageNo": 0, "pageCount": null, "pageSize": 10, "ids": null, "endTime": null, "startTime": null}], "pageLimit": 1970, "size": 10}