{"pageCount": 1095, "count": 10942, "pageNo": 199, "subShopInfo": {"cardNumFive": "", "isSupportYj": "", "cityName": null, "districtName": null, "shopinfo": {"mid": null, "good_flag": null, "new_flag": null, "short_name": null, "short_name_pinyin": null, "status": null, "address": "", "name": "", "id": null}, "mid": null, "shopId": null, "netid": null, "province": 901, "district": null, "zipcode": null, "telephone": null, "posDate": null, "destineTel": null, "togoTel": null, "trafficWay": null, "signBuilding": null, "businessArea": null, "selfRoom": null, "businessTime": null, "stall": null, "consume": null, "serviceFei": null, "favourable": null, "shopMemo": "1", "appraise": null, "website": null, "memo": null, "payTypes": "", "shopTypes": "", "consumeTypes": null, "cookTypes": null, "orderNum": null, "card4no": null, "card4noAcc": null, "district2": null, "searchScope": null, "status": null, "address": "", "name": null, "id": null, "pageNo": 198, "pageCount": null, "pageSize": 10, "ids": null, "endTime": null, "startTime": null}, "list": [{"cardNumFive": null, "isSupportYj": null, "cityName": null, "districtName": null, "shopinfo": {"mid": "888888859120181", "good_flag": "1", "new_flag": "2", "short_name": "\u6d77\u738b\u661f\u8fb0", "short_name_pinyin": "haiwangxingchen", "status": null, "address": null, "name": null, "id": "31691"}, "mid": "888888859120181", "shopId": "31691", "netid": null, "province": 901, "district": 601, "zipcode": null, "telephone": "65602417", "posDate": null, "destineTel": null, "togoTel": null, "trafficWay": "60\u3001100\u3001502", "signBuilding": null, "businessArea": null, "selfRoom": null, "businessTime": null, "stall": null, "consume": null, "serviceFei": null, "favourable": null, "shopMemo": null, "appraise": null, "website": null, "memo": null, "payTypes": "\u6749\u5fb7\u5361", "shopTypes": "\u836f\u5e97", "consumeTypes": null, "cookTypes": null, "orderNum": 1000, "card4no": null, "card4noAcc": null, "district2": 407, "searchScope": null, "status": 1, "address": "\u5409\u6d66\u8def339\u53f7", "name": "\u6d77\u738b\u661f\u8fb0 \u5409\u6d66\u5e97", "id": 134986, "pageNo": 0, "pageCount": null, "pageSize": 10, "ids": null, "endTime": null, "startTime": null}, {"cardNumFive": null, "isSupportYj": null, "cityName": null, "districtName": null, "shopinfo": {"mid": "888888859120181", "good_flag": "1", "new_flag": "2", "short_name": "\u6d77\u738b\u661f\u8fb0", "short_name_pinyin": "haiwangxingchen", "status": null, "address": null, "name": null, "id": "31691"}, "mid": "888888859120181", "shopId": "31691", "netid": null, "province": 901, "district": 601, "zipcode": null, "telephone": "65127451", "posDate": null, "destineTel": null, "togoTel": null, "trafficWay": "70\u3001841", "signBuilding": null, "businessArea": null, "selfRoom": null, "businessTime": null, "stall": null, "consume": null, "serviceFei": null, "favourable": null, "shopMemo": null, "appraise": null, "website": null, "memo": null, "payTypes": "\u6749\u5fb7\u5361", "shopTypes": "\u836f\u5e97", "consumeTypes": null, "cookTypes": null, "orderNum": 1000, "card4no": null, "card4noAcc": null, "district2": 407, "searchScope": null, "status": 1, "address": "\u6c5f\u6d66\u8def1155\u53f7", "name": "\u6d77\u738b\u661f\u8fb0 \u6c5f\u6d66\u5e97", "id": 134987, "pageNo": 0, "pageCount": null, "pageSize": 10, "ids": null, "endTime": null, "startTime": null}, {"cardNumFive": null, "isSupportYj": null, "cityName": null, "districtName": null, "shopinfo": {"mid": "888888859120181", "good_flag": "1", "new_flag": "2", "short_name": "\u6d77\u738b\u661f\u8fb0", "short_name_pinyin": "haiwangxingchen", "status": null, "address": null, "name": null, "id": "31691"}, "mid": "888888859120181", "shopId": "31691", "netid": null, "province": 901, "district": 601, "zipcode": null, "telephone": "39525189", "posDate": null, "destineTel": null, "togoTel": null, "trafficWay": "\u9646\u5b89\u4e13\u7ebf\u3001860\u8def", "signBuilding": null, "businessArea": null, "selfRoom": null, "businessTime": null, "stall": null, "consume": null, "serviceFei": null, "favourable": null, "shopMemo": null, "appraise": null, "website": null, "memo": null, "payTypes": "\u6749\u5fb7\u5361", "shopTypes": "\u836f\u5e97", "consumeTypes": null, "cookTypes": null, "orderNum": 1000, "card4no": null, "card4noAcc": null, "district2": 411, "searchScope": null, "status": 1, "address": "\u66f9\u5b89\u8def2188\u53f7", "name": "\u6d77\u738b\u661f\u8fb0 \u6c5f\u6865\u5e97", "id": 134988, "pageNo": 0, "pageCount": null, "pageSize": 10, "ids": null, "endTime": null, "startTime": null}, {"cardNumFive": null, "isSupportYj": null, "cityName": null, "districtName": null, "shopinfo": {"mid": "888888859120181", "good_flag": "1", "new_flag": "2", "short_name": "\u6d77\u738b\u661f\u8fb0", "short_name_pinyin": "haiwangxingchen", "status": null, "address": null, "name": null, "id": "31691"}, "mid": "888888859120181", "shopId": "31691", "netid": null, "province": 901, "district": 601, "zipcode": null, "telephone": "66518178", "posDate": null, "destineTel": null, "togoTel": null, "trafficWay": "210\u3001909\u3001959", "signBuilding": null, "businessArea": null, "selfRoom": null, "businessTime": null, "stall": null, "consume": null, "serviceFei": null, "favourable": null, "shopMemo": null, "appraise": null, "website": null, "memo": null, "payTypes": "\u6749\u5fb7\u5361", "shopTypes": "\u836f\u5e97", "consumeTypes": null, "cookTypes": null, "orderNum": 1000, "card4no": null, "card4noAcc": null, "district2": 410, "searchScope": null, "status": 1, "address": "\u4ea4\u57ce\u8def366\u53f7", "name": "\u6d77\u738b\u661f\u8fb0 \u4ea4\u57ce\u5e97", "id": 134989, "pageNo": 0, "pageCount": null, "pageSize": 10, "ids": null, "endTime": null, "startTime": null}, {"cardNumFive": null, "isSupportYj": null, "cityName": null, "districtName": null, "shopinfo": {"mid": "888888859120181", "good_flag": "1", "new_flag": "2", "short_name": "\u6d77\u738b\u661f\u8fb0", "short_name_pinyin": "haiwangxingchen", "status": null, "address": null, "name": null, "id": "31691"}, "mid": "888888859120181", "shopId": "31691", "netid": null, "province": 901, "district": 601, "zipcode": null, "telephone": "52244448", "posDate": null, "destineTel": null, "togoTel": null, "trafficWay": "206\u3001909", "signBuilding": null, "businessArea": null, "selfRoom": null, "businessTime": null, "stall": null, "consume": null, "serviceFei": null, "favourable": null, "shopMemo": null, "appraise": null, "website": null, "memo": null, "payTypes": "\u6749\u5fb7\u5361", "shopTypes": "\u836f\u5e97", "consumeTypes": null, "cookTypes": null, "orderNum": 1000, "card4no": null, "card4noAcc": null, "district2": 405, "searchScope": null, "status": 1, "address": "\u5c9a\u768b\u8def241\u53f7", "name": "\u6d77\u738b\u661f\u8fb0 \u5c9a\u768b\u5e97", "id": 134990, "pageNo": 0, "pageCount": null, "pageSize": 10, "ids": null, "endTime": null, "startTime": null}, {"cardNumFive": null, "isSupportYj": null, "cityName": null, "districtName": null, "shopinfo": {"mid": "888888859120181", "good_flag": "1", "new_flag": "2", "short_name": "\u6d77\u738b\u661f\u8fb0", "short_name_pinyin": "haiwangxingchen", "status": null, "address": null, "name": null, "id": "31691"}, "mid": "888888859120181", "shopId": "31691", "netid": null, "province": 901, "district": 601, "zipcode": null, "telephone": "50258975", "posDate": null, "destineTel": null, "togoTel": null, "trafficWay": "170\u3001405", "signBuilding": null, "businessArea": null, "selfRoom": null, "businessTime": null, "stall": null, "consume": null, "serviceFei": null, "favourable": null, "shopMemo": null, "appraise": null, "website": null, "memo": null, "payTypes": "\u6749\u5fb7\u5361", "shopTypes": "\u836f\u5e97", "consumeTypes": null, "cookTypes": null, "orderNum": 1000, "card4no": null, "card4noAcc": null, "district2": 418, "searchScope": null, "status": 1, "address": "\u5229\u6d25\u8def695\u53f7", "name": "\u6d77\u738b\u661f\u8fb0 \u5229\u6d25\u5e97", "id": 134992, "pageNo": 0, "pageCount": null, "pageSize": 10, "ids": null, "endTime": null, "startTime": null}, {"cardNumFive": null, "isSupportYj": null, "cityName": null, "districtName": null, "shopinfo": {"mid": "888888859120181", "good_flag": "1", "new_flag": "2", "short_name": "\u6d77\u738b\u661f\u8fb0", "short_name_pinyin": "haiwangxingchen", "status": null, "address": null, "name": null, "id": "31691"}, "mid": "888888859120181", "shopId": "31691", "netid": null, "province": 901, "district": 601, "zipcode": null, "telephone": "65373800", "posDate": null, "destineTel": null, "togoTel": null, "trafficWay": "22\u300128\u300133", "signBuilding": null, "businessArea": null, "selfRoom": null, "businessTime": null, "stall": null, "consume": null, "serviceFei": null, "favourable": null, "shopMemo": null, "appraise": null, "website": null, "memo": null, "payTypes": "\u6749\u5fb7\u5361", "shopTypes": "\u836f\u5e97", "consumeTypes": null, "cookTypes": null, "orderNum": 1000, "card4no": null, "card4noAcc": null, "district2": 408, "searchScope": null, "status": 1, "address": "\u4e34\u6f7c\u8def170\u53f7D\u5ea7", "name": "\u6d77\u738b\u661f\u8fb0 \u4e34\u6f7c\u5e97", "id": 134993, "pageNo": 0, "pageCount": null, "pageSize": 10, "ids": null, "endTime": null, "startTime": null}, {"cardNumFive": null, "isSupportYj": null, "cityName": null, "districtName": null, "shopinfo": {"mid": "888888859120181", "good_flag": "1", "new_flag": "2", "short_name": "\u6d77\u738b\u661f\u8fb0", "short_name_pinyin": "haiwangxingchen", "status": null, "address": null, "name": null, "id": "31691"}, "mid": "888888859120181", "shopId": "31691", "netid": null, "province": 901, "district": 601, "zipcode": null, "telephone": "50281276", "posDate": null, "destineTel": null, "togoTel": null, "trafficWay": "609\u3001977", "signBuilding": null, "businessArea": null, "selfRoom": null, "businessTime": null, "stall": null, "consume": null, "serviceFei": null, "favourable": null, "shopMemo": null, "appraise": null, "website": null, "memo": null, "payTypes": "\u6749\u5fb7\u5361", "shopTypes": "\u836f\u5e97", "consumeTypes": null, "cookTypes": null, "orderNum": 1000, "card4no": null, "card4noAcc": null, "district2": 418, "searchScope": null, "status": 1, "address": "\u7075\u5c71\u8def716\u53f7", "name": "\u6d77\u738b\u661f\u8fb0 \u7075\u5c71\u5e97", "id": 134994, "pageNo": 0, "pageCount": null, "pageSize": 10, "ids": null, "endTime": null, "startTime": null}, {"cardNumFive": null, "isSupportYj": null, "cityName": null, "districtName": null, "shopinfo": {"mid": "888888859120181", "good_flag": "1", "new_flag": "2", "short_name": "\u6d77\u738b\u661f\u8fb0", "short_name_pinyin": "haiwangxingchen", "status": null, "address": null, "name": null, "id": "31691"}, "mid": "888888859120181", "shopId": "31691", "netid": null, "province": 901, "district": 601, "zipcode": null, "telephone": "64080154", "posDate": null, "destineTel": null, "togoTel": null, "trafficWay": "816\u3001718\u3001\u5f90\u95f5\u7ebf", "signBuilding": null, "businessArea": null, "selfRoom": null, "businessTime": null, "stall": null, "consume": null, "serviceFei": null, "favourable": null, "shopMemo": null, "appraise": null, "website": null, "memo": null, "payTypes": "\u6749\u5fb7\u5361", "shopTypes": "\u836f\u5e97", "consumeTypes": null, "cookTypes": null, "orderNum": 1000, "card4no": null, "card4noAcc": null, "district2": 403, "searchScope": null, "status": 1, "address": "\u9f99\u6f15\u8def29\u53f7102\u5ba4", "name": "\u6d77\u738b\u661f\u8fb0 \u9f99\u6f15\u5e97", "id": 134995, "pageNo": 0, "pageCount": null, "pageSize": 10, "ids": null, "endTime": null, "startTime": null}, {"cardNumFive": null, "isSupportYj": null, "cityName": null, "districtName": null, "shopinfo": {"mid": "888888859120181", "good_flag": "1", "new_flag": "2", "short_name": "\u6d77\u738b\u661f\u8fb0", "short_name_pinyin": "haiwangxingchen", "status": null, "address": null, "name": null, "id": "31691"}, "mid": "888888859120181", "shopId": "31691", "netid": null, "province": 901, "district": 601, "zipcode": null, "telephone": "64805461", "posDate": null, "destineTel": null, "togoTel": null, "trafficWay": "739\u3001150", "signBuilding": null, "businessArea": null, "selfRoom": null, "businessTime": null, "stall": null, "consume": null, "serviceFei": null, "favourable": null, "shopMemo": null, "appraise": null, "website": null, "memo": null, "payTypes": "\u6749\u5fb7\u5361", "shopTypes": "\u836f\u5e97", "consumeTypes": null, "cookTypes": null, "orderNum": 1000, "card4no": null, "card4noAcc": null, "district2": 409, "searchScope": null, "status": 1, "address": "\u9f99\u8317\u8def1639\uff0c1653\u53f7", "name": "\u6d77\u738b\u661f\u8fb0 \u9f99\u8317\u8def", "id": 134997, "pageNo": 0, "pageCount": null, "pageSize": 10, "ids": null, "endTime": null, "startTime": null}], "pageLimit": 1980, "size": 10}