{"pageCount": 1095, "count": 10942, "pageNo": 195, "subShopInfo": {"cardNumFive": "", "isSupportYj": "", "cityName": null, "districtName": null, "shopinfo": {"mid": null, "good_flag": null, "new_flag": null, "short_name": null, "short_name_pinyin": null, "status": null, "address": "", "name": "", "id": null}, "mid": null, "shopId": null, "netid": null, "province": 901, "district": null, "zipcode": null, "telephone": null, "posDate": null, "destineTel": null, "togoTel": null, "trafficWay": null, "signBuilding": null, "businessArea": null, "selfRoom": null, "businessTime": null, "stall": null, "consume": null, "serviceFei": null, "favourable": null, "shopMemo": "1", "appraise": null, "website": null, "memo": null, "payTypes": "", "shopTypes": "", "consumeTypes": null, "cookTypes": null, "orderNum": null, "card4no": null, "card4noAcc": null, "district2": null, "searchScope": null, "status": null, "address": "", "name": null, "id": null, "pageNo": 194, "pageCount": null, "pageSize": 10, "ids": null, "endTime": null, "startTime": null}, "list": [{"cardNumFive": null, "isSupportYj": null, "cityName": null, "districtName": null, "shopinfo": {"mid": "888002154410051", "good_flag": "2", "new_flag": "2", "short_name": "\u54c8\u6839\u8fbe\u65af", "short_name_pinyin": "hagendasi", "status": null, "address": null, "name": null, "id": "43245"}, "mid": "888002154410051", "shopId": "43245", "netid": null, "province": 901, "district": 601, "zipcode": null, "telephone": null, "posDate": null, "destineTel": null, "togoTel": null, "trafficWay": null, "signBuilding": null, "businessArea": null, "selfRoom": null, "businessTime": null, "stall": null, "consume": null, "serviceFei": null, "favourable": null, "shopMemo": null, "appraise": null, "website": null, "memo": null, "payTypes": "\u6749\u5fb7\u5361,", "shopTypes": "\u9910\u996e", "consumeTypes": null, "cookTypes": null, "orderNum": null, "card4no": null, "card4noAcc": null, "district2": 408, "searchScope": null, "status": 1, "address": "\u90af\u90f8\u8def608\u5f0431-33\u53f7", "name": "\u90af\u90f8\u8def\u5e97", "id": 418057394308775936, "pageNo": 0, "pageCount": null, "pageSize": 10, "ids": null, "endTime": null, "startTime": null}, {"cardNumFive": null, "isSupportYj": null, "cityName": null, "districtName": null, "shopinfo": {"mid": "888002154410051", "good_flag": "2", "new_flag": "2", "short_name": "\u54c8\u6839\u8fbe\u65af", "short_name_pinyin": "hagendasi", "status": null, "address": null, "name": null, "id": "43245"}, "mid": "888002154410051", "shopId": "43245", "netid": null, "province": 901, "district": 601, "zipcode": null, "telephone": null, "posDate": null, "destineTel": null, "togoTel": null, "trafficWay": null, "signBuilding": null, "businessArea": null, "selfRoom": null, "businessTime": null, "stall": null, "consume": null, "serviceFei": null, "favourable": null, "shopMemo": null, "appraise": null, "website": null, "memo": null, "payTypes": "\u6749\u5fb7\u5361,", "shopTypes": "\u9910\u996e", "consumeTypes": null, "cookTypes": null, "orderNum": null, "card4no": null, "card4noAcc": null, "district2": 406, "searchScope": null, "status": 1, "address": "\u9075\u4e49\u8def150\u53f7\u5357\u4e30\u57ceC\u680b3-L107\u94fa", "name": "\u8679\u6865\u5357\u4e30\u57ce", "id": 454317292235259904, "pageNo": 0, "pageCount": null, "pageSize": 10, "ids": null, "endTime": null, "startTime": null}, {"cardNumFive": null, "isSupportYj": null, "cityName": null, "districtName": null, "shopinfo": {"mid": "888002154410051", "good_flag": "2", "new_flag": "2", "short_name": "\u54c8\u6839\u8fbe\u65af", "short_name_pinyin": "hagendasi", "status": null, "address": null, "name": null, "id": "43245"}, "mid": "888002154410051", "shopId": "43245", "netid": null, "province": 901, "district": 601, "zipcode": null, "telephone": null, "posDate": null, "destineTel": null, "togoTel": null, "trafficWay": null, "signBuilding": null, "businessArea": null, "selfRoom": null, "businessTime": null, "stall": null, "consume": null, "serviceFei": null, "favourable": null, "shopMemo": null, "appraise": null, "website": null, "memo": null, "payTypes": "\u6749\u5fb7\u5361,", "shopTypes": "\u9910\u996e", "consumeTypes": null, "cookTypes": null, "orderNum": null, "card4no": null, "card4noAcc": null, "district2": 407, "searchScope": null, "status": 1, "address": "\u63a7\u6c5f\u8def1777\u53f7\u541b\u6b23\u65f6\u4ee3\u5e7f\u573a\u4e00\u5c42", "name": "\u63a7\u6c5f\u8def\u5e97", "id": 469523863126933504, "pageNo": 0, "pageCount": null, "pageSize": 10, "ids": null, "endTime": null, "startTime": null}, {"cardNumFive": null, "isSupportYj": null, "cityName": null, "districtName": null, "shopinfo": {"mid": "888002154410051", "good_flag": "2", "new_flag": "2", "short_name": "\u54c8\u6839\u8fbe\u65af", "short_name_pinyin": "hagendasi", "status": null, "address": null, "name": null, "id": "43245"}, "mid": "888002154410051", "shopId": "43245", "netid": null, "province": 901, "district": 601, "zipcode": null, "telephone": null, "posDate": null, "destineTel": null, "togoTel": null, "trafficWay": null, "signBuilding": null, "businessArea": null, "selfRoom": null, "businessTime": null, "stall": null, "consume": null, "serviceFei": null, "favourable": null, "shopMemo": null, "appraise": null, "website": null, "memo": null, "payTypes": "\u6749\u5fb7\u5361,", "shopTypes": "\u9910\u996e", "consumeTypes": null, "cookTypes": null, "orderNum": null, "card4no": null, "card4noAcc": null, "district2": 405, "searchScope": null, "status": 1, "address": "\u5927\u6e21\u6cb3\u8def168\u5f04136\u53f7106\u94fa", "name": "\u5927\u6e21\u6cb3\u8def\u5e97", "id": 469523863546363904, "pageNo": 0, "pageCount": null, "pageSize": 10, "ids": null, "endTime": null, "startTime": null}, {"cardNumFive": null, "isSupportYj": null, "cityName": null, "districtName": null, "shopinfo": {"mid": "888002154410051", "good_flag": "2", "new_flag": "2", "short_name": "\u54c8\u6839\u8fbe\u65af", "short_name_pinyin": "hagendasi", "status": null, "address": null, "name": null, "id": "43245"}, "mid": "888002154410051", "shopId": "43245", "netid": null, "province": 901, "district": 601, "zipcode": null, "telephone": null, "posDate": null, "destineTel": null, "togoTel": null, "trafficWay": null, "signBuilding": null, "businessArea": null, "selfRoom": null, "businessTime": null, "stall": null, "consume": null, "serviceFei": null, "favourable": null, "shopMemo": null, "appraise": null, "website": null, "memo": null, "payTypes": "\u6749\u5fb7\u5361,", "shopTypes": "\u9910\u996e", "consumeTypes": null, "cookTypes": null, "orderNum": null, "card4no": null, "card4noAcc": null, "district2": 404, "searchScope": null, "status": 1, "address": "\u6caa\u592a\u8def1111\u5f047\u53f74\u53f7\u697c\u4e00\u5c42L101\u5ba4", "name": "\u6caa\u592a\u8def", "id": 469523875420438528, "pageNo": 0, "pageCount": null, "pageSize": 10, "ids": null, "endTime": null, "startTime": null}, {"cardNumFive": null, "isSupportYj": null, "cityName": null, "districtName": null, "shopinfo": {"mid": "888002154410051", "good_flag": "2", "new_flag": "2", "short_name": "\u54c8\u6839\u8fbe\u65af", "short_name_pinyin": "hagendasi", "status": null, "address": null, "name": null, "id": "43245"}, "mid": "888002154410051", "shopId": "43245", "netid": null, "province": 901, "district": 601, "zipcode": null, "telephone": null, "posDate": null, "destineTel": null, "togoTel": null, "trafficWay": null, "signBuilding": null, "businessArea": null, "selfRoom": null, "businessTime": null, "stall": null, "consume": null, "serviceFei": null, "favourable": null, "shopMemo": null, "appraise": null, "website": null, "memo": null, "payTypes": "", "shopTypes": null, "consumeTypes": null, "cookTypes": null, "orderNum": null, "card4no": null, "card4noAcc": null, "district2": 418, "searchScope": null, "status": 1, "address": "\u5f20\u6768\u8def2389\u5f04{1-2}\u53f7\u7f6e\u6c47\u65ed\u8f89\u5e7f\u573a\u8d2d\u7269\u4e2d\u5fc31\u5c4204a\u5ba4", "name": "\u7f6e\u6c47\u65ed\u8f89\u5e97", "id": 503957652364066816, "pageNo": 0, "pageCount": null, "pageSize": 10, "ids": null, "endTime": null, "startTime": null}, {"cardNumFive": null, "isSupportYj": null, "cityName": null, "districtName": null, "shopinfo": {"mid": "888002154410051", "good_flag": "2", "new_flag": "2", "short_name": "\u54c8\u6839\u8fbe\u65af", "short_name_pinyin": "hagendasi", "status": null, "address": null, "name": null, "id": "43245"}, "mid": "888002154410051", "shopId": "43245", "netid": null, "province": 901, "district": 601, "zipcode": null, "telephone": null, "posDate": null, "destineTel": null, "togoTel": null, "trafficWay": null, "signBuilding": null, "businessArea": null, "selfRoom": null, "businessTime": null, "stall": null, "consume": null, "serviceFei": null, "favourable": null, "shopMemo": null, "appraise": null, "website": null, "memo": null, "payTypes": "", "shopTypes": null, "consumeTypes": null, "cookTypes": null, "orderNum": null, "card4no": null, "card4noAcc": null, "district2": 417, "searchScope": null, "status": 1, "address": "\u6c47\u91d1\u8def590\u53f71\u697c1F-021\u94fa", "name": "\u9752\u6d66\u5b9d\u9f99\u5e7f\u573a\u5e97", "id": 503957652754137088, "pageNo": 0, "pageCount": null, "pageSize": 10, "ids": null, "endTime": null, "startTime": null}, {"cardNumFive": null, "isSupportYj": null, "cityName": null, "districtName": null, "shopinfo": {"mid": "888002154410051", "good_flag": "2", "new_flag": "2", "short_name": "\u54c8\u6839\u8fbe\u65af", "short_name_pinyin": "hagendasi", "status": null, "address": null, "name": null, "id": "43245"}, "mid": "888002154410051", "shopId": "43245", "netid": null, "province": 901, "district": 601, "zipcode": null, "telephone": null, "posDate": null, "destineTel": null, "togoTel": null, "trafficWay": null, "signBuilding": null, "businessArea": null, "selfRoom": null, "businessTime": null, "stall": null, "consume": null, "serviceFei": null, "favourable": null, "shopMemo": null, "appraise": null, "website": null, "memo": null, "payTypes": "", "shopTypes": null, "consumeTypes": null, "cookTypes": null, "orderNum": null, "card4no": null, "card4noAcc": null, "district2": 409, "searchScope": null, "status": 1, "address": "\u6f15\u5b9d\u8def3366\u53f7\u4e03\u5b9d\u4e07\u79d1\u5e7f\u573a5\u5c42521A\u53f7\u5546\u94fa", "name": "\u4e03\u5b9d\u4e07\u79d1Kiosk\u5e97", "id": 552801276803416064, "pageNo": 0, "pageCount": null, "pageSize": 10, "ids": null, "endTime": null, "startTime": null}, {"cardNumFive": null, "isSupportYj": null, "cityName": null, "districtName": null, "shopinfo": {"mid": "888888854410081", "good_flag": "2", "new_flag": "2", "short_name": "\u6d77\u5ba2\u4e50\u6709\u673a\u98df\u54c1", "short_name_pinyin": "haikeleyoujishipin", "status": null, "address": null, "name": null, "id": "31684"}, "mid": "888888854410081", "shopId": "31684", "netid": null, "province": 901, "district": 601, "zipcode": null, "telephone": "32100356", "posDate": "20080627", "destineTel": null, "togoTel": null, "trafficWay": "\u516c\u4ea4112 \u5730\u94c1\u4e8c\u53f7\u7ebf", "signBuilding": null, "businessArea": null, "selfRoom": null, "businessTime": "08:30~20:30", "stall": null, "consume": null, "serviceFei": null, "favourable": null, "shopMemo": null, "appraise": null, "website": null, "memo": null, "payTypes": "\u6749\u5fb7\u5361", "shopTypes": "\u4e13\u5356", "consumeTypes": null, "cookTypes": null, "orderNum": 1000, "card4no": null, "card4noAcc": null, "district2": 404, "searchScope": null, "status": 1, "address": "\u5317\u4eac\u897f\u8def489\u53f7\u5e97\u94fa", "name": "\u6d77\u5ba2\u4e50\u6709\u673a\u98df\u54c1 \u5317\u4eac\u8def\u5e97", "id": 134931, "pageNo": 0, "pageCount": null, "pageSize": 10, "ids": null, "endTime": null, "startTime": null}, {"cardNumFive": null, "isSupportYj": null, "cityName": null, "districtName": null, "shopinfo": {"mid": "888888854410081", "good_flag": "2", "new_flag": "2", "short_name": "\u6d77\u5ba2\u4e50\u6709\u673a\u98df\u54c1", "short_name_pinyin": "haikeleyoujishipin", "status": null, "address": null, "name": null, "id": "31684"}, "mid": "888888854410081", "shopId": "31684", "netid": null, "province": 901, "district": 601, "zipcode": null, "telephone": "50277011", "posDate": "20080515", "destineTel": null, "togoTel": null, "trafficWay": "\u516c\u4ea4\u65b9\u5ddd\u4e13\u7ebf \u5730\u94c1\u4e8c\u53f7\u7ebf", "signBuilding": null, "businessArea": null, "selfRoom": null, "businessTime": "08:30~20:30", "stall": null, "consume": null, "serviceFei": null, "favourable": null, "shopMemo": null, "appraise": null, "website": null, "memo": null, "payTypes": "\u6749\u5fb7\u5361", "shopTypes": "\u4e13\u5356", "consumeTypes": null, "cookTypes": null, "orderNum": 1000, "card4no": null, "card4noAcc": null, "district2": 418, "searchScope": null, "status": 1, "address": "\u78a7\u6ce2\u8def518\u53f7", "name": "\u6d77\u5ba2\u4e50\u6709\u673a\u98df\u54c1 \u78a7\u6ce2\u5e97", "id": 134932, "pageNo": 0, "pageCount": null, "pageSize": 10, "ids": null, "endTime": null, "startTime": null}], "pageLimit": 1940, "size": 10}