{"pageCount": 1095, "count": 10942, "pageNo": 193, "subShopInfo": {"cardNumFive": "", "isSupportYj": "", "cityName": null, "districtName": null, "shopinfo": {"mid": null, "good_flag": null, "new_flag": null, "short_name": null, "short_name_pinyin": null, "status": null, "address": "", "name": "", "id": null}, "mid": null, "shopId": null, "netid": null, "province": 901, "district": null, "zipcode": null, "telephone": null, "posDate": null, "destineTel": null, "togoTel": null, "trafficWay": null, "signBuilding": null, "businessArea": null, "selfRoom": null, "businessTime": null, "stall": null, "consume": null, "serviceFei": null, "favourable": null, "shopMemo": "1", "appraise": null, "website": null, "memo": null, "payTypes": "", "shopTypes": "", "consumeTypes": null, "cookTypes": null, "orderNum": null, "card4no": null, "card4noAcc": null, "district2": null, "searchScope": null, "status": null, "address": "", "name": null, "id": null, "pageNo": 192, "pageCount": null, "pageSize": 10, "ids": null, "endTime": null, "startTime": null}, "list": [{"cardNumFive": null, "isSupportYj": null, "cityName": null, "districtName": null, "shopinfo": {"mid": "888888858130036", "good_flag": "2", "new_flag": "1", "short_name": "\u54c8\u6839\u8fbe\u65af", "short_name_pinyin": "hagendasi", "status": null, "address": null, "name": null, "id": "31679"}, "mid": "888888858130036", "shopId": "31679", "netid": null, "province": 901, "district": 601, "zipcode": null, "telephone": null, "posDate": null, "destineTel": null, "togoTel": null, "trafficWay": null, "signBuilding": null, "businessArea": null, "selfRoom": null, "businessTime": null, "stall": null, "consume": null, "serviceFei": null, "favourable": null, "shopMemo": null, "appraise": null, "website": null, "memo": null, "payTypes": "\u6749\u5fb7\u5361", "shopTypes": "\u9910\u996e", "consumeTypes": null, "cookTypes": null, "orderNum": 1000, "card4no": null, "card4noAcc": null, "district2": 401, "searchScope": null, "status": 1, "address": "\u8c6b\u56ed\u65b0\u8def35\u53f71\u697c", "name": "\u54c8\u6839\u8fbe\u65af \u8c6b\u56ed2\u5e97", "id": 183242, "pageNo": 0, "pageCount": null, "pageSize": 10, "ids": null, "endTime": null, "startTime": null}, {"cardNumFive": null, "isSupportYj": null, "cityName": null, "districtName": null, "shopinfo": {"mid": "888888858130036", "good_flag": "2", "new_flag": "1", "short_name": "\u54c8\u6839\u8fbe\u65af", "short_name_pinyin": "hagendasi", "status": null, "address": null, "name": null, "id": "31679"}, "mid": "888888858130036", "shopId": "31679", "netid": null, "province": 901, "district": 601, "zipcode": null, "telephone": "67297659", "posDate": null, "destineTel": null, "togoTel": null, "trafficWay": null, "signBuilding": null, "businessArea": null, "selfRoom": null, "businessTime": null, "stall": null, "consume": null, "serviceFei": null, "favourable": null, "shopMemo": null, "appraise": null, "website": null, "memo": null, "payTypes": "\u6749\u5fb7\u5361", "shopTypes": "\u9910\u996e", "consumeTypes": null, "cookTypes": null, "orderNum": 1000, "card4no": null, "card4noAcc": null, "district2": 414, "searchScope": null, "status": 1, "address": "\u536b\u6e05\u897f\u8def188\u53f7", "name": "\u54c8\u6839\u8fbe\u65af \u91d1\u5c71\u5e97", "id": 184193, "pageNo": 0, "pageCount": null, "pageSize": 10, "ids": null, "endTime": null, "startTime": null}, {"cardNumFive": null, "isSupportYj": null, "cityName": null, "districtName": null, "shopinfo": {"mid": "888888858130036", "good_flag": "2", "new_flag": "1", "short_name": "\u54c8\u6839\u8fbe\u65af", "short_name_pinyin": "hagendasi", "status": null, "address": null, "name": null, "id": "31679"}, "mid": "888888858130036", "shopId": "31679", "netid": null, "province": 901, "district": 601, "zipcode": null, "telephone": "36536076", "posDate": null, "destineTel": null, "togoTel": null, "trafficWay": null, "signBuilding": null, "businessArea": null, "selfRoom": null, "businessTime": null, "stall": null, "consume": null, "serviceFei": null, "favourable": null, "shopMemo": null, "appraise": null, "website": null, "memo": null, "payTypes": "\u6749\u5fb7\u5361", "shopTypes": "\u9910\u996e", "consumeTypes": null, "cookTypes": null, "orderNum": 1000, "card4no": null, "card4noAcc": null, "district2": 416, "searchScope": null, "status": 1, "address": "\u5927\u534e\u4e00\u8def198\u53f7", "name": "\u54c8\u6839\u8fbe\u65af \u5927\u534e\u4e8c\u5e97", "id": 184194, "pageNo": 0, "pageCount": null, "pageSize": 10, "ids": null, "endTime": null, "startTime": null}, {"cardNumFive": null, "isSupportYj": null, "cityName": null, "districtName": null, "shopinfo": {"mid": "888888858130036", "good_flag": "2", "new_flag": "1", "short_name": "\u54c8\u6839\u8fbe\u65af", "short_name_pinyin": "hagendasi", "status": null, "address": null, "name": null, "id": "31679"}, "mid": "888888858130036", "shopId": "31679", "netid": null, "province": 901, "district": 601, "zipcode": null, "telephone": "61437944", "posDate": null, "destineTel": null, "togoTel": null, "trafficWay": null, "signBuilding": null, "businessArea": null, "selfRoom": null, "businessTime": null, "stall": null, "consume": null, "serviceFei": null, "favourable": null, "shopMemo": null, "appraise": null, "website": null, "memo": null, "payTypes": "\u6749\u5fb7\u5361", "shopTypes": "\u9910\u996e", "consumeTypes": null, "cookTypes": null, "orderNum": 1000, "card4no": null, "card4noAcc": null, "district2": 401, "searchScope": null, "status": 1, "address": "\u5434\u6c5f\u8def269\u53f71\u697c", "name": "\u54c8\u6839\u8fbe\u65af \u5434\u6c5f\u8def\u5e97", "id": 186373, "pageNo": 0, "pageCount": null, "pageSize": 10, "ids": null, "endTime": null, "startTime": null}, {"cardNumFive": null, "isSupportYj": null, "cityName": null, "districtName": null, "shopinfo": {"mid": "888888858130036", "good_flag": "2", "new_flag": "1", "short_name": "\u54c8\u6839\u8fbe\u65af", "short_name_pinyin": "hagendasi", "status": null, "address": null, "name": null, "id": "31679"}, "mid": "888888858130036", "shopId": "31679", "netid": null, "province": 901, "district": 601, "zipcode": null, "telephone": "52358899", "posDate": null, "destineTel": null, "togoTel": null, "trafficWay": null, "signBuilding": null, "businessArea": null, "selfRoom": null, "businessTime": null, "stall": null, "consume": null, "serviceFei": null, "favourable": null, "shopMemo": null, "appraise": null, "website": null, "memo": null, "payTypes": "\u6749\u5fb7\u5361", "shopTypes": "\u9910\u996e", "consumeTypes": null, "cookTypes": null, "orderNum": 1000, "card4no": null, "card4noAcc": null, "district2": 405, "searchScope": null, "status": 1, "address": "\u6b66\u5b81\u8def101\u53f71\u697c", "name": "\u54c8\u6839\u8fbe\u65af \u6b66\u5b81\u8def\u5e97", "id": 186374, "pageNo": 0, "pageCount": null, "pageSize": 10, "ids": null, "endTime": null, "startTime": null}, {"cardNumFive": null, "isSupportYj": null, "cityName": null, "districtName": null, "shopinfo": {"mid": "888888858130036", "good_flag": "2", "new_flag": "1", "short_name": "\u54c8\u6839\u8fbe\u65af", "short_name_pinyin": "hagendasi", "status": null, "address": null, "name": null, "id": "31679"}, "mid": "888888858130036", "shopId": "31679", "netid": null, "province": 901, "district": 601, "zipcode": null, "telephone": null, "posDate": null, "destineTel": null, "togoTel": null, "trafficWay": null, "signBuilding": null, "businessArea": null, "selfRoom": null, "businessTime": null, "stall": null, "consume": null, "serviceFei": null, "favourable": null, "shopMemo": null, "appraise": null, "website": null, "memo": null, "payTypes": "\u6749\u5fb7\u5361", "shopTypes": "\u9910\u996e", "consumeTypes": null, "cookTypes": null, "orderNum": 1000, "card4no": null, "card4noAcc": null, "district2": 412, "searchScope": null, "status": 1, "address": "\u5e7f\u5bcc\u6797\u8def658\u53f71\u697c", "name": "\u54c8\u6839\u8fbe\u65af \u677e\u6c5f\u4e07\u8fbe\u5e97", "id": 186375, "pageNo": 0, "pageCount": null, "pageSize": 10, "ids": null, "endTime": null, "startTime": null}, {"cardNumFive": null, "isSupportYj": null, "cityName": null, "districtName": null, "shopinfo": {"mid": "888888858130036", "good_flag": "2", "new_flag": "1", "short_name": "\u54c8\u6839\u8fbe\u65af", "short_name_pinyin": "hagendasi", "status": null, "address": null, "name": null, "id": "31679"}, "mid": "888888858130036", "shopId": "31679", "netid": null, "province": 901, "district": 601, "zipcode": null, "telephone": "31078737", "posDate": null, "destineTel": null, "togoTel": null, "trafficWay": null, "signBuilding": null, "businessArea": null, "selfRoom": null, "businessTime": null, "stall": null, "consume": null, "serviceFei": null, "favourable": null, "shopMemo": null, "appraise": null, "website": null, "memo": null, "payTypes": "\u6749\u5fb7\u5361", "shopTypes": "\u9910\u996e", "consumeTypes": null, "cookTypes": null, "orderNum": 1000, "card4no": null, "card4noAcc": null, "district2": 418, "searchScope": null, "status": 1, "address": "\u4e16\u535a\u5927\u90531368\u53f75\u533aL201\u94fa", "name": "\u54c8\u6839\u8fbe\u65af \u4e16\u535a\u6e90\u5e97", "id": 186376, "pageNo": 0, "pageCount": null, "pageSize": 10, "ids": null, "endTime": null, "startTime": null}, {"cardNumFive": null, "isSupportYj": null, "cityName": null, "districtName": null, "shopinfo": {"mid": "888888858130036", "good_flag": "2", "new_flag": "1", "short_name": "\u54c8\u6839\u8fbe\u65af", "short_name_pinyin": "hagendasi", "status": null, "address": null, "name": null, "id": "31679"}, "mid": "888888858130036", "shopId": "31679", "netid": null, "province": 901, "district": 601, "zipcode": null, "telephone": null, "posDate": null, "destineTel": null, "togoTel": null, "trafficWay": null, "signBuilding": null, "businessArea": null, "selfRoom": null, "businessTime": null, "stall": null, "consume": null, "serviceFei": null, "favourable": null, "shopMemo": null, "appraise": null, "website": null, "memo": null, "payTypes": "\u6749\u5fb7\u5361", "shopTypes": "\u9910\u996e", "consumeTypes": null, "cookTypes": null, "orderNum": 1000, "card4no": null, "card4noAcc": null, "district2": 401, "searchScope": null, "status": 1, "address": "\u4e2d\u5c71\u5357\u8def505\u5f047\u53f7\u697c101-103-1\u53f7\u94fa", "name": "\u54c8\u6839\u8fbe\u65af \u8001\u7801\u5934\u5e97", "id": 186377, "pageNo": 0, "pageCount": null, "pageSize": 10, "ids": null, "endTime": null, "startTime": null}, {"cardNumFive": null, "isSupportYj": null, "cityName": null, "districtName": null, "shopinfo": {"mid": "888888858130036", "good_flag": "2", "new_flag": "1", "short_name": "\u54c8\u6839\u8fbe\u65af", "short_name_pinyin": "hagendasi", "status": null, "address": null, "name": null, "id": "31679"}, "mid": "888888858130036", "shopId": "31679", "netid": null, "province": 901, "district": 601, "zipcode": null, "telephone": null, "posDate": null, "destineTel": null, "togoTel": null, "trafficWay": null, "signBuilding": null, "businessArea": null, "selfRoom": null, "businessTime": null, "stall": null, "consume": null, "serviceFei": null, "favourable": null, "shopMemo": null, "appraise": null, "website": null, "memo": null, "payTypes": "\u6749\u5fb7\u5361", "shopTypes": "\u9910\u996e", "consumeTypes": null, "cookTypes": null, "orderNum": 1000, "card4no": null, "card4noAcc": null, "district2": 418, "searchScope": null, "status": 1, "address": "\u5353\u8000\u8def58\u5f041-365\u53f7G27\u5355\u5143", "name": "\u54c8\u6839\u8fbe\u65af \u4f5b\u7f57\u4f26\u8428\u5e97", "id": 191039, "pageNo": 0, "pageCount": null, "pageSize": 10, "ids": null, "endTime": null, "startTime": null}, {"cardNumFive": null, "isSupportYj": null, "cityName": null, "districtName": null, "shopinfo": {"mid": "888888858130036", "good_flag": "2", "new_flag": "1", "short_name": "\u54c8\u6839\u8fbe\u65af", "short_name_pinyin": "hagendasi", "status": null, "address": null, "name": null, "id": "31679"}, "mid": "888888858130036", "shopId": "31679", "netid": null, "province": 901, "district": 601, "zipcode": null, "telephone": null, "posDate": null, "destineTel": null, "togoTel": null, "trafficWay": null, "signBuilding": null, "businessArea": null, "selfRoom": null, "businessTime": null, "stall": null, "consume": null, "serviceFei": null, "favourable": null, "shopMemo": null, "appraise": null, "website": null, "memo": null, "payTypes": "\u6749\u5fb7\u5361", "shopTypes": "\u9910\u996e", "consumeTypes": null, "cookTypes": null, "orderNum": 1000, "card4no": null, "card4noAcc": null, "district2": 407, "searchScope": null, "status": 1, "address": "\u5b81\u56fd\u8def222\u53f7L1\u5c42G56-F01-1-107\u5ba4", "name": "\u54c8\u6839\u8fbe\u65af \u6768\u6d66\u767e\u8054\u5e97", "id": 191040, "pageNo": 0, "pageCount": null, "pageSize": 10, "ids": null, "endTime": null, "startTime": null}], "pageLimit": 1920, "size": 10}