{"pageCount": 1095, "count": 10942, "pageNo": 196, "subShopInfo": {"cardNumFive": "", "isSupportYj": "", "cityName": null, "districtName": null, "shopinfo": {"mid": null, "good_flag": null, "new_flag": null, "short_name": null, "short_name_pinyin": null, "status": null, "address": "", "name": "", "id": null}, "mid": null, "shopId": null, "netid": null, "province": 901, "district": null, "zipcode": null, "telephone": null, "posDate": null, "destineTel": null, "togoTel": null, "trafficWay": null, "signBuilding": null, "businessArea": null, "selfRoom": null, "businessTime": null, "stall": null, "consume": null, "serviceFei": null, "favourable": null, "shopMemo": "1", "appraise": null, "website": null, "memo": null, "payTypes": "", "shopTypes": "", "consumeTypes": null, "cookTypes": null, "orderNum": null, "card4no": null, "card4noAcc": null, "district2": null, "searchScope": null, "status": null, "address": "", "name": null, "id": null, "pageNo": 195, "pageCount": null, "pageSize": 10, "ids": null, "endTime": null, "startTime": null}, "list": [{"cardNumFive": null, "isSupportYj": null, "cityName": null, "districtName": null, "shopinfo": {"mid": "888888854410081", "good_flag": "2", "new_flag": "2", "short_name": "\u6d77\u5ba2\u4e50\u6709\u673a\u98df\u54c1", "short_name_pinyin": "haikeleyoujishipin", "status": null, "address": null, "name": null, "id": "31684"}, "mid": "888888854410081", "shopId": "31684", "netid": null, "province": 901, "district": 601, "zipcode": null, "telephone": "33180053", "posDate": "20080818", "destineTel": null, "togoTel": null, "trafficWay": "\u516c\u4ea443 931 \u5357\u4f58\u7ebf", "signBuilding": null, "businessArea": null, "selfRoom": null, "businessTime": "08:30~20:30", "stall": null, "consume": null, "serviceFei": null, "favourable": null, "shopMemo": null, "appraise": null, "website": null, "memo": null, "payTypes": "\u6749\u5fb7\u5361", "shopTypes": "\u4e13\u5356", "consumeTypes": null, "cookTypes": null, "orderNum": 1000, "card4no": null, "card4noAcc": null, "district2": 401, "searchScope": null, "status": 1, "address": "\u5927\u6797\u8def188\u53f7105\u5ba4", "name": "\u6d77\u5ba2\u4e50\u6709\u673a\u98df\u54c1 \u5927\u6797\u8def\u5e97", "id": 134933, "pageNo": 0, "pageCount": null, "pageSize": 10, "ids": null, "endTime": null, "startTime": null}, {"cardNumFive": null, "isSupportYj": null, "cityName": null, "districtName": null, "shopinfo": {"mid": "888888854410060", "good_flag": "2", "new_flag": "2", "short_name": "\u6d77\u5ba2\u4e50\u6709\u673a\u98df\u54c1", "short_name_pinyin": "haikeleyoujishipin", "status": null, "address": null, "name": null, "id": "31685"}, "mid": "888888854410060", "shopId": "31685", "netid": null, "province": 901, "district": 601, "zipcode": null, "telephone": "38870588", "posDate": "20080204", "destineTel": null, "togoTel": null, "trafficWay": "\u516c\u4ea4985 584 \u673a\u573a\u4e94\u7ebf", "signBuilding": null, "businessArea": null, "selfRoom": null, "businessTime": "9:00~21:00", "stall": null, "consume": null, "serviceFei": null, "favourable": null, "shopMemo": null, "appraise": null, "website": null, "memo": null, "payTypes": "\u6749\u5fb7\u5361", "shopTypes": "\u4e13\u5356", "consumeTypes": null, "cookTypes": null, "orderNum": 1000, "card4no": null, "card4noAcc": null, "district2": 418, "searchScope": null, "status": 1, "address": "\u4e1c\u6cf0\u8def200\u5f043\u53f7", "name": "\u6d77\u5ba2\u4e50\u6709\u673a\u98df\u54c1 \u4e1c\u6cf0\u8def\u5e97", "id": 134934, "pageNo": 0, "pageCount": null, "pageSize": 10, "ids": null, "endTime": null, "startTime": null}, {"cardNumFive": null, "isSupportYj": null, "cityName": null, "districtName": null, "shopinfo": {"mid": "888888854410081", "good_flag": "2", "new_flag": "2", "short_name": "\u6d77\u5ba2\u4e50\u6709\u673a\u98df\u54c1", "short_name_pinyin": "haikeleyoujishipin", "status": null, "address": null, "name": null, "id": "31684"}, "mid": "888888854410081", "shopId": "31684", "netid": null, "province": 901, "district": 601, "zipcode": null, "telephone": "62085502", "posDate": "20080623", "destineTel": null, "togoTel": null, "trafficWay": "\u516c\u4ea4925 936", "signBuilding": null, "businessArea": null, "selfRoom": null, "businessTime": "08:30~20:30", "stall": null, "consume": null, "serviceFei": null, "favourable": null, "shopMemo": null, "appraise": null, "website": null, "memo": null, "payTypes": "\u6749\u5fb7\u5361", "shopTypes": "\u4e13\u5356", "consumeTypes": null, "cookTypes": null, "orderNum": 1000, "card4no": null, "card4noAcc": null, "district2": 406, "searchScope": null, "status": 1, "address": "\u53e4\u5317\u8def1088\u53f7101\u5ba4\u897f\u4fa7", "name": "\u6d77\u5ba2\u4e50\u6709\u673a\u98df\u54c1 \u53e4\u5317\u5e97", "id": 134935, "pageNo": 0, "pageCount": null, "pageSize": 10, "ids": null, "endTime": null, "startTime": null}, {"cardNumFive": null, "isSupportYj": null, "cityName": null, "districtName": null, "shopinfo": {"mid": "888888854410081", "good_flag": "2", "new_flag": "2", "short_name": "\u6d77\u5ba2\u4e50\u6709\u673a\u98df\u54c1", "short_name_pinyin": "haikeleyoujishipin", "status": null, "address": null, "name": null, "id": "31684"}, "mid": "888888854410081", "shopId": "31684", "netid": null, "province": 901, "district": 601, "zipcode": null, "telephone": "38763283", "posDate": "20080623", "destineTel": null, "togoTel": null, "trafficWay": "\u516c\u4ea4\u65b9\u5ddd\u4e13\u7ebf \u5730\u94c1\u4e8c\u53f7\u7ebf", "signBuilding": null, "businessArea": null, "selfRoom": null, "businessTime": "08:30~20:30", "stall": null, "consume": null, "serviceFei": null, "favourable": null, "shopMemo": null, "appraise": null, "website": null, "memo": null, "payTypes": "\u6749\u5fb7\u5361", "shopTypes": "\u4e13\u5356", "consumeTypes": null, "cookTypes": null, "orderNum": 1000, "card4no": null, "card4noAcc": null, "district2": 418, "searchScope": null, "status": 1, "address": "\u6885\u82b1\u8def999\u5f0423\u53f7", "name": "\u6d77\u5ba2\u4e50\u6709\u673a\u98df\u54c1 \u82b1\u6728\u5e97", "id": 134936, "pageNo": 0, "pageCount": null, "pageSize": 10, "ids": null, "endTime": null, "startTime": null}, {"cardNumFive": null, "isSupportYj": null, "cityName": null, "districtName": null, "shopinfo": {"mid": "888888854410081", "good_flag": "2", "new_flag": "2", "short_name": "\u6d77\u5ba2\u4e50\u6709\u673a\u98df\u54c1", "short_name_pinyin": "haikeleyoujishipin", "status": null, "address": null, "name": null, "id": "31684"}, "mid": "888888854410081", "shopId": "31684", "netid": null, "province": 901, "district": 601, "zipcode": null, "telephone": "34160208", "posDate": null, "destineTel": null, "togoTel": null, "trafficWay": "45 41 781", "signBuilding": null, "businessArea": null, "selfRoom": null, "businessTime": "08:30~20:30", "stall": null, "consume": null, "serviceFei": null, "favourable": null, "shopMemo": null, "appraise": null, "website": null, "memo": null, "payTypes": "\u6749\u5fb7\u5361", "shopTypes": "\u4e13\u5356", "consumeTypes": null, "cookTypes": null, "orderNum": 1000, "card4no": null, "card4noAcc": null, "district2": 403, "searchScope": null, "status": 1, "address": "\u96f6\u9675\u8def23\u53f7\uff08\u4e1d\u5e90\u82b1\u8bed\u6cbf\u8857\u5546\u94fa\uff09", "name": "\u6d77\u5ba2\u4e50\u6709\u673a\u98df\u54c1 \u96f6\u9675\u5e97", "id": 134939, "pageNo": 0, "pageCount": null, "pageSize": 10, "ids": null, "endTime": null, "startTime": null}, {"cardNumFive": null, "isSupportYj": null, "cityName": null, "districtName": null, "shopinfo": {"mid": "888888854410060", "good_flag": "2", "new_flag": "2", "short_name": "\u6d77\u5ba2\u4e50\u6709\u673a\u98df\u54c1", "short_name_pinyin": "haikeleyoujishipin", "status": null, "address": null, "name": null, "id": "31685"}, "mid": "888888854410060", "shopId": "31685", "netid": null, "province": 901, "district": 601, "zipcode": null, "telephone": "54580053", "posDate": "20071210", "destineTel": null, "togoTel": null, "trafficWay": "\u516c\u4ea4548 205 931", "signBuilding": null, "businessArea": null, "selfRoom": null, "businessTime": "9:00~21:00", "stall": null, "consume": null, "serviceFei": null, "favourable": null, "shopMemo": null, "appraise": null, "website": null, "memo": null, "payTypes": "\u6749\u5fb7\u5361", "shopTypes": "\u4e13\u5356", "consumeTypes": null, "cookTypes": null, "orderNum": 1000, "card4no": null, "card4noAcc": null, "district2": 409, "searchScope": null, "status": 1, "address": "\u5434\u4e2d\u8def633\u5f0485\u53f7", "name": "\u6d77\u5ba2\u4e50\u6709\u673a\u98df\u54c1 \u5434\u4e2d\u5e97", "id": 134940, "pageNo": 0, "pageCount": null, "pageSize": 10, "ids": null, "endTime": null, "startTime": null}, {"cardNumFive": null, "isSupportYj": null, "cityName": null, "districtName": null, "shopinfo": {"mid": "888888854410081", "good_flag": "2", "new_flag": "2", "short_name": "\u6d77\u5ba2\u4e50\u6709\u673a\u98df\u54c1", "short_name_pinyin": "haikeleyoujishipin", "status": null, "address": null, "name": null, "id": "31684"}, "mid": "888888854410081", "shopId": "31684", "netid": null, "province": 901, "district": 601, "zipcode": null, "telephone": null, "posDate": null, "destineTel": null, "togoTel": null, "trafficWay": "537 61 991", "signBuilding": null, "businessArea": null, "selfRoom": null, "businessTime": "08:30~20:30", "stall": null, "consume": null, "serviceFei": null, "favourable": null, "shopMemo": null, "appraise": null, "website": null, "memo": null, "payTypes": "\u6749\u5fb7\u5361", "shopTypes": "\u4e13\u5356", "consumeTypes": null, "cookTypes": null, "orderNum": 1000, "card4no": null, "card4noAcc": null, "district2": 407, "searchScope": null, "status": 1, "address": "\u5927\u5b66\u8def58-66\u53f7", "name": "\u6d77\u5ba2\u4e50\u6709\u673a\u98df\u54c1 \u4e94\u89d2\u573a\u5e97", "id": 134941, "pageNo": 0, "pageCount": null, "pageSize": 10, "ids": null, "endTime": null, "startTime": null}, {"cardNumFive": null, "isSupportYj": null, "cityName": null, "districtName": null, "shopinfo": {"mid": "888888854410081", "good_flag": "2", "new_flag": "2", "short_name": "\u6d77\u5ba2\u4e50\u6709\u673a\u98df\u54c1", "short_name_pinyin": "haikeleyoujishipin", "status": null, "address": null, "name": null, "id": "31684"}, "mid": "888888854410081", "shopId": "31684", "netid": null, "province": 901, "district": 601, "zipcode": null, "telephone": "38760116", "posDate": "20080623", "destineTel": null, "togoTel": null, "trafficWay": "\u516c\u4ea4983 984 987", "signBuilding": null, "businessArea": null, "selfRoom": null, "businessTime": "08:30~20:30", "stall": null, "consume": null, "serviceFei": null, "favourable": null, "shopMemo": null, "appraise": null, "website": null, "memo": null, "payTypes": "\u6749\u5fb7\u5361", "shopTypes": "\u4e13\u5356", "consumeTypes": null, "cookTypes": null, "orderNum": 1000, "card4no": null, "card4noAcc": null, "district2": 418, "searchScope": null, "status": 1, "address": "\u8fce\u6625\u8def1120\u53f7", "name": "\u6d77\u5ba2\u4e50\u6709\u673a\u98df\u54c1 \u8fce\u6625\u8def\u5e97", "id": 134942, "pageNo": 0, "pageCount": null, "pageSize": 10, "ids": null, "endTime": null, "startTime": null}, {"cardNumFive": null, "isSupportYj": null, "cityName": null, "districtName": null, "shopinfo": {"mid": "888888854410081", "good_flag": "2", "new_flag": "2", "short_name": "\u6d77\u5ba2\u4e50\u6709\u673a\u98df\u54c1", "short_name_pinyin": "haikeleyoujishipin", "status": null, "address": null, "name": null, "id": "31684"}, "mid": "888888854410081", "shopId": "31684", "netid": null, "province": 901, "district": 601, "zipcode": null, "telephone": "38820170", "posDate": "20080626", "destineTel": null, "togoTel": null, "trafficWay": "\u516c\u4ea4783 584", "signBuilding": null, "businessArea": null, "selfRoom": null, "businessTime": "08:30~20:30", "stall": null, "consume": null, "serviceFei": null, "favourable": null, "shopMemo": null, "appraise": null, "website": null, "memo": null, "payTypes": "\u6749\u5fb7\u5361", "shopTypes": "\u4e13\u5356", "consumeTypes": null, "cookTypes": null, "orderNum": 1000, "card4no": null, "card4noAcc": null, "district2": 418, "searchScope": null, "status": 1, "address": "\u5f20\u626c\u8def1515\u5f0419\u53f7\u4f1a\u62402\u697c", "name": "\u6d77\u5ba2\u4e50\u6709\u673a\u98df\u54c1 \u5f20\u6768\u8def\u5e97", "id": 134943, "pageNo": 0, "pageCount": null, "pageSize": 10, "ids": null, "endTime": null, "startTime": null}, {"cardNumFive": null, "isSupportYj": null, "cityName": null, "districtName": null, "shopinfo": {"mid": "888888854410081", "good_flag": "2", "new_flag": "2", "short_name": "\u6d77\u5ba2\u4e50\u6709\u673a\u98df\u54c1", "short_name_pinyin": "haikeleyoujishipin", "status": null, "address": null, "name": null, "id": "31684"}, "mid": "888888854410081", "shopId": "31684", "netid": null, "province": 901, "district": 601, "zipcode": null, "telephone": "34100315", "posDate": "20080628", "destineTel": null, "togoTel": null, "trafficWay": "\u516c\u4ea4911 748 \u4e0a\u4f58\u7ebf", "signBuilding": null, "businessArea": null, "selfRoom": null, "businessTime": "08:30~20:30", "stall": null, "consume": null, "serviceFei": null, "favourable": null, "shopMemo": null, "appraise": null, "website": null, "memo": null, "payTypes": "\u6749\u5fb7\u5361", "shopTypes": "\u4e13\u5356", "consumeTypes": null, "cookTypes": null, "orderNum": 1000, "card4no": null, "card4noAcc": null, "district2": 409, "searchScope": null, "status": 1, "address": "\u4e2d\u6625\u8def8888\u5f04208-2\u53f7", "name": "\u6d77\u5ba2\u4e50\u6709\u673a\u98df\u54c1 \u4e2d\u6625\u8def\u5e97", "id": 134944, "pageNo": 0, "pageCount": null, "pageSize": 10, "ids": null, "endTime": null, "startTime": null}], "pageLimit": 1950, "size": 10}