{"pageCount": 1095, "count": 10942, "pageNo": 190, "subShopInfo": {"cardNumFive": "", "isSupportYj": "", "cityName": null, "districtName": null, "shopinfo": {"mid": null, "good_flag": null, "new_flag": null, "short_name": null, "short_name_pinyin": null, "status": null, "address": "", "name": "", "id": null}, "mid": null, "shopId": null, "netid": null, "province": 901, "district": null, "zipcode": null, "telephone": null, "posDate": null, "destineTel": null, "togoTel": null, "trafficWay": null, "signBuilding": null, "businessArea": null, "selfRoom": null, "businessTime": null, "stall": null, "consume": null, "serviceFei": null, "favourable": null, "shopMemo": "1", "appraise": null, "website": null, "memo": null, "payTypes": "", "shopTypes": "", "consumeTypes": null, "cookTypes": null, "orderNum": null, "card4no": null, "card4noAcc": null, "district2": null, "searchScope": null, "status": null, "address": "", "name": null, "id": null, "pageNo": 189, "pageCount": null, "pageSize": 10, "ids": null, "endTime": null, "startTime": null}, "list": [{"cardNumFive": null, "isSupportYj": null, "cityName": null, "districtName": null, "shopinfo": {"mid": "888888858130036", "good_flag": "2", "new_flag": "1", "short_name": "\u54c8\u6839\u8fbe\u65af", "short_name_pinyin": "hagendasi", "status": null, "address": null, "name": null, "id": "31679"}, "mid": "888888858130036", "shopId": "31679", "netid": null, "province": 901, "district": 601, "zipcode": null, "telephone": "53210028", "posDate": "20100609", "destineTel": null, "togoTel": null, "trafficWay": null, "signBuilding": null, "businessArea": null, "selfRoom": null, "businessTime": null, "stall": null, "consume": null, "serviceFei": null, "favourable": null, "shopMemo": null, "appraise": null, "website": null, "memo": null, "payTypes": "\u6749\u5fb7\u5361", "shopTypes": "\u9910\u996e", "consumeTypes": null, "cookTypes": null, "orderNum": 1000, "card4no": null, "card4noAcc": null, "district2": 401, "searchScope": null, "status": 1, "address": "\u9ec4\u6d66\u533a\u4e2d\u5c71\u4e1c\u4e00\u8def397\u53f7", "name": "\u54c8\u6839\u8fbe\u65af \u5916\u6ee9\u5e97", "id": 134910, "pageNo": 0, "pageCount": null, "pageSize": 10, "ids": null, "endTime": null, "startTime": null}, {"cardNumFive": null, "isSupportYj": null, "cityName": null, "districtName": null, "shopinfo": {"mid": "888888858130036", "good_flag": "2", "new_flag": "1", "short_name": "\u54c8\u6839\u8fbe\u65af", "short_name_pinyin": "hagendasi", "status": null, "address": null, "name": null, "id": "31679"}, "mid": "888888858130036", "shopId": "31679", "netid": null, "province": 901, "district": 601, "zipcode": null, "telephone": "65652181", "posDate": "20080827", "destineTel": null, "togoTel": null, "trafficWay": "\u516c\u4ea455 817 910", "signBuilding": null, "businessArea": null, "selfRoom": null, "businessTime": "10:00~22:00", "stall": null, "consume": null, "serviceFei": null, "favourable": null, "shopMemo": null, "appraise": null, "website": null, "memo": null, "payTypes": "\u6749\u5fb7\u5361", "shopTypes": "\u9910\u996e", "consumeTypes": null, "cookTypes": null, "orderNum": 1000, "card4no": null, "card4noAcc": null, "district2": 407, "searchScope": null, "status": 1, "address": "\u90af\u90f8\u8def608\u5f0431-33\u53f7\u4e07\u8fbe\u5546\u4e1a\u5e7f\u573a\u9996\u5c42D32-33", "name": "\u54c8\u6839\u8fbe\u65af \u4e94\u89d2\u573a\u5e97", "id": 134911, "pageNo": 0, "pageCount": null, "pageSize": 10, "ids": null, "endTime": null, "startTime": null}, {"cardNumFive": null, "isSupportYj": null, "cityName": null, "districtName": null, "shopinfo": {"mid": "888888858130036", "good_flag": "2", "new_flag": "1", "short_name": "\u54c8\u6839\u8fbe\u65af", "short_name_pinyin": "hagendasi", "status": null, "address": null, "name": null, "id": "31679"}, "mid": "888888858130036", "shopId": "31679", "netid": null, "province": 901, "district": 601, "zipcode": null, "telephone": "52195077", "posDate": "20080827", "destineTel": null, "togoTel": null, "trafficWay": "\u516c\u4ea4808 836 855", "signBuilding": null, "businessArea": null, "selfRoom": null, "businessTime": "10:00~22:00", "stall": null, "consume": null, "serviceFei": null, "favourable": null, "shopMemo": null, "appraise": null, "website": null, "memo": null, "payTypes": "\u6749\u5fb7\u5361", "shopTypes": "\u9910\u996e", "consumeTypes": null, "cookTypes": null, "orderNum": 1000, "card4no": null, "card4noAcc": null, "district2": 406, "searchScope": null, "status": 1, "address": "\u4ed9\u971e\u897f\u8def88\u53f7\u767e\u8054\u897f\u90ca\u8d2d\u7269\u4e2d\u5fc31309\u53f7\u94fa", "name": "\u54c8\u6839\u8fbe\u65af \u897f\u90ca\u767e\u8054\u5e97", "id": 134912, "pageNo": 0, "pageCount": null, "pageSize": 10, "ids": null, "endTime": null, "startTime": null}, {"cardNumFive": null, "isSupportYj": null, "cityName": null, "districtName": null, "shopinfo": {"mid": "888888858130036", "good_flag": "2", "new_flag": "1", "short_name": "\u54c8\u6839\u8fbe\u65af", "short_name_pinyin": "hagendasi", "status": null, "address": null, "name": null, "id": "31679"}, "mid": "888888858130036", "shopId": "31679", "netid": null, "province": 901, "district": 601, "zipcode": null, "telephone": null, "posDate": "20100223", "destineTel": null, "togoTel": null, "trafficWay": null, "signBuilding": null, "businessArea": null, "selfRoom": null, "businessTime": null, "stall": null, "consume": null, "serviceFei": null, "favourable": null, "shopMemo": null, "appraise": null, "website": null, "memo": null, "payTypes": "\u6749\u5fb7\u5361", "shopTypes": "\u9910\u996e", "consumeTypes": null, "cookTypes": null, "orderNum": 1000, "card4no": null, "card4noAcc": null, "district2": 401, "searchScope": null, "status": 1, "address": "\u5362\u6e7e\u533a\u592a\u4ed3\u8def181\u5f0422\u300123\u53f7\u697c02A\u5355\u5143\u65b0\u5929\u5730\u4e00\u671f", "name": "\u54c8\u6839\u8fbe\u65af \u65b0\u5929\u5730\u4e8c\u5e97", "id": 134915, "pageNo": 0, "pageCount": null, "pageSize": 10, "ids": null, "endTime": null, "startTime": null}, {"cardNumFive": null, "isSupportYj": null, "cityName": null, "districtName": null, "shopinfo": {"mid": "888888858130036", "good_flag": "2", "new_flag": "1", "short_name": "\u54c8\u6839\u8fbe\u65af", "short_name_pinyin": "hagendasi", "status": null, "address": null, "name": null, "id": "31679"}, "mid": "888888858130036", "shopId": "31679", "netid": null, "province": 901, "district": 601, "zipcode": null, "telephone": "63730003", "posDate": "20080827", "destineTel": null, "togoTel": null, "trafficWay": "\u516c\u4ea4920 926", "signBuilding": null, "businessArea": null, "selfRoom": null, "businessTime": "10:00~22:00", "stall": null, "consume": null, "serviceFei": null, "favourable": null, "shopMemo": null, "appraise": null, "website": null, "memo": null, "payTypes": "\u6749\u5fb7\u5361", "shopTypes": "\u9910\u996e", "consumeTypes": null, "cookTypes": null, "orderNum": 1000, "card4no": null, "card4noAcc": null, "district2": 401, "searchScope": null, "status": 1, "address": "\u798f\u4f51\u8def234\u53f7\u5e95\u5c42", "name": "\u54c8\u6839\u8fbe\u65af \u8c6b\u56ed\u5e97", "id": 134916, "pageNo": 0, "pageCount": null, "pageSize": 10, "ids": null, "endTime": null, "startTime": null}, {"cardNumFive": null, "isSupportYj": null, "cityName": null, "districtName": null, "shopinfo": {"mid": "888888858130036", "good_flag": "2", "new_flag": "1", "short_name": "\u54c8\u6839\u8fbe\u65af", "short_name_pinyin": "hagendasi", "status": null, "address": null, "name": null, "id": "31679"}, "mid": "888888858130036", "shopId": "31679", "netid": null, "province": 901, "district": 601, "zipcode": null, "telephone": null, "posDate": "20100202", "destineTel": null, "togoTel": null, "trafficWay": null, "signBuilding": null, "businessArea": null, "selfRoom": null, "businessTime": null, "stall": null, "consume": null, "serviceFei": null, "favourable": null, "shopMemo": null, "appraise": null, "website": null, "memo": null, "payTypes": "\u6749\u5fb7\u5361", "shopTypes": "\u9910\u996e", "consumeTypes": null, "cookTypes": null, "orderNum": 1000, "card4no": null, "card4noAcc": null, "district2": 404, "searchScope": null, "status": 1, "address": "\u9759\u5b89\u533a\u4e07\u822a\u6e21\u8def889\u53f7\u60a6\u8fbe\u5e7f\u573a\u9996\u5c42", "name": "\u54c8\u6839\u8fbe\u65af \u60a6\u8fbe\u5e97", "id": 134917, "pageNo": 0, "pageCount": null, "pageSize": 10, "ids": null, "endTime": null, "startTime": null}, {"cardNumFive": null, "isSupportYj": null, "cityName": null, "districtName": null, "shopinfo": {"mid": "888888858130036", "good_flag": "2", "new_flag": "1", "short_name": "\u54c8\u6839\u8fbe\u65af", "short_name_pinyin": "hagendasi", "status": null, "address": null, "name": null, "id": "31679"}, "mid": "888888858130036", "shopId": "31679", "netid": null, "province": 901, "district": 601, "zipcode": null, "telephone": "20233069", "posDate": "20091221", "destineTel": null, "togoTel": null, "trafficWay": null, "signBuilding": null, "businessArea": null, "selfRoom": null, "businessTime": null, "stall": null, "consume": null, "serviceFei": null, "favourable": null, "shopMemo": null, "appraise": null, "website": null, "memo": null, "payTypes": ",\u6749\u5fb7\u5361", "shopTypes": "\u9910\u996e", "consumeTypes": null, "cookTypes": null, "orderNum": 1000, "card4no": null, "card4noAcc": null, "district2": 418, "searchScope": null, "status": 1, "address": "\u5f20\u6768\u8def3611\u5f045\u53f7103\u5ba4", "name": "\u54c8\u6839\u8fbe\u65af \u5f20\u6768\u8def\u5e97", "id": 134918, "pageNo": 0, "pageCount": null, "pageSize": 10, "ids": null, "endTime": null, "startTime": null}, {"cardNumFive": null, "isSupportYj": null, "cityName": null, "districtName": null, "shopinfo": {"mid": "888888858130036", "good_flag": "2", "new_flag": "1", "short_name": "\u54c8\u6839\u8fbe\u65af", "short_name_pinyin": "hagendasi", "status": null, "address": null, "name": null, "id": "31679"}, "mid": "888888858130036", "shopId": "31679", "netid": null, "province": 901, "district": 601, "zipcode": null, "telephone": "50490025", "posDate": "20080827", "destineTel": null, "togoTel": null, "trafficWay": "\u516c\u4ea4985 \u5730\u94c1\u4e8c\u53f7\u7ebf", "signBuilding": null, "businessArea": null, "selfRoom": null, "businessTime": "10:00~22:00", "stall": null, "consume": null, "serviceFei": null, "favourable": null, "shopMemo": null, "appraise": null, "website": null, "memo": null, "payTypes": "\u6749\u5fb7\u5361", "shopTypes": "\u9910\u996e", "consumeTypes": null, "cookTypes": null, "orderNum": 1000, "card4no": null, "card4noAcc": null, "district2": 418, "searchScope": null, "status": 1, "address": "\u9646\u5bb6\u5634\u897f\u8def168\u53f7\u6b63\u5927\u5e7f\u573a\u4e00\u5c42GF31\u5ba4", "name": "\u54c8\u6839\u8fbe\u65af \u6b63\u5927\u5e97", "id": 134919, "pageNo": 0, "pageCount": null, "pageSize": 10, "ids": null, "endTime": null, "startTime": null}, {"cardNumFive": null, "isSupportYj": null, "cityName": null, "districtName": null, "shopinfo": {"mid": "888888858130036", "good_flag": null, "new_flag": null, "short_name": "\u54c8\u6839\u8fbe\u65af", "short_name_pinyin": "hagendasi", "status": null, "address": null, "name": null, "id": "37722"}, "mid": "888888858130036", "shopId": "37722", "netid": null, "province": 901, "district": 601, "zipcode": null, "telephone": "59976886", "posDate": null, "destineTel": null, "togoTel": null, "trafficWay": null, "signBuilding": null, "businessArea": null, "selfRoom": null, "businessTime": null, "stall": null, "consume": null, "serviceFei": null, "favourable": null, "shopMemo": null, "appraise": null, "website": null, "memo": null, "payTypes": "\u6749\u5fb7\u5361", "shopTypes": "\u9910\u996e", "consumeTypes": null, "cookTypes": null, "orderNum": 1000, "card4no": null, "card4noAcc": null, "district2": 411, "searchScope": null, "status": 1, "address": "\u91d1\u6c99\u6c5f\u897f\u8def1051\u5f041\u53f7", "name": "\u54c8\u6839\u8fbe\u65af \u6c5f\u6865\u4e07\u8fbe\u5e97", "id": 159972, "pageNo": 0, "pageCount": null, "pageSize": 10, "ids": null, "endTime": null, "startTime": null}, {"cardNumFive": null, "isSupportYj": null, "cityName": null, "districtName": null, "shopinfo": {"mid": "888888858130036", "good_flag": null, "new_flag": null, "short_name": "\u54c8\u6839\u8fbe\u65af", "short_name_pinyin": "hagendasi", "status": null, "address": null, "name": null, "id": "38251"}, "mid": "888888858130036", "shopId": "38251", "netid": null, "province": 901, "district": 601, "zipcode": null, "telephone": "35356038", "posDate": null, "destineTel": null, "togoTel": null, "trafficWay": null, "signBuilding": null, "businessArea": null, "selfRoom": null, "businessTime": null, "stall": null, "consume": null, "serviceFei": null, "favourable": null, "shopMemo": null, "appraise": null, "website": null, "memo": null, "payTypes": "\u6749\u5fb7\u5361", "shopTypes": "\u9910\u996e", "consumeTypes": null, "cookTypes": null, "orderNum": 1000, "card4no": null, "card4noAcc": null, "district2": 407, "searchScope": null, "status": 1, "address": "\u6dde\u6caa\u8def8\u53f71\u697c", "name": "\u54c8\u6839\u8fbe\u65af \u767e\u8054\u53c8\u4e00\u57ce\u5e97", "id": 163242, "pageNo": 0, "pageCount": null, "pageSize": 10, "ids": null, "endTime": null, "startTime": null}], "pageLimit": 1890, "size": 10}