{"pageCount": 1095, "count": 10942, "pageNo": 207, "subShopInfo": {"cardNumFive": "", "isSupportYj": "", "cityName": null, "districtName": null, "shopinfo": {"mid": null, "good_flag": null, "new_flag": null, "short_name": null, "short_name_pinyin": null, "status": null, "address": "", "name": "", "id": null}, "mid": null, "shopId": null, "netid": null, "province": 901, "district": null, "zipcode": null, "telephone": null, "posDate": null, "destineTel": null, "togoTel": null, "trafficWay": null, "signBuilding": null, "businessArea": null, "selfRoom": null, "businessTime": null, "stall": null, "consume": null, "serviceFei": null, "favourable": null, "shopMemo": "1", "appraise": null, "website": null, "memo": null, "payTypes": "", "shopTypes": "", "consumeTypes": null, "cookTypes": null, "orderNum": null, "card4no": null, "card4noAcc": null, "district2": null, "searchScope": null, "status": null, "address": "", "name": null, "id": null, "pageNo": 206, "pageCount": null, "pageSize": 10, "ids": null, "endTime": null, "startTime": null}, "list": [{"cardNumFive": null, "isSupportYj": null, "cityName": null, "districtName": null, "shopinfo": {"mid": "888888858120709", "good_flag": "1", "new_flag": "1", "short_name": "\u6c49\u5821\u738b", "short_name_pinyin": "hanbaowang", "status": null, "address": null, "name": null, "id": "31706"}, "mid": "888888858120709", "shopId": "31706", "netid": null, "province": 901, "district": 601, "zipcode": null, "telephone": null, "posDate": null, "destineTel": null, "togoTel": null, "trafficWay": null, "signBuilding": null, "businessArea": null, "selfRoom": null, "businessTime": null, "stall": null, "consume": null, "serviceFei": null, "favourable": null, "shopMemo": null, "appraise": null, "website": null, "memo": null, "payTypes": "\u6749\u5fb7\u5361", "shopTypes": "\u9910\u996e", "consumeTypes": null, "cookTypes": null, "orderNum": 1000, "card4no": null, "card4noAcc": null, "district2": 418, "searchScope": null, "status": 1, "address": "\u4e16\u535a\u5927\u90531368\u53f7", "name": "\u6c49\u5821\u738b \u4e16\u535a\u5927\u9053\u5e97", "id": 186371, "pageNo": 0, "pageCount": null, "pageSize": 10, "ids": null, "endTime": null, "startTime": null}, {"cardNumFive": null, "isSupportYj": null, "cityName": null, "districtName": null, "shopinfo": {"mid": "888888858120709", "good_flag": "1", "new_flag": "1", "short_name": "\u6c49\u5821\u738b", "short_name_pinyin": "hanbaowang", "status": null, "address": null, "name": null, "id": "31706"}, "mid": "888888858120709", "shopId": "31706", "netid": null, "province": 901, "district": 601, "zipcode": null, "telephone": null, "posDate": null, "destineTel": null, "togoTel": null, "trafficWay": null, "signBuilding": null, "businessArea": null, "selfRoom": null, "businessTime": null, "stall": null, "consume": null, "serviceFei": null, "favourable": null, "shopMemo": null, "appraise": null, "website": null, "memo": null, "payTypes": "\u6749\u5fb7\u5361", "shopTypes": "\u9910\u996e", "consumeTypes": null, "cookTypes": null, "orderNum": 1000, "card4no": null, "card4noAcc": null, "district2": 411, "searchScope": null, "status": 1, "address": "\u5357\u7fd4\u9547\u5b9d\u7fd4\u8def\u9648\u7fd4\u8def\u8def\u53e3\uff08\u5b9d\u7fd4\u8def801\u53f7", "name": "\u6c49\u5821\u738b \u5357\u7fd4\u4e94\u5f69\u57ceB", "id": 188925, "pageNo": 0, "pageCount": null, "pageSize": 10, "ids": null, "endTime": null, "startTime": null}, {"cardNumFive": null, "isSupportYj": null, "cityName": null, "districtName": null, "shopinfo": {"mid": "888888858120709", "good_flag": "1", "new_flag": "1", "short_name": "\u6c49\u5821\u738b", "short_name_pinyin": "hanbaowang", "status": null, "address": null, "name": null, "id": "31706"}, "mid": "888888858120709", "shopId": "31706", "netid": null, "province": 901, "district": 601, "zipcode": null, "telephone": null, "posDate": null, "destineTel": null, "togoTel": null, "trafficWay": null, "signBuilding": null, "businessArea": null, "selfRoom": null, "businessTime": null, "stall": null, "consume": null, "serviceFei": null, "favourable": null, "shopMemo": null, "appraise": null, "website": null, "memo": null, "payTypes": "\u6749\u5fb7\u5361", "shopTypes": "\u9910\u996e", "consumeTypes": null, "cookTypes": null, "orderNum": 1000, "card4no": null, "card4noAcc": null, "district2": 405, "searchScope": null, "status": 1, "address": "\u91d1\u6c99\u6c5f\u8def1685\u53f7\u56db\u533a\u5730\u4e0b\u4e00\u5c42B1-101\u666e\u9640", "name": "\u6c49\u5821\u738b 118\u5e7f\u573a\u5e97", "id": 191038, "pageNo": 0, "pageCount": null, "pageSize": 10, "ids": null, "endTime": null, "startTime": null}, {"cardNumFive": null, "isSupportYj": null, "cityName": null, "districtName": null, "shopinfo": {"mid": "888888856910093", "good_flag": "2", "new_flag": "2", "short_name": "\u97e9\u6d3e\u5a05\u9732", "short_name_pinyin": "hanpaiyalu", "status": null, "address": null, "name": null, "id": "31703"}, "mid": "888888856910093", "shopId": "31703", "netid": null, "province": 901, "district": 601, "zipcode": null, "telephone": null, "posDate": "20071129", "destineTel": null, "togoTel": null, "trafficWay": "\u5730\u94c1\u4e00\u53f7\u7ebf \u65c5\u6e3810\u53f7\u7ebf \u516c\u4ea415\u8def", "signBuilding": null, "businessArea": null, "selfRoom": null, "businessTime": null, "stall": null, "consume": null, "serviceFei": null, "favourable": null, "shopMemo": null, "appraise": null, "website": null, "memo": null, "payTypes": "\u6749\u5fb7\u5361", "shopTypes": "\u4e13\u5356", "consumeTypes": null, "cookTypes": null, "orderNum": 1000, "card4no": null, "card4noAcc": null, "district2": 401, "searchScope": null, "status": 1, "address": "\u5357\u4eac\u897f\u8def19\u53f7A136\uff08\u534e\u76db\u8857\uff09", "name": "\u97e9\u6d3e\u5a05\u9732 \u5357\u4eac\u897f\u8def\u5e97", "id": 135053, "pageNo": 0, "pageCount": null, "pageSize": 10, "ids": null, "endTime": null, "startTime": null}, {"cardNumFive": null, "isSupportYj": null, "cityName": null, "districtName": null, "shopinfo": {"mid": "888888856910187", "good_flag": "2", "new_flag": "2", "short_name": "\u6db5\u94a6\u8d38\u6613", "short_name_pinyin": "hanqinmaoyi", "status": null, "address": null, "name": null, "id": "31696"}, "mid": "888888856910187", "shopId": "31696", "netid": null, "province": 901, "district": 601, "zipcode": null, "telephone": "51087569", "posDate": "20081211", "destineTel": null, "togoTel": null, "trafficWay": "\u516c\u4ea418 \u5730\u94c1\u4e00\u53f7\u7ebf", "signBuilding": null, "businessArea": null, "selfRoom": null, "businessTime": null, "stall": null, "consume": null, "serviceFei": null, "favourable": null, "shopMemo": null, "appraise": null, "website": null, "memo": null, "payTypes": "\u6749\u5fb7\u5361", "shopTypes": "\u4e13\u5356", "consumeTypes": null, "cookTypes": null, "orderNum": 1000, "card4no": null, "card4noAcc": null, "district2": 401, "searchScope": null, "status": 1, "address": "\u4eba\u6c11\u5e7f\u573a\u9999\u6e2f\u540d\u5e97\u8857", "name": "\u6db5\u94a6\u8d38\u6613 \u4eba\u6c11\u5e7f\u573a\u5e97", "id": 135040, "pageNo": 0, "pageCount": null, "pageSize": 10, "ids": null, "endTime": null, "startTime": null}, {"cardNumFive": null, "isSupportYj": null, "cityName": null, "districtName": null, "shopinfo": {"mid": "888888859770049", "good_flag": "2", "new_flag": "1", "short_name": "\u97e9\u675f\u5316\u5986\u54c1", "short_name_pinyin": "hanshuhuazhuangpin", "status": null, "address": null, "name": null, "id": "31704"}, "mid": "888888859770049", "shopId": "31704", "netid": null, "province": 901, "district": 601, "zipcode": null, "telephone": null, "posDate": "20100202", "destineTel": null, "togoTel": null, "trafficWay": null, "signBuilding": null, "businessArea": null, "selfRoom": null, "businessTime": null, "stall": null, "consume": null, "serviceFei": null, "favourable": null, "shopMemo": null, "appraise": null, "website": null, "memo": null, "payTypes": "\u6749\u5fb7\u5361", "shopTypes": "\u96f6\u552e", "consumeTypes": null, "cookTypes": null, "orderNum": 1000, "card4no": null, "card4noAcc": null, "district2": 413, "searchScope": null, "status": 1, "address": "\u5949\u8d24\u91d1\u6c47\u9547\u6cf0\u6708\u793e\u533a\u5927\u660c\u8def54\u53f7", "name": "\u97e9\u675f\u5316\u5986\u54c1 \u5927\u660c\u8def\u5e97", "id": 135054, "pageNo": 0, "pageCount": null, "pageSize": 10, "ids": null, "endTime": null, "startTime": null}, {"cardNumFive": null, "isSupportYj": null, "cityName": null, "districtName": null, "shopinfo": {"mid": "888888859770049", "good_flag": "2", "new_flag": "1", "short_name": "\u97e9\u675f\u5316\u5986\u54c1", "short_name_pinyin": "hanshuhuazhuangpin", "status": null, "address": null, "name": null, "id": "31704"}, "mid": "888888859770049", "shopId": "31704", "netid": null, "province": 901, "district": 601, "zipcode": null, "telephone": null, "posDate": "20100202", "destineTel": null, "togoTel": null, "trafficWay": null, "signBuilding": null, "businessArea": null, "selfRoom": null, "businessTime": null, "stall": null, "consume": null, "serviceFei": null, "favourable": null, "shopMemo": null, "appraise": null, "website": null, "memo": null, "payTypes": "\u6749\u5fb7\u5361", "shopTypes": "\u96f6\u552e", "consumeTypes": null, "cookTypes": null, "orderNum": 1000, "card4no": null, "card4noAcc": null, "district2": 412, "searchScope": null, "status": 1, "address": "\u677e\u6c5f\u533a\u8f66\u6566\u9547\u534e\u9633\u8857224\u53f7", "name": "\u97e9\u675f\u5316\u5986\u54c1 \u534e\u9633\u8857\u5e97", "id": 135055, "pageNo": 0, "pageCount": null, "pageSize": 10, "ids": null, "endTime": null, "startTime": null}, {"cardNumFive": null, "isSupportYj": null, "cityName": null, "districtName": null, "shopinfo": {"mid": "888888859770049", "good_flag": "2", "new_flag": "1", "short_name": "\u97e9\u675f\u5316\u5986\u54c1", "short_name_pinyin": "hanshuhuazhuangpin", "status": null, "address": null, "name": null, "id": "31704"}, "mid": "888888859770049", "shopId": "31704", "netid": null, "province": 901, "district": 601, "zipcode": null, "telephone": null, "posDate": "20100202", "destineTel": null, "togoTel": null, "trafficWay": null, "signBuilding": null, "businessArea": null, "selfRoom": null, "businessTime": null, "stall": null, "consume": null, "serviceFei": null, "favourable": null, "shopMemo": null, "appraise": null, "website": null, "memo": null, "payTypes": "\u6749\u5fb7\u5361", "shopTypes": "\u96f6\u552e", "consumeTypes": null, "cookTypes": null, "orderNum": 1000, "card4no": null, "card4noAcc": null, "district2": 413, "searchScope": null, "status": 1, "address": "\u5949\u8d24\u533a\u9f50\u8d38\u9547\u519c\u6c11\u8857116\u53f7", "name": "\u97e9\u675f\u5316\u5986\u54c1 \u519c\u6c11\u8857\u5e97", "id": 135056, "pageNo": 0, "pageCount": null, "pageSize": 10, "ids": null, "endTime": null, "startTime": null}, {"cardNumFive": null, "isSupportYj": null, "cityName": null, "districtName": null, "shopinfo": {"mid": "888888859770049", "good_flag": "2", "new_flag": "1", "short_name": "\u97e9\u675f\u5316\u5986\u54c1", "short_name_pinyin": "hanshuhuazhuangpin", "status": null, "address": null, "name": null, "id": "31704"}, "mid": "888888859770049", "shopId": "31704", "netid": null, "province": 901, "district": 601, "zipcode": null, "telephone": null, "posDate": "20100202", "destineTel": null, "togoTel": null, "trafficWay": null, "signBuilding": null, "businessArea": null, "selfRoom": null, "businessTime": null, "stall": null, "consume": null, "serviceFei": null, "favourable": null, "shopMemo": null, "appraise": null, "website": null, "memo": null, "payTypes": "\u6749\u5fb7\u5361", "shopTypes": "\u96f6\u552e", "consumeTypes": null, "cookTypes": null, "orderNum": 1000, "card4no": null, "card4noAcc": null, "district2": 412, "searchScope": null, "status": 1, "address": "\u677e\u6c5f\u533a\u674e\u5854\u6c47\u5510\u660e\u8def889\u53f7", "name": "\u97e9\u675f\u5316\u5986\u54c1 \u5510\u660e\u8def\u5e97", "id": 135057, "pageNo": 0, "pageCount": null, "pageSize": 10, "ids": null, "endTime": null, "startTime": null}, {"cardNumFive": null, "isSupportYj": null, "cityName": null, "districtName": null, "shopinfo": {"mid": "888888859770049", "good_flag": "2", "new_flag": "1", "short_name": "\u97e9\u675f\u5316\u5986\u54c1", "short_name_pinyin": "hanshuhuazhuangpin", "status": null, "address": null, "name": null, "id": "31704"}, "mid": "888888859770049", "shopId": "31704", "netid": null, "province": 901, "district": 601, "zipcode": null, "telephone": null, "posDate": "20100202", "destineTel": null, "togoTel": null, "trafficWay": null, "signBuilding": null, "businessArea": null, "selfRoom": null, "businessTime": null, "stall": null, "consume": null, "serviceFei": null, "favourable": null, "shopMemo": null, "appraise": null, "website": null, "memo": null, "payTypes": "\u6749\u5fb7\u5361", "shopTypes": "\u96f6\u552e", "consumeTypes": null, "cookTypes": null, "orderNum": 1000, "card4no": null, "card4noAcc": null, "district2": 418, "searchScope": null, "status": 1, "address": "\u5f20\u4e1c\u8def2201\u5f0456\u53f7", "name": "\u97e9\u675f\u5316\u5986\u54c1 \u5f20\u4e1c\u8def\u5e97", "id": 135058, "pageNo": 0, "pageCount": null, "pageSize": 10, "ids": null, "endTime": null, "startTime": null}], "pageLimit": 2060, "size": 10}