{"pageCount": 1095, "count": 10942, "pageNo": 204, "subShopInfo": {"cardNumFive": "", "isSupportYj": "", "cityName": null, "districtName": null, "shopinfo": {"mid": null, "good_flag": null, "new_flag": null, "short_name": null, "short_name_pinyin": null, "status": null, "address": "", "name": "", "id": null}, "mid": null, "shopId": null, "netid": null, "province": 901, "district": null, "zipcode": null, "telephone": null, "posDate": null, "destineTel": null, "togoTel": null, "trafficWay": null, "signBuilding": null, "businessArea": null, "selfRoom": null, "businessTime": null, "stall": null, "consume": null, "serviceFei": null, "favourable": null, "shopMemo": "1", "appraise": null, "website": null, "memo": null, "payTypes": "", "shopTypes": "", "consumeTypes": null, "cookTypes": null, "orderNum": null, "card4no": null, "card4noAcc": null, "district2": null, "searchScope": null, "status": null, "address": "", "name": null, "id": null, "pageNo": 203, "pageCount": null, "pageSize": 10, "ids": null, "endTime": null, "startTime": null}, "list": [{"cardNumFive": null, "isSupportYj": null, "cityName": null, "districtName": null, "shopinfo": {"mid": "888002159120206", "good_flag": null, "new_flag": null, "short_name": "\u6d77\u738b\u661f\u8fb0", "short_name_pinyin": "haiwangxingchen", "status": null, "address": null, "name": null, "id": "43391"}, "mid": "888002159120206", "shopId": "43391", "netid": null, "province": 901, "district": 601, "zipcode": null, "telephone": null, "posDate": null, "destineTel": null, "togoTel": null, "trafficWay": null, "signBuilding": null, "businessArea": null, "selfRoom": null, "businessTime": null, "stall": null, "consume": null, "serviceFei": null, "favourable": null, "shopMemo": null, "appraise": null, "website": null, "memo": null, "payTypes": "\u6749\u5fb7\u5361", "shopTypes": "\u836f\u5e97", "consumeTypes": null, "cookTypes": null, "orderNum": 1000, "card4no": null, "card4noAcc": null, "district2": 406, "searchScope": null, "status": 1, "address": "\u4e2d\u5c71\u897f\u8def750\u53f71109\u5ba4", "name": "\u6d77\u738b\u661f\u8fb0 \u7d2b\u4e91\u5e97", "id": 195606, "pageNo": 0, "pageCount": null, "pageSize": 10, "ids": null, "endTime": null, "startTime": null}, {"cardNumFive": null, "isSupportYj": null, "cityName": null, "districtName": null, "shopinfo": {"mid": "888002159120206", "good_flag": null, "new_flag": null, "short_name": "\u6d77\u738b\u661f\u8fb0", "short_name_pinyin": "haiwangxingchen", "status": null, "address": null, "name": null, "id": "43391"}, "mid": "888002159120206", "shopId": "43391", "netid": null, "province": 901, "district": 601, "zipcode": null, "telephone": null, "posDate": null, "destineTel": null, "togoTel": null, "trafficWay": null, "signBuilding": null, "businessArea": null, "selfRoom": null, "businessTime": null, "stall": null, "consume": null, "serviceFei": null, "favourable": null, "shopMemo": null, "appraise": null, "website": null, "memo": null, "payTypes": "\u6749\u5fb7\u5361", "shopTypes": "\u836f\u5e97", "consumeTypes": null, "cookTypes": null, "orderNum": 1000, "card4no": null, "card4noAcc": null, "district2": 418, "searchScope": null, "status": 1, "address": "\u5f20\u6768\u8def3005\u53f7", "name": "\u6d77\u738b\u661f\u8fb0 \u5f20\u6768\u8def\u5e97", "id": 195817, "pageNo": 0, "pageCount": null, "pageSize": 10, "ids": null, "endTime": null, "startTime": null}, {"cardNumFive": null, "isSupportYj": null, "cityName": null, "districtName": null, "shopinfo": {"mid": "888888858120154", "good_flag": null, "new_flag": null, "short_name": "\u6d77\u9038\u6d77\u9c9c\u9152\u5bb6", "short_name_pinyin": "haiyihaixianjiujia", "status": null, "address": null, "name": null, "id": "31692"}, "mid": "888888858120154", "shopId": "31692", "netid": null, "province": 901, "district": 601, "zipcode": "200000", "telephone": "62701998", "posDate": "20070501", "destineTel": "62701998", "togoTel": null, "trafficWay": "\u516c\u4ea457,925,936,911,709", "signBuilding": "\u53e4\u5317\u5bb6\u4e50\u798f", "businessArea": "2000\u5e73\u65b9\u7c73", "selfRoom": "30\u95f4", "businessTime": "11:00~23:00", "stall": "\u6709", "consume": "200\u5143\u5de6\u53f3", "serviceFei": null, "favourable": null, "shopMemo": null, "appraise": null, "website": null, "memo": null, "payTypes": "\u6749\u5fb7\u5361", "shopTypes": "\u9910\u996e", "consumeTypes": "\u5bb6\u4eba\u56e2\u805a \u597d\u53cb\u5c0f\u805a \u6d6a\u6f2b\u7ea6\u4f1a \u4f11\u95f2\u5c31\u9910 \u5546\u52a1\u5bb4\u8bf7", "cookTypes": "\u6d77\u9c9c", "orderNum": 1000, "card4no": null, "card4noAcc": null, "district2": 406, "searchScope": null, "status": 1, "address": "\u957f\u5b81\u5ef6\u5b89\u897f\u8def2635\u53f7(\u8fd1\u6c34\u57ce\u897f\u8def)", "name": "\u6d77\u9038\u6d77\u9c9c\u9152\u5bb6 \u5ef6\u5b89\u897f\u8def\u5e97", "id": 135036, "pageNo": 0, "pageCount": null, "pageSize": 10, "ids": null, "endTime": null, "startTime": null}, {"cardNumFive": null, "isSupportYj": null, "cityName": null, "districtName": null, "shopinfo": {"mid": "888888858120709", "good_flag": "1", "new_flag": "1", "short_name": "\u6c49\u5821\u738b", "short_name_pinyin": "hanbaowang", "status": null, "address": null, "name": null, "id": "31706"}, "mid": "888888858120709", "shopId": "31706", "netid": null, "province": 901, "district": 601, "zipcode": null, "telephone": "66522514", "posDate": null, "destineTel": null, "togoTel": null, "trafficWay": "95\u3001912\u3001849", "signBuilding": null, "businessArea": null, "selfRoom": null, "businessTime": null, "stall": null, "consume": null, "serviceFei": null, "favourable": null, "shopMemo": null, "appraise": null, "website": null, "memo": null, "payTypes": "\u6749\u5fb7\u5361", "shopTypes": "\u9910\u996e", "consumeTypes": null, "cookTypes": null, "orderNum": 1000, "card4no": null, "card4noAcc": null, "district2": 410, "searchScope": null, "status": 1, "address": "\u5171\u548c\u65b0\u8def1978\u53f7\u5927\u5b81\u56fd\u9645\u5546\u4e1a\u5e7f\u573a9\uff08E1\uff09\u5e621\u5c42102A\u5ba4", "name": "\u6c49\u5821\u738b \u5171\u548c\u65b0\u8def\u5e97", "id": 135063, "pageNo": 0, "pageCount": null, "pageSize": 10, "ids": null, "endTime": null, "startTime": null}, {"cardNumFive": null, "isSupportYj": null, "cityName": null, "districtName": null, "shopinfo": {"mid": "888888858120709", "good_flag": "1", "new_flag": "1", "short_name": "\u6c49\u5821\u738b", "short_name_pinyin": "hanbaowang", "status": null, "address": null, "name": null, "id": "31706"}, "mid": "888888858120709", "shopId": "31706", "netid": null, "province": 901, "district": 601, "zipcode": null, "telephone": "20233042", "posDate": "20091207", "destineTel": null, "togoTel": null, "trafficWay": null, "signBuilding": null, "businessArea": null, "selfRoom": null, "businessTime": null, "stall": null, "consume": null, "serviceFei": null, "favourable": null, "shopMemo": null, "appraise": null, "website": null, "memo": null, "payTypes": "\u6749\u5fb7\u5361", "shopTypes": "\u9910\u996e", "consumeTypes": null, "cookTypes": null, "orderNum": 1000, "card4no": null, "card4noAcc": null, "district2": 418, "searchScope": null, "status": 1, "address": "\u5f20\u6768\u8def3611\u5f046\u53f7106\u3001107\u3001110\u5ba4", "name": "\u6c49\u5821\u738b \u91d1\u6865\u5e97", "id": 135065, "pageNo": 0, "pageCount": null, "pageSize": 10, "ids": null, "endTime": null, "startTime": null}, {"cardNumFive": null, "isSupportYj": null, "cityName": null, "districtName": null, "shopinfo": {"mid": "888888858120709", "good_flag": "1", "new_flag": "1", "short_name": "\u6c49\u5821\u738b", "short_name_pinyin": "hanbaowang", "status": null, "address": null, "name": null, "id": "31706"}, "mid": "888888858120709", "shopId": "31706", "netid": null, "province": 901, "district": 601, "zipcode": null, "telephone": "50471995", "posDate": null, "destineTel": null, "togoTel": null, "trafficWay": "\u5730\u94c1\u4e8c\u53f7\u7ebf\u3001\u96a7\u9053\u516d\u7ebf", "signBuilding": null, "businessArea": null, "selfRoom": null, "businessTime": null, "stall": null, "consume": null, "serviceFei": null, "favourable": null, "shopMemo": null, "appraise": null, "website": null, "memo": null, "payTypes": "\u6749\u5fb7\u5361", "shopTypes": "\u9910\u996e", "consumeTypes": null, "cookTypes": null, "orderNum": 1000, "card4no": null, "card4noAcc": null, "district2": 418, "searchScope": null, "status": 1, "address": "\u9646\u5bb6\u5634\u897f\u8def168\u53f7\u6b63\u5927\u5e7f\u573a5\u697c32", "name": "\u6c49\u5821\u738b \u9646\u5bb6\u5634\u897f\u8def\u5e97", "id": 135066, "pageNo": 0, "pageCount": null, "pageSize": 10, "ids": null, "endTime": null, "startTime": null}, {"cardNumFive": null, "isSupportYj": null, "cityName": null, "districtName": null, "shopinfo": {"mid": "888888858120709", "good_flag": "1", "new_flag": "1", "short_name": "\u6c49\u5821\u738b", "short_name_pinyin": "hanbaowang", "status": null, "address": null, "name": null, "id": "31706"}, "mid": "888888858120709", "shopId": "31706", "netid": null, "province": 901, "district": 601, "zipcode": null, "telephone": "61361416", "posDate": null, "destineTel": null, "togoTel": null, "trafficWay": "\u5730\u94c1\u4e8c\u53f7\u7ebf\u300123\u3001935", "signBuilding": null, "businessArea": null, "selfRoom": null, "businessTime": null, "stall": null, "consume": null, "serviceFei": null, "favourable": null, "shopMemo": null, "appraise": null, "website": null, "memo": null, "payTypes": "\u6749\u5fb7\u5361", "shopTypes": "\u9910\u996e", "consumeTypes": null, "cookTypes": null, "orderNum": 1000, "card4no": null, "card4noAcc": null, "district2": 404, "searchScope": null, "status": 1, "address": "\u8302\u540d\u5317\u8def328\u53f7101-102\u5ba4", "name": "\u6c49\u5821\u738b \u8302\u540d\u5317\u8def\u5e97", "id": 135067, "pageNo": 0, "pageCount": null, "pageSize": 10, "ids": null, "endTime": null, "startTime": null}, {"cardNumFive": null, "isSupportYj": null, "cityName": null, "districtName": null, "shopinfo": {"mid": "888888858120709", "good_flag": "1", "new_flag": "1", "short_name": "\u6c49\u5821\u738b", "short_name_pinyin": "hanbaowang", "status": null, "address": null, "name": null, "id": "31706"}, "mid": "888888858120709", "shopId": "31706", "netid": null, "province": 901, "district": 601, "zipcode": null, "telephone": "63545723", "posDate": null, "destineTel": null, "togoTel": null, "trafficWay": "\u5730\u94c1\u4e00\u53f7\u7ebf", "signBuilding": null, "businessArea": null, "selfRoom": null, "businessTime": null, "stall": null, "consume": null, "serviceFei": null, "favourable": null, "shopMemo": null, "appraise": null, "website": null, "memo": null, "payTypes": "\u6749\u5fb7\u5361", "shopTypes": "\u9910\u996e", "consumeTypes": null, "cookTypes": null, "orderNum": 1000, "card4no": null, "card4noAcc": null, "district2": 410, "searchScope": null, "status": 1, "address": "\u79e3\u9675\u8def196\u53f7\u4e0d\u591c\u57ce\u4f11\u95f2\u5e7f\u573a1F-2F", "name": "\u6c49\u5821\u738b \u79e3\u9675\u8def\u5e97", "id": 135069, "pageNo": 0, "pageCount": null, "pageSize": 10, "ids": null, "endTime": null, "startTime": null}, {"cardNumFive": null, "isSupportYj": null, "cityName": null, "districtName": null, "shopinfo": {"mid": "888888858120709", "good_flag": "1", "new_flag": "1", "short_name": "\u6c49\u5821\u738b", "short_name_pinyin": "hanbaowang", "status": null, "address": null, "name": null, "id": "31706"}, "mid": "888888858120709", "shopId": "31706", "netid": null, "province": 901, "district": 601, "zipcode": null, "telephone": "63595604", "posDate": null, "destineTel": null, "togoTel": null, "trafficWay": "\u5730\u94c1\u4e00\u53f7\u7ebf\u300118\u3001930", "signBuilding": null, "businessArea": null, "selfRoom": null, "businessTime": null, "stall": null, "consume": null, "serviceFei": null, "favourable": null, "shopMemo": null, "appraise": null, "website": null, "memo": null, "payTypes": "\u6749\u5fb7\u5361", "shopTypes": "\u9910\u996e", "consumeTypes": null, "cookTypes": null, "orderNum": 1000, "card4no": null, "card4noAcc": null, "district2": 404, "searchScope": null, "status": 1, "address": "\u5357\u4eac\u897f\u8def2-88\u53f7\u5730\u4e0b\u4e00\u5c42", "name": "\u6c49\u5821\u738b \u65b0\u4e16\u754c\u5e97", "id": 135070, "pageNo": 0, "pageCount": null, "pageSize": 10, "ids": null, "endTime": null, "startTime": null}, {"cardNumFive": null, "isSupportYj": null, "cityName": null, "districtName": null, "shopinfo": {"mid": "888888858120709", "good_flag": "1", "new_flag": "1", "short_name": "\u6c49\u5821\u738b", "short_name_pinyin": "hanbaowang", "status": null, "address": null, "name": null, "id": "31706"}, "mid": "888888858120709", "shopId": "31706", "netid": null, "province": 901, "district": 601, "zipcode": null, "telephone": "62552144", "posDate": null, "destineTel": null, "togoTel": null, "trafficWay": "21\u300140\u3001506", "signBuilding": null, "businessArea": null, "selfRoom": null, "businessTime": null, "stall": null, "consume": null, "serviceFei": null, "favourable": null, "shopMemo": null, "appraise": null, "website": null, "memo": null, "payTypes": "\u6749\u5fb7\u5361", "shopTypes": "\u9910\u996e", "consumeTypes": null, "cookTypes": null, "orderNum": 1000, "card4no": null, "card4noAcc": null, "district2": 406, "searchScope": null, "status": 1, "address": "\u611a\u56ed\u8def132\u53f7", "name": "\u6c49\u5821\u738b \u611a\u56ed\u8def\u5e97", "id": 135071, "pageNo": 0, "pageCount": null, "pageSize": 10, "ids": null, "endTime": null, "startTime": null}], "pageLimit": 2030, "size": 10}