{"pageCount": 1095, "count": 10942, "pageNo": 203, "subShopInfo": {"cardNumFive": "", "isSupportYj": "", "cityName": null, "districtName": null, "shopinfo": {"mid": null, "good_flag": null, "new_flag": null, "short_name": null, "short_name_pinyin": null, "status": null, "address": "", "name": "", "id": null}, "mid": null, "shopId": null, "netid": null, "province": 901, "district": null, "zipcode": null, "telephone": null, "posDate": null, "destineTel": null, "togoTel": null, "trafficWay": null, "signBuilding": null, "businessArea": null, "selfRoom": null, "businessTime": null, "stall": null, "consume": null, "serviceFei": null, "favourable": null, "shopMemo": "1", "appraise": null, "website": null, "memo": null, "payTypes": "", "shopTypes": "", "consumeTypes": null, "cookTypes": null, "orderNum": null, "card4no": null, "card4noAcc": null, "district2": null, "searchScope": null, "status": null, "address": "", "name": null, "id": null, "pageNo": 202, "pageCount": null, "pageSize": 10, "ids": null, "endTime": null, "startTime": null}, "list": [{"cardNumFive": null, "isSupportYj": null, "cityName": null, "districtName": null, "shopinfo": {"mid": "888888859120181", "good_flag": "1", "new_flag": "2", "short_name": "\u6d77\u738b\u661f\u8fb0", "short_name_pinyin": "haiwangxingchen", "status": null, "address": null, "name": null, "id": "31691"}, "mid": "888888859120181", "shopId": "31691", "netid": null, "province": 901, "district": 601, "zipcode": null, "telephone": "68537491", "posDate": null, "destineTel": null, "togoTel": null, "trafficWay": "609\u3001785", "signBuilding": null, "businessArea": null, "selfRoom": null, "businessTime": null, "stall": null, "consume": null, "serviceFei": null, "favourable": null, "shopMemo": null, "appraise": null, "website": null, "memo": null, "payTypes": "\u6749\u5fb7\u5361", "shopTypes": "\u836f\u5e97", "consumeTypes": null, "cookTypes": null, "orderNum": 1000, "card4no": null, "card4noAcc": null, "district2": 418, "searchScope": null, "status": 1, "address": "\u7fbd\u5c71\u8def276\u53f7", "name": "\u6d77\u738b\u661f\u8fb0 \u7fbd\u5c71\u4e8c\u5e97", "id": 135029, "pageNo": 0, "pageCount": null, "pageSize": 10, "ids": null, "endTime": null, "startTime": null}, {"cardNumFive": null, "isSupportYj": null, "cityName": null, "districtName": null, "shopinfo": {"mid": "888888859120181", "good_flag": "1", "new_flag": "2", "short_name": "\u6d77\u738b\u661f\u8fb0", "short_name_pinyin": "haiwangxingchen", "status": null, "address": null, "name": null, "id": "31691"}, "mid": "888888859120181", "shopId": "31691", "netid": null, "province": 901, "district": 601, "zipcode": null, "telephone": "58520439", "posDate": null, "destineTel": null, "togoTel": null, "trafficWay": "609\u3001785", "signBuilding": null, "businessArea": null, "selfRoom": null, "businessTime": null, "stall": null, "consume": null, "serviceFei": null, "favourable": null, "shopMemo": null, "appraise": null, "website": null, "memo": null, "payTypes": "\u6749\u5fb7\u5361", "shopTypes": "\u836f\u5e97", "consumeTypes": null, "cookTypes": null, "orderNum": 1000, "card4no": null, "card4noAcc": null, "district2": 418, "searchScope": null, "status": 1, "address": "\u7fbd\u5c71\u8def686\u53f7", "name": "\u6d77\u738b\u661f\u8fb0 \u7fbd\u5c71\u4e09\u5e97", "id": 135030, "pageNo": 0, "pageCount": null, "pageSize": 10, "ids": null, "endTime": null, "startTime": null}, {"cardNumFive": null, "isSupportYj": null, "cityName": null, "districtName": null, "shopinfo": {"mid": "888888859120181", "good_flag": "1", "new_flag": "2", "short_name": "\u6d77\u738b\u661f\u8fb0", "short_name_pinyin": "haiwangxingchen", "status": null, "address": null, "name": null, "id": "31691"}, "mid": "888888859120181", "shopId": "31691", "netid": null, "province": 901, "district": 601, "zipcode": null, "telephone": "65147765", "posDate": null, "destineTel": null, "togoTel": null, "trafficWay": "6\u300117", "signBuilding": null, "businessArea": null, "selfRoom": null, "businessTime": null, "stall": null, "consume": null, "serviceFei": null, "favourable": null, "shopMemo": null, "appraise": null, "website": null, "memo": null, "payTypes": "\u6749\u5fb7\u5361", "shopTypes": "\u836f\u5e97", "consumeTypes": null, "cookTypes": null, "orderNum": 1000, "card4no": null, "card4noAcc": null, "district2": 408, "searchScope": null, "status": 1, "address": "\u5cb3\u5dde\u8def335\u5f0418\u53f7", "name": "\u6d77\u738b\u661f\u8fb0 \u5cb3\u5dde\u5e97", "id": 135031, "pageNo": 0, "pageCount": null, "pageSize": 10, "ids": null, "endTime": null, "startTime": null}, {"cardNumFive": null, "isSupportYj": null, "cityName": null, "districtName": null, "shopinfo": {"mid": "888888859120181", "good_flag": "1", "new_flag": "2", "short_name": "\u6d77\u738b\u661f\u8fb0", "short_name_pinyin": "haiwangxingchen", "status": null, "address": null, "name": null, "id": "31691"}, "mid": "888888859120181", "shopId": "31691", "netid": null, "province": 901, "district": 601, "zipcode": null, "telephone": "62525224", "posDate": null, "destineTel": null, "togoTel": null, "trafficWay": "20\u3001939", "signBuilding": null, "businessArea": null, "selfRoom": null, "businessTime": null, "stall": null, "consume": null, "serviceFei": null, "favourable": null, "shopMemo": null, "appraise": null, "website": null, "memo": null, "payTypes": "\u6749\u5fb7\u5361", "shopTypes": "\u836f\u5e97", "consumeTypes": null, "cookTypes": null, "orderNum": 1000, "card4no": null, "card4noAcc": null, "district2": 406, "searchScope": null, "status": 1, "address": "\u9547\u5b81\u8def418\u53f7", "name": "\u6d77\u738b\u661f\u8fb0 \u9547\u5b81\u5e97", "id": 135032, "pageNo": 0, "pageCount": null, "pageSize": 10, "ids": null, "endTime": null, "startTime": null}, {"cardNumFive": null, "isSupportYj": null, "cityName": null, "districtName": null, "shopinfo": {"mid": "888888859120181", "good_flag": "1", "new_flag": "2", "short_name": "\u6d77\u738b\u661f\u8fb0", "short_name_pinyin": "haiwangxingchen", "status": null, "address": null, "name": null, "id": "31691"}, "mid": "888888859120181", "shopId": "31691", "netid": null, "province": 901, "district": 601, "zipcode": null, "telephone": "64891840", "posDate": null, "destineTel": null, "togoTel": null, "trafficWay": "\u9a6c\u8398\u7ebf\u3001703\u8def", "signBuilding": null, "businessArea": null, "selfRoom": null, "businessTime": null, "stall": null, "consume": null, "serviceFei": null, "favourable": null, "shopMemo": null, "appraise": null, "website": null, "memo": null, "payTypes": "\u6749\u5fb7\u5361", "shopTypes": "\u836f\u5e97", "consumeTypes": null, "cookTypes": null, "orderNum": 1000, "card4no": null, "card4noAcc": null, "district2": 409, "searchScope": null, "status": 1, "address": "\u989b\u76db\u8def169\u53f7", "name": "\u6d77\u738b\u661f\u8fb0 \u989b\u76db\u5e97", "id": 135033, "pageNo": 0, "pageCount": null, "pageSize": 10, "ids": null, "endTime": null, "startTime": null}, {"cardNumFive": null, "isSupportYj": null, "cityName": null, "districtName": null, "shopinfo": {"mid": "888888859120181", "good_flag": "1", "new_flag": "2", "short_name": "\u6d77\u738b\u661f\u8fb0", "short_name_pinyin": "haiwangxingchen", "status": null, "address": null, "name": null, "id": "31691"}, "mid": "888888859120181", "shopId": "31691", "netid": null, "province": 901, "district": 601, "zipcode": null, "telephone": "62414251", "posDate": null, "destineTel": null, "togoTel": null, "trafficWay": "73\u3001224\u3001909", "signBuilding": null, "businessArea": null, "selfRoom": null, "businessTime": null, "stall": null, "consume": null, "serviceFei": null, "favourable": null, "shopMemo": null, "appraise": null, "website": null, "memo": null, "payTypes": "\u6749\u5fb7\u5361", "shopTypes": "\u836f\u5e97", "consumeTypes": null, "cookTypes": null, "orderNum": 1000, "card4no": null, "card4noAcc": null, "district2": 406, "searchScope": null, "status": 1, "address": "\u7d2b\u4e91\u8def309\u53f7", "name": "\u6d77\u738b\u661f\u8fb0 \u7d2b\u4e91\u5e97", "id": 135034, "pageNo": 0, "pageCount": null, "pageSize": 10, "ids": null, "endTime": null, "startTime": null}, {"cardNumFive": null, "isSupportYj": null, "cityName": null, "districtName": null, "shopinfo": {"mid": "888888859120181", "good_flag": "1", "new_flag": "2", "short_name": "\u6d77\u738b\u661f\u8fb0", "short_name_pinyin": "haiwangxingchen", "status": null, "address": null, "name": null, "id": "31691"}, "mid": "888888859120181", "shopId": "31691", "netid": null, "province": 901, "district": 601, "zipcode": null, "telephone": "50156626", "posDate": null, "destineTel": null, "togoTel": null, "trafficWay": null, "signBuilding": null, "businessArea": null, "selfRoom": null, "businessTime": null, "stall": null, "consume": null, "serviceFei": null, "favourable": null, "shopMemo": null, "appraise": null, "website": null, "memo": null, "payTypes": "\u6749\u5fb7\u5361", "shopTypes": null, "consumeTypes": null, "cookTypes": null, "orderNum": 1000, "card4no": null, "card4noAcc": null, "district2": 418, "searchScope": null, "status": 1, "address": "\u6d66\u7535\u8def398\u5ba4", "name": "\u6d77\u738b\u661f\u8fb0 \u6d66\u7535\u5e97", "id": 176670, "pageNo": 0, "pageCount": null, "pageSize": 10, "ids": null, "endTime": null, "startTime": null}, {"cardNumFive": null, "isSupportYj": null, "cityName": null, "districtName": null, "shopinfo": {"mid": "888888859120181", "good_flag": "1", "new_flag": "2", "short_name": "\u6d77\u738b\u661f\u8fb0", "short_name_pinyin": "haiwangxingchen", "status": null, "address": null, "name": null, "id": "31691"}, "mid": "888888859120181", "shopId": "31691", "netid": null, "province": 901, "district": 601, "zipcode": null, "telephone": "68389866", "posDate": null, "destineTel": null, "togoTel": null, "trafficWay": null, "signBuilding": null, "businessArea": null, "selfRoom": null, "businessTime": null, "stall": null, "consume": null, "serviceFei": null, "favourable": null, "shopMemo": null, "appraise": null, "website": null, "memo": null, "payTypes": "\u6749\u5fb7\u5361", "shopTypes": null, "consumeTypes": null, "cookTypes": null, "orderNum": 1000, "card4no": null, "card4noAcc": null, "district2": 418, "searchScope": null, "status": 1, "address": "\u5ce8\u5c71\u8def175\u53f7", "name": "\u6d77\u738b\u661f\u8fb0 \u5ce8\u5c71\u5e97", "id": 176671, "pageNo": 0, "pageCount": null, "pageSize": 10, "ids": null, "endTime": null, "startTime": null}, {"cardNumFive": null, "isSupportYj": null, "cityName": null, "districtName": null, "shopinfo": {"mid": "888002159120206", "good_flag": null, "new_flag": null, "short_name": "\u6d77\u738b\u661f\u8fb0", "short_name_pinyin": "haiwangxingchen", "status": null, "address": null, "name": null, "id": "43391"}, "mid": "888002159120206", "shopId": "43391", "netid": null, "province": 901, "district": 601, "zipcode": null, "telephone": null, "posDate": null, "destineTel": null, "togoTel": null, "trafficWay": null, "signBuilding": null, "businessArea": null, "selfRoom": null, "businessTime": null, "stall": null, "consume": null, "serviceFei": null, "favourable": null, "shopMemo": null, "appraise": null, "website": null, "memo": null, "payTypes": "\u6749\u5fb7\u5361", "shopTypes": "\u836f\u5e97", "consumeTypes": null, "cookTypes": null, "orderNum": 1000, "card4no": null, "card4noAcc": null, "district2": 409, "searchScope": null, "status": 1, "address": "\u822a\u4e1c\u8def528\u5f0468\u53f7", "name": "\u6d77\u738b\u661f\u8fb0 \u822a\u4e1c\u8def\u5e97", "id": 195600, "pageNo": 0, "pageCount": null, "pageSize": 10, "ids": null, "endTime": null, "startTime": null}, {"cardNumFive": null, "isSupportYj": null, "cityName": null, "districtName": null, "shopinfo": {"mid": "888002159120206", "good_flag": null, "new_flag": null, "short_name": "\u6d77\u738b\u661f\u8fb0", "short_name_pinyin": "haiwangxingchen", "status": null, "address": null, "name": null, "id": "43391"}, "mid": "888002159120206", "shopId": "43391", "netid": null, "province": 901, "district": 601, "zipcode": null, "telephone": null, "posDate": null, "destineTel": null, "togoTel": null, "trafficWay": null, "signBuilding": null, "businessArea": null, "selfRoom": null, "businessTime": null, "stall": null, "consume": null, "serviceFei": null, "favourable": null, "shopMemo": null, "appraise": null, "website": null, "memo": null, "payTypes": "\u6749\u5fb7\u5361", "shopTypes": "\u836f\u5e97", "consumeTypes": null, "cookTypes": null, "orderNum": 1000, "card4no": null, "card4noAcc": null, "district2": 408, "searchScope": null, "status": 1, "address": "\u4fdd\u5b9a\u8def44\u53f7", "name": "\u6d77\u738b\u661f\u8fb0 \u4fdd\u5b9a\u5e97", "id": 195601, "pageNo": 0, "pageCount": null, "pageSize": 10, "ids": null, "endTime": null, "startTime": null}], "pageLimit": 2020, "size": 10}