{"pageCount": 1095, "count": 10942, "pageNo": 200, "subShopInfo": {"cardNumFive": "", "isSupportYj": "", "cityName": null, "districtName": null, "shopinfo": {"mid": null, "good_flag": null, "new_flag": null, "short_name": null, "short_name_pinyin": null, "status": null, "address": "", "name": "", "id": null}, "mid": null, "shopId": null, "netid": null, "province": 901, "district": null, "zipcode": null, "telephone": null, "posDate": null, "destineTel": null, "togoTel": null, "trafficWay": null, "signBuilding": null, "businessArea": null, "selfRoom": null, "businessTime": null, "stall": null, "consume": null, "serviceFei": null, "favourable": null, "shopMemo": "1", "appraise": null, "website": null, "memo": null, "payTypes": "", "shopTypes": "", "consumeTypes": null, "cookTypes": null, "orderNum": null, "card4no": null, "card4noAcc": null, "district2": null, "searchScope": null, "status": null, "address": "", "name": null, "id": null, "pageNo": 199, "pageCount": null, "pageSize": 10, "ids": null, "endTime": null, "startTime": null}, "list": [{"cardNumFive": null, "isSupportYj": null, "cityName": null, "districtName": null, "shopinfo": {"mid": "888888859120181", "good_flag": "1", "new_flag": "2", "short_name": "\u6d77\u738b\u661f\u8fb0", "short_name_pinyin": "haiwangxingchen", "status": null, "address": null, "name": null, "id": "31691"}, "mid": "888888859120181", "shopId": "31691", "netid": null, "province": 901, "district": 601, "zipcode": null, "telephone": "52364802", "posDate": null, "destineTel": null, "togoTel": null, "trafficWay": "13\u300144\u300162", "signBuilding": null, "businessArea": null, "selfRoom": null, "businessTime": null, "stall": null, "consume": null, "serviceFei": null, "favourable": null, "shopMemo": null, "appraise": null, "website": null, "memo": null, "payTypes": "\u6749\u5fb7\u5361", "shopTypes": "\u836f\u5e97", "consumeTypes": null, "cookTypes": null, "orderNum": 1000, "card4no": null, "card4noAcc": null, "district2": 405, "searchScope": null, "status": 1, "address": "\u9686\u5fb7\u8def109\u53f7-115\u53f7(\u8fd1\u987a\u4e49\u8def)", "name": "\u6d77\u738b\u661f\u8fb0 \u9686\u5fb7\u5e97", "id": 134998, "pageNo": 0, "pageCount": null, "pageSize": 10, "ids": null, "endTime": null, "startTime": null}, {"cardNumFive": null, "isSupportYj": null, "cityName": null, "districtName": null, "shopinfo": {"mid": "888888859120181", "good_flag": "1", "new_flag": "2", "short_name": "\u6d77\u738b\u661f\u8fb0", "short_name_pinyin": "haiwangxingchen", "status": null, "address": null, "name": null, "id": "31691"}, "mid": "888888859120181", "shopId": "31691", "netid": null, "province": 901, "district": 601, "zipcode": null, "telephone": "52822216", "posDate": null, "destineTel": null, "togoTel": null, "trafficWay": "143\u3001847\u3001948", "signBuilding": null, "businessArea": null, "selfRoom": null, "businessTime": null, "stall": null, "consume": null, "serviceFei": null, "favourable": null, "shopMemo": null, "appraise": null, "website": null, "memo": null, "payTypes": "\u6749\u5fb7\u5361", "shopTypes": "\u836f\u5e97", "consumeTypes": null, "cookTypes": null, "orderNum": 1000, "card4no": null, "card4noAcc": null, "district2": 405, "searchScope": null, "status": 1, "address": "\u6885\u5cad\u5317\u8def1225\u53f7", "name": "\u6d77\u738b\u661f\u8fb0 \u6885\u5cad\u5e97", "id": 135000, "pageNo": 0, "pageCount": null, "pageSize": 10, "ids": null, "endTime": null, "startTime": null}, {"cardNumFive": null, "isSupportYj": null, "cityName": null, "districtName": null, "shopinfo": {"mid": "888888859120181", "good_flag": "1", "new_flag": "2", "short_name": "\u6d77\u738b\u661f\u8fb0", "short_name_pinyin": "haiwangxingchen", "status": null, "address": null, "name": null, "id": "31691"}, "mid": "888888859120181", "shopId": "31691", "netid": null, "province": 901, "district": 601, "zipcode": null, "telephone": "57109453", "posDate": null, "destineTel": null, "togoTel": null, "trafficWay": "\u5357\u91d1\u7ebf\u3001\u5357\u80e1\u7ebf", "signBuilding": null, "businessArea": null, "selfRoom": null, "businessTime": null, "stall": null, "consume": null, "serviceFei": null, "favourable": null, "shopMemo": null, "appraise": null, "website": null, "memo": null, "payTypes": "\u6749\u5fb7\u5361", "shopTypes": "\u836f\u5e97", "consumeTypes": null, "cookTypes": null, "orderNum": 1000, "card4no": null, "card4noAcc": null, "district2": 413, "searchScope": null, "status": 1, "address": "\u5357\u4ead\u516c\u8def601\u53f7", "name": "\u6d77\u738b\u661f\u8fb0 \u5357\u6865\u5e97", "id": 135001, "pageNo": 0, "pageCount": null, "pageSize": 10, "ids": null, "endTime": null, "startTime": null}, {"cardNumFive": null, "isSupportYj": null, "cityName": null, "districtName": null, "shopinfo": {"mid": "888888859120181", "good_flag": "1", "new_flag": "2", "short_name": "\u6d77\u738b\u661f\u8fb0", "short_name_pinyin": "haiwangxingchen", "status": null, "address": null, "name": null, "id": "31691"}, "mid": "888888859120181", "shopId": "31691", "netid": null, "province": 901, "district": 601, "zipcode": null, "telephone": "66529114", "posDate": null, "destineTel": null, "togoTel": null, "trafficWay": "741\u3001944", "signBuilding": null, "businessArea": null, "selfRoom": null, "businessTime": null, "stall": null, "consume": null, "serviceFei": null, "favourable": null, "shopMemo": null, "appraise": null, "website": null, "memo": null, "payTypes": "\u6749\u5fb7\u5361", "shopTypes": "\u836f\u5e97", "consumeTypes": null, "cookTypes": null, "orderNum": 1000, "card4no": null, "card4noAcc": null, "district2": 410, "searchScope": null, "status": 1, "address": "\u666e\u5584\u8def845\u53f7", "name": "\u6d77\u738b\u661f\u8fb0 \u666e\u5584\u5e97", "id": 135002, "pageNo": 0, "pageCount": null, "pageSize": 10, "ids": null, "endTime": null, "startTime": null}, {"cardNumFive": null, "isSupportYj": null, "cityName": null, "districtName": null, "shopinfo": {"mid": "888888859120181", "good_flag": "1", "new_flag": "2", "short_name": "\u6d77\u738b\u661f\u8fb0", "short_name_pinyin": "haiwangxingchen", "status": null, "address": null, "name": null, "id": "31691"}, "mid": "888888859120181", "shopId": "31691", "netid": null, "province": 901, "district": 601, "zipcode": null, "telephone": "64618843", "posDate": null, "destineTel": null, "togoTel": null, "trafficWay": "\u8398\u7eaa\u7ebf\u3001\u5357\u5609\u7ebf", "signBuilding": null, "businessArea": null, "selfRoom": null, "businessTime": null, "stall": null, "consume": null, "serviceFei": null, "favourable": null, "shopMemo": null, "appraise": null, "website": null, "memo": null, "payTypes": "\u6749\u5fb7\u5361", "shopTypes": "\u836f\u5e97", "consumeTypes": null, "cookTypes": null, "orderNum": 1000, "card4no": null, "card4noAcc": null, "district2": 409, "searchScope": null, "status": 1, "address": "\u4e03\u8398\u8def2845\u53f7", "name": "\u6d77\u738b\u661f\u8fb0 \u4e03\u8398\u5e97", "id": 135003, "pageNo": 0, "pageCount": null, "pageSize": 10, "ids": null, "endTime": null, "startTime": null}, {"cardNumFive": null, "isSupportYj": null, "cityName": null, "districtName": null, "shopinfo": {"mid": "888888859120181", "good_flag": "1", "new_flag": "2", "short_name": "\u6d77\u738b\u661f\u8fb0", "short_name_pinyin": "haiwangxingchen", "status": null, "address": null, "name": null, "id": "31691"}, "mid": "888888859120181", "shopId": "31691", "netid": null, "province": 901, "district": 601, "zipcode": null, "telephone": "58726756", "posDate": null, "destineTel": null, "togoTel": null, "trafficWay": "119\u3001980", "signBuilding": null, "businessArea": null, "selfRoom": null, "businessTime": null, "stall": null, "consume": null, "serviceFei": null, "favourable": null, "shopMemo": null, "appraise": null, "website": null, "memo": null, "payTypes": "\u6749\u5fb7\u5361", "shopTypes": "\u836f\u5e97", "consumeTypes": null, "cookTypes": null, "orderNum": 1000, "card4no": null, "card4noAcc": null, "district2": 418, "searchScope": null, "status": 1, "address": "\u9f50\u6cb3\u8def426\u53f7", "name": "\u6d77\u738b\u661f\u8fb0 \u9f50\u6cb3\u5e97", "id": 135004, "pageNo": 0, "pageCount": null, "pageSize": 10, "ids": null, "endTime": null, "startTime": null}, {"cardNumFive": null, "isSupportYj": null, "cityName": null, "districtName": null, "shopinfo": {"mid": "888888859120181", "good_flag": "1", "new_flag": "2", "short_name": "\u6d77\u738b\u661f\u8fb0", "short_name_pinyin": "haiwangxingchen", "status": null, "address": null, "name": null, "id": "31691"}, "mid": "888888859120181", "shopId": "31691", "netid": null, "province": 901, "district": 601, "zipcode": null, "telephone": "64519166", "posDate": null, "destineTel": null, "togoTel": null, "trafficWay": "803\u3001224", "signBuilding": null, "businessArea": null, "selfRoom": null, "businessTime": null, "stall": null, "consume": null, "serviceFei": null, "favourable": null, "shopMemo": null, "appraise": null, "website": null, "memo": null, "payTypes": "\u6749\u5fb7\u5361", "shopTypes": "\u836f\u5e97", "consumeTypes": null, "cookTypes": null, "orderNum": 1000, "card4no": null, "card4noAcc": null, "district2": 403, "searchScope": null, "status": 1, "address": "\u94a6\u5dde\u5357\u8def275\u53f7", "name": "\u6d77\u738b\u661f\u8fb0 \u94a6\u5dde\u5e97", "id": 135005, "pageNo": 0, "pageCount": null, "pageSize": 10, "ids": null, "endTime": null, "startTime": null}, {"cardNumFive": null, "isSupportYj": null, "cityName": null, "districtName": null, "shopinfo": {"mid": "888888859120181", "good_flag": "1", "new_flag": "2", "short_name": "\u6d77\u738b\u661f\u8fb0", "short_name_pinyin": "haiwangxingchen", "status": null, "address": null, "name": null, "id": "31691"}, "mid": "888888859120181", "shopId": "31691", "netid": null, "province": 901, "district": 601, "zipcode": null, "telephone": "54391990", "posDate": null, "destineTel": null, "togoTel": null, "trafficWay": "50\u3001111\u3001718", "signBuilding": null, "businessArea": null, "selfRoom": null, "businessTime": null, "stall": null, "consume": null, "serviceFei": null, "favourable": null, "shopMemo": null, "appraise": null, "website": null, "memo": null, "payTypes": "\u6749\u5fb7\u5361", "shopTypes": "\u836f\u5e97", "consumeTypes": null, "cookTypes": null, "orderNum": 1000, "card4no": null, "card4noAcc": null, "district2": 403, "searchScope": null, "status": 1, "address": "\u8001\u6caa\u95f5\u8def809\u53f7", "name": "\u6d77\u738b\u661f\u8fb0 \u4e0a\u4e2d\u5e97", "id": 135006, "pageNo": 0, "pageCount": null, "pageSize": 10, "ids": null, "endTime": null, "startTime": null}, {"cardNumFive": null, "isSupportYj": null, "cityName": null, "districtName": null, "shopinfo": {"mid": "888888859120181", "good_flag": "1", "new_flag": "2", "short_name": "\u6d77\u738b\u661f\u8fb0", "short_name_pinyin": "haiwangxingchen", "status": null, "address": null, "name": null, "id": "31691"}, "mid": "888888859120181", "shopId": "31691", "netid": null, "province": 901, "district": 601, "zipcode": null, "telephone": "64272968", "posDate": null, "destineTel": null, "togoTel": null, "trafficWay": "41\u300144\u3001166", "signBuilding": null, "businessArea": null, "selfRoom": null, "businessTime": null, "stall": null, "consume": null, "serviceFei": null, "favourable": null, "shopMemo": null, "appraise": null, "website": null, "memo": null, "payTypes": "\u6749\u5fb7\u5361", "shopTypes": "\u836f\u5e97", "consumeTypes": null, "cookTypes": null, "orderNum": 1000, "card4no": null, "card4noAcc": null, "district2": 403, "searchScope": null, "status": 1, "address": "\u53cc\u5cf0\u8def360\u53f7", "name": "\u6d77\u738b\u661f\u8fb0 \u53cc\u5cf0\u5e97", "id": 135007, "pageNo": 0, "pageCount": null, "pageSize": 10, "ids": null, "endTime": null, "startTime": null}, {"cardNumFive": null, "isSupportYj": null, "cityName": null, "districtName": null, "shopinfo": {"mid": "888888859120181", "good_flag": "1", "new_flag": "2", "short_name": "\u6d77\u738b\u661f\u8fb0", "short_name_pinyin": "haiwangxingchen", "status": null, "address": null, "name": null, "id": "31691"}, "mid": "888888859120181", "shopId": "31691", "netid": null, "province": 901, "district": 601, "zipcode": null, "telephone": "52359347", "posDate": null, "destineTel": null, "togoTel": null, "trafficWay": "44\u300162\u3001136", "signBuilding": null, "businessArea": null, "selfRoom": null, "businessTime": null, "stall": null, "consume": null, "serviceFei": null, "favourable": null, "shopMemo": null, "appraise": null, "website": null, "memo": null, "payTypes": "\u6749\u5fb7\u5361", "shopTypes": "\u836f\u5e97", "consumeTypes": null, "cookTypes": null, "orderNum": 1000, "card4no": null, "card4noAcc": null, "district2": 405, "searchScope": null, "status": 1, "address": "\u987a\u4e49\u8def74\u53f7", "name": "\u6d77\u738b\u661f\u8fb0 \u987a\u4e49\u5e97", "id": 135008, "pageNo": 0, "pageCount": null, "pageSize": 10, "ids": null, "endTime": null, "startTime": null}], "pageLimit": 1990, "size": 10}