{"pageCount": 1095, "count": 10942, "pageNo": 205, "subShopInfo": {"cardNumFive": "", "isSupportYj": "", "cityName": null, "districtName": null, "shopinfo": {"mid": null, "good_flag": null, "new_flag": null, "short_name": null, "short_name_pinyin": null, "status": null, "address": "", "name": "", "id": null}, "mid": null, "shopId": null, "netid": null, "province": 901, "district": null, "zipcode": null, "telephone": null, "posDate": null, "destineTel": null, "togoTel": null, "trafficWay": null, "signBuilding": null, "businessArea": null, "selfRoom": null, "businessTime": null, "stall": null, "consume": null, "serviceFei": null, "favourable": null, "shopMemo": "1", "appraise": null, "website": null, "memo": null, "payTypes": "", "shopTypes": "", "consumeTypes": null, "cookTypes": null, "orderNum": null, "card4no": null, "card4noAcc": null, "district2": null, "searchScope": null, "status": null, "address": "", "name": null, "id": null, "pageNo": 204, "pageCount": null, "pageSize": 10, "ids": null, "endTime": null, "startTime": null}, "list": [{"cardNumFive": null, "isSupportYj": null, "cityName": null, "districtName": null, "shopinfo": {"mid": "888888858120709", "good_flag": "1", "new_flag": "1", "short_name": "\u6c49\u5821\u738b", "short_name_pinyin": "hanbaowang", "status": null, "address": null, "name": null, "id": "31706"}, "mid": "888888858120709", "shopId": "31706", "netid": null, "province": 901, "district": 601, "zipcode": null, "telephone": "64878775", "posDate": null, "destineTel": null, "togoTel": null, "trafficWay": "\u5730\u94c1\u4e00\u53f7\u7ebf\u300144\u3001205", "signBuilding": null, "businessArea": null, "selfRoom": null, "businessTime": null, "stall": null, "consume": null, "serviceFei": null, "favourable": null, "shopMemo": null, "appraise": null, "website": null, "memo": null, "payTypes": "\u6749\u5fb7\u5361", "shopTypes": "\u9910\u996e", "consumeTypes": null, "cookTypes": null, "orderNum": 1000, "card4no": null, "card4noAcc": null, "district2": 403, "searchScope": null, "status": 1, "address": "\u8087\u5609\u6d5c\u8def1111\u53f7\u7f8e\u7f57\u57ceB1-9", "name": "\u6c49\u5821\u738b \u8087\u5609\u6d5c\u8def\u5e97", "id": 135072, "pageNo": 0, "pageCount": null, "pageSize": 10, "ids": null, "endTime": null, "startTime": null}, {"cardNumFive": null, "isSupportYj": null, "cityName": null, "districtName": null, "shopinfo": {"mid": "888888858120709", "good_flag": null, "new_flag": null, "short_name": "\u6c49\u5821\u738b", "short_name_pinyin": "hanbaowang", "status": null, "address": null, "name": null, "id": "38248"}, "mid": "888888858120709", "shopId": "38248", "netid": null, "province": 901, "district": 601, "zipcode": null, "telephone": "58208197", "posDate": null, "destineTel": null, "togoTel": null, "trafficWay": null, "signBuilding": null, "businessArea": null, "selfRoom": null, "businessTime": null, "stall": null, "consume": null, "serviceFei": null, "favourable": null, "shopMemo": null, "appraise": null, "website": null, "memo": null, "payTypes": "\u6749\u5fb7\u5361", "shopTypes": "\u9910\u996e", "consumeTypes": null, "cookTypes": null, "orderNum": 1000, "card4no": null, "card4noAcc": null, "district2": 418, "searchScope": null, "status": 1, "address": "\u4e1c\u65b9\u8def796\u53f7", "name": "\u6c49\u5821\u738b \u4e1c\u65b9\u8def\u5e97", "id": 163228, "pageNo": 0, "pageCount": null, "pageSize": 10, "ids": null, "endTime": null, "startTime": null}, {"cardNumFive": null, "isSupportYj": null, "cityName": null, "districtName": null, "shopinfo": {"mid": "888888858120709", "good_flag": null, "new_flag": null, "short_name": "\u6c49\u5821\u738b", "short_name_pinyin": "hanbaowang", "status": null, "address": null, "name": null, "id": "38248"}, "mid": "888888858120709", "shopId": "38248", "netid": null, "province": 901, "district": 601, "zipcode": null, "telephone": "38821475", "posDate": null, "destineTel": null, "togoTel": null, "trafficWay": null, "signBuilding": null, "businessArea": null, "selfRoom": null, "businessTime": null, "stall": null, "consume": null, "serviceFei": null, "favourable": null, "shopMemo": null, "appraise": null, "website": null, "memo": null, "payTypes": "\u6749\u5fb7\u5361", "shopTypes": "\u9910\u996e", "consumeTypes": null, "cookTypes": null, "orderNum": 1000, "card4no": null, "card4noAcc": null, "district2": 418, "searchScope": null, "status": 1, "address": "\u82b3\u7538\u8def199\u5f0450\u53f7", "name": "\u6c49\u5821\u738b \u5927\u62c7\u6307\u9910\u5385", "id": 163229, "pageNo": 0, "pageCount": null, "pageSize": 10, "ids": null, "endTime": null, "startTime": null}, {"cardNumFive": null, "isSupportYj": null, "cityName": null, "districtName": null, "shopinfo": {"mid": "888888858120709", "good_flag": null, "new_flag": null, "short_name": "\u6c49\u5821\u738b", "short_name_pinyin": "hanbaowang", "status": null, "address": null, "name": null, "id": "38248"}, "mid": "888888858120709", "shopId": "38248", "netid": null, "province": 901, "district": 601, "zipcode": null, "telephone": null, "posDate": null, "destineTel": null, "togoTel": null, "trafficWay": null, "signBuilding": null, "businessArea": null, "selfRoom": null, "businessTime": null, "stall": null, "consume": null, "serviceFei": null, "favourable": null, "shopMemo": null, "appraise": null, "website": null, "memo": null, "payTypes": "\u6749\u5fb7\u5361", "shopTypes": "\u9910\u996e", "consumeTypes": null, "cookTypes": null, "orderNum": 1000, "card4no": null, "card4noAcc": null, "district2": 408, "searchScope": null, "status": 1, "address": "\u897f\u6c5f\u6e7e\u8def388\u53f7\u5730\u4e0b\u4e8c\u5c42", "name": "\u6c49\u5821\u738b \u8679\u53e3\u9f99\u4e4b\u68a6\u5e97", "id": 163231, "pageNo": 0, "pageCount": null, "pageSize": 10, "ids": null, "endTime": null, "startTime": null}, {"cardNumFive": null, "isSupportYj": null, "cityName": null, "districtName": null, "shopinfo": {"mid": "888888858120709", "good_flag": null, "new_flag": null, "short_name": "\u6c49\u5821\u738b", "short_name_pinyin": "hanbaowang", "status": null, "address": null, "name": null, "id": "38248"}, "mid": "888888858120709", "shopId": "38248", "netid": null, "province": 901, "district": 601, "zipcode": null, "telephone": "52341956", "posDate": null, "destineTel": null, "togoTel": null, "trafficWay": null, "signBuilding": null, "businessArea": null, "selfRoom": null, "businessTime": null, "stall": null, "consume": null, "serviceFei": null, "favourable": null, "shopMemo": null, "appraise": null, "website": null, "memo": null, "payTypes": "\u6749\u5fb7\u5361", "shopTypes": "\u9910\u996e", "consumeTypes": null, "cookTypes": null, "orderNum": 1000, "card4no": null, "card4noAcc": null, "district2": 406, "searchScope": null, "status": 1, "address": "\u5929\u5c71\u8def889\u53f7", "name": "\u6c49\u5821\u738b \u5929\u5c71\u8def\u5e97", "id": 163232, "pageNo": 0, "pageCount": null, "pageSize": 10, "ids": null, "endTime": null, "startTime": null}, {"cardNumFive": null, "isSupportYj": null, "cityName": null, "districtName": null, "shopinfo": {"mid": "888888858120709", "good_flag": "1", "new_flag": "1", "short_name": "\u6c49\u5821\u738b", "short_name_pinyin": "hanbaowang", "status": null, "address": null, "name": null, "id": "31706"}, "mid": "888888858120709", "shopId": "31706", "netid": null, "province": 901, "district": 601, "zipcode": null, "telephone": null, "posDate": null, "destineTel": null, "togoTel": null, "trafficWay": null, "signBuilding": null, "businessArea": null, "selfRoom": null, "businessTime": null, "stall": null, "consume": null, "serviceFei": null, "favourable": null, "shopMemo": null, "appraise": null, "website": null, "memo": null, "payTypes": "\u6749\u5fb7\u5361", "shopTypes": "\u9910\u996e", "consumeTypes": null, "cookTypes": null, "orderNum": 1000, "card4no": null, "card4noAcc": null, "district2": 416, "searchScope": null, "status": 1, "address": "\u4e00\u4e8c\u516b\u7eaa\u5ff5\u8def936\u53f71\u697cE\u533a", "name": "\u6c49\u5821\u738b \u5b9d\u5c71\u4e07\u8fbe\u5e97", "id": 169338, "pageNo": 0, "pageCount": null, "pageSize": 10, "ids": null, "endTime": null, "startTime": null}, {"cardNumFive": null, "isSupportYj": null, "cityName": null, "districtName": null, "shopinfo": {"mid": "888888858120709", "good_flag": "1", "new_flag": "1", "short_name": "\u6c49\u5821\u738b", "short_name_pinyin": "hanbaowang", "status": null, "address": null, "name": null, "id": "31706"}, "mid": "888888858120709", "shopId": "31706", "netid": null, "province": 901, "district": 601, "zipcode": null, "telephone": "33729793", "posDate": null, "destineTel": null, "togoTel": null, "trafficWay": null, "signBuilding": null, "businessArea": null, "selfRoom": null, "businessTime": null, "stall": null, "consume": null, "serviceFei": null, "favourable": null, "shopMemo": null, "appraise": null, "website": null, "memo": null, "payTypes": "\u6749\u5fb7\u5361", "shopTypes": "\u9910\u996e", "consumeTypes": null, "cookTypes": null, "orderNum": 1000, "card4no": null, "card4noAcc": null, "district2": 406, "searchScope": null, "status": 1, "address": "\u957f\u5b81\u8def1018\u53f7B1\u697c", "name": "\u6c49\u5821\u738b \u957f\u5b81\u9f99\u4e4b\u68a6\u5e97", "id": 169339, "pageNo": 0, "pageCount": null, "pageSize": 10, "ids": null, "endTime": null, "startTime": null}, {"cardNumFive": null, "isSupportYj": null, "cityName": null, "districtName": null, "shopinfo": {"mid": "888888858120709", "good_flag": "1", "new_flag": "1", "short_name": "\u6c49\u5821\u738b", "short_name_pinyin": "hanbaowang", "status": null, "address": null, "name": null, "id": "31706"}, "mid": "888888858120709", "shopId": "31706", "netid": null, "province": 901, "district": 601, "zipcode": null, "telephone": null, "posDate": null, "destineTel": null, "togoTel": null, "trafficWay": null, "signBuilding": null, "businessArea": null, "selfRoom": null, "businessTime": null, "stall": null, "consume": null, "serviceFei": null, "favourable": null, "shopMemo": null, "appraise": null, "website": null, "memo": null, "payTypes": "\u6749\u5fb7\u5361", "shopTypes": "\u9910\u996e", "consumeTypes": null, "cookTypes": null, "orderNum": 1000, "card4no": null, "card4noAcc": null, "district2": 404, "searchScope": null, "status": 1, "address": "\u5357\u4eac\u897f\u8def580\u53f7", "name": "\u6c49\u5821\u738b \u5357\u4eac\u897f\u8def\u4e8c\u5e97", "id": 171498, "pageNo": 0, "pageCount": null, "pageSize": 10, "ids": null, "endTime": null, "startTime": null}, {"cardNumFive": null, "isSupportYj": null, "cityName": null, "districtName": null, "shopinfo": {"mid": "888888858120709", "good_flag": "1", "new_flag": "1", "short_name": "\u6c49\u5821\u738b", "short_name_pinyin": "hanbaowang", "status": null, "address": null, "name": null, "id": "31706"}, "mid": "888888858120709", "shopId": "31706", "netid": null, "province": 901, "district": 601, "zipcode": null, "telephone": null, "posDate": null, "destineTel": null, "togoTel": null, "trafficWay": null, "signBuilding": null, "businessArea": null, "selfRoom": null, "businessTime": null, "stall": null, "consume": null, "serviceFei": null, "favourable": null, "shopMemo": null, "appraise": null, "website": null, "memo": null, "payTypes": "\u6749\u5fb7\u5361", "shopTypes": "\u9910\u996e", "consumeTypes": null, "cookTypes": null, "orderNum": 1000, "card4no": null, "card4noAcc": null, "district2": 401, "searchScope": null, "status": 1, "address": "\u5357\u4eac\u4e1c\u8def300\u53f7", "name": "\u6c49\u5821\u738b \u5357\u4eac\u4e1c\u8def\u5e97", "id": 171499, "pageNo": 0, "pageCount": null, "pageSize": 10, "ids": null, "endTime": null, "startTime": null}, {"cardNumFive": null, "isSupportYj": null, "cityName": null, "districtName": null, "shopinfo": {"mid": "888888858120709", "good_flag": "1", "new_flag": "1", "short_name": "\u6c49\u5821\u738b", "short_name_pinyin": "hanbaowang", "status": null, "address": null, "name": null, "id": "31706"}, "mid": "888888858120709", "shopId": "31706", "netid": null, "province": 901, "district": 601, "zipcode": null, "telephone": null, "posDate": null, "destineTel": null, "togoTel": null, "trafficWay": null, "signBuilding": null, "businessArea": null, "selfRoom": null, "businessTime": null, "stall": null, "consume": null, "serviceFei": null, "favourable": null, "shopMemo": null, "appraise": null, "website": null, "memo": null, "payTypes": "\u6749\u5fb7\u5361", "shopTypes": "\u9910\u996e", "consumeTypes": null, "cookTypes": null, "orderNum": 1000, "card4no": null, "card4noAcc": null, "district2": 418, "searchScope": null, "status": 1, "address": "\u78a7\u4e91\u8def555\u53f71\u697c9\u53f7\u5546\u94fa", "name": "\u6c49\u5821\u738b \u78a7\u4e91\u8def\u5e97", "id": 176665, "pageNo": 0, "pageCount": null, "pageSize": 10, "ids": null, "endTime": null, "startTime": null}], "pageLimit": 2040, "size": 10}