{"pageCount": 1095, "count": 10942, "pageNo": 201, "subShopInfo": {"cardNumFive": "", "isSupportYj": "", "cityName": null, "districtName": null, "shopinfo": {"mid": null, "good_flag": null, "new_flag": null, "short_name": null, "short_name_pinyin": null, "status": null, "address": "", "name": "", "id": null}, "mid": null, "shopId": null, "netid": null, "province": 901, "district": null, "zipcode": null, "telephone": null, "posDate": null, "destineTel": null, "togoTel": null, "trafficWay": null, "signBuilding": null, "businessArea": null, "selfRoom": null, "businessTime": null, "stall": null, "consume": null, "serviceFei": null, "favourable": null, "shopMemo": "1", "appraise": null, "website": null, "memo": null, "payTypes": "", "shopTypes": "", "consumeTypes": null, "cookTypes": null, "orderNum": null, "card4no": null, "card4noAcc": null, "district2": null, "searchScope": null, "status": null, "address": "", "name": null, "id": null, "pageNo": 200, "pageCount": null, "pageSize": 10, "ids": null, "endTime": null, "startTime": null}, "list": [{"cardNumFive": null, "isSupportYj": null, "cityName": null, "districtName": null, "shopinfo": {"mid": "888888859120181", "good_flag": "1", "new_flag": "2", "short_name": "\u6d77\u738b\u661f\u8fb0", "short_name_pinyin": "haiwangxingchen", "status": null, "address": null, "name": null, "id": "31691"}, "mid": "888888859120181", "shopId": "31691", "netid": null, "province": 901, "district": 601, "zipcode": null, "telephone": "58993194", "posDate": null, "destineTel": null, "togoTel": null, "trafficWay": "777\u3001783", "signBuilding": null, "businessArea": null, "selfRoom": null, "businessTime": null, "stall": null, "consume": null, "serviceFei": null, "favourable": null, "shopMemo": null, "appraise": null, "website": null, "memo": null, "payTypes": "\u6749\u5fb7\u5361", "shopTypes": "\u836f\u5e97", "consumeTypes": null, "cookTypes": null, "orderNum": 1000, "card4no": null, "card4noAcc": null, "district2": 418, "searchScope": null, "status": 1, "address": "\u53f0\u513f\u5e84\u8def600\u53f7", "name": "\u6d77\u738b\u661f\u8fb0 \u53f0\u513f\u5e84\u5e97", "id": 135009, "pageNo": 0, "pageCount": null, "pageSize": 10, "ids": null, "endTime": null, "startTime": null}, {"cardNumFive": null, "isSupportYj": null, "cityName": null, "districtName": null, "shopinfo": {"mid": "888888859120181", "good_flag": "1", "new_flag": "2", "short_name": "\u6d77\u738b\u661f\u8fb0", "short_name_pinyin": "haiwangxingchen", "status": null, "address": null, "name": null, "id": "31691"}, "mid": "888888859120181", "shopId": "31691", "netid": null, "province": 901, "district": 601, "zipcode": null, "telephone": "62333219", "posDate": null, "destineTel": null, "togoTel": null, "trafficWay": "54\u3001757\u3001808", "signBuilding": null, "businessArea": null, "selfRoom": null, "businessTime": null, "stall": null, "consume": null, "serviceFei": null, "favourable": null, "shopMemo": null, "appraise": null, "website": null, "memo": null, "payTypes": "\u6749\u5fb7\u5361", "shopTypes": "\u836f\u5e97", "consumeTypes": null, "cookTypes": null, "orderNum": 1000, "card4no": null, "card4noAcc": null, "district2": 406, "searchScope": null, "status": 1, "address": "\u5929\u5c71\u652f\u8def128\u53f7", "name": "\u6d77\u738b\u661f\u8fb0 \u5929\u5c71\u5e97", "id": 135010, "pageNo": 0, "pageCount": null, "pageSize": 10, "ids": null, "endTime": null, "startTime": null}, {"cardNumFive": null, "isSupportYj": null, "cityName": null, "districtName": null, "shopinfo": {"mid": "888888859120181", "good_flag": "1", "new_flag": "2", "short_name": "\u6d77\u738b\u661f\u8fb0", "short_name_pinyin": "haiwangxingchen", "status": null, "address": null, "name": null, "id": "31691"}, "mid": "888888859120181", "shopId": "31691", "netid": null, "province": 901, "district": 601, "zipcode": null, "telephone": "56564942", "posDate": null, "destineTel": null, "togoTel": null, "trafficWay": "176\u3001728\u3001956", "signBuilding": null, "businessArea": null, "selfRoom": null, "businessTime": null, "stall": null, "consume": null, "serviceFei": null, "favourable": null, "shopMemo": null, "appraise": null, "website": null, "memo": null, "payTypes": "\u6749\u5fb7\u5361", "shopTypes": "\u836f\u5e97", "consumeTypes": null, "cookTypes": null, "orderNum": 1000, "card4no": null, "card4noAcc": null, "district2": 416, "searchScope": null, "status": 1, "address": "\u540c\u6cf0\u5317\u8def401\u53f7\u519c\u5de5\u55461\u697c", "name": "\u6d77\u738b\u661f\u8fb0 \u540c\u6cf0\u5e97", "id": 135011, "pageNo": 0, "pageCount": null, "pageSize": 10, "ids": null, "endTime": null, "startTime": null}, {"cardNumFive": null, "isSupportYj": null, "cityName": null, "districtName": null, "shopinfo": {"mid": "888888859120181", "good_flag": "1", "new_flag": "2", "short_name": "\u6d77\u738b\u661f\u8fb0", "short_name_pinyin": "haiwangxingchen", "status": null, "address": null, "name": null, "id": "31691"}, "mid": "888888859120181", "shopId": "31691", "netid": null, "province": 901, "district": 601, "zipcode": null, "telephone": "54378424", "posDate": null, "destineTel": null, "togoTel": null, "trafficWay": "156\u3001703\u3001759", "signBuilding": null, "businessArea": null, "selfRoom": null, "businessTime": null, "stall": null, "consume": null, "serviceFei": null, "favourable": null, "shopMemo": null, "appraise": null, "website": null, "memo": null, "payTypes": "\u6749\u5fb7\u5361", "shopTypes": "\u836f\u5e97", "consumeTypes": null, "cookTypes": null, "orderNum": 1000, "card4no": null, "card4noAcc": null, "district2": 409, "searchScope": null, "status": 1, "address": "\u7579\u753a\u8def100\u5f0452\u53f7", "name": "\u6d77\u738b\u661f\u8fb0 \u7579\u753a\u5e97", "id": 135012, "pageNo": 0, "pageCount": null, "pageSize": 10, "ids": null, "endTime": null, "startTime": null}, {"cardNumFive": null, "isSupportYj": null, "cityName": null, "districtName": null, "shopinfo": {"mid": "888888859120181", "good_flag": "1", "new_flag": "2", "short_name": "\u6d77\u738b\u661f\u8fb0", "short_name_pinyin": "haiwangxingchen", "status": null, "address": null, "name": null, "id": "31691"}, "mid": "888888859120181", "shopId": "31691", "netid": null, "province": 901, "district": 601, "zipcode": null, "telephone": "54371167", "posDate": null, "destineTel": null, "togoTel": null, "trafficWay": "156\u3001759", "signBuilding": null, "businessArea": null, "selfRoom": null, "businessTime": null, "stall": null, "consume": null, "serviceFei": null, "favourable": null, "shopMemo": null, "appraise": null, "website": null, "memo": null, "payTypes": "\u6749\u5fb7\u5361", "shopTypes": "\u836f\u5e97", "consumeTypes": null, "cookTypes": null, "orderNum": 1000, "card4no": null, "card4noAcc": null, "district2": 409, "searchScope": null, "status": 1, "address": "\u7579\u753a\u8def99\u5f04300\u53f7102\u5ba4", "name": "\u6d77\u738b\u661f\u8fb0 \u7579\u753a\u4e8c\u5e97", "id": 135013, "pageNo": 0, "pageCount": null, "pageSize": 10, "ids": null, "endTime": null, "startTime": null}, {"cardNumFive": null, "isSupportYj": null, "cityName": null, "districtName": null, "shopinfo": {"mid": "888888859120181", "good_flag": "1", "new_flag": "2", "short_name": "\u6d77\u738b\u661f\u8fb0", "short_name_pinyin": "haiwangxingchen", "status": null, "address": null, "name": null, "id": "31691"}, "mid": "888888859120181", "shopId": "31691", "netid": null, "province": 901, "district": 601, "zipcode": null, "telephone": "62259033", "posDate": null, "destineTel": null, "togoTel": null, "trafficWay": "44\u3001921", "signBuilding": null, "businessArea": null, "selfRoom": null, "businessTime": null, "stall": null, "consume": null, "serviceFei": null, "favourable": null, "shopMemo": null, "appraise": null, "website": null, "memo": null, "payTypes": "\u6749\u5fb7\u5361", "shopTypes": "\u836f\u5e97", "consumeTypes": null, "cookTypes": null, "orderNum": 1000, "card4no": null, "card4noAcc": null, "district2": 406, "searchScope": null, "status": 1, "address": "\u4e07\u822a\u6e21\u8def1483\u53f7", "name": "\u6d77\u738b\u661f\u8fb0 \u4e07\u822a\u5e97", "id": 135014, "pageNo": 0, "pageCount": null, "pageSize": 10, "ids": null, "endTime": null, "startTime": null}, {"cardNumFive": null, "isSupportYj": null, "cityName": null, "districtName": null, "shopinfo": {"mid": "888888859120181", "good_flag": "1", "new_flag": "2", "short_name": "\u6d77\u738b\u661f\u8fb0", "short_name_pinyin": "haiwangxingchen", "status": null, "address": null, "name": null, "id": "31691"}, "mid": "888888859120181", "shopId": "31691", "netid": null, "province": 901, "district": 601, "zipcode": null, "telephone": "64619629", "posDate": null, "destineTel": null, "togoTel": null, "trafficWay": "91\u3001953", "signBuilding": null, "businessArea": null, "selfRoom": null, "businessTime": null, "stall": null, "consume": null, "serviceFei": null, "favourable": null, "shopMemo": null, "appraise": null, "website": null, "memo": null, "payTypes": "\u6749\u5fb7\u5361", "shopTypes": "\u836f\u5e97", "consumeTypes": null, "cookTypes": null, "orderNum": 1000, "card4no": null, "card4noAcc": null, "district2": 409, "searchScope": null, "status": 1, "address": "\u4e03\u8398\u8def333\u53f7\u4e07\u79d1\u82b1\u56ed3\u533a", "name": "\u6d77\u738b\u661f\u8fb0 \u4e07\u79d1\u5e97", "id": 135015, "pageNo": 0, "pageCount": null, "pageSize": 10, "ids": null, "endTime": null, "startTime": null}, {"cardNumFive": null, "isSupportYj": null, "cityName": null, "districtName": null, "shopinfo": {"mid": "888888859120181", "good_flag": "1", "new_flag": "2", "short_name": "\u6d77\u738b\u661f\u8fb0", "short_name_pinyin": "haiwangxingchen", "status": null, "address": null, "name": null, "id": "31691"}, "mid": "888888859120181", "shopId": "31691", "netid": null, "province": 901, "district": 601, "zipcode": null, "telephone": "63576603", "posDate": null, "destineTel": null, "togoTel": null, "trafficWay": "6\u300114\u300161", "signBuilding": null, "businessArea": null, "selfRoom": null, "businessTime": null, "stall": null, "consume": null, "serviceFei": null, "favourable": null, "shopMemo": null, "appraise": null, "website": null, "memo": null, "payTypes": "\u6749\u5fb7\u5361", "shopTypes": "\u836f\u5e97", "consumeTypes": null, "cookTypes": null, "orderNum": 1000, "card4no": null, "card4noAcc": null, "district2": 408, "searchScope": null, "status": 1, "address": "\u6b66\u8fdb\u8def18\u53f7", "name": "\u6d77\u738b\u661f\u8fb0 \u6b66\u8fdb\u5e97", "id": 135016, "pageNo": 0, "pageCount": null, "pageSize": 10, "ids": null, "endTime": null, "startTime": null}, {"cardNumFive": null, "isSupportYj": null, "cityName": null, "districtName": null, "shopinfo": {"mid": "888888859120181", "good_flag": "1", "new_flag": "2", "short_name": "\u6d77\u738b\u661f\u8fb0", "short_name_pinyin": "haiwangxingchen", "status": null, "address": null, "name": null, "id": "31691"}, "mid": "888888859120181", "shopId": "31691", "netid": null, "province": 901, "district": 601, "zipcode": null, "telephone": "62100984", "posDate": null, "destineTel": null, "togoTel": null, "trafficWay": "96\u3001519\u3001939", "signBuilding": null, "businessArea": null, "selfRoom": null, "businessTime": null, "stall": null, "consume": null, "serviceFei": null, "favourable": null, "shopMemo": null, "appraise": null, "website": null, "memo": null, "payTypes": "\u6749\u5fb7\u5361", "shopTypes": "\u836f\u5e97", "consumeTypes": null, "cookTypes": null, "orderNum": 1000, "card4no": null, "card4noAcc": null, "district2": 406, "searchScope": null, "status": 1, "address": "\u6b66\u5937\u8def563\u53f7", "name": "\u6d77\u738b\u661f\u8fb0 \u6b66\u5937\u5e97", "id": 135017, "pageNo": 0, "pageCount": null, "pageSize": 10, "ids": null, "endTime": null, "startTime": null}, {"cardNumFive": null, "isSupportYj": null, "cityName": null, "districtName": null, "shopinfo": {"mid": "888888859120181", "good_flag": "1", "new_flag": "2", "short_name": "\u6d77\u738b\u661f\u8fb0", "short_name_pinyin": "haiwangxingchen", "status": null, "address": null, "name": null, "id": "31691"}, "mid": "888888859120181", "shopId": "31691", "netid": null, "province": 901, "district": 601, "zipcode": null, "telephone": "65403666", "posDate": null, "destineTel": null, "togoTel": null, "trafficWay": "100\u3001751\u3001875", "signBuilding": null, "businessArea": null, "selfRoom": null, "businessTime": null, "stall": null, "consume": null, "serviceFei": null, "favourable": null, "shopMemo": null, "appraise": null, "website": null, "memo": null, "payTypes": "\u6749\u5fb7\u5361", "shopTypes": "\u836f\u5e97", "consumeTypes": null, "cookTypes": null, "orderNum": 1000, "card4no": null, "card4noAcc": null, "district2": 408, "searchScope": null, "status": 1, "address": "\u7965\u5fb7\u8def105\u53f7", "name": "\u6d77\u738b\u661f\u8fb0 \u7965\u5fb7\u5e97", "id": 135018, "pageNo": 0, "pageCount": null, "pageSize": 10, "ids": null, "endTime": null, "startTime": null}], "pageLimit": 2000, "size": 10}