{"pageCount": 1095, "count": 10942, "pageNo": 229, "subShopInfo": {"cardNumFive": "", "isSupportYj": "", "cityName": null, "districtName": null, "shopinfo": {"mid": null, "good_flag": null, "new_flag": null, "short_name": null, "short_name_pinyin": null, "status": null, "address": "", "name": "", "id": null}, "mid": null, "shopId": null, "netid": null, "province": 901, "district": null, "zipcode": null, "telephone": null, "posDate": null, "destineTel": null, "togoTel": null, "trafficWay": null, "signBuilding": null, "businessArea": null, "selfRoom": null, "businessTime": null, "stall": null, "consume": null, "serviceFei": null, "favourable": null, "shopMemo": "1", "appraise": null, "website": null, "memo": null, "payTypes": "", "shopTypes": "", "consumeTypes": null, "cookTypes": null, "orderNum": null, "card4no": null, "card4noAcc": null, "district2": null, "searchScope": null, "status": null, "address": "", "name": null, "id": null, "pageNo": 228, "pageCount": null, "pageSize": 10, "ids": null, "endTime": null, "startTime": null}, "list": [{"cardNumFive": null, "isSupportYj": null, "cityName": null, "districtName": null, "shopinfo": {"mid": "888002154119987", "good_flag": null, "new_flag": "2", "short_name": "\u597d\u5fb7", "short_name_pinyin": "haode", "status": null, "address": null, "name": null, "id": "37205"}, "mid": "888002154119987", "shopId": "37205", "netid": null, "province": 901, "district": 601, "zipcode": null, "telephone": "57280720", "posDate": null, "destineTel": null, "togoTel": null, "trafficWay": null, "signBuilding": null, "businessArea": null, "selfRoom": null, "businessTime": null, "stall": null, "consume": null, "serviceFei": null, "favourable": null, "shopMemo": null, "appraise": null, "website": null, "memo": null, "payTypes": "\u6749\u5fb7\u5361", "shopTypes": "\u4fbf\u5229\u5e97", "consumeTypes": null, "cookTypes": null, "orderNum": 1000, "card4no": null, "card4noAcc": null, "district2": 414, "searchScope": null, "status": 1, "address": "\u9f99\u80dc\u4e1c\u8def796\u53f7", "name": "\u597d\u5fb7 \u6d77\u5cb8\u5e97", "id": 157394, "pageNo": 0, "pageCount": null, "pageSize": 10, "ids": null, "endTime": null, "startTime": null}, {"cardNumFive": null, "isSupportYj": null, "cityName": null, "districtName": null, "shopinfo": {"mid": "888002154119987", "good_flag": null, "new_flag": "2", "short_name": "\u597d\u5fb7", "short_name_pinyin": "haode", "status": null, "address": null, "name": null, "id": "37205"}, "mid": "888002154119987", "shopId": "37205", "netid": null, "province": 901, "district": 601, "zipcode": null, "telephone": "57966004", "posDate": null, "destineTel": null, "togoTel": null, "trafficWay": null, "signBuilding": null, "businessArea": null, "selfRoom": null, "businessTime": null, "stall": null, "consume": null, "serviceFei": null, "favourable": null, "shopMemo": null, "appraise": null, "website": null, "memo": null, "payTypes": "\u6749\u5fb7\u5361", "shopTypes": "\u4fbf\u5229\u5e97", "consumeTypes": null, "cookTypes": null, "orderNum": 1000, "card4no": null, "card4noAcc": null, "district2": 414, "searchScope": null, "status": 1, "address": "\u677f\u6865\u897f\u8def340\u53f7", "name": "\u597d\u5fb7 \u68d5\u6988\u5e97", "id": 157395, "pageNo": 0, "pageCount": null, "pageSize": 10, "ids": null, "endTime": null, "startTime": null}, {"cardNumFive": null, "isSupportYj": null, "cityName": null, "districtName": null, "shopinfo": {"mid": "888002154119987", "good_flag": null, "new_flag": "2", "short_name": "\u597d\u5fb7", "short_name_pinyin": "haode", "status": null, "address": null, "name": null, "id": "37205"}, "mid": "888002154119987", "shopId": "37205", "netid": null, "province": 901, "district": 601, "zipcode": null, "telephone": "67965148", "posDate": null, "destineTel": null, "togoTel": null, "trafficWay": null, "signBuilding": null, "businessArea": null, "selfRoom": null, "businessTime": null, "stall": null, "consume": null, "serviceFei": null, "favourable": null, "shopMemo": null, "appraise": null, "website": null, "memo": null, "payTypes": "\u6749\u5fb7\u5361", "shopTypes": "\u4fbf\u5229\u5e97", "consumeTypes": null, "cookTypes": null, "orderNum": 1000, "card4no": null, "card4noAcc": null, "district2": 414, "searchScope": null, "status": 1, "address": "\u8499\u5c71\u8def1293\u53f7", "name": "\u597d\u5fb7 \u91d1\u8499\u5e97", "id": 157396, "pageNo": 0, "pageCount": null, "pageSize": 10, "ids": null, "endTime": null, "startTime": null}, {"cardNumFive": null, "isSupportYj": null, "cityName": null, "districtName": null, "shopinfo": {"mid": "888002154119987", "good_flag": null, "new_flag": "2", "short_name": "\u597d\u5fb7", "short_name_pinyin": "haode", "status": null, "address": null, "name": null, "id": "37205"}, "mid": "888002154119987", "shopId": "37205", "netid": null, "province": 901, "district": 601, "zipcode": null, "telephone": "57935435", "posDate": null, "destineTel": null, "togoTel": null, "trafficWay": null, "signBuilding": null, "businessArea": null, "selfRoom": null, "businessTime": null, "stall": null, "consume": null, "serviceFei": null, "favourable": null, "shopMemo": null, "appraise": null, "website": null, "memo": null, "payTypes": "\u6749\u5fb7\u5361", "shopTypes": "\u4fbf\u5229\u5e97", "consumeTypes": null, "cookTypes": null, "orderNum": 1000, "card4no": null, "card4noAcc": null, "district2": 414, "searchScope": null, "status": 1, "address": "\u91d1\u96f6\u8def100\u53f7", "name": "\u597d\u5fb7 \u91d1\u96f6\u5e97", "id": 157397, "pageNo": 0, "pageCount": null, "pageSize": 10, "ids": null, "endTime": null, "startTime": null}, {"cardNumFive": null, "isSupportYj": null, "cityName": null, "districtName": null, "shopinfo": {"mid": "888002154119987", "good_flag": null, "new_flag": "2", "short_name": "\u597d\u5fb7", "short_name_pinyin": "haode", "status": null, "address": null, "name": null, "id": "37205"}, "mid": "888002154119987", "shopId": "37205", "netid": null, "province": 901, "district": 601, "zipcode": null, "telephone": "57931632", "posDate": null, "destineTel": null, "togoTel": null, "trafficWay": null, "signBuilding": null, "businessArea": null, "selfRoom": null, "businessTime": null, "stall": null, "consume": null, "serviceFei": null, "favourable": null, "shopMemo": null, "appraise": null, "website": null, "memo": null, "payTypes": "\u6749\u5fb7\u5361", "shopTypes": "\u4fbf\u5229\u5e97", "consumeTypes": null, "cookTypes": null, "orderNum": 1000, "card4no": null, "card4noAcc": null, "district2": 414, "searchScope": null, "status": 1, "address": "\u77f3\u5316\u5341\u675122\u53f7", "name": "\u597d\u5fb7 \u5bcc\u5ddd\u5e97", "id": 157398, "pageNo": 0, "pageCount": null, "pageSize": 10, "ids": null, "endTime": null, "startTime": null}, {"cardNumFive": null, "isSupportYj": null, "cityName": null, "districtName": null, "shopinfo": {"mid": "888002154119987", "good_flag": null, "new_flag": "2", "short_name": "\u597d\u5fb7", "short_name_pinyin": "haode", "status": null, "address": null, "name": null, "id": "37205"}, "mid": "888002154119987", "shopId": "37205", "netid": null, "province": 901, "district": 601, "zipcode": null, "telephone": "57965194", "posDate": null, "destineTel": null, "togoTel": null, "trafficWay": null, "signBuilding": null, "businessArea": null, "selfRoom": null, "businessTime": null, "stall": null, "consume": null, "serviceFei": null, "favourable": null, "shopMemo": null, "appraise": null, "website": null, "memo": null, "payTypes": "\u6749\u5fb7\u5361", "shopTypes": "\u4fbf\u5229\u5e97", "consumeTypes": null, "cookTypes": null, "orderNum": 1000, "card4no": null, "card4noAcc": null, "district2": 414, "searchScope": null, "status": 1, "address": "\u536b\u6e05\u897f\u8def1001\u53f7", "name": "\u597d\u5fb7 \u91d1\u536b\u5e97", "id": 157399, "pageNo": 0, "pageCount": null, "pageSize": 10, "ids": null, "endTime": null, "startTime": null}, {"cardNumFive": null, "isSupportYj": null, "cityName": null, "districtName": null, "shopinfo": {"mid": "888002154119987", "good_flag": null, "new_flag": "2", "short_name": "\u597d\u5fb7", "short_name_pinyin": "haode", "status": null, "address": null, "name": null, "id": "37205"}, "mid": "888002154119987", "shopId": "37205", "netid": null, "province": 901, "district": 601, "zipcode": null, "telephone": "57931024", "posDate": null, "destineTel": null, "togoTel": null, "trafficWay": null, "signBuilding": null, "businessArea": null, "selfRoom": null, "businessTime": null, "stall": null, "consume": null, "serviceFei": null, "favourable": null, "shopMemo": null, "appraise": null, "website": null, "memo": null, "payTypes": "\u6749\u5fb7\u5361", "shopTypes": "\u4fbf\u5229\u5e97", "consumeTypes": null, "cookTypes": null, "orderNum": 1000, "card4no": null, "card4noAcc": null, "district2": 414, "searchScope": null, "status": 1, "address": "\u536b\u4e00\u8def5\u53f7", "name": "\u597d\u5fb7 \u536b\u4e00\u5e97", "id": 157400, "pageNo": 0, "pageCount": null, "pageSize": 10, "ids": null, "endTime": null, "startTime": null}, {"cardNumFive": null, "isSupportYj": null, "cityName": null, "districtName": null, "shopinfo": {"mid": "888002154119987", "good_flag": null, "new_flag": "2", "short_name": "\u597d\u5fb7", "short_name_pinyin": "haode", "status": null, "address": null, "name": null, "id": "37205"}, "mid": "888002154119987", "shopId": "37205", "netid": null, "province": 901, "district": 601, "zipcode": null, "telephone": "57314857", "posDate": null, "destineTel": null, "togoTel": null, "trafficWay": null, "signBuilding": null, "businessArea": null, "selfRoom": null, "businessTime": null, "stall": null, "consume": null, "serviceFei": null, "favourable": null, "shopMemo": null, "appraise": null, "website": null, "memo": null, "payTypes": "\u6749\u5fb7\u5361", "shopTypes": "\u4fbf\u5229\u5e97", "consumeTypes": null, "cookTypes": null, "orderNum": 1000, "card4no": null, "card4noAcc": null, "district2": 414, "searchScope": null, "status": 1, "address": "\u57ce\u4e2d\u8def88\u53f7", "name": "\u597d\u5fb7 \u4e07\u57ce\u5e97", "id": 157401, "pageNo": 0, "pageCount": null, "pageSize": 10, "ids": null, "endTime": null, "startTime": null}, {"cardNumFive": null, "isSupportYj": null, "cityName": null, "districtName": null, "shopinfo": {"mid": "888002154119987", "good_flag": null, "new_flag": "2", "short_name": "\u597d\u5fb7", "short_name_pinyin": "haode", "status": null, "address": null, "name": null, "id": "37205"}, "mid": "888002154119987", "shopId": "37205", "netid": null, "province": 901, "district": 601, "zipcode": null, "telephone": "57330667", "posDate": null, "destineTel": null, "togoTel": null, "trafficWay": null, "signBuilding": null, "businessArea": null, "selfRoom": null, "businessTime": null, "stall": null, "consume": null, "serviceFei": null, "favourable": null, "shopMemo": null, "appraise": null, "website": null, "memo": null, "payTypes": "\u6749\u5fb7\u5361", "shopTypes": "\u4fbf\u5229\u5e97", "consumeTypes": null, "cookTypes": null, "orderNum": 1000, "card4no": null, "card4noAcc": null, "district2": 414, "searchScope": null, "status": 1, "address": "\u5065\u5eb7\u5357\u8def508\u53f7", "name": "\u597d\u5fb7 \u5eb7\u5357\u5e97", "id": 157402, "pageNo": 0, "pageCount": null, "pageSize": 10, "ids": null, "endTime": null, "startTime": null}, {"cardNumFive": null, "isSupportYj": null, "cityName": null, "districtName": null, "shopinfo": {"mid": "888002154119987", "good_flag": null, "new_flag": "2", "short_name": "\u597d\u5fb7", "short_name_pinyin": "haode", "status": null, "address": null, "name": null, "id": "37205"}, "mid": "888002154119987", "shopId": "37205", "netid": null, "province": 901, "district": 601, "zipcode": null, "telephone": "57326613", "posDate": null, "destineTel": null, "togoTel": null, "trafficWay": null, "signBuilding": null, "businessArea": null, "selfRoom": null, "businessTime": null, "stall": null, "consume": null, "serviceFei": null, "favourable": null, "shopMemo": null, "appraise": null, "website": null, "memo": null, "payTypes": "\u6749\u5fb7\u5361", "shopTypes": "\u4fbf\u5229\u5e97", "consumeTypes": null, "cookTypes": null, "orderNum": 1000, "card4no": null, "card4noAcc": null, "district2": 414, "searchScope": null, "status": 1, "address": "\u7f57\u661f\u8def11\u53f7", "name": "\u597d\u5fb7 \u7f57\u661f\u5e97", "id": 157403, "pageNo": 0, "pageCount": null, "pageSize": 10, "ids": null, "endTime": null, "startTime": null}], "pageLimit": 2280, "size": 10}