{"pageCount": 1095, "count": 10942, "pageNo": 251, "subShopInfo": {"cardNumFive": "", "isSupportYj": "", "cityName": null, "districtName": null, "shopinfo": {"mid": null, "good_flag": null, "new_flag": null, "short_name": null, "short_name_pinyin": null, "status": null, "address": "", "name": "", "id": null}, "mid": null, "shopId": null, "netid": null, "province": 901, "district": null, "zipcode": null, "telephone": null, "posDate": null, "destineTel": null, "togoTel": null, "trafficWay": null, "signBuilding": null, "businessArea": null, "selfRoom": null, "businessTime": null, "stall": null, "consume": null, "serviceFei": null, "favourable": null, "shopMemo": "1", "appraise": null, "website": null, "memo": null, "payTypes": "", "shopTypes": "", "consumeTypes": null, "cookTypes": null, "orderNum": null, "card4no": null, "card4noAcc": null, "district2": null, "searchScope": null, "status": null, "address": "", "name": null, "id": null, "pageNo": 250, "pageCount": null, "pageSize": 10, "ids": null, "endTime": null, "startTime": null}, "list": [{"cardNumFive": null, "isSupportYj": null, "cityName": null, "districtName": null, "shopinfo": {"mid": "888002154119987", "good_flag": null, "new_flag": "2", "short_name": "\u597d\u5fb7", "short_name_pinyin": "haode", "status": null, "address": null, "name": null, "id": "37205"}, "mid": "888002154119987", "shopId": "37205", "netid": null, "province": 901, "district": 601, "zipcode": null, "telephone": "58703714", "posDate": null, "destineTel": null, "togoTel": null, "trafficWay": null, "signBuilding": null, "businessArea": null, "selfRoom": null, "businessTime": null, "stall": null, "consume": null, "serviceFei": null, "favourable": null, "shopMemo": null, "appraise": null, "website": null, "memo": null, "payTypes": "\u6749\u5fb7\u5361", "shopTypes": "\u4fbf\u5229\u5e97", "consumeTypes": null, "cookTypes": null, "orderNum": 1000, "card4no": null, "card4noAcc": null, "district2": 418, "searchScope": null, "status": 1, "address": "\u5357\u6cc9\u8def1095\u53f7", "name": "\u597d\u5fb7 \u5357\u5ce8\u5e97", "id": 157653, "pageNo": 0, "pageCount": null, "pageSize": 10, "ids": null, "endTime": null, "startTime": null}, {"cardNumFive": null, "isSupportYj": null, "cityName": null, "districtName": null, "shopinfo": {"mid": "888002154119987", "good_flag": null, "new_flag": "2", "short_name": "\u597d\u5fb7", "short_name_pinyin": "haode", "status": null, "address": null, "name": null, "id": "37205"}, "mid": "888002154119987", "shopId": "37205", "netid": null, "province": 901, "district": 601, "zipcode": null, "telephone": "50901266", "posDate": null, "destineTel": null, "togoTel": null, "trafficWay": null, "signBuilding": null, "businessArea": null, "selfRoom": null, "businessTime": null, "stall": null, "consume": null, "serviceFei": null, "favourable": null, "shopMemo": null, "appraise": null, "website": null, "memo": null, "payTypes": "\u6749\u5fb7\u5361", "shopTypes": "\u4fbf\u5229\u5e97", "consumeTypes": null, "cookTypes": null, "orderNum": 1000, "card4no": null, "card4noAcc": null, "district2": 418, "searchScope": null, "status": 1, "address": "\u5357\u6cc9\u8def1334\u53f7", "name": "\u597d\u5fb7 \u5357\u6cc9\u5e97", "id": 157654, "pageNo": 0, "pageCount": null, "pageSize": 10, "ids": null, "endTime": null, "startTime": null}, {"cardNumFive": null, "isSupportYj": null, "cityName": null, "districtName": null, "shopinfo": {"mid": "888002154119987", "good_flag": null, "new_flag": "2", "short_name": "\u597d\u5fb7", "short_name_pinyin": "haode", "status": null, "address": null, "name": null, "id": "37205"}, "mid": "888002154119987", "shopId": "37205", "netid": null, "province": 901, "district": 601, "zipcode": null, "telephone": "58786427", "posDate": null, "destineTel": null, "togoTel": null, "trafficWay": null, "signBuilding": null, "businessArea": null, "selfRoom": null, "businessTime": null, "stall": null, "consume": null, "serviceFei": null, "favourable": null, "shopMemo": null, "appraise": null, "website": null, "memo": null, "payTypes": "\u6749\u5fb7\u5361", "shopTypes": "\u4fbf\u5229\u5e97", "consumeTypes": null, "cookTypes": null, "orderNum": 1000, "card4no": null, "card4noAcc": null, "district2": 418, "searchScope": null, "status": 1, "address": "\u6d66\u7535\u8def141\u53f7", "name": "\u597d\u5fb7 \u5357\u7535\u5e97", "id": 157655, "pageNo": 0, "pageCount": null, "pageSize": 10, "ids": null, "endTime": null, "startTime": null}, {"cardNumFive": null, "isSupportYj": null, "cityName": null, "districtName": null, "shopinfo": {"mid": "888002154119987", "good_flag": null, "new_flag": "2", "short_name": "\u597d\u5fb7", "short_name_pinyin": "haode", "status": null, "address": null, "name": null, "id": "37205"}, "mid": "888002154119987", "shopId": "37205", "netid": null, "province": 901, "district": 601, "zipcode": null, "telephone": "68759537", "posDate": null, "destineTel": null, "togoTel": null, "trafficWay": null, "signBuilding": null, "businessArea": null, "selfRoom": null, "businessTime": null, "stall": null, "consume": null, "serviceFei": null, "favourable": null, "shopMemo": null, "appraise": null, "website": null, "memo": null, "payTypes": "\u6749\u5fb7\u5361", "shopTypes": "\u4fbf\u5229\u5e97", "consumeTypes": null, "cookTypes": null, "orderNum": 1000, "card4no": null, "card4noAcc": null, "district2": 418, "searchScope": null, "status": 1, "address": "\u6d66\u7535\u8def315\u53f7", "name": "\u597d\u5fb7 \u548c\u8bb0\u5e97", "id": 157656, "pageNo": 0, "pageCount": null, "pageSize": 10, "ids": null, "endTime": null, "startTime": null}, {"cardNumFive": null, "isSupportYj": null, "cityName": null, "districtName": null, "shopinfo": {"mid": "888002154119987", "good_flag": null, "new_flag": "2", "short_name": "\u597d\u5fb7", "short_name_pinyin": "haode", "status": null, "address": null, "name": null, "id": "37205"}, "mid": "888002154119987", "shopId": "37205", "netid": null, "province": 901, "district": 601, "zipcode": null, "telephone": "58318414", "posDate": null, "destineTel": null, "togoTel": null, "trafficWay": null, "signBuilding": null, "businessArea": null, "selfRoom": null, "businessTime": null, "stall": null, "consume": null, "serviceFei": null, "favourable": null, "shopMemo": null, "appraise": null, "website": null, "memo": null, "payTypes": "\u6749\u5fb7\u5361", "shopTypes": "\u4fbf\u5229\u5e97", "consumeTypes": null, "cookTypes": null, "orderNum": 1000, "card4no": null, "card4noAcc": null, "district2": 418, "searchScope": null, "status": 1, "address": "\u6d66\u7535\u8def56\u53f7", "name": "\u597d\u5fb7 \u6d66\u7535\u5e97", "id": 157657, "pageNo": 0, "pageCount": null, "pageSize": 10, "ids": null, "endTime": null, "startTime": null}, {"cardNumFive": null, "isSupportYj": null, "cityName": null, "districtName": null, "shopinfo": {"mid": "888002154119987", "good_flag": null, "new_flag": "2", "short_name": "\u597d\u5fb7", "short_name_pinyin": "haode", "status": null, "address": null, "name": null, "id": "37205"}, "mid": "888002154119987", "shopId": "37205", "netid": null, "province": 901, "district": 601, "zipcode": null, "telephone": "68360094", "posDate": null, "destineTel": null, "togoTel": null, "trafficWay": null, "signBuilding": null, "businessArea": null, "selfRoom": null, "businessTime": null, "stall": null, "consume": null, "serviceFei": null, "favourable": null, "shopMemo": null, "appraise": null, "website": null, "memo": null, "payTypes": "\u6749\u5fb7\u5361", "shopTypes": "\u4fbf\u5229\u5e97", "consumeTypes": null, "cookTypes": null, "orderNum": 1000, "card4no": null, "card4noAcc": null, "district2": 418, "searchScope": null, "status": 1, "address": "\u5317\u827e\u8def1196\u53f7", "name": "\u597d\u5fb7 \u534e\u57ce\u5e97", "id": 157658, "pageNo": 0, "pageCount": null, "pageSize": 10, "ids": null, "endTime": null, "startTime": null}, {"cardNumFive": null, "isSupportYj": null, "cityName": null, "districtName": null, "shopinfo": {"mid": "888002154119987", "good_flag": null, "new_flag": "2", "short_name": "\u597d\u5fb7", "short_name_pinyin": "haode", "status": null, "address": null, "name": null, "id": "37205"}, "mid": "888002154119987", "shopId": "37205", "netid": null, "province": 901, "district": 601, "zipcode": null, "telephone": "58907464", "posDate": null, "destineTel": null, "togoTel": null, "trafficWay": null, "signBuilding": null, "businessArea": null, "selfRoom": null, "businessTime": null, "stall": null, "consume": null, "serviceFei": null, "favourable": null, "shopMemo": null, "appraise": null, "website": null, "memo": null, "payTypes": "\u6749\u5fb7\u5361", "shopTypes": "\u4fbf\u5229\u5e97", "consumeTypes": null, "cookTypes": null, "orderNum": 1000, "card4no": null, "card4noAcc": null, "district2": 418, "searchScope": null, "status": 1, "address": "\u5ddd\u6c99\u5357\u6865\u8def717\u53f7", "name": "\u597d\u5fb7 \u6c38\u8fbe\u5e97", "id": 157662, "pageNo": 0, "pageCount": null, "pageSize": 10, "ids": null, "endTime": null, "startTime": null}, {"cardNumFive": null, "isSupportYj": null, "cityName": null, "districtName": null, "shopinfo": {"mid": "888002154119987", "good_flag": null, "new_flag": "2", "short_name": "\u597d\u5fb7", "short_name_pinyin": "haode", "status": null, "address": null, "name": null, "id": "37205"}, "mid": "888002154119987", "shopId": "37205", "netid": null, "province": 901, "district": 601, "zipcode": null, "telephone": "58852444", "posDate": null, "destineTel": null, "togoTel": null, "trafficWay": null, "signBuilding": null, "businessArea": null, "selfRoom": null, "businessTime": null, "stall": null, "consume": null, "serviceFei": null, "favourable": null, "shopMemo": null, "appraise": null, "website": null, "memo": null, "payTypes": "\u6749\u5fb7\u5361", "shopTypes": "\u4fbf\u5229\u5e97", "consumeTypes": null, "cookTypes": null, "orderNum": 1000, "card4no": null, "card4noAcc": null, "district2": 418, "searchScope": null, "status": 1, "address": "\u6d66\u4e1c\u5927\u90531728\u53f7", "name": "\u597d\u5fb7 \u5927\u9053\u5e97", "id": 157663, "pageNo": 0, "pageCount": null, "pageSize": 10, "ids": null, "endTime": null, "startTime": null}, {"cardNumFive": null, "isSupportYj": null, "cityName": null, "districtName": null, "shopinfo": {"mid": "888002154119987", "good_flag": null, "new_flag": "2", "short_name": "\u597d\u5fb7", "short_name_pinyin": "haode", "status": null, "address": null, "name": null, "id": "37205"}, "mid": "888002154119987", "shopId": "37205", "netid": null, "province": 901, "district": 601, "zipcode": null, "telephone": "58851236", "posDate": null, "destineTel": null, "togoTel": null, "trafficWay": null, "signBuilding": null, "businessArea": null, "selfRoom": null, "businessTime": null, "stall": null, "consume": null, "serviceFei": null, "favourable": null, "shopMemo": null, "appraise": null, "website": null, "memo": null, "payTypes": "\u6749\u5fb7\u5361", "shopTypes": "\u4fbf\u5229\u5e97", "consumeTypes": null, "cookTypes": null, "orderNum": 1000, "card4no": null, "card4noAcc": null, "district2": 418, "searchScope": null, "status": 1, "address": "\u6d66\u4e1c\u5927\u90532145\u53f7", "name": "\u597d\u5fb7 \u5927\u6865\u5e97", "id": 157664, "pageNo": 0, "pageCount": null, "pageSize": 10, "ids": null, "endTime": null, "startTime": null}, {"cardNumFive": null, "isSupportYj": null, "cityName": null, "districtName": null, "shopinfo": {"mid": "888002154119987", "good_flag": null, "new_flag": "2", "short_name": "\u597d\u5fb7", "short_name_pinyin": "haode", "status": null, "address": null, "name": null, "id": "37205"}, "mid": "888002154119987", "shopId": "37205", "netid": null, "province": 901, "district": 601, "zipcode": null, "telephone": "58761392", "posDate": null, "destineTel": null, "togoTel": null, "trafficWay": null, "signBuilding": null, "businessArea": null, "selfRoom": null, "businessTime": null, "stall": null, "consume": null, "serviceFei": null, "favourable": null, "shopMemo": null, "appraise": null, "website": null, "memo": null, "payTypes": "\u6749\u5fb7\u5361", "shopTypes": "\u4fbf\u5229\u5e97", "consumeTypes": null, "cookTypes": null, "orderNum": 1000, "card4no": null, "card4noAcc": null, "district2": 418, "searchScope": null, "status": 1, "address": "\u5373\u58a8\u8def168\u53f7", "name": "\u597d\u5fb7 \u5373\u58a8\u5e97", "id": 157668, "pageNo": 0, "pageCount": null, "pageSize": 10, "ids": null, "endTime": null, "startTime": null}], "pageLimit": 2500, "size": 10}