{"pageCount": 1095, "count": 10942, "pageNo": 269, "subShopInfo": {"cardNumFive": "", "isSupportYj": "", "cityName": null, "districtName": null, "shopinfo": {"mid": null, "good_flag": null, "new_flag": null, "short_name": null, "short_name_pinyin": null, "status": null, "address": "", "name": "", "id": null}, "mid": null, "shopId": null, "netid": null, "province": 901, "district": null, "zipcode": null, "telephone": null, "posDate": null, "destineTel": null, "togoTel": null, "trafficWay": null, "signBuilding": null, "businessArea": null, "selfRoom": null, "businessTime": null, "stall": null, "consume": null, "serviceFei": null, "favourable": null, "shopMemo": "1", "appraise": null, "website": null, "memo": null, "payTypes": "", "shopTypes": "", "consumeTypes": null, "cookTypes": null, "orderNum": null, "card4no": null, "card4noAcc": null, "district2": null, "searchScope": null, "status": null, "address": "", "name": null, "id": null, "pageNo": 268, "pageCount": null, "pageSize": 10, "ids": null, "endTime": null, "startTime": null}, "list": [{"cardNumFive": null, "isSupportYj": null, "cityName": null, "districtName": null, "shopinfo": {"mid": "888002154119987", "good_flag": null, "new_flag": "2", "short_name": "\u597d\u5fb7", "short_name_pinyin": "haode", "status": null, "address": null, "name": null, "id": "37205"}, "mid": "888002154119987", "shopId": "37205", "netid": null, "province": 901, "district": 601, "zipcode": null, "telephone": "64072621", "posDate": null, "destineTel": null, "togoTel": null, "trafficWay": null, "signBuilding": null, "businessArea": null, "selfRoom": null, "businessTime": null, "stall": null, "consume": null, "serviceFei": null, "favourable": null, "shopMemo": null, "appraise": null, "website": null, "memo": null, "payTypes": "\u6749\u5fb7\u5361", "shopTypes": "\u4fbf\u5229\u5e97", "consumeTypes": null, "cookTypes": null, "orderNum": 1000, "card4no": null, "card4noAcc": null, "district2": 403, "searchScope": null, "status": 1, "address": "\u51ef\u65cb\u8def1798\u53f7", "name": "\u597d\u5fb7 \u51ef\u65cb\u5e97", "id": 157875, "pageNo": 0, "pageCount": null, "pageSize": 10, "ids": null, "endTime": null, "startTime": null}, {"cardNumFive": null, "isSupportYj": null, "cityName": null, "districtName": null, "shopinfo": {"mid": "888002154119987", "good_flag": null, "new_flag": "2", "short_name": "\u597d\u5fb7", "short_name_pinyin": "haode", "status": null, "address": null, "name": null, "id": "37205"}, "mid": "888002154119987", "shopId": "37205", "netid": null, "province": 901, "district": 601, "zipcode": null, "telephone": "64765794", "posDate": null, "destineTel": null, "togoTel": null, "trafficWay": null, "signBuilding": null, "businessArea": null, "selfRoom": null, "businessTime": null, "stall": null, "consume": null, "serviceFei": null, "favourable": null, "shopMemo": null, "appraise": null, "website": null, "memo": null, "payTypes": "\u6749\u5fb7\u5361", "shopTypes": "\u4fbf\u5229\u5e97", "consumeTypes": null, "cookTypes": null, "orderNum": 1000, "card4no": null, "card4noAcc": null, "district2": 403, "searchScope": null, "status": 1, "address": "\u51cc\u4e91\u8def365\u53f7101\u5ba4", "name": "\u597d\u5fb7 \u51cc\u4e91\u5e97", "id": 157877, "pageNo": 0, "pageCount": null, "pageSize": 10, "ids": null, "endTime": null, "startTime": null}, {"cardNumFive": null, "isSupportYj": null, "cityName": null, "districtName": null, "shopinfo": {"mid": "888002154119987", "good_flag": null, "new_flag": "2", "short_name": "\u597d\u5fb7", "short_name_pinyin": "haode", "status": null, "address": null, "name": null, "id": "37205"}, "mid": "888002154119987", "shopId": "37205", "netid": null, "province": 901, "district": 601, "zipcode": null, "telephone": "64037531", "posDate": null, "destineTel": null, "togoTel": null, "trafficWay": null, "signBuilding": null, "businessArea": null, "selfRoom": null, "businessTime": null, "stall": null, "consume": null, "serviceFei": null, "favourable": null, "shopMemo": null, "appraise": null, "website": null, "memo": null, "payTypes": "\u6749\u5fb7\u5361", "shopTypes": "\u4fbf\u5229\u5e97", "consumeTypes": null, "cookTypes": null, "orderNum": 1000, "card4no": null, "card4noAcc": null, "district2": 403, "searchScope": null, "status": 1, "address": "\u96f6\u9675\u8def354\u53f7", "name": "\u597d\u5fb7 \u96f6\u9675\u5e97", "id": 157879, "pageNo": 0, "pageCount": null, "pageSize": 10, "ids": null, "endTime": null, "startTime": null}, {"cardNumFive": null, "isSupportYj": null, "cityName": null, "districtName": null, "shopinfo": {"mid": "888002154119987", "good_flag": null, "new_flag": "2", "short_name": "\u597d\u5fb7", "short_name_pinyin": "haode", "status": null, "address": null, "name": null, "id": "37205"}, "mid": "888002154119987", "shopId": "37205", "netid": null, "province": 901, "district": 601, "zipcode": null, "telephone": "64861426", "posDate": null, "destineTel": null, "togoTel": null, "trafficWay": null, "signBuilding": null, "businessArea": null, "selfRoom": null, "businessTime": null, "stall": null, "consume": null, "serviceFei": null, "favourable": null, "shopMemo": null, "appraise": null, "website": null, "memo": null, "payTypes": "\u6749\u5fb7\u5361", "shopTypes": "\u4fbf\u5229\u5e97", "consumeTypes": null, "cookTypes": null, "orderNum": 1000, "card4no": null, "card4noAcc": null, "district2": 403, "searchScope": null, "status": 1, "address": "\u96f6\u9675\u8def598\u53f7", "name": "\u597d\u5fb7 \u96f6\u82d1\u5e97", "id": 157880, "pageNo": 0, "pageCount": null, "pageSize": 10, "ids": null, "endTime": null, "startTime": null}, {"cardNumFive": null, "isSupportYj": null, "cityName": null, "districtName": null, "shopinfo": {"mid": "888002154119987", "good_flag": null, "new_flag": "2", "short_name": "\u597d\u5fb7", "short_name_pinyin": "haode", "status": null, "address": null, "name": null, "id": "37205"}, "mid": "888002154119987", "shopId": "37205", "netid": null, "province": 901, "district": 601, "zipcode": null, "telephone": "64836127", "posDate": null, "destineTel": null, "togoTel": null, "trafficWay": null, "signBuilding": null, "businessArea": null, "selfRoom": null, "businessTime": null, "stall": null, "consume": null, "serviceFei": null, "favourable": null, "shopMemo": null, "appraise": null, "website": null, "memo": null, "payTypes": "\u6749\u5fb7\u5361", "shopTypes": "\u4fbf\u5229\u5e97", "consumeTypes": null, "cookTypes": null, "orderNum": 1000, "card4no": null, "card4noAcc": null, "district2": 403, "searchScope": null, "status": 1, "address": "\u9f99\u6f15\u8def219-7\u53f7", "name": "\u597d\u5fb7 \u5434\u6f15\u5e97", "id": 157881, "pageNo": 0, "pageCount": null, "pageSize": 10, "ids": null, "endTime": null, "startTime": null}, {"cardNumFive": null, "isSupportYj": null, "cityName": null, "districtName": null, "shopinfo": {"mid": "888002154119987", "good_flag": null, "new_flag": "2", "short_name": "\u597d\u5fb7", "short_name_pinyin": "haode", "status": null, "address": null, "name": null, "id": "37205"}, "mid": "888002154119987", "shopId": "37205", "netid": null, "province": 901, "district": 601, "zipcode": null, "telephone": "64361377", "posDate": null, "destineTel": null, "togoTel": null, "trafficWay": null, "signBuilding": null, "businessArea": null, "selfRoom": null, "businessTime": null, "stall": null, "consume": null, "serviceFei": null, "favourable": null, "shopMemo": null, "appraise": null, "website": null, "memo": null, "payTypes": "\u6749\u5fb7\u5361", "shopTypes": "\u4fbf\u5229\u5e97", "consumeTypes": null, "cookTypes": null, "orderNum": 1000, "card4no": null, "card4noAcc": null, "district2": 403, "searchScope": null, "status": 1, "address": "\u9f99\u6f15\u8def36\u53f7", "name": "\u597d\u5fb7 \u9f99\u6f15\u5e97", "id": 157882, "pageNo": 0, "pageCount": null, "pageSize": 10, "ids": null, "endTime": null, "startTime": null}, {"cardNumFive": null, "isSupportYj": null, "cityName": null, "districtName": null, "shopinfo": {"mid": "888002154119987", "good_flag": null, "new_flag": "2", "short_name": "\u597d\u5fb7", "short_name_pinyin": "haode", "status": null, "address": null, "name": null, "id": "37205"}, "mid": "888002154119987", "shopId": "37205", "netid": null, "province": 901, "district": 601, "zipcode": null, "telephone": "54353486", "posDate": null, "destineTel": null, "togoTel": null, "trafficWay": null, "signBuilding": null, "businessArea": null, "selfRoom": null, "businessTime": null, "stall": null, "consume": null, "serviceFei": null, "favourable": null, "shopMemo": null, "appraise": null, "website": null, "memo": null, "payTypes": "\u6749\u5fb7\u5361", "shopTypes": "\u4fbf\u5229\u5e97", "consumeTypes": null, "cookTypes": null, "orderNum": 1000, "card4no": null, "card4noAcc": null, "district2": 403, "searchScope": null, "status": 1, "address": "\u9f99\u5ddd\u5317\u8def681\u5f042\u53f7", "name": "\u597d\u5fb7 \u5ddd\u5317\u5e97", "id": 157883, "pageNo": 0, "pageCount": null, "pageSize": 10, "ids": null, "endTime": null, "startTime": null}, {"cardNumFive": null, "isSupportYj": null, "cityName": null, "districtName": null, "shopinfo": {"mid": "888002154119987", "good_flag": null, "new_flag": "2", "short_name": "\u597d\u5fb7", "short_name_pinyin": "haode", "status": null, "address": null, "name": null, "id": "37205"}, "mid": "888002154119987", "shopId": "37205", "netid": null, "province": 901, "district": 601, "zipcode": null, "telephone": "64568425", "posDate": null, "destineTel": null, "togoTel": null, "trafficWay": null, "signBuilding": null, "businessArea": null, "selfRoom": null, "businessTime": null, "stall": null, "consume": null, "serviceFei": null, "favourable": null, "shopMemo": null, "appraise": null, "website": null, "memo": null, "payTypes": "\u6749\u5fb7\u5361", "shopTypes": "\u4fbf\u5229\u5e97", "consumeTypes": null, "cookTypes": null, "orderNum": 1000, "card4no": null, "card4noAcc": null, "district2": 403, "searchScope": null, "status": 1, "address": "\u9f99\u534e\u8def3212\u53f7", "name": "\u597d\u5fb7 \u9f99\u5146\u5e97", "id": 157884, "pageNo": 0, "pageCount": null, "pageSize": 10, "ids": null, "endTime": null, "startTime": null}, {"cardNumFive": null, "isSupportYj": null, "cityName": null, "districtName": null, "shopinfo": {"mid": "888002154119987", "good_flag": null, "new_flag": "2", "short_name": "\u597d\u5fb7", "short_name_pinyin": "haode", "status": null, "address": null, "name": null, "id": "37205"}, "mid": "888002154119987", "shopId": "37205", "netid": null, "province": 901, "district": 601, "zipcode": null, "telephone": "54298453", "posDate": null, "destineTel": null, "togoTel": null, "trafficWay": null, "signBuilding": null, "businessArea": null, "selfRoom": null, "businessTime": null, "stall": null, "consume": null, "serviceFei": null, "favourable": null, "shopMemo": null, "appraise": null, "website": null, "memo": null, "payTypes": "\u6749\u5fb7\u5361", "shopTypes": "\u4fbf\u5229\u5e97", "consumeTypes": null, "cookTypes": null, "orderNum": 1000, "card4no": null, "card4noAcc": null, "district2": 403, "searchScope": null, "status": 1, "address": "\u9f99\u5dde\u8def445\u53f7", "name": "\u597d\u5fb7 \u9f99\u5dde\u5e97", "id": 157885, "pageNo": 0, "pageCount": null, "pageSize": 10, "ids": null, "endTime": null, "startTime": null}, {"cardNumFive": null, "isSupportYj": null, "cityName": null, "districtName": null, "shopinfo": {"mid": "888002154119987", "good_flag": null, "new_flag": "2", "short_name": "\u597d\u5fb7", "short_name_pinyin": "haode", "status": null, "address": null, "name": null, "id": "37205"}, "mid": "888002154119987", "shopId": "37205", "netid": null, "province": 901, "district": 601, "zipcode": null, "telephone": "54283000", "posDate": null, "destineTel": null, "togoTel": null, "trafficWay": null, "signBuilding": null, "businessArea": null, "selfRoom": null, "businessTime": null, "stall": null, "consume": null, "serviceFei": null, "favourable": null, "shopMemo": null, "appraise": null, "website": null, "memo": null, "payTypes": "\u6749\u5fb7\u5361", "shopTypes": "\u4fbf\u5229\u5e97", "consumeTypes": null, "cookTypes": null, "orderNum": 1000, "card4no": null, "card4noAcc": null, "district2": 403, "searchScope": null, "status": 1, "address": "\u7f57\u9999\u8def23\u53f7", "name": "\u597d\u5fb7 \u7f57\u9999\u5e97", "id": 157886, "pageNo": 0, "pageCount": null, "pageSize": 10, "ids": null, "endTime": null, "startTime": null}], "pageLimit": 2680, "size": 10}