{"pageCount": 1095, "count": 10942, "pageNo": 287, "subShopInfo": {"cardNumFive": "", "isSupportYj": "", "cityName": null, "districtName": null, "shopinfo": {"mid": null, "good_flag": null, "new_flag": null, "short_name": null, "short_name_pinyin": null, "status": null, "address": "", "name": "", "id": null}, "mid": null, "shopId": null, "netid": null, "province": 901, "district": null, "zipcode": null, "telephone": null, "posDate": null, "destineTel": null, "togoTel": null, "trafficWay": null, "signBuilding": null, "businessArea": null, "selfRoom": null, "businessTime": null, "stall": null, "consume": null, "serviceFei": null, "favourable": null, "shopMemo": "1", "appraise": null, "website": null, "memo": null, "payTypes": "", "shopTypes": "", "consumeTypes": null, "cookTypes": null, "orderNum": null, "card4no": null, "card4noAcc": null, "district2": null, "searchScope": null, "status": null, "address": "", "name": null, "id": null, "pageNo": 286, "pageCount": null, "pageSize": 10, "ids": null, "endTime": null, "startTime": null}, "list": [{"cardNumFive": null, "isSupportYj": null, "cityName": null, "districtName": null, "shopinfo": {"mid": "888002154119987", "good_flag": null, "new_flag": "2", "short_name": "\u597d\u5fb7", "short_name_pinyin": "haode", "status": null, "address": null, "name": null, "id": "37205"}, "mid": "888002154119987", "shopId": "37205", "netid": null, "province": 901, "district": 601, "zipcode": null, "telephone": null, "posDate": null, "destineTel": null, "togoTel": null, "trafficWay": null, "signBuilding": null, "businessArea": null, "selfRoom": null, "businessTime": null, "stall": null, "consume": null, "serviceFei": null, "favourable": null, "shopMemo": null, "appraise": null, "website": null, "memo": null, "payTypes": "\u6749\u5fb7\u5361", "shopTypes": "\u4fbf\u5229\u5e97", "consumeTypes": null, "cookTypes": null, "orderNum": 1000, "card4no": null, "card4noAcc": null, "district2": 403, "searchScope": null, "status": 1, "address": "\u67f3\u5dde\u8def928\u53f7101\u5ba4", "name": "\u597d\u5fb7 \u767e\u4e3d\u5e97", "id": 170620, "pageNo": 0, "pageCount": null, "pageSize": 10, "ids": null, "endTime": null, "startTime": null}, {"cardNumFive": null, "isSupportYj": null, "cityName": null, "districtName": null, "shopinfo": {"mid": "888002154119987", "good_flag": null, "new_flag": "2", "short_name": "\u597d\u5fb7", "short_name_pinyin": "haode", "status": null, "address": null, "name": null, "id": "37205"}, "mid": "888002154119987", "shopId": "37205", "netid": null, "province": 901, "district": 601, "zipcode": null, "telephone": "36513379", "posDate": null, "destineTel": null, "togoTel": null, "trafficWay": null, "signBuilding": null, "businessArea": null, "selfRoom": null, "businessTime": null, "stall": null, "consume": null, "serviceFei": null, "favourable": null, "shopMemo": null, "appraise": null, "website": null, "memo": null, "payTypes": "\u6749\u5fb7\u5361", "shopTypes": "\u4fbf\u5229\u5e97", "consumeTypes": null, "cookTypes": null, "orderNum": 1000, "card4no": null, "card4noAcc": null, "district2": 416, "searchScope": null, "status": 1, "address": "\u7261\u4e39\u6c5f\u8def1211\u53f7", "name": "\u597d\u5fb7 \u5b89\u4fe1\u5e97", "id": 170621, "pageNo": 0, "pageCount": null, "pageSize": 10, "ids": null, "endTime": null, "startTime": null}, {"cardNumFive": null, "isSupportYj": null, "cityName": null, "districtName": null, "shopinfo": {"mid": "888002154119987", "good_flag": null, "new_flag": "2", "short_name": "\u597d\u5fb7", "short_name_pinyin": "haode", "status": null, "address": null, "name": null, "id": "37205"}, "mid": "888002154119987", "shopId": "37205", "netid": null, "province": 901, "district": 601, "zipcode": null, "telephone": null, "posDate": null, "destineTel": null, "togoTel": null, "trafficWay": null, "signBuilding": null, "businessArea": null, "selfRoom": null, "businessTime": null, "stall": null, "consume": null, "serviceFei": null, "favourable": null, "shopMemo": null, "appraise": null, "website": null, "memo": null, "payTypes": "\u6749\u5fb7\u5361", "shopTypes": "\u4fbf\u5229\u5e97", "consumeTypes": null, "cookTypes": null, "orderNum": 1000, "card4no": null, "card4noAcc": null, "district2": 407, "searchScope": null, "status": 1, "address": "\u8d64\u5cf0\u8def180\u53f7", "name": "\u597d\u5fb7 \u540c\u6d4e\u5e97", "id": 170622, "pageNo": 0, "pageCount": null, "pageSize": 10, "ids": null, "endTime": null, "startTime": null}, {"cardNumFive": null, "isSupportYj": null, "cityName": null, "districtName": null, "shopinfo": {"mid": "888002154119987", "good_flag": null, "new_flag": "2", "short_name": "\u597d\u5fb7", "short_name_pinyin": "haode", "status": null, "address": null, "name": null, "id": "37205"}, "mid": "888002154119987", "shopId": "37205", "netid": null, "province": 901, "district": 601, "zipcode": null, "telephone": null, "posDate": null, "destineTel": null, "togoTel": null, "trafficWay": null, "signBuilding": null, "businessArea": null, "selfRoom": null, "businessTime": null, "stall": null, "consume": null, "serviceFei": null, "favourable": null, "shopMemo": null, "appraise": null, "website": null, "memo": null, "payTypes": "\u6749\u5fb7\u5361", "shopTypes": "\u4fbf\u5229\u5e97", "consumeTypes": null, "cookTypes": null, "orderNum": 1000, "card4no": null, "card4noAcc": null, "district2": 408, "searchScope": null, "status": 1, "address": "\u5927\u8fde\u8def853\u53f71\u697c", "name": "\u597d\u5fb7 \u5408\u751f\u5e97", "id": 170623, "pageNo": 0, "pageCount": null, "pageSize": 10, "ids": null, "endTime": null, "startTime": null}, {"cardNumFive": null, "isSupportYj": null, "cityName": null, "districtName": null, "shopinfo": {"mid": "888002154119987", "good_flag": null, "new_flag": "2", "short_name": "\u597d\u5fb7", "short_name_pinyin": "haode", "status": null, "address": null, "name": null, "id": "37205"}, "mid": "888002154119987", "shopId": "37205", "netid": null, "province": 901, "district": 601, "zipcode": null, "telephone": null, "posDate": null, "destineTel": null, "togoTel": null, "trafficWay": null, "signBuilding": null, "businessArea": null, "selfRoom": null, "businessTime": null, "stall": null, "consume": null, "serviceFei": null, "favourable": null, "shopMemo": null, "appraise": null, "website": null, "memo": null, "payTypes": "\u6749\u5fb7\u5361", "shopTypes": "\u4fbf\u5229\u5e97", "consumeTypes": null, "cookTypes": null, "orderNum": 1000, "card4no": null, "card4noAcc": null, "district2": 405, "searchScope": null, "status": 1, "address": "\u771f\u5317\u8def958\u53f720\u5e62\u5e95\u5c42102\u5ba4", "name": "\u597d\u5fb7 \u5929\u5730\u79d1\u6280\u56ed\u5e97", "id": 193608, "pageNo": 0, "pageCount": null, "pageSize": 10, "ids": null, "endTime": null, "startTime": null}, {"cardNumFive": null, "isSupportYj": null, "cityName": null, "districtName": null, "shopinfo": {"mid": "888002154119987", "good_flag": null, "new_flag": "2", "short_name": "\u597d\u5fb7", "short_name_pinyin": "haode", "status": null, "address": null, "name": null, "id": "37205"}, "mid": "888002154119987", "shopId": "37205", "netid": null, "province": 901, "district": 601, "zipcode": null, "telephone": null, "posDate": null, "destineTel": null, "togoTel": null, "trafficWay": null, "signBuilding": null, "businessArea": null, "selfRoom": null, "businessTime": null, "stall": null, "consume": null, "serviceFei": null, "favourable": null, "shopMemo": null, "appraise": null, "website": null, "memo": null, "payTypes": "\u6749\u5fb7\u5361", "shopTypes": "\u4fbf\u5229\u5e97", "consumeTypes": null, "cookTypes": null, "orderNum": 1000, "card4no": null, "card4noAcc": null, "district2": 405, "searchScope": null, "status": 1, "address": "\u4e2d\u6f6d\u8def91\u5f049\u53f7", "name": "\u597d\u5fb7 \u4e24\u6e7e\u5e97", "id": 194514, "pageNo": 0, "pageCount": null, "pageSize": 10, "ids": null, "endTime": null, "startTime": null}, {"cardNumFive": null, "isSupportYj": null, "cityName": null, "districtName": null, "shopinfo": {"mid": "888002154119987", "good_flag": null, "new_flag": "2", "short_name": "\u597d\u5fb7", "short_name_pinyin": "haode", "status": null, "address": null, "name": null, "id": "37205"}, "mid": "888002154119987", "shopId": "37205", "netid": null, "province": 901, "district": 601, "zipcode": null, "telephone": null, "posDate": null, "destineTel": null, "togoTel": null, "trafficWay": null, "signBuilding": null, "businessArea": null, "selfRoom": null, "businessTime": null, "stall": null, "consume": null, "serviceFei": null, "favourable": null, "shopMemo": null, "appraise": null, "website": null, "memo": null, "payTypes": "\u6749\u5fb7\u5361", "shopTypes": "\u4fbf\u5229\u5e97", "consumeTypes": null, "cookTypes": null, "orderNum": 1000, "card4no": null, "card4noAcc": null, "district2": 404, "searchScope": null, "status": 1, "address": "\u4f59\u59da\u8def356\u53f7", "name": "\u597d\u5fb7 \u5ef6\u5e73\u5e97", "id": 194534, "pageNo": 0, "pageCount": null, "pageSize": 10, "ids": null, "endTime": null, "startTime": null}, {"cardNumFive": null, "isSupportYj": null, "cityName": null, "districtName": null, "shopinfo": {"mid": "888002154119987", "good_flag": null, "new_flag": "2", "short_name": "\u597d\u5fb7", "short_name_pinyin": "haode", "status": null, "address": null, "name": null, "id": "37205"}, "mid": "888002154119987", "shopId": "37205", "netid": null, "province": 901, "district": 601, "zipcode": null, "telephone": null, "posDate": null, "destineTel": null, "togoTel": null, "trafficWay": null, "signBuilding": null, "businessArea": null, "selfRoom": null, "businessTime": null, "stall": null, "consume": null, "serviceFei": null, "favourable": null, "shopMemo": null, "appraise": null, "website": null, "memo": null, "payTypes": "\u6749\u5fb7\u5361", "shopTypes": "\u4fbf\u5229\u5e97", "consumeTypes": null, "cookTypes": null, "orderNum": 1000, "card4no": null, "card4noAcc": null, "district2": 411, "searchScope": null, "status": 1, "address": "\u5b89\u4ead\u9547\u7eff\u82d1\u8def510\u53f7\u4e00\u5c42", "name": "\u597d\u5fb7 \u9ec4\u6e21\u5e97", "id": 194538, "pageNo": 0, "pageCount": null, "pageSize": 10, "ids": null, "endTime": null, "startTime": null}, {"cardNumFive": null, "isSupportYj": null, "cityName": null, "districtName": null, "shopinfo": {"mid": "888002154119987", "good_flag": null, "new_flag": "2", "short_name": "\u597d\u5fb7", "short_name_pinyin": "haode", "status": null, "address": null, "name": null, "id": "37205"}, "mid": "888002154119987", "shopId": "37205", "netid": null, "province": 901, "district": 601, "zipcode": null, "telephone": null, "posDate": null, "destineTel": null, "togoTel": null, "trafficWay": null, "signBuilding": null, "businessArea": null, "selfRoom": null, "businessTime": null, "stall": null, "consume": null, "serviceFei": null, "favourable": null, "shopMemo": null, "appraise": null, "website": null, "memo": null, "payTypes": "\u6749\u5fb7\u5361", "shopTypes": "\u4fbf\u5229\u5e97", "consumeTypes": null, "cookTypes": null, "orderNum": 1000, "card4no": null, "card4noAcc": null, "district2": 405, "searchScope": null, "status": 1, "address": "\u5ef6\u957f\u897f\u8def56\u53f7", "name": "\u597d\u5fb7 \u9a8a\u5ef6\u5e97", "id": 195283, "pageNo": 0, "pageCount": null, "pageSize": 10, "ids": null, "endTime": null, "startTime": null}, {"cardNumFive": null, "isSupportYj": null, "cityName": null, "districtName": null, "shopinfo": {"mid": "888002154119987", "good_flag": null, "new_flag": "2", "short_name": "\u597d\u5fb7", "short_name_pinyin": "haode", "status": null, "address": null, "name": null, "id": "37205"}, "mid": "888002154119987", "shopId": "37205", "netid": null, "province": 901, "district": 601, "zipcode": null, "telephone": null, "posDate": null, "destineTel": null, "togoTel": null, "trafficWay": null, "signBuilding": null, "businessArea": null, "selfRoom": null, "businessTime": null, "stall": null, "consume": null, "serviceFei": null, "favourable": null, "shopMemo": null, "appraise": null, "website": null, "memo": null, "payTypes": "\u6749\u5fb7\u5361", "shopTypes": "\u4fbf\u5229\u5e97", "consumeTypes": null, "cookTypes": null, "orderNum": 1000, "card4no": null, "card4noAcc": null, "district2": 412, "searchScope": null, "status": 1, "address": "\u6c5f\u7530\u4e1c\u8def185\u53f7", "name": "\u597d\u5fb7 \u6c5f\u7530\u4e1c\u8def\u5e97", "id": 195832, "pageNo": 0, "pageCount": null, "pageSize": 10, "ids": null, "endTime": null, "startTime": null}], "pageLimit": 2860, "size": 10}