{"pageCount": 1095, "count": 10942, "pageNo": 280, "subShopInfo": {"cardNumFive": "", "isSupportYj": "", "cityName": null, "districtName": null, "shopinfo": {"mid": null, "good_flag": null, "new_flag": null, "short_name": null, "short_name_pinyin": null, "status": null, "address": "", "name": "", "id": null}, "mid": null, "shopId": null, "netid": null, "province": 901, "district": null, "zipcode": null, "telephone": null, "posDate": null, "destineTel": null, "togoTel": null, "trafficWay": null, "signBuilding": null, "businessArea": null, "selfRoom": null, "businessTime": null, "stall": null, "consume": null, "serviceFei": null, "favourable": null, "shopMemo": "1", "appraise": null, "website": null, "memo": null, "payTypes": "", "shopTypes": "", "consumeTypes": null, "cookTypes": null, "orderNum": null, "card4no": null, "card4noAcc": null, "district2": null, "searchScope": null, "status": null, "address": "", "name": null, "id": null, "pageNo": 279, "pageCount": null, "pageSize": 10, "ids": null, "endTime": null, "startTime": null}, "list": [{"cardNumFive": null, "isSupportYj": null, "cityName": null, "districtName": null, "shopinfo": {"mid": "888002154119987", "good_flag": null, "new_flag": "2", "short_name": "\u597d\u5fb7", "short_name_pinyin": "haode", "status": null, "address": null, "name": null, "id": "37205"}, "mid": "888002154119987", "shopId": "37205", "netid": null, "province": 901, "district": 601, "zipcode": null, "telephone": "65350567", "posDate": null, "destineTel": null, "togoTel": null, "trafficWay": null, "signBuilding": null, "businessArea": null, "selfRoom": null, "businessTime": null, "stall": null, "consume": null, "serviceFei": null, "favourable": null, "shopMemo": null, "appraise": null, "website": null, "memo": null, "payTypes": "\u6749\u5fb7\u5361", "shopTypes": "\u4fbf\u5229\u5e97", "consumeTypes": null, "cookTypes": null, "orderNum": 1000, "card4no": null, "card4noAcc": null, "district2": 407, "searchScope": null, "status": 1, "address": "\u5468\u5bb6\u5634\u8def498\u53f7", "name": "\u597d\u5fb7 \u901a\u5dde\u5e97", "id": 158019, "pageNo": 0, "pageCount": null, "pageSize": 10, "ids": null, "endTime": null, "startTime": null}, {"cardNumFive": null, "isSupportYj": null, "cityName": null, "districtName": null, "shopinfo": {"mid": "888002154119987", "good_flag": null, "new_flag": "2", "short_name": "\u597d\u5fb7", "short_name_pinyin": "haode", "status": null, "address": null, "name": null, "id": "37205"}, "mid": "888002154119987", "shopId": "37205", "netid": null, "province": 901, "district": 601, "zipcode": null, "telephone": "63244722", "posDate": null, "destineTel": null, "togoTel": null, "trafficWay": null, "signBuilding": null, "businessArea": null, "selfRoom": null, "businessTime": null, "stall": null, "consume": null, "serviceFei": null, "favourable": null, "shopMemo": null, "appraise": null, "website": null, "memo": null, "payTypes": "\u6749\u5fb7\u5361", "shopTypes": "\u4fbf\u5229\u5e97", "consumeTypes": null, "cookTypes": null, "orderNum": 1000, "card4no": null, "card4noAcc": null, "district2": 410, "searchScope": null, "status": 1, "address": "\u5b9d\u5c71\u8def83\uff0d85\u53f7", "name": "\u597d\u5fb7 \u5b9d\u5c71\u5e97", "id": 158021, "pageNo": 0, "pageCount": null, "pageSize": 10, "ids": null, "endTime": null, "startTime": null}, {"cardNumFive": null, "isSupportYj": null, "cityName": null, "districtName": null, "shopinfo": {"mid": "888002154119987", "good_flag": null, "new_flag": "2", "short_name": "\u597d\u5fb7", "short_name_pinyin": "haode", "status": null, "address": null, "name": null, "id": "37205"}, "mid": "888002154119987", "shopId": "37205", "netid": null, "province": 901, "district": 601, "zipcode": null, "telephone": "56436014", "posDate": null, "destineTel": null, "togoTel": null, "trafficWay": null, "signBuilding": null, "businessArea": null, "selfRoom": null, "businessTime": null, "stall": null, "consume": null, "serviceFei": null, "favourable": null, "shopMemo": null, "appraise": null, "website": null, "memo": null, "payTypes": "\u6749\u5fb7\u5361", "shopTypes": "\u4fbf\u5229\u5e97", "consumeTypes": null, "cookTypes": null, "orderNum": 1000, "card4no": null, "card4noAcc": null, "district2": 410, "searchScope": null, "status": 1, "address": "\u4fdd\u5fb7\u8def1396\u53f7", "name": "\u597d\u5fb7 \u4fdd\u5fb7\u5e97", "id": 158022, "pageNo": 0, "pageCount": null, "pageSize": 10, "ids": null, "endTime": null, "startTime": null}, {"cardNumFive": null, "isSupportYj": null, "cityName": null, "districtName": null, "shopinfo": {"mid": "888002154119987", "good_flag": null, "new_flag": "2", "short_name": "\u597d\u5fb7", "short_name_pinyin": "haode", "status": null, "address": null, "name": null, "id": "37205"}, "mid": "888002154119987", "shopId": "37205", "netid": null, "province": 901, "district": 601, "zipcode": null, "telephone": "56370644", "posDate": null, "destineTel": null, "togoTel": null, "trafficWay": null, "signBuilding": null, "businessArea": null, "selfRoom": null, "businessTime": null, "stall": null, "consume": null, "serviceFei": null, "favourable": null, "shopMemo": null, "appraise": null, "website": null, "memo": null, "payTypes": "\u6749\u5fb7\u5361", "shopTypes": "\u4fbf\u5229\u5e97", "consumeTypes": null, "cookTypes": null, "orderNum": 1000, "card4no": null, "card4noAcc": null, "district2": 410, "searchScope": null, "status": 1, "address": "\u5927\u5b81\u8def759\u53f7", "name": "\u597d\u5fb7 \u6b4c\u6797\u5e97", "id": 158024, "pageNo": 0, "pageCount": null, "pageSize": 10, "ids": null, "endTime": null, "startTime": null}, {"cardNumFive": null, "isSupportYj": null, "cityName": null, "districtName": null, "shopinfo": {"mid": "888002154119987", "good_flag": null, "new_flag": "2", "short_name": "\u597d\u5fb7", "short_name_pinyin": "haode", "status": null, "address": null, "name": null, "id": "37205"}, "mid": "888002154119987", "shopId": "37205", "netid": null, "province": 901, "district": 601, "zipcode": null, "telephone": "33711173", "posDate": null, "destineTel": null, "togoTel": null, "trafficWay": null, "signBuilding": null, "businessArea": null, "selfRoom": null, "businessTime": null, "stall": null, "consume": null, "serviceFei": null, "favourable": null, "shopMemo": null, "appraise": null, "website": null, "memo": null, "payTypes": "\u6749\u5fb7\u5361", "shopTypes": "\u4fbf\u5229\u5e97", "consumeTypes": null, "cookTypes": null, "orderNum": 1000, "card4no": null, "card4noAcc": null, "district2": 410, "searchScope": null, "status": 1, "address": "\u5171\u5bcc\u8def381\u53f7", "name": "\u597d\u5fb7 \u5171\u5bcc\u5e97", "id": 158026, "pageNo": 0, "pageCount": null, "pageSize": 10, "ids": null, "endTime": null, "startTime": null}, {"cardNumFive": null, "isSupportYj": null, "cityName": null, "districtName": null, "shopinfo": {"mid": "888002154119987", "good_flag": null, "new_flag": "2", "short_name": "\u597d\u5fb7", "short_name_pinyin": "haode", "status": null, "address": null, "name": null, "id": "37205"}, "mid": "888002154119987", "shopId": "37205", "netid": null, "province": 901, "district": 601, "zipcode": null, "telephone": "66284983", "posDate": null, "destineTel": null, "togoTel": null, "trafficWay": null, "signBuilding": null, "businessArea": null, "selfRoom": null, "businessTime": null, "stall": null, "consume": null, "serviceFei": null, "favourable": null, "shopMemo": null, "appraise": null, "website": null, "memo": null, "payTypes": "\u6749\u5fb7\u5361", "shopTypes": "\u4fbf\u5229\u5e97", "consumeTypes": null, "cookTypes": null, "orderNum": 1000, "card4no": null, "card4noAcc": null, "district2": 410, "searchScope": null, "status": 1, "address": "\u5171\u548c\u65b0\u8def451\u53f7", "name": "\u597d\u5fb7 \u516d\u89d2\u5e97", "id": 158027, "pageNo": 0, "pageCount": null, "pageSize": 10, "ids": null, "endTime": null, "startTime": null}, {"cardNumFive": null, "isSupportYj": null, "cityName": null, "districtName": null, "shopinfo": {"mid": "888002154119987", "good_flag": null, "new_flag": "2", "short_name": "\u597d\u5fb7", "short_name_pinyin": "haode", "status": null, "address": null, "name": null, "id": "37205"}, "mid": "888002154119987", "shopId": "37205", "netid": null, "province": 901, "district": 601, "zipcode": null, "telephone": "56627590", "posDate": null, "destineTel": null, "togoTel": null, "trafficWay": null, "signBuilding": null, "businessArea": null, "selfRoom": null, "businessTime": null, "stall": null, "consume": null, "serviceFei": null, "favourable": null, "shopMemo": null, "appraise": null, "website": null, "memo": null, "payTypes": "\u6749\u5fb7\u5361", "shopTypes": "\u4fbf\u5229\u5e97", "consumeTypes": null, "cookTypes": null, "orderNum": 1000, "card4no": null, "card4noAcc": null, "district2": 410, "searchScope": null, "status": 1, "address": "\u5171\u548c\u65b0\u8def571\u53f7", "name": "\u597d\u5fb7 \u5171\u65b0\u5e97", "id": 158028, "pageNo": 0, "pageCount": null, "pageSize": 10, "ids": null, "endTime": null, "startTime": null}, {"cardNumFive": null, "isSupportYj": null, "cityName": null, "districtName": null, "shopinfo": {"mid": "888002154119987", "good_flag": null, "new_flag": "2", "short_name": "\u597d\u5fb7", "short_name_pinyin": "haode", "status": null, "address": null, "name": null, "id": "37205"}, "mid": "888002154119987", "shopId": "37205", "netid": null, "province": 901, "district": 601, "zipcode": null, "telephone": "56082742", "posDate": null, "destineTel": null, "togoTel": null, "trafficWay": null, "signBuilding": null, "businessArea": null, "selfRoom": null, "businessTime": null, "stall": null, "consume": null, "serviceFei": null, "favourable": null, "shopMemo": null, "appraise": null, "website": null, "memo": null, "payTypes": "\u6749\u5fb7\u5361", "shopTypes": "\u4fbf\u5229\u5e97", "consumeTypes": null, "cookTypes": null, "orderNum": 1000, "card4no": null, "card4noAcc": null, "district2": 410, "searchScope": null, "status": 1, "address": "\u6caa\u592a\u8def698\u53f7", "name": "\u597d\u5fb7 \u6caa\u592a\u5e97", "id": 158029, "pageNo": 0, "pageCount": null, "pageSize": 10, "ids": null, "endTime": null, "startTime": null}, {"cardNumFive": null, "isSupportYj": null, "cityName": null, "districtName": null, "shopinfo": {"mid": "888002154119987", "good_flag": null, "new_flag": "2", "short_name": "\u597d\u5fb7", "short_name_pinyin": "haode", "status": null, "address": null, "name": null, "id": "37205"}, "mid": "888002154119987", "shopId": "37205", "netid": null, "province": 901, "district": 601, "zipcode": null, "telephone": "58814159", "posDate": null, "destineTel": null, "togoTel": null, "trafficWay": null, "signBuilding": null, "businessArea": null, "selfRoom": null, "businessTime": null, "stall": null, "consume": null, "serviceFei": null, "favourable": null, "shopMemo": null, "appraise": null, "website": null, "memo": null, "payTypes": "\u6749\u5fb7\u5361", "shopTypes": "\u4fbf\u5229\u5e97", "consumeTypes": null, "cookTypes": null, "orderNum": 1000, "card4no": null, "card4noAcc": null, "district2": 410, "searchScope": null, "status": 1, "address": "\u534e\u4e30\u8def15\u53f7", "name": "\u597d\u5fb7 \u534e\u4e30\u5e97", "id": 158030, "pageNo": 0, "pageCount": null, "pageSize": 10, "ids": null, "endTime": null, "startTime": null}, {"cardNumFive": null, "isSupportYj": null, "cityName": null, "districtName": null, "shopinfo": {"mid": "888002154119987", "good_flag": null, "new_flag": "2", "short_name": "\u597d\u5fb7", "short_name_pinyin": "haode", "status": null, "address": null, "name": null, "id": "37205"}, "mid": "888002154119987", "shopId": "37205", "netid": null, "province": 901, "district": 601, "zipcode": null, "telephone": "63066533", "posDate": null, "destineTel": null, "togoTel": null, "trafficWay": null, "signBuilding": null, "businessArea": null, "selfRoom": null, "businessTime": null, "stall": null, "consume": null, "serviceFei": null, "favourable": null, "shopMemo": null, "appraise": null, "website": null, "memo": null, "payTypes": "\u6749\u5fb7\u5361", "shopTypes": "\u4fbf\u5229\u5e97", "consumeTypes": null, "cookTypes": null, "orderNum": 1000, "card4no": null, "card4noAcc": null, "district2": 410, "searchScope": null, "status": 1, "address": "\u6c5f\u897f\u5317\u8def437-441\u53f7", "name": "\u597d\u5fb7 \u6b66\u8fdb\u5e97", "id": 158031, "pageNo": 0, "pageCount": null, "pageSize": 10, "ids": null, "endTime": null, "startTime": null}], "pageLimit": 2790, "size": 10}