{"pageCount": 1095, "count": 10942, "pageNo": 294, "subShopInfo": {"cardNumFive": "", "isSupportYj": "", "cityName": null, "districtName": null, "shopinfo": {"mid": null, "good_flag": null, "new_flag": null, "short_name": null, "short_name_pinyin": null, "status": null, "address": "", "name": "", "id": null}, "mid": null, "shopId": null, "netid": null, "province": 901, "district": null, "zipcode": null, "telephone": null, "posDate": null, "destineTel": null, "togoTel": null, "trafficWay": null, "signBuilding": null, "businessArea": null, "selfRoom": null, "businessTime": null, "stall": null, "consume": null, "serviceFei": null, "favourable": null, "shopMemo": "1", "appraise": null, "website": null, "memo": null, "payTypes": "", "shopTypes": "", "consumeTypes": null, "cookTypes": null, "orderNum": null, "card4no": null, "card4noAcc": null, "district2": null, "searchScope": null, "status": null, "address": "", "name": null, "id": null, "pageNo": 293, "pageCount": null, "pageSize": 10, "ids": null, "endTime": null, "startTime": null}, "list": [{"cardNumFive": null, "isSupportYj": null, "cityName": null, "districtName": null, "shopinfo": {"mid": "888002154411166", "good_flag": null, "new_flag": null, "short_name": "\u597d\u5f97\u7750", "short_name_pinyin": "haodelai", "status": null, "address": null, "name": null, "id": "31717"}, "mid": "888002154411166", "shopId": "31717", "netid": null, "province": 901, "district": 601, "zipcode": null, "telephone": null, "posDate": "20100622", "destineTel": null, "togoTel": null, "trafficWay": null, "signBuilding": null, "businessArea": null, "selfRoom": null, "businessTime": null, "stall": null, "consume": null, "serviceFei": null, "favourable": null, "shopMemo": null, "appraise": null, "website": null, "memo": null, "payTypes": "\u6749\u5fb7\u5361", "shopTypes": "\u96f6\u552e", "consumeTypes": null, "cookTypes": null, "orderNum": 1000, "card4no": null, "card4noAcc": null, "district2": 418, "searchScope": null, "status": 1, "address": "\u5fb7\u5e73\u8def1783\u53f7\u8fd1\u7075\u5c71\u8def", "name": "\u597d\u5f97\u7750 \u9999\u5c71\u5e97", "id": 135111, "pageNo": 0, "pageCount": null, "pageSize": 10, "ids": null, "endTime": null, "startTime": null}, {"cardNumFive": null, "isSupportYj": null, "cityName": null, "districtName": null, "shopinfo": {"mid": "888002154411166", "good_flag": null, "new_flag": null, "short_name": "\u597d\u5f97\u7750", "short_name_pinyin": "haodelai", "status": null, "address": null, "name": null, "id": "31717"}, "mid": "888002154411166", "shopId": "31717", "netid": null, "province": 901, "district": 601, "zipcode": null, "telephone": null, "posDate": "20100622", "destineTel": null, "togoTel": null, "trafficWay": null, "signBuilding": null, "businessArea": null, "selfRoom": null, "businessTime": null, "stall": null, "consume": null, "serviceFei": null, "favourable": null, "shopMemo": null, "appraise": null, "website": null, "memo": null, "payTypes": "\u6749\u5fb7\u5361", "shopTypes": "\u96f6\u552e", "consumeTypes": null, "cookTypes": null, "orderNum": 1000, "card4no": null, "card4noAcc": null, "district2": 409, "searchScope": null, "status": 1, "address": "\u83b2\u82b1\u8def\u7f57\u9526\u8def939\u53f7", "name": "\u597d\u5f97\u7750 \u65b0\u9c9c\u5e02\u5e97", "id": 135113, "pageNo": 0, "pageCount": null, "pageSize": 10, "ids": null, "endTime": null, "startTime": null}, {"cardNumFive": null, "isSupportYj": null, "cityName": null, "districtName": null, "shopinfo": {"mid": "888002154411166", "good_flag": null, "new_flag": null, "short_name": "\u597d\u5f97\u7750", "short_name_pinyin": "haodelai", "status": null, "address": null, "name": null, "id": "31717"}, "mid": "888002154411166", "shopId": "31717", "netid": null, "province": 901, "district": 601, "zipcode": null, "telephone": null, "posDate": "20100622", "destineTel": null, "togoTel": null, "trafficWay": null, "signBuilding": null, "businessArea": null, "selfRoom": null, "businessTime": null, "stall": null, "consume": null, "serviceFei": null, "favourable": null, "shopMemo": null, "appraise": null, "website": null, "memo": null, "payTypes": "\u6749\u5fb7\u5361", "shopTypes": "\u96f6\u552e", "consumeTypes": null, "cookTypes": null, "orderNum": 1000, "card4no": null, "card4noAcc": null, "district2": 407, "searchScope": null, "status": 1, "address": "\u53cc\u9633\u8def49\u53f7\u8fd1\u957f\u9633\u8def", "name": "\u597d\u5f97\u7750 \u5f15\u7fd4\u6e2f\u5e97", "id": 135114, "pageNo": 0, "pageCount": null, "pageSize": 10, "ids": null, "endTime": null, "startTime": null}, {"cardNumFive": null, "isSupportYj": null, "cityName": null, "districtName": null, "shopinfo": {"mid": "888002154411166", "good_flag": null, "new_flag": null, "short_name": "\u597d\u5f97\u7750", "short_name_pinyin": "haodelai", "status": null, "address": null, "name": null, "id": "36165"}, "mid": "888002154411166", "shopId": "36165", "netid": null, "province": 901, "district": 601, "zipcode": null, "telephone": null, "posDate": "20100720", "destineTel": null, "togoTel": null, "trafficWay": null, "signBuilding": null, "businessArea": null, "selfRoom": null, "businessTime": null, "stall": null, "consume": null, "serviceFei": null, "favourable": null, "shopMemo": null, "appraise": null, "website": null, "memo": null, "payTypes": "\u6749\u5fb7\u5361", "shopTypes": "\u96f6\u552e", "consumeTypes": null, "cookTypes": null, "orderNum": 1000, "card4no": null, "card4noAcc": null, "district2": 405, "searchScope": null, "status": 1, "address": "\u5927\u6e21\u6cb3\u8def1101\u53f7", "name": "\u597d\u5f97\u7750 \u66f9\u5b89\u5e97", "id": 150718, "pageNo": 0, "pageCount": null, "pageSize": 10, "ids": null, "endTime": null, "startTime": null}, {"cardNumFive": null, "isSupportYj": null, "cityName": null, "districtName": null, "shopinfo": {"mid": "888002154411166", "good_flag": null, "new_flag": null, "short_name": "\u597d\u5f97\u7750", "short_name_pinyin": "haodelai", "status": null, "address": null, "name": null, "id": "31717"}, "mid": "888002154411166", "shopId": "31717", "netid": null, "province": 901, "district": 601, "zipcode": null, "telephone": null, "posDate": null, "destineTel": null, "togoTel": null, "trafficWay": null, "signBuilding": null, "businessArea": null, "selfRoom": null, "businessTime": null, "stall": null, "consume": null, "serviceFei": null, "favourable": null, "shopMemo": null, "appraise": null, "website": null, "memo": null, "payTypes": "\u6749\u5fb7\u5361", "shopTypes": "\u96f6\u552e", "consumeTypes": null, "cookTypes": null, "orderNum": 1000, "card4no": null, "card4noAcc": null, "district2": 418, "searchScope": null, "status": 1, "address": "\u5999\u5883\u8def365\u53f7", "name": "\u597d\u5f97\u7750 \u5999\u5883\u5e97", "id": 169244, "pageNo": 0, "pageCount": null, "pageSize": 10, "ids": null, "endTime": null, "startTime": null}, {"cardNumFive": null, "isSupportYj": null, "cityName": null, "districtName": null, "shopinfo": {"mid": "888002154411166", "good_flag": null, "new_flag": null, "short_name": "\u597d\u5f97\u7750", "short_name_pinyin": "haodelai", "status": null, "address": null, "name": null, "id": "31717"}, "mid": "888002154411166", "shopId": "31717", "netid": null, "province": 901, "district": 601, "zipcode": null, "telephone": null, "posDate": null, "destineTel": null, "togoTel": null, "trafficWay": null, "signBuilding": null, "businessArea": null, "selfRoom": null, "businessTime": null, "stall": null, "consume": null, "serviceFei": null, "favourable": null, "shopMemo": null, "appraise": null, "website": null, "memo": null, "payTypes": "\u6749\u5fb7\u5361", "shopTypes": "\u96f6\u552e", "consumeTypes": null, "cookTypes": null, "orderNum": 1000, "card4no": null, "card4noAcc": null, "district2": 407, "searchScope": null, "status": 1, "address": "\u6cb3\u95f4\u8def\u6cb3\u95f4\u5e02\u573a8\u53f7\u644a\u4f4d", "name": "\u597d\u5f97\u7750 \u6cb3\u95f4\u5e97", "id": 169245, "pageNo": 0, "pageCount": null, "pageSize": 10, "ids": null, "endTime": null, "startTime": null}, {"cardNumFive": null, "isSupportYj": null, "cityName": null, "districtName": null, "shopinfo": {"mid": "888002154411166", "good_flag": null, "new_flag": null, "short_name": "\u597d\u5f97\u7750", "short_name_pinyin": "haodelai", "status": null, "address": null, "name": null, "id": "31717"}, "mid": "888002154411166", "shopId": "31717", "netid": null, "province": 901, "district": 601, "zipcode": null, "telephone": null, "posDate": null, "destineTel": null, "togoTel": null, "trafficWay": null, "signBuilding": null, "businessArea": null, "selfRoom": null, "businessTime": null, "stall": null, "consume": null, "serviceFei": null, "favourable": null, "shopMemo": null, "appraise": null, "website": null, "memo": null, "payTypes": "\u6749\u5fb7\u5361", "shopTypes": "\u96f6\u552e", "consumeTypes": null, "cookTypes": null, "orderNum": 1000, "card4no": null, "card4noAcc": null, "district2": 405, "searchScope": null, "status": 1, "address": "\u5170\u7530\u8def\u5170\u7530\u5e02\u573a5\u53f7\u644a\u4f4d", "name": "\u597d\u5f97\u7750 \u5170\u7530\u5e97", "id": 169247, "pageNo": 0, "pageCount": null, "pageSize": 10, "ids": null, "endTime": null, "startTime": null}, {"cardNumFive": null, "isSupportYj": null, "cityName": null, "districtName": null, "shopinfo": {"mid": "888002154411166", "good_flag": null, "new_flag": null, "short_name": "\u597d\u5f97\u7750", "short_name_pinyin": "haodelai", "status": null, "address": null, "name": null, "id": "31717"}, "mid": "888002154411166", "shopId": "31717", "netid": null, "province": 901, "district": 601, "zipcode": null, "telephone": null, "posDate": null, "destineTel": null, "togoTel": null, "trafficWay": null, "signBuilding": null, "businessArea": null, "selfRoom": null, "businessTime": null, "stall": null, "consume": null, "serviceFei": null, "favourable": null, "shopMemo": null, "appraise": null, "website": null, "memo": null, "payTypes": "\u6749\u5fb7\u5361", "shopTypes": "\u96f6\u552e", "consumeTypes": null, "cookTypes": null, "orderNum": 1000, "card4no": null, "card4noAcc": null, "district2": 407, "searchScope": null, "status": 1, "address": "\u5185\u6c5f\u8def\u5185\u6c5f\u5e02\u573a10\u53f7\u644a\u4f4d", "name": "\u597d\u5f97\u7750 \u5185\u6c5f\u5e97", "id": 169248, "pageNo": 0, "pageCount": null, "pageSize": 10, "ids": null, "endTime": null, "startTime": null}, {"cardNumFive": null, "isSupportYj": null, "cityName": null, "districtName": null, "shopinfo": {"mid": "888002154411166", "good_flag": null, "new_flag": null, "short_name": "\u597d\u5f97\u7750", "short_name_pinyin": "haodelai", "status": null, "address": null, "name": null, "id": "31717"}, "mid": "888002154411166", "shopId": "31717", "netid": null, "province": 901, "district": 601, "zipcode": null, "telephone": null, "posDate": null, "destineTel": null, "togoTel": null, "trafficWay": null, "signBuilding": null, "businessArea": null, "selfRoom": null, "businessTime": null, "stall": null, "consume": null, "serviceFei": null, "favourable": null, "shopMemo": null, "appraise": null, "website": null, "memo": null, "payTypes": "\u6749\u5fb7\u5361", "shopTypes": "\u96f6\u552e", "consumeTypes": null, "cookTypes": null, "orderNum": 1000, "card4no": null, "card4noAcc": null, "district2": 414, "searchScope": null, "status": 1, "address": "\u5e73\u5357\u8def720\u53f7\u5e73\u5357\u5e02\u573a4\u53f7\u644a\u4f4d", "name": "\u597d\u5f97\u7750 \u5e73\u5357\u5e97", "id": 169249, "pageNo": 0, "pageCount": null, "pageSize": 10, "ids": null, "endTime": null, "startTime": null}, {"cardNumFive": null, "isSupportYj": null, "cityName": null, "districtName": null, "shopinfo": {"mid": "888002154411166", "good_flag": null, "new_flag": null, "short_name": "\u597d\u5f97\u7750", "short_name_pinyin": "haodelai", "status": null, "address": null, "name": null, "id": "31717"}, "mid": "888002154411166", "shopId": "31717", "netid": null, "province": 901, "district": 601, "zipcode": null, "telephone": null, "posDate": null, "destineTel": null, "togoTel": null, "trafficWay": null, "signBuilding": null, "businessArea": null, "selfRoom": null, "businessTime": null, "stall": null, "consume": null, "serviceFei": null, "favourable": null, "shopMemo": null, "appraise": null, "website": null, "memo": null, "payTypes": "\u6749\u5fb7\u5361", "shopTypes": "\u96f6\u552e", "consumeTypes": null, "cookTypes": null, "orderNum": 1000, "card4no": null, "card4noAcc": null, "district2": 410, "searchScope": null, "status": 1, "address": "\u4e09\u6cc9\u8def1451\u53f7\u91ce\u6865\u5e02\u573a1009\u53f7\u644a\u4f4d", "name": "\u597d\u5f97\u7750 \u91ce\u6865\u5e97", "id": 169250, "pageNo": 0, "pageCount": null, "pageSize": 10, "ids": null, "endTime": null, "startTime": null}], "pageLimit": 2930, "size": 10}