{"pageCount": 1095, "count": 10942, "pageNo": 298, "subShopInfo": {"cardNumFive": "", "isSupportYj": "", "cityName": null, "districtName": null, "shopinfo": {"mid": null, "good_flag": null, "new_flag": null, "short_name": null, "short_name_pinyin": null, "status": null, "address": "", "name": "", "id": null}, "mid": null, "shopId": null, "netid": null, "province": 901, "district": null, "zipcode": null, "telephone": null, "posDate": null, "destineTel": null, "togoTel": null, "trafficWay": null, "signBuilding": null, "businessArea": null, "selfRoom": null, "businessTime": null, "stall": null, "consume": null, "serviceFei": null, "favourable": null, "shopMemo": "1", "appraise": null, "website": null, "memo": null, "payTypes": "", "shopTypes": "", "consumeTypes": null, "cookTypes": null, "orderNum": null, "card4no": null, "card4noAcc": null, "district2": null, "searchScope": null, "status": null, "address": "", "name": null, "id": null, "pageNo": 297, "pageCount": null, "pageSize": 10, "ids": null, "endTime": null, "startTime": null}, "list": [{"cardNumFive": null, "isSupportYj": null, "cityName": null, "districtName": null, "shopinfo": {"mid": "888002154410023", "good_flag": null, "new_flag": "2", "short_name": "\u7ea2\u5b9d\u77f3", "short_name_pinyin": "hongbaoshi", "status": null, "address": null, "name": null, "id": "38642"}, "mid": "888002154410023", "shopId": "38642", "netid": null, "province": 901, "district": 601, "zipcode": null, "telephone": "58858497", "posDate": null, "destineTel": null, "togoTel": null, "trafficWay": null, "signBuilding": null, "businessArea": null, "selfRoom": null, "businessTime": null, "stall": null, "consume": null, "serviceFei": null, "favourable": null, "shopMemo": null, "appraise": null, "website": null, "memo": null, "payTypes": "\u6749\u5fb7\u5361", "shopTypes": "\u9762\u5305\u897f\u997c", "consumeTypes": null, "cookTypes": null, "orderNum": 1000, "card4no": null, "card4noAcc": null, "district2": 418, "searchScope": null, "status": 1, "address": "\u535a\u5c71\u8def42\u53f7", "name": "\u7ea2\u5b9d\u77f3 \u535a\u5c71\u5e97", "id": 164042, "pageNo": 0, "pageCount": null, "pageSize": 10, "ids": null, "endTime": null, "startTime": null}, {"cardNumFive": null, "isSupportYj": null, "cityName": null, "districtName": null, "shopinfo": {"mid": "888888850940052", "good_flag": null, "new_flag": null, "short_name": "\u7ea2\u5b9d\u77f3", "short_name_pinyin": "hongbaoshi", "status": null, "address": null, "name": null, "id": "38643"}, "mid": "888888850940052", "shopId": "38643", "netid": null, "province": 901, "district": 601, "zipcode": null, "telephone": "52710197", "posDate": null, "destineTel": null, "togoTel": null, "trafficWay": null, "signBuilding": null, "businessArea": null, "selfRoom": null, "businessTime": null, "stall": null, "consume": null, "serviceFei": null, "favourable": null, "shopMemo": null, "appraise": null, "website": null, "memo": null, "payTypes": "\u6749\u5fb7\u5361", "shopTypes": "\u9762\u5305\u897f\u997c", "consumeTypes": null, "cookTypes": null, "orderNum": 1000, "card4no": null, "card4noAcc": null, "district2": 405, "searchScope": null, "status": 1, "address": "\u4e2d\u5c71\u5317\u8def3015\u53f7", "name": "\u7ea2\u5b9d\u77f3 \u66f9\u6768\u5e97", "id": 164043, "pageNo": 0, "pageCount": null, "pageSize": 10, "ids": null, "endTime": null, "startTime": null}, {"cardNumFive": null, "isSupportYj": null, "cityName": null, "districtName": null, "shopinfo": {"mid": "888002154410023", "good_flag": null, "new_flag": "2", "short_name": "\u7ea2\u5b9d\u77f3", "short_name_pinyin": "hongbaoshi", "status": null, "address": null, "name": null, "id": "38642"}, "mid": "888002154410023", "shopId": "38642", "netid": null, "province": 901, "district": 601, "zipcode": null, "telephone": "50111769", "posDate": null, "destineTel": null, "togoTel": null, "trafficWay": null, "signBuilding": null, "businessArea": null, "selfRoom": null, "businessTime": null, "stall": null, "consume": null, "serviceFei": null, "favourable": null, "shopMemo": null, "appraise": null, "website": null, "memo": null, "payTypes": "\u6749\u5fb7\u5361", "shopTypes": "\u9762\u5305\u897f\u997c", "consumeTypes": null, "cookTypes": null, "orderNum": 1000, "card4no": null, "card4noAcc": null, "district2": 418, "searchScope": null, "status": 1, "address": "\u660c\u91cc\u8def347\u53f7", "name": "\u7ea2\u5b9d\u77f3 \u660c\u91cc\u8def\u5e97", "id": 164044, "pageNo": 0, "pageCount": null, "pageSize": 10, "ids": null, "endTime": null, "startTime": null}, {"cardNumFive": null, "isSupportYj": null, "cityName": null, "districtName": null, "shopinfo": {"mid": "888002154410023", "good_flag": null, "new_flag": "2", "short_name": "\u7ea2\u5b9d\u77f3", "short_name_pinyin": "hongbaoshi", "status": null, "address": null, "name": null, "id": "38642"}, "mid": "888002154410023", "shopId": "38642", "netid": null, "province": 901, "district": 601, "zipcode": null, "telephone": "35320399", "posDate": null, "destineTel": null, "togoTel": null, "trafficWay": null, "signBuilding": null, "businessArea": null, "selfRoom": null, "businessTime": null, "stall": null, "consume": null, "serviceFei": null, "favourable": null, "shopMemo": null, "appraise": null, "website": null, "memo": null, "payTypes": "\u6749\u5fb7\u5361", "shopTypes": "\u9762\u5305\u897f\u997c", "consumeTypes": null, "cookTypes": null, "orderNum": 1000, "card4no": null, "card4noAcc": null, "district2": 407, "searchScope": null, "status": 1, "address": "\u957f\u6d77\u8def268\u53f7", "name": "\u7ea2\u5b9d\u77f3 \u957f\u6d77\u5e97", "id": 164045, "pageNo": 0, "pageCount": null, "pageSize": 10, "ids": null, "endTime": null, "startTime": null}, {"cardNumFive": null, "isSupportYj": null, "cityName": null, "districtName": null, "shopinfo": {"mid": "888002154410023", "good_flag": null, "new_flag": "2", "short_name": "\u7ea2\u5b9d\u77f3", "short_name_pinyin": "hongbaoshi", "status": null, "address": null, "name": null, "id": "38642"}, "mid": "888002154410023", "shopId": "38642", "netid": null, "province": 901, "district": 601, "zipcode": null, "telephone": "35351798", "posDate": null, "destineTel": null, "togoTel": null, "trafficWay": null, "signBuilding": null, "businessArea": null, "selfRoom": null, "businessTime": null, "stall": null, "consume": null, "serviceFei": null, "favourable": null, "shopMemo": null, "appraise": null, "website": null, "memo": null, "payTypes": "\u6749\u5fb7\u5361", "shopTypes": "\u9762\u5305\u897f\u997c", "consumeTypes": null, "cookTypes": null, "orderNum": 1000, "card4no": null, "card4noAcc": null, "district2": 407, "searchScope": null, "status": 1, "address": "\u957f\u9633\u8def1687\u53f7", "name": "\u7ea2\u5b9d\u77f3 \u957f\u9633\u5e97", "id": 164046, "pageNo": 0, "pageCount": null, "pageSize": 10, "ids": null, "endTime": null, "startTime": null}, {"cardNumFive": null, "isSupportYj": null, "cityName": null, "districtName": null, "shopinfo": {"mid": "888888850940046", "good_flag": null, "new_flag": null, "short_name": "\u7ea2\u5b9d\u77f3", "short_name_pinyin": "hongbaoshi", "status": null, "address": null, "name": null, "id": "38644"}, "mid": "888888850940046", "shopId": "38644", "netid": null, "province": 901, "district": 601, "zipcode": null, "telephone": "62309657", "posDate": null, "destineTel": null, "togoTel": null, "trafficWay": null, "signBuilding": null, "businessArea": null, "selfRoom": null, "businessTime": null, "stall": null, "consume": null, "serviceFei": null, "favourable": null, "shopMemo": null, "appraise": null, "website": null, "memo": null, "payTypes": "\u6749\u5fb7\u5361", "shopTypes": "\u9762\u5305\u897f\u997c", "consumeTypes": null, "cookTypes": null, "orderNum": 1000, "card4no": null, "card4noAcc": null, "district2": 405, "searchScope": null, "status": 1, "address": "\u6b66\u5b81\u5357\u8def449\u53f7", "name": "\u7ea2\u5b9d\u77f3 \u8fbe\u5b89\u5e97", "id": 164047, "pageNo": 0, "pageCount": null, "pageSize": 10, "ids": null, "endTime": null, "startTime": null}, {"cardNumFive": null, "isSupportYj": null, "cityName": null, "districtName": null, "shopinfo": {"mid": "888888850940051", "good_flag": null, "new_flag": null, "short_name": "\u7ea2\u5b9d\u77f3", "short_name_pinyin": "hongbaoshi", "status": null, "address": null, "name": null, "id": "38645"}, "mid": "888888850940051", "shopId": "38645", "netid": null, "province": 901, "district": 601, "zipcode": null, "telephone": "53021799", "posDate": null, "destineTel": null, "togoTel": null, "trafficWay": null, "signBuilding": null, "businessArea": null, "selfRoom": null, "businessTime": null, "stall": null, "consume": null, "serviceFei": null, "favourable": null, "shopMemo": null, "appraise": null, "website": null, "memo": null, "payTypes": "\u6749\u5fb7\u5361", "shopTypes": "\u9762\u5305\u897f\u997c", "consumeTypes": null, "cookTypes": null, "orderNum": 1000, "card4no": null, "card4noAcc": null, "district2": 401, "searchScope": null, "status": 1, "address": "\u6253\u6d66\u8def333\u53f7", "name": "\u7ea2\u5b9d\u77f3 \u6253\u6d66\u8def\u5e97", "id": 164048, "pageNo": 0, "pageCount": null, "pageSize": 10, "ids": null, "endTime": null, "startTime": null}, {"cardNumFive": null, "isSupportYj": null, "cityName": null, "districtName": null, "shopinfo": {"mid": "888888850940053", "good_flag": null, "new_flag": null, "short_name": "\u7ea2\u5b9d\u77f3", "short_name_pinyin": "hongbaoshi", "status": null, "address": null, "name": null, "id": "38646"}, "mid": "888888850940053", "shopId": "38646", "netid": null, "province": 901, "district": 601, "zipcode": null, "telephone": "59190868", "posDate": null, "destineTel": null, "togoTel": null, "trafficWay": null, "signBuilding": null, "businessArea": null, "selfRoom": null, "businessTime": null, "stall": null, "consume": null, "serviceFei": null, "favourable": null, "shopMemo": null, "appraise": null, "website": null, "memo": null, "payTypes": "\u6749\u5fb7\u5361", "shopTypes": "\u9762\u5305\u897f\u997c", "consumeTypes": null, "cookTypes": null, "orderNum": 1000, "card4no": null, "card4noAcc": null, "district2": 408, "searchScope": null, "status": 1, "address": "\u4e30\u5e84\u8def375\u5f048\u53f7", "name": "\u7ea2\u5b9d\u77f3 \u4e30\u5e84\u5e97", "id": 164049, "pageNo": 0, "pageCount": null, "pageSize": 10, "ids": null, "endTime": null, "startTime": null}, {"cardNumFive": null, "isSupportYj": null, "cityName": null, "districtName": null, "shopinfo": {"mid": "888888850940047", "good_flag": null, "new_flag": null, "short_name": "\u7ea2\u5b9d\u77f3", "short_name_pinyin": "hongbaoshi", "status": null, "address": null, "name": null, "id": "38647"}, "mid": "888888850940047", "shopId": "38647", "netid": null, "province": 901, "district": 601, "zipcode": null, "telephone": "63225662", "posDate": null, "destineTel": null, "togoTel": null, "trafficWay": null, "signBuilding": null, "businessArea": null, "selfRoom": null, "businessTime": null, "stall": null, "consume": null, "serviceFei": null, "favourable": null, "shopMemo": null, "appraise": null, "website": null, "memo": null, "payTypes": "\u6749\u5fb7\u5361", "shopTypes": "\u9762\u5305\u897f\u997c", "consumeTypes": null, "cookTypes": null, "orderNum": 1000, "card4no": null, "card4noAcc": null, "district2": 401, "searchScope": null, "status": 1, "address": "\u6c49\u53e3\u8def613\u53f7", "name": "\u7ea2\u5b9d\u77f3 \u6c49\u53e3\u5e97", "id": 164050, "pageNo": 0, "pageCount": null, "pageSize": 10, "ids": null, "endTime": null, "startTime": null}, {"cardNumFive": null, "isSupportYj": null, "cityName": null, "districtName": null, "shopinfo": {"mid": "888888850940042", "good_flag": null, "new_flag": null, "short_name": "\u7ea2\u5b9d\u77f3", "short_name_pinyin": "hongbaoshi", "status": null, "address": null, "name": null, "id": "38648"}, "mid": "888888850940042", "shopId": "38648", "netid": null, "province": 901, "district": 601, "zipcode": null, "telephone": "62489212", "posDate": null, "destineTel": null, "togoTel": null, "trafficWay": null, "signBuilding": null, "businessArea": null, "selfRoom": null, "businessTime": null, "stall": null, "consume": null, "serviceFei": null, "favourable": null, "shopMemo": null, "appraise": null, "website": null, "memo": null, "payTypes": "\u6749\u5fb7\u5361", "shopTypes": "\u9762\u5305\u897f\u997c", "consumeTypes": null, "cookTypes": null, "orderNum": 1000, "card4no": null, "card4noAcc": null, "district2": 403, "searchScope": null, "status": 1, "address": "\u534e\u5c71\u8def375\u53f7", "name": "\u7ea2\u5b9d\u77f3 \u534e\u5c71\u5e97", "id": 164051, "pageNo": 0, "pageCount": null, "pageSize": 10, "ids": null, "endTime": null, "startTime": null}], "pageLimit": 2970, "size": 10}