{"pageCount": 1095, "count": 10942, "pageNo": 292, "subShopInfo": {"cardNumFive": "", "isSupportYj": "", "cityName": null, "districtName": null, "shopinfo": {"mid": null, "good_flag": null, "new_flag": null, "short_name": null, "short_name_pinyin": null, "status": null, "address": "", "name": "", "id": null}, "mid": null, "shopId": null, "netid": null, "province": 901, "district": null, "zipcode": null, "telephone": null, "posDate": null, "destineTel": null, "togoTel": null, "trafficWay": null, "signBuilding": null, "businessArea": null, "selfRoom": null, "businessTime": null, "stall": null, "consume": null, "serviceFei": null, "favourable": null, "shopMemo": "1", "appraise": null, "website": null, "memo": null, "payTypes": "", "shopTypes": "", "consumeTypes": null, "cookTypes": null, "orderNum": null, "card4no": null, "card4noAcc": null, "district2": null, "searchScope": null, "status": null, "address": "", "name": null, "id": null, "pageNo": 291, "pageCount": null, "pageSize": 10, "ids": null, "endTime": null, "startTime": null}, "list": [{"cardNumFive": null, "isSupportYj": null, "cityName": null, "districtName": null, "shopinfo": {"mid": "888002154411166", "good_flag": null, "new_flag": null, "short_name": "\u597d\u5f97\u7750", "short_name_pinyin": "haodelai", "status": null, "address": null, "name": null, "id": "31717"}, "mid": "888002154411166", "shopId": "31717", "netid": null, "province": 901, "district": 601, "zipcode": null, "telephone": null, "posDate": "20100622", "destineTel": null, "togoTel": null, "trafficWay": null, "signBuilding": null, "businessArea": null, "selfRoom": null, "businessTime": null, "stall": null, "consume": null, "serviceFei": null, "favourable": null, "shopMemo": null, "appraise": null, "website": null, "memo": null, "payTypes": "\u6749\u5fb7\u5361", "shopTypes": "\u96f6\u552e", "consumeTypes": null, "cookTypes": null, "orderNum": 1000, "card4no": null, "card4noAcc": null, "district2": 410, "searchScope": null, "status": 1, "address": "\u8001\u6caa\u592a\u8def171\u53f7\u8fd1\u5171\u548c\u65b0\u8def", "name": "\u597d\u5f97\u7750 \u5317\u76db\u5e97", "id": 135086, "pageNo": 0, "pageCount": null, "pageSize": 10, "ids": null, "endTime": null, "startTime": null}, {"cardNumFive": null, "isSupportYj": null, "cityName": null, "districtName": null, "shopinfo": {"mid": "888002154411166", "good_flag": null, "new_flag": null, "short_name": "\u597d\u5f97\u7750", "short_name_pinyin": "haodelai", "status": null, "address": null, "name": null, "id": "31717"}, "mid": "888002154411166", "shopId": "31717", "netid": null, "province": 901, "district": 601, "zipcode": null, "telephone": null, "posDate": "20100622", "destineTel": null, "togoTel": null, "trafficWay": null, "signBuilding": null, "businessArea": null, "selfRoom": null, "businessTime": null, "stall": null, "consume": null, "serviceFei": null, "favourable": null, "shopMemo": null, "appraise": null, "website": null, "memo": null, "payTypes": "\u6749\u5fb7\u5361", "shopTypes": "\u96f6\u552e", "consumeTypes": null, "cookTypes": null, "orderNum": 1000, "card4no": null, "card4noAcc": null, "district2": 405, "searchScope": null, "status": 1, "address": "\u5170\u6eaa\u8def56\u5f041\u53f7", "name": "\u597d\u5f97\u7750 \u66f9\u9633\u94c1\u8def\u5e97", "id": 135087, "pageNo": 0, "pageCount": null, "pageSize": 10, "ids": null, "endTime": null, "startTime": null}, {"cardNumFive": null, "isSupportYj": null, "cityName": null, "districtName": null, "shopinfo": {"mid": "888002154411166", "good_flag": null, "new_flag": null, "short_name": "\u597d\u5f97\u7750", "short_name_pinyin": "haodelai", "status": null, "address": null, "name": null, "id": "31717"}, "mid": "888002154411166", "shopId": "31717", "netid": null, "province": 901, "district": 601, "zipcode": null, "telephone": null, "posDate": "20100622", "destineTel": null, "togoTel": null, "trafficWay": null, "signBuilding": null, "businessArea": null, "selfRoom": null, "businessTime": null, "stall": null, "consume": null, "serviceFei": null, "favourable": null, "shopMemo": null, "appraise": null, "website": null, "memo": null, "payTypes": "\u6749\u5fb7\u5361", "shopTypes": "\u96f6\u552e", "consumeTypes": null, "cookTypes": null, "orderNum": 1000, "card4no": null, "card4noAcc": null, "district2": 416, "searchScope": null, "status": 1, "address": "\u660c\u5316\u8def440\u53f7\u6dee\u5b89\u8def\u8def\u53e3", "name": "\u597d\u5f97\u7750 \u660c\u5316\u5e97", "id": 135088, "pageNo": 0, "pageCount": null, "pageSize": 10, "ids": null, "endTime": null, "startTime": null}, {"cardNumFive": null, "isSupportYj": null, "cityName": null, "districtName": null, "shopinfo": {"mid": "888002154411166", "good_flag": null, "new_flag": null, "short_name": "\u597d\u5f97\u7750", "short_name_pinyin": "haodelai", "status": null, "address": null, "name": null, "id": "31717"}, "mid": "888002154411166", "shopId": "31717", "netid": null, "province": 901, "district": 601, "zipcode": null, "telephone": null, "posDate": "20100622", "destineTel": null, "togoTel": null, "trafficWay": null, "signBuilding": null, "businessArea": null, "selfRoom": null, "businessTime": null, "stall": null, "consume": null, "serviceFei": null, "favourable": null, "shopMemo": null, "appraise": null, "website": null, "memo": null, "payTypes": "\u6749\u5fb7\u5361", "shopTypes": "\u96f6\u552e", "consumeTypes": null, "cookTypes": null, "orderNum": 1000, "card4no": null, "card4noAcc": null, "district2": 401, "searchScope": null, "status": 1, "address": "\u5927\u6cbd\u8def527\u53f7\u8fd1\u77f3\u95e8\u4e00\u8def", "name": "\u597d\u5f97\u7750 \u5927\u6cbd\u5e97", "id": 135089, "pageNo": 0, "pageCount": null, "pageSize": 10, "ids": null, "endTime": null, "startTime": null}, {"cardNumFive": null, "isSupportYj": null, "cityName": null, "districtName": null, "shopinfo": {"mid": "888002154411166", "good_flag": null, "new_flag": null, "short_name": "\u597d\u5f97\u7750", "short_name_pinyin": "haodelai", "status": null, "address": null, "name": null, "id": "31717"}, "mid": "888002154411166", "shopId": "31717", "netid": null, "province": 901, "district": 601, "zipcode": null, "telephone": null, "posDate": "20100622", "destineTel": null, "togoTel": null, "trafficWay": null, "signBuilding": null, "businessArea": null, "selfRoom": null, "businessTime": null, "stall": null, "consume": null, "serviceFei": null, "favourable": null, "shopMemo": null, "appraise": null, "website": null, "memo": null, "payTypes": "\u6749\u5fb7\u5361", "shopTypes": "\u96f6\u552e", "consumeTypes": null, "cookTypes": null, "orderNum": 1000, "card4no": null, "card4noAcc": null, "district2": 407, "searchScope": null, "status": 1, "address": "\u6566\u5316\u8def160\u53f7\u9756\u5b87\u4e2d\u8def\u8def\u53e3", "name": "\u597d\u5f97\u7750 \u6566\u5316\u5e97", "id": 135090, "pageNo": 0, "pageCount": null, "pageSize": 10, "ids": null, "endTime": null, "startTime": null}, {"cardNumFive": null, "isSupportYj": null, "cityName": null, "districtName": null, "shopinfo": {"mid": "888002154411166", "good_flag": null, "new_flag": null, "short_name": "\u597d\u5f97\u7750", "short_name_pinyin": "haodelai", "status": null, "address": null, "name": null, "id": "31717"}, "mid": "888002154411166", "shopId": "31717", "netid": null, "province": 901, "district": 601, "zipcode": null, "telephone": null, "posDate": "20100622", "destineTel": null, "togoTel": null, "trafficWay": null, "signBuilding": null, "businessArea": null, "selfRoom": null, "businessTime": null, "stall": null, "consume": null, "serviceFei": null, "favourable": null, "shopMemo": null, "appraise": null, "website": null, "memo": null, "payTypes": "\u6749\u5fb7\u5361", "shopTypes": "\u96f6\u552e", "consumeTypes": null, "cookTypes": null, "orderNum": 1000, "card4no": null, "card4noAcc": null, "district2": 418, "searchScope": null, "status": 1, "address": "\u82b3\u534e\u8def515\u53f7\u8fd1\u7533\u6ce2\u8def", "name": "\u597d\u5f97\u7750 \u82b3\u534e\u5e97", "id": 135091, "pageNo": 0, "pageCount": null, "pageSize": 10, "ids": null, "endTime": null, "startTime": null}, {"cardNumFive": null, "isSupportYj": null, "cityName": null, "districtName": null, "shopinfo": {"mid": "888002154411166", "good_flag": null, "new_flag": null, "short_name": "\u597d\u5f97\u7750", "short_name_pinyin": "haodelai", "status": null, "address": null, "name": null, "id": "31717"}, "mid": "888002154411166", "shopId": "31717", "netid": null, "province": 901, "district": 601, "zipcode": null, "telephone": null, "posDate": "20100622", "destineTel": null, "togoTel": null, "trafficWay": null, "signBuilding": null, "businessArea": null, "selfRoom": null, "businessTime": null, "stall": null, "consume": null, "serviceFei": null, "favourable": null, "shopMemo": null, "appraise": null, "website": null, "memo": null, "payTypes": "\u6749\u5fb7\u5361", "shopTypes": "\u96f6\u552e", "consumeTypes": null, "cookTypes": null, "orderNum": 1000, "card4no": null, "card4noAcc": null, "district2": 401, "searchScope": null, "status": 1, "address": "\u5fbd\u5b81\u8def490\u53f7\u8fd1\u897f\u85cf\u5357\u8def", "name": "\u597d\u5f97\u7750 \u5fbd\u5b81\u5e97", "id": 135095, "pageNo": 0, "pageCount": null, "pageSize": 10, "ids": null, "endTime": null, "startTime": null}, {"cardNumFive": null, "isSupportYj": null, "cityName": null, "districtName": null, "shopinfo": {"mid": "888002154411166", "good_flag": null, "new_flag": null, "short_name": "\u597d\u5f97\u7750", "short_name_pinyin": "haodelai", "status": null, "address": null, "name": null, "id": "31717"}, "mid": "888002154411166", "shopId": "31717", "netid": null, "province": 901, "district": 601, "zipcode": null, "telephone": null, "posDate": "20100622", "destineTel": null, "togoTel": null, "trafficWay": null, "signBuilding": null, "businessArea": null, "selfRoom": null, "businessTime": null, "stall": null, "consume": null, "serviceFei": null, "favourable": null, "shopMemo": null, "appraise": null, "website": null, "memo": null, "payTypes": "\u6749\u5fb7\u5361", "shopTypes": "\u96f6\u552e", "consumeTypes": null, "cookTypes": null, "orderNum": 1000, "card4no": null, "card4noAcc": null, "district2": 403, "searchScope": null, "status": 1, "address": "\u4e50\u5c71\u8def155\u53f7\u79c0\u5c71\u8def\u8def\u53e3", "name": "\u597d\u5f97\u7750 \u4e50\u5c71\u5e97", "id": 135097, "pageNo": 0, "pageCount": null, "pageSize": 10, "ids": null, "endTime": null, "startTime": null}, {"cardNumFive": null, "isSupportYj": null, "cityName": null, "districtName": null, "shopinfo": {"mid": "888002154411166", "good_flag": null, "new_flag": null, "short_name": "\u597d\u5f97\u7750", "short_name_pinyin": "haodelai", "status": null, "address": null, "name": null, "id": "31717"}, "mid": "888002154411166", "shopId": "31717", "netid": null, "province": 901, "district": 601, "zipcode": null, "telephone": null, "posDate": "20100622", "destineTel": null, "togoTel": null, "trafficWay": null, "signBuilding": null, "businessArea": null, "selfRoom": null, "businessTime": null, "stall": null, "consume": null, "serviceFei": null, "favourable": null, "shopMemo": null, "appraise": null, "website": null, "memo": null, "payTypes": "\u6749\u5fb7\u5361", "shopTypes": "\u96f6\u552e", "consumeTypes": null, "cookTypes": null, "orderNum": 1000, "card4no": null, "card4noAcc": null, "district2": 418, "searchScope": null, "status": 1, "address": "\u7075\u5ca9\u5357\u8def251\u53f7\u8fd1\u677f\u6cc9\u8def", "name": "\u597d\u5f97\u7750 \u7075\u4e30\u5e97", "id": 135098, "pageNo": 0, "pageCount": null, "pageSize": 10, "ids": null, "endTime": null, "startTime": null}, {"cardNumFive": null, "isSupportYj": null, "cityName": null, "districtName": null, "shopinfo": {"mid": "888002154411166", "good_flag": null, "new_flag": null, "short_name": "\u597d\u5f97\u7750", "short_name_pinyin": "haodelai", "status": null, "address": null, "name": null, "id": "31717"}, "mid": "888002154411166", "shopId": "31717", "netid": null, "province": 901, "district": 601, "zipcode": null, "telephone": null, "posDate": "20100622", "destineTel": null, "togoTel": null, "trafficWay": null, "signBuilding": null, "businessArea": null, "selfRoom": null, "businessTime": null, "stall": null, "consume": null, "serviceFei": null, "favourable": null, "shopMemo": null, "appraise": null, "website": null, "memo": null, "payTypes": "\u6749\u5fb7\u5361", "shopTypes": "\u96f6\u552e", "consumeTypes": null, "cookTypes": null, "orderNum": 1000, "card4no": null, "card4noAcc": null, "district2": 418, "searchScope": null, "status": 1, "address": "\u4e09\u6797\u8def\u7075\u5ca9\u5357\u8def1133\u53f7", "name": "\u597d\u5f97\u7750 \u7075\u5146\u5e97", "id": 135099, "pageNo": 0, "pageCount": null, "pageSize": 10, "ids": null, "endTime": null, "startTime": null}], "pageLimit": 2910, "size": 10}