{"pageCount": 1095, "count": 10942, "pageNo": 293, "subShopInfo": {"cardNumFive": "", "isSupportYj": "", "cityName": null, "districtName": null, "shopinfo": {"mid": null, "good_flag": null, "new_flag": null, "short_name": null, "short_name_pinyin": null, "status": null, "address": "", "name": "", "id": null}, "mid": null, "shopId": null, "netid": null, "province": 901, "district": null, "zipcode": null, "telephone": null, "posDate": null, "destineTel": null, "togoTel": null, "trafficWay": null, "signBuilding": null, "businessArea": null, "selfRoom": null, "businessTime": null, "stall": null, "consume": null, "serviceFei": null, "favourable": null, "shopMemo": "1", "appraise": null, "website": null, "memo": null, "payTypes": "", "shopTypes": "", "consumeTypes": null, "cookTypes": null, "orderNum": null, "card4no": null, "card4noAcc": null, "district2": null, "searchScope": null, "status": null, "address": "", "name": null, "id": null, "pageNo": 292, "pageCount": null, "pageSize": 10, "ids": null, "endTime": null, "startTime": null}, "list": [{"cardNumFive": null, "isSupportYj": null, "cityName": null, "districtName": null, "shopinfo": {"mid": "888002154411166", "good_flag": null, "new_flag": null, "short_name": "\u597d\u5f97\u7750", "short_name_pinyin": "haodelai", "status": null, "address": null, "name": null, "id": "31717"}, "mid": "888002154411166", "shopId": "31717", "netid": null, "province": 901, "district": 601, "zipcode": null, "telephone": null, "posDate": "20100622", "destineTel": null, "togoTel": null, "trafficWay": null, "signBuilding": null, "businessArea": null, "selfRoom": null, "businessTime": null, "stall": null, "consume": null, "serviceFei": null, "favourable": null, "shopMemo": null, "appraise": null, "website": null, "memo": null, "payTypes": "\u6749\u5fb7\u5361", "shopTypes": "\u96f6\u552e", "consumeTypes": null, "cookTypes": null, "orderNum": 1000, "card4no": null, "card4noAcc": null, "district2": 403, "searchScope": null, "status": 1, "address": "\u9f99\u534e\u897f\u8def21\u5f0488\u53f7\u9f99\u6052\u8def\u8def\u53e3", "name": "\u597d\u5f97\u7750 \u9f99\u534e\u5e97", "id": 135100, "pageNo": 0, "pageCount": null, "pageSize": 10, "ids": null, "endTime": null, "startTime": null}, {"cardNumFive": null, "isSupportYj": null, "cityName": null, "districtName": null, "shopinfo": {"mid": "888002154411166", "good_flag": null, "new_flag": null, "short_name": "\u597d\u5f97\u7750", "short_name_pinyin": "haodelai", "status": null, "address": null, "name": null, "id": "31717"}, "mid": "888002154411166", "shopId": "31717", "netid": null, "province": 901, "district": 601, "zipcode": null, "telephone": null, "posDate": "20100622", "destineTel": null, "togoTel": null, "trafficWay": null, "signBuilding": null, "businessArea": null, "selfRoom": null, "businessTime": null, "stall": null, "consume": null, "serviceFei": null, "favourable": null, "shopMemo": null, "appraise": null, "website": null, "memo": null, "payTypes": "\u6749\u5fb7\u5361", "shopTypes": "\u96f6\u552e", "consumeTypes": null, "cookTypes": null, "orderNum": 1000, "card4no": null, "card4noAcc": null, "district2": 407, "searchScope": null, "status": 1, "address": "\u9f99\u6c5f\u8def130\u5f041\u53f7\u6dee\u5fb7\u8def\u8def\u53e3", "name": "\u597d\u5f97\u7750 \u9f99\u6c5f\u5e97", "id": 135101, "pageNo": 0, "pageCount": null, "pageSize": 10, "ids": null, "endTime": null, "startTime": null}, {"cardNumFive": null, "isSupportYj": null, "cityName": null, "districtName": null, "shopinfo": {"mid": "888002154411166", "good_flag": null, "new_flag": null, "short_name": "\u597d\u5f97\u7750", "short_name_pinyin": "haodelai", "status": null, "address": null, "name": null, "id": "31717"}, "mid": "888002154411166", "shopId": "31717", "netid": null, "province": 901, "district": 601, "zipcode": null, "telephone": null, "posDate": "20100622", "destineTel": null, "togoTel": null, "trafficWay": null, "signBuilding": null, "businessArea": null, "selfRoom": null, "businessTime": null, "stall": null, "consume": null, "serviceFei": null, "favourable": null, "shopMemo": null, "appraise": null, "website": null, "memo": null, "payTypes": "\u6749\u5fb7\u5361", "shopTypes": "\u96f6\u552e", "consumeTypes": null, "cookTypes": null, "orderNum": 1000, "card4no": null, "card4noAcc": null, "district2": 403, "searchScope": null, "status": 1, "address": "\u4e2d\u5c71\u5357\u8def\u5b9b\u5e73\u8def\u9f99\u5c71\u65b0\u675118\u53f7", "name": "\u597d\u5f97\u7750 \u9f99\u5c71\u5e97", "id": 135102, "pageNo": 0, "pageCount": null, "pageSize": 10, "ids": null, "endTime": null, "startTime": null}, {"cardNumFive": null, "isSupportYj": null, "cityName": null, "districtName": null, "shopinfo": {"mid": "888002154411166", "good_flag": null, "new_flag": null, "short_name": "\u597d\u5f97\u7750", "short_name_pinyin": "haodelai", "status": null, "address": null, "name": null, "id": "31717"}, "mid": "888002154411166", "shopId": "31717", "netid": null, "province": 901, "district": 601, "zipcode": null, "telephone": null, "posDate": "20100622", "destineTel": null, "togoTel": null, "trafficWay": null, "signBuilding": null, "businessArea": null, "selfRoom": null, "businessTime": null, "stall": null, "consume": null, "serviceFei": null, "favourable": null, "shopMemo": null, "appraise": null, "website": null, "memo": null, "payTypes": "\u6749\u5fb7\u5361", "shopTypes": "\u96f6\u552e", "consumeTypes": null, "cookTypes": null, "orderNum": 1000, "card4no": null, "card4noAcc": null, "district2": 410, "searchScope": null, "status": 1, "address": "\u6c11\u548c\u8def138\u53f7\u8fd1\u5e73\u578b\u5173\u8def", "name": "\u597d\u5f97\u7750 \u5e73\u578b\u5173\u5e97", "id": 135103, "pageNo": 0, "pageCount": null, "pageSize": 10, "ids": null, "endTime": null, "startTime": null}, {"cardNumFive": null, "isSupportYj": null, "cityName": null, "districtName": null, "shopinfo": {"mid": "888002154411166", "good_flag": null, "new_flag": null, "short_name": "\u597d\u5f97\u7750", "short_name_pinyin": "haodelai", "status": null, "address": null, "name": null, "id": "31717"}, "mid": "888002154411166", "shopId": "31717", "netid": null, "province": 901, "district": 601, "zipcode": null, "telephone": null, "posDate": "20100622", "destineTel": null, "togoTel": null, "trafficWay": null, "signBuilding": null, "businessArea": null, "selfRoom": null, "businessTime": null, "stall": null, "consume": null, "serviceFei": null, "favourable": null, "shopMemo": null, "appraise": null, "website": null, "memo": null, "payTypes": "\u6749\u5fb7\u5361", "shopTypes": "\u96f6\u552e", "consumeTypes": null, "cookTypes": null, "orderNum": 1000, "card4no": null, "card4noAcc": null, "district2": 410, "searchScope": null, "status": 1, "address": "\u5e73\u578b\u5173\u8def610\u53f7\u8fd1\u5ef6\u957f\u8def", "name": "\u597d\u5f97\u7750 \u5e73\u5ef6\u5e97", "id": 135104, "pageNo": 0, "pageCount": null, "pageSize": 10, "ids": null, "endTime": null, "startTime": null}, {"cardNumFive": null, "isSupportYj": null, "cityName": null, "districtName": null, "shopinfo": {"mid": "888002154411166", "good_flag": null, "new_flag": null, "short_name": "\u597d\u5f97\u7750", "short_name_pinyin": "haodelai", "status": null, "address": null, "name": null, "id": "31717"}, "mid": "888002154411166", "shopId": "31717", "netid": null, "province": 901, "district": 601, "zipcode": null, "telephone": null, "posDate": "20100622", "destineTel": null, "togoTel": null, "trafficWay": null, "signBuilding": null, "businessArea": null, "selfRoom": null, "businessTime": null, "stall": null, "consume": null, "serviceFei": null, "favourable": null, "shopMemo": null, "appraise": null, "website": null, "memo": null, "payTypes": "\u6749\u5fb7\u5361", "shopTypes": "\u96f6\u552e", "consumeTypes": null, "cookTypes": null, "orderNum": 1000, "card4no": null, "card4noAcc": null, "district2": 406, "searchScope": null, "status": 1, "address": "\u4e07\u822a\u6e21\u8def2548\u53f7\u957f\u5b81\u8def\u8def\u53e3", "name": "\u597d\u5f97\u7750 \u4e09\u89d2\u5730\u5e97", "id": 135106, "pageNo": 0, "pageCount": null, "pageSize": 10, "ids": null, "endTime": null, "startTime": null}, {"cardNumFive": null, "isSupportYj": null, "cityName": null, "districtName": null, "shopinfo": {"mid": "888002154411166", "good_flag": null, "new_flag": null, "short_name": "\u597d\u5f97\u7750", "short_name_pinyin": "haodelai", "status": null, "address": null, "name": null, "id": "31717"}, "mid": "888002154411166", "shopId": "31717", "netid": null, "province": 901, "district": 601, "zipcode": null, "telephone": null, "posDate": "20100622", "destineTel": null, "togoTel": null, "trafficWay": null, "signBuilding": null, "businessArea": null, "selfRoom": null, "businessTime": null, "stall": null, "consume": null, "serviceFei": null, "favourable": null, "shopMemo": null, "appraise": null, "website": null, "memo": null, "payTypes": "\u6749\u5fb7\u5361", "shopTypes": "\u96f6\u552e", "consumeTypes": null, "cookTypes": null, "orderNum": 1000, "card4no": null, "card4noAcc": null, "district2": 407, "searchScope": null, "status": 1, "address": "\u6c99\u5c97\u8def642\u53f7\u56fd\u987a\u4e1c\u8def", "name": "\u597d\u5f97\u7750 \u6c99\u5c97\u5e97", "id": 135107, "pageNo": 0, "pageCount": null, "pageSize": 10, "ids": null, "endTime": null, "startTime": null}, {"cardNumFive": null, "isSupportYj": null, "cityName": null, "districtName": null, "shopinfo": {"mid": "888002154411166", "good_flag": null, "new_flag": null, "short_name": "\u597d\u5f97\u7750", "short_name_pinyin": "haodelai", "status": null, "address": null, "name": null, "id": "31717"}, "mid": "888002154411166", "shopId": "31717", "netid": null, "province": 901, "district": 601, "zipcode": null, "telephone": null, "posDate": "20100622", "destineTel": null, "togoTel": null, "trafficWay": null, "signBuilding": null, "businessArea": null, "selfRoom": null, "businessTime": null, "stall": null, "consume": null, "serviceFei": null, "favourable": null, "shopMemo": null, "appraise": null, "website": null, "memo": null, "payTypes": "\u6749\u5fb7\u5361", "shopTypes": "\u96f6\u552e", "consumeTypes": null, "cookTypes": null, "orderNum": 1000, "card4no": null, "card4noAcc": null, "district2": 403, "searchScope": null, "status": 1, "address": "\u53cc\u5cf0\u8def300\u53f7\u4e2d\u5c71\u5357\u8def\u8def\u53e3", "name": "\u597d\u5f97\u7750 \u53cc\u5cf0\u5e97", "id": 135108, "pageNo": 0, "pageCount": null, "pageSize": 10, "ids": null, "endTime": null, "startTime": null}, {"cardNumFive": null, "isSupportYj": null, "cityName": null, "districtName": null, "shopinfo": {"mid": "888002154411166", "good_flag": null, "new_flag": null, "short_name": "\u597d\u5f97\u7750", "short_name_pinyin": "haodelai", "status": null, "address": null, "name": null, "id": "31717"}, "mid": "888002154411166", "shopId": "31717", "netid": null, "province": 901, "district": 601, "zipcode": null, "telephone": null, "posDate": "20100622", "destineTel": null, "togoTel": null, "trafficWay": null, "signBuilding": null, "businessArea": null, "selfRoom": null, "businessTime": null, "stall": null, "consume": null, "serviceFei": null, "favourable": null, "shopMemo": null, "appraise": null, "website": null, "memo": null, "payTypes": "\u6749\u5fb7\u5361", "shopTypes": "\u96f6\u552e", "consumeTypes": null, "cookTypes": null, "orderNum": 1000, "card4no": null, "card4noAcc": null, "district2": 418, "searchScope": null, "status": 1, "address": "\u8302\u5174\u8def61\u53f7\u8fd1\u5858\u6865\u65b0\u8def", "name": "\u597d\u5f97\u7750 \u5858\u6865\u5e97", "id": 135109, "pageNo": 0, "pageCount": null, "pageSize": 10, "ids": null, "endTime": null, "startTime": null}, {"cardNumFive": null, "isSupportYj": null, "cityName": null, "districtName": null, "shopinfo": {"mid": "888002154411166", "good_flag": null, "new_flag": null, "short_name": "\u597d\u5f97\u7750", "short_name_pinyin": "haodelai", "status": null, "address": null, "name": null, "id": "31717"}, "mid": "888002154411166", "shopId": "31717", "netid": null, "province": 901, "district": 601, "zipcode": null, "telephone": null, "posDate": "20100622", "destineTel": null, "togoTel": null, "trafficWay": null, "signBuilding": null, "businessArea": null, "selfRoom": null, "businessTime": null, "stall": null, "consume": null, "serviceFei": null, "favourable": null, "shopMemo": null, "appraise": null, "website": null, "memo": null, "payTypes": "\u6749\u5fb7\u5361", "shopTypes": "\u96f6\u552e", "consumeTypes": null, "cookTypes": null, "orderNum": 1000, "card4no": null, "card4noAcc": null, "district2": 405, "searchScope": null, "status": 1, "address": "\u6b66\u5b9a\u8def1142\u53f7\u5ef6\u5e73\u8def\u8def\u53e3", "name": "\u597d\u5f97\u7750 \u6b66\u5b9a\u5e97", "id": 135110, "pageNo": 0, "pageCount": null, "pageSize": 10, "ids": null, "endTime": null, "startTime": null}], "pageLimit": 2920, "size": 10}