{"pageCount": 1095, "count": 10942, "pageNo": 295, "subShopInfo": {"cardNumFive": "", "isSupportYj": "", "cityName": null, "districtName": null, "shopinfo": {"mid": null, "good_flag": null, "new_flag": null, "short_name": null, "short_name_pinyin": null, "status": null, "address": "", "name": "", "id": null}, "mid": null, "shopId": null, "netid": null, "province": 901, "district": null, "zipcode": null, "telephone": null, "posDate": null, "destineTel": null, "togoTel": null, "trafficWay": null, "signBuilding": null, "businessArea": null, "selfRoom": null, "businessTime": null, "stall": null, "consume": null, "serviceFei": null, "favourable": null, "shopMemo": "1", "appraise": null, "website": null, "memo": null, "payTypes": "", "shopTypes": "", "consumeTypes": null, "cookTypes": null, "orderNum": null, "card4no": null, "card4noAcc": null, "district2": null, "searchScope": null, "status": null, "address": "", "name": null, "id": null, "pageNo": 294, "pageCount": null, "pageSize": 10, "ids": null, "endTime": null, "startTime": null}, "list": [{"cardNumFive": null, "isSupportYj": null, "cityName": null, "districtName": null, "shopinfo": {"mid": "888002154411166", "good_flag": null, "new_flag": null, "short_name": "\u597d\u5f97\u7750", "short_name_pinyin": "haodelai", "status": null, "address": null, "name": null, "id": "31717"}, "mid": "888002154411166", "shopId": "31717", "netid": null, "province": 901, "district": 601, "zipcode": null, "telephone": null, "posDate": null, "destineTel": null, "togoTel": null, "trafficWay": null, "signBuilding": null, "businessArea": null, "selfRoom": null, "businessTime": null, "stall": null, "consume": null, "serviceFei": null, "favourable": null, "shopMemo": null, "appraise": null, "website": null, "memo": null, "payTypes": "\u6749\u5fb7\u5361", "shopTypes": "\u96f6\u552e", "consumeTypes": null, "cookTypes": null, "orderNum": 1000, "card4no": null, "card4noAcc": null, "district2": 403, "searchScope": null, "status": 1, "address": "\u5929\u94a5\u6865\u5357\u8def1071\u53f7", "name": "\u597d\u5f97\u7750 \u9ec4\u77f3\u5e97", "id": 169251, "pageNo": 0, "pageCount": null, "pageSize": 10, "ids": null, "endTime": null, "startTime": null}, {"cardNumFive": null, "isSupportYj": null, "cityName": null, "districtName": null, "shopinfo": {"mid": "888002154411166", "good_flag": null, "new_flag": null, "short_name": "\u597d\u5f97\u7750", "short_name_pinyin": "haodelai", "status": null, "address": null, "name": null, "id": "31717"}, "mid": "888002154411166", "shopId": "31717", "netid": null, "province": 901, "district": 601, "zipcode": null, "telephone": null, "posDate": null, "destineTel": null, "togoTel": null, "trafficWay": null, "signBuilding": null, "businessArea": null, "selfRoom": null, "businessTime": null, "stall": null, "consume": null, "serviceFei": null, "favourable": null, "shopMemo": null, "appraise": null, "website": null, "memo": null, "payTypes": "\u6749\u5fb7\u5361", "shopTypes": "\u96f6\u552e", "consumeTypes": null, "cookTypes": null, "orderNum": 1000, "card4no": null, "card4noAcc": null, "district2": 418, "searchScope": null, "status": 1, "address": "\u5468\u5e02\u8def\u4e1c\u5357\u5e02\u573a4\u53f7\u644a\u4f4d", "name": "\u597d\u5f97\u7750 \u5468\u5e02\u5e97", "id": 169252, "pageNo": 0, "pageCount": null, "pageSize": 10, "ids": null, "endTime": null, "startTime": null}, {"cardNumFive": null, "isSupportYj": null, "cityName": null, "districtName": null, "shopinfo": {"mid": "888002154411166", "good_flag": null, "new_flag": null, "short_name": "\u597d\u5f97\u7750", "short_name_pinyin": "haodelai", "status": null, "address": null, "name": null, "id": "31717"}, "mid": "888002154411166", "shopId": "31717", "netid": null, "province": 901, "district": 601, "zipcode": null, "telephone": null, "posDate": null, "destineTel": null, "togoTel": null, "trafficWay": null, "signBuilding": null, "businessArea": null, "selfRoom": null, "businessTime": null, "stall": null, "consume": null, "serviceFei": null, "favourable": null, "shopMemo": null, "appraise": null, "website": null, "memo": null, "payTypes": "\u6749\u5fb7\u5361", "shopTypes": "\u96f6\u552e", "consumeTypes": null, "cookTypes": null, "orderNum": 1000, "card4no": null, "card4noAcc": null, "district2": 408, "searchScope": null, "status": 1, "address": "\u6c34\u7535\u8def1314\u53f7", "name": "\u597d\u5f97\u7750 \u6c34\u7535\u5e97", "id": 169253, "pageNo": 0, "pageCount": null, "pageSize": 10, "ids": null, "endTime": null, "startTime": null}, {"cardNumFive": null, "isSupportYj": null, "cityName": null, "districtName": null, "shopinfo": {"mid": "888002154411166", "good_flag": null, "new_flag": null, "short_name": "\u597d\u5f97\u7750", "short_name_pinyin": "haodelai", "status": null, "address": null, "name": null, "id": "31717"}, "mid": "888002154411166", "shopId": "31717", "netid": null, "province": 901, "district": 601, "zipcode": null, "telephone": null, "posDate": null, "destineTel": null, "togoTel": null, "trafficWay": null, "signBuilding": null, "businessArea": null, "selfRoom": null, "businessTime": null, "stall": null, "consume": null, "serviceFei": null, "favourable": null, "shopMemo": null, "appraise": null, "website": null, "memo": null, "payTypes": "\u6749\u5fb7\u5361", "shopTypes": "\u96f6\u552e", "consumeTypes": null, "cookTypes": null, "orderNum": 1000, "card4no": null, "card4noAcc": null, "district2": 418, "searchScope": null, "status": 1, "address": "\u6d66\u4e1c\u5357\u8def1655\u53f7", "name": "\u597d\u5f97\u7750 \u738b\u5bb6\u5b85\u5e97", "id": 169254, "pageNo": 0, "pageCount": null, "pageSize": 10, "ids": null, "endTime": null, "startTime": null}, {"cardNumFive": null, "isSupportYj": null, "cityName": null, "districtName": null, "shopinfo": {"mid": "888002154411166", "good_flag": null, "new_flag": null, "short_name": "\u597d\u5f97\u7750", "short_name_pinyin": "haodelai", "status": null, "address": null, "name": null, "id": "31717"}, "mid": "888002154411166", "shopId": "31717", "netid": null, "province": 901, "district": 601, "zipcode": null, "telephone": null, "posDate": null, "destineTel": null, "togoTel": null, "trafficWay": null, "signBuilding": null, "businessArea": null, "selfRoom": null, "businessTime": null, "stall": null, "consume": null, "serviceFei": null, "favourable": null, "shopMemo": null, "appraise": null, "website": null, "memo": null, "payTypes": "\u6749\u5fb7\u5361", "shopTypes": "\u96f6\u552e", "consumeTypes": null, "cookTypes": null, "orderNum": 1000, "card4no": null, "card4noAcc": null, "district2": 407, "searchScope": null, "status": 1, "address": "\u6c38\u5409\u8def9\u53f7", "name": "\u597d\u5f97\u7750 \u4e50\u5bb6\u798f\u5e97", "id": 169255, "pageNo": 0, "pageCount": null, "pageSize": 10, "ids": null, "endTime": null, "startTime": null}, {"cardNumFive": null, "isSupportYj": null, "cityName": null, "districtName": null, "shopinfo": {"mid": "888888154119916", "good_flag": "1", "new_flag": "1", "short_name": "\u91d1\u534e\u8054\u8d85\u5e02", "short_name_pinyin": "haolaixin", "status": null, "address": null, "name": null, "id": "43902"}, "mid": "888888154119916", "shopId": "43902", "netid": null, "province": 901, "district": 601, "zipcode": null, "telephone": null, "posDate": null, "destineTel": null, "togoTel": null, "trafficWay": null, "signBuilding": null, "businessArea": null, "selfRoom": null, "businessTime": null, "stall": null, "consume": null, "serviceFei": null, "favourable": null, "shopMemo": null, "appraise": null, "website": null, "memo": null, "payTypes": null, "shopTypes": null, "consumeTypes": null, "cookTypes": null, "orderNum": 1000, "card4no": null, "card4noAcc": null, "district2": 2062, "searchScope": null, "status": 1, "address": "\u82cf\u5dde\u5de5\u4e1a\u56ed\u533a\u4e5d\u534e\u8def65\u53f7\u666f\u57ce\u90bb\u91cc\u4e2d\u5fc3B129\u5ba4", "name": "\u91d1\u534e\u8054\u8d85\u5e02", "id": 202308, "pageNo": 0, "pageCount": null, "pageSize": 10, "ids": null, "endTime": null, "startTime": null}, {"cardNumFive": null, "isSupportYj": null, "cityName": null, "districtName": null, "shopinfo": {"mid": "888002153110175", "good_flag": null, "new_flag": null, "short_name": "\u597d\u4eab\u8d2d", "short_name_pinyin": "haoxianggou", "status": null, "address": null, "name": null, "id": "39914"}, "mid": "888002153110175", "shopId": "39914", "netid": null, "province": 901, "district": 601, "zipcode": null, "telephone": null, "posDate": null, "destineTel": null, "togoTel": null, "trafficWay": null, "signBuilding": null, "businessArea": null, "selfRoom": null, "businessTime": null, "stall": null, "consume": null, "serviceFei": null, "favourable": null, "shopMemo": null, "appraise": null, "website": null, "memo": null, "payTypes": "\u6749\u5fb7\u5361", "shopTypes": "\u767e\u8d27", "consumeTypes": null, "cookTypes": null, "orderNum": 1000, "card4no": null, "card4noAcc": null, "district2": 416, "searchScope": null, "status": 1, "address": "\u5854\u6e90\u8def204\u53f7", "name": "\u597d\u4eab\u8d2d \u5854\u6e90\u8def\u5e97", "id": 172370, "pageNo": 0, "pageCount": null, "pageSize": 10, "ids": null, "endTime": null, "startTime": null}, {"cardNumFive": null, "isSupportYj": null, "cityName": null, "districtName": null, "shopinfo": {"mid": "888888853990135", "good_flag": "2", "new_flag": "2", "short_name": "\u6d69\u8f69\u5ba0\u7269\u7528\u54c1", "short_name_pinyin": "haoxuanchongwuyongpin", "status": null, "address": null, "name": null, "id": "31759"}, "mid": "888888853990135", "shopId": "31759", "netid": null, "province": 901, "district": 601, "zipcode": null, "telephone": null, "posDate": "20081009", "destineTel": null, "togoTel": null, "trafficWay": "\u516c\u4ea4581 451 \u5730\u94c1\u4e8c\u53f7\u7ebf", "signBuilding": null, "businessArea": null, "selfRoom": null, "businessTime": "10:00~20:00", "stall": null, "consume": null, "serviceFei": null, "favourable": null, "shopMemo": null, "appraise": null, "website": null, "memo": null, "payTypes": "\u6749\u5fb7\u5361", "shopTypes": "\u4e13\u5356", "consumeTypes": null, "cookTypes": null, "orderNum": 1000, "card4no": null, "card4noAcc": null, "district2": 418, "searchScope": null, "status": 1, "address": "\u9526\u7ee3\u8def1875\u53f7", "name": "\u6d69\u8f69\u5ba0\u7269\u7528\u54c1 \u9526\u7ee3\u8def\u5e97", "id": 135166, "pageNo": 0, "pageCount": null, "pageSize": 10, "ids": null, "endTime": null, "startTime": null}, {"cardNumFive": null, "isSupportYj": null, "cityName": null, "districtName": null, "shopinfo": {"mid": "888002154110638", "good_flag": null, "new_flag": null, "short_name": "\u597d\u53c8\u591a", "short_name_pinyin": "haoyouduo", "status": null, "address": null, "name": null, "id": "42367"}, "mid": "888002154110638", "shopId": "42367", "netid": null, "province": 901, "district": 601, "zipcode": null, "telephone": null, "posDate": null, "destineTel": null, "togoTel": null, "trafficWay": null, "signBuilding": null, "businessArea": null, "selfRoom": null, "businessTime": null, "stall": null, "consume": null, "serviceFei": null, "favourable": null, "shopMemo": null, "appraise": null, "website": null, "memo": null, "payTypes": "\u6749\u5fb7\u5361", "shopTypes": "\u8d85\u5e02", "consumeTypes": null, "cookTypes": null, "orderNum": 1000, "card4no": null, "card4noAcc": null, "district2": 418, "searchScope": null, "status": 1, "address": "\u4e0a\u6d77\u5e02\u6d66\u4e1c\u65b0\u533a\u9f50\u6cb3\u8def258\u53f7", "name": "\u597d\u53c8\u591a \u597d\u53c8\u591a\u4e0a\u6d77\u4e0a\u5357\u5e97(301)", "id": 188993, "pageNo": 0, "pageCount": null, "pageSize": 10, "ids": null, "endTime": null, "startTime": null}, {"cardNumFive": null, "isSupportYj": null, "cityName": null, "districtName": null, "shopinfo": {"mid": "888002154110639", "good_flag": null, "new_flag": null, "short_name": "\u597d\u53c8\u591a", "short_name_pinyin": "haoyouduo", "status": null, "address": null, "name": null, "id": "42368"}, "mid": "888002154110639", "shopId": "42368", "netid": null, "province": 901, "district": 601, "zipcode": null, "telephone": null, "posDate": null, "destineTel": null, "togoTel": null, "trafficWay": null, "signBuilding": null, "businessArea": null, "selfRoom": null, "businessTime": null, "stall": null, "consume": null, "serviceFei": null, "favourable": null, "shopMemo": null, "appraise": null, "website": null, "memo": null, "payTypes": "\u6749\u5fb7\u5361", "shopTypes": "\u8d85\u5e02", "consumeTypes": null, "cookTypes": null, "orderNum": 1000, "card4no": null, "card4noAcc": null, "district2": 403, "searchScope": null, "status": 1, "address": "\u4e0a\u6d77\u5e02\u5f90\u6c47\u533a\u6842\u6797\u8def402\u53f774\u5e62", "name": "\u597d\u53c8\u591a \u597d\u53c8\u591a\u4e0a\u6d77\u7530\u6797\u5206\u5e97(302)", "id": 188994, "pageNo": 0, "pageCount": null, "pageSize": 10, "ids": null, "endTime": null, "startTime": null}], "pageLimit": 2940, "size": 10}