{"pageCount": 1095, "count": 10942, "pageNo": 299, "subShopInfo": {"cardNumFive": "", "isSupportYj": "", "cityName": null, "districtName": null, "shopinfo": {"mid": null, "good_flag": null, "new_flag": null, "short_name": null, "short_name_pinyin": null, "status": null, "address": "", "name": "", "id": null}, "mid": null, "shopId": null, "netid": null, "province": 901, "district": null, "zipcode": null, "telephone": null, "posDate": null, "destineTel": null, "togoTel": null, "trafficWay": null, "signBuilding": null, "businessArea": null, "selfRoom": null, "businessTime": null, "stall": null, "consume": null, "serviceFei": null, "favourable": null, "shopMemo": "1", "appraise": null, "website": null, "memo": null, "payTypes": "", "shopTypes": "", "consumeTypes": null, "cookTypes": null, "orderNum": null, "card4no": null, "card4noAcc": null, "district2": null, "searchScope": null, "status": null, "address": "", "name": null, "id": null, "pageNo": 298, "pageCount": null, "pageSize": 10, "ids": null, "endTime": null, "startTime": null}, "list": [{"cardNumFive": null, "isSupportYj": null, "cityName": null, "districtName": null, "shopinfo": {"mid": "888002154410023", "good_flag": null, "new_flag": null, "short_name": "\u7ea2\u5b9d\u77f3", "short_name_pinyin": "hongbaoshi", "status": null, "address": null, "name": null, "id": "38649"}, "mid": "888002154410023", "shopId": "38649", "netid": null, "province": 901, "district": 601, "zipcode": null, "telephone": "52586966", "posDate": null, "destineTel": null, "togoTel": null, "trafficWay": null, "signBuilding": null, "businessArea": null, "selfRoom": null, "businessTime": null, "stall": null, "consume": null, "serviceFei": null, "favourable": null, "shopMemo": null, "appraise": null, "website": null, "memo": null, "payTypes": "\u6749\u5fb7\u5361", "shopTypes": "\u9762\u5305\u897f\u997c", "consumeTypes": null, "cookTypes": null, "orderNum": 1000, "card4no": null, "card4noAcc": null, "district2": 407, "searchScope": null, "status": 1, "address": "\u63a7\u6c5f\u8def1690\u53f7", "name": "\u7ea2\u5b9d\u77f3 \u63a7\u6c5f\u5e97", "id": 164052, "pageNo": 0, "pageCount": null, "pageSize": 10, "ids": null, "endTime": null, "startTime": null}, {"cardNumFive": null, "isSupportYj": null, "cityName": null, "districtName": null, "shopinfo": {"mid": "888888850940054", "good_flag": null, "new_flag": null, "short_name": "\u7ea2\u5b9d\u77f3", "short_name_pinyin": "hongbaoshi", "status": null, "address": null, "name": null, "id": "38650"}, "mid": "888888850940054", "shopId": "38650", "netid": null, "province": 901, "district": 601, "zipcode": null, "telephone": "64028893", "posDate": null, "destineTel": null, "togoTel": null, "trafficWay": null, "signBuilding": null, "businessArea": null, "selfRoom": null, "businessTime": null, "stall": null, "consume": null, "serviceFei": null, "favourable": null, "shopMemo": null, "appraise": null, "website": null, "memo": null, "payTypes": "\u6749\u5fb7\u5361", "shopTypes": "\u9762\u5305\u897f\u997c", "consumeTypes": null, "cookTypes": null, "orderNum": 1000, "card4no": null, "card4noAcc": null, "district2": 409, "searchScope": null, "status": 1, "address": "\u9ec4\u6866\u8def241\u53f7", "name": "\u7ea2\u5b9d\u77f3 \u9f99\u67cf\u5e97", "id": 164053, "pageNo": 0, "pageCount": null, "pageSize": 10, "ids": null, "endTime": null, "startTime": null}, {"cardNumFive": null, "isSupportYj": null, "cityName": null, "districtName": null, "shopinfo": {"mid": "888888850940056", "good_flag": null, "new_flag": null, "short_name": "\u7ea2\u5b9d\u77f3", "short_name_pinyin": "hongbaoshi", "status": null, "address": null, "name": null, "id": "38651"}, "mid": "888888850940056", "shopId": "38651", "netid": null, "province": 901, "district": 601, "zipcode": null, "telephone": "52659003", "posDate": null, "destineTel": null, "togoTel": null, "trafficWay": null, "signBuilding": null, "businessArea": null, "selfRoom": null, "businessTime": null, "stall": null, "consume": null, "serviceFei": null, "favourable": null, "shopMemo": null, "appraise": null, "website": null, "memo": null, "payTypes": "\u6749\u5fb7\u5361", "shopTypes": "\u9762\u5305\u897f\u997c", "consumeTypes": null, "cookTypes": null, "orderNum": 1000, "card4no": null, "card4noAcc": null, "district2": 405, "searchScope": null, "status": 1, "address": "\u6885\u5ddd\u8def866\u53f7", "name": "\u7ea2\u5b9d\u77f3 \u6885\u5ddd\u8def", "id": 164054, "pageNo": 0, "pageCount": null, "pageSize": 10, "ids": null, "endTime": null, "startTime": null}, {"cardNumFive": null, "isSupportYj": null, "cityName": null, "districtName": null, "shopinfo": {"mid": "888888850940060", "good_flag": null, "new_flag": null, "short_name": "\u7ea2\u5b9d\u77f3", "short_name_pinyin": "hongbaoshi", "status": null, "address": null, "name": null, "id": "38653"}, "mid": "888888850940060", "shopId": "38653", "netid": null, "province": 901, "district": 601, "zipcode": null, "telephone": "62894190", "posDate": null, "destineTel": null, "togoTel": null, "trafficWay": null, "signBuilding": null, "businessArea": null, "selfRoom": null, "businessTime": null, "stall": null, "consume": null, "serviceFei": null, "favourable": null, "shopMemo": null, "appraise": null, "website": null, "memo": null, "payTypes": "\u6749\u5fb7\u5361", "shopTypes": "\u9762\u5305\u897f\u997c", "consumeTypes": null, "cookTypes": null, "orderNum": 1000, "card4no": null, "card4noAcc": null, "district2": 401, "searchScope": null, "status": 1, "address": "\u84ec\u83b1\u8def426\u53f7", "name": "\u7ea2\u5b9d\u77f3 \u84ec\u83b1\u5e97", "id": 164056, "pageNo": 0, "pageCount": null, "pageSize": 10, "ids": null, "endTime": null, "startTime": null}, {"cardNumFive": null, "isSupportYj": null, "cityName": null, "districtName": null, "shopinfo": {"mid": "888002154410023", "good_flag": null, "new_flag": null, "short_name": "\u7ea2\u5b9d\u77f3", "short_name_pinyin": "hongbaoshi", "status": null, "address": null, "name": null, "id": "38649"}, "mid": "888002154410023", "shopId": "38649", "netid": null, "province": 901, "district": 601, "zipcode": null, "telephone": "50818021", "posDate": null, "destineTel": null, "togoTel": null, "trafficWay": null, "signBuilding": null, "businessArea": null, "selfRoom": null, "businessTime": null, "stall": null, "consume": null, "serviceFei": null, "favourable": null, "shopMemo": null, "appraise": null, "website": null, "memo": null, "payTypes": "\u6749\u5fb7\u5361", "shopTypes": "\u9762\u5305\u897f\u997c", "consumeTypes": null, "cookTypes": null, "orderNum": 1000, "card4no": null, "card4noAcc": null, "district2": 418, "searchScope": null, "status": 1, "address": "\u6d66\u7535\u8def217\u53f7", "name": "\u7ea2\u5b9d\u77f3 \u6d66\u7535\u5e97", "id": 164057, "pageNo": 0, "pageCount": null, "pageSize": 10, "ids": null, "endTime": null, "startTime": null}, {"cardNumFive": null, "isSupportYj": null, "cityName": null, "districtName": null, "shopinfo": {"mid": "888002154410023", "good_flag": null, "new_flag": null, "short_name": "\u7ea2\u5b9d\u77f3", "short_name_pinyin": "hongbaoshi", "status": null, "address": null, "name": null, "id": "38649"}, "mid": "888002154410023", "shopId": "38649", "netid": null, "province": 901, "district": 601, "zipcode": null, "telephone": "50908903", "posDate": null, "destineTel": null, "togoTel": null, "trafficWay": null, "signBuilding": null, "businessArea": null, "selfRoom": null, "businessTime": null, "stall": null, "consume": null, "serviceFei": null, "favourable": null, "shopMemo": null, "appraise": null, "website": null, "memo": null, "payTypes": "\u6749\u5fb7\u5361", "shopTypes": "\u9762\u5305\u897f\u997c", "consumeTypes": null, "cookTypes": null, "orderNum": 1000, "card4no": null, "card4noAcc": null, "district2": 418, "searchScope": null, "status": 1, "address": "\u6d66\u4e09\u8def233\u53f7", "name": "\u7ea2\u5b9d\u77f3 \u6d66\u4e09\u5e97", "id": 164058, "pageNo": 0, "pageCount": null, "pageSize": 10, "ids": null, "endTime": null, "startTime": null}, {"cardNumFive": null, "isSupportYj": null, "cityName": null, "districtName": null, "shopinfo": {"mid": "888002154410023", "good_flag": null, "new_flag": null, "short_name": "\u7ea2\u5b9d\u77f3", "short_name_pinyin": "hongbaoshi", "status": null, "address": null, "name": null, "id": "38649"}, "mid": "888002154410023", "shopId": "38649", "netid": null, "province": 901, "district": 601, "zipcode": null, "telephone": "59725159", "posDate": null, "destineTel": null, "togoTel": null, "trafficWay": null, "signBuilding": null, "businessArea": null, "selfRoom": null, "businessTime": null, "stall": null, "consume": null, "serviceFei": null, "favourable": null, "shopMemo": null, "appraise": null, "website": null, "memo": null, "payTypes": "\u6749\u5fb7\u5361", "shopTypes": "\u9762\u5305\u897f\u997c", "consumeTypes": null, "cookTypes": null, "orderNum": 1000, "card4no": null, "card4noAcc": null, "district2": 417, "searchScope": null, "status": 1, "address": "\u57ce\u4e2d\u4e1c\u8def218\u53f7", "name": "\u7ea2\u5b9d\u77f3 \u9752\u6d66\u5e97", "id": 164059, "pageNo": 0, "pageCount": null, "pageSize": 10, "ids": null, "endTime": null, "startTime": null}, {"cardNumFive": null, "isSupportYj": null, "cityName": null, "districtName": null, "shopinfo": {"mid": "888002154410023", "good_flag": null, "new_flag": null, "short_name": "\u7ea2\u5b9d\u77f3", "short_name_pinyin": "hongbaoshi", "status": null, "address": null, "name": null, "id": "38654"}, "mid": "888002154410023", "shopId": "38654", "netid": null, "province": 901, "district": 601, "zipcode": null, "telephone": "20249821", "posDate": null, "destineTel": null, "togoTel": null, "trafficWay": null, "signBuilding": null, "businessArea": null, "selfRoom": null, "businessTime": null, "stall": null, "consume": null, "serviceFei": null, "favourable": null, "shopMemo": null, "appraise": null, "website": null, "memo": null, "payTypes": "\u6749\u5fb7\u5361", "shopTypes": "\u9762\u5305\u897f\u997c", "consumeTypes": null, "cookTypes": null, "orderNum": 1000, "card4no": null, "card4noAcc": null, "district2": 418, "searchScope": null, "status": 1, "address": "\u4e73\u5c71\u8def203\u53f7", "name": "\u7ea2\u5b9d\u77f3 \u4e73\u5c71\u5e97", "id": 164060, "pageNo": 0, "pageCount": null, "pageSize": 10, "ids": null, "endTime": null, "startTime": null}, {"cardNumFive": null, "isSupportYj": null, "cityName": null, "districtName": null, "shopinfo": {"mid": "888888850940043", "good_flag": null, "new_flag": null, "short_name": "\u7ea2\u5b9d\u77f3", "short_name_pinyin": "hongbaoshi", "status": null, "address": null, "name": null, "id": "38655"}, "mid": "888888850940043", "shopId": "38655", "netid": null, "province": 901, "district": 601, "zipcode": null, "telephone": "63848065", "posDate": null, "destineTel": null, "togoTel": null, "trafficWay": null, "signBuilding": null, "businessArea": null, "selfRoom": null, "businessTime": null, "stall": null, "consume": null, "serviceFei": null, "favourable": null, "shopMemo": null, "appraise": null, "website": null, "memo": null, "payTypes": ",,\u6749\u5fb7\u5361", "shopTypes": "\u9762\u5305\u897f\u997c", "consumeTypes": null, "cookTypes": null, "orderNum": 1000, "card4no": null, "card4noAcc": null, "district2": 401, "searchScope": null, "status": 1, "address": "\u745e\u91d1\u4e00\u8def128\u53f7", "name": "\u7ea2\u5b9d\u77f3 \u745e\u91d1\u5e97", "id": 164061, "pageNo": 0, "pageCount": null, "pageSize": 10, "ids": null, "endTime": null, "startTime": null}, {"cardNumFive": null, "isSupportYj": null, "cityName": null, "districtName": null, "shopinfo": {"mid": "888888850940059", "good_flag": null, "new_flag": null, "short_name": "\u7ea2\u5b9d\u77f3", "short_name_pinyin": "hongbaoshi", "status": null, "address": null, "name": null, "id": "38656"}, "mid": "888888850940059", "shopId": "38656", "netid": null, "province": 901, "district": 601, "zipcode": null, "telephone": "65758359", "posDate": null, "destineTel": null, "togoTel": null, "trafficWay": null, "signBuilding": null, "businessArea": null, "selfRoom": null, "businessTime": null, "stall": null, "consume": null, "serviceFei": null, "favourable": null, "shopMemo": null, "appraise": null, "website": null, "memo": null, "payTypes": "\u6749\u5fb7\u5361", "shopTypes": "\u9762\u5305\u897f\u997c", "consumeTypes": null, "cookTypes": null, "orderNum": 1000, "card4no": null, "card4noAcc": null, "district2": 408, "searchScope": null, "status": 1, "address": "\u56db\u5e73\u8def782\u53f7-7", "name": "\u7ea2\u5b9d\u77f3 \u56db\u5e73\u5e97", "id": 164062, "pageNo": 0, "pageCount": null, "pageSize": 10, "ids": null, "endTime": null, "startTime": null}], "pageLimit": 2980, "size": 10}