{"pageCount": 1095, "count": 10942, "pageNo": 296, "subShopInfo": {"cardNumFive": "", "isSupportYj": "", "cityName": null, "districtName": null, "shopinfo": {"mid": null, "good_flag": null, "new_flag": null, "short_name": null, "short_name_pinyin": null, "status": null, "address": "", "name": "", "id": null}, "mid": null, "shopId": null, "netid": null, "province": 901, "district": null, "zipcode": null, "telephone": null, "posDate": null, "destineTel": null, "togoTel": null, "trafficWay": null, "signBuilding": null, "businessArea": null, "selfRoom": null, "businessTime": null, "stall": null, "consume": null, "serviceFei": null, "favourable": null, "shopMemo": "1", "appraise": null, "website": null, "memo": null, "payTypes": "", "shopTypes": "", "consumeTypes": null, "cookTypes": null, "orderNum": null, "card4no": null, "card4noAcc": null, "district2": null, "searchScope": null, "status": null, "address": "", "name": null, "id": null, "pageNo": 295, "pageCount": null, "pageSize": 10, "ids": null, "endTime": null, "startTime": null}, "list": [{"cardNumFive": null, "isSupportYj": null, "cityName": null, "districtName": null, "shopinfo": {"mid": "888002154110640", "good_flag": null, "new_flag": null, "short_name": "\u597d\u53c8\u591a", "short_name_pinyin": "haoyouduo", "status": null, "address": null, "name": null, "id": "42369"}, "mid": "888002154110640", "shopId": "42369", "netid": null, "province": 901, "district": 601, "zipcode": null, "telephone": null, "posDate": null, "destineTel": null, "togoTel": null, "trafficWay": null, "signBuilding": null, "businessArea": null, "selfRoom": null, "businessTime": null, "stall": null, "consume": null, "serviceFei": null, "favourable": null, "shopMemo": null, "appraise": null, "website": null, "memo": null, "payTypes": "\u6749\u5fb7\u5361", "shopTypes": "\u8d85\u5e02", "consumeTypes": null, "cookTypes": null, "orderNum": 1000, "card4no": null, "card4noAcc": null, "district2": 405, "searchScope": null, "status": 1, "address": "\u4e0a\u6d77\u5e02\u666e\u9640\u533a\u5e73\u5229\u8def18\u53f7", "name": "\u597d\u53c8\u591a \u597d\u53c8\u591a\u4e0a\u6d77\u7518\u6cc9\u5e97(305)", "id": 188995, "pageNo": 0, "pageCount": null, "pageSize": 10, "ids": null, "endTime": null, "startTime": null}, {"cardNumFive": null, "isSupportYj": null, "cityName": null, "districtName": null, "shopinfo": {"mid": "888002154110642", "good_flag": null, "new_flag": null, "short_name": "\u597d\u53c8\u591a", "short_name_pinyin": "haoyouduo", "status": null, "address": null, "name": null, "id": "42370"}, "mid": "888002154110642", "shopId": "42370", "netid": null, "province": 901, "district": 601, "zipcode": null, "telephone": null, "posDate": null, "destineTel": null, "togoTel": null, "trafficWay": null, "signBuilding": null, "businessArea": null, "selfRoom": null, "businessTime": null, "stall": null, "consume": null, "serviceFei": null, "favourable": null, "shopMemo": null, "appraise": null, "website": null, "memo": null, "payTypes": "\u6749\u5fb7\u5361", "shopTypes": "\u8d85\u5e02", "consumeTypes": null, "cookTypes": null, "orderNum": 1000, "card4no": null, "card4noAcc": null, "district2": 409, "searchScope": null, "status": 1, "address": "\u4e0a\u6d77\u5e02\u95f5\u884c\u533a\u8001\u6caa\u95f5\u8def809\u53f7", "name": "\u597d\u53c8\u591a \u597d\u53c8\u591a\u4e0a\u6d77\u51cc\u4e91\u5206\u5e97(310)", "id": 188996, "pageNo": 0, "pageCount": null, "pageSize": 10, "ids": null, "endTime": null, "startTime": null}, {"cardNumFive": null, "isSupportYj": null, "cityName": null, "districtName": null, "shopinfo": {"mid": "888002154110643", "good_flag": null, "new_flag": null, "short_name": "\u597d\u53c8\u591a", "short_name_pinyin": "haoyouduo", "status": null, "address": null, "name": null, "id": "42371"}, "mid": "888002154110643", "shopId": "42371", "netid": null, "province": 901, "district": 601, "zipcode": null, "telephone": null, "posDate": null, "destineTel": null, "togoTel": null, "trafficWay": null, "signBuilding": null, "businessArea": null, "selfRoom": null, "businessTime": null, "stall": null, "consume": null, "serviceFei": null, "favourable": null, "shopMemo": null, "appraise": null, "website": null, "memo": null, "payTypes": "\u6749\u5fb7\u5361", "shopTypes": "\u8d85\u5e02", "consumeTypes": null, "cookTypes": null, "orderNum": 1000, "card4no": null, "card4noAcc": null, "district2": 405, "searchScope": null, "status": 1, "address": "\u4e0a\u6d77\u5e02\u5b9d\u5c71\u533a\u805a\u4e30\u56ed\u8def205\u53f7", "name": "\u597d\u53c8\u591a \u597d\u53c8\u591a\u4e0a\u6d77\u7941\u8fde\u5c71\u5e97(315)", "id": 188997, "pageNo": 0, "pageCount": null, "pageSize": 10, "ids": null, "endTime": null, "startTime": null}, {"cardNumFive": null, "isSupportYj": null, "cityName": null, "districtName": null, "shopinfo": {"mid": "888002154110644", "good_flag": null, "new_flag": null, "short_name": "\u597d\u53c8\u591a", "short_name_pinyin": "haoyouduo", "status": null, "address": null, "name": null, "id": "42372"}, "mid": "888002154110644", "shopId": "42372", "netid": null, "province": 901, "district": 601, "zipcode": null, "telephone": null, "posDate": null, "destineTel": null, "togoTel": null, "trafficWay": null, "signBuilding": null, "businessArea": null, "selfRoom": null, "businessTime": null, "stall": null, "consume": null, "serviceFei": null, "favourable": null, "shopMemo": null, "appraise": null, "website": null, "memo": null, "payTypes": "\u6749\u5fb7\u5361", "shopTypes": "\u8d85\u5e02", "consumeTypes": null, "cookTypes": null, "orderNum": 1000, "card4no": null, "card4noAcc": null, "district2": 409, "searchScope": null, "status": 1, "address": "\u4e0a\u6d77\u5e02\u95f5\u884c\u533a\u8679\u4e2d\u8def535\u53f7", "name": "\u597d\u53c8\u591a \u597d\u53c8\u591a\u4e0a\u6d77\u8679\u6865\u5e97(316)", "id": 188998, "pageNo": 0, "pageCount": null, "pageSize": 10, "ids": null, "endTime": null, "startTime": null}, {"cardNumFive": null, "isSupportYj": null, "cityName": null, "districtName": null, "shopinfo": {"mid": "888888859120034", "good_flag": "2", "new_flag": "2", "short_name": "\u597d\u8fd0\u5927\u836f\u623f", "short_name_pinyin": "haoyundayaofang", "status": null, "address": null, "name": null, "id": "31756"}, "mid": "888888859120034", "shopId": "31756", "netid": null, "province": 901, "district": 601, "zipcode": "201906", "telephone": null, "posDate": "20070316", "destineTel": null, "togoTel": null, "trafficWay": "\u5730\u94c1\u4e00\u53f7\u7ebf", "signBuilding": null, "businessArea": null, "selfRoom": null, "businessTime": null, "stall": null, "consume": null, "serviceFei": null, "favourable": null, "shopMemo": null, "appraise": null, "website": null, "memo": null, "payTypes": "\u6749\u5fb7\u5361", "shopTypes": "\u836f\u5e97", "consumeTypes": null, "cookTypes": null, "orderNum": 1000, "card4no": null, "card4noAcc": null, "district2": 416, "searchScope": null, "status": 1, "address": "\u6c34\u4ea7\u897f\u8def1086\u53f7", "name": "\u597d\u8fd0\u5927\u836f\u623f \u987e\u6751\u5e97", "id": 135161, "pageNo": 0, "pageCount": null, "pageSize": 10, "ids": null, "endTime": null, "startTime": null}, {"cardNumFive": null, "isSupportYj": null, "cityName": null, "districtName": null, "shopinfo": {"mid": "888888859120034", "good_flag": "2", "new_flag": "2", "short_name": "\u597d\u8fd0\u5927\u836f\u623f", "short_name_pinyin": "haoyundayaofang", "status": null, "address": null, "name": null, "id": "31756"}, "mid": "888888859120034", "shopId": "31756", "netid": null, "province": 901, "district": 601, "zipcode": null, "telephone": null, "posDate": "20070316", "destineTel": null, "togoTel": null, "trafficWay": "\u5730\u94c1\u4e00\u53f7\u7ebf 741\u8def", "signBuilding": null, "businessArea": null, "selfRoom": null, "businessTime": null, "stall": null, "consume": null, "serviceFei": null, "favourable": null, "shopMemo": null, "appraise": null, "website": null, "memo": null, "payTypes": "\u6749\u5fb7\u5361", "shopTypes": "\u836f\u5e97", "consumeTypes": null, "cookTypes": null, "orderNum": 1000, "card4no": null, "card4noAcc": null, "district2": 410, "searchScope": null, "status": 1, "address": "\u4e07\u8363\u8def73\u53f7", "name": "\u597d\u8fd0\u5927\u836f\u623f \u4e07\u8363\u8def\u5e97", "id": 135163, "pageNo": 0, "pageCount": null, "pageSize": 10, "ids": null, "endTime": null, "startTime": null}, {"cardNumFive": null, "isSupportYj": null, "cityName": null, "districtName": null, "shopinfo": {"mid": "888888859120107", "good_flag": "2", "new_flag": "1", "short_name": "\u548c\u6d4e\u836f\u623f", "short_name_pinyin": "hejiyaofang", "status": null, "address": null, "name": null, "id": "31768"}, "mid": "888888859120107", "shopId": "31768", "netid": null, "province": 901, "district": 601, "zipcode": null, "telephone": null, "posDate": "20100525", "destineTel": null, "togoTel": null, "trafficWay": null, "signBuilding": null, "businessArea": null, "selfRoom": null, "businessTime": null, "stall": null, "consume": null, "serviceFei": null, "favourable": null, "shopMemo": null, "appraise": null, "website": null, "memo": null, "payTypes": "\u6749\u5fb7\u5361", "shopTypes": "\u836f\u5e97", "consumeTypes": null, "cookTypes": null, "orderNum": 1000, "card4no": null, "card4noAcc": null, "district2": 418, "searchScope": null, "status": 1, "address": "\u5eb7\u6c88\u8def1030\u53f7A\u5e62", "name": "\u548c\u6d4e\u836f\u623f \u5eb7\u6c88\u8def\u5e97", "id": 135184, "pageNo": 0, "pageCount": null, "pageSize": 10, "ids": null, "endTime": null, "startTime": null}, {"cardNumFive": null, "isSupportYj": null, "cityName": null, "districtName": null, "shopinfo": {"mid": "888888859120184", "good_flag": "2", "new_flag": "2", "short_name": "\u548c\u9f99\u836f\u623f", "short_name_pinyin": "helongyaofang", "status": null, "address": null, "name": null, "id": "31770"}, "mid": "888888859120184", "shopId": "31770", "netid": null, "province": 901, "district": 601, "zipcode": null, "telephone": null, "posDate": null, "destineTel": null, "togoTel": null, "trafficWay": "115\u3001933", "signBuilding": null, "businessArea": null, "selfRoom": null, "businessTime": null, "stall": null, "consume": null, "serviceFei": null, "favourable": null, "shopMemo": null, "appraise": null, "website": null, "memo": null, "payTypes": "\u6749\u5fb7\u5361", "shopTypes": "\u836f\u5e97", "consumeTypes": null, "cookTypes": null, "orderNum": 1000, "card4no": null, "card4noAcc": null, "district2": 407, "searchScope": null, "status": 1, "address": "\u8d64\u5cf0\u8def515\u53f7", "name": "\u548c\u9f99\u836f\u623f \u8d64\u5cf0\u8def\u5e97", "id": 135188, "pageNo": 0, "pageCount": null, "pageSize": 10, "ids": null, "endTime": null, "startTime": null}, {"cardNumFive": null, "isSupportYj": null, "cityName": null, "districtName": null, "shopinfo": {"mid": "888888859120184", "good_flag": "2", "new_flag": "2", "short_name": "\u548c\u9f99\u836f\u623f", "short_name_pinyin": "helongyaofang", "status": null, "address": null, "name": null, "id": "31770"}, "mid": "888888859120184", "shopId": "31770", "netid": null, "province": 901, "district": 601, "zipcode": null, "telephone": "50414706", "posDate": null, "destineTel": null, "togoTel": null, "trafficWay": "611\u3001815", "signBuilding": null, "businessArea": null, "selfRoom": null, "businessTime": null, "stall": null, "consume": null, "serviceFei": null, "favourable": null, "shopMemo": null, "appraise": null, "website": null, "memo": null, "payTypes": "\u6749\u5fb7\u5361", "shopTypes": "\u836f\u5e97", "consumeTypes": null, "cookTypes": null, "orderNum": 1000, "card4no": null, "card4noAcc": null, "district2": 418, "searchScope": null, "status": 1, "address": "\u548c\u9f99\u8def603-605\u53f7", "name": "\u548c\u9f99\u836f\u623f \u548c\u9f99\u8def\u5e97", "id": 135189, "pageNo": 0, "pageCount": null, "pageSize": 10, "ids": null, "endTime": null, "startTime": null}, {"cardNumFive": null, "isSupportYj": null, "cityName": null, "districtName": null, "shopinfo": {"mid": "888002153311182", "good_flag": "2", "new_flag": "2", "short_name": "\u76d2\u9a6c\u5148\u751f", "short_name_pinyin": "hemaxiansheng", "status": null, "address": null, "name": null, "id": "565224389050630144"}, "mid": "888002153311182", "shopId": "565224389050630144", "netid": null, "province": 901, "district": 601, "zipcode": null, "telephone": null, "posDate": null, "destineTel": null, "togoTel": null, "trafficWay": null, "signBuilding": null, "businessArea": null, "selfRoom": null, "businessTime": null, "stall": null, "consume": null, "serviceFei": null, "favourable": null, "shopMemo": null, "appraise": null, "website": null, "memo": null, "payTypes": "\u6749\u5fb7\u5361,", "shopTypes": null, "consumeTypes": null, "cookTypes": null, "orderNum": null, "card4no": null, "card4noAcc": null, "district2": 418, "searchScope": null, "status": 1, "address": "\u9ad8\u79d1\u4e1c\u8def515\u5f04-\u6052\u751f\u4e07\u9e42\u5546\u4e1a\u5e7f\u573a", "name": "JZ\u76d2\u9a6c\u4e0a\u6d77\u6052\u751f\u4e07\u90e6\u5e97\u5e97", "id": 565224387108667392, "pageNo": 0, "pageCount": null, "pageSize": 10, "ids": null, "endTime": null, "startTime": null}], "pageLimit": 2950, "size": 10}