{"pageCount": 1095, "count": 10942, "pageNo": 297, "subShopInfo": {"cardNumFive": "", "isSupportYj": "", "cityName": null, "districtName": null, "shopinfo": {"mid": null, "good_flag": null, "new_flag": null, "short_name": null, "short_name_pinyin": null, "status": null, "address": "", "name": "", "id": null}, "mid": null, "shopId": null, "netid": null, "province": 901, "district": null, "zipcode": null, "telephone": null, "posDate": null, "destineTel": null, "togoTel": null, "trafficWay": null, "signBuilding": null, "businessArea": null, "selfRoom": null, "businessTime": null, "stall": null, "consume": null, "serviceFei": null, "favourable": null, "shopMemo": "1", "appraise": null, "website": null, "memo": null, "payTypes": "", "shopTypes": "", "consumeTypes": null, "cookTypes": null, "orderNum": null, "card4no": null, "card4noAcc": null, "district2": null, "searchScope": null, "status": null, "address": "", "name": null, "id": null, "pageNo": 296, "pageCount": null, "pageSize": 10, "ids": null, "endTime": null, "startTime": null}, "list": [{"cardNumFive": null, "isSupportYj": null, "cityName": null, "districtName": null, "shopinfo": {"mid": "888888859440005", "good_flag": "2", "new_flag": "1", "short_name": "\u4ea8\u8fbe\u5229\u949f\u8868", "short_name_pinyin": "hengdalizhongbiao", "status": null, "address": null, "name": null, "id": "31782"}, "mid": "888888859440005", "shopId": "31782", "netid": null, "province": 901, "district": 601, "zipcode": null, "telephone": "63222998", "posDate": "20070621", "destineTel": null, "togoTel": null, "trafficWay": "\u5730\u94c1\u4e00\u53f7\u7ebf", "signBuilding": null, "businessArea": null, "selfRoom": null, "businessTime": "9:00~18:00", "stall": null, "consume": null, "serviceFei": null, "favourable": null, "shopMemo": null, "appraise": null, "website": null, "memo": null, "payTypes": "\u6749\u5fb7\u5361", "shopTypes": "\u4e13\u5356", "consumeTypes": null, "cookTypes": null, "orderNum": 1000, "card4no": null, "card4noAcc": null, "district2": 401, "searchScope": null, "status": 1, "address": "\u5357\u4eac\u4e1c\u8def772\u53f7", "name": "\u4ea8\u8fbe\u5229\u949f\u8868 \u5357\u4e1c\u5e97", "id": 135213, "pageNo": 0, "pageCount": null, "pageSize": 10, "ids": null, "endTime": null, "startTime": null}, {"cardNumFive": null, "isSupportYj": null, "cityName": null, "districtName": null, "shopinfo": {"mid": "888888859440005", "good_flag": "2", "new_flag": "1", "short_name": "\u4ea8\u8fbe\u5229\u949f\u8868", "short_name_pinyin": "hengdalizhongbiao", "status": null, "address": null, "name": null, "id": "31782"}, "mid": "888888859440005", "shopId": "31782", "netid": null, "province": 901, "district": 601, "zipcode": null, "telephone": "63235678", "posDate": "20070626", "destineTel": null, "togoTel": null, "trafficWay": "\u5730\u94c1\u4e8c\u53f7\u7ebf \u516c\u4ea4864 49", "signBuilding": null, "businessArea": null, "selfRoom": null, "businessTime": "7:00~19:30", "stall": null, "consume": null, "serviceFei": null, "favourable": null, "shopMemo": null, "appraise": null, "website": null, "memo": null, "payTypes": "\u6749\u5fb7\u5361", "shopTypes": "\u4e13\u5356", "consumeTypes": null, "cookTypes": null, "orderNum": 1000, "card4no": null, "card4noAcc": null, "district2": 401, "searchScope": null, "status": 1, "address": "\u5357\u4eac\u4e1c\u8def340-372\u53f7", "name": "\u4ea8\u8fbe\u5229\u949f\u8868 \u5357\u4eac\u4e1c\u8def\u603b\u5e97", "id": 135214, "pageNo": 0, "pageCount": null, "pageSize": 10, "ids": null, "endTime": null, "startTime": null}, {"cardNumFive": null, "isSupportYj": null, "cityName": null, "districtName": null, "shopinfo": {"mid": "888888859440005", "good_flag": "2", "new_flag": "1", "short_name": "\u4ea8\u8fbe\u5229\u949f\u8868", "short_name_pinyin": "hengdalizhongbiao", "status": null, "address": null, "name": null, "id": "31782"}, "mid": "888888859440005", "shopId": "31782", "netid": null, "province": 901, "district": 601, "zipcode": null, "telephone": "62175903", "posDate": "20070626", "destineTel": null, "togoTel": null, "trafficWay": "\u5730\u94c1\u4e8c\u53f7\u7ebf \u516c\u4ea4926 15", "signBuilding": null, "businessArea": null, "selfRoom": null, "businessTime": "9:00~17:00", "stall": null, "consume": null, "serviceFei": null, "favourable": null, "shopMemo": null, "appraise": null, "website": null, "memo": null, "payTypes": "\u6749\u5fb7\u5361", "shopTypes": "\u4e13\u5356", "consumeTypes": null, "cookTypes": null, "orderNum": 1000, "card4no": null, "card4noAcc": null, "district2": 404, "searchScope": null, "status": 1, "address": "\u5357\u4eac\u897f\u8def1010\u53f7", "name": "\u4ea8\u8fbe\u5229\u949f\u8868 \u5357\u897f\u5e97", "id": 135215, "pageNo": 0, "pageCount": null, "pageSize": 10, "ids": null, "endTime": null, "startTime": null}, {"cardNumFive": null, "isSupportYj": null, "cityName": null, "districtName": null, "shopinfo": {"mid": "888888815200007", "good_flag": "1", "new_flag": "2", "short_name": "\u6052\u9686\u5e7f\u573a", "short_name_pinyin": "henglongguangchang", "status": null, "address": null, "name": null, "id": "31784"}, "mid": "888888815200007", "shopId": "31784", "netid": null, "province": 901, "district": 601, "zipcode": "", "telephone": "021-32104566", "posDate": "20090223", "destineTel": "", "togoTel": "", "trafficWay": "", "signBuilding": "", "businessArea": "50000", "selfRoom": "", "businessTime": "10\u70b9-22\u70b9", "stall": "\u6709", "consume": "", "serviceFei": null, "favourable": "", "shopMemo": "", "appraise": "", "website": "", "memo": "\u4ec5\u53d7\u7406\u6749\u5fb7\u5361", "payTypes": "\u6749\u5fb7\u5361", "shopTypes": "\u767e\u8d27", "consumeTypes": null, "cookTypes": null, "orderNum": 1000, "card4no": null, "card4noAcc": null, "district2": 404, "searchScope": null, "status": 1, "address": "\u5357\u4eac\u897f\u8def1266\u53f7", "name": "\u6052\u9686\u5e7f\u573a", "id": 135221, "pageNo": 0, "pageCount": null, "pageSize": 10, "ids": null, "endTime": null, "startTime": null}, {"cardNumFive": null, "isSupportYj": null, "cityName": null, "districtName": null, "shopinfo": {"mid": "888002153311204", "good_flag": "2", "new_flag": "2", "short_name": "\u6d66\u6052\u8d85\u5e02", "short_name_pinyin": "hengpuchaoshi", "status": null, "address": null, "name": null, "id": "565224402937970688"}, "mid": "888002153311204", "shopId": "565224402937970688", "netid": null, "province": 901, "district": 601, "zipcode": null, "telephone": null, "posDate": null, "destineTel": null, "togoTel": null, "trafficWay": null, "signBuilding": null, "businessArea": null, "selfRoom": null, "businessTime": null, "stall": null, "consume": null, "serviceFei": null, "favourable": null, "shopMemo": null, "appraise": null, "website": null, "memo": null, "payTypes": "\u6749\u5fb7\u5361,", "shopTypes": null, "consumeTypes": null, "cookTypes": null, "orderNum": null, "card4no": null, "card4noAcc": null, "district2": 409, "searchScope": null, "status": 1, "address": "\u6d66\u9526\u8def2102\u53f7", "name": "\u6d66\u6052\u8d85\u5e02", "id": 565224401000202240, "pageNo": 0, "pageCount": null, "pageSize": 10, "ids": null, "endTime": null, "startTime": null}, {"cardNumFive": null, "isSupportYj": null, "cityName": null, "districtName": null, "shopinfo": {"mid": "888888853990250", "good_flag": "1", "new_flag": "1", "short_name": "\u6052\u6e90\u7965", "short_name_pinyin": "hengyuanxiang", "status": null, "address": null, "name": null, "id": "31786"}, "mid": "888888853990250", "shopId": "31786", "netid": null, "province": 901, "district": 601, "zipcode": null, "telephone": "64338578", "posDate": "20091221", "destineTel": null, "togoTel": null, "trafficWay": null, "signBuilding": null, "businessArea": null, "selfRoom": null, "businessTime": null, "stall": null, "consume": null, "serviceFei": null, "favourable": null, "shopMemo": null, "appraise": null, "website": null, "memo": null, "payTypes": "\u6749\u5fb7\u5361", "shopTypes": "\u96f6\u552e", "consumeTypes": null, "cookTypes": null, "orderNum": 1000, "card4no": null, "card4noAcc": null, "district2": 401, "searchScope": null, "status": 1, "address": "\u745e\u91d1\u4e8c\u8def272-2\u53f7", "name": "\u6052\u6e90\u7965 \u745e\u91d1\u4e8c\u8def\u5e97", "id": 135223, "pageNo": 0, "pageCount": null, "pageSize": 10, "ids": null, "endTime": null, "startTime": null}, {"cardNumFive": null, "isSupportYj": null, "cityName": null, "districtName": null, "shopinfo": {"mid": "888002158122171", "good_flag": "2", "new_flag": "1", "short_name": "\u6052\u60a6\u8f69", "short_name_pinyin": "hengyuexuan", "status": null, "address": null, "name": null, "id": "31787"}, "mid": "888002158122171", "shopId": "31787", "netid": null, "province": 901, "district": 601, "zipcode": null, "telephone": "68809778", "posDate": null, "destineTel": null, "togoTel": null, "trafficWay": null, "signBuilding": null, "businessArea": null, "selfRoom": null, "businessTime": null, "stall": null, "consume": null, "serviceFei": null, "favourable": null, "shopMemo": null, "appraise": null, "website": null, "memo": null, "payTypes": "\u6749\u5fb7\u5361", "shopTypes": "\u9910\u996e", "consumeTypes": null, "cookTypes": null, "orderNum": 1000, "card4no": null, "card4noAcc": null, "district2": 418, "searchScope": null, "status": 1, "address": "\u6d66\u4e1c\u65b0\u533a\u4e16\u7eaa\u5927\u9053201\u53f7\u6e23\u6253\u94f6\u884c\u5927\u53a63-4\u697c", "name": "\u6052\u60a6\u8f69 \u9646\u5bb6\u5634\u5e97", "id": 135224, "pageNo": 0, "pageCount": null, "pageSize": 10, "ids": null, "endTime": null, "startTime": null}, {"cardNumFive": null, "isSupportYj": null, "cityName": null, "districtName": null, "shopinfo": {"mid": "888888858120099", "good_flag": "2", "new_flag": "2", "short_name": "\u6052\u60a6\u8f69", "short_name_pinyin": "hengyuexuan", "status": null, "address": null, "name": null, "id": "31788"}, "mid": "888888858120099", "shopId": "31788", "netid": null, "province": 901, "district": 601, "zipcode": "200030", "telephone": "64729778", "posDate": "20070125", "destineTel": "64729778", "togoTel": "64729778", "trafficWay": "\u4e1c\u95f5\u7ebf \u5f90\u95f5\u7ebf", "signBuilding": null, "businessArea": null, "selfRoom": "\u6709", "businessTime": "11:00~21:30", "stall": "\u6709", "consume": "500\u5143", "serviceFei": null, "favourable": null, "shopMemo": "\u6e2f\u5f0f\u70b9\u5fc3 \u7b0b\u58f3\u9c7c \u9c8d\u7fc5 \u6930\u674f\u6c41\u5b98\u71d5", "appraise": null, "website": null, "memo": null, "payTypes": "\u6749\u5fb7\u5361", "shopTypes": "\u9910\u996e", "consumeTypes": "\u5bb6\u4eba\u56e2\u805a \u597d\u53cb\u5c0f\u805a \u4f11\u95f2\u5c31\u9910 \u6d6a\u6f2b\u7ea6\u4f1a", "cookTypes": "\u7ca4\u83dc", "orderNum": 1000, "card4no": null, "card4noAcc": null, "district2": 403, "searchScope": null, "status": 1, "address": "\u5b9b\u5e73\u8def290\u53f7\u516c\u56ed\u5185", "name": "\u6052\u60a6\u8f69 \u5b9b\u5e73\u8def\u5e97", "id": 135225, "pageNo": 0, "pageCount": null, "pageSize": 10, "ids": null, "endTime": null, "startTime": null}, {"cardNumFive": null, "isSupportYj": null, "cityName": null, "districtName": null, "shopinfo": {"mid": "888002148120050", "good_flag": "2", "new_flag": "2", "short_name": "\u5408\u4ebf\u5bfc\u901a\uff08\u590f\u666e\uff09", "short_name_pinyin": "heyidaotong\uff08xiapu\uff09", "status": null, "address": null, "name": null, "id": "31765"}, "mid": "888002148120050", "shopId": "31765", "netid": null, "province": 901, "district": 601, "zipcode": null, "telephone": null, "posDate": null, "destineTel": null, "togoTel": null, "trafficWay": null, "signBuilding": null, "businessArea": null, "selfRoom": null, "businessTime": null, "stall": null, "consume": null, "serviceFei": null, "favourable": null, "shopMemo": null, "appraise": null, "website": null, "memo": null, "payTypes": "", "shopTypes": "\u4e13\u5356", "consumeTypes": null, "cookTypes": null, "orderNum": 1000, "card4no": null, "card4noAcc": null, "district2": 403, "searchScope": null, "status": 1, "address": "\u8087\u5609\u6d5c\u8def1111\u53f73\u697c", "name": "\u5408\u4ebf\u5bfc\u901a\uff08\u590f\u666e\uff09 \u7f8e\u7f57\u57ce\u5e97", "id": 135174, "pageNo": 0, "pageCount": null, "pageSize": 10, "ids": null, "endTime": null, "startTime": null}, {"cardNumFive": null, "isSupportYj": null, "cityName": null, "districtName": null, "shopinfo": {"mid": "888002159121170", "good_flag": "2", "new_flag": "2", "short_name": "\u5408\u610f\u5802", "short_name_pinyin": "heyitang", "status": null, "address": null, "name": null, "id": "31766"}, "mid": "888002159121170", "shopId": "31766", "netid": null, "province": 901, "district": 601, "zipcode": null, "telephone": "64602845\u300113916843300", "posDate": "200910", "destineTel": null, "togoTel": null, "trafficWay": "759\u8def\u3001\u8398\u9f99\u7ebf\u3001\u8398\u8377\u7ebf", "signBuilding": null, "businessArea": null, "selfRoom": null, "businessTime": null, "stall": null, "consume": null, "serviceFei": null, "favourable": null, "shopMemo": null, "appraise": null, "website": null, "memo": null, "payTypes": "\u6749\u5fb7\u5361", "shopTypes": "\u836f\u5e97", "consumeTypes": null, "cookTypes": null, "orderNum": 1000, "card4no": null, "card4noAcc": null, "district2": 409, "searchScope": null, "status": 1, "address": "\u8398\u6731\u8def152\u53f7", "name": "\u5408\u610f\u5802 \u8398\u6731\u8def\u5e97", "id": 135175, "pageNo": 0, "pageCount": null, "pageSize": 10, "ids": null, "endTime": null, "startTime": null}], "pageLimit": 2960, "size": 10}