{"pageCount": 1095, "count": 10942, "pageNo": 290, "subShopInfo": {"cardNumFive": "", "isSupportYj": "", "cityName": null, "districtName": null, "shopinfo": {"mid": null, "good_flag": null, "new_flag": null, "short_name": null, "short_name_pinyin": null, "status": null, "address": "", "name": "", "id": null}, "mid": null, "shopId": null, "netid": null, "province": 901, "district": null, "zipcode": null, "telephone": null, "posDate": null, "destineTel": null, "togoTel": null, "trafficWay": null, "signBuilding": null, "businessArea": null, "selfRoom": null, "businessTime": null, "stall": null, "consume": null, "serviceFei": null, "favourable": null, "shopMemo": "1", "appraise": null, "website": null, "memo": null, "payTypes": "", "shopTypes": "", "consumeTypes": null, "cookTypes": null, "orderNum": null, "card4no": null, "card4noAcc": null, "district2": null, "searchScope": null, "status": null, "address": "", "name": null, "id": null, "pageNo": 289, "pageCount": null, "pageSize": 10, "ids": null, "endTime": null, "startTime": null}, "list": [{"cardNumFive": null, "isSupportYj": null, "cityName": null, "districtName": null, "shopinfo": {"mid": "888002142150016", "good_flag": null, "new_flag": "2", "short_name": "\u597d\u5fb7\u4fbf\u5229", "short_name_pinyin": "haodebianli", "status": null, "address": null, "name": null, "id": "42818"}, "mid": "888002142150016", "shopId": "42818", "netid": null, "province": 901, "district": 601, "zipcode": null, "telephone": null, "posDate": null, "destineTel": null, "togoTel": null, "trafficWay": null, "signBuilding": null, "businessArea": null, "selfRoom": null, "businessTime": null, "stall": null, "consume": null, "serviceFei": null, "favourable": null, "shopMemo": null, "appraise": null, "website": null, "memo": null, "payTypes": "\u6749\u5fb7\u5361", "shopTypes": "\u4fbf\u5229\u5e97", "consumeTypes": null, "cookTypes": null, "orderNum": 1000, "card4no": null, "card4noAcc": null, "district2": 407, "searchScope": null, "status": 1, "address": "\u53cc\u8fbd\u652f\u8def217\u53f7", "name": "\u597d\u5fb7\u4fbf\u5229 \u53cc\u8fbd\u5e97", "id": 195288, "pageNo": 0, "pageCount": null, "pageSize": 10, "ids": null, "endTime": null, "startTime": null}, {"cardNumFive": null, "isSupportYj": null, "cityName": null, "districtName": null, "shopinfo": {"mid": "888002142150016", "good_flag": null, "new_flag": "2", "short_name": "\u597d\u5fb7\u4fbf\u5229", "short_name_pinyin": "haodebianli", "status": null, "address": null, "name": null, "id": "42818"}, "mid": "888002142150016", "shopId": "42818", "netid": null, "province": 901, "district": 601, "zipcode": null, "telephone": null, "posDate": null, "destineTel": null, "togoTel": null, "trafficWay": null, "signBuilding": null, "businessArea": null, "selfRoom": null, "businessTime": null, "stall": null, "consume": null, "serviceFei": null, "favourable": null, "shopMemo": null, "appraise": null, "website": null, "memo": null, "payTypes": "\u6749\u5fb7\u5361", "shopTypes": "\u4fbf\u5229\u5e97", "consumeTypes": null, "cookTypes": null, "orderNum": 1000, "card4no": null, "card4noAcc": null, "district2": 409, "searchScope": null, "status": 1, "address": "\u8679\u4e2d\u8def590\u53f71\u5c42", "name": "\u597d\u5fb7\u4fbf\u5229 \u8679\u4e2d\u5e97", "id": 195291, "pageNo": 0, "pageCount": null, "pageSize": 10, "ids": null, "endTime": null, "startTime": null}, {"cardNumFive": null, "isSupportYj": null, "cityName": null, "districtName": null, "shopinfo": {"mid": "888002142150016", "good_flag": null, "new_flag": "2", "short_name": "\u597d\u5fb7\u4fbf\u5229", "short_name_pinyin": "haodebianli", "status": null, "address": null, "name": null, "id": "42818"}, "mid": "888002142150016", "shopId": "42818", "netid": null, "province": 901, "district": 601, "zipcode": null, "telephone": null, "posDate": null, "destineTel": null, "togoTel": null, "trafficWay": null, "signBuilding": null, "businessArea": null, "selfRoom": null, "businessTime": null, "stall": null, "consume": null, "serviceFei": null, "favourable": null, "shopMemo": null, "appraise": null, "website": null, "memo": null, "payTypes": "\u6749\u5fb7\u5361", "shopTypes": "\u4fbf\u5229\u5e97", "consumeTypes": null, "cookTypes": null, "orderNum": 1000, "card4no": null, "card4noAcc": null, "district2": 412, "searchScope": null, "status": 1, "address": "\u6c5f\u7530\u4e1c\u8def185\u53f7", "name": "\u597d\u5fb7\u4fbf\u5229 \u6c5f\u7530\u4e1c\u8def\u5e97", "id": 196266, "pageNo": 0, "pageCount": null, "pageSize": 10, "ids": null, "endTime": null, "startTime": null}, {"cardNumFive": null, "isSupportYj": null, "cityName": null, "districtName": null, "shopinfo": {"mid": "888002142150016", "good_flag": null, "new_flag": "2", "short_name": "\u597d\u5fb7\u4fbf\u5229", "short_name_pinyin": "haodebianli", "status": null, "address": null, "name": null, "id": "42818"}, "mid": "888002142150016", "shopId": "42818", "netid": null, "province": 901, "district": 601, "zipcode": null, "telephone": null, "posDate": null, "destineTel": null, "togoTel": null, "trafficWay": null, "signBuilding": null, "businessArea": null, "selfRoom": null, "businessTime": null, "stall": null, "consume": null, "serviceFei": null, "favourable": null, "shopMemo": null, "appraise": null, "website": null, "memo": null, "payTypes": "\u6749\u5fb7\u5361", "shopTypes": "\u4fbf\u5229\u5e97", "consumeTypes": null, "cookTypes": null, "orderNum": 1000, "card4no": null, "card4noAcc": null, "district2": 412, "searchScope": null, "status": 1, "address": "\u4e50\u90fd\u897f\u8def799\u53f7", "name": "\u597d\u5fb7\u4fbf\u5229 \u4e50\u90fd\u897f\u8def\u5e97", "id": 196868, "pageNo": 0, "pageCount": null, "pageSize": 10, "ids": null, "endTime": null, "startTime": null}, {"cardNumFive": null, "isSupportYj": null, "cityName": null, "districtName": null, "shopinfo": {"mid": "888002142150016", "good_flag": null, "new_flag": "2", "short_name": "\u597d\u5fb7\u4fbf\u5229", "short_name_pinyin": "haodebianli", "status": null, "address": null, "name": null, "id": "42818"}, "mid": "888002142150016", "shopId": "42818", "netid": null, "province": 901, "district": 601, "zipcode": null, "telephone": null, "posDate": null, "destineTel": null, "togoTel": null, "trafficWay": null, "signBuilding": null, "businessArea": null, "selfRoom": null, "businessTime": null, "stall": null, "consume": null, "serviceFei": null, "favourable": null, "shopMemo": null, "appraise": null, "website": null, "memo": null, "payTypes": "\u6749\u5fb7\u5361", "shopTypes": "\u4fbf\u5229\u5e97", "consumeTypes": null, "cookTypes": null, "orderNum": 1000, "card4no": null, "card4noAcc": null, "district2": 401, "searchScope": null, "status": 1, "address": "\u9ec4\u9642\u5357\u8def734\u53f7", "name": "\u597d\u5fb7\u4fbf\u5229 \u9ec4\u9642\u5357\u8def\u5e97", "id": 196869, "pageNo": 0, "pageCount": null, "pageSize": 10, "ids": null, "endTime": null, "startTime": null}, {"cardNumFive": null, "isSupportYj": null, "cityName": null, "districtName": null, "shopinfo": {"mid": "888002142150016", "good_flag": null, "new_flag": "2", "short_name": "\u597d\u5fb7\u4fbf\u5229", "short_name_pinyin": "haodebianli", "status": null, "address": null, "name": null, "id": "42818"}, "mid": "888002142150016", "shopId": "42818", "netid": null, "province": 901, "district": 601, "zipcode": null, "telephone": null, "posDate": null, "destineTel": null, "togoTel": null, "trafficWay": null, "signBuilding": null, "businessArea": null, "selfRoom": null, "businessTime": null, "stall": null, "consume": null, "serviceFei": null, "favourable": null, "shopMemo": null, "appraise": null, "website": null, "memo": null, "payTypes": "\u6749\u5fb7\u5361", "shopTypes": "\u4fbf\u5229\u5e97", "consumeTypes": null, "cookTypes": null, "orderNum": 1000, "card4no": null, "card4noAcc": null, "district2": 403, "searchScope": null, "status": 1, "address": "\u4e30\u8c37\u8def220\u5f041\u53f7", "name": "\u597d\u5fb7\u4fbf\u5229 \u4e30\u8c37\u8def\u5e97", "id": 197162, "pageNo": 0, "pageCount": null, "pageSize": 10, "ids": null, "endTime": null, "startTime": null}, {"cardNumFive": null, "isSupportYj": null, "cityName": null, "districtName": null, "shopinfo": {"mid": "888002142150016", "good_flag": null, "new_flag": "2", "short_name": "\u597d\u5fb7\u4fbf\u5229", "short_name_pinyin": "haodebianli", "status": null, "address": null, "name": null, "id": "42818"}, "mid": "888002142150016", "shopId": "42818", "netid": null, "province": 901, "district": 601, "zipcode": null, "telephone": null, "posDate": null, "destineTel": null, "togoTel": null, "trafficWay": null, "signBuilding": null, "businessArea": null, "selfRoom": null, "businessTime": null, "stall": null, "consume": null, "serviceFei": null, "favourable": null, "shopMemo": null, "appraise": null, "website": null, "memo": null, "payTypes": "\u6749\u5fb7\u5361", "shopTypes": "\u4fbf\u5229\u5e97", "consumeTypes": null, "cookTypes": null, "orderNum": 1000, "card4no": null, "card4noAcc": null, "district2": 403, "searchScope": null, "status": 1, "address": "\u8087\u5609\u6d5c\u8def1033\u53f7201-E\u5ba4", "name": "\u597d\u5fb7\u4fbf\u5229 \u8087\u5609\u6d5c\u8def\u5e97", "id": 197163, "pageNo": 0, "pageCount": null, "pageSize": 10, "ids": null, "endTime": null, "startTime": null}, {"cardNumFive": null, "isSupportYj": null, "cityName": null, "districtName": null, "shopinfo": {"mid": "888002142150016", "good_flag": null, "new_flag": "2", "short_name": "\u597d\u5fb7\u4fbf\u5229", "short_name_pinyin": "haodebianli", "status": null, "address": null, "name": null, "id": "42818"}, "mid": "888002142150016", "shopId": "42818", "netid": null, "province": 901, "district": 601, "zipcode": null, "telephone": null, "posDate": null, "destineTel": null, "togoTel": null, "trafficWay": null, "signBuilding": null, "businessArea": null, "selfRoom": null, "businessTime": null, "stall": null, "consume": null, "serviceFei": null, "favourable": null, "shopMemo": null, "appraise": null, "website": null, "memo": null, "payTypes": "\u6749\u5fb7\u5361", "shopTypes": "\u4fbf\u5229\u5e97", "consumeTypes": null, "cookTypes": null, "orderNum": 1000, "card4no": null, "card4noAcc": null, "district2": 410, "searchScope": null, "status": 1, "address": "\u6c5f\u573a\u8def1377\u5f0417\u5e6229\u53f7", "name": "\u597d\u5fb7\u4fbf\u5229 \u6c5f\u573a\u8def\u5e97", "id": 197174, "pageNo": 0, "pageCount": null, "pageSize": 10, "ids": null, "endTime": null, "startTime": null}, {"cardNumFive": null, "isSupportYj": null, "cityName": null, "districtName": null, "shopinfo": {"mid": "888002142150016", "good_flag": null, "new_flag": "2", "short_name": "\u597d\u5fb7\u4fbf\u5229", "short_name_pinyin": "haodebianli", "status": null, "address": null, "name": null, "id": "42818"}, "mid": "888002142150016", "shopId": "42818", "netid": null, "province": 901, "district": 601, "zipcode": null, "telephone": null, "posDate": null, "destineTel": null, "togoTel": null, "trafficWay": null, "signBuilding": null, "businessArea": null, "selfRoom": null, "businessTime": null, "stall": null, "consume": null, "serviceFei": null, "favourable": null, "shopMemo": null, "appraise": null, "website": null, "memo": null, "payTypes": "\u6749\u5fb7\u5361", "shopTypes": "\u4fbf\u5229\u5e97", "consumeTypes": null, "cookTypes": null, "orderNum": 1000, "card4no": null, "card4noAcc": null, "district2": 409, "searchScope": null, "status": 1, "address": "\u6c5f\u5ddd\u8def242\u53f7A\u5ba4", "name": "\u597d\u5fb7\u4fbf\u5229 \u6c5f\u5ddd\u8def\u5e97", "id": 197307, "pageNo": 0, "pageCount": null, "pageSize": 10, "ids": null, "endTime": null, "startTime": null}, {"cardNumFive": null, "isSupportYj": null, "cityName": null, "districtName": null, "shopinfo": {"mid": "888002142150016", "good_flag": null, "new_flag": "2", "short_name": "\u597d\u5fb7\u4fbf\u5229", "short_name_pinyin": "haodebianli", "status": null, "address": null, "name": null, "id": "42818"}, "mid": "888002142150016", "shopId": "42818", "netid": null, "province": 901, "district": 601, "zipcode": null, "telephone": null, "posDate": null, "destineTel": null, "togoTel": null, "trafficWay": null, "signBuilding": null, "businessArea": null, "selfRoom": null, "businessTime": null, "stall": null, "consume": null, "serviceFei": null, "favourable": null, "shopMemo": null, "appraise": null, "website": null, "memo": null, "payTypes": "\u6749\u5fb7\u5361", "shopTypes": "\u4fbf\u5229\u5e97", "consumeTypes": null, "cookTypes": null, "orderNum": 1000, "card4no": null, "card4noAcc": null, "district2": 401, "searchScope": null, "status": 1, "address": "\u6253\u6d66\u8def463\u53f7", "name": "\u597d\u5fb7\u4fbf\u5229 \u6253\u6d66\u8def\u5e97", "id": 197962, "pageNo": 0, "pageCount": null, "pageSize": 10, "ids": null, "endTime": null, "startTime": null}], "pageLimit": 2890, "size": 10}