{"pageCount": 1095, "count": 10942, "pageNo": 304, "subShopInfo": {"cardNumFive": "", "isSupportYj": "", "cityName": null, "districtName": null, "shopinfo": {"mid": null, "good_flag": null, "new_flag": null, "short_name": null, "short_name_pinyin": null, "status": null, "address": "", "name": "", "id": null}, "mid": null, "shopId": null, "netid": null, "province": 901, "district": null, "zipcode": null, "telephone": null, "posDate": null, "destineTel": null, "togoTel": null, "trafficWay": null, "signBuilding": null, "businessArea": null, "selfRoom": null, "businessTime": null, "stall": null, "consume": null, "serviceFei": null, "favourable": null, "shopMemo": "1", "appraise": null, "website": null, "memo": null, "payTypes": "", "shopTypes": "", "consumeTypes": null, "cookTypes": null, "orderNum": null, "card4no": null, "card4noAcc": null, "district2": null, "searchScope": null, "status": null, "address": "", "name": null, "id": null, "pageNo": 303, "pageCount": null, "pageSize": 10, "ids": null, "endTime": null, "startTime": null}, "list": [{"cardNumFive": null, "isSupportYj": null, "cityName": null, "districtName": null, "shopinfo": {"mid": "888888857220002", "good_flag": "1", "new_flag": "2", "short_name": "\u5b8f\u56fe\u4e09\u80de", "short_name_pinyin": "hongtusanbao", "status": null, "address": null, "name": null, "id": "31815"}, "mid": "888888857220002", "shopId": "31815", "netid": null, "province": 901, "district": 601, "zipcode": "200093", "telephone": "55968395", "posDate": "20070218", "destineTel": null, "togoTel": null, "trafficWay": "\u516c\u4ea414 220", "signBuilding": null, "businessArea": "2000~6000\u5e73\u7c73", "selfRoom": "\u65e0", "businessTime": "10:00~20:00", "stall": "\u65e0", "consume": null, "serviceFei": null, "favourable": null, "shopMemo": null, "appraise": null, "website": null, "memo": null, "payTypes": "\u6749\u5fb7\u5361", "shopTypes": "\u8d85\u5e02,\u4e13\u5356", "consumeTypes": null, "cookTypes": null, "orderNum": 1000, "card4no": null, "card4noAcc": null, "district2": 407, "searchScope": null, "status": 1, "address": "\u63a7\u6c5f\u8def1686\u53f7", "name": "\u5b8f\u56fe\u4e09\u80de \u63a7\u6c5f\u5e97", "id": 135309, "pageNo": 0, "pageCount": null, "pageSize": 10, "ids": null, "endTime": null, "startTime": null}, {"cardNumFive": null, "isSupportYj": null, "cityName": null, "districtName": null, "shopinfo": {"mid": "888888857220002", "good_flag": "1", "new_flag": "2", "short_name": "\u5b8f\u56fe\u4e09\u80de", "short_name_pinyin": "hongtusanbao", "status": null, "address": null, "name": null, "id": "31815"}, "mid": "888888857220002", "shopId": "31815", "netid": null, "province": 901, "district": 601, "zipcode": "201101", "telephone": "64590953", "posDate": "20070409", "destineTel": "64590953", "togoTel": "64590953", "trafficWay": "92B\u7ebf 953", "signBuilding": null, "businessArea": "2000~6000\u5e73\u7c73", "selfRoom": "\u65e0", "businessTime": "10:00~20:00", "stall": "\u65e0", "consume": null, "serviceFei": null, "favourable": null, "shopMemo": null, "appraise": null, "website": null, "memo": null, "payTypes": "\u6749\u5fb7\u5361", "shopTypes": "\u8d85\u5e02,\u4e13\u5356", "consumeTypes": null, "cookTypes": null, "orderNum": 1000, "card4no": null, "card4noAcc": null, "district2": 409, "searchScope": null, "status": 1, "address": "\u4e03\u8398\u8def3029\u53f7", "name": "\u5b8f\u56fe\u4e09\u80de \u4e03\u5b9d\u5e97", "id": 135313, "pageNo": 0, "pageCount": null, "pageSize": 10, "ids": null, "endTime": null, "startTime": null}, {"cardNumFive": null, "isSupportYj": null, "cityName": null, "districtName": null, "shopinfo": {"mid": "888888857220002", "good_flag": null, "new_flag": null, "short_name": "\u5b8f\u56fe\u4e09\u80de", "short_name_pinyin": "hongtusanbao", "status": null, "address": null, "name": null, "id": "39221"}, "mid": "888888857220002", "shopId": "39221", "netid": null, "province": 901, "district": 601, "zipcode": null, "telephone": null, "posDate": null, "destineTel": null, "togoTel": null, "trafficWay": null, "signBuilding": null, "businessArea": null, "selfRoom": null, "businessTime": null, "stall": null, "consume": null, "serviceFei": null, "favourable": null, "shopMemo": null, "appraise": null, "website": null, "memo": null, "payTypes": "\u6749\u5fb7\u5361", "shopTypes": "\u8d85\u5e02", "consumeTypes": null, "cookTypes": null, "orderNum": 1000, "card4no": null, "card4noAcc": null, "district2": 418, "searchScope": null, "status": 1, "address": "\u5357\u6cc9\u5317\u8def588\u53f7NLF003\u5546\u94fa", "name": "\u5b8f\u56fe\u4e09\u80de \u65b0\u5927\u9646\u5e97", "id": 167371, "pageNo": 0, "pageCount": null, "pageSize": 10, "ids": null, "endTime": null, "startTime": null}, {"cardNumFive": null, "isSupportYj": null, "cityName": null, "districtName": null, "shopinfo": {"mid": "888888880430004", "good_flag": "2", "new_flag": "2", "short_name": "\u7ea2\u661f\u773c\u955c", "short_name_pinyin": "hongxingyanjing", "status": null, "address": null, "name": null, "id": "31798"}, "mid": "888888880430004", "shopId": "31798", "netid": null, "province": 901, "district": 601, "zipcode": "200062", "telephone": "62220107", "posDate": "20070116", "destineTel": "62220107", "togoTel": "62220107", "trafficWay": "\u516c\u4ea444", "signBuilding": null, "businessArea": "50~150\u5e73\u7c73", "selfRoom": "\u65e0", "businessTime": "9:00~21:00", "stall": "\u65e0", "consume": null, "serviceFei": null, "favourable": null, "shopMemo": null, "appraise": null, "website": null, "memo": "\u5173\u4e8e\u5361\u62bc\u91d1\u6d88\u8d39\u7684\u5177\u4f53\u4e8b\u5b9c\uff0c\u8bf7\u81f4\u7535\u5404\u95e8\u5e97\u3002", "payTypes": ",,\u6749\u5fb7\u5361", "shopTypes": "\u4e13\u5356,\u96f6\u552e", "consumeTypes": null, "cookTypes": null, "orderNum": 1000, "card4no": null, "card4noAcc": null, "district2": 405, "searchScope": null, "status": 1, "address": "\u5170\u6eaa\u8def152\u53f7", "name": "\u7ea2\u661f\u773c\u955c \u66f9\u6768\u5e97", "id": 135242, "pageNo": 0, "pageCount": null, "pageSize": 10, "ids": null, "endTime": null, "startTime": null}, {"cardNumFive": null, "isSupportYj": null, "cityName": null, "districtName": null, "shopinfo": {"mid": "888888880430005", "good_flag": "2", "new_flag": "2", "short_name": "\u7ea2\u661f\u773c\u955c", "short_name_pinyin": "hongxingyanjing", "status": null, "address": null, "name": null, "id": "31800"}, "mid": "888888880430005", "shopId": "31800", "netid": null, "province": 901, "district": 601, "zipcode": "200336", "telephone": "62427048", "posDate": "20070207", "destineTel": "62427048", "togoTel": "62427048", "trafficWay": "\u4e0a\u6731\u7ebf", "signBuilding": null, "businessArea": "50~150\u5e73\u7c73", "selfRoom": "\u65e0", "businessTime": "9:00~21:00", "stall": "\u65e0", "consume": null, "serviceFei": null, "favourable": null, "shopMemo": null, "appraise": null, "website": null, "memo": null, "payTypes": "\u6749\u5fb7\u5361", "shopTypes": "\u96f6\u552e,\u4e13\u5356", "consumeTypes": null, "cookTypes": null, "orderNum": 1000, "card4no": null, "card4noAcc": null, "district2": 406, "searchScope": null, "status": 1, "address": "\u7a0b\u5bb6\u6865\u8def37\u53f7", "name": "\u7ea2\u661f\u773c\u955c \u7a0b\u5bb6\u6865\u5e97", "id": 135244, "pageNo": 0, "pageCount": null, "pageSize": 10, "ids": null, "endTime": null, "startTime": null}, {"cardNumFive": null, "isSupportYj": null, "cityName": null, "districtName": null, "shopinfo": {"mid": "888888880430004", "good_flag": "2", "new_flag": "2", "short_name": "\u7ea2\u661f\u773c\u955c", "short_name_pinyin": "hongxingyanjing", "status": null, "address": null, "name": null, "id": "31798"}, "mid": "888888880430004", "shopId": "31798", "netid": null, "province": 901, "district": 601, "zipcode": "200081", "telephone": "63240764", "posDate": "20070112", "destineTel": "63240764", "togoTel": "63240764", "trafficWay": "\u516c\u4ea4939 \u65c5\u6e3810\u53f7\u7ebf \u7533\u5ddd\u7ebf", "signBuilding": null, "businessArea": null, "selfRoom": "\u65e0", "businessTime": "9:00~21:00", "stall": "\u65e0", "consume": null, "serviceFei": null, "favourable": null, "shopMemo": null, "appraise": null, "website": null, "memo": "\u5173\u4e8e\u5361\u62bc\u91d1\u6d88\u8d39\u7684\u5177\u4f53\u4e8b\u5b9c\uff0c\u8bf7\u81f4\u7535\u5404\u95e8\u5e97\u3002", "payTypes": ",,\u6749\u5fb7\u5361", "shopTypes": "\u4e13\u5356,\u96f6\u552e", "consumeTypes": null, "cookTypes": null, "orderNum": 1000, "card4no": null, "card4noAcc": null, "district2": 408, "searchScope": null, "status": 1, "address": "\u56db\u5ddd\u5317\u8def1279\u53f7", "name": "\u7ea2\u661f\u773c\u955c \u6d77\u5b81\u5e97", "id": 135248, "pageNo": 0, "pageCount": null, "pageSize": 10, "ids": null, "endTime": null, "startTime": null}, {"cardNumFive": null, "isSupportYj": null, "cityName": null, "districtName": null, "shopinfo": {"mid": "888888880430004", "good_flag": "2", "new_flag": "2", "short_name": "\u7ea2\u661f\u773c\u955c", "short_name_pinyin": "hongxingyanjing", "status": null, "address": null, "name": null, "id": "31798"}, "mid": "888888880430004", "shopId": "31798", "netid": null, "province": 901, "district": 601, "zipcode": "200020", "telephone": "53065069/53067869", "posDate": "20070112", "destineTel": "53065069/53067869", "togoTel": "53065069/53067869", "trafficWay": "\u6caa\u6606\u7ebf 945 02", "signBuilding": null, "businessArea": "50~150\u5e73\u7c73", "selfRoom": "\u65e0", "businessTime": "9:00~21:00", "stall": "\u65e0", "consume": null, "serviceFei": null, "favourable": null, "shopMemo": null, "appraise": null, "website": null, "memo": "\u5173\u4e8e\u5361\u62bc\u91d1\u6d88\u8d39\u7684\u5177\u4f53\u4e8b\u5b9c\uff0c\u8bf7\u81f4\u7535\u5404\u95e8\u5e97\u3002", "payTypes": ",,\u6749\u5fb7\u5361", "shopTypes": "\u4e13\u5356,\u96f6\u552e", "consumeTypes": null, "cookTypes": null, "orderNum": 1000, "card4no": null, "card4noAcc": null, "district2": 401, "searchScope": null, "status": 1, "address": "\u6dee\u6d77\u4e2d\u8def594-598\u53f7", "name": "\u7ea2\u661f\u773c\u955c \u6dee\u6d77\u4e2d\u8def\u603b\u5e97", "id": 135251, "pageNo": 0, "pageCount": null, "pageSize": 10, "ids": null, "endTime": null, "startTime": null}, {"cardNumFive": null, "isSupportYj": null, "cityName": null, "districtName": null, "shopinfo": {"mid": "888888880430004", "good_flag": "2", "new_flag": "2", "short_name": "\u7ea2\u661f\u773c\u955c", "short_name_pinyin": "hongxingyanjing", "status": null, "address": null, "name": null, "id": "31798"}, "mid": "888888880430004", "shopId": "31798", "netid": null, "province": 901, "district": 601, "zipcode": "200030", "telephone": "64268114", "posDate": "20070112", "destineTel": "64268114", "togoTel": "64268114", "trafficWay": "\u5730\u94c1\u4e00\u53f7\u7ebf 43\u533a\u95f4 50 49 572 830", "signBuilding": "\u7f8e\u7f57\u57ce1F", "businessArea": "50~150\u5e73\u7c73", "selfRoom": "\u65e0", "businessTime": "9:00~21:00", "stall": "\u65e0", "consume": null, "serviceFei": null, "favourable": null, "shopMemo": null, "appraise": null, "website": null, "memo": "\u5173\u4e8e\u5361\u62bc\u91d1\u6d88\u8d39\u7684\u5177\u4f53\u4e8b\u5b9c\uff0c\u8bf7\u81f4\u7535\u5404\u95e8\u5e97\u3002", "payTypes": ",,,\u6749\u5fb7\u5361", "shopTypes": "\u4e13\u5356,\u96f6\u552e", "consumeTypes": null, "cookTypes": null, "orderNum": 1000, "card4no": null, "card4noAcc": null, "district2": 403, "searchScope": null, "status": 1, "address": "\u8087\u5609\u6d5c\u8def1111\u53f7\u7f8e\u7f57\u57ce1F", "name": "\u7ea2\u661f\u773c\u955c \u7f8e\u7f57\u5e97", "id": 135255, "pageNo": 0, "pageCount": null, "pageSize": 10, "ids": null, "endTime": null, "startTime": null}, {"cardNumFive": null, "isSupportYj": null, "cityName": null, "districtName": null, "shopinfo": {"mid": "888888880430004", "good_flag": "2", "new_flag": "2", "short_name": "\u7ea2\u661f\u773c\u955c", "short_name_pinyin": "hongxingyanjing", "status": null, "address": null, "name": null, "id": "31798"}, "mid": "888888880430004", "shopId": "31798", "netid": null, "province": 901, "district": 601, "zipcode": "201900", "telephone": "56781433", "posDate": "20070118", "destineTel": "56781433", "togoTel": "56781433", "trafficWay": "\u516c\u4ea4952B\u7ebf \u5b9d\u5c712 \u5730\u94c1\u4e09\u53f7\u7ebf", "signBuilding": null, "businessArea": null, "selfRoom": "\u65e0", "businessTime": "9:00~21:00", "stall": "\u65e0", "consume": null, "serviceFei": null, "favourable": null, "shopMemo": null, "appraise": null, "website": null, "memo": "\u5173\u4e8e\u5361\u62bc\u91d1\u6d88\u8d39\u7684\u5177\u4f53\u4e8b\u5b9c\uff0c\u8bf7\u81f4\u7535\u5404\u95e8\u5e97\u3002", "payTypes": ",,\u6749\u5fb7\u5361", "shopTypes": "\u4e13\u5356,\u96f6\u552e", "consumeTypes": null, "cookTypes": null, "orderNum": 1000, "card4no": null, "card4noAcc": null, "district2": 416, "searchScope": null, "status": 1, "address": "\u7261\u4e39\u6c5f\u8def1761\u53f7", "name": "\u7ea2\u661f\u773c\u955c \u7261\u4e39\u6c5f\u5e97", "id": 135256, "pageNo": 0, "pageCount": null, "pageSize": 10, "ids": null, "endTime": null, "startTime": null}, {"cardNumFive": null, "isSupportYj": null, "cityName": null, "districtName": null, "shopinfo": {"mid": "888888880430004", "good_flag": "2", "new_flag": "2", "short_name": "\u7ea2\u661f\u773c\u955c", "short_name_pinyin": "hongxingyanjing", "status": null, "address": null, "name": null, "id": "31798"}, "mid": "888888880430004", "shopId": "31798", "netid": null, "province": 901, "district": 601, "zipcode": "200001", "telephone": "63511147", "posDate": "20070111", "destineTel": "63511147", "togoTel": "63511147", "trafficWay": "\u5730\u94c1\u4e00\u53f7\u7ebf \u5730\u94c1\u4e8c\u53f7\u7ebf \u65c5\u6e3810\u53f7\u7ebf", "signBuilding": null, "businessArea": "50~150\u5e73\u7c73", "selfRoom": "\u65e0", "businessTime": "9:00~21:00", "stall": "\u65e0", "consume": null, "serviceFei": null, "favourable": null, "shopMemo": null, "appraise": null, "website": null, "memo": "\u5173\u4e8e\u5361\u62bc\u91d1\u6d88\u8d39\u7684\u5177\u4f53\u4e8b\u5b9c\uff0c\u8bf7\u81f4\u7535\u5404\u95e8\u5e97\u3002", "payTypes": ",,\u6749\u5fb7\u5361", "shopTypes": "\u4e13\u5356,\u96f6\u552e", "consumeTypes": null, "cookTypes": null, "orderNum": 1000, "card4no": null, "card4noAcc": null, "district2": 401, "searchScope": null, "status": 1, "address": "\u5357\u4eac\u4e1c\u8def518\u53f7", "name": "\u7ea2\u661f\u773c\u955c \u5357\u4e1c\u5e97", "id": 135257, "pageNo": 0, "pageCount": null, "pageSize": 10, "ids": null, "endTime": null, "startTime": null}], "pageLimit": 3030, "size": 10}