{"pageCount": 1095, "count": 10942, "pageNo": 307, "subShopInfo": {"cardNumFive": "", "isSupportYj": "", "cityName": null, "districtName": null, "shopinfo": {"mid": null, "good_flag": null, "new_flag": null, "short_name": null, "short_name_pinyin": null, "status": null, "address": "", "name": "", "id": null}, "mid": null, "shopId": null, "netid": null, "province": 901, "district": null, "zipcode": null, "telephone": null, "posDate": null, "destineTel": null, "togoTel": null, "trafficWay": null, "signBuilding": null, "businessArea": null, "selfRoom": null, "businessTime": null, "stall": null, "consume": null, "serviceFei": null, "favourable": null, "shopMemo": "1", "appraise": null, "website": null, "memo": null, "payTypes": "", "shopTypes": "", "consumeTypes": null, "cookTypes": null, "orderNum": null, "card4no": null, "card4noAcc": null, "district2": null, "searchScope": null, "status": null, "address": "", "name": null, "id": null, "pageNo": 306, "pageCount": null, "pageSize": 10, "ids": null, "endTime": null, "startTime": null}, "list": [{"cardNumFive": null, "isSupportYj": null, "cityName": null, "districtName": null, "shopinfo": {"mid": "888888853110066", "good_flag": "2", "new_flag": "2", "short_name": "\u5b8f\u4f0a\u5e7f\u573a", "short_name_pinyin": "hongyiguangchang", "status": null, "address": null, "name": null, "id": "31816"}, "mid": "888888853110066", "shopId": "31816", "netid": null, "province": 901, "district": 601, "zipcode": null, "telephone": null, "posDate": "20080116", "destineTel": null, "togoTel": null, "trafficWay": "\u5730\u94c1\u4e00\u53f7\u7ebf \u5730\u94c1\u4e8c\u53f7\u7ebf", "signBuilding": "\u5357\u4eac\u4e1c\u8def\u6b65\u884c\u8857", "businessArea": "\u5927\u578b\u8d2d\u7269\u5e7f\u573a", "selfRoom": null, "businessTime": "10:00~22:00", "stall": "\u6709", "consume": null, "serviceFei": null, "favourable": null, "shopMemo": null, "appraise": null, "website": null, "memo": null, "payTypes": "\u6749\u5fb7\u5361", "shopTypes": "\u767e\u8d27", "consumeTypes": null, "cookTypes": null, "orderNum": 1000, "card4no": null, "card4noAcc": null, "district2": 401, "searchScope": null, "status": 1, "address": "\u5357\u4eac\u4e1c\u8def299\u53f7", "name": "\u5b8f\u4f0a\u5e7f\u573a \u5357\u4eac\u4e1c\u8def", "id": 135322, "pageNo": 0, "pageCount": null, "pageSize": 10, "ids": null, "endTime": null, "startTime": null}, {"cardNumFive": null, "isSupportYj": null, "cityName": null, "districtName": null, "shopinfo": {"mid": "888888858120100", "good_flag": "2", "new_flag": "2", "short_name": "\u7ea2\u5b50\u9e21", "short_name_pinyin": "hongziji", "status": null, "address": null, "name": null, "id": "31809"}, "mid": "888888858120100", "shopId": "31809", "netid": null, "province": 901, "district": 601, "zipcode": "200060", "telephone": "62661188", "posDate": "20070104", "destineTel": "62661188", "togoTel": "62661188", "trafficWay": "\u5730\u94c1\u4e00\u53f7\u7ebf 830", "signBuilding": null, "businessArea": null, "selfRoom": "\u6709", "businessTime": "11:00~14:00 17:00~22:00", "stall": "\u65e0", "consume": "126\u5143", "serviceFei": null, "favourable": null, "shopMemo": "\u7ea2\u5b50\u9e21 \u7d2b\u83dc\u6d77\u9c9c\u5377 \u5bb6\u4e61\u6392\u9aa8 \u6d77\u9c9c", "appraise": null, "website": null, "memo": null, "payTypes": "\u6749\u5fb7\u5361", "shopTypes": "\u9910\u996e", "consumeTypes": "\u5bb6\u4eba\u56e2\u805a \u597d\u53cb\u5c0f\u805a \u4f11\u95f2\u5c31\u9910 \u5546\u52a1\u5bb4\u8bf7", "cookTypes": "\u7ca4\u83dc", "orderNum": 1000, "card4no": null, "card4noAcc": null, "district2": 405, "searchScope": null, "status": 1, "address": "\u6fb3\u95e8\u8def188\u53f7", "name": "\u7ea2\u5b50\u9e21 \u6fb3\u95e8\u5e97", "id": 135290, "pageNo": 0, "pageCount": null, "pageSize": 10, "ids": null, "endTime": null, "startTime": null}, {"cardNumFive": null, "isSupportYj": null, "cityName": null, "districtName": null, "shopinfo": {"mid": "888888858120113", "good_flag": "2", "new_flag": "2", "short_name": "\u7ea2\u5b50\u9e21", "short_name_pinyin": "hongziji", "status": null, "address": null, "name": null, "id": "31810"}, "mid": "888888858120113", "shopId": "31810", "netid": null, "province": 901, "district": 601, "zipcode": "200102", "telephone": "64659797", "posDate": "20070131", "destineTel": "64659797", "togoTel": "64659797", "trafficWay": "\u4e0a\u6731\u7ebf 809", "signBuilding": null, "businessArea": null, "selfRoom": "\u65e0", "businessTime": "11:00~22:00", "stall": "\u65e0", "consume": null, "serviceFei": null, "favourable": null, "shopMemo": null, "appraise": null, "website": null, "memo": null, "payTypes": "\u6749\u5fb7\u5361", "shopTypes": "\u9910\u996e", "consumeTypes": "\u5bb6\u4eba\u56e2\u805a \u597d\u53cb\u5c0f\u805a \u4f11\u95f2\u5c31\u9910 \u5546\u52a1\u5bb4\u8bf7 \u6d6a\u6f2b\u7ea6\u4f1a", "cookTypes": "\u7ca4\u83dc", "orderNum": 1000, "card4no": null, "card4noAcc": null, "district2": 406, "searchScope": null, "status": 1, "address": "\u7a0b\u5bb6\u6865\u8def175\u7532", "name": "\u7ea2\u5b50\u9e21 \u8679\u6865\u5e97", "id": 135291, "pageNo": 0, "pageCount": null, "pageSize": 10, "ids": null, "endTime": null, "startTime": null}, {"cardNumFive": null, "isSupportYj": null, "cityName": null, "districtName": null, "shopinfo": {"mid": "888002180210076", "good_flag": null, "new_flag": null, "short_name": "\u534e\u9a70\u53e3\u8154", "short_name_pinyin": "huachikouqiang", "status": null, "address": null, "name": null, "id": "41884"}, "mid": "888002180210076", "shopId": "41884", "netid": null, "province": 901, "district": 601, "zipcode": null, "telephone": null, "posDate": null, "destineTel": null, "togoTel": null, "trafficWay": null, "signBuilding": null, "businessArea": null, "selfRoom": null, "businessTime": null, "stall": null, "consume": null, "serviceFei": null, "favourable": null, "shopMemo": null, "appraise": null, "website": null, "memo": null, "payTypes": "\u6749\u5fb7\u5361", "shopTypes": "\u5176\u4ed6", "consumeTypes": null, "cookTypes": null, "orderNum": 1000, "card4no": null, "card4noAcc": null, "district2": 401, "searchScope": null, "status": 1, "address": "\u897f\u85cf\u5357\u8def758\u53f74\u697cC\u5ba4", "name": "\u534e\u9a70\u53e3\u8154 \u897f\u85cf\u5357\u8def\u5e97", "id": 186262, "pageNo": 0, "pageCount": null, "pageSize": 10, "ids": null, "endTime": null, "startTime": null}, {"cardNumFive": null, "isSupportYj": null, "cityName": null, "districtName": null, "shopinfo": {"mid": "888888853110004", "good_flag": "2", "new_flag": "1", "short_name": "\u6dee\u6d77\u9752\u5c11\u5e74\u7528\u54c1", "short_name_pinyin": "huaihaiqingshaonianyongpin", "status": null, "address": null, "name": null, "id": "31919"}, "mid": "888888853110004", "shopId": "31919", "netid": null, "province": 901, "district": 601, "zipcode": null, "telephone": null, "posDate": "20100603", "destineTel": null, "togoTel": null, "trafficWay": null, "signBuilding": null, "businessArea": null, "selfRoom": null, "businessTime": null, "stall": null, "consume": null, "serviceFei": null, "favourable": null, "shopMemo": null, "appraise": null, "website": null, "memo": null, "payTypes": "\u6749\u5fb7\u5361", "shopTypes": "\u767e\u8d27", "consumeTypes": null, "cookTypes": null, "orderNum": 1000, "card4no": null, "card4noAcc": null, "district2": 418, "searchScope": null, "status": 1, "address": "\u5ddd\u6c99\u8def5558\u53f75\u53f7\u697c\u4e00\u697c", "name": "\u6dee\u6d77\u9752\u5c11\u5e74\u7528\u54c1 \u5ddd\u6c99\u8def\u5e97", "id": 135704, "pageNo": 0, "pageCount": null, "pageSize": 10, "ids": null, "endTime": null, "startTime": null}, {"cardNumFive": null, "isSupportYj": null, "cityName": null, "districtName": null, "shopinfo": {"mid": "888888854110034", "good_flag": "2", "new_flag": "2", "short_name": "\u534e\u8054\u8d85\u5e02", "short_name_pinyin": "hualianchaoshi", "status": null, "address": null, "name": null, "id": "31839"}, "mid": "888888854110034", "shopId": "31839", "netid": null, "province": 901, "district": 601, "zipcode": null, "telephone": "65664541", "posDate": "20070417", "destineTel": null, "togoTel": null, "trafficWay": "\u516c\u4ea4135", "signBuilding": null, "businessArea": "500\u81f31000\u5e73\u65b9\u7c73", "selfRoom": null, "businessTime": null, "stall": "\u6709", "consume": null, "serviceFei": null, "favourable": null, "shopMemo": null, "appraise": null, "website": null, "memo": null, "payTypes": "\u6749\u5fb7\u5361", "shopTypes": "\u8d85\u5e02", "consumeTypes": null, "cookTypes": null, "orderNum": 1000, "card4no": null, "card4noAcc": null, "district2": 407, "searchScope": null, "status": 1, "address": "\u7231\u56fd\u8def81\u53f7", "name": "\u534e\u8054\u8d85\u5e02 \u7231\u56fd\u8def\u5e97", "id": 135364, "pageNo": 0, "pageCount": null, "pageSize": 10, "ids": null, "endTime": null, "startTime": null}, {"cardNumFive": null, "isSupportYj": null, "cityName": null, "districtName": null, "shopinfo": {"mid": "888888854110034", "good_flag": "2", "new_flag": "2", "short_name": "\u534e\u8054\u8d85\u5e02", "short_name_pinyin": "hualianchaoshi", "status": null, "address": null, "name": null, "id": "31839"}, "mid": "888888854110034", "shopId": "31839", "netid": null, "province": 901, "district": 601, "zipcode": null, "telephone": "65136849", "posDate": "20090110", "destineTel": null, "togoTel": null, "trafficWay": "\u516c\u4ea4843 960 14", "signBuilding": null, "businessArea": null, "selfRoom": null, "businessTime": null, "stall": null, "consume": null, "serviceFei": null, "favourable": null, "shopMemo": null, "appraise": null, "website": null, "memo": null, "payTypes": "\u6749\u5fb7\u5361", "shopTypes": "\u8d85\u5e02", "consumeTypes": null, "cookTypes": null, "orderNum": 1000, "card4no": null, "card4noAcc": null, "district2": 407, "searchScope": null, "status": 1, "address": "\u978d\u5c71\u8def101\u53f7", "name": "\u534e\u8054\u8d85\u5e02 \u978d\u5c71\u5e97", "id": 135366, "pageNo": 0, "pageCount": null, "pageSize": 10, "ids": null, "endTime": null, "startTime": null}, {"cardNumFive": null, "isSupportYj": null, "cityName": null, "districtName": null, "shopinfo": {"mid": "888002153310032", "good_flag": "2", "new_flag": "1", "short_name": "\u534e\u8054\u8d85\u5e02", "short_name_pinyin": "hualianchaoshi", "status": null, "address": null, "name": null, "id": "31841"}, "mid": "888002153310032", "shopId": "31841", "netid": null, "province": 901, "district": 601, "zipcode": null, "telephone": "33608159", "posDate": null, "destineTel": null, "togoTel": null, "trafficWay": null, "signBuilding": null, "businessArea": null, "selfRoom": null, "businessTime": null, "stall": null, "consume": null, "serviceFei": null, "favourable": null, "shopMemo": null, "appraise": null, "website": null, "memo": null, "payTypes": "\u6749\u5fb7\u5361", "shopTypes": "\u8d85\u5e02", "consumeTypes": null, "cookTypes": null, "orderNum": 1000, "card4no": null, "card4noAcc": null, "district2": 405, "searchScope": null, "status": 1, "address": "\u666e\u9640\u533a\u767d\u7389\u8def21\u53f7", "name": "\u534e\u8054\u8d85\u5e02 \u767d\u7389\u8def\u5e97", "id": 135367, "pageNo": 0, "pageCount": null, "pageSize": 10, "ids": null, "endTime": null, "startTime": null}, {"cardNumFive": null, "isSupportYj": null, "cityName": null, "districtName": null, "shopinfo": {"mid": "888888854110034", "good_flag": "2", "new_flag": "2", "short_name": "\u534e\u8054\u8d85\u5e02", "short_name_pinyin": "hualianchaoshi", "status": null, "address": null, "name": null, "id": "31839"}, "mid": "888888854110034", "shopId": "31839", "netid": null, "province": 901, "district": 601, "zipcode": null, "telephone": null, "posDate": null, "destineTel": null, "togoTel": null, "trafficWay": "6\u300119\u300125\u300147", "signBuilding": null, "businessArea": null, "selfRoom": null, "businessTime": null, "stall": null, "consume": null, "serviceFei": null, "favourable": null, "shopMemo": null, "appraise": null, "website": null, "memo": null, "payTypes": "\u6749\u5fb7\u5361", "shopTypes": "\u8d85\u5e02", "consumeTypes": null, "cookTypes": null, "orderNum": 1000, "card4no": null, "card4noAcc": null, "district2": 408, "searchScope": null, "status": 1, "address": "\u4fdd\u5b9a\u8def437\u53f7", "name": "\u534e\u8054\u8d85\u5e02 \u4fdd\u5b9a\u5e97", "id": 135370, "pageNo": 0, "pageCount": null, "pageSize": 10, "ids": null, "endTime": null, "startTime": null}, {"cardNumFive": null, "isSupportYj": null, "cityName": null, "districtName": null, "shopinfo": {"mid": "888888854110079", "good_flag": "2", "new_flag": "2", "short_name": "\u534e\u8054\u8d85\u5e02", "short_name_pinyin": "hualianchaoshi", "status": null, "address": null, "name": null, "id": "31844"}, "mid": "888888854110079", "shopId": "31844", "netid": null, "province": 901, "district": 601, "zipcode": null, "telephone": "34120899", "posDate": "20090106", "destineTel": null, "togoTel": null, "trafficWay": "\u516c\u4ea4704 732", "signBuilding": null, "businessArea": null, "selfRoom": null, "businessTime": null, "stall": null, "consume": null, "serviceFei": null, "favourable": null, "shopMemo": null, "appraise": null, "website": null, "memo": null, "payTypes": "\u6749\u5fb7\u5361", "shopTypes": "\u8d85\u5e02", "consumeTypes": null, "cookTypes": null, "orderNum": 1000, "card4no": null, "card4noAcc": null, "district2": 409, "searchScope": null, "status": 1, "address": "\u62a5\u6625\u8def423\u53f7-429\u53f7", "name": "\u534e\u8054\u8d85\u5e02 \u62a5\u6625\u5e97", "id": 135371, "pageNo": 0, "pageCount": null, "pageSize": 10, "ids": null, "endTime": null, "startTime": null}], "pageLimit": 3060, "size": 10}