{"pageCount": 1095, "count": 10942, "pageNo": 300, "subShopInfo": {"cardNumFive": "", "isSupportYj": "", "cityName": null, "districtName": null, "shopinfo": {"mid": null, "good_flag": null, "new_flag": null, "short_name": null, "short_name_pinyin": null, "status": null, "address": "", "name": "", "id": null}, "mid": null, "shopId": null, "netid": null, "province": 901, "district": null, "zipcode": null, "telephone": null, "posDate": null, "destineTel": null, "togoTel": null, "trafficWay": null, "signBuilding": null, "businessArea": null, "selfRoom": null, "businessTime": null, "stall": null, "consume": null, "serviceFei": null, "favourable": null, "shopMemo": "1", "appraise": null, "website": null, "memo": null, "payTypes": "", "shopTypes": "", "consumeTypes": null, "cookTypes": null, "orderNum": null, "card4no": null, "card4noAcc": null, "district2": null, "searchScope": null, "status": null, "address": "", "name": null, "id": null, "pageNo": 299, "pageCount": null, "pageSize": 10, "ids": null, "endTime": null, "startTime": null}, "list": [{"cardNumFive": null, "isSupportYj": null, "cityName": null, "districtName": null, "shopinfo": {"mid": "888888850940049", "good_flag": null, "new_flag": null, "short_name": "\u7ea2\u5b9d\u77f3", "short_name_pinyin": "hongbaoshi", "status": null, "address": null, "name": null, "id": "38657"}, "mid": "888888850940049", "shopId": "38657", "netid": null, "province": 901, "district": 601, "zipcode": null, "telephone": "62490085", "posDate": null, "destineTel": null, "togoTel": null, "trafficWay": null, "signBuilding": null, "businessArea": null, "selfRoom": null, "businessTime": null, "stall": null, "consume": null, "serviceFei": null, "favourable": null, "shopMemo": null, "appraise": null, "website": null, "memo": null, "payTypes": "\u6749\u5fb7\u5361", "shopTypes": "\u9762\u5305\u897f\u997c", "consumeTypes": null, "cookTypes": null, "orderNum": 1000, "card4no": null, "card4noAcc": null, "district2": 404, "searchScope": null, "status": 1, "address": "\u4e07\u822a\u6e21\u8def625\u53f7", "name": "\u7ea2\u5b9d\u77f3 \u4e07\u822a\u5e97", "id": 164063, "pageNo": 0, "pageCount": null, "pageSize": 10, "ids": null, "endTime": null, "startTime": null}, {"cardNumFive": null, "isSupportYj": null, "cityName": null, "districtName": null, "shopinfo": {"mid": "888888850940058", "good_flag": null, "new_flag": null, "short_name": "\u7ea2\u5b9d\u77f3", "short_name_pinyin": "hongbaoshi", "status": null, "address": null, "name": null, "id": "38658"}, "mid": "888888850940058", "shopId": "38658", "netid": null, "province": 901, "district": 601, "zipcode": null, "telephone": "62673725", "posDate": null, "destineTel": null, "togoTel": null, "trafficWay": null, "signBuilding": null, "businessArea": null, "selfRoom": null, "businessTime": null, "stall": null, "consume": null, "serviceFei": null, "favourable": null, "shopMemo": null, "appraise": null, "website": null, "memo": null, "payTypes": "\u6749\u5fb7\u5361", "shopTypes": "\u9762\u5305\u897f\u997c", "consumeTypes": null, "cookTypes": null, "orderNum": 1000, "card4no": null, "card4noAcc": null, "district2": 404, "searchScope": null, "status": 1, "address": "\u5434\u6c5f\u8def198\u53f7-1", "name": "\u7ea2\u5b9d\u77f3 \u5434\u6c5f\u5e97", "id": 164064, "pageNo": 0, "pageCount": null, "pageSize": 10, "ids": null, "endTime": null, "startTime": null}, {"cardNumFive": null, "isSupportYj": null, "cityName": null, "districtName": null, "shopinfo": {"mid": "888888850940050", "good_flag": null, "new_flag": null, "short_name": "\u7ea2\u5b9d\u77f3", "short_name_pinyin": "hongbaoshi", "status": null, "address": null, "name": null, "id": "38659"}, "mid": "888888850940050", "shopId": "38659", "netid": null, "province": 901, "district": 601, "zipcode": null, "telephone": "52062856", "posDate": null, "destineTel": null, "togoTel": null, "trafficWay": null, "signBuilding": null, "businessArea": null, "selfRoom": null, "businessTime": null, "stall": null, "consume": null, "serviceFei": null, "favourable": null, "shopMemo": null, "appraise": null, "website": null, "memo": null, "payTypes": "\u6749\u5fb7\u5361", "shopTypes": "\u9762\u5305\u897f\u997c", "consumeTypes": null, "cookTypes": null, "orderNum": 1000, "card4no": null, "card4noAcc": null, "district2": 406, "searchScope": null, "status": 1, "address": "\u6b66\u5937\u8def725\u53f7", "name": "\u7ea2\u5b9d\u77f3 \u6b66\u5937\u8def", "id": 164066, "pageNo": 0, "pageCount": null, "pageSize": 10, "ids": null, "endTime": null, "startTime": null}, {"cardNumFive": null, "isSupportYj": null, "cityName": null, "districtName": null, "shopinfo": {"mid": "888888850940055", "good_flag": null, "new_flag": null, "short_name": "\u7ea2\u5b9d\u77f3", "short_name_pinyin": "hongbaoshi", "status": null, "address": null, "name": null, "id": "38661"}, "mid": "888888850940055", "shopId": "38661", "netid": null, "province": 901, "district": 601, "zipcode": null, "telephone": "56618805", "posDate": null, "destineTel": null, "togoTel": null, "trafficWay": null, "signBuilding": null, "businessArea": null, "selfRoom": null, "businessTime": null, "stall": null, "consume": null, "serviceFei": null, "favourable": null, "shopMemo": null, "appraise": null, "website": null, "memo": null, "payTypes": "\u6749\u5fb7\u5361", "shopTypes": "\u9762\u5305\u897f\u997c", "consumeTypes": null, "cookTypes": null, "orderNum": 1000, "card4no": null, "card4noAcc": null, "district2": 405, "searchScope": null, "status": 1, "address": "\u65b0\u6751\u8def393\u53f7", "name": "\u7ea2\u5b9d\u77f3 \u65b0\u6751\u5e97", "id": 164068, "pageNo": 0, "pageCount": null, "pageSize": 10, "ids": null, "endTime": null, "startTime": null}, {"cardNumFive": null, "isSupportYj": null, "cityName": null, "districtName": null, "shopinfo": {"mid": "888002154410023", "good_flag": null, "new_flag": null, "short_name": "\u7ea2\u5b9d\u77f3", "short_name_pinyin": "hongbaoshi", "status": null, "address": null, "name": null, "id": "38654"}, "mid": "888002154410023", "shopId": "38654", "netid": null, "province": 901, "district": 601, "zipcode": null, "telephone": "52586966", "posDate": null, "destineTel": null, "togoTel": null, "trafficWay": null, "signBuilding": null, "businessArea": null, "selfRoom": null, "businessTime": null, "stall": null, "consume": null, "serviceFei": null, "favourable": null, "shopMemo": null, "appraise": null, "website": null, "memo": null, "payTypes": "\u6749\u5fb7\u5361", "shopTypes": "\u9762\u5305\u897f\u997c", "consumeTypes": null, "cookTypes": null, "orderNum": 1000, "card4no": null, "card4noAcc": null, "district2": 406, "searchScope": null, "status": 1, "address": "\u65b0\u534e\u8def664\u53f7", "name": "\u7ea2\u5b9d\u77f3 \u65b0\u534e\u5e97", "id": 164069, "pageNo": 0, "pageCount": null, "pageSize": 10, "ids": null, "endTime": null, "startTime": null}, {"cardNumFive": null, "isSupportYj": null, "cityName": null, "districtName": null, "shopinfo": {"mid": "888888850940044", "good_flag": null, "new_flag": null, "short_name": "\u7ea2\u5b9d\u77f3", "short_name_pinyin": "hongbaoshi", "status": null, "address": null, "name": null, "id": "38662"}, "mid": "888888850940044", "shopId": "38662", "netid": null, "province": 901, "district": 601, "zipcode": null, "telephone": "62563716", "posDate": null, "destineTel": null, "togoTel": null, "trafficWay": null, "signBuilding": null, "businessArea": null, "selfRoom": null, "businessTime": null, "stall": null, "consume": null, "serviceFei": null, "favourable": null, "shopMemo": null, "appraise": null, "website": null, "memo": null, "payTypes": "\u6749\u5fb7\u5361", "shopTypes": "\u9762\u5305\u897f\u997c", "consumeTypes": null, "cookTypes": null, "orderNum": 1000, "card4no": null, "card4noAcc": null, "district2": 401, "searchScope": null, "status": 1, "address": "\u65b0\u95f8\u8def1384\u53f7", "name": "\u7ea2\u5b9d\u77f3 \u65b0\u95f8\u5e97", "id": 164070, "pageNo": 0, "pageCount": null, "pageSize": 10, "ids": null, "endTime": null, "startTime": null}, {"cardNumFive": null, "isSupportYj": null, "cityName": null, "districtName": null, "shopinfo": {"mid": "888888850940057", "good_flag": null, "new_flag": null, "short_name": "\u7ea2\u5b9d\u77f3", "short_name_pinyin": "hongbaoshi", "status": null, "address": null, "name": null, "id": "38663"}, "mid": "888888850940057", "shopId": "38663", "netid": null, "province": 901, "district": 601, "zipcode": null, "telephone": "66403675", "posDate": null, "destineTel": null, "togoTel": null, "trafficWay": null, "signBuilding": null, "businessArea": null, "selfRoom": null, "businessTime": null, "stall": null, "consume": null, "serviceFei": null, "favourable": null, "shopMemo": null, "appraise": null, "website": null, "memo": null, "payTypes": "\u6749\u5fb7\u5361", "shopTypes": "\u9762\u5305\u897f\u997c", "consumeTypes": null, "cookTypes": null, "orderNum": 1000, "card4no": null, "card4noAcc": null, "district2": null, "searchScope": null, "status": 1, "address": "\u884c\u77e5\u8def448\u53f7", "name": "\u7ea2\u5b9d\u77f3 \u884c\u77e5\u5e97", "id": 164071, "pageNo": 0, "pageCount": null, "pageSize": 10, "ids": null, "endTime": null, "startTime": null}, {"cardNumFive": null, "isSupportYj": null, "cityName": null, "districtName": null, "shopinfo": {"mid": "888888850940063", "good_flag": null, "new_flag": null, "short_name": "\u7ea2\u5b9d\u77f3", "short_name_pinyin": "hongbaoshi", "status": null, "address": null, "name": null, "id": "38664"}, "mid": "888888850940063", "shopId": "38664", "netid": null, "province": 901, "district": 601, "zipcode": null, "telephone": "55890998", "posDate": null, "destineTel": null, "togoTel": null, "trafficWay": null, "signBuilding": null, "businessArea": null, "selfRoom": null, "businessTime": null, "stall": null, "consume": null, "serviceFei": null, "favourable": null, "shopMemo": null, "appraise": null, "website": null, "memo": null, "payTypes": "\u6749\u5fb7\u5361", "shopTypes": "\u9762\u5305\u897f\u997c", "consumeTypes": null, "cookTypes": null, "orderNum": 1000, "card4no": null, "card4noAcc": null, "district2": 408, "searchScope": null, "status": 1, "address": "\u4f0a\u654f\u6cb3\u8def85\u53f7", "name": "\u7ea2\u5b9d\u77f3 \u4f0a\u654f\u6cb3\u8def\u5e97", "id": 164072, "pageNo": 0, "pageCount": null, "pageSize": 10, "ids": null, "endTime": null, "startTime": null}, {"cardNumFive": null, "isSupportYj": null, "cityName": null, "districtName": null, "shopinfo": {"mid": "888888850940048", "good_flag": null, "new_flag": null, "short_name": "\u7ea2\u5b9d\u77f3", "short_name_pinyin": "hongbaoshi", "status": null, "address": null, "name": null, "id": "38665"}, "mid": "888888850940048", "shopId": "38665", "netid": null, "province": 901, "district": 601, "zipcode": null, "telephone": "20257506", "posDate": null, "destineTel": null, "togoTel": null, "trafficWay": null, "signBuilding": null, "businessArea": null, "selfRoom": null, "businessTime": null, "stall": null, "consume": null, "serviceFei": null, "favourable": null, "shopMemo": null, "appraise": null, "website": null, "memo": null, "payTypes": "\u6749\u5fb7\u5361", "shopTypes": "\u9762\u5305\u897f\u997c", "consumeTypes": null, "cookTypes": null, "orderNum": 1000, "card4no": null, "card4noAcc": null, "district2": 418, "searchScope": null, "status": 1, "address": "\u6768\u9ad8\u5357\u8def1685\u53f7", "name": "\u7ea2\u5b9d\u77f3 \u611a\u56ed\u5e97", "id": 164073, "pageNo": 0, "pageCount": null, "pageSize": 10, "ids": null, "endTime": null, "startTime": null}, {"cardNumFive": null, "isSupportYj": null, "cityName": null, "districtName": null, "shopinfo": {"mid": "888002154410023", "good_flag": null, "new_flag": null, "short_name": "\u7ea2\u5b9d\u77f3", "short_name_pinyin": "hongbaoshi", "status": null, "address": null, "name": null, "id": "38654"}, "mid": "888002154410023", "shopId": "38654", "netid": null, "province": 901, "district": 601, "zipcode": null, "telephone": "64152551", "posDate": null, "destineTel": null, "togoTel": null, "trafficWay": null, "signBuilding": null, "businessArea": null, "selfRoom": null, "businessTime": null, "stall": null, "consume": null, "serviceFei": null, "favourable": null, "shopMemo": null, "appraise": null, "website": null, "memo": null, "payTypes": "\u6749\u5fb7\u5361", "shopTypes": "\u9762\u5305\u897f\u997c", "consumeTypes": null, "cookTypes": null, "orderNum": 1000, "card4no": null, "card4noAcc": null, "district2": 403, "searchScope": null, "status": 1, "address": "\u8087\u5609\u6d5c\u8def12\u53f7", "name": "\u7ea2\u5b9d\u77f3 \u8087\u5609\u6d5c\u5e97", "id": 164074, "pageNo": 0, "pageCount": null, "pageSize": 10, "ids": null, "endTime": null, "startTime": null}], "pageLimit": 2990, "size": 10}