{"pageCount": 1095, "count": 10942, "pageNo": 301, "subShopInfo": {"cardNumFive": "", "isSupportYj": "", "cityName": null, "districtName": null, "shopinfo": {"mid": null, "good_flag": null, "new_flag": null, "short_name": null, "short_name_pinyin": null, "status": null, "address": "", "name": "", "id": null}, "mid": null, "shopId": null, "netid": null, "province": 901, "district": null, "zipcode": null, "telephone": null, "posDate": null, "destineTel": null, "togoTel": null, "trafficWay": null, "signBuilding": null, "businessArea": null, "selfRoom": null, "businessTime": null, "stall": null, "consume": null, "serviceFei": null, "favourable": null, "shopMemo": "1", "appraise": null, "website": null, "memo": null, "payTypes": "", "shopTypes": "", "consumeTypes": null, "cookTypes": null, "orderNum": null, "card4no": null, "card4noAcc": null, "district2": null, "searchScope": null, "status": null, "address": "", "name": null, "id": null, "pageNo": 300, "pageCount": null, "pageSize": 10, "ids": null, "endTime": null, "startTime": null}, "list": [{"cardNumFive": null, "isSupportYj": null, "cityName": null, "districtName": null, "shopinfo": {"mid": "888002154410023", "good_flag": null, "new_flag": null, "short_name": "\u7ea2\u5b9d\u77f3", "short_name_pinyin": "hongbaoshi", "status": null, "address": null, "name": null, "id": "38654"}, "mid": "888002154410023", "shopId": "38654", "netid": null, "province": 901, "district": 601, "zipcode": null, "telephone": "36535693", "posDate": null, "destineTel": null, "togoTel": null, "trafficWay": null, "signBuilding": null, "businessArea": null, "selfRoom": null, "businessTime": null, "stall": null, "consume": null, "serviceFei": null, "favourable": null, "shopMemo": null, "appraise": null, "website": null, "memo": null, "payTypes": "\u6749\u5fb7\u5361", "shopTypes": "\u9762\u5305\u897f\u997c", "consumeTypes": null, "cookTypes": null, "orderNum": 1000, "card4no": null, "card4noAcc": null, "district2": 410, "searchScope": null, "status": 1, "address": "\u82b7\u6c5f\u897f\u8def363\u53f7", "name": "\u7ea2\u5b9d\u77f3 \u82b7\u6c5f\u897f\u8def\u5e97", "id": 164075, "pageNo": 0, "pageCount": null, "pageSize": 10, "ids": null, "endTime": null, "startTime": null}, {"cardNumFive": null, "isSupportYj": null, "cityName": null, "districtName": null, "shopinfo": {"mid": "888002154410023", "good_flag": null, "new_flag": null, "short_name": "\u7ea2\u5b9d\u77f3", "short_name_pinyin": "hongbaoshi", "status": null, "address": null, "name": null, "id": "38955"}, "mid": "888002154410023", "shopId": "38955", "netid": null, "province": 901, "district": 601, "zipcode": null, "telephone": "56387135", "posDate": null, "destineTel": null, "togoTel": null, "trafficWay": null, "signBuilding": null, "businessArea": null, "selfRoom": null, "businessTime": null, "stall": null, "consume": null, "serviceFei": null, "favourable": null, "shopMemo": null, "appraise": null, "website": null, "memo": null, "payTypes": "\u6749\u5fb7\u5361", "shopTypes": "\u9762\u5305\u897f\u997c", "consumeTypes": null, "cookTypes": null, "orderNum": 1000, "card4no": null, "card4noAcc": null, "district2": 408, "searchScope": null, "status": 1, "address": "\u897f\u6c5f\u6e7e\u8def388\u53f7\u5730\u4e0b\u4e00\u5c42", "name": "\u7ea2\u5b9d\u77f3 \u8679\u53e3\u9f99\u4e4b\u68a6\u5e97", "id": 164894, "pageNo": 0, "pageCount": null, "pageSize": 10, "ids": null, "endTime": null, "startTime": null}, {"cardNumFive": null, "isSupportYj": null, "cityName": null, "districtName": null, "shopinfo": {"mid": "888002154410023", "good_flag": null, "new_flag": "2", "short_name": "\u7ea2\u5b9d\u77f3", "short_name_pinyin": "hongbaoshi", "status": null, "address": null, "name": null, "id": "38642"}, "mid": "888002154410023", "shopId": "38642", "netid": null, "province": 901, "district": 601, "zipcode": null, "telephone": "66030869", "posDate": null, "destineTel": null, "togoTel": null, "trafficWay": null, "signBuilding": null, "businessArea": null, "selfRoom": null, "businessTime": null, "stall": null, "consume": null, "serviceFei": null, "favourable": null, "shopMemo": null, "appraise": null, "website": null, "memo": null, "payTypes": "\u6749\u5fb7\u5361", "shopTypes": null, "consumeTypes": null, "cookTypes": null, "orderNum": 1000, "card4no": null, "card4noAcc": null, "district2": 416, "searchScope": null, "status": 1, "address": "\u7261\u4e39\u6c5f\u8def318\u53f7A121-A122", "name": "\u7ea2\u5b9d\u77f3 \u7261\u4e39\u6c5f\u5e97", "id": 182708, "pageNo": 0, "pageCount": null, "pageSize": 10, "ids": null, "endTime": null, "startTime": null}, {"cardNumFive": null, "isSupportYj": null, "cityName": null, "districtName": null, "shopinfo": {"mid": "888002154410023", "good_flag": null, "new_flag": "2", "short_name": "\u7ea2\u5b9d\u77f3", "short_name_pinyin": "hongbaoshi", "status": null, "address": null, "name": null, "id": "38642"}, "mid": "888002154410023", "shopId": "38642", "netid": null, "province": 901, "district": 601, "zipcode": null, "telephone": null, "posDate": null, "destineTel": null, "togoTel": null, "trafficWay": null, "signBuilding": null, "businessArea": null, "selfRoom": null, "businessTime": null, "stall": null, "consume": null, "serviceFei": null, "favourable": null, "shopMemo": null, "appraise": null, "website": null, "memo": null, "payTypes": "\u6749\u5fb7\u5361", "shopTypes": "\u9762\u5305\u897f\u997c", "consumeTypes": null, "cookTypes": null, "orderNum": 1000, "card4no": null, "card4noAcc": null, "district2": 418, "searchScope": null, "status": 1, "address": "\u7075\u5ca9\u5357\u8def1145\u53f7", "name": "\u7ea2\u5b9d\u77f3 \u4e09\u6797\u5e97", "id": 191006, "pageNo": 0, "pageCount": null, "pageSize": 10, "ids": null, "endTime": null, "startTime": null}, {"cardNumFive": null, "isSupportYj": null, "cityName": null, "districtName": null, "shopinfo": {"mid": "888002154410023", "good_flag": null, "new_flag": "2", "short_name": "\u7ea2\u5b9d\u77f3", "short_name_pinyin": "hongbaoshi", "status": null, "address": null, "name": null, "id": "38642"}, "mid": "888002154410023", "shopId": "38642", "netid": null, "province": 901, "district": 601, "zipcode": null, "telephone": null, "posDate": null, "destineTel": null, "togoTel": null, "trafficWay": null, "signBuilding": null, "businessArea": null, "selfRoom": null, "businessTime": null, "stall": null, "consume": null, "serviceFei": null, "favourable": null, "shopMemo": null, "appraise": null, "website": null, "memo": null, "payTypes": "\u6749\u5fb7\u5361", "shopTypes": "\u9762\u5305\u897f\u997c", "consumeTypes": null, "cookTypes": null, "orderNum": 1000, "card4no": null, "card4noAcc": null, "district2": 406, "searchScope": null, "status": 1, "address": "\u5929\u5c71\u8def900\u53f71\u697c108", "name": "\u7ea2\u5b9d\u77f3 \u5929\u5c71\u8def\u5e97", "id": 191008, "pageNo": 0, "pageCount": null, "pageSize": 10, "ids": null, "endTime": null, "startTime": null}, {"cardNumFive": null, "isSupportYj": null, "cityName": null, "districtName": null, "shopinfo": {"mid": "888002154410023", "good_flag": null, "new_flag": "2", "short_name": "\u7ea2\u5b9d\u77f3", "short_name_pinyin": "hongbaoshi", "status": null, "address": null, "name": null, "id": "38642"}, "mid": "888002154410023", "shopId": "38642", "netid": null, "province": 901, "district": 601, "zipcode": null, "telephone": null, "posDate": null, "destineTel": null, "togoTel": null, "trafficWay": null, "signBuilding": null, "businessArea": null, "selfRoom": null, "businessTime": null, "stall": null, "consume": null, "serviceFei": null, "favourable": null, "shopMemo": null, "appraise": null, "website": null, "memo": null, "payTypes": "\u6749\u5fb7\u5361", "shopTypes": "\u9762\u5305\u897f\u997c", "consumeTypes": null, "cookTypes": null, "orderNum": 1000, "card4no": null, "card4noAcc": null, "district2": 411, "searchScope": null, "status": 1, "address": "\u4ed3\u573a\u4e1c\u8def368\u53f71\u5c42001\u5ba4", "name": "\u7ea2\u5b9d\u77f3 \u4ed3\u573a\u4e1c\u8def\u5e97", "id": 197996, "pageNo": 0, "pageCount": null, "pageSize": 10, "ids": null, "endTime": null, "startTime": null}, {"cardNumFive": null, "isSupportYj": null, "cityName": null, "districtName": null, "shopinfo": {"mid": "888002154410023", "good_flag": null, "new_flag": "2", "short_name": "\u7ea2\u5b9d\u77f3", "short_name_pinyin": "hongbaoshi", "status": null, "address": null, "name": null, "id": "38642"}, "mid": "888002154410023", "shopId": "38642", "netid": null, "province": 901, "district": 601, "zipcode": null, "telephone": null, "posDate": null, "destineTel": null, "togoTel": null, "trafficWay": null, "signBuilding": null, "businessArea": null, "selfRoom": null, "businessTime": null, "stall": null, "consume": null, "serviceFei": null, "favourable": null, "shopMemo": null, "appraise": null, "website": null, "memo": null, "payTypes": "\u6749\u5fb7\u5361", "shopTypes": "\u9762\u5305\u897f\u997c", "consumeTypes": null, "cookTypes": null, "orderNum": 1000, "card4no": null, "card4noAcc": null, "district2": 405, "searchScope": null, "status": 1, "address": "\u771f\u5149\u8def1219\u53f7\u4e00\u5c42B25\uff08\u767e\u8054\u5185\uff09", "name": "\u7ea2\u5b9d\u77f3 \u767e\u8054\u5e97", "id": 198577, "pageNo": 0, "pageCount": null, "pageSize": 10, "ids": null, "endTime": null, "startTime": null}, {"cardNumFive": null, "isSupportYj": null, "cityName": null, "districtName": null, "shopinfo": {"mid": "888002154410023", "good_flag": null, "new_flag": "2", "short_name": "\u7ea2\u5b9d\u77f3", "short_name_pinyin": "hongbaoshi", "status": null, "address": null, "name": null, "id": "38642"}, "mid": "888002154410023", "shopId": "38642", "netid": null, "province": 901, "district": 601, "zipcode": null, "telephone": null, "posDate": null, "destineTel": null, "togoTel": null, "trafficWay": null, "signBuilding": null, "businessArea": null, "selfRoom": null, "businessTime": null, "stall": null, "consume": null, "serviceFei": null, "favourable": null, "shopMemo": null, "appraise": null, "website": null, "memo": null, "payTypes": "\u6749\u5fb7\u5361", "shopTypes": "\u9762\u5305\u897f\u997c", "consumeTypes": null, "cookTypes": null, "orderNum": 1000, "card4no": null, "card4noAcc": null, "district2": 401, "searchScope": null, "status": 1, "address": "\u5b81\u6ce2\u8def108\u53f7", "name": "\u7ea2\u5b9d\u77f3 \u5b81\u6ce2\u8def\u5e97", "id": 198813, "pageNo": 0, "pageCount": null, "pageSize": 10, "ids": null, "endTime": null, "startTime": null}, {"cardNumFive": null, "isSupportYj": null, "cityName": null, "districtName": null, "shopinfo": {"mid": "888002154410023", "good_flag": null, "new_flag": "2", "short_name": "\u7ea2\u5b9d\u77f3", "short_name_pinyin": "hongbaoshi", "status": null, "address": null, "name": null, "id": "38642"}, "mid": "888002154410023", "shopId": "38642", "netid": null, "province": 901, "district": 601, "zipcode": null, "telephone": null, "posDate": null, "destineTel": null, "togoTel": null, "trafficWay": null, "signBuilding": null, "businessArea": null, "selfRoom": null, "businessTime": null, "stall": null, "consume": null, "serviceFei": null, "favourable": null, "shopMemo": null, "appraise": null, "website": null, "memo": null, "payTypes": "\u6749\u5fb7\u5361", "shopTypes": "\u9762\u5305\u897f\u997c", "consumeTypes": null, "cookTypes": null, "orderNum": 1000, "card4no": null, "card4noAcc": null, "district2": 410, "searchScope": null, "status": 1, "address": "\u573a\u4e2d\u8def2619\u53f7", "name": "\u7ea2\u5b9d\u77f3 \u573a\u4e2d\u8def\u5e97", "id": 199086, "pageNo": 0, "pageCount": null, "pageSize": 10, "ids": null, "endTime": null, "startTime": null}, {"cardNumFive": null, "isSupportYj": null, "cityName": null, "districtName": null, "shopinfo": {"mid": "888002154410023", "good_flag": null, "new_flag": "2", "short_name": "\u7ea2\u5b9d\u77f3", "short_name_pinyin": "hongbaoshi", "status": null, "address": null, "name": null, "id": "38642"}, "mid": "888002154410023", "shopId": "38642", "netid": null, "province": 901, "district": 601, "zipcode": null, "telephone": null, "posDate": null, "destineTel": null, "togoTel": null, "trafficWay": null, "signBuilding": null, "businessArea": null, "selfRoom": null, "businessTime": null, "stall": null, "consume": null, "serviceFei": null, "favourable": null, "shopMemo": null, "appraise": null, "website": null, "memo": null, "payTypes": "\u6749\u5fb7\u5361", "shopTypes": "\u9762\u5305\u897f\u997c", "consumeTypes": null, "cookTypes": null, "orderNum": 1000, "card4no": null, "card4noAcc": null, "district2": 409, "searchScope": null, "status": 1, "address": "\u7e41\u5174\u8def399\u5f041\u53f7104\u5ba4", "name": "\u7ea2\u5b9d\u77f3 \u7e41\u5174\u8def\u5e97", "id": 202060, "pageNo": 0, "pageCount": null, "pageSize": 10, "ids": null, "endTime": null, "startTime": null}], "pageLimit": 3000, "size": 10}