{"pageCount": 1095, "count": 10942, "pageNo": 306, "subShopInfo": {"cardNumFive": "", "isSupportYj": "", "cityName": null, "districtName": null, "shopinfo": {"mid": null, "good_flag": null, "new_flag": null, "short_name": null, "short_name_pinyin": null, "status": null, "address": "", "name": "", "id": null}, "mid": null, "shopId": null, "netid": null, "province": 901, "district": null, "zipcode": null, "telephone": null, "posDate": null, "destineTel": null, "togoTel": null, "trafficWay": null, "signBuilding": null, "businessArea": null, "selfRoom": null, "businessTime": null, "stall": null, "consume": null, "serviceFei": null, "favourable": null, "shopMemo": "1", "appraise": null, "website": null, "memo": null, "payTypes": "", "shopTypes": "", "consumeTypes": null, "cookTypes": null, "orderNum": null, "card4no": null, "card4noAcc": null, "district2": null, "searchScope": null, "status": null, "address": "", "name": null, "id": null, "pageNo": 305, "pageCount": null, "pageSize": 10, "ids": null, "endTime": null, "startTime": null}, "list": [{"cardNumFive": null, "isSupportYj": null, "cityName": null, "districtName": null, "shopinfo": {"mid": "888888880430004", "good_flag": "2", "new_flag": "2", "short_name": "\u7ea2\u661f\u773c\u955c", "short_name_pinyin": "hongxingyanjing", "status": null, "address": null, "name": null, "id": "31798"}, "mid": "888888880430004", "shopId": "31798", "netid": null, "province": 901, "district": 601, "zipcode": null, "telephone": "64981473", "posDate": "20080710", "destineTel": null, "togoTel": null, "trafficWay": null, "signBuilding": null, "businessArea": null, "selfRoom": null, "businessTime": null, "stall": null, "consume": null, "serviceFei": null, "favourable": null, "shopMemo": null, "appraise": null, "website": null, "memo": null, "payTypes": "\u6749\u5fb7\u5361", "shopTypes": "\u96f6\u552e,\u4e13\u5356", "consumeTypes": null, "cookTypes": null, "orderNum": 1000, "card4no": null, "card4noAcc": null, "district2": 409, "searchScope": null, "status": 1, "address": "\u8398\u4e1c\u8def109\u53f7", "name": "\u7ea2\u661f\u773c\u955c \u8398\u4e1c\u8def\u5e97", "id": 135275, "pageNo": 0, "pageCount": null, "pageSize": 10, "ids": null, "endTime": null, "startTime": null}, {"cardNumFive": null, "isSupportYj": null, "cityName": null, "districtName": null, "shopinfo": {"mid": "888888880430044", "good_flag": "2", "new_flag": "2", "short_name": "\u7ea2\u661f\u773c\u955c", "short_name_pinyin": "hongxingyanjing", "status": null, "address": null, "name": null, "id": "31799"}, "mid": "888888880430044", "shopId": "31799", "netid": null, "province": 901, "district": 601, "zipcode": null, "telephone": null, "posDate": "20080403", "destineTel": null, "togoTel": null, "trafficWay": "\u516c\u4ea4518 952 537", "signBuilding": null, "businessArea": null, "selfRoom": null, "businessTime": null, "stall": null, "consume": null, "serviceFei": null, "favourable": null, "shopMemo": null, "appraise": null, "website": null, "memo": null, "payTypes": "\u6749\u5fb7\u5361", "shopTypes": "\u96f6\u552e,\u4e13\u5356", "consumeTypes": null, "cookTypes": null, "orderNum": 1000, "card4no": null, "card4noAcc": null, "district2": 408, "searchScope": null, "status": 1, "address": "\u65b0\u5e02\u5317\u8def", "name": "\u7ea2\u661f\u773c\u955c \u65b0\u5e02\u5317\u8def\u5e97", "id": 135277, "pageNo": 0, "pageCount": null, "pageSize": 10, "ids": null, "endTime": null, "startTime": null}, {"cardNumFive": null, "isSupportYj": null, "cityName": null, "districtName": null, "shopinfo": {"mid": "888888880430004", "good_flag": "2", "new_flag": "2", "short_name": "\u7ea2\u661f\u773c\u955c", "short_name_pinyin": "hongxingyanjing", "status": null, "address": null, "name": null, "id": "31798"}, "mid": "888888880430004", "shopId": "31798", "netid": null, "province": 901, "district": 601, "zipcode": null, "telephone": null, "posDate": null, "destineTel": null, "togoTel": null, "trafficWay": "638\u3001973", "signBuilding": null, "businessArea": null, "selfRoom": null, "businessTime": null, "stall": null, "consume": null, "serviceFei": null, "favourable": null, "shopMemo": null, "appraise": null, "website": null, "memo": "\u5173\u4e8e\u5361\u62bc\u91d1\u6d88\u8d39\u7684\u5177\u4f53\u4e8b\u5b9c\uff0c\u8bf7\u81f4\u7535\u5404\u95e8\u5e97\u3002", "payTypes": ",,\u6749\u5fb7\u5361", "shopTypes": "\u4e13\u5356,\u96f6\u552e", "consumeTypes": null, "cookTypes": null, "orderNum": 1000, "card4no": null, "card4noAcc": null, "district2": 418, "searchScope": null, "status": 1, "address": "\u6768\u9ad8\u5357\u8def1126-1128\u53f7\u6613\u521d\u83b2\u82b1\u8d85\u5e02\u4e00\u697c", "name": "\u7ea2\u661f\u773c\u955c \u6768\u9ad8\u5357\u8def\u5e97", "id": 135278, "pageNo": 0, "pageCount": null, "pageSize": 10, "ids": null, "endTime": null, "startTime": null}, {"cardNumFive": null, "isSupportYj": null, "cityName": null, "districtName": null, "shopinfo": {"mid": "888888880430004", "good_flag": "2", "new_flag": "2", "short_name": "\u7ea2\u661f\u773c\u955c", "short_name_pinyin": "hongxingyanjing", "status": null, "address": null, "name": null, "id": "31798"}, "mid": "888888880430004", "shopId": "31798", "netid": null, "province": 901, "district": 601, "zipcode": "200125", "telephone": "58756406", "posDate": "20070116", "destineTel": "58756406", "togoTel": "58756406", "trafficWay": "\u5927\u6865\u516d\u7ebf\u533a\u95f4 \u5730\u94c1\u56db\u53f7\u7ebf", "signBuilding": null, "businessArea": "50~150\u5e73\u7c73", "selfRoom": "\u65e0", "businessTime": "9:00~21:00", "stall": "\u65e0", "consume": null, "serviceFei": null, "favourable": null, "shopMemo": null, "appraise": null, "website": null, "memo": "\u5173\u4e8e\u5361\u62bc\u91d1\u6d88\u8d39\u7684\u5177\u4f53\u4e8b\u5b9c\uff0c\u8bf7\u81f4\u7535\u5404\u95e8\u5e97\u3002", "payTypes": ",,\u6749\u5fb7\u5361", "shopTypes": "\u4e13\u5356,\u96f6\u552e", "consumeTypes": null, "cookTypes": null, "orderNum": 1000, "card4no": null, "card4noAcc": null, "district2": 418, "searchScope": null, "status": 1, "address": "\u6768\u9ad8\u5357\u8def1018\u53f7B2", "name": "\u7ea2\u661f\u773c\u955c \u6768\u5357\u5e97", "id": 135279, "pageNo": 0, "pageCount": null, "pageSize": 10, "ids": null, "endTime": null, "startTime": null}, {"cardNumFive": null, "isSupportYj": null, "cityName": null, "districtName": null, "shopinfo": {"mid": "888888880430004", "good_flag": "2", "new_flag": "2", "short_name": "\u7ea2\u661f\u773c\u955c", "short_name_pinyin": "hongxingyanjing", "status": null, "address": null, "name": null, "id": "31798"}, "mid": "888888880430004", "shopId": "31798", "netid": null, "province": 901, "district": 601, "zipcode": null, "telephone": "65456312", "posDate": "20071009", "destineTel": null, "togoTel": null, "trafficWay": "\u516c\u4ea4868 37", "signBuilding": null, "businessArea": null, "selfRoom": null, "businessTime": null, "stall": null, "consume": null, "serviceFei": null, "favourable": null, "shopMemo": null, "appraise": null, "website": null, "memo": "\u5173\u4e8e\u5361\u62bc\u91d1\u6d88\u8d39\u7684\u5177\u4f53\u4e8b\u5b9c\uff0c\u8bf7\u81f4\u7535\u5404\u95e8\u5e97\u3002", "payTypes": ",,\u6749\u5fb7\u5361", "shopTypes": "\u4e13\u5356,\u96f6\u552e", "consumeTypes": null, "cookTypes": null, "orderNum": 1000, "card4no": null, "card4noAcc": null, "district2": 407, "searchScope": null, "status": 1, "address": "\u5e73\u51c9\u8def518-524\u53f7", "name": "\u7ea2\u661f\u773c\u955c \u6768\u6d66\u5e97", "id": 135280, "pageNo": 0, "pageCount": null, "pageSize": 10, "ids": null, "endTime": null, "startTime": null}, {"cardNumFive": null, "isSupportYj": null, "cityName": null, "districtName": null, "shopinfo": {"mid": "888888880430016", "good_flag": "2", "new_flag": "2", "short_name": "\u7ea2\u661f\u773c\u955c", "short_name_pinyin": "hongxingyanjing", "status": null, "address": null, "name": null, "id": "31805"}, "mid": "888888880430016", "shopId": "31805", "netid": null, "province": 901, "district": 601, "zipcode": null, "telephone": "56581248", "posDate": "20070613", "destineTel": null, "togoTel": null, "trafficWay": "\u5730\u94c1\u4e00\u53f7\u7ebf", "signBuilding": null, "businessArea": "70\u5e73\u65b9\u7c73", "selfRoom": null, "businessTime": "10:00~20:00", "stall": "\u65e0", "consume": null, "serviceFei": null, "favourable": null, "shopMemo": null, "appraise": null, "website": null, "memo": null, "payTypes": "\u6749\u5fb7\u5361", "shopTypes": "\u96f6\u552e,\u4e13\u5356", "consumeTypes": null, "cookTypes": null, "orderNum": 1000, "card4no": null, "card4noAcc": null, "district2": 416, "searchScope": null, "status": 1, "address": "\u6c38\u6e05\u8def325\u53f7", "name": "\u7ea2\u661f\u773c\u955c \u6c38\u6e05\u8def\u5e97", "id": 135282, "pageNo": 0, "pageCount": null, "pageSize": 10, "ids": null, "endTime": null, "startTime": null}, {"cardNumFive": null, "isSupportYj": null, "cityName": null, "districtName": null, "shopinfo": {"mid": "888888880430004", "good_flag": "2", "new_flag": "2", "short_name": "\u7ea2\u661f\u773c\u955c", "short_name_pinyin": "hongxingyanjing", "status": null, "address": null, "name": null, "id": "31798"}, "mid": "888888880430004", "shopId": "31798", "netid": null, "province": 901, "district": 601, "zipcode": "200001", "telephone": "63601929", "posDate": "20070111", "destineTel": "63601929", "togoTel": "63601929", "trafficWay": "\u5730\u94c1\u4e00\u53f7\u7ebf 49 \u5730\u94c1\u4e8c\u53f7\u7ebf", "signBuilding": null, "businessArea": "50~150\u5e73\u7c73", "selfRoom": "\u65e0", "businessTime": "9:00~21:00", "stall": "\u65e0", "consume": null, "serviceFei": null, "favourable": null, "shopMemo": null, "appraise": null, "website": null, "memo": "\u5173\u4e8e\u5361\u62bc\u91d1\u6d88\u8d39\u7684\u5177\u4f53\u4e8b\u5b9c\uff0c\u8bf7\u81f4\u7535\u5404\u95e8\u5e97\u3002", "payTypes": ",,\u6749\u5fb7\u5361", "shopTypes": "\u4e13\u5356,\u96f6\u552e", "consumeTypes": null, "cookTypes": null, "orderNum": 1000, "card4no": null, "card4noAcc": null, "district2": 401, "searchScope": null, "status": 1, "address": "\u5357\u4eac\u4e1c\u8def409\u53f7", "name": "\u7ea2\u661f\u773c\u955c \u7f6e\u5730\u5e97", "id": 135284, "pageNo": 0, "pageCount": null, "pageSize": 10, "ids": null, "endTime": null, "startTime": null}, {"cardNumFive": null, "isSupportYj": null, "cityName": null, "districtName": null, "shopinfo": {"mid": "888888880430004", "good_flag": null, "new_flag": null, "short_name": "\u7ea2\u661f\u773c\u955c", "short_name_pinyin": "hongxingyanjing", "status": null, "address": null, "name": null, "id": "38252"}, "mid": "888888880430004", "shopId": "38252", "netid": null, "province": 901, "district": 601, "zipcode": null, "telephone": null, "posDate": null, "destineTel": null, "togoTel": null, "trafficWay": null, "signBuilding": null, "businessArea": null, "selfRoom": null, "businessTime": null, "stall": null, "consume": null, "serviceFei": null, "favourable": null, "shopMemo": null, "appraise": null, "website": null, "memo": null, "payTypes": "\u6749\u5fb7\u5361", "shopTypes": "\u4e13\u5356", "consumeTypes": null, "cookTypes": null, "orderNum": 1000, "card4no": null, "card4noAcc": null, "district2": 408, "searchScope": null, "status": 1, "address": "\u897f\u6c5f\u6e7e\u8def388\u53f7\u5730\u4e0b\u4e8c\u5c42B2-08\u53f7", "name": "\u7ea2\u661f\u773c\u955c \u8679\u53e3\u9f99\u4e4b\u68a6\u5e97", "id": 163244, "pageNo": 0, "pageCount": null, "pageSize": 10, "ids": null, "endTime": null, "startTime": null}, {"cardNumFive": null, "isSupportYj": null, "cityName": null, "districtName": null, "shopinfo": {"mid": "888002180430114", "good_flag": null, "new_flag": null, "short_name": "\u7ea2\u661f\u773c\u955c", "short_name_pinyin": "hongxingyanjing", "status": null, "address": null, "name": null, "id": "39657"}, "mid": "888002180430114", "shopId": "39657", "netid": null, "province": 901, "district": 601, "zipcode": null, "telephone": "54101506", "posDate": null, "destineTel": null, "togoTel": null, "trafficWay": null, "signBuilding": null, "businessArea": null, "selfRoom": null, "businessTime": null, "stall": null, "consume": null, "serviceFei": null, "favourable": null, "shopMemo": null, "appraise": null, "website": null, "memo": null, "payTypes": "\u6749\u5fb7\u5361", "shopTypes": "\u96f6\u552e", "consumeTypes": null, "cookTypes": null, "orderNum": 1000, "card4no": null, "card4noAcc": null, "district2": 401, "searchScope": null, "status": 1, "address": "\u6dee\u6d77\u4e2d\u8def887\u53f7", "name": "\u7ea2\u661f\u773c\u955c \u4e8c\u767e\u6c38\u65b0\u5e97", "id": 170065, "pageNo": 0, "pageCount": null, "pageSize": 10, "ids": null, "endTime": null, "startTime": null}, {"cardNumFive": null, "isSupportYj": null, "cityName": null, "districtName": null, "shopinfo": {"mid": "888002180430114", "good_flag": null, "new_flag": null, "short_name": "\u7ea2\u661f\u773c\u955c", "short_name_pinyin": "hongxingyanjing", "status": null, "address": null, "name": null, "id": "39657"}, "mid": "888002180430114", "shopId": "39657", "netid": null, "province": 901, "district": 601, "zipcode": null, "telephone": "34693577", "posDate": null, "destineTel": null, "togoTel": null, "trafficWay": null, "signBuilding": null, "businessArea": null, "selfRoom": null, "businessTime": null, "stall": null, "consume": null, "serviceFei": null, "favourable": null, "shopMemo": null, "appraise": null, "website": null, "memo": null, "payTypes": "\u6749\u5fb7\u5361", "shopTypes": "\u96f6\u552e", "consumeTypes": null, "cookTypes": null, "orderNum": 1000, "card4no": null, "card4noAcc": null, "district2": 403, "searchScope": null, "status": 1, "address": "\u8087\u5609\u6d5c\u8def1111\u53f71\u697c1", "name": "\u7ea2\u661f\u773c\u955c \u7f8e\u7f57\u5e97", "id": 170067, "pageNo": 0, "pageCount": null, "pageSize": 10, "ids": null, "endTime": null, "startTime": null}], "pageLimit": 3050, "size": 10}