{"pageCount": 1095, "count": 10942, "pageNo": 305, "subShopInfo": {"cardNumFive": "", "isSupportYj": "", "cityName": null, "districtName": null, "shopinfo": {"mid": null, "good_flag": null, "new_flag": null, "short_name": null, "short_name_pinyin": null, "status": null, "address": "", "name": "", "id": null}, "mid": null, "shopId": null, "netid": null, "province": 901, "district": null, "zipcode": null, "telephone": null, "posDate": null, "destineTel": null, "togoTel": null, "trafficWay": null, "signBuilding": null, "businessArea": null, "selfRoom": null, "businessTime": null, "stall": null, "consume": null, "serviceFei": null, "favourable": null, "shopMemo": "1", "appraise": null, "website": null, "memo": null, "payTypes": "", "shopTypes": "", "consumeTypes": null, "cookTypes": null, "orderNum": null, "card4no": null, "card4noAcc": null, "district2": null, "searchScope": null, "status": null, "address": "", "name": null, "id": null, "pageNo": 304, "pageCount": null, "pageSize": 10, "ids": null, "endTime": null, "startTime": null}, "list": [{"cardNumFive": null, "isSupportYj": null, "cityName": null, "districtName": null, "shopinfo": {"mid": "888888880430004", "good_flag": "2", "new_flag": "2", "short_name": "\u7ea2\u661f\u773c\u955c", "short_name_pinyin": "hongxingyanjing", "status": null, "address": null, "name": null, "id": "31798"}, "mid": "888888880430004", "shopId": "31798", "netid": null, "province": 901, "district": 601, "zipcode": "201300", "telephone": "58021083", "posDate": "20070119", "destineTel": "58021083", "togoTel": "58021083", "trafficWay": "\u60e0\u5609\u7ebf", "signBuilding": null, "businessArea": "50~150\u5e73\u7c73", "selfRoom": "\u65e0", "businessTime": "9:00~21:00", "stall": "\u65e0", "consume": null, "serviceFei": null, "favourable": null, "shopMemo": null, "appraise": null, "website": null, "memo": "\u5173\u4e8e\u5361\u62bc\u91d1\u6d88\u8d39\u7684\u5177\u4f53\u4e8b\u5b9c\uff0c\u8bf7\u81f4\u7535\u5404\u95e8\u5e97\u3002", "payTypes": ",,\u6749\u5fb7\u5361", "shopTypes": "\u4e13\u5356,\u96f6\u552e", "consumeTypes": null, "cookTypes": null, "orderNum": 1000, "card4no": null, "card4noAcc": null, "district2": 418, "searchScope": null, "status": 1, "address": "\u4e1c\u95e8\u5927\u8857347\u53f7", "name": "\u7ea2\u661f\u773c\u955c \u5357\u6c47\u5e97", "id": 135258, "pageNo": 0, "pageCount": null, "pageSize": 10, "ids": null, "endTime": null, "startTime": null}, {"cardNumFive": null, "isSupportYj": null, "cityName": null, "districtName": null, "shopinfo": {"mid": "888888880430004", "good_flag": "2", "new_flag": "2", "short_name": "\u7ea2\u661f\u773c\u955c", "short_name_pinyin": "hongxingyanjing", "status": null, "address": null, "name": null, "id": "31798"}, "mid": "888888880430004", "shopId": "31798", "netid": null, "province": 901, "district": 601, "zipcode": null, "telephone": "58779838", "posDate": "20070627", "destineTel": null, "togoTel": null, "trafficWay": "\u5730\u94c1\u4e1c\u660c\u8def\u7ad9", "signBuilding": "\u516b\u4f70\u4f34", "businessArea": null, "selfRoom": null, "businessTime": "10:00~20:00", "stall": "\u65e0", "consume": null, "serviceFei": null, "favourable": null, "shopMemo": null, "appraise": null, "website": null, "memo": null, "payTypes": ",,\u6749\u5fb7\u5361", "shopTypes": "\u4e13\u5356,\u96f6\u552e", "consumeTypes": null, "cookTypes": null, "orderNum": 1000, "card4no": null, "card4noAcc": null, "district2": 418, "searchScope": null, "status": 1, "address": "\u5357\u6cc9\u5317\u8def1019\u53f7", "name": "\u7ea2\u661f\u773c\u955c \u5357\u6cc9\u5317\u8def\u5e97", "id": 135259, "pageNo": 0, "pageCount": null, "pageSize": 10, "ids": null, "endTime": null, "startTime": null}, {"cardNumFive": null, "isSupportYj": null, "cityName": null, "districtName": null, "shopinfo": {"mid": "888888880430004", "good_flag": "2", "new_flag": "2", "short_name": "\u7ea2\u661f\u773c\u955c", "short_name_pinyin": "hongxingyanjing", "status": null, "address": null, "name": null, "id": "31798"}, "mid": "888888880430004", "shopId": "31798", "netid": null, "province": 901, "district": 601, "zipcode": "200124", "telephone": "58424763", "posDate": "20070116", "destineTel": "58424763", "togoTel": "58424763", "trafficWay": "\u516c\u4ea4973", "signBuilding": null, "businessArea": "50~150\u5e73\u7c73", "selfRoom": "\u65e0", "businessTime": "9:00~21:00", "stall": "\u65e0", "consume": null, "serviceFei": null, "favourable": null, "shopMemo": null, "appraise": null, "website": null, "memo": "\u5173\u4e8e\u5361\u62bc\u91d1\u6d88\u8d39\u7684\u5177\u4f53\u4e8b\u5b9c\uff0c\u8bf7\u81f4\u7535\u5404\u95e8\u5e97\u3002", "payTypes": ",,\u6749\u5fb7\u5361", "shopTypes": "\u4e13\u5356,\u96f6\u552e", "consumeTypes": null, "cookTypes": null, "orderNum": 1000, "card4no": null, "card4noAcc": null, "district2": 418, "searchScope": null, "status": 1, "address": "\u4e0a\u5357\u8def3521\u53f7", "name": "\u7ea2\u661f\u773c\u955c \u4e0a\u5357\u5e97", "id": 135263, "pageNo": 0, "pageCount": null, "pageSize": 10, "ids": null, "endTime": null, "startTime": null}, {"cardNumFive": null, "isSupportYj": null, "cityName": null, "districtName": null, "shopinfo": {"mid": "888888880430004", "good_flag": "2", "new_flag": "2", "short_name": "\u7ea2\u661f\u773c\u955c", "short_name_pinyin": "hongxingyanjing", "status": null, "address": null, "name": null, "id": "31798"}, "mid": "888888880430004", "shopId": "31798", "netid": null, "province": 901, "district": 601, "zipcode": "200051", "telephone": "52530019", "posDate": "20070116", "destineTel": "52530019", "togoTel": "52530019", "trafficWay": "\u516c\u4ea4808 855", "signBuilding": null, "businessArea": "50~150\u5e73\u7c73", "selfRoom": "\u65e0", "businessTime": "9:00~21:00", "stall": "\u65e0", "consume": null, "serviceFei": null, "favourable": null, "shopMemo": null, "appraise": null, "website": null, "memo": "\u5173\u4e8e\u5361\u62bc\u91d1\u6d88\u8d39\u7684\u5177\u4f53\u4e8b\u5b9c\uff0c\u8bf7\u81f4\u7535\u5404\u95e8\u5e97\u3002", "payTypes": ",,\u6749\u5fb7\u5361", "shopTypes": "\u4e13\u5356,\u96f6\u552e", "consumeTypes": null, "cookTypes": null, "orderNum": 1000, "card4no": null, "card4noAcc": null, "district2": 406, "searchScope": null, "status": 1, "address": "\u5929\u5c71\u8def952\u53f7", "name": "\u7ea2\u661f\u773c\u955c \u5929\u5c71\u5e97", "id": 135265, "pageNo": 0, "pageCount": null, "pageSize": 10, "ids": null, "endTime": null, "startTime": null}, {"cardNumFive": null, "isSupportYj": null, "cityName": null, "districtName": null, "shopinfo": {"mid": "888888880430004", "good_flag": "2", "new_flag": "2", "short_name": "\u7ea2\u661f\u773c\u955c", "short_name_pinyin": "hongxingyanjing", "status": null, "address": null, "name": null, "id": "31798"}, "mid": "888888880430004", "shopId": "31798", "netid": null, "province": 901, "district": 601, "zipcode": "200235", "telephone": "64836526", "posDate": "20070112", "destineTel": "64836526", "togoTel": "64836526", "trafficWay": "\u516c\u4ea4809 953", "signBuilding": null, "businessArea": "50~150\u5e73\u7c73", "selfRoom": "\u65e0", "businessTime": "9:00~21:00", "stall": "\u65e0", "consume": null, "serviceFei": null, "favourable": null, "shopMemo": null, "appraise": null, "website": null, "memo": "\u5173\u4e8e\u5361\u62bc\u91d1\u6d88\u8d39\u7684\u5177\u4f53\u4e8b\u5b9c\uff0c\u8bf7\u81f4\u7535\u5404\u95e8\u5e97\u3002", "payTypes": ",,,\u6749\u5fb7\u5361", "shopTypes": "\u4e13\u5356,\u96f6\u552e", "consumeTypes": null, "cookTypes": null, "orderNum": 1000, "card4no": null, "card4noAcc": null, "district2": 403, "searchScope": null, "status": 1, "address": "\u7530\u6797\u8def36\u53f7", "name": "\u7ea2\u661f\u773c\u955c \u7530\u6797\u5e97", "id": 135268, "pageNo": 0, "pageCount": null, "pageSize": 10, "ids": null, "endTime": null, "startTime": null}, {"cardNumFive": null, "isSupportYj": null, "cityName": null, "districtName": null, "shopinfo": {"mid": "888888880430044", "good_flag": "2", "new_flag": "2", "short_name": "\u7ea2\u661f\u773c\u955c", "short_name_pinyin": "hongxingyanjing", "status": null, "address": null, "name": null, "id": "31799"}, "mid": "888888880430044", "shopId": "31799", "netid": null, "province": 901, "district": 601, "zipcode": null, "telephone": null, "posDate": "20080403", "destineTel": null, "togoTel": null, "trafficWay": "\u516c\u4ea4916 \u5730\u94c1\u4e00\u53f7\u7ebf", "signBuilding": null, "businessArea": null, "selfRoom": null, "businessTime": null, "stall": null, "consume": null, "serviceFei": null, "favourable": null, "shopMemo": null, "appraise": null, "website": null, "memo": null, "payTypes": "\u6749\u5fb7\u5361", "shopTypes": "\u96f6\u552e,\u4e13\u5356", "consumeTypes": null, "cookTypes": null, "orderNum": 1000, "card4no": null, "card4noAcc": null, "district2": 416, "searchScope": null, "status": 1, "address": "\u901a\u6cb3\u8def492\u53f7", "name": "\u7ea2\u661f\u773c\u955c \u901a\u6cb3\u8def\u5e97", "id": 135269, "pageNo": 0, "pageCount": null, "pageSize": 10, "ids": null, "endTime": null, "startTime": null}, {"cardNumFive": null, "isSupportYj": null, "cityName": null, "districtName": null, "shopinfo": {"mid": "888888880430004", "good_flag": "2", "new_flag": "2", "short_name": "\u7ea2\u661f\u773c\u955c", "short_name_pinyin": "hongxingyanjing", "status": null, "address": null, "name": null, "id": "31798"}, "mid": "888888880430004", "shopId": "31798", "netid": null, "province": 901, "district": 601, "zipcode": "200092", "telephone": "65100590", "posDate": "20070228", "destineTel": "65100590", "togoTel": "65100590", "trafficWay": "\u516c\u4ea4828 817 942", "signBuilding": null, "businessArea": null, "selfRoom": "\u65e0", "businessTime": "9:00~21:00", "stall": "\u65e0", "consume": null, "serviceFei": null, "favourable": null, "shopMemo": null, "appraise": null, "website": null, "memo": "\u5173\u4e8e\u5361\u62bc\u91d1\u6d88\u8d39\u7684\u5177\u4f53\u4e8b\u5b9c\uff0c\u8bf7\u81f4\u7535\u5404\u95e8\u5e97\u3002", "payTypes": ",,\u6749\u5fb7\u5361", "shopTypes": "\u4e13\u5356,\u96f6\u552e", "consumeTypes": null, "cookTypes": null, "orderNum": 1000, "card4no": null, "card4noAcc": null, "district2": 407, "searchScope": null, "status": 1, "address": "\u6dde\u6caa\u8def111\u53f7", "name": "\u7ea2\u661f\u773c\u955c \u4e07\u8fbe\u5e97", "id": 135270, "pageNo": 0, "pageCount": null, "pageSize": 10, "ids": null, "endTime": null, "startTime": null}, {"cardNumFive": null, "isSupportYj": null, "cityName": null, "districtName": null, "shopinfo": {"mid": "888888880430004", "good_flag": "2", "new_flag": "2", "short_name": "\u7ea2\u661f\u773c\u955c", "short_name_pinyin": "hongxingyanjing", "status": null, "address": null, "name": null, "id": "31798"}, "mid": "888888880430004", "shopId": "31798", "netid": null, "province": 901, "district": 601, "zipcode": "200040", "telephone": "62556602", "posDate": "20070112", "destineTel": "32180042", "togoTel": "32180042", "trafficWay": "\u516c\u4ea4830 93", "signBuilding": null, "businessArea": "50~150\u5e73\u7c73", "selfRoom": "\u65e0", "businessTime": "9:00~21:00", "stall": "\u65e0", "consume": null, "serviceFei": null, "favourable": null, "shopMemo": null, "appraise": null, "website": null, "memo": "\u5173\u4e8e\u5361\u62bc\u91d1\u6d88\u8d39\u7684\u5177\u4f53\u4e8b\u5b9c\uff0c\u8bf7\u81f4\u7535\u5404\u95e8\u5e97\u3002", "payTypes": ",,\u6749\u5fb7\u5361", "shopTypes": "\u4e13\u5356,\u96f6\u552e", "consumeTypes": null, "cookTypes": null, "orderNum": 1000, "card4no": null, "card4noAcc": null, "district2": 404, "searchScope": null, "status": 1, "address": "\u4e07\u822a\u6e21\u8def2\u53f7", "name": "\u7ea2\u661f\u773c\u955c \u4e07\u822a\u5e97", "id": 135271, "pageNo": 0, "pageCount": null, "pageSize": 10, "ids": null, "endTime": null, "startTime": null}, {"cardNumFive": null, "isSupportYj": null, "cityName": null, "districtName": null, "shopinfo": {"mid": "888888880430018", "good_flag": "2", "new_flag": "2", "short_name": "\u7ea2\u661f\u773c\u955c", "short_name_pinyin": "hongxingyanjing", "status": null, "address": null, "name": null, "id": "31804"}, "mid": "888888880430018", "shopId": "31804", "netid": null, "province": 901, "district": 601, "zipcode": null, "telephone": "50349634", "posDate": "20070611", "destineTel": null, "togoTel": null, "trafficWay": "\u516c\u4ea4962 797 \u7533\u9646\u4e13\u7ebf", "signBuilding": "\u6587\u5cf0\u5343\u5bb6\u60e0\u5185", "businessArea": null, "selfRoom": "\u65e0", "businessTime": "9:00~22:00", "stall": "\u65e0", "consume": null, "serviceFei": null, "favourable": null, "shopMemo": null, "appraise": null, "website": null, "memo": null, "payTypes": "\u6749\u5fb7\u5361", "shopTypes": "\u96f6\u552e,\u4e13\u5356", "consumeTypes": null, "cookTypes": null, "orderNum": 1000, "card4no": null, "card4noAcc": null, "district2": 418, "searchScope": null, "status": 1, "address": "\u4e94\u83b2\u8def230\u53f7", "name": "\u7ea2\u661f\u773c\u955c \u4e94\u83b2\u8def\u6caa\u4e1c\u5e97", "id": 135272, "pageNo": 0, "pageCount": null, "pageSize": 10, "ids": null, "endTime": null, "startTime": null}, {"cardNumFive": null, "isSupportYj": null, "cityName": null, "districtName": null, "shopinfo": {"mid": "888888880430004", "good_flag": "2", "new_flag": "2", "short_name": "\u7ea2\u661f\u773c\u955c", "short_name_pinyin": "hongxingyanjing", "status": null, "address": null, "name": null, "id": "31798"}, "mid": "888888880430004", "shopId": "31798", "netid": null, "province": 901, "district": 601, "zipcode": "200063", "telephone": "52909629", "posDate": "20070116", "destineTel": "52909629", "togoTel": "52909629", "trafficWay": "\u5730\u94c1\u56db\u53f7\u7ebf 224", "signBuilding": null, "businessArea": "50~150\u5e73\u7c73", "selfRoom": "\u65e0", "businessTime": "9:00~21:00", "stall": "\u65e0", "consume": null, "serviceFei": null, "favourable": null, "shopMemo": null, "appraise": null, "website": null, "memo": "\u5173\u4e8e\u5361\u62bc\u91d1\u6d88\u8d39\u7684\u5177\u4f53\u4e8b\u5b9c\uff0c\u8bf7\u81f4\u7535\u5404\u95e8\u5e97\u3002", "payTypes": ",,\u6749\u5fb7\u5361", "shopTypes": "\u4e13\u5356,\u96f6\u552e", "consumeTypes": null, "cookTypes": null, "orderNum": 1000, "card4no": null, "card4noAcc": null, "district2": 406, "searchScope": null, "status": 1, "address": "\u6b66\u5b81\u8def188\u53f7", "name": "\u7ea2\u661f\u773c\u955c \u6b66\u5b81\u5e97", "id": 135273, "pageNo": 0, "pageCount": null, "pageSize": 10, "ids": null, "endTime": null, "startTime": null}], "pageLimit": 3040, "size": 10}