{"pageCount": 1095, "count": 10942, "pageNo": 308, "subShopInfo": {"cardNumFive": "", "isSupportYj": "", "cityName": null, "districtName": null, "shopinfo": {"mid": null, "good_flag": null, "new_flag": null, "short_name": null, "short_name_pinyin": null, "status": null, "address": "", "name": "", "id": null}, "mid": null, "shopId": null, "netid": null, "province": 901, "district": null, "zipcode": null, "telephone": null, "posDate": null, "destineTel": null, "togoTel": null, "trafficWay": null, "signBuilding": null, "businessArea": null, "selfRoom": null, "businessTime": null, "stall": null, "consume": null, "serviceFei": null, "favourable": null, "shopMemo": "1", "appraise": null, "website": null, "memo": null, "payTypes": "", "shopTypes": "", "consumeTypes": null, "cookTypes": null, "orderNum": null, "card4no": null, "card4noAcc": null, "district2": null, "searchScope": null, "status": null, "address": "", "name": null, "id": null, "pageNo": 307, "pageCount": null, "pageSize": 10, "ids": null, "endTime": null, "startTime": null}, "list": [{"cardNumFive": null, "isSupportYj": null, "cityName": null, "districtName": null, "shopinfo": {"mid": "888002153310049", "good_flag": "2", "new_flag": "1", "short_name": "\u534e\u8054\u8d85\u5e02", "short_name_pinyin": "hualianchaoshi", "status": null, "address": null, "name": null, "id": "31845"}, "mid": "888002153310049", "shopId": "31845", "netid": null, "province": 901, "district": 601, "zipcode": null, "telephone": "62767565", "posDate": "20100702", "destineTel": null, "togoTel": null, "trafficWay": null, "signBuilding": null, "businessArea": null, "selfRoom": null, "businessTime": null, "stall": null, "consume": null, "serviceFei": null, "favourable": null, "shopMemo": null, "appraise": null, "website": null, "memo": null, "payTypes": "\u6749\u5fb7\u5361", "shopTypes": "\u8d85\u5e02", "consumeTypes": null, "cookTypes": null, "orderNum": 1000, "card4no": null, "card4noAcc": null, "district2": 404, "searchScope": null, "status": 1, "address": "\u9759\u5b89\u533a\u660c\u5316\u8def440\u53f7", "name": "\u534e\u8054\u8d85\u5e02 \u660c\u5316\u8def\u5e97", "id": 135373, "pageNo": 0, "pageCount": null, "pageSize": 10, "ids": null, "endTime": null, "startTime": null}, {"cardNumFive": null, "isSupportYj": null, "cityName": null, "districtName": null, "shopinfo": {"mid": "888888854110703", "good_flag": "2", "new_flag": "2", "short_name": "\u534e\u8054\u8d85\u5e02", "short_name_pinyin": "hualianchaoshi", "status": null, "address": null, "name": null, "id": "31846"}, "mid": "888888854110703", "shopId": "31846", "netid": null, "province": 901, "district": 601, "zipcode": null, "telephone": null, "posDate": null, "destineTel": null, "togoTel": null, "trafficWay": "156\u3001703", "signBuilding": null, "businessArea": null, "selfRoom": null, "businessTime": null, "stall": null, "consume": null, "serviceFei": null, "favourable": null, "shopMemo": null, "appraise": null, "website": null, "memo": null, "payTypes": "\u6749\u5fb7\u5361", "shopTypes": "\u8d85\u5e02", "consumeTypes": null, "cookTypes": null, "orderNum": 1000, "card4no": null, "card4noAcc": null, "district2": 409, "searchScope": null, "status": 1, "address": "\u8398\u5e84\u9547\u6625\u7533\u8def2778\u53f7A\u95f4", "name": "\u534e\u8054\u8d85\u5e02 \u6625\u7533\u8def\u5e97", "id": 135374, "pageNo": 0, "pageCount": null, "pageSize": 10, "ids": null, "endTime": null, "startTime": null}, {"cardNumFive": null, "isSupportYj": null, "cityName": null, "districtName": null, "shopinfo": {"mid": "888888854110034", "good_flag": "2", "new_flag": "2", "short_name": "\u534e\u8054\u8d85\u5e02", "short_name_pinyin": "hualianchaoshi", "status": null, "address": null, "name": null, "id": "31839"}, "mid": "888888854110034", "shopId": "31839", "netid": null, "province": 901, "district": 601, "zipcode": null, "telephone": "55224388", "posDate": "20070417", "destineTel": null, "togoTel": null, "trafficWay": "\u516c\u4ea4220 145 934", "signBuilding": null, "businessArea": "500\u81f31000\u5e73\u65b9\u7c73", "selfRoom": null, "businessTime": null, "stall": "\u6709", "consume": null, "serviceFei": null, "favourable": null, "shopMemo": null, "appraise": null, "website": null, "memo": null, "payTypes": "\u6749\u5fb7\u5361", "shopTypes": "\u8d85\u5e02", "consumeTypes": null, "cookTypes": null, "orderNum": 1000, "card4no": null, "card4noAcc": null, "district2": 407, "searchScope": null, "status": 1, "address": "\u6566\u5316\u8def151\u53f7", "name": "\u534e\u8054\u8d85\u5e02 \u6566\u5316\u8def\u5e97", "id": 135375, "pageNo": 0, "pageCount": null, "pageSize": 10, "ids": null, "endTime": null, "startTime": null}, {"cardNumFive": null, "isSupportYj": null, "cityName": null, "districtName": null, "shopinfo": {"mid": "888002154119938", "good_flag": "2", "new_flag": "1", "short_name": "\u534e\u8054\u8d85\u5e02", "short_name_pinyin": "hualianchaoshi", "status": null, "address": null, "name": null, "id": "31848"}, "mid": "888002154119938", "shopId": "31848", "netid": null, "province": 901, "district": 601, "zipcode": null, "telephone": null, "posDate": "20100118", "destineTel": null, "togoTel": null, "trafficWay": null, "signBuilding": null, "businessArea": null, "selfRoom": null, "businessTime": null, "stall": null, "consume": null, "serviceFei": null, "favourable": null, "shopMemo": null, "appraise": null, "website": null, "memo": null, "payTypes": "\u6749\u5fb7\u5361", "shopTypes": "\u8d85\u5e02", "consumeTypes": null, "cookTypes": null, "orderNum": 1000, "card4no": null, "card4noAcc": null, "district2": 410, "searchScope": null, "status": 1, "address": "\u95f8\u5317\u533a\u6c7e\u897f\u8def108\u53f7", "name": "\u534e\u8054\u8d85\u5e02 \u6c7e\u897f\u8def\u5e97", "id": 135377, "pageNo": 0, "pageCount": null, "pageSize": 10, "ids": null, "endTime": null, "startTime": null}, {"cardNumFive": null, "isSupportYj": null, "cityName": null, "districtName": null, "shopinfo": {"mid": "888888854110321", "good_flag": "2", "new_flag": "2", "short_name": "\u534e\u8054\u8d85\u5e02", "short_name_pinyin": "hualianchaoshi", "status": null, "address": null, "name": null, "id": "31849"}, "mid": "888888854110321", "shopId": "31849", "netid": null, "province": 901, "district": 601, "zipcode": null, "telephone": null, "posDate": "200908", "destineTel": null, "togoTel": null, "trafficWay": "\u516c\u4ea4823\u3001222", "signBuilding": null, "businessArea": null, "selfRoom": null, "businessTime": null, "stall": null, "consume": null, "serviceFei": null, "favourable": null, "shopMemo": null, "appraise": null, "website": null, "memo": null, "payTypes": "\u6749\u5fb7\u5361", "shopTypes": "\u8d85\u5e02", "consumeTypes": null, "cookTypes": null, "orderNum": 1000, "card4no": null, "card4noAcc": null, "district2": 408, "searchScope": null, "status": 1, "address": "\u5e7f\u4e2d\u8def636\u53f7", "name": "\u534e\u8054\u8d85\u5e02 \u5e7f\u4e2d\u8def\u5e97", "id": 135378, "pageNo": 0, "pageCount": null, "pageSize": 10, "ids": null, "endTime": null, "startTime": null}, {"cardNumFive": null, "isSupportYj": null, "cityName": null, "districtName": null, "shopinfo": {"mid": "888888854110080", "good_flag": "2", "new_flag": "2", "short_name": "\u534e\u8054\u8d85\u5e02", "short_name_pinyin": "hualianchaoshi", "status": null, "address": null, "name": null, "id": "31850"}, "mid": "888888854110080", "shopId": "31850", "netid": null, "province": 901, "district": 601, "zipcode": null, "telephone": "64951617", "posDate": "20080307", "destineTel": null, "togoTel": null, "trafficWay": "\u516c\u4ea4205 931 927", "signBuilding": null, "businessArea": null, "selfRoom": null, "businessTime": null, "stall": null, "consume": null, "serviceFei": null, "favourable": null, "shopMemo": null, "appraise": null, "website": null, "memo": null, "payTypes": "\u6749\u5fb7\u5361", "shopTypes": "\u8d85\u5e02", "consumeTypes": null, "cookTypes": null, "orderNum": 1000, "card4no": null, "card4noAcc": null, "district2": 403, "searchScope": null, "status": 1, "address": "\u6842\u6797\u8def634\u53f7", "name": "\u534e\u8054\u8d85\u5e02 \u6842\u6797\u5e97", "id": 135379, "pageNo": 0, "pageCount": null, "pageSize": 10, "ids": null, "endTime": null, "startTime": null}, {"cardNumFive": null, "isSupportYj": null, "cityName": null, "districtName": null, "shopinfo": {"mid": "888888854110034", "good_flag": "2", "new_flag": "2", "short_name": "\u534e\u8054\u8d85\u5e02", "short_name_pinyin": "hualianchaoshi", "status": null, "address": null, "name": null, "id": "31839"}, "mid": "888888854110034", "shopId": "31839", "netid": null, "province": 901, "district": 601, "zipcode": null, "telephone": "69100048", "posDate": "20070417", "destineTel": null, "togoTel": null, "trafficWay": "\u516c\u4ea4910 817 937", "signBuilding": null, "businessArea": "500\u81f31000\u5e73\u65b9\u7c73", "selfRoom": null, "businessTime": null, "stall": "\u6709", "consume": null, "serviceFei": null, "favourable": null, "shopMemo": null, "appraise": null, "website": null, "memo": null, "payTypes": "\u6749\u5fb7\u5361", "shopTypes": "\u8d85\u5e02", "consumeTypes": null, "cookTypes": null, "orderNum": 1000, "card4no": null, "card4noAcc": null, "district2": 407, "searchScope": null, "status": 1, "address": "\u56fd\u5e74\u8def95\u53f7", "name": "\u534e\u8054\u8d85\u5e02 \u56fd\u5e74\u8def\u5e97", "id": 135381, "pageNo": 0, "pageCount": null, "pageSize": 10, "ids": null, "endTime": null, "startTime": null}, {"cardNumFive": null, "isSupportYj": null, "cityName": null, "districtName": null, "shopinfo": {"mid": "888888854110231", "good_flag": "2", "new_flag": "2", "short_name": "\u534e\u8054\u8d85\u5e02", "short_name_pinyin": "hualianchaoshi", "status": null, "address": null, "name": null, "id": "31853"}, "mid": "888888854110231", "shopId": "31853", "netid": null, "province": 901, "district": 601, "zipcode": null, "telephone": "58973052", "posDate": "20090313", "destineTel": null, "togoTel": null, "trafficWay": null, "signBuilding": null, "businessArea": "400", "selfRoom": null, "businessTime": "7:30~21:30", "stall": "\u6709", "consume": null, "serviceFei": null, "favourable": null, "shopMemo": null, "appraise": null, "website": null, "memo": null, "payTypes": "\u6749\u5fb7\u5361", "shopTypes": "\u8d85\u5e02", "consumeTypes": null, "cookTypes": null, "orderNum": 1000, "card4no": null, "card4noAcc": null, "district2": 418, "searchScope": null, "status": 1, "address": "\u5408\u5e86\u9547\u4e1c\u5ddd\u516c\u8def5933\u53f7", "name": "\u534e\u8054\u8d85\u5e02 \u5408\u5e86\u5e97", "id": 135384, "pageNo": 0, "pageCount": null, "pageSize": 10, "ids": null, "endTime": null, "startTime": null}, {"cardNumFive": null, "isSupportYj": null, "cityName": null, "districtName": null, "shopinfo": {"mid": "888888854110214", "good_flag": "2", "new_flag": "2", "short_name": "\u534e\u8054\u8d85\u5e02", "short_name_pinyin": "hualianchaoshi", "status": null, "address": null, "name": null, "id": "31856"}, "mid": "888888854110214", "shopId": "31856", "netid": null, "province": 901, "district": 601, "zipcode": null, "telephone": "62621718", "posDate": "20090224", "destineTel": null, "togoTel": null, "trafficWay": null, "signBuilding": null, "businessArea": "600", "selfRoom": null, "businessTime": "7:00~22:00", "stall": "\u65e0", "consume": null, "serviceFei": null, "favourable": null, "shopMemo": null, "appraise": null, "website": null, "memo": null, "payTypes": "\u6749\u5fb7\u5361", "shopTypes": "\u8d85\u5e02", "consumeTypes": null, "cookTypes": null, "orderNum": 1000, "card4no": null, "card4noAcc": null, "district2": 406, "searchScope": null, "status": 1, "address": "\u8679\u53e4\u8def335\u53f7", "name": "\u534e\u8054\u8d85\u5e02 \u8679\u53e4\u8def\u5e97", "id": 135387, "pageNo": 0, "pageCount": null, "pageSize": 10, "ids": null, "endTime": null, "startTime": null}, {"cardNumFive": null, "isSupportYj": null, "cityName": null, "districtName": null, "shopinfo": {"mid": "888002153310042", "good_flag": "2", "new_flag": "1", "short_name": "\u534e\u8054\u8d85\u5e02", "short_name_pinyin": "hualianchaoshi", "status": null, "address": null, "name": null, "id": "31857"}, "mid": "888002153310042", "shopId": "31857", "netid": null, "province": 901, "district": 601, "zipcode": null, "telephone": "57451226", "posDate": null, "destineTel": null, "togoTel": null, "trafficWay": null, "signBuilding": null, "businessArea": null, "selfRoom": null, "businessTime": null, "stall": null, "consume": null, "serviceFei": null, "favourable": null, "shopMemo": null, "appraise": null, "website": null, "memo": null, "payTypes": "\u6749\u5fb7\u5361", "shopTypes": "\u8d85\u5e02", "consumeTypes": null, "cookTypes": null, "orderNum": 1000, "card4no": null, "card4noAcc": null, "district2": 413, "searchScope": null, "status": 1, "address": "\u4e0a\u6d77\u5e02\u5949\u8d24\u533a\u67d8\u6797\u9547\u80e1\u6865\u65b0\u885711\u53f7", "name": "\u534e\u8054\u8d85\u5e02 \u80e1\u6865\u65b0\u8857\u5e97", "id": 135388, "pageNo": 0, "pageCount": null, "pageSize": 10, "ids": null, "endTime": null, "startTime": null}], "pageLimit": 3070, "size": 10}