{"pageCount": 1095, "count": 10942, "pageNo": 303, "subShopInfo": {"cardNumFive": "", "isSupportYj": "", "cityName": null, "districtName": null, "shopinfo": {"mid": null, "good_flag": null, "new_flag": null, "short_name": null, "short_name_pinyin": null, "status": null, "address": "", "name": "", "id": null}, "mid": null, "shopId": null, "netid": null, "province": 901, "district": null, "zipcode": null, "telephone": null, "posDate": null, "destineTel": null, "togoTel": null, "trafficWay": null, "signBuilding": null, "businessArea": null, "selfRoom": null, "businessTime": null, "stall": null, "consume": null, "serviceFei": null, "favourable": null, "shopMemo": "1", "appraise": null, "website": null, "memo": null, "payTypes": "", "shopTypes": "", "consumeTypes": null, "cookTypes": null, "orderNum": null, "card4no": null, "card4noAcc": null, "district2": null, "searchScope": null, "status": null, "address": "", "name": null, "id": null, "pageNo": 302, "pageCount": null, "pageSize": 10, "ids": null, "endTime": null, "startTime": null}, "list": [{"cardNumFive": null, "isSupportYj": null, "cityName": null, "districtName": null, "shopinfo": {"mid": "888002154410023", "good_flag": null, "new_flag": "2", "short_name": "\u7ea2\u5b9d\u77f3", "short_name_pinyin": "hongbaoshi", "status": null, "address": null, "name": null, "id": "38642"}, "mid": "888002154410023", "shopId": "38642", "netid": null, "province": 901, "district": 601, "zipcode": null, "telephone": null, "posDate": null, "destineTel": null, "togoTel": null, "trafficWay": null, "signBuilding": null, "businessArea": null, "selfRoom": null, "businessTime": null, "stall": null, "consume": null, "serviceFei": null, "favourable": null, "shopMemo": null, "appraise": null, "website": null, "memo": null, "payTypes": "\u6749\u5fb7\u5361,", "shopTypes": "\u4fbf\u5229\u5e97", "consumeTypes": null, "cookTypes": null, "orderNum": null, "card4no": null, "card4noAcc": null, "district2": 401, "searchScope": null, "status": 1, "address": "\u6dee\u6d77\u4e2d\u8def99\u53f7", "name": "\u6dee\u6d77\u4e2d\u8def\u5e97", "id": 469523871976914944, "pageNo": 0, "pageCount": null, "pageSize": 10, "ids": null, "endTime": null, "startTime": null}, {"cardNumFive": null, "isSupportYj": null, "cityName": null, "districtName": null, "shopinfo": {"mid": "888002154410023", "good_flag": null, "new_flag": "2", "short_name": "\u7ea2\u5b9d\u77f3", "short_name_pinyin": "hongbaoshi", "status": null, "address": null, "name": null, "id": "38642"}, "mid": "888002154410023", "shopId": "38642", "netid": null, "province": 901, "district": 601, "zipcode": null, "telephone": null, "posDate": null, "destineTel": null, "togoTel": null, "trafficWay": null, "signBuilding": null, "businessArea": null, "selfRoom": null, "businessTime": null, "stall": null, "consume": null, "serviceFei": null, "favourable": null, "shopMemo": null, "appraise": null, "website": null, "memo": null, "payTypes": "", "shopTypes": null, "consumeTypes": null, "cookTypes": null, "orderNum": null, "card4no": null, "card4noAcc": null, "district2": 406, "searchScope": null, "status": 1, "address": "\u4ed9\u971e\u8def1122\u53f7", "name": "\u4ed9\u971e\u8def\u5e97", "id": 503957654494773248, "pageNo": 0, "pageCount": null, "pageSize": 10, "ids": null, "endTime": null, "startTime": null}, {"cardNumFive": null, "isSupportYj": null, "cityName": null, "districtName": null, "shopinfo": {"mid": "888888880430075", "good_flag": "2", "new_flag": "2", "short_name": "\u8679\u5149\u773c\u955c", "short_name_pinyin": "hongguangyanjing", "status": null, "address": null, "name": null, "id": "31823"}, "mid": "888888880430075", "shopId": "31823", "netid": null, "province": 901, "district": 601, "zipcode": null, "telephone": "65878076", "posDate": null, "destineTel": null, "togoTel": null, "trafficWay": "18\u300121\u3001939", "signBuilding": null, "businessArea": null, "selfRoom": null, "businessTime": null, "stall": null, "consume": null, "serviceFei": null, "favourable": null, "shopMemo": null, "appraise": null, "website": null, "memo": null, "payTypes": "\u6749\u5fb7\u5361", "shopTypes": "\u96f6\u552e,\u4e13\u5356", "consumeTypes": null, "cookTypes": null, "orderNum": 1000, "card4no": null, "card4noAcc": null, "district2": 408, "searchScope": null, "status": 1, "address": "\u56db\u5ddd\u5317\u8def1878\u53f7\uff08\u4e59\uff09", "name": "\u8679\u5149\u773c\u955c \u56db\u5ddd\u5317\u8def\u5e97", "id": 135329, "pageNo": 0, "pageCount": null, "pageSize": 10, "ids": null, "endTime": null, "startTime": null}, {"cardNumFive": null, "isSupportYj": null, "cityName": null, "districtName": null, "shopinfo": {"mid": "888888854110005", "good_flag": "2", "new_flag": "2", "short_name": "\u7ea2\u8857\u8d85\u5e02", "short_name_pinyin": "hongjiechaoshi", "status": null, "address": null, "name": null, "id": "31791"}, "mid": "888888854110005", "shopId": "31791", "netid": null, "province": 901, "district": 601, "zipcode": "200041", "telephone": "62186372", "posDate": "20061124", "destineTel": "62186372", "togoTel": "62186372", "trafficWay": "\u516c\u4ea4113 136", "signBuilding": null, "businessArea": null, "selfRoom": "\u65e0", "businessTime": null, "stall": "\u65e0", "consume": null, "serviceFei": null, "favourable": null, "shopMemo": null, "appraise": null, "website": null, "memo": null, "payTypes": "\u6749\u5fb7\u5361", "shopTypes": "\u8d85\u5e02", "consumeTypes": null, "cookTypes": null, "orderNum": 1000, "card4no": null, "card4noAcc": null, "district2": 404, "searchScope": null, "status": 1, "address": "\u6c5f\u5b81\u8def585\u53f7", "name": "\u7ea2\u8857\u8d85\u5e02 \u6c5f\u5b81\u5e97", "id": 135229, "pageNo": 0, "pageCount": null, "pageSize": 10, "ids": null, "endTime": null, "startTime": null}, {"cardNumFive": null, "isSupportYj": null, "cityName": null, "districtName": null, "shopinfo": {"mid": "888888858120785", "good_flag": "2", "new_flag": "2", "short_name": "\u5f18\u8bb0\u6e2f\u5f0f\u8336\u9910\u5385", "short_name_pinyin": "hongjigangshichacanting", "status": null, "address": null, "name": null, "id": "31789"}, "mid": "888888858120785", "shopId": "31789", "netid": null, "province": 901, "district": 601, "zipcode": null, "telephone": "62557895", "posDate": null, "destineTel": null, "togoTel": null, "trafficWay": null, "signBuilding": null, "businessArea": null, "selfRoom": null, "businessTime": null, "stall": null, "consume": null, "serviceFei": null, "favourable": null, "shopMemo": null, "appraise": null, "website": null, "memo": null, "payTypes": "\u6749\u5fb7\u5361", "shopTypes": "\u9910\u996e", "consumeTypes": null, "cookTypes": null, "orderNum": 1000, "card4no": null, "card4noAcc": null, "district2": 404, "searchScope": null, "status": 1, "address": "\u65b0\u95f8\u8def852\u53f7", "name": "\u5f18\u8bb0\u6e2f\u5f0f\u8336\u9910\u5385 \u65b0\u95f8\u8def\u5e97", "id": 135226, "pageNo": 0, "pageCount": null, "pageSize": 10, "ids": null, "endTime": null, "startTime": null}, {"cardNumFive": null, "isSupportYj": null, "cityName": null, "districtName": null, "shopinfo": {"mid": "888888854110205", "good_flag": "2", "new_flag": "2", "short_name": "\u6cd3\u94ed\u8d85\u5e02", "short_name_pinyin": "hongmingchaoshi", "status": null, "address": null, "name": null, "id": "31817"}, "mid": "888888854110205", "shopId": "31817", "netid": null, "province": 901, "district": 601, "zipcode": null, "telephone": null, "posDate": "200911", "destineTel": null, "togoTel": null, "trafficWay": null, "signBuilding": null, "businessArea": null, "selfRoom": null, "businessTime": null, "stall": null, "consume": null, "serviceFei": null, "favourable": null, "shopMemo": null, "appraise": null, "website": null, "memo": null, "payTypes": "\u6749\u5fb7\u5361", "shopTypes": "\u8d85\u5e02", "consumeTypes": null, "cookTypes": null, "orderNum": 1000, "card4no": null, "card4noAcc": null, "district2": 401, "searchScope": null, "status": 1, "address": "\u51e4\u9633\u8def282\u53f7", "name": "\u6cd3\u94ed\u8d85\u5e02 \u51e4\u9633\u8def\u5e97", "id": 135323, "pageNo": 0, "pageCount": null, "pageSize": 10, "ids": null, "endTime": null, "startTime": null}, {"cardNumFive": null, "isSupportYj": null, "cityName": null, "districtName": null, "shopinfo": {"mid": "888888853110070", "good_flag": null, "new_flag": null, "short_name": "\u8679\u6865\u53cb\u8c0a\u5546\u57ce", "short_name_pinyin": "hongqiaoyouyishangcheng", "status": null, "address": null, "name": null, "id": "36748"}, "mid": "888888853110070", "shopId": "36748", "netid": null, "province": 901, "district": 601, "zipcode": null, "telephone": "62700000", "posDate": null, "destineTel": null, "togoTel": null, "trafficWay": null, "signBuilding": null, "businessArea": null, "selfRoom": null, "businessTime": null, "stall": null, "consume": null, "serviceFei": null, "favourable": null, "shopMemo": null, "appraise": null, "website": null, "memo": null, "payTypes": "\u6749\u5fb7\u5361", "shopTypes": "\u767e\u8d27", "consumeTypes": null, "cookTypes": null, "orderNum": 1000, "card4no": null, "card4noAcc": null, "district2": 406, "searchScope": null, "status": 1, "address": "\u9075\u4e49\u5357\u8def6\u53f7", "name": "\u8679\u6865\u53cb\u8c0a\u5546\u57ce \u9075\u4e49\u5357\u8def\u5e97", "id": 152997, "pageNo": 0, "pageCount": null, "pageSize": 10, "ids": null, "endTime": null, "startTime": null}, {"cardNumFive": null, "isSupportYj": null, "cityName": null, "districtName": null, "shopinfo": {"mid": "888888853110070", "good_flag": null, "new_flag": null, "short_name": "\u8679\u6865\u53cb\u8c0a\u5546\u57ce", "short_name_pinyin": "hongqiaoyouyishangcheng", "status": null, "address": null, "name": null, "id": "36748"}, "mid": "888888853110070", "shopId": "36748", "netid": null, "province": 901, "district": 601, "zipcode": null, "telephone": null, "posDate": null, "destineTel": null, "togoTel": null, "trafficWay": null, "signBuilding": null, "businessArea": null, "selfRoom": null, "businessTime": null, "stall": null, "consume": null, "serviceFei": null, "favourable": null, "shopMemo": null, "appraise": null, "website": null, "memo": null, "payTypes": "\u6749\u5fb7\u5361", "shopTypes": "\u767e\u8d27", "consumeTypes": null, "cookTypes": null, "orderNum": 1000, "card4no": null, "card4noAcc": null, "district2": 406, "searchScope": null, "status": 1, "address": "\u9075\u4e49\u5357\u8def7250\u53f7", "name": "\u8679\u6865\u53cb\u8c0a\u5546\u57ce \u8679\u6865\u53cb\u8c0a", "id": 199132, "pageNo": 0, "pageCount": null, "pageSize": 10, "ids": null, "endTime": null, "startTime": null}, {"cardNumFive": null, "isSupportYj": null, "cityName": null, "districtName": null, "shopinfo": {"mid": "888888857220002", "good_flag": "1", "new_flag": "2", "short_name": "\u5b8f\u56fe\u4e09\u80de", "short_name_pinyin": "hongtusanbao", "status": null, "address": null, "name": null, "id": "31815"}, "mid": "888888857220002", "shopId": "31815", "netid": null, "province": 901, "district": 601, "zipcode": "200135", "telephone": "68392145", "posDate": "20070412", "destineTel": null, "togoTel": null, "trafficWay": "\u5f90\u5ddd\u7ebf", "signBuilding": null, "businessArea": null, "selfRoom": null, "businessTime": null, "stall": "\u65e0", "consume": null, "serviceFei": null, "favourable": null, "shopMemo": null, "appraise": null, "website": null, "memo": null, "payTypes": ",,\u6749\u5fb7\u5361", "shopTypes": "\u8d85\u5e02,\u4e13\u5356", "consumeTypes": null, "cookTypes": null, "orderNum": 1000, "card4no": null, "card4noAcc": null, "district2": 418, "searchScope": null, "status": 1, "address": "\u5ddd\u6c99\u8def4805\u53f7", "name": "\u5b8f\u56fe\u4e09\u80de \u5ddd\u6c99\u5e97", "id": 135300, "pageNo": 0, "pageCount": null, "pageSize": 10, "ids": null, "endTime": null, "startTime": null}, {"cardNumFive": null, "isSupportYj": null, "cityName": null, "districtName": null, "shopinfo": {"mid": "888888857220002", "good_flag": "1", "new_flag": "2", "short_name": "\u5b8f\u56fe\u4e09\u80de", "short_name_pinyin": "hongtusanbao", "status": null, "address": null, "name": null, "id": "31815"}, "mid": "888888857220002", "shopId": "31815", "netid": null, "province": 901, "district": 601, "zipcode": "200031", "telephone": "54252082", "posDate": "20070215", "destineTel": null, "togoTel": null, "trafficWay": "\u516c\u4ea4572 72 50 49", "signBuilding": "\u6c47\u91d1\u767e\u8d27\u5bf9\u9762", "businessArea": "2000~6000\u5e73\u7c73", "selfRoom": "\u65e0", "businessTime": "10:00~20:00", "stall": "\u65e0", "consume": null, "serviceFei": null, "favourable": null, "shopMemo": null, "appraise": null, "website": null, "memo": null, "payTypes": "\u6749\u5fb7\u5361", "shopTypes": "\u8d85\u5e02,\u4e13\u5356", "consumeTypes": null, "cookTypes": null, "orderNum": 1000, "card4no": null, "card4noAcc": null, "district2": 403, "searchScope": null, "status": 1, "address": "\u8087\u5bb6\u6d5c\u8def979\u53f7\uff08\u6c47\u91d1\u767e\u8d27\u5bf9\u9762\uff09", "name": "\u5b8f\u56fe\u4e09\u80de \u5e1d\u666f\u82d1\u65d7\u8230\u5e97", "id": 135303, "pageNo": 0, "pageCount": null, "pageSize": 10, "ids": null, "endTime": null, "startTime": null}], "pageLimit": 3020, "size": 10}