{"pageCount": 1095, "count": 10942, "pageNo": 318, "subShopInfo": {"cardNumFive": "", "isSupportYj": "", "cityName": null, "districtName": null, "shopinfo": {"mid": null, "good_flag": null, "new_flag": null, "short_name": null, "short_name_pinyin": null, "status": null, "address": "", "name": "", "id": null}, "mid": null, "shopId": null, "netid": null, "province": 901, "district": null, "zipcode": null, "telephone": null, "posDate": null, "destineTel": null, "togoTel": null, "trafficWay": null, "signBuilding": null, "businessArea": null, "selfRoom": null, "businessTime": null, "stall": null, "consume": null, "serviceFei": null, "favourable": null, "shopMemo": "1", "appraise": null, "website": null, "memo": null, "payTypes": "", "shopTypes": "", "consumeTypes": null, "cookTypes": null, "orderNum": null, "card4no": null, "card4noAcc": null, "district2": null, "searchScope": null, "status": null, "address": "", "name": null, "id": null, "pageNo": 317, "pageCount": null, "pageSize": 10, "ids": null, "endTime": null, "startTime": null}, "list": [{"cardNumFive": null, "isSupportYj": null, "cityName": null, "districtName": null, "shopinfo": {"mid": "888002154110580", "good_flag": null, "new_flag": null, "short_name": "\u534e\u6da6\u4e07\u5bb6\u8d85\u5e02", "short_name_pinyin": "huarunwanjiachaoshi", "status": null, "address": null, "name": null, "id": "40949"}, "mid": "888002154110580", "shopId": "40949", "netid": null, "province": 901, "district": 601, "zipcode": null, "telephone": null, "posDate": null, "destineTel": null, "togoTel": null, "trafficWay": null, "signBuilding": null, "businessArea": null, "selfRoom": null, "businessTime": null, "stall": null, "consume": null, "serviceFei": null, "favourable": null, "shopMemo": null, "appraise": null, "website": null, "memo": null, "payTypes": "\u6749\u5fb7\u5361", "shopTypes": "\u8d85\u5e02", "consumeTypes": null, "cookTypes": null, "orderNum": 1000, "card4no": null, "card4noAcc": null, "district2": 404, "searchScope": null, "status": 1, "address": "\u5357\u4eac\u897f\u8def1563\u53f7", "name": "\u534e\u6da6\u4e07\u5bb6\u8d85\u5e02 \u9759\u5b89\u5609\u91cc\u5e97", "id": 177865, "pageNo": 0, "pageCount": null, "pageSize": 10, "ids": null, "endTime": null, "startTime": null}, {"cardNumFive": null, "isSupportYj": null, "cityName": null, "districtName": null, "shopinfo": {"mid": "888002154119983", "good_flag": null, "new_flag": "2", "short_name": "\u534e\u6da6\u4e07\u5bb6\u8d85\u5e02", "short_name_pinyin": "huarunwanjiachaoshi", "status": null, "address": null, "name": null, "id": "31906"}, "mid": "888002154119983", "shopId": "31906", "netid": null, "province": 901, "district": 601, "zipcode": null, "telephone": null, "posDate": null, "destineTel": null, "togoTel": null, "trafficWay": null, "signBuilding": null, "businessArea": null, "selfRoom": null, "businessTime": null, "stall": null, "consume": null, "serviceFei": null, "favourable": null, "shopMemo": null, "appraise": null, "website": null, "memo": null, "payTypes": "\u6749\u5fb7\u5361,", "shopTypes": "\u8d85\u5e02", "consumeTypes": null, "cookTypes": null, "orderNum": null, "card4no": null, "card4noAcc": null, "district2": 403, "searchScope": null, "status": 1, "address": "\u8679\u6865\u8def1\u53f7B108/116\u94fa\u4f4d", "name": "\u6e2f\u6c47\u5e97", "id": 469523868772466688, "pageNo": 0, "pageCount": null, "pageSize": 10, "ids": null, "endTime": null, "startTime": null}, {"cardNumFive": null, "isSupportYj": null, "cityName": null, "districtName": null, "shopinfo": {"mid": "888888859120043", "good_flag": null, "new_flag": null, "short_name": "\u534e\u6c0f\u5927\u836f\u623f", "short_name_pinyin": "huashidayaofang", "status": null, "address": null, "name": null, "id": "31907"}, "mid": "888888859120043", "shopId": "31907", "netid": null, "province": 901, "district": 601, "zipcode": null, "telephone": "61344604", "posDate": "20080204", "destineTel": null, "togoTel": null, "trafficWay": null, "signBuilding": null, "businessArea": null, "selfRoom": null, "businessTime": null, "stall": null, "consume": null, "serviceFei": null, "favourable": null, "shopMemo": null, "appraise": null, "website": null, "memo": null, "payTypes": "\u6749\u5fb7\u5361", "shopTypes": "\u836f\u5e97", "consumeTypes": null, "cookTypes": null, "orderNum": 1000, "card4no": null, "card4noAcc": null, "district2": 418, "searchScope": null, "status": 1, "address": "\u7231\u535a\u8def305-307\u53f7", "name": "\u534e\u6c0f\u5927\u836f\u623f \u7231\u535a\u8def\u836f\u623f", "id": 135457, "pageNo": 0, "pageCount": null, "pageSize": 10, "ids": null, "endTime": null, "startTime": null}, {"cardNumFive": null, "isSupportYj": null, "cityName": null, "districtName": null, "shopinfo": {"mid": "888888859120043", "good_flag": null, "new_flag": null, "short_name": "\u534e\u6c0f\u5927\u836f\u623f", "short_name_pinyin": "huashidayaofang", "status": null, "address": null, "name": null, "id": "31907"}, "mid": "888888859120043", "shopId": "31907", "netid": null, "province": 901, "district": 601, "zipcode": null, "telephone": "63075278", "posDate": "20080204", "destineTel": null, "togoTel": null, "trafficWay": "\u516c\u4ea415 18 41", "signBuilding": null, "businessArea": null, "selfRoom": null, "businessTime": null, "stall": null, "consume": null, "serviceFei": null, "favourable": null, "shopMemo": null, "appraise": null, "website": null, "memo": null, "payTypes": "\u6749\u5fb7\u5361", "shopTypes": "\u836f\u5e97", "consumeTypes": null, "cookTypes": null, "orderNum": 1000, "card4no": null, "card4noAcc": null, "district2": 410, "searchScope": null, "status": 1, "address": "\u5b89\u5e86\u8def522\uff0d524\u53f7", "name": "\u534e\u6c0f\u5927\u836f\u623f \u5b89\u5e86\u5206\u5e97", "id": 135458, "pageNo": 0, "pageCount": null, "pageSize": 10, "ids": null, "endTime": null, "startTime": null}, {"cardNumFive": null, "isSupportYj": null, "cityName": null, "districtName": null, "shopinfo": {"mid": "888888859120043", "good_flag": null, "new_flag": null, "short_name": "\u534e\u6c0f\u5927\u836f\u623f", "short_name_pinyin": "huashidayaofang", "status": null, "address": null, "name": null, "id": "31907"}, "mid": "888888859120043", "shopId": "31907", "netid": null, "province": 901, "district": 601, "zipcode": null, "telephone": "55823727", "posDate": "20071224", "destineTel": null, "togoTel": null, "trafficWay": "\u516c\u4ea4868 145 934", "signBuilding": null, "businessArea": null, "selfRoom": null, "businessTime": null, "stall": null, "consume": null, "serviceFei": null, "favourable": null, "shopMemo": null, "appraise": null, "website": null, "memo": null, "payTypes": "\u6749\u5fb7\u5361", "shopTypes": "\u836f\u5e97", "consumeTypes": null, "cookTypes": null, "orderNum": 1000, "card4no": null, "card4noAcc": null, "district2": 407, "searchScope": null, "status": 1, "address": "\u5ef6\u5409\u4e1c\u8def212\u53f7", "name": "\u534e\u6c0f\u5927\u836f\u623f \u5b89\u56fe\u836f\u623f", "id": 135459, "pageNo": 0, "pageCount": null, "pageSize": 10, "ids": null, "endTime": null, "startTime": null}, {"cardNumFive": null, "isSupportYj": null, "cityName": null, "districtName": null, "shopinfo": {"mid": "888888859120043", "good_flag": null, "new_flag": null, "short_name": "\u534e\u6c0f\u5927\u836f\u623f", "short_name_pinyin": "huashidayaofang", "status": null, "address": null, "name": null, "id": "31907"}, "mid": "888888859120043", "shopId": "31907", "netid": null, "province": 901, "district": 601, "zipcode": null, "telephone": "54863918", "posDate": "20080204", "destineTel": null, "togoTel": null, "trafficWay": "\u516c\u4ea4803 953 \u8398\u6c5f\u7ebf", "signBuilding": "\u6613\u521d\u83b2\u82b1\u8d85\u5e02", "businessArea": null, "selfRoom": null, "businessTime": null, "stall": null, "consume": null, "serviceFei": null, "favourable": null, "shopMemo": null, "appraise": null, "website": null, "memo": null, "payTypes": "\u6749\u5fb7\u5361", "shopTypes": "\u836f\u5e97", "consumeTypes": null, "cookTypes": null, "orderNum": 1000, "card4no": null, "card4noAcc": null, "district2": 409, "searchScope": null, "status": 1, "address": "\u5b9d\u94ed\u8def8\u53f7", "name": "\u534e\u6c0f\u5927\u836f\u623f \u5b9d\u94ed\u8def\u836f\u623f", "id": 135460, "pageNo": 0, "pageCount": null, "pageSize": 10, "ids": null, "endTime": null, "startTime": null}, {"cardNumFive": null, "isSupportYj": null, "cityName": null, "districtName": null, "shopinfo": {"mid": "888888859120137", "good_flag": "2", "new_flag": "2", "short_name": "\u534e\u6c0f\u5927\u836f\u623f", "short_name_pinyin": "huashidayaofang", "status": null, "address": null, "name": null, "id": "31908"}, "mid": "888888859120137", "shopId": "31908", "netid": null, "province": 901, "district": 601, "zipcode": null, "telephone": "56721320", "posDate": "20081106", "destineTel": null, "togoTel": null, "trafficWay": "\u516c\u4ea4952 537 66", "signBuilding": null, "businessArea": null, "selfRoom": null, "businessTime": null, "stall": null, "consume": null, "serviceFei": null, "favourable": null, "shopMemo": null, "appraise": null, "website": null, "memo": null, "payTypes": "\u6749\u5fb7\u5361", "shopTypes": "\u836f\u5e97", "consumeTypes": null, "cookTypes": null, "orderNum": 1000, "card4no": null, "card4noAcc": null, "district2": 410, "searchScope": null, "status": 1, "address": "\u6c38\u5174\u8def11\u53f7101\u5ba4", "name": "\u534e\u6c0f\u5927\u836f\u623f \u5b9d\u5c71\u8def\u5e97", "id": 135461, "pageNo": 0, "pageCount": null, "pageSize": 10, "ids": null, "endTime": null, "startTime": null}, {"cardNumFive": null, "isSupportYj": null, "cityName": null, "districtName": null, "shopinfo": {"mid": "888888859120043", "good_flag": null, "new_flag": null, "short_name": "\u534e\u6c0f\u5927\u836f\u623f", "short_name_pinyin": "huashidayaofang", "status": null, "address": null, "name": null, "id": "31907"}, "mid": "888888859120043", "shopId": "31907", "netid": null, "province": 901, "district": 601, "zipcode": null, "telephone": "56883783", "posDate": "20080203", "destineTel": null, "togoTel": null, "trafficWay": "\u516c\u4ea4206 46 912", "signBuilding": "\u6613\u521d\u83b2\u82b1\u8d85\u5e02", "businessArea": null, "selfRoom": null, "businessTime": null, "stall": null, "consume": null, "serviceFei": null, "favourable": null, "shopMemo": null, "appraise": null, "website": null, "memo": null, "payTypes": "\u6749\u5fb7\u5361", "shopTypes": "\u836f\u5e97", "consumeTypes": null, "cookTypes": null, "orderNum": 1000, "card4no": null, "card4noAcc": null, "district2": 410, "searchScope": null, "status": 1, "address": "\u4fdd\u5fb7\u8def88\u53f7", "name": "\u534e\u6c0f\u5927\u836f\u623f \u4fdd\u5fb7\u8def\u836f\u623f", "id": 135462, "pageNo": 0, "pageCount": null, "pageSize": 10, "ids": null, "endTime": null, "startTime": null}, {"cardNumFive": null, "isSupportYj": null, "cityName": null, "districtName": null, "shopinfo": {"mid": "888888859120043", "good_flag": null, "new_flag": null, "short_name": "\u534e\u6c0f\u5927\u836f\u623f", "short_name_pinyin": "huashidayaofang", "status": null, "address": null, "name": null, "id": "31907"}, "mid": "888888859120043", "shopId": "31907", "netid": null, "province": 901, "district": 601, "zipcode": null, "telephone": "65848605", "posDate": "20080201", "destineTel": null, "togoTel": null, "trafficWay": "\u5730\u94c1\u56db\u53f7\u7ebf \u7533\u5ddd\u7ebf", "signBuilding": null, "businessArea": null, "selfRoom": null, "businessTime": null, "stall": null, "consume": null, "serviceFei": null, "favourable": null, "shopMemo": null, "appraise": null, "website": null, "memo": null, "payTypes": "\u6749\u5fb7\u5361", "shopTypes": "\u836f\u5e97", "consumeTypes": null, "cookTypes": null, "orderNum": 1000, "card4no": null, "card4noAcc": null, "district2": 408, "searchScope": null, "status": 1, "address": "\u4fdd\u5b9a\u8def266\u53f7", "name": "\u534e\u6c0f\u5927\u836f\u623f \u4fdd\u5b9a\u5206\u5e97", "id": 135463, "pageNo": 0, "pageCount": null, "pageSize": 10, "ids": null, "endTime": null, "startTime": null}, {"cardNumFive": null, "isSupportYj": null, "cityName": null, "districtName": null, "shopinfo": {"mid": "888888859120043", "good_flag": null, "new_flag": null, "short_name": "\u534e\u6c0f\u5927\u836f\u623f", "short_name_pinyin": "huashidayaofang", "status": null, "address": null, "name": null, "id": "31907"}, "mid": "888888859120043", "shopId": "31907", "netid": null, "province": 901, "district": 601, "zipcode": null, "telephone": "56385119", "posDate": "20080203", "destineTel": null, "togoTel": null, "trafficWay": "\u516c\u4ea4876 210 66", "signBuilding": null, "businessArea": null, "selfRoom": null, "businessTime": null, "stall": null, "consume": null, "serviceFei": null, "favourable": null, "shopMemo": null, "appraise": null, "website": null, "memo": null, "payTypes": "\u6749\u5fb7\u5361", "shopTypes": "\u836f\u5e97", "consumeTypes": null, "cookTypes": null, "orderNum": 1000, "card4no": null, "card4noAcc": null, "district2": 410, "searchScope": null, "status": 1, "address": "\u5317\u5b9d\u5174\u8def206\u53f7", "name": "\u534e\u6c0f\u5927\u836f\u623f \u5317\u5b9d\u5174\u8def\u5206\u5e97", "id": 135464, "pageNo": 0, "pageCount": null, "pageSize": 10, "ids": null, "endTime": null, "startTime": null}], "pageLimit": 3170, "size": 10}