{"pageCount": 1095, "count": 10942, "pageNo": 311, "subShopInfo": {"cardNumFive": "", "isSupportYj": "", "cityName": null, "districtName": null, "shopinfo": {"mid": null, "good_flag": null, "new_flag": null, "short_name": null, "short_name_pinyin": null, "status": null, "address": "", "name": "", "id": null}, "mid": null, "shopId": null, "netid": null, "province": 901, "district": null, "zipcode": null, "telephone": null, "posDate": null, "destineTel": null, "togoTel": null, "trafficWay": null, "signBuilding": null, "businessArea": null, "selfRoom": null, "businessTime": null, "stall": null, "consume": null, "serviceFei": null, "favourable": null, "shopMemo": "1", "appraise": null, "website": null, "memo": null, "payTypes": "", "shopTypes": "", "consumeTypes": null, "cookTypes": null, "orderNum": null, "card4no": null, "card4noAcc": null, "district2": null, "searchScope": null, "status": null, "address": "", "name": null, "id": null, "pageNo": 310, "pageCount": null, "pageSize": 10, "ids": null, "endTime": null, "startTime": null}, "list": [{"cardNumFive": null, "isSupportYj": null, "cityName": null, "districtName": null, "shopinfo": {"mid": "888888854110217", "good_flag": "2", "new_flag": "2", "short_name": "\u534e\u8054\u8d85\u5e02", "short_name_pinyin": "hualianchaoshi", "status": null, "address": null, "name": null, "id": "31890"}, "mid": "888888854110217", "shopId": "31890", "netid": null, "province": 901, "district": 601, "zipcode": null, "telephone": "64980533", "posDate": "20090219", "destineTel": null, "togoTel": null, "trafficWay": null, "signBuilding": null, "businessArea": null, "selfRoom": null, "businessTime": "6:00~24:00", "stall": null, "consume": null, "serviceFei": null, "favourable": null, "shopMemo": null, "appraise": null, "website": null, "memo": null, "payTypes": "\u6749\u5fb7\u5361", "shopTypes": "\u8d85\u5e02", "consumeTypes": null, "cookTypes": null, "orderNum": 1000, "card4no": null, "card4noAcc": null, "district2": 409, "searchScope": null, "status": 1, "address": "\u8398\u5e84\u9547\u8398\u6ca5\u8def127\u53f7\uff08\u8fd1\u8398\u4e1c\u8def\uff09", "name": "\u534e\u8054\u8d85\u5e02 \u8398\u6ca5\u5e97", "id": 135426, "pageNo": 0, "pageCount": null, "pageSize": 10, "ids": null, "endTime": null, "startTime": null}, {"cardNumFive": null, "isSupportYj": null, "cityName": null, "districtName": null, "shopinfo": {"mid": "888002154119930", "good_flag": "2", "new_flag": "2", "short_name": "\u534e\u8054\u8d85\u5e02", "short_name_pinyin": "hualianchaoshi", "status": null, "address": null, "name": null, "id": "31892"}, "mid": "888002154119930", "shopId": "31892", "netid": null, "province": 901, "district": 601, "zipcode": null, "telephone": "55387996", "posDate": "200911", "destineTel": null, "togoTel": null, "trafficWay": null, "signBuilding": null, "businessArea": null, "selfRoom": null, "businessTime": null, "stall": null, "consume": null, "serviceFei": null, "favourable": null, "shopMemo": null, "appraise": null, "website": null, "memo": null, "payTypes": "\u6749\u5fb7\u5361", "shopTypes": "\u8d85\u5e02", "consumeTypes": null, "cookTypes": null, "orderNum": 1000, "card4no": null, "card4noAcc": null, "district2": 407, "searchScope": null, "status": 1, "address": "\u9038\u4ed9\u8def669\u5f0423\u53f7", "name": "\u534e\u8054\u8d85\u5e02 \u9038\u4ed9\u8def\u5e97", "id": 135429, "pageNo": 0, "pageCount": null, "pageSize": 10, "ids": null, "endTime": null, "startTime": null}, {"cardNumFive": null, "isSupportYj": null, "cityName": null, "districtName": null, "shopinfo": {"mid": "888888854110181", "good_flag": "2", "new_flag": "2", "short_name": "\u534e\u8054\u8d85\u5e02", "short_name_pinyin": "hualianchaoshi", "status": null, "address": null, "name": null, "id": "31893"}, "mid": "888888854110181", "shopId": "31893", "netid": null, "province": 901, "district": 601, "zipcode": null, "telephone": "64386958", "posDate": "20081203", "destineTel": null, "togoTel": null, "trafficWay": "\u516c\u4ea4167 \u5730\u94c1\u4e00\u53f7\u7ebf", "signBuilding": null, "businessArea": null, "selfRoom": null, "businessTime": null, "stall": null, "consume": null, "serviceFei": null, "favourable": null, "shopMemo": null, "appraise": null, "website": null, "memo": null, "payTypes": "\u6749\u5fb7\u5361", "shopTypes": "\u8d85\u5e02", "consumeTypes": null, "cookTypes": null, "orderNum": 1000, "card4no": null, "card4noAcc": null, "district2": 403, "searchScope": null, "status": 1, "address": "\u4e2d\u6f15\u8def3\u53f7", "name": "\u534e\u8054\u8d85\u5e02 \u88d5\u5fb7\u5e97", "id": 135430, "pageNo": 0, "pageCount": null, "pageSize": 10, "ids": null, "endTime": null, "startTime": null}, {"cardNumFive": null, "isSupportYj": null, "cityName": null, "districtName": null, "shopinfo": {"mid": "888888854110206", "good_flag": "2", "new_flag": "2", "short_name": "\u534e\u8054\u8d85\u5e02", "short_name_pinyin": "hualianchaoshi", "status": null, "address": null, "name": null, "id": "31895"}, "mid": "888888854110206", "shopId": "31895", "netid": null, "province": 901, "district": 601, "zipcode": null, "telephone": "63168007", "posDate": "20090225", "destineTel": null, "togoTel": null, "trafficWay": null, "signBuilding": null, "businessArea": null, "selfRoom": null, "businessTime": null, "stall": null, "consume": null, "serviceFei": null, "favourable": null, "shopMemo": null, "appraise": null, "website": null, "memo": null, "payTypes": "\u6749\u5fb7\u5361", "shopTypes": "\u8d85\u5e02", "consumeTypes": null, "cookTypes": null, "orderNum": 1000, "card4no": null, "card4noAcc": null, "district2": 401, "searchScope": null, "status": 1, "address": "\u5236\u9020\u5c40\u8def787\u53f7\u5e95\u697c", "name": "\u534e\u8054\u8d85\u5e02 \u5236\u9020\u5c40\u5e97", "id": 135432, "pageNo": 0, "pageCount": null, "pageSize": 10, "ids": null, "endTime": null, "startTime": null}, {"cardNumFive": null, "isSupportYj": null, "cityName": null, "districtName": null, "shopinfo": {"mid": "888002153310109", "good_flag": null, "new_flag": null, "short_name": "\u534e\u8054\u8d85\u5e02", "short_name_pinyin": "hualianchaoshi", "status": null, "address": null, "name": null, "id": "36183"}, "mid": "888002153310109", "shopId": "36183", "netid": null, "province": 901, "district": 601, "zipcode": null, "telephone": null, "posDate": "20100729", "destineTel": null, "togoTel": null, "trafficWay": null, "signBuilding": null, "businessArea": null, "selfRoom": null, "businessTime": null, "stall": null, "consume": null, "serviceFei": null, "favourable": null, "shopMemo": null, "appraise": null, "website": null, "memo": null, "payTypes": "\u6749\u5fb7\u5361", "shopTypes": "\u8d85\u5e02", "consumeTypes": null, "cookTypes": null, "orderNum": 1000, "card4no": null, "card4noAcc": null, "district2": 416, "searchScope": null, "status": 1, "address": "\u771f\u91d1\u8def1041\u53f7", "name": "\u534e\u8054\u8d85\u5e02 \u771f\u91d1\u8def\u5e97", "id": 150751, "pageNo": 0, "pageCount": null, "pageSize": 10, "ids": null, "endTime": null, "startTime": null}, {"cardNumFive": null, "isSupportYj": null, "cityName": null, "districtName": null, "shopinfo": {"mid": "888002153310108", "good_flag": null, "new_flag": null, "short_name": "\u534e\u8054\u8d85\u5e02", "short_name_pinyin": "hualianchaoshi", "status": null, "address": null, "name": null, "id": "36230"}, "mid": "888002153310108", "shopId": "36230", "netid": null, "province": 901, "district": 601, "zipcode": null, "telephone": "34631851", "posDate": "20100816", "destineTel": null, "togoTel": null, "trafficWay": null, "signBuilding": null, "businessArea": null, "selfRoom": null, "businessTime": null, "stall": null, "consume": null, "serviceFei": null, "favourable": null, "shopMemo": null, "appraise": null, "website": null, "memo": null, "payTypes": "\u6749\u5fb7\u5361", "shopTypes": "\u8d85\u5e02", "consumeTypes": null, "cookTypes": null, "orderNum": 1000, "card4no": null, "card4noAcc": null, "district2": 409, "searchScope": null, "status": 1, "address": "\u9f99\u5434\u8def5688\u5f0476\u53f7", "name": "\u534e\u8054\u8d85\u5e02 \u9f99\u5434\u8def\u5e97", "id": 150968, "pageNo": 0, "pageCount": null, "pageSize": 10, "ids": null, "endTime": null, "startTime": null}, {"cardNumFive": null, "isSupportYj": null, "cityName": null, "districtName": null, "shopinfo": {"mid": "888002153310125", "good_flag": null, "new_flag": null, "short_name": "\u534e\u8054\u8d85\u5e02", "short_name_pinyin": "hualianchaoshi", "status": null, "address": null, "name": null, "id": "36334"}, "mid": "888002153310125", "shopId": "36334", "netid": null, "province": 901, "district": 601, "zipcode": null, "telephone": "61517458", "posDate": "20100818", "destineTel": null, "togoTel": null, "trafficWay": null, "signBuilding": null, "businessArea": null, "selfRoom": null, "businessTime": null, "stall": null, "consume": null, "serviceFei": null, "favourable": null, "shopMemo": null, "appraise": null, "website": null, "memo": null, "payTypes": "\u6749\u5fb7\u5361", "shopTypes": "\u8d85\u5e02", "consumeTypes": null, "cookTypes": null, "orderNum": 1000, "card4no": null, "card4noAcc": null, "district2": 409, "searchScope": null, "status": 1, "address": "\u6caa\u5149\u8def93\u53f7105\u5ba4", "name": "\u534e\u8054\u8d85\u5e02 \u6caa\u5149\u8def\u5e97", "id": 151249, "pageNo": 0, "pageCount": null, "pageSize": 10, "ids": null, "endTime": null, "startTime": null}, {"cardNumFive": null, "isSupportYj": null, "cityName": null, "districtName": null, "shopinfo": {"mid": "888002153310128", "good_flag": null, "new_flag": null, "short_name": "\u534e\u8054\u8d85\u5e02", "short_name_pinyin": "hualianchaoshi", "status": null, "address": null, "name": null, "id": "36466"}, "mid": "888002153310128", "shopId": "36466", "netid": null, "province": 901, "district": 601, "zipcode": null, "telephone": null, "posDate": "20100919", "destineTel": null, "togoTel": null, "trafficWay": null, "signBuilding": null, "businessArea": null, "selfRoom": null, "businessTime": null, "stall": null, "consume": null, "serviceFei": null, "favourable": null, "shopMemo": null, "appraise": null, "website": null, "memo": null, "payTypes": "\u6749\u5fb7\u5361", "shopTypes": "\u8d85\u5e02", "consumeTypes": null, "cookTypes": null, "orderNum": 1000, "card4no": null, "card4noAcc": null, "district2": 407, "searchScope": null, "status": 1, "address": "\u98de\u8679\u8def315\u53f71\u5c42", "name": "\u534e\u8054\u8d85\u5e02 \u98de\u8679\u8def\u5e97", "id": 151673, "pageNo": 0, "pageCount": null, "pageSize": 10, "ids": null, "endTime": null, "startTime": null}, {"cardNumFive": null, "isSupportYj": null, "cityName": null, "districtName": null, "shopinfo": {"mid": "888002153310375", "good_flag": null, "new_flag": null, "short_name": "\u534e\u8054\u8d85\u5e02", "short_name_pinyin": "hualianchaoshi", "status": null, "address": null, "name": null, "id": "39639"}, "mid": "888002153310375", "shopId": "39639", "netid": null, "province": 901, "district": 601, "zipcode": null, "telephone": null, "posDate": null, "destineTel": null, "togoTel": null, "trafficWay": null, "signBuilding": null, "businessArea": null, "selfRoom": null, "businessTime": null, "stall": null, "consume": null, "serviceFei": null, "favourable": null, "shopMemo": null, "appraise": null, "website": null, "memo": null, "payTypes": "\u6749\u5fb7\u5361", "shopTypes": "\u8d85\u5e02", "consumeTypes": null, "cookTypes": null, "orderNum": 1000, "card4no": null, "card4noAcc": null, "district2": 406, "searchScope": null, "status": 1, "address": "\u4ed9\u971e\u897f\u8def630\u53f7", "name": "\u534e\u8054\u8d85\u5e02 \u4ed9\u971e\u897f\u8def\u5e97", "id": 169978, "pageNo": 0, "pageCount": null, "pageSize": 10, "ids": null, "endTime": null, "startTime": null}, {"cardNumFive": null, "isSupportYj": null, "cityName": null, "districtName": null, "shopinfo": {"mid": "888002153310376", "good_flag": null, "new_flag": null, "short_name": "\u534e\u8054\u8d85\u5e02", "short_name_pinyin": "hualianchaoshi", "status": null, "address": null, "name": null, "id": "39640"}, "mid": "888002153310376", "shopId": "39640", "netid": null, "province": 901, "district": 601, "zipcode": null, "telephone": null, "posDate": null, "destineTel": null, "togoTel": null, "trafficWay": null, "signBuilding": null, "businessArea": null, "selfRoom": null, "businessTime": null, "stall": null, "consume": null, "serviceFei": null, "favourable": null, "shopMemo": null, "appraise": null, "website": null, "memo": null, "payTypes": "\u6749\u5fb7\u5361", "shopTypes": "\u8d85\u5e02", "consumeTypes": null, "cookTypes": null, "orderNum": 1000, "card4no": null, "card4noAcc": null, "district2": 418, "searchScope": null, "status": 1, "address": "\u534e\u590f\u4e1c\u8def993\u53f7", "name": "\u534e\u8054\u8d85\u5e02 \u534e\u590f\u4e1c\u8def\u5e97", "id": 169979, "pageNo": 0, "pageCount": null, "pageSize": 10, "ids": null, "endTime": null, "startTime": null}], "pageLimit": 3100, "size": 10}