{"pageCount": 1095, "count": 10942, "pageNo": 317, "subShopInfo": {"cardNumFive": "", "isSupportYj": "", "cityName": null, "districtName": null, "shopinfo": {"mid": null, "good_flag": null, "new_flag": null, "short_name": null, "short_name_pinyin": null, "status": null, "address": "", "name": "", "id": null}, "mid": null, "shopId": null, "netid": null, "province": 901, "district": null, "zipcode": null, "telephone": null, "posDate": null, "destineTel": null, "togoTel": null, "trafficWay": null, "signBuilding": null, "businessArea": null, "selfRoom": null, "businessTime": null, "stall": null, "consume": null, "serviceFei": null, "favourable": null, "shopMemo": "1", "appraise": null, "website": null, "memo": null, "payTypes": "", "shopTypes": "", "consumeTypes": null, "cookTypes": null, "orderNum": null, "card4no": null, "card4noAcc": null, "district2": null, "searchScope": null, "status": null, "address": "", "name": null, "id": null, "pageNo": 316, "pageCount": null, "pageSize": 10, "ids": null, "endTime": null, "startTime": null}, "list": [{"cardNumFive": null, "isSupportYj": null, "cityName": null, "districtName": null, "shopinfo": {"mid": "T00000000000010", "good_flag": "1", "new_flag": "2", "short_name": "\u534e\u8054\u5409\u4e70\u76db", "short_name_pinyin": "hualianjimaisheng", "status": null, "address": null, "name": null, "id": "31899"}, "mid": "T00000000000010", "shopId": "31899", "netid": null, "province": 901, "district": 601, "zipcode": null, "telephone": null, "posDate": "20071213", "destineTel": null, "togoTel": null, "trafficWay": "\u516c\u4ea4845\uff0c224\u3001510\u300178", "signBuilding": null, "businessArea": null, "selfRoom": null, "businessTime": "9:00~21:00", "stall": "\u6709", "consume": null, "serviceFei": null, "favourable": null, "shopMemo": null, "appraise": null, "website": null, "memo": "\u534e\u8054\u5409\u4e70\u76db\u52a0\u76df\u5e97\u4e0d\u53ef\u4f7f\u7528\u5dcd\u5eb7\u670d\u52a1\u5361", "payTypes": "\u6749\u5fb7\u5361", "shopTypes": "\u8d85\u5e02", "consumeTypes": null, "cookTypes": null, "orderNum": 1000, "card4no": null, "card4noAcc": null, "district2": 405, "searchScope": null, "status": 1, "address": "\u65b0\u6751\u8def139\u53f7", "name": "\u534e\u8054\u5409\u4e70\u76db \u65b0\u6751\u5e97", "id": 135448, "pageNo": 0, "pageCount": null, "pageSize": 10, "ids": null, "endTime": null, "startTime": null}, {"cardNumFive": null, "isSupportYj": null, "cityName": null, "districtName": null, "shopinfo": {"mid": "T00000000000010", "good_flag": "1", "new_flag": "2", "short_name": "\u534e\u8054\u5409\u4e70\u76db", "short_name_pinyin": "hualianjimaisheng", "status": null, "address": null, "name": null, "id": "31899"}, "mid": "T00000000000010", "shopId": "31899", "netid": null, "province": 901, "district": 601, "zipcode": null, "telephone": null, "posDate": "20071213", "destineTel": null, "togoTel": null, "trafficWay": null, "signBuilding": null, "businessArea": null, "selfRoom": null, "businessTime": "9:00~21:00", "stall": "\u6709", "consume": null, "serviceFei": null, "favourable": null, "shopMemo": null, "appraise": null, "website": null, "memo": "\u534e\u8054\u5409\u4e70\u76db\u52a0\u76df\u5e97\u4e0d\u53ef\u4f7f\u7528\u5dcd\u5eb7\u670d\u52a1\u5361", "payTypes": "\u6749\u5fb7\u5361", "shopTypes": "\u8d85\u5e02", "consumeTypes": null, "cookTypes": null, "orderNum": 1000, "card4no": null, "card4noAcc": null, "district2": 414, "searchScope": null, "status": 1, "address": "\u6731\u6cfe\u9547\u5357\u5729\u8def312\u53f7", "name": "\u534e\u8054\u5409\u4e70\u76db \u6731\u6cfe\u5e97", "id": 135450, "pageNo": 0, "pageCount": null, "pageSize": 10, "ids": null, "endTime": null, "startTime": null}, {"cardNumFive": null, "isSupportYj": null, "cityName": null, "districtName": null, "shopinfo": {"mid": "888002153110232", "good_flag": null, "new_flag": null, "short_name": "\u9ec4\u91d1\u5e7f\u573a", "short_name_pinyin": "huangjinguangchang", "status": null, "address": null, "name": null, "id": "40804"}, "mid": "888002153110232", "shopId": "40804", "netid": null, "province": 901, "district": 601, "zipcode": null, "telephone": "56603888", "posDate": null, "destineTel": null, "togoTel": null, "trafficWay": null, "signBuilding": null, "businessArea": null, "selfRoom": null, "businessTime": null, "stall": null, "consume": null, "serviceFei": null, "favourable": null, "shopMemo": null, "appraise": null, "website": null, "memo": null, "payTypes": "\u6749\u5fb7\u5361", "shopTypes": "\u767e\u8d27", "consumeTypes": null, "cookTypes": null, "orderNum": 1000, "card4no": null, "card4noAcc": null, "district2": 416, "searchScope": null, "status": 1, "address": "\u7261\u4e39\u6c5f\u8def1688\u53f7", "name": "\u9ec4\u91d1\u5e7f\u573a \u5b9d\u5c71\u5e97", "id": 177489, "pageNo": 0, "pageCount": null, "pageSize": 10, "ids": null, "endTime": null, "startTime": null}, {"cardNumFive": null, "isSupportYj": null, "cityName": null, "districtName": null, "shopinfo": {"mid": "888002154990031", "good_flag": null, "new_flag": null, "short_name": "\u5e7f\u5143\u83dc\u5e02\u573a", "short_name_pinyin": "huangyuancaishichang", "status": null, "address": null, "name": null, "id": "42350"}, "mid": "888002154990031", "shopId": "42350", "netid": null, "province": 901, "district": 601, "zipcode": null, "telephone": null, "posDate": null, "destineTel": null, "togoTel": null, "trafficWay": null, "signBuilding": null, "businessArea": null, "selfRoom": null, "businessTime": null, "stall": null, "consume": null, "serviceFei": null, "favourable": null, "shopMemo": null, "appraise": null, "website": null, "memo": null, "payTypes": "\u6749\u5fb7\u5361", "shopTypes": "\u9910\u996e", "consumeTypes": null, "cookTypes": null, "orderNum": 1000, "card4no": null, "card4noAcc": null, "district2": 403, "searchScope": null, "status": 1, "address": "\u5e7f\u5143\u8def153\u53f7", "name": "\u5e7f\u5143\u83dc\u5e02\u573a \u5e7f\u5143\u83dc\u5e02\u573a", "id": 188908, "pageNo": 0, "pageCount": null, "pageSize": 10, "ids": null, "endTime": null, "startTime": null}, {"cardNumFive": null, "isSupportYj": null, "cityName": null, "districtName": null, "shopinfo": {"mid": "888888879960002", "good_flag": null, "new_flag": null, "short_name": "\u6b22\u4e50\u8c37", "short_name_pinyin": "huanlegu", "status": null, "address": null, "name": null, "id": "36386"}, "mid": "888888879960002", "shopId": "36386", "netid": null, "province": 901, "district": 601, "zipcode": "", "telephone": "", "posDate": "20100915", "destineTel": "", "togoTel": "", "trafficWay": "", "signBuilding": "", "businessArea": "", "selfRoom": "", "businessTime": "", "stall": "", "consume": "", "serviceFei": null, "favourable": "", "shopMemo": "", "appraise": "", "website": "", "memo": "", "payTypes": "\u6749\u5fb7\u5361", "shopTypes": "\u4f11\u95f2", "consumeTypes": null, "cookTypes": null, "orderNum": 1000, "card4no": null, "card4noAcc": null, "district2": 412, "searchScope": null, "status": 1, "address": "\u4f58\u5c71\u6797\u836b\u5927\u905318\u53f7", "name": "\u6b22\u4e50\u8c37", "id": 151424, "pageNo": 0, "pageCount": null, "pageSize": 10, "ids": null, "endTime": null, "startTime": null}, {"cardNumFive": null, "isSupportYj": null, "cityName": null, "districtName": null, "shopinfo": {"mid": "888002173210023", "good_flag": null, "new_flag": null, "short_name": "\u73af\u7403\u91d1\u878d\u4e2d\u5fc3", "short_name_pinyin": "huanqiujinrongzhongxin", "status": null, "address": null, "name": null, "id": "38746"}, "mid": "888002173210023", "shopId": "38746", "netid": null, "province": 901, "district": 601, "zipcode": null, "telephone": "4001100555", "posDate": null, "destineTel": null, "togoTel": null, "trafficWay": null, "signBuilding": null, "businessArea": null, "selfRoom": null, "businessTime": null, "stall": null, "consume": null, "serviceFei": null, "favourable": null, "shopMemo": null, "appraise": null, "website": null, "memo": null, "payTypes": "\u6749\u5fb7\u5361", "shopTypes": "\u4f11\u95f2", "consumeTypes": null, "cookTypes": null, "orderNum": 1000, "card4no": null, "card4noAcc": null, "district2": 418, "searchScope": null, "status": 1, "address": "\u4e16\u7eaa\u5927\u9053100\u53f7", "name": "\u73af\u7403\u91d1\u878d\u4e2d\u5fc3 \u89c2\u5149\u5385", "id": 164302, "pageNo": 0, "pageCount": null, "pageSize": 10, "ids": null, "endTime": null, "startTime": null}, {"cardNumFive": null, "isSupportYj": null, "cityName": null, "districtName": null, "shopinfo": {"mid": "888888853110079", "good_flag": "1", "new_flag": "2", "short_name": "\u534e\u6da6\u65f6\u4ee3\u5e7f\u573a", "short_name_pinyin": "huarunshidaiguangchang", "status": null, "address": null, "name": null, "id": "31905"}, "mid": "888888853110079", "shopId": "31905", "netid": null, "province": 901, "district": 601, "zipcode": null, "telephone": "021-58368888", "posDate": "20081006", "destineTel": null, "togoTel": null, "trafficWay": "\u516c\u4ea4451 584 \u5730\u94c1\u4e8c\u53f7\u7ebf", "signBuilding": null, "businessArea": null, "selfRoom": null, "businessTime": null, "stall": null, "consume": null, "serviceFei": null, "favourable": null, "shopMemo": null, "appraise": null, "website": null, "memo": null, "payTypes": "\u6749\u5fb7\u5361", "shopTypes": "\u767e\u8d27", "consumeTypes": null, "cookTypes": null, "orderNum": 1000, "card4no": null, "card4noAcc": null, "district2": 418, "searchScope": null, "status": 1, "address": "\u5f20\u6768\u8def500\u53f7", "name": "\u534e\u6da6\u65f6\u4ee3\u5e7f\u573a \u5f20\u6768\u8def", "id": 135455, "pageNo": 0, "pageCount": null, "pageSize": 10, "ids": null, "endTime": null, "startTime": null}, {"cardNumFive": null, "isSupportYj": null, "cityName": null, "districtName": null, "shopinfo": {"mid": "888002154110663", "good_flag": null, "new_flag": null, "short_name": "\u534e\u6da6\u4e07\u5bb6", "short_name_pinyin": "huarunwanjia", "status": null, "address": null, "name": null, "id": "41881"}, "mid": "888002154110663", "shopId": "41881", "netid": null, "province": 901, "district": 601, "zipcode": null, "telephone": null, "posDate": null, "destineTel": null, "togoTel": null, "trafficWay": null, "signBuilding": null, "businessArea": null, "selfRoom": null, "businessTime": null, "stall": null, "consume": null, "serviceFei": null, "favourable": null, "shopMemo": null, "appraise": null, "website": null, "memo": null, "payTypes": "\u6749\u5fb7\u5361", "shopTypes": "\u8d85\u5e02", "consumeTypes": null, "cookTypes": null, "orderNum": 1000, "card4no": null, "card4noAcc": null, "district2": 411, "searchScope": null, "status": 1, "address": "\u5357\u7fd4\u9547\u5b9d\u7fd4\u8def801\u53f7", "name": "\u534e\u6da6\u4e07\u5bb6 \u5357\u7fd4\u5e97", "id": 186184, "pageNo": 0, "pageCount": null, "pageSize": 10, "ids": null, "endTime": null, "startTime": null}, {"cardNumFive": null, "isSupportYj": null, "cityName": null, "districtName": null, "shopinfo": {"mid": "888002154119983", "good_flag": null, "new_flag": "2", "short_name": "\u534e\u6da6\u4e07\u5bb6\u8d85\u5e02", "short_name_pinyin": "huarunwanjiachaoshi", "status": null, "address": null, "name": null, "id": "31906"}, "mid": "888002154119983", "shopId": "31906", "netid": null, "province": 901, "district": 601, "zipcode": null, "telephone": null, "posDate": null, "destineTel": null, "togoTel": null, "trafficWay": null, "signBuilding": null, "businessArea": null, "selfRoom": null, "businessTime": null, "stall": null, "consume": null, "serviceFei": null, "favourable": null, "shopMemo": null, "appraise": null, "website": null, "memo": null, "payTypes": "\u6749\u5fb7\u5361", "shopTypes": "\u8d85\u5e02", "consumeTypes": null, "cookTypes": null, "orderNum": 1000, "card4no": null, "card4noAcc": null, "district2": 403, "searchScope": null, "status": 1, "address": "\u8679\u6865\u8def1\u53f7B108/116\u94fa\u4f4d", "name": "\u534e\u6da6\u4e07\u5bb6\u8d85\u5e02 \u8679\u6865\u8def\u5e97", "id": 135456, "pageNo": 0, "pageCount": null, "pageSize": 10, "ids": null, "endTime": null, "startTime": null}, {"cardNumFive": null, "isSupportYj": null, "cityName": null, "districtName": null, "shopinfo": {"mid": "888002154110550", "good_flag": null, "new_flag": null, "short_name": "\u534e\u6da6\u4e07\u5bb6\u8d85\u5e02", "short_name_pinyin": "huarunwanjiachaoshi", "status": null, "address": null, "name": null, "id": "37693"}, "mid": "888002154110550", "shopId": "37693", "netid": null, "province": 901, "district": 601, "zipcode": null, "telephone": null, "posDate": null, "destineTel": null, "togoTel": null, "trafficWay": null, "signBuilding": null, "businessArea": null, "selfRoom": null, "businessTime": null, "stall": null, "consume": null, "serviceFei": null, "favourable": null, "shopMemo": null, "appraise": null, "website": null, "memo": null, "payTypes": "\u6749\u5fb7\u5361", "shopTypes": "\u8d85\u5e02", "consumeTypes": null, "cookTypes": null, "orderNum": 1000, "card4no": null, "card4noAcc": null, "district2": 418, "searchScope": null, "status": 1, "address": "\u82b1\u6728\u8def1378\u53f7\u5730\u4e0b\u4e00\u5c42B108\u5355\u5143", "name": "\u534e\u6da6\u4e07\u5bb6\u8d85\u5e02 \u5609\u91cc\u5e97", "id": 159831, "pageNo": 0, "pageCount": null, "pageSize": 10, "ids": null, "endTime": null, "startTime": null}], "pageLimit": 3160, "size": 10}