{"pageCount": 1095, "count": 10942, "pageNo": 319, "subShopInfo": {"cardNumFive": "", "isSupportYj": "", "cityName": null, "districtName": null, "shopinfo": {"mid": null, "good_flag": null, "new_flag": null, "short_name": null, "short_name_pinyin": null, "status": null, "address": "", "name": "", "id": null}, "mid": null, "shopId": null, "netid": null, "province": 901, "district": null, "zipcode": null, "telephone": null, "posDate": null, "destineTel": null, "togoTel": null, "trafficWay": null, "signBuilding": null, "businessArea": null, "selfRoom": null, "businessTime": null, "stall": null, "consume": null, "serviceFei": null, "favourable": null, "shopMemo": "1", "appraise": null, "website": null, "memo": null, "payTypes": "", "shopTypes": "", "consumeTypes": null, "cookTypes": null, "orderNum": null, "card4no": null, "card4noAcc": null, "district2": null, "searchScope": null, "status": null, "address": "", "name": null, "id": null, "pageNo": 318, "pageCount": null, "pageSize": 10, "ids": null, "endTime": null, "startTime": null}, "list": [{"cardNumFive": null, "isSupportYj": null, "cityName": null, "districtName": null, "shopinfo": {"mid": "888888859120137", "good_flag": "2", "new_flag": "2", "short_name": "\u534e\u6c0f\u5927\u836f\u623f", "short_name_pinyin": "huashidayaofang", "status": null, "address": null, "name": null, "id": "31908"}, "mid": "888888859120137", "shopId": "31908", "netid": null, "province": 901, "district": 601, "zipcode": null, "telephone": "56908445", "posDate": "20081106", "destineTel": null, "togoTel": null, "trafficWay": "\u516c\u4ea4537 18 \u5730\u94c1\u4e09\u53f7\u7ebf", "signBuilding": null, "businessArea": null, "selfRoom": null, "businessTime": null, "stall": null, "consume": null, "serviceFei": null, "favourable": null, "shopMemo": null, "appraise": null, "website": null, "memo": null, "payTypes": "\u6749\u5fb7\u5361", "shopTypes": "\u836f\u5e97", "consumeTypes": null, "cookTypes": null, "orderNum": 1000, "card4no": null, "card4noAcc": null, "district2": 410, "searchScope": null, "status": 1, "address": "\u5b9d\u5c71\u8def519\u53f7", "name": "\u534e\u6c0f\u5927\u836f\u623f \u5317\u533a\u5b9d\u5c71\u8def\u5e97", "id": 135465, "pageNo": 0, "pageCount": null, "pageSize": 10, "ids": null, "endTime": null, "startTime": null}, {"cardNumFive": null, "isSupportYj": null, "cityName": null, "districtName": null, "shopinfo": {"mid": "888888859120043", "good_flag": null, "new_flag": null, "short_name": "\u534e\u6c0f\u5927\u836f\u623f", "short_name_pinyin": "huashidayaofang", "status": null, "address": null, "name": null, "id": "31907"}, "mid": "888888859120043", "shopId": "31907", "netid": null, "province": 901, "district": 601, "zipcode": null, "telephone": "59537426", "posDate": "20080125", "destineTel": null, "togoTel": null, "trafficWay": "\u65c5\u6e386A\u7ebf \u65b0\u5609\u7ebf", "signBuilding": "\u6b27\u5c1a\u8d85\u5e02", "businessArea": null, "selfRoom": null, "businessTime": null, "stall": null, "consume": null, "serviceFei": null, "favourable": null, "shopMemo": null, "appraise": null, "website": null, "memo": null, "payTypes": "\u6749\u5fb7\u5361", "shopTypes": "\u836f\u5e97", "consumeTypes": null, "cookTypes": null, "orderNum": 1000, "card4no": null, "card4noAcc": null, "district2": 411, "searchScope": null, "status": 1, "address": "\u535a\u4e50\u8def99\u53f7", "name": "\u534e\u6c0f\u5927\u836f\u623f \u535a\u4e50\u8def\u836f\u623f", "id": 135466, "pageNo": 0, "pageCount": null, "pageSize": 10, "ids": null, "endTime": null, "startTime": null}, {"cardNumFive": null, "isSupportYj": null, "cityName": null, "districtName": null, "shopinfo": {"mid": "888888859120043", "good_flag": null, "new_flag": null, "short_name": "\u534e\u6c0f\u5927\u836f\u623f", "short_name_pinyin": "huashidayaofang", "status": null, "address": null, "name": null, "id": "31907"}, "mid": "888888859120043", "shopId": "31907", "netid": null, "province": 901, "district": 601, "zipcode": null, "telephone": "68713804", "posDate": "20080130", "destineTel": null, "togoTel": null, "trafficWay": "\u516c\u4ea4783 984 \u5730\u94c1\u516d\u53f7\u7ebf", "signBuilding": null, "businessArea": null, "selfRoom": null, "businessTime": null, "stall": null, "consume": null, "serviceFei": null, "favourable": null, "shopMemo": null, "appraise": null, "website": null, "memo": null, "payTypes": "\u6749\u5fb7\u5361", "shopTypes": "\u836f\u5e97", "consumeTypes": null, "cookTypes": null, "orderNum": 1000, "card4no": null, "card4noAcc": null, "district2": 418, "searchScope": null, "status": 1, "address": "\u535a\u5174\u8def931\u53f7", "name": "\u534e\u6c0f\u5927\u836f\u623f \u535a\u5174\u8def\u836f\u623f", "id": 135467, "pageNo": 0, "pageCount": null, "pageSize": 10, "ids": null, "endTime": null, "startTime": null}, {"cardNumFive": null, "isSupportYj": null, "cityName": null, "districtName": null, "shopinfo": {"mid": "888888859120043", "good_flag": null, "new_flag": null, "short_name": "\u534e\u6c0f\u5927\u836f\u623f", "short_name_pinyin": "huashidayaofang", "status": null, "address": null, "name": null, "id": "31907"}, "mid": "888888859120043", "shopId": "31907", "netid": null, "province": 901, "district": 601, "zipcode": null, "telephone": "59987705", "posDate": "20080125", "destineTel": null, "togoTel": null, "trafficWay": "\u5609\u6cf0\u7ebf \u5609\u7f57\u7ebf", "signBuilding": null, "businessArea": null, "selfRoom": null, "businessTime": null, "stall": null, "consume": null, "serviceFei": null, "favourable": null, "shopMemo": null, "appraise": null, "website": null, "memo": null, "payTypes": "\u6749\u5fb7\u5361", "shopTypes": "\u836f\u5e97", "consumeTypes": null, "cookTypes": null, "orderNum": 1000, "card4no": null, "card4noAcc": null, "district2": 411, "searchScope": null, "status": 1, "address": "\u4ed3\u573a\u8def358\u53f7", "name": "\u534e\u6c0f\u5927\u836f\u623f \u4ed3\u573a\u8def\u836f\u623f", "id": 135468, "pageNo": 0, "pageCount": null, "pageSize": 10, "ids": null, "endTime": null, "startTime": null}, {"cardNumFive": null, "isSupportYj": null, "cityName": null, "districtName": null, "shopinfo": {"mid": "888888859120046", "good_flag": "2", "new_flag": "2", "short_name": "\u534e\u6c0f\u5927\u836f\u623f", "short_name_pinyin": "huashidayaofang", "status": null, "address": null, "name": null, "id": "31909"}, "mid": "888888859120046", "shopId": "31909", "netid": null, "province": 901, "district": 601, "zipcode": null, "telephone": "62446144", "posDate": "20080513", "destineTel": null, "togoTel": null, "trafficWay": "\u516c\u4ea444 136 \u5730\u94c1\u56db\u53f7\u7ebf", "signBuilding": null, "businessArea": null, "selfRoom": null, "businessTime": null, "stall": null, "consume": null, "serviceFei": null, "favourable": null, "shopMemo": null, "appraise": null, "website": null, "memo": null, "payTypes": "\u6749\u5fb7\u5361", "shopTypes": "\u836f\u5e97", "consumeTypes": null, "cookTypes": null, "orderNum": 1000, "card4no": null, "card4noAcc": null, "district2": 405, "searchScope": null, "status": 1, "address": "\u66f9\u6768\u8def413\u53f7", "name": "\u534e\u6c0f\u5927\u836f\u623f \u66f9\u6768\u5e97", "id": 135470, "pageNo": 0, "pageCount": null, "pageSize": 10, "ids": null, "endTime": null, "startTime": null}, {"cardNumFive": null, "isSupportYj": null, "cityName": null, "districtName": null, "shopinfo": {"mid": "888888859120043", "good_flag": null, "new_flag": null, "short_name": "\u534e\u6c0f\u5927\u836f\u623f", "short_name_pinyin": "huashidayaofang", "status": null, "address": null, "name": null, "id": "31907"}, "mid": "888888859120043", "shopId": "31907", "netid": null, "province": 901, "district": 601, "zipcode": null, "telephone": "50776509", "posDate": "20070604", "destineTel": null, "togoTel": null, "trafficWay": "\u96a7\u9053\u4e8c\u7ebf \u516c\u4ea4572", "signBuilding": null, "businessArea": null, "selfRoom": "\u65e0", "businessTime": null, "stall": null, "consume": null, "serviceFei": null, "favourable": null, "shopMemo": null, "appraise": null, "website": null, "memo": null, "payTypes": "\u6749\u5fb7\u5361", "shopTypes": "\u836f\u5e97", "consumeTypes": null, "cookTypes": null, "orderNum": 1000, "card4no": null, "card4noAcc": null, "district2": 418, "searchScope": null, "status": 1, "address": "\u660c\u91cc\u4e1c\u8def422\u53f7", "name": "\u534e\u6c0f\u5927\u836f\u623f \u660c\u91cc\u5206\u5e97", "id": 135471, "pageNo": 0, "pageCount": null, "pageSize": 10, "ids": null, "endTime": null, "startTime": null}, {"cardNumFive": null, "isSupportYj": null, "cityName": null, "districtName": null, "shopinfo": {"mid": "888888859120043", "good_flag": null, "new_flag": null, "short_name": "\u534e\u6c0f\u5927\u836f\u623f", "short_name_pinyin": "huashidayaofang", "status": null, "address": null, "name": null, "id": "31907"}, "mid": "888888859120043", "shopId": "31907", "netid": null, "province": 901, "district": 601, "zipcode": null, "telephone": "56443341", "posDate": "20080201", "destineTel": null, "togoTel": null, "trafficWay": "\u516c\u4ea4851 849 \u5730\u94c1\u4e09\u53f7\u7ebf", "signBuilding": null, "businessArea": null, "selfRoom": null, "businessTime": null, "stall": null, "consume": null, "serviceFei": null, "favourable": null, "shopMemo": null, "appraise": null, "website": null, "memo": null, "payTypes": "\u6749\u5fb7\u5361", "shopTypes": "\u836f\u5e97", "consumeTypes": null, "cookTypes": null, "orderNum": 1000, "card4no": null, "card4noAcc": null, "district2": 416, "searchScope": null, "status": 1, "address": "\u957f\u6c5f\u8def372\u53f7", "name": "\u534e\u6c0f\u5927\u836f\u623f \u957f\u6c5f\u8def\u836f\u623f", "id": 135473, "pageNo": 0, "pageCount": null, "pageSize": 10, "ids": null, "endTime": null, "startTime": null}, {"cardNumFive": null, "isSupportYj": null, "cityName": null, "districtName": null, "shopinfo": {"mid": "888888859120043", "good_flag": null, "new_flag": null, "short_name": "\u534e\u6c0f\u5927\u836f\u623f", "short_name_pinyin": "huashidayaofang", "status": null, "address": null, "name": null, "id": "31907"}, "mid": "888888859120043", "shopId": "31907", "netid": null, "province": 901, "district": 601, "zipcode": null, "telephone": "58495274", "posDate": "20080131", "destineTel": null, "togoTel": null, "trafficWay": "\u516c\u4ea4572 \u96a7\u9053\u4e8c\u7ebf", "signBuilding": null, "businessArea": null, "selfRoom": null, "businessTime": null, "stall": null, "consume": null, "serviceFei": null, "favourable": null, "shopMemo": null, "appraise": null, "website": null, "memo": null, "payTypes": "\u6749\u5fb7\u5361", "shopTypes": "\u836f\u5e97", "consumeTypes": null, "cookTypes": null, "orderNum": 1000, "card4no": null, "card4noAcc": null, "district2": 418, "searchScope": null, "status": 1, "address": "\u957f\u6e05\u8def1809\u53f7", "name": "\u534e\u6c0f\u5927\u836f\u623f \u957f\u6e05\u5206\u5e97", "id": 135476, "pageNo": 0, "pageCount": null, "pageSize": 10, "ids": null, "endTime": null, "startTime": null}, {"cardNumFive": null, "isSupportYj": null, "cityName": null, "districtName": null, "shopinfo": {"mid": "888888859120046", "good_flag": "2", "new_flag": "2", "short_name": "\u534e\u6c0f\u5927\u836f\u623f", "short_name_pinyin": "huashidayaofang", "status": null, "address": null, "name": null, "id": "31909"}, "mid": "888888859120046", "shopId": "31909", "netid": null, "province": 901, "district": 601, "zipcode": null, "telephone": "62996388", "posDate": "20080513", "destineTel": null, "togoTel": null, "trafficWay": "\u516c\u4ea4112", "signBuilding": null, "businessArea": null, "selfRoom": null, "businessTime": null, "stall": null, "consume": null, "serviceFei": null, "favourable": null, "shopMemo": null, "appraise": null, "website": null, "memo": null, "payTypes": "\u6749\u5fb7\u5361", "shopTypes": "\u836f\u5e97", "consumeTypes": null, "cookTypes": null, "orderNum": 1000, "card4no": null, "card4noAcc": null, "district2": 405, "searchScope": null, "status": 1, "address": "\u957f\u5bff\u8def136\u53f7", "name": "\u534e\u6c0f\u5927\u836f\u623f \u957f\u5bff\u5e97", "id": 135477, "pageNo": 0, "pageCount": null, "pageSize": 10, "ids": null, "endTime": null, "startTime": null}, {"cardNumFive": null, "isSupportYj": null, "cityName": null, "districtName": null, "shopinfo": {"mid": "888888859120043", "good_flag": null, "new_flag": null, "short_name": "\u534e\u6c0f\u5927\u836f\u623f", "short_name_pinyin": "huashidayaofang", "status": null, "address": null, "name": null, "id": "31907"}, "mid": "888888859120043", "shopId": "31907", "netid": null, "province": 901, "district": 601, "zipcode": null, "telephone": "55080769", "posDate": "20080202", "destineTel": null, "togoTel": null, "trafficWay": "\u516c\u4ea4934 37 \u7533\u5ddd\u7ebf", "signBuilding": null, "businessArea": null, "selfRoom": null, "businessTime": null, "stall": null, "consume": null, "serviceFei": null, "favourable": null, "shopMemo": null, "appraise": null, "website": null, "memo": null, "payTypes": "\u6749\u5fb7\u5361", "shopTypes": "\u836f\u5e97", "consumeTypes": null, "cookTypes": null, "orderNum": 1000, "card4no": null, "card4noAcc": null, "district2": 407, "searchScope": null, "status": 1, "address": "\u957f\u9633\u8def1312\u53f7", "name": "\u534e\u6c0f\u5927\u836f\u623f \u957f\u9633\u8def\u836f\u623f", "id": 135478, "pageNo": 0, "pageCount": null, "pageSize": 10, "ids": null, "endTime": null, "startTime": null}], "pageLimit": 3180, "size": 10}