{"pageCount": 1095, "count": 10942, "pageNo": 316, "subShopInfo": {"cardNumFive": "", "isSupportYj": "", "cityName": null, "districtName": null, "shopinfo": {"mid": null, "good_flag": null, "new_flag": null, "short_name": null, "short_name_pinyin": null, "status": null, "address": "", "name": "", "id": null}, "mid": null, "shopId": null, "netid": null, "province": 901, "district": null, "zipcode": null, "telephone": null, "posDate": null, "destineTel": null, "togoTel": null, "trafficWay": null, "signBuilding": null, "businessArea": null, "selfRoom": null, "businessTime": null, "stall": null, "consume": null, "serviceFei": null, "favourable": null, "shopMemo": "1", "appraise": null, "website": null, "memo": null, "payTypes": "", "shopTypes": "", "consumeTypes": null, "cookTypes": null, "orderNum": null, "card4no": null, "card4noAcc": null, "district2": null, "searchScope": null, "status": null, "address": "", "name": null, "id": null, "pageNo": 315, "pageCount": null, "pageSize": 10, "ids": null, "endTime": null, "startTime": null}, "list": [{"cardNumFive": null, "isSupportYj": null, "cityName": null, "districtName": null, "shopinfo": {"mid": "888002153311212", "good_flag": "2", "new_flag": "2", "short_name": "\u534e\u8054\u8d85\u5e02", "short_name_pinyin": "hualianchaoshi", "status": null, "address": null, "name": null, "id": "565224380649439232"}, "mid": "888002153311212", "shopId": "565224380649439232", "netid": null, "province": 901, "district": 601, "zipcode": null, "telephone": null, "posDate": null, "destineTel": null, "togoTel": null, "trafficWay": null, "signBuilding": null, "businessArea": null, "selfRoom": null, "businessTime": null, "stall": null, "consume": null, "serviceFei": null, "favourable": null, "shopMemo": null, "appraise": null, "website": null, "memo": null, "payTypes": "\u6749\u5fb7\u5361,", "shopTypes": null, "consumeTypes": null, "cookTypes": null, "orderNum": null, "card4no": null, "card4noAcc": null, "district2": 412, "searchScope": null, "status": 1, "address": "\u8f66\u58a9\u9547\u5f71\u4f73\u8def305\u548c307\u548c309\u53f7\u4e00\u5c42", "name": "\u5f71\u4f73\u8def\u5e97", "id": 565224378711670784, "pageNo": 0, "pageCount": null, "pageSize": 10, "ids": null, "endTime": null, "startTime": null}, {"cardNumFive": null, "isSupportYj": null, "cityName": null, "districtName": null, "shopinfo": {"mid": "888002153311207", "good_flag": "2", "new_flag": "2", "short_name": "\u534e\u8054\u8d85\u5e02", "short_name_pinyin": "hualianchaoshi", "status": null, "address": null, "name": null, "id": "565224393085550592"}, "mid": "888002153311207", "shopId": "565224393085550592", "netid": null, "province": 901, "district": 601, "zipcode": null, "telephone": null, "posDate": null, "destineTel": null, "togoTel": null, "trafficWay": null, "signBuilding": null, "businessArea": null, "selfRoom": null, "businessTime": null, "stall": null, "consume": null, "serviceFei": null, "favourable": null, "shopMemo": null, "appraise": null, "website": null, "memo": null, "payTypes": "\u6749\u5fb7\u5361,", "shopTypes": null, "consumeTypes": null, "cookTypes": null, "orderNum": null, "card4no": null, "card4noAcc": null, "district2": 418, "searchScope": null, "status": 1, "address": "\u5e74\u5bb6\u6d5c\u4e1c\u8def159\u5f043\u53f71\u5c421\u5ba4", "name": "\u5e74\u5bb6\u6d5c\u4e1c\u8def\u5e97", "id": 565224391143587840, "pageNo": 0, "pageCount": null, "pageSize": 10, "ids": null, "endTime": null, "startTime": null}, {"cardNumFive": null, "isSupportYj": null, "cityName": null, "districtName": null, "shopinfo": {"mid": "T00000000000010", "good_flag": "1", "new_flag": "2", "short_name": "\u534e\u8054\u5409\u4e70\u76db", "short_name_pinyin": "hualianjimaisheng", "status": null, "address": null, "name": null, "id": "31899"}, "mid": "T00000000000010", "shopId": "31899", "netid": null, "province": 901, "district": 601, "zipcode": null, "telephone": null, "posDate": "20071213", "destineTel": null, "togoTel": null, "trafficWay": "\u516c\u4ea4852\u5230\u5170\u6eaa\u8def\uff0c63\u3001858", "signBuilding": null, "businessArea": null, "selfRoom": null, "businessTime": "9:00~21:00", "stall": "\u6709", "consume": null, "serviceFei": null, "favourable": null, "shopMemo": null, "appraise": null, "website": null, "memo": "\u534e\u8054\u5409\u4e70\u76db\u52a0\u76df\u5e97\u4e0d\u53ef\u4f7f\u7528\u5dcd\u5eb7\u670d\u52a1\u5361", "payTypes": "\u6749\u5fb7\u5361", "shopTypes": "\u8d85\u5e02", "consumeTypes": null, "cookTypes": null, "orderNum": 1000, "card4no": null, "card4noAcc": null, "district2": 405, "searchScope": null, "status": 1, "address": "\u5170\u6eaa\u8def137\u53f7", "name": "\u534e\u8054\u5409\u4e70\u76db \u66f9\u6768\u5e97", "id": 135436, "pageNo": 0, "pageCount": null, "pageSize": 10, "ids": null, "endTime": null, "startTime": null}, {"cardNumFive": null, "isSupportYj": null, "cityName": null, "districtName": null, "shopinfo": {"mid": "T00000000000010", "good_flag": "1", "new_flag": "2", "short_name": "\u534e\u8054\u5409\u4e70\u76db", "short_name_pinyin": "hualianjimaisheng", "status": null, "address": null, "name": null, "id": "31899"}, "mid": "T00000000000010", "shopId": "31899", "netid": null, "province": 901, "district": 601, "zipcode": null, "telephone": null, "posDate": "20071213", "destineTel": null, "togoTel": null, "trafficWay": "\u4eba\u6c11\u5e7f\u573a\u8f6c802", "signBuilding": null, "businessArea": null, "selfRoom": null, "businessTime": "9:00~21:00", "stall": "\u6709", "consume": null, "serviceFei": null, "favourable": null, "shopMemo": null, "appraise": null, "website": null, "memo": "\u534e\u8054\u5409\u4e70\u76db\u52a0\u76df\u5e97\u4e0d\u53ef\u4f7f\u7528\u5dcd\u5eb7\u670d\u52a1\u5361", "payTypes": "\u6749\u5fb7\u5361", "shopTypes": "\u8d85\u5e02", "consumeTypes": null, "cookTypes": null, "orderNum": 1000, "card4no": null, "card4noAcc": null, "district2": 401, "searchScope": null, "status": 1, "address": "\u5927\u5174\u885718\u53f7", "name": "\u534e\u8054\u5409\u4e70\u76db \u5927\u5174\u8857\u5e97", "id": 135438, "pageNo": 0, "pageCount": null, "pageSize": 10, "ids": null, "endTime": null, "startTime": null}, {"cardNumFive": null, "isSupportYj": null, "cityName": null, "districtName": null, "shopinfo": {"mid": "T00000000000010", "good_flag": "1", "new_flag": "2", "short_name": "\u534e\u8054\u5409\u4e70\u76db", "short_name_pinyin": "hualianjimaisheng", "status": null, "address": null, "name": null, "id": "31899"}, "mid": "T00000000000010", "shopId": "31899", "netid": null, "province": 901, "district": 601, "zipcode": null, "telephone": null, "posDate": "20071213", "destineTel": null, "togoTel": null, "trafficWay": "\u8f7b\u8f68\u6c5f\u6e7e\u9547\u7ad9", "signBuilding": null, "businessArea": null, "selfRoom": null, "businessTime": "9:00~21:00", "stall": "\u6709", "consume": null, "serviceFei": null, "favourable": null, "shopMemo": null, "appraise": null, "website": null, "memo": "\u534e\u8054\u5409\u4e70\u76db\u52a0\u76df\u5e97\u4e0d\u53ef\u4f7f\u7528\u5dcd\u5eb7\u670d\u52a1\u5361", "payTypes": "\u6749\u5fb7\u5361", "shopTypes": "\u8d85\u5e02", "consumeTypes": null, "cookTypes": null, "orderNum": 1000, "card4no": null, "card4noAcc": null, "district2": 408, "searchScope": null, "status": 1, "address": "\u9038\u4ed9\u8def580\u53f7\uff08\u8f7b\u8f68\u6c5f\u6e7e\u9547\u7ad9\uff09", "name": "\u534e\u8054\u5409\u4e70\u76db \u6c5f\u6e7e\u5e97", "id": 135440, "pageNo": 0, "pageCount": null, "pageSize": 10, "ids": null, "endTime": null, "startTime": null}, {"cardNumFive": null, "isSupportYj": null, "cityName": null, "districtName": null, "shopinfo": {"mid": "T00000000000010", "good_flag": "1", "new_flag": "2", "short_name": "\u534e\u8054\u5409\u4e70\u76db", "short_name_pinyin": "hualianjimaisheng", "status": null, "address": null, "name": null, "id": "31899"}, "mid": "T00000000000010", "shopId": "31899", "netid": null, "province": 901, "district": 601, "zipcode": null, "telephone": null, "posDate": "20071213", "destineTel": null, "togoTel": null, "trafficWay": "\u516c\u4ea4118\u9ec4\u5174\u8def\u6865\u8f6c90\u30016", "signBuilding": null, "businessArea": null, "selfRoom": null, "businessTime": "9:00~21:00", "stall": "\u6709", "consume": null, "serviceFei": null, "favourable": null, "shopMemo": null, "appraise": null, "website": null, "memo": "\u534e\u8054\u5409\u4e70\u76db\u52a0\u76df\u5e97\u4e0d\u53ef\u4f7f\u7528\u5dcd\u5eb7\u670d\u52a1\u5361", "payTypes": "\u6749\u5fb7\u5361", "shopTypes": "\u8d85\u5e02", "consumeTypes": null, "cookTypes": null, "orderNum": 1000, "card4no": null, "card4noAcc": null, "district2": 407, "searchScope": null, "status": 1, "address": "\u63a7\u6c5f\u8def1063\u53f7", "name": "\u534e\u8054\u5409\u4e70\u76db \u63a7\u6c5f\u5e97", "id": 135441, "pageNo": 0, "pageCount": null, "pageSize": 10, "ids": null, "endTime": null, "startTime": null}, {"cardNumFive": null, "isSupportYj": null, "cityName": null, "districtName": null, "shopinfo": {"mid": "T00000000000010", "good_flag": "1", "new_flag": "2", "short_name": "\u534e\u8054\u5409\u4e70\u76db", "short_name_pinyin": "hualianjimaisheng", "status": null, "address": null, "name": null, "id": "31899"}, "mid": "T00000000000010", "shopId": "31899", "netid": null, "province": 901, "district": 601, "zipcode": null, "telephone": null, "posDate": "20071213", "destineTel": null, "togoTel": null, "trafficWay": "\u516c\u4ea4597\u4e73\u5c71\u8def\u8f6c\u96a7\u90539\u7ebf", "signBuilding": null, "businessArea": null, "selfRoom": null, "businessTime": "9:00~21:00", "stall": "\u6709", "consume": null, "serviceFei": null, "favourable": null, "shopMemo": null, "appraise": null, "website": null, "memo": "\u534e\u8054\u5409\u4e70\u76db\u52a0\u76df\u5e97\u4e0d\u53ef\u4f7f\u7528\u5dcd\u5eb7\u670d\u52a1\u5361", "payTypes": "\u6749\u5fb7\u5361", "shopTypes": "\u8d85\u5e02", "consumeTypes": null, "cookTypes": null, "orderNum": 1000, "card4no": null, "card4noAcc": null, "district2": 418, "searchScope": null, "status": 1, "address": "\u4e34\u6c82\u8def140\u53f73\u697c", "name": "\u534e\u8054\u5409\u4e70\u76db \u4e34\u6c82\u5e97", "id": 135442, "pageNo": 0, "pageCount": null, "pageSize": 10, "ids": null, "endTime": null, "startTime": null}, {"cardNumFive": null, "isSupportYj": null, "cityName": null, "districtName": null, "shopinfo": {"mid": "T00000000000010", "good_flag": "1", "new_flag": "2", "short_name": "\u534e\u8054\u5409\u4e70\u76db", "short_name_pinyin": "hualianjimaisheng", "status": null, "address": null, "name": null, "id": "31899"}, "mid": "T00000000000010", "shopId": "31899", "netid": null, "province": 901, "district": 601, "zipcode": null, "telephone": null, "posDate": "20071213", "destineTel": null, "togoTel": null, "trafficWay": "\u516c\u4ea4206\u3001234\u300104\u3001118\u3001951", "signBuilding": null, "businessArea": null, "selfRoom": null, "businessTime": "9:00~21:00", "stall": "\u6709", "consume": null, "serviceFei": null, "favourable": null, "shopMemo": null, "appraise": null, "website": null, "memo": "\u534e\u8054\u5409\u4e70\u76db\u52a0\u76df\u5e97\u4e0d\u53ef\u4f7f\u7528\u5dcd\u5eb7\u670d\u52a1\u5361", "payTypes": "\u6749\u5fb7\u5361", "shopTypes": "\u8d85\u5e02", "consumeTypes": null, "cookTypes": null, "orderNum": 1000, "card4no": null, "card4noAcc": null, "district2": 410, "searchScope": null, "status": 1, "address": "\u5f6d\u6d66\u65b0\u6751\u4e34\u6c7e\u8def500\u53f7", "name": "\u534e\u8054\u5409\u4e70\u76db \u5f6d\u6d66\u5e97", "id": 135443, "pageNo": 0, "pageCount": null, "pageSize": 10, "ids": null, "endTime": null, "startTime": null}, {"cardNumFive": null, "isSupportYj": null, "cityName": null, "districtName": null, "shopinfo": {"mid": "T00000000000010", "good_flag": "1", "new_flag": "2", "short_name": "\u534e\u8054\u5409\u4e70\u76db", "short_name_pinyin": "hualianjimaisheng", "status": null, "address": null, "name": null, "id": "31899"}, "mid": "T00000000000010", "shopId": "31899", "netid": null, "province": 901, "district": 601, "zipcode": null, "telephone": null, "posDate": "20071213", "destineTel": null, "togoTel": null, "trafficWay": "\u516c\u4ea4118\u590d\u65e6\u8f6c\u5927\u6865\u4e94\u7ebf\u5efa\u5e73\u4e2d\u5b66", "signBuilding": null, "businessArea": null, "selfRoom": null, "businessTime": "9:00~21:00", "stall": "\u6709", "consume": null, "serviceFei": null, "favourable": null, "shopMemo": null, "appraise": null, "website": null, "memo": "\u534e\u8054\u5409\u4e70\u76db\u52a0\u76df\u5e97\u4e0d\u53ef\u4f7f\u7528\u5dcd\u5eb7\u670d\u52a1\u5361", "payTypes": "\u6749\u5fb7\u5361", "shopTypes": "\u8d85\u5e02", "consumeTypes": null, "cookTypes": null, "orderNum": 1000, "card4no": null, "card4noAcc": null, "district2": 418, "searchScope": null, "status": 1, "address": "\u5d2e\u5c71\u8def717\u53f7", "name": "\u534e\u8054\u5409\u4e70\u76db \u94a6\u6d0b\u5e97", "id": 135444, "pageNo": 0, "pageCount": null, "pageSize": 10, "ids": null, "endTime": null, "startTime": null}, {"cardNumFive": null, "isSupportYj": null, "cityName": null, "districtName": null, "shopinfo": {"mid": "T00000000000010", "good_flag": "1", "new_flag": "2", "short_name": "\u534e\u8054\u5409\u4e70\u76db", "short_name_pinyin": "hualianjimaisheng", "status": null, "address": null, "name": null, "id": "31899"}, "mid": "T00000000000010", "shopId": "31899", "netid": null, "province": 901, "district": 601, "zipcode": null, "telephone": null, "posDate": "20071213", "destineTel": null, "togoTel": null, "trafficWay": "\u516c\u4ea4114\u5230\u901a\u6cb3\u65b0\u6751\uff0c912\u3001916", "signBuilding": null, "businessArea": null, "selfRoom": null, "businessTime": "9:00~21:00", "stall": "\u6709", "consume": null, "serviceFei": null, "favourable": null, "shopMemo": null, "appraise": null, "website": null, "memo": "\u534e\u8054\u5409\u4e70\u76db\u52a0\u76df\u5e97\u4e0d\u53ef\u4f7f\u7528\u5dcd\u5eb7\u670d\u52a1\u5361", "payTypes": "\u6749\u5fb7\u5361", "shopTypes": "\u8d85\u5e02", "consumeTypes": null, "cookTypes": null, "orderNum": 1000, "card4no": null, "card4noAcc": null, "district2": 416, "searchScope": null, "status": 1, "address": "\u901a\u6cb3\u8def531\uff0d539\u53f7", "name": "\u534e\u8054\u5409\u4e70\u76db \u901a\u6cb3\u5e97", "id": 135445, "pageNo": 0, "pageCount": null, "pageSize": 10, "ids": null, "endTime": null, "startTime": null}], "pageLimit": 3150, "size": 10}