{"pageCount": 1095, "count": 10942, "pageNo": 314, "subShopInfo": {"cardNumFive": "", "isSupportYj": "", "cityName": null, "districtName": null, "shopinfo": {"mid": null, "good_flag": null, "new_flag": null, "short_name": null, "short_name_pinyin": null, "status": null, "address": "", "name": "", "id": null}, "mid": null, "shopId": null, "netid": null, "province": 901, "district": null, "zipcode": null, "telephone": null, "posDate": null, "destineTel": null, "togoTel": null, "trafficWay": null, "signBuilding": null, "businessArea": null, "selfRoom": null, "businessTime": null, "stall": null, "consume": null, "serviceFei": null, "favourable": null, "shopMemo": "1", "appraise": null, "website": null, "memo": null, "payTypes": "", "shopTypes": "", "consumeTypes": null, "cookTypes": null, "orderNum": null, "card4no": null, "card4noAcc": null, "district2": null, "searchScope": null, "status": null, "address": "", "name": null, "id": null, "pageNo": 313, "pageCount": null, "pageSize": 10, "ids": null, "endTime": null, "startTime": null}, "list": [{"cardNumFive": null, "isSupportYj": null, "cityName": null, "districtName": null, "shopinfo": {"mid": "888002153310607", "good_flag": null, "new_flag": null, "short_name": "\u534e\u8054\u8d85\u5e02", "short_name_pinyin": "hualianchaoshi", "status": null, "address": null, "name": null, "id": "41239"}, "mid": "888002153310607", "shopId": "41239", "netid": null, "province": 901, "district": 601, "zipcode": null, "telephone": null, "posDate": null, "destineTel": null, "togoTel": null, "trafficWay": null, "signBuilding": null, "businessArea": null, "selfRoom": null, "businessTime": null, "stall": null, "consume": null, "serviceFei": null, "favourable": null, "shopMemo": null, "appraise": null, "website": null, "memo": null, "payTypes": "\u6749\u5fb7\u5361", "shopTypes": "\u8d85\u5e02", "consumeTypes": null, "cookTypes": null, "orderNum": 1000, "card4no": null, "card4noAcc": null, "district2": 403, "searchScope": null, "status": 1, "address": "\u6842\u6797\u8def66\u53f7", "name": "\u534e\u8054\u8d85\u5e02 \u6842\u6797\u5e97", "id": 181061, "pageNo": 0, "pageCount": null, "pageSize": 10, "ids": null, "endTime": null, "startTime": null}, {"cardNumFive": null, "isSupportYj": null, "cityName": null, "districtName": null, "shopinfo": {"mid": "888002153310607", "good_flag": null, "new_flag": null, "short_name": "\u534e\u8054\u8d85\u5e02", "short_name_pinyin": "hualianchaoshi", "status": null, "address": null, "name": null, "id": "41239"}, "mid": "888002153310607", "shopId": "41239", "netid": null, "province": 901, "district": 601, "zipcode": null, "telephone": null, "posDate": null, "destineTel": null, "togoTel": null, "trafficWay": null, "signBuilding": null, "businessArea": null, "selfRoom": null, "businessTime": null, "stall": null, "consume": null, "serviceFei": null, "favourable": null, "shopMemo": null, "appraise": null, "website": null, "memo": null, "payTypes": "\u6749\u5fb7\u5361", "shopTypes": "\u8d85\u5e02", "consumeTypes": null, "cookTypes": null, "orderNum": 1000, "card4no": null, "card4noAcc": null, "district2": 403, "searchScope": null, "status": 1, "address": "\u5357\u4e39\u8def169\u53f7", "name": "\u534e\u8054\u8d85\u5e02 \u5357\u4e39\u5e97", "id": 181062, "pageNo": 0, "pageCount": null, "pageSize": 10, "ids": null, "endTime": null, "startTime": null}, {"cardNumFive": null, "isSupportYj": null, "cityName": null, "districtName": null, "shopinfo": {"mid": "888002153310607", "good_flag": null, "new_flag": null, "short_name": "\u534e\u8054\u8d85\u5e02", "short_name_pinyin": "hualianchaoshi", "status": null, "address": null, "name": null, "id": "41239"}, "mid": "888002153310607", "shopId": "41239", "netid": null, "province": 901, "district": 601, "zipcode": null, "telephone": null, "posDate": null, "destineTel": null, "togoTel": null, "trafficWay": null, "signBuilding": null, "businessArea": null, "selfRoom": null, "businessTime": null, "stall": null, "consume": null, "serviceFei": null, "favourable": null, "shopMemo": null, "appraise": null, "website": null, "memo": null, "payTypes": "\u6749\u5fb7\u5361", "shopTypes": "\u8d85\u5e02", "consumeTypes": null, "cookTypes": null, "orderNum": 1000, "card4no": null, "card4noAcc": null, "district2": 403, "searchScope": null, "status": 1, "address": "\u8679\u6865\u8def772\u5f041\u53f7", "name": "\u534e\u8054\u8d85\u5e02 \u8679\u6865\u5e97", "id": 181063, "pageNo": 0, "pageCount": null, "pageSize": 10, "ids": null, "endTime": null, "startTime": null}, {"cardNumFive": null, "isSupportYj": null, "cityName": null, "districtName": null, "shopinfo": {"mid": "888002153310607", "good_flag": null, "new_flag": null, "short_name": "\u534e\u8054\u8d85\u5e02", "short_name_pinyin": "hualianchaoshi", "status": null, "address": null, "name": null, "id": "41239"}, "mid": "888002153310607", "shopId": "41239", "netid": null, "province": 901, "district": 601, "zipcode": null, "telephone": null, "posDate": null, "destineTel": null, "togoTel": null, "trafficWay": null, "signBuilding": null, "businessArea": null, "selfRoom": null, "businessTime": null, "stall": null, "consume": null, "serviceFei": null, "favourable": null, "shopMemo": null, "appraise": null, "website": null, "memo": null, "payTypes": "\u6749\u5fb7\u5361", "shopTypes": "\u8d85\u5e02", "consumeTypes": null, "cookTypes": null, "orderNum": 1000, "card4no": null, "card4noAcc": null, "district2": 403, "searchScope": null, "status": 1, "address": "\u5609\u5584\u8def453\u53f7", "name": "\u534e\u8054\u8d85\u5e02 \u5609\u5584\u5e97", "id": 181064, "pageNo": 0, "pageCount": null, "pageSize": 10, "ids": null, "endTime": null, "startTime": null}, {"cardNumFive": null, "isSupportYj": null, "cityName": null, "districtName": null, "shopinfo": {"mid": "888002153310607", "good_flag": null, "new_flag": null, "short_name": "\u534e\u8054\u8d85\u5e02", "short_name_pinyin": "hualianchaoshi", "status": null, "address": null, "name": null, "id": "41239"}, "mid": "888002153310607", "shopId": "41239", "netid": null, "province": 901, "district": 601, "zipcode": null, "telephone": "62520368", "posDate": null, "destineTel": null, "togoTel": null, "trafficWay": null, "signBuilding": null, "businessArea": null, "selfRoom": null, "businessTime": null, "stall": null, "consume": null, "serviceFei": null, "favourable": null, "shopMemo": null, "appraise": null, "website": null, "memo": null, "payTypes": "\u6749\u5fb7\u5361", "shopTypes": "\u8d85\u5e02", "consumeTypes": null, "cookTypes": null, "orderNum": 1000, "card4no": null, "card4noAcc": null, "district2": 406, "searchScope": null, "status": 1, "address": "\u957f\u5b81\u652f\u8def243\u53f7", "name": "\u534e\u8054\u8d85\u5e02 \u957f\u5b81\u5e97", "id": 181065, "pageNo": 0, "pageCount": null, "pageSize": 10, "ids": null, "endTime": null, "startTime": null}, {"cardNumFive": null, "isSupportYj": null, "cityName": null, "districtName": null, "shopinfo": {"mid": "888002153310607", "good_flag": null, "new_flag": null, "short_name": "\u534e\u8054\u8d85\u5e02", "short_name_pinyin": "hualianchaoshi", "status": null, "address": null, "name": null, "id": "41239"}, "mid": "888002153310607", "shopId": "41239", "netid": null, "province": 901, "district": 601, "zipcode": null, "telephone": "66145701", "posDate": null, "destineTel": null, "togoTel": null, "trafficWay": null, "signBuilding": null, "businessArea": null, "selfRoom": null, "businessTime": null, "stall": null, "consume": null, "serviceFei": null, "favourable": null, "shopMemo": null, "appraise": null, "website": null, "memo": null, "payTypes": "\u6749\u5fb7\u5361", "shopTypes": "\u8d85\u5e02", "consumeTypes": null, "cookTypes": null, "orderNum": 1000, "card4no": null, "card4noAcc": null, "district2": 416, "searchScope": null, "status": 1, "address": "\u6bb7\u9ad8\u897f\u8def215\u53f7", "name": "\u534e\u8054\u8d85\u5e02 \u6bb7\u9ad8\u897f\u8def\u5e97", "id": 181066, "pageNo": 0, "pageCount": null, "pageSize": 10, "ids": null, "endTime": null, "startTime": null}, {"cardNumFive": null, "isSupportYj": null, "cityName": null, "districtName": null, "shopinfo": {"mid": "888002153310607", "good_flag": null, "new_flag": null, "short_name": "\u534e\u8054\u8d85\u5e02", "short_name_pinyin": "hualianchaoshi", "status": null, "address": null, "name": null, "id": "41239"}, "mid": "888002153310607", "shopId": "41239", "netid": null, "province": 901, "district": 601, "zipcode": null, "telephone": "56355177", "posDate": null, "destineTel": null, "togoTel": null, "trafficWay": null, "signBuilding": null, "businessArea": null, "selfRoom": null, "businessTime": null, "stall": null, "consume": null, "serviceFei": null, "favourable": null, "shopMemo": null, "appraise": null, "website": null, "memo": null, "payTypes": "\u6749\u5fb7\u5361", "shopTypes": "\u8d85\u5e02", "consumeTypes": null, "cookTypes": null, "orderNum": 1000, "card4no": null, "card4noAcc": null, "district2": 405, "searchScope": null, "status": 1, "address": "\u771f\u91d1\u8def237\u53f7", "name": "\u534e\u8054\u8d85\u5e02 \u771f\u91d1\u8def\u5e97", "id": 181067, "pageNo": 0, "pageCount": null, "pageSize": 10, "ids": null, "endTime": null, "startTime": null}, {"cardNumFive": null, "isSupportYj": null, "cityName": null, "districtName": null, "shopinfo": {"mid": "888002153310607", "good_flag": null, "new_flag": null, "short_name": "\u534e\u8054\u8d85\u5e02", "short_name_pinyin": "hualianchaoshi", "status": null, "address": null, "name": null, "id": "41239"}, "mid": "888002153310607", "shopId": "41239", "netid": null, "province": 901, "district": 601, "zipcode": null, "telephone": "56991348", "posDate": null, "destineTel": null, "togoTel": null, "trafficWay": null, "signBuilding": null, "businessArea": null, "selfRoom": null, "businessTime": null, "stall": null, "consume": null, "serviceFei": null, "favourable": null, "shopMemo": null, "appraise": null, "website": null, "memo": null, "payTypes": "\u6749\u5fb7\u5361", "shopTypes": "\u8d85\u5e02", "consumeTypes": null, "cookTypes": null, "orderNum": 1000, "card4no": null, "card4noAcc": null, "district2": 416, "searchScope": null, "status": 1, "address": "\u864e\u6797\u8def317-319\u53f7", "name": "\u534e\u8054\u8d85\u5e02 \u864e\u6797\u8def\u5e97", "id": 181068, "pageNo": 0, "pageCount": null, "pageSize": 10, "ids": null, "endTime": null, "startTime": null}, {"cardNumFive": null, "isSupportYj": null, "cityName": null, "districtName": null, "shopinfo": {"mid": "888002153310607", "good_flag": null, "new_flag": null, "short_name": "\u534e\u8054\u8d85\u5e02", "short_name_pinyin": "hualianchaoshi", "status": null, "address": null, "name": null, "id": "41239"}, "mid": "888002153310607", "shopId": "41239", "netid": null, "province": 901, "district": 601, "zipcode": null, "telephone": "56987227", "posDate": null, "destineTel": null, "togoTel": null, "trafficWay": null, "signBuilding": null, "businessArea": null, "selfRoom": null, "businessTime": null, "stall": null, "consume": null, "serviceFei": null, "favourable": null, "shopMemo": null, "appraise": null, "website": null, "memo": null, "payTypes": "\u6749\u5fb7\u5361", "shopTypes": "\u8d85\u5e02", "consumeTypes": null, "cookTypes": null, "orderNum": 1000, "card4no": null, "card4noAcc": null, "district2": 410, "searchScope": null, "status": 1, "address": "\u4e2d\u534e\u65b0\u8def496\u53f7\u4e19", "name": "\u534e\u8054\u8d85\u5e02 \u4e2d\u534e\u65b0\u5e97", "id": 181069, "pageNo": 0, "pageCount": null, "pageSize": 10, "ids": null, "endTime": null, "startTime": null}, {"cardNumFive": null, "isSupportYj": null, "cityName": null, "districtName": null, "shopinfo": {"mid": "888002153310607", "good_flag": null, "new_flag": null, "short_name": "\u534e\u8054\u8d85\u5e02", "short_name_pinyin": "hualianchaoshi", "status": null, "address": null, "name": null, "id": "41239"}, "mid": "888002153310607", "shopId": "41239", "netid": null, "province": 901, "district": 601, "zipcode": null, "telephone": null, "posDate": null, "destineTel": null, "togoTel": null, "trafficWay": null, "signBuilding": null, "businessArea": null, "selfRoom": null, "businessTime": null, "stall": null, "consume": null, "serviceFei": null, "favourable": null, "shopMemo": null, "appraise": null, "website": null, "memo": null, "payTypes": "\u6749\u5fb7\u5361", "shopTypes": "\u8d85\u5e02", "consumeTypes": null, "cookTypes": null, "orderNum": 1000, "card4no": null, "card4noAcc": null, "district2": 416, "searchScope": null, "status": 1, "address": "\u9752\u77f3\u8def15\u53f7", "name": "\u534e\u8054\u8d85\u5e02 \u9752\u77f3\u5e97", "id": 181070, "pageNo": 0, "pageCount": null, "pageSize": 10, "ids": null, "endTime": null, "startTime": null}], "pageLimit": 3130, "size": 10}