{"pageCount": 1095, "count": 10942, "pageNo": 321, "subShopInfo": {"cardNumFive": "", "isSupportYj": "", "cityName": null, "districtName": null, "shopinfo": {"mid": null, "good_flag": null, "new_flag": null, "short_name": null, "short_name_pinyin": null, "status": null, "address": "", "name": "", "id": null}, "mid": null, "shopId": null, "netid": null, "province": 901, "district": null, "zipcode": null, "telephone": null, "posDate": null, "destineTel": null, "togoTel": null, "trafficWay": null, "signBuilding": null, "businessArea": null, "selfRoom": null, "businessTime": null, "stall": null, "consume": null, "serviceFei": null, "favourable": null, "shopMemo": "1", "appraise": null, "website": null, "memo": null, "payTypes": "", "shopTypes": "", "consumeTypes": null, "cookTypes": null, "orderNum": null, "card4no": null, "card4noAcc": null, "district2": null, "searchScope": null, "status": null, "address": "", "name": null, "id": null, "pageNo": 320, "pageCount": null, "pageSize": 10, "ids": null, "endTime": null, "startTime": null}, "list": [{"cardNumFive": null, "isSupportYj": null, "cityName": null, "districtName": null, "shopinfo": {"mid": "888888859120043", "good_flag": null, "new_flag": null, "short_name": "\u534e\u6c0f\u5927\u836f\u623f", "short_name_pinyin": "huashidayaofang", "status": null, "address": null, "name": null, "id": "31907"}, "mid": "888888859120043", "shopId": "31907", "netid": null, "province": 901, "district": 601, "zipcode": null, "telephone": "69444504", "posDate": "20080213", "destineTel": null, "togoTel": null, "trafficWay": null, "signBuilding": "\u8fd1\u9648\u6d77\u516c\u8def", "businessArea": null, "selfRoom": null, "businessTime": null, "stall": null, "consume": null, "serviceFei": null, "favourable": null, "shopMemo": null, "appraise": null, "website": null, "memo": null, "payTypes": "\u6749\u5fb7\u5361", "shopTypes": "\u836f\u5e97", "consumeTypes": null, "cookTypes": null, "orderNum": 1000, "card4no": null, "card4noAcc": null, "district2": 415, "searchScope": null, "status": 1, "address": "\u4e2d\u5174\u9547", "name": "\u534e\u6c0f\u5927\u836f\u623f \u5d07\u660e\u4e2d\u5174\u5e97", "id": 135491, "pageNo": 0, "pageCount": null, "pageSize": 10, "ids": null, "endTime": null, "startTime": null}, {"cardNumFive": null, "isSupportYj": null, "cityName": null, "districtName": null, "shopinfo": {"mid": "888888859120043", "good_flag": null, "new_flag": null, "short_name": "\u534e\u6c0f\u5927\u836f\u623f", "short_name_pinyin": "huashidayaofang", "status": null, "address": null, "name": null, "id": "31907"}, "mid": "888888859120043", "shopId": "31907", "netid": null, "province": 901, "district": 601, "zipcode": null, "telephone": "59481796", "posDate": "20080213", "destineTel": null, "togoTel": null, "trafficWay": null, "signBuilding": "\u8fd1\u78a7\u701b\u5317\u8def", "businessArea": null, "selfRoom": null, "businessTime": null, "stall": null, "consume": null, "serviceFei": null, "favourable": null, "shopMemo": null, "appraise": null, "website": null, "memo": null, "payTypes": "\u6749\u5fb7\u5361", "shopTypes": "\u836f\u5e97", "consumeTypes": null, "cookTypes": null, "orderNum": 1000, "card4no": null, "card4noAcc": null, "district2": 415, "searchScope": null, "status": 1, "address": "\u7ad6\u65b0\u9547", "name": "\u534e\u6c0f\u5927\u836f\u623f \u5d07\u660e\u603b\u5e97", "id": 135492, "pageNo": 0, "pageCount": null, "pageSize": 10, "ids": null, "endTime": null, "startTime": null}, {"cardNumFive": null, "isSupportYj": null, "cityName": null, "districtName": null, "shopinfo": {"mid": "888888859120043", "good_flag": null, "new_flag": null, "short_name": "\u534e\u6c0f\u5927\u836f\u623f", "short_name_pinyin": "huashidayaofang", "status": null, "address": null, "name": null, "id": "31907"}, "mid": "888888859120043", "shopId": "31907", "netid": null, "province": 901, "district": 601, "zipcode": null, "telephone": "63030498", "posDate": "20070604", "destineTel": null, "togoTel": null, "trafficWay": "\u516c\u4ea4814 938 984", "signBuilding": null, "businessArea": null, "selfRoom": "\u65e0", "businessTime": null, "stall": null, "consume": null, "serviceFei": null, "favourable": null, "shopMemo": null, "appraise": null, "website": null, "memo": null, "payTypes": "\u6749\u5fb7\u5361", "shopTypes": "\u836f\u5e97", "consumeTypes": null, "cookTypes": null, "orderNum": 1000, "card4no": null, "card4noAcc": null, "district2": 401, "searchScope": null, "status": 1, "address": "\u6253\u6d66\u8def250\u53f7", "name": "\u534e\u6c0f\u5927\u836f\u623f \u6253\u6d66\u8def\u836f\u623f", "id": 135493, "pageNo": 0, "pageCount": null, "pageSize": 10, "ids": null, "endTime": null, "startTime": null}, {"cardNumFive": null, "isSupportYj": null, "cityName": null, "districtName": null, "shopinfo": {"mid": "888888859120043", "good_flag": null, "new_flag": null, "short_name": "\u534e\u6c0f\u5927\u836f\u623f", "short_name_pinyin": "huashidayaofang", "status": null, "address": null, "name": null, "id": "31907"}, "mid": "888888859120043", "shopId": "31907", "netid": null, "province": 901, "district": 601, "zipcode": null, "telephone": "66349165", "posDate": "20080201", "destineTel": null, "togoTel": null, "trafficWay": "\u516c\u4ea4923 737 \u5317\u534e\u7ebf", "signBuilding": null, "businessArea": null, "selfRoom": null, "businessTime": null, "stall": null, "consume": null, "serviceFei": null, "favourable": null, "shopMemo": null, "appraise": null, "website": null, "memo": null, "payTypes": "\u6749\u5fb7\u5361", "shopTypes": "\u836f\u5e97", "consumeTypes": null, "cookTypes": null, "orderNum": 1000, "card4no": null, "card4noAcc": null, "district2": 416, "searchScope": null, "status": 1, "address": "\u534e\u7075\u8def760\u53f7", "name": "\u534e\u6c0f\u5927\u836f\u623f \u5927\u534e\u5206\u5e97", "id": 135494, "pageNo": 0, "pageCount": null, "pageSize": 10, "ids": null, "endTime": null, "startTime": null}, {"cardNumFive": null, "isSupportYj": null, "cityName": null, "districtName": null, "shopinfo": {"mid": "888888859120043", "good_flag": null, "new_flag": null, "short_name": "\u534e\u6c0f\u5927\u836f\u623f", "short_name_pinyin": "huashidayaofang", "status": null, "address": null, "name": null, "id": "31907"}, "mid": "888888859120043", "shopId": "31907", "netid": null, "province": 901, "district": 601, "zipcode": null, "telephone": "65859100", "posDate": "20080203", "destineTel": null, "togoTel": null, "trafficWay": "\u5730\u94c1\u56db\u53f7\u7ebf \u7533\u5ddd\u7ebf \u516c\u4ea417", "signBuilding": null, "businessArea": null, "selfRoom": null, "businessTime": null, "stall": null, "consume": null, "serviceFei": null, "favourable": null, "shopMemo": null, "appraise": null, "website": null, "memo": null, "payTypes": "\u6749\u5fb7\u5361", "shopTypes": "\u836f\u5e97", "consumeTypes": null, "cookTypes": null, "orderNum": 1000, "card4no": null, "card4noAcc": null, "district2": 408, "searchScope": null, "status": 1, "address": "\u4e1c\u4f59\u676d\u8def1360\u53f7", "name": "\u534e\u6c0f\u5927\u836f\u623f \u5927\u8fde\u8def\u836f\u623f", "id": 135495, "pageNo": 0, "pageCount": null, "pageSize": 10, "ids": null, "endTime": null, "startTime": null}, {"cardNumFive": null, "isSupportYj": null, "cityName": null, "districtName": null, "shopinfo": {"mid": "888888859120043", "good_flag": null, "new_flag": null, "short_name": "\u534e\u6c0f\u5927\u836f\u623f", "short_name_pinyin": "huashidayaofang", "status": null, "address": null, "name": null, "id": "31907"}, "mid": "888888859120043", "shopId": "31907", "netid": null, "province": 901, "district": 601, "zipcode": null, "telephone": "66300717", "posDate": "20080203", "destineTel": null, "togoTel": null, "trafficWay": "\u516c\u4ea4114 \u5730\u94c1\u4e00\u53f7\u7ebf", "signBuilding": "\u95f8\u5317\u5927\u6da6\u53d1", "businessArea": null, "selfRoom": null, "businessTime": null, "stall": null, "consume": null, "serviceFei": null, "favourable": null, "shopMemo": null, "appraise": null, "website": null, "memo": null, "payTypes": "\u6749\u5fb7\u5361", "shopTypes": "\u836f\u5e97", "consumeTypes": null, "cookTypes": null, "orderNum": 1000, "card4no": null, "card4noAcc": null, "district2": 410, "searchScope": null, "status": 1, "address": "\u5171\u548c\u65b0\u8def3318\u53f7", "name": "\u534e\u6c0f\u5927\u836f\u623f \u5927\u6da6\u53d1\u5206\u5e97", "id": 135497, "pageNo": 0, "pageCount": null, "pageSize": 10, "ids": null, "endTime": null, "startTime": null}, {"cardNumFive": null, "isSupportYj": null, "cityName": null, "districtName": null, "shopinfo": {"mid": "888888859120043", "good_flag": null, "new_flag": null, "short_name": "\u534e\u6c0f\u5927\u836f\u623f", "short_name_pinyin": "huashidayaofang", "status": null, "address": null, "name": null, "id": "31907"}, "mid": "888888859120043", "shopId": "31907", "netid": null, "province": 901, "district": 601, "zipcode": null, "telephone": "68082370", "posDate": "20080130", "destineTel": null, "togoTel": null, "trafficWay": "\u9f99\u5927\u7ebf \u8398\u56e2\u7ebf", "signBuilding": null, "businessArea": null, "selfRoom": null, "businessTime": null, "stall": null, "consume": null, "serviceFei": null, "favourable": null, "shopMemo": null, "appraise": null, "website": null, "memo": null, "payTypes": "\u6749\u5fb7\u5361", "shopTypes": "\u836f\u5e97", "consumeTypes": null, "cookTypes": null, "orderNum": 1000, "card4no": null, "card4noAcc": null, "district2": 418, "searchScope": null, "status": 1, "address": "\u5927\u56e2\u9547\u6c38\u6625\u4e1c\u8def18\u53f7", "name": "\u534e\u6c0f\u5927\u836f\u623f \u5927\u56e2\u5927\u836f\u623f", "id": 135498, "pageNo": 0, "pageCount": null, "pageSize": 10, "ids": null, "endTime": null, "startTime": null}, {"cardNumFive": null, "isSupportYj": null, "cityName": null, "districtName": null, "shopinfo": {"mid": "888888859120043", "good_flag": null, "new_flag": null, "short_name": "\u534e\u6c0f\u5927\u836f\u623f", "short_name_pinyin": "huashidayaofang", "status": null, "address": null, "name": null, "id": "31907"}, "mid": "888888859120043", "shopId": "31907", "netid": null, "province": 901, "district": 601, "zipcode": null, "telephone": null, "posDate": null, "destineTel": null, "togoTel": null, "trafficWay": null, "signBuilding": null, "businessArea": null, "selfRoom": null, "businessTime": null, "stall": null, "consume": null, "serviceFei": null, "favourable": null, "shopMemo": null, "appraise": null, "website": null, "memo": null, "payTypes": "\u6749\u5fb7\u5361", "shopTypes": "\u836f\u5e97", "consumeTypes": null, "cookTypes": null, "orderNum": 1000, "card4no": null, "card4noAcc": null, "district2": 418, "searchScope": null, "status": 1, "address": "\u6d66\u4e1c\u65b0\u533a\u4e1c\u7ee3\u8def1419\u53f7", "name": "\u534e\u6c0f\u5927\u836f\u623f \u4e1c\u7ee3\u8def\u5e97", "id": 135499, "pageNo": 0, "pageCount": null, "pageSize": 10, "ids": null, "endTime": null, "startTime": null}, {"cardNumFive": null, "isSupportYj": null, "cityName": null, "districtName": null, "shopinfo": {"mid": "888888859120043", "good_flag": null, "new_flag": null, "short_name": "\u534e\u6c0f\u5927\u836f\u623f", "short_name_pinyin": "huashidayaofang", "status": null, "address": null, "name": null, "id": "31907"}, "mid": "888888859120043", "shopId": "31907", "netid": null, "province": 901, "district": 601, "zipcode": null, "telephone": "54436755", "posDate": "20070530", "destineTel": null, "togoTel": null, "trafficWay": "\u516c\u4ea4703 712", "signBuilding": null, "businessArea": null, "selfRoom": null, "businessTime": null, "stall": null, "consume": null, "serviceFei": null, "favourable": null, "shopMemo": null, "appraise": null, "website": null, "memo": null, "payTypes": "\u6749\u5fb7\u5361", "shopTypes": "\u836f\u5e97", "consumeTypes": null, "cookTypes": null, "orderNum": 1000, "card4no": null, "card4noAcc": null, "district2": 409, "searchScope": null, "status": 1, "address": "\u90fd\u5e02\u8def3825\u5f047\u53f721\uff0d22\u5ba4", "name": "\u534e\u6c0f\u5927\u836f\u623f \u90fd\u5e02\u8def\u5e97", "id": 135500, "pageNo": 0, "pageCount": null, "pageSize": 10, "ids": null, "endTime": null, "startTime": null}, {"cardNumFive": null, "isSupportYj": null, "cityName": null, "districtName": null, "shopinfo": {"mid": "888888859120043", "good_flag": null, "new_flag": null, "short_name": "\u534e\u6c0f\u5927\u836f\u623f", "short_name_pinyin": "huashidayaofang", "status": null, "address": null, "name": null, "id": "31907"}, "mid": "888888859120043", "shopId": "31907", "netid": null, "province": 901, "district": 601, "zipcode": null, "telephone": "58441780", "posDate": "20070604", "destineTel": null, "togoTel": null, "trafficWay": "\u516c\u4ea4798 976 \u9f99\u5927\u7ebf", "signBuilding": null, "businessArea": null, "selfRoom": "\u65e0", "businessTime": null, "stall": null, "consume": null, "serviceFei": null, "favourable": null, "shopMemo": null, "appraise": null, "website": null, "memo": null, "payTypes": "\u6749\u5fb7\u5361", "shopTypes": "\u836f\u5e97", "consumeTypes": null, "cookTypes": null, "orderNum": 1000, "card4no": null, "card4noAcc": null, "district2": 418, "searchScope": null, "status": 1, "address": "\u82b3\u534e\u8def458\uff0d462\u53f7", "name": "\u534e\u6c0f\u5927\u836f\u623f \u82b3\u534e\u5206\u5e97", "id": 135501, "pageNo": 0, "pageCount": null, "pageSize": 10, "ids": null, "endTime": null, "startTime": null}], "pageLimit": 3200, "size": 10}