{"pageCount": 1095, "count": 10942, "pageNo": 328, "subShopInfo": {"cardNumFive": "", "isSupportYj": "", "cityName": null, "districtName": null, "shopinfo": {"mid": null, "good_flag": null, "new_flag": null, "short_name": null, "short_name_pinyin": null, "status": null, "address": "", "name": "", "id": null}, "mid": null, "shopId": null, "netid": null, "province": 901, "district": null, "zipcode": null, "telephone": null, "posDate": null, "destineTel": null, "togoTel": null, "trafficWay": null, "signBuilding": null, "businessArea": null, "selfRoom": null, "businessTime": null, "stall": null, "consume": null, "serviceFei": null, "favourable": null, "shopMemo": "1", "appraise": null, "website": null, "memo": null, "payTypes": "", "shopTypes": "", "consumeTypes": null, "cookTypes": null, "orderNum": null, "card4no": null, "card4noAcc": null, "district2": null, "searchScope": null, "status": null, "address": "", "name": null, "id": null, "pageNo": 327, "pageCount": null, "pageSize": 10, "ids": null, "endTime": null, "startTime": null}, "list": [{"cardNumFive": null, "isSupportYj": null, "cityName": null, "districtName": null, "shopinfo": {"mid": "888888859120043", "good_flag": null, "new_flag": null, "short_name": "\u534e\u6c0f\u5927\u836f\u623f", "short_name_pinyin": "huashidayaofang", "status": null, "address": null, "name": null, "id": "31907"}, "mid": "888888859120043", "shopId": "31907", "netid": null, "province": 901, "district": 601, "zipcode": null, "telephone": "65013798", "posDate": "20080409", "destineTel": null, "togoTel": null, "trafficWay": "\u516c\u4ea4123 220 \u5730\u94c1\u516b\u53f7\u7ebf", "signBuilding": null, "businessArea": null, "selfRoom": null, "businessTime": null, "stall": null, "consume": null, "serviceFei": null, "favourable": null, "shopMemo": null, "appraise": null, "website": null, "memo": null, "payTypes": "\u6749\u5fb7\u5361", "shopTypes": "\u836f\u5e97", "consumeTypes": null, "cookTypes": null, "orderNum": 1000, "card4no": null, "card4noAcc": null, "district2": 407, "searchScope": null, "status": 1, "address": "\u63a7\u6c5f\u8def2104\u53f7", "name": "\u534e\u6c0f\u5927\u836f\u623f \u63a7\u6c5f\u8def\u836f\u623f", "id": 135574, "pageNo": 0, "pageCount": null, "pageSize": 10, "ids": null, "endTime": null, "startTime": null}, {"cardNumFive": null, "isSupportYj": null, "cityName": null, "districtName": null, "shopinfo": {"mid": "888888859120043", "good_flag": null, "new_flag": null, "short_name": "\u534e\u6c0f\u5927\u836f\u623f", "short_name_pinyin": "huashidayaofang", "status": null, "address": null, "name": null, "id": "31907"}, "mid": "888888859120043", "shopId": "31907", "netid": null, "province": 901, "district": 601, "zipcode": null, "telephone": "52792025", "posDate": "20080124", "destineTel": null, "togoTel": null, "trafficWay": "\u516c\u4ea4754 827 822", "signBuilding": null, "businessArea": null, "selfRoom": null, "businessTime": null, "stall": null, "consume": null, "serviceFei": null, "favourable": null, "shopMemo": null, "appraise": null, "website": null, "memo": null, "payTypes": "\u6749\u5fb7\u5361", "shopTypes": "\u836f\u5e97", "consumeTypes": null, "cookTypes": null, "orderNum": 1000, "card4no": null, "card4noAcc": null, "district2": 405, "searchScope": null, "status": 1, "address": "\u771f\u5149\u8def2199\u53f7", "name": "\u534e\u6c0f\u5927\u836f\u623f \u5229\u7fa4\u836f\u623f", "id": 135576, "pageNo": 0, "pageCount": null, "pageSize": 10, "ids": null, "endTime": null, "startTime": null}, {"cardNumFive": null, "isSupportYj": null, "cityName": null, "districtName": null, "shopinfo": {"mid": "888888859120043", "good_flag": null, "new_flag": null, "short_name": "\u534e\u6c0f\u5927\u836f\u623f", "short_name_pinyin": "huashidayaofang", "status": null, "address": null, "name": null, "id": "31907"}, "mid": "888888859120043", "shopId": "31907", "netid": null, "province": 901, "district": 601, "zipcode": null, "telephone": "68942843", "posDate": "20080131", "destineTel": null, "togoTel": null, "trafficWay": "\u516c\u4ea4974 976 \u5f90\u5ddd\u7ebf", "signBuilding": null, "businessArea": null, "selfRoom": null, "businessTime": null, "stall": null, "consume": null, "serviceFei": null, "favourable": null, "shopMemo": null, "appraise": null, "website": null, "memo": null, "payTypes": "\u6749\u5fb7\u5361", "shopTypes": "\u836f\u5e97", "consumeTypes": null, "cookTypes": null, "orderNum": 1000, "card4no": null, "card4noAcc": null, "district2": 418, "searchScope": null, "status": 1, "address": "\u83b2\u5b89\u4e1c\u8def242-244\u53f7", "name": "\u534e\u6c0f\u5927\u836f\u623f \u83b2\u5b89\u836f\u623f", "id": 135577, "pageNo": 0, "pageCount": null, "pageSize": 10, "ids": null, "endTime": null, "startTime": null}, {"cardNumFive": null, "isSupportYj": null, "cityName": null, "districtName": null, "shopinfo": {"mid": "888888859120038", "good_flag": "2", "new_flag": "2", "short_name": "\u534e\u6c0f\u5927\u836f\u623f", "short_name_pinyin": "huashidayaofang", "status": null, "address": null, "name": null, "id": "31910"}, "mid": "888888859120038", "shopId": "31910", "netid": null, "province": 901, "district": 601, "zipcode": "201100", "telephone": "61517114", "posDate": "20070425", "destineTel": "61517114", "togoTel": "61517114", "trafficWay": "\u4e16\u535a\u5bb6\u56ed\u7ebf", "signBuilding": null, "businessArea": "100~200\u5e73\u7c73", "selfRoom": "\u65e0", "businessTime": "24\u5c0f\u65f6", "stall": "\u65e0", "consume": null, "serviceFei": null, "favourable": null, "shopMemo": null, "appraise": null, "website": null, "memo": null, "payTypes": "\u6749\u5fb7\u5361", "shopTypes": "\u836f\u5e97", "consumeTypes": null, "cookTypes": null, "orderNum": 1000, "card4no": null, "card4noAcc": null, "district2": 418, "searchScope": null, "status": 1, "address": "\u8054\u822a\u8def1960\u53f7", "name": "\u534e\u6c0f\u5927\u836f\u623f \u8054\u822a\u8def\u5e97", "id": 135578, "pageNo": 0, "pageCount": null, "pageSize": 10, "ids": null, "endTime": null, "startTime": null}, {"cardNumFive": null, "isSupportYj": null, "cityName": null, "districtName": null, "shopinfo": {"mid": "888888859120043", "good_flag": null, "new_flag": null, "short_name": "\u534e\u6c0f\u5927\u836f\u623f", "short_name_pinyin": "huashidayaofang", "status": null, "address": null, "name": null, "id": "31907"}, "mid": "888888859120043", "shopId": "31907", "netid": null, "province": 901, "district": 601, "zipcode": null, "telephone": "65288541", "posDate": "20080201", "destineTel": null, "togoTel": null, "trafficWay": "\u516c\u4ea4518 767 21", "signBuilding": null, "businessArea": null, "selfRoom": null, "businessTime": null, "stall": null, "consume": null, "serviceFei": null, "favourable": null, "shopMemo": null, "appraise": null, "website": null, "memo": null, "payTypes": "\u6749\u5fb7\u5361", "shopTypes": "\u836f\u5e97", "consumeTypes": null, "cookTypes": null, "orderNum": 1000, "card4no": null, "card4noAcc": null, "district2": 408, "searchScope": null, "status": 1, "address": "\u51c9\u57ce\u8def214\u53f7", "name": "\u534e\u6c0f\u5927\u836f\u623f \u51c9\u57ce\u8def\u5206\u5e97", "id": 135580, "pageNo": 0, "pageCount": null, "pageSize": 10, "ids": null, "endTime": null, "startTime": null}, {"cardNumFive": null, "isSupportYj": null, "cityName": null, "districtName": null, "shopinfo": {"mid": "888888859120137", "good_flag": "2", "new_flag": "2", "short_name": "\u534e\u6c0f\u5927\u836f\u623f", "short_name_pinyin": "huashidayaofang", "status": null, "address": null, "name": null, "id": "31908"}, "mid": "888888859120137", "shopId": "31908", "netid": null, "province": 901, "district": 601, "zipcode": null, "telephone": "56833534", "posDate": "20081106", "destineTel": null, "togoTel": null, "trafficWay": "\u516c\u4ea446 916 \u5730\u94c1\u4e00\u53f7\u7ebf", "signBuilding": null, "businessArea": null, "selfRoom": null, "businessTime": null, "stall": null, "consume": null, "serviceFei": null, "favourable": null, "shopMemo": null, "appraise": null, "website": null, "memo": null, "payTypes": "\u6749\u5fb7\u5361", "shopTypes": "\u836f\u5e97", "consumeTypes": null, "cookTypes": null, "orderNum": 1000, "card4no": null, "card4noAcc": null, "district2": 410, "searchScope": null, "status": 1, "address": "\u6c7e\u897f\u8def725\u53f7", "name": "\u534e\u6c0f\u5927\u836f\u623f \u5cad\u5357\u5e97", "id": 135581, "pageNo": 0, "pageCount": null, "pageSize": 10, "ids": null, "endTime": null, "startTime": null}, {"cardNumFive": null, "isSupportYj": null, "cityName": null, "districtName": null, "shopinfo": {"mid": "888888859120043", "good_flag": null, "new_flag": null, "short_name": "\u534e\u6c0f\u5927\u836f\u623f", "short_name_pinyin": "huashidayaofang", "status": null, "address": null, "name": null, "id": "31907"}, "mid": "888888859120043", "shopId": "31907", "netid": null, "province": 901, "district": 601, "zipcode": null, "telephone": "64164470", "posDate": "20080201", "destineTel": null, "togoTel": null, "trafficWay": "\u516c\u4ea441 104 128 45", "signBuilding": null, "businessArea": null, "selfRoom": null, "businessTime": null, "stall": null, "consume": null, "serviceFei": null, "favourable": null, "shopMemo": null, "appraise": null, "website": null, "memo": null, "payTypes": "\u6749\u5fb7\u5361", "shopTypes": "\u836f\u5e97", "consumeTypes": null, "cookTypes": null, "orderNum": 1000, "card4no": null, "card4noAcc": null, "district2": 403, "searchScope": null, "status": 1, "address": "\u96f6\u9675\u8def84\u53f7", "name": "\u534e\u6c0f\u5927\u836f\u623f \u96f6\u9675\u5206\u5e97", "id": 135582, "pageNo": 0, "pageCount": null, "pageSize": 10, "ids": null, "endTime": null, "startTime": null}, {"cardNumFive": null, "isSupportYj": null, "cityName": null, "districtName": null, "shopinfo": {"mid": "888888859120043", "good_flag": null, "new_flag": null, "short_name": "\u534e\u6c0f\u5927\u836f\u623f", "short_name_pinyin": "huashidayaofang", "status": null, "address": null, "name": null, "id": "31907"}, "mid": "888888859120043", "shopId": "31907", "netid": null, "province": 901, "district": 601, "zipcode": null, "telephone": "54786246", "posDate": "20080124", "destineTel": null, "togoTel": null, "trafficWay": "\u516c\u4ea4205 548 \u6caa\u677e\u4e13\u7ebf", "signBuilding": null, "businessArea": null, "selfRoom": null, "businessTime": null, "stall": null, "consume": null, "serviceFei": null, "favourable": null, "shopMemo": null, "appraise": null, "website": null, "memo": null, "payTypes": "\u6749\u5fb7\u5361", "shopTypes": "\u836f\u5e97", "consumeTypes": null, "cookTypes": null, "orderNum": 1000, "card4no": null, "card4noAcc": null, "district2": 409, "searchScope": null, "status": 1, "address": "\u9f99\u8317\u8def1863\u53f7", "name": "\u534e\u6c0f\u5927\u836f\u623f \u9f99\u8317\u8def\u836f\u623f", "id": 135583, "pageNo": 0, "pageCount": null, "pageSize": 10, "ids": null, "endTime": null, "startTime": null}, {"cardNumFive": null, "isSupportYj": null, "cityName": null, "districtName": null, "shopinfo": {"mid": "888888859120043", "good_flag": null, "new_flag": null, "short_name": "\u534e\u6c0f\u5927\u836f\u623f", "short_name_pinyin": "huashidayaofang", "status": null, "address": null, "name": null, "id": "31907"}, "mid": "888888859120043", "shopId": "31907", "netid": null, "province": 901, "district": 601, "zipcode": null, "telephone": "54095028", "posDate": "20080201", "destineTel": null, "togoTel": null, "trafficWay": "\u516c\u4ea4824 770 \u7533\u95f5\u7ebf", "signBuilding": null, "businessArea": null, "selfRoom": null, "businessTime": null, "stall": null, "consume": null, "serviceFei": null, "favourable": null, "shopMemo": null, "appraise": null, "website": null, "memo": null, "payTypes": "\u6749\u5fb7\u5361", "shopTypes": "\u836f\u5e97", "consumeTypes": null, "cookTypes": null, "orderNum": 1000, "card4no": null, "card4noAcc": null, "district2": 403, "searchScope": null, "status": 1, "address": "\u9f99\u6c34\u5357\u8def304\u53f7", "name": "\u534e\u6c0f\u5927\u836f\u623f \u9f99\u5357\u5206\u5e97", "id": 135584, "pageNo": 0, "pageCount": null, "pageSize": 10, "ids": null, "endTime": null, "startTime": null}, {"cardNumFive": null, "isSupportYj": null, "cityName": null, "districtName": null, "shopinfo": {"mid": "888888859120043", "good_flag": null, "new_flag": null, "short_name": "\u534e\u6c0f\u5927\u836f\u623f", "short_name_pinyin": "huashidayaofang", "status": null, "address": null, "name": null, "id": "31907"}, "mid": "888888859120043", "shopId": "31907", "netid": null, "province": 901, "district": 601, "zipcode": null, "telephone": "50470915", "posDate": "20080131", "destineTel": null, "togoTel": null, "trafficWay": "\u5730\u94c1\u4e8c\u53f7\u7ebf \u516c\u4ea4775", "signBuilding": "\u6b63\u5927\u5e7f\u573a\u6613\u521d\u83b2\u82b1\u8d85\u5e02", "businessArea": null, "selfRoom": null, "businessTime": null, "stall": null, "consume": null, "serviceFei": null, "favourable": null, "shopMemo": null, "appraise": null, "website": null, "memo": null, "payTypes": "\u6749\u5fb7\u5361", "shopTypes": "\u836f\u5e97", "consumeTypes": null, "cookTypes": null, "orderNum": 1000, "card4no": null, "card4noAcc": null, "district2": 418, "searchScope": null, "status": 1, "address": "\u9646\u5bb6\u5634\u897f\u8def168\u53f7", "name": "\u534e\u6c0f\u5927\u836f\u623f \u9646\u5bb6\u5634\u897f\u8def\u836f\u623f", "id": 135585, "pageNo": 0, "pageCount": null, "pageSize": 10, "ids": null, "endTime": null, "startTime": null}], "pageLimit": 3270, "size": 10}