{"pageCount": 1095, "count": 10942, "pageNo": 339, "subShopInfo": {"cardNumFive": "", "isSupportYj": "", "cityName": null, "districtName": null, "shopinfo": {"mid": null, "good_flag": null, "new_flag": null, "short_name": null, "short_name_pinyin": null, "status": null, "address": "", "name": "", "id": null}, "mid": null, "shopId": null, "netid": null, "province": 901, "district": null, "zipcode": null, "telephone": null, "posDate": null, "destineTel": null, "togoTel": null, "trafficWay": null, "signBuilding": null, "businessArea": null, "selfRoom": null, "businessTime": null, "stall": null, "consume": null, "serviceFei": null, "favourable": null, "shopMemo": "1", "appraise": null, "website": null, "memo": null, "payTypes": "", "shopTypes": "", "consumeTypes": null, "cookTypes": null, "orderNum": null, "card4no": null, "card4noAcc": null, "district2": null, "searchScope": null, "status": null, "address": "", "name": null, "id": null, "pageNo": 338, "pageCount": null, "pageSize": 10, "ids": null, "endTime": null, "startTime": null}, "list": [{"cardNumFive": null, "isSupportYj": null, "cityName": null, "districtName": null, "shopinfo": {"mid": "888002159120009", "good_flag": null, "new_flag": "2", "short_name": "\u534e\u6c0f\u5927\u836f\u623f", "short_name_pinyin": "huashidayaofang", "status": null, "address": null, "name": null, "id": "43394"}, "mid": "888002159120009", "shopId": "43394", "netid": null, "province": 901, "district": 601, "zipcode": null, "telephone": null, "posDate": null, "destineTel": null, "togoTel": null, "trafficWay": null, "signBuilding": null, "businessArea": null, "selfRoom": null, "businessTime": null, "stall": null, "consume": null, "serviceFei": null, "favourable": null, "shopMemo": null, "appraise": null, "website": null, "memo": null, "payTypes": "\u6749\u5fb7\u5361,", "shopTypes": "\u836f\u5e97", "consumeTypes": null, "cookTypes": null, "orderNum": null, "card4no": null, "card4noAcc": null, "district2": 407, "searchScope": null, "status": 1, "address": "\u6c11\u4eac\u8def432\u53f7\uff08\u6c11\u5e86\u8def\u53e3", "name": "\u6c11\u4eac\u8def\u5e97", "id": 423171633331568640, "pageNo": 0, "pageCount": null, "pageSize": 10, "ids": null, "endTime": null, "startTime": null}, {"cardNumFive": null, "isSupportYj": null, "cityName": null, "districtName": null, "shopinfo": {"mid": "888888853990087", "good_flag": "2", "new_flag": "2", "short_name": "\u534e\u4e59\u5546\u8d38", "short_name_pinyin": "huayishangmao", "status": null, "address": null, "name": null, "id": "31914"}, "mid": "888888853990087", "shopId": "31914", "netid": null, "province": 901, "district": 601, "zipcode": null, "telephone": null, "posDate": "20080617", "destineTel": null, "togoTel": null, "trafficWay": "\u516c\u4ea4108 \u65b0\u5ddd\u4e13\u7ebf \u5730\u94c1\u516b\u53f7\u7ebf", "signBuilding": null, "businessArea": "80\u5e73\u65b9\u7c73", "selfRoom": null, "businessTime": "9:00~20:00", "stall": null, "consume": null, "serviceFei": null, "favourable": null, "shopMemo": null, "appraise": null, "website": null, "memo": null, "payTypes": "\u6749\u5fb7\u5361", "shopTypes": "\u767e\u8d27", "consumeTypes": null, "cookTypes": null, "orderNum": 1000, "card4no": null, "card4noAcc": null, "district2": 410, "searchScope": null, "status": 1, "address": "\u9752\u4e91\u8def625\u53f7", "name": "\u534e\u4e59\u5546\u8d38 \u9752\u4e91\u8def\u5e97", "id": 135699, "pageNo": 0, "pageCount": null, "pageSize": 10, "ids": null, "endTime": null, "startTime": null}, {"cardNumFive": null, "isSupportYj": null, "cityName": null, "districtName": null, "shopinfo": {"mid": "888888859770019", "good_flag": "2", "new_flag": "2", "short_name": "\u6c47\u7f8e\u820d", "short_name_pinyin": "hui mei she", "status": null, "address": null, "name": null, "id": "31941"}, "mid": "888888859770019", "shopId": "31941", "netid": null, "province": 901, "district": 601, "zipcode": null, "telephone": "64037671", "posDate": "20071107", "destineTel": null, "togoTel": null, "trafficWay": "\u5730\u94c1\u4e00,\u4e8c\u53f7\u7ebf \u516c\u4ea4123 73", "signBuilding": null, "businessArea": null, "selfRoom": null, "businessTime": "\u65e5\u591c\u670d\u52a1", "stall": "\u65e0", "consume": "50\u5143", "serviceFei": null, "favourable": null, "shopMemo": "\u52a0\u76df\u8fde\u9501\u5e97 \u9999\u85b0\u7cfb\u5217", "appraise": null, "website": null, "memo": null, "payTypes": "\u6749\u5fb7\u5361", "shopTypes": "\u4e13\u5356", "consumeTypes": null, "cookTypes": null, "orderNum": 1000, "card4no": null, "card4noAcc": null, "district2": 401, "searchScope": null, "status": 1, "address": "\u8fea\u7f8e\u8d2d\u7269\u4e2d\u5fc3(\u5c48\u81e3\u6c0f\u95e8\u53e3)", "name": "\u6c47\u7f8e\u820d \u8fea\u7f8e\u5e97", "id": 135742, "pageNo": 0, "pageCount": null, "pageSize": 10, "ids": null, "endTime": null, "startTime": null}, {"cardNumFive": null, "isSupportYj": null, "cityName": null, "districtName": null, "shopinfo": {"mid": "888888853110041", "good_flag": "2", "new_flag": "2", "short_name": "\u6c47\u5b9d\u8d2d\u7269\u5e7f\u573a", "short_name_pinyin": "huibaogouwuguangchang", "status": null, "address": null, "name": null, "id": "31934"}, "mid": "888888853110041", "shopId": "31934", "netid": null, "province": 901, "district": 601, "zipcode": null, "telephone": "54858889", "posDate": "20070725", "destineTel": null, "togoTel": null, "trafficWay": "\u516c\u4ea4953 92 92B", "signBuilding": null, "businessArea": null, "selfRoom": null, "businessTime": null, "stall": null, "consume": null, "serviceFei": null, "favourable": null, "shopMemo": null, "appraise": null, "website": null, "memo": null, "payTypes": "\u6749\u5fb7\u5361", "shopTypes": "\u767e\u8d27", "consumeTypes": null, "cookTypes": null, "orderNum": 1000, "card4no": null, "card4noAcc": null, "district2": 409, "searchScope": null, "status": 1, "address": "\u6f15\u5b9d\u8def3509\u53f7", "name": "\u6c47\u5b9d\u8d2d\u7269\u5e7f\u573a \u6f15\u5b9d\u8def\u5e97", "id": 135730, "pageNo": 0, "pageCount": null, "pageSize": 10, "ids": null, "endTime": null, "startTime": null}, {"cardNumFive": null, "isSupportYj": null, "cityName": null, "districtName": null, "shopinfo": {"mid": "888002180990052", "good_flag": "2", "new_flag": "2", "short_name": "\u60e0\u6c47\u5bb6", "short_name_pinyin": "huihuijia", "status": null, "address": null, "name": null, "id": "565224383010832384"}, "mid": "888002180990052", "shopId": "565224383010832384", "netid": null, "province": 901, "district": 601, "zipcode": null, "telephone": null, "posDate": null, "destineTel": null, "togoTel": null, "trafficWay": null, "signBuilding": null, "businessArea": null, "selfRoom": null, "businessTime": null, "stall": null, "consume": null, "serviceFei": null, "favourable": null, "shopMemo": null, "appraise": null, "website": null, "memo": null, "payTypes": "\u6749\u5fb7\u5361,", "shopTypes": null, "consumeTypes": null, "cookTypes": null, "orderNum": null, "card4no": null, "card4noAcc": null, "district2": 407, "searchScope": null, "status": 1, "address": "\u978d\u5c71\u8def180\u53f7\u4e00\u5c42", "name": "\u60e0\u6c47\u5bb6\u751f\u6d3b\u8d85\u5e02", "id": 565224381068869632, "pageNo": 0, "pageCount": null, "pageSize": 10, "ids": null, "endTime": null, "startTime": null}, {"cardNumFive": null, "isSupportYj": null, "cityName": null, "districtName": null, "shopinfo": {"mid": "888002153110309", "good_flag": null, "new_flag": null, "short_name": "\u6c47\u91d1\u5965\u7279\u83b1\u65af", "short_name_pinyin": "huijinaotelaisi", "status": null, "address": null, "name": null, "id": "43537"}, "mid": "888002153110309", "shopId": "43537", "netid": null, "province": 901, "district": 601, "zipcode": null, "telephone": null, "posDate": null, "destineTel": null, "togoTel": null, "trafficWay": null, "signBuilding": null, "businessArea": null, "selfRoom": null, "businessTime": null, "stall": null, "consume": null, "serviceFei": null, "favourable": null, "shopMemo": null, "appraise": null, "website": null, "memo": null, "payTypes": "\u6749\u5fb7\u5361", "shopTypes": "\u767e\u8d27", "consumeTypes": null, "cookTypes": null, "orderNum": 1000, "card4no": null, "card4noAcc": null, "district2": 409, "searchScope": null, "status": 1, "address": "\u6caa\u95f5\u8def9001\u53f7", "name": "\u6c47\u91d1\u5965\u7279\u83b1\u65af \u6c47\u91d1\u5965\u7279\u83b1\u65af", "id": 197328, "pageNo": 0, "pageCount": null, "pageSize": 10, "ids": null, "endTime": null, "startTime": null}, {"cardNumFive": null, "isSupportYj": null, "cityName": null, "districtName": null, "shopinfo": {"mid": "888888853110100", "good_flag": "1", "new_flag": "1", "short_name": "\u6c47\u91d1\u767e\u8d27", "short_name_pinyin": "huijinbaihuo", "status": null, "address": null, "name": null, "id": "31937"}, "mid": "888888853110100", "shopId": "31937", "netid": null, "province": 901, "district": 601, "zipcode": null, "telephone": null, "posDate": null, "destineTel": null, "togoTel": null, "trafficWay": null, "signBuilding": null, "businessArea": null, "selfRoom": null, "businessTime": null, "stall": null, "consume": null, "serviceFei": null, "favourable": null, "shopMemo": null, "appraise": null, "website": null, "memo": null, "payTypes": "\u6749\u5fb7\u5361", "shopTypes": "\u767e\u8d27", "consumeTypes": null, "cookTypes": null, "orderNum": 1000, "card4no": null, "card4noAcc": null, "district2": 403, "searchScope": null, "status": 1, "address": "\u5929\u5c71\u8def900\u53f7", "name": "\u6c47\u91d1\u767e\u8d27 \u8679\u6865\u5e97", "id": 135734, "pageNo": 0, "pageCount": null, "pageSize": 10, "ids": null, "endTime": null, "startTime": null}, {"cardNumFive": null, "isSupportYj": null, "cityName": null, "districtName": null, "shopinfo": {"mid": "888888853110099", "good_flag": "1", "new_flag": "1", "short_name": "\u6c47\u91d1\u767e\u8d27", "short_name_pinyin": "huijinbaihuo", "status": null, "address": null, "name": null, "id": "31938"}, "mid": "888888853110099", "shopId": "31938", "netid": null, "province": 901, "district": 601, "zipcode": null, "telephone": "64269999-6970", "posDate": null, "destineTel": null, "togoTel": null, "trafficWay": null, "signBuilding": null, "businessArea": null, "selfRoom": null, "businessTime": null, "stall": null, "consume": null, "serviceFei": null, "favourable": null, "shopMemo": null, "appraise": null, "website": null, "memo": null, "payTypes": "\u6749\u5fb7\u5361", "shopTypes": "\u767e\u8d27", "consumeTypes": null, "cookTypes": null, "orderNum": 1000, "card4no": null, "card4noAcc": null, "district2": 403, "searchScope": null, "status": 1, "address": "\u8087\u5609\u6d5c\u8def1000\u53f7", "name": "\u6c47\u91d1\u767e\u8d27 \u5f90\u6c47\u5e97", "id": 135735, "pageNo": 0, "pageCount": null, "pageSize": 10, "ids": null, "endTime": null, "startTime": null}, {"cardNumFive": null, "isSupportYj": null, "cityName": null, "districtName": null, "shopinfo": {"mid": "888888854110271", "good_flag": "2", "new_flag": "1", "short_name": "\u6c47\u91d1\u516d\u767e\u8d85\u5e02", "short_name_pinyin": "huijinliubaichaoshi", "status": null, "address": null, "name": null, "id": "31939"}, "mid": "888888854110271", "shopId": "31939", "netid": null, "province": 901, "district": 601, "zipcode": null, "telephone": null, "posDate": "20100628", "destineTel": null, "togoTel": null, "trafficWay": null, "signBuilding": null, "businessArea": null, "selfRoom": null, "businessTime": null, "stall": null, "consume": null, "serviceFei": null, "favourable": null, "shopMemo": null, "appraise": null, "website": null, "memo": null, "payTypes": "\u6749\u5fb7\u5361", "shopTypes": "\u8d85\u5e02", "consumeTypes": null, "cookTypes": null, "orderNum": 1000, "card4no": null, "card4noAcc": null, "district2": 403, "searchScope": null, "status": 1, "address": "\u8087\u5609\u6d5c\u8def1000\u53f7\u6c47\u91d1\u767e\u8d27\u5185", "name": "\u6c47\u91d1\u516d\u767e\u8d85\u5e02 \u6c47\u91d1\u5e97", "id": 135736, "pageNo": 0, "pageCount": null, "pageSize": 10, "ids": null, "endTime": null, "startTime": null}, {"cardNumFive": null, "isSupportYj": null, "cityName": null, "districtName": null, "shopinfo": {"mid": "888888854110271", "good_flag": "2", "new_flag": "1", "short_name": "\u6c47\u91d1\u516d\u767e\u8d85\u5e02", "short_name_pinyin": "huijinliubaichaoshi", "status": null, "address": null, "name": null, "id": "31939"}, "mid": "888888854110271", "shopId": "31939", "netid": null, "province": 901, "district": 601, "zipcode": null, "telephone": null, "posDate": null, "destineTel": null, "togoTel": null, "trafficWay": "156\u3001957", "signBuilding": null, "businessArea": null, "selfRoom": null, "businessTime": null, "stall": null, "consume": null, "serviceFei": null, "favourable": null, "shopMemo": null, "appraise": null, "website": null, "memo": null, "payTypes": "\u6749\u5fb7\u5361", "shopTypes": "\u8d85\u5e02", "consumeTypes": null, "cookTypes": null, "orderNum": 1000, "card4no": null, "card4noAcc": null, "district2": 409, "searchScope": null, "status": 1, "address": "\u7f57\u79c0\u8def1825\u53f7\uff08\u8fd1\u83b2\u82b1\u8def\uff09", "name": "\u6c47\u91d1\u516d\u767e\u8d85\u5e02 \u83b2\u82b1\u5e97", "id": 135737, "pageNo": 0, "pageCount": null, "pageSize": 10, "ids": null, "endTime": null, "startTime": null}], "pageLimit": 3380, "size": 10}