{"pageCount": 1095, "count": 10942, "pageNo": 331, "subShopInfo": {"cardNumFive": "", "isSupportYj": "", "cityName": null, "districtName": null, "shopinfo": {"mid": null, "good_flag": null, "new_flag": null, "short_name": null, "short_name_pinyin": null, "status": null, "address": "", "name": "", "id": null}, "mid": null, "shopId": null, "netid": null, "province": 901, "district": null, "zipcode": null, "telephone": null, "posDate": null, "destineTel": null, "togoTel": null, "trafficWay": null, "signBuilding": null, "businessArea": null, "selfRoom": null, "businessTime": null, "stall": null, "consume": null, "serviceFei": null, "favourable": null, "shopMemo": "1", "appraise": null, "website": null, "memo": null, "payTypes": "", "shopTypes": "", "consumeTypes": null, "cookTypes": null, "orderNum": null, "card4no": null, "card4noAcc": null, "district2": null, "searchScope": null, "status": null, "address": "", "name": null, "id": null, "pageNo": 330, "pageCount": null, "pageSize": 10, "ids": null, "endTime": null, "startTime": null}, "list": [{"cardNumFive": null, "isSupportYj": null, "cityName": null, "districtName": null, "shopinfo": {"mid": "888888859120043", "good_flag": null, "new_flag": null, "short_name": "\u534e\u6c0f\u5927\u836f\u623f", "short_name_pinyin": "huashidayaofang", "status": null, "address": null, "name": null, "id": "31907"}, "mid": "888888859120043", "shopId": "31907", "netid": null, "province": 901, "district": 601, "zipcode": null, "telephone": "57722453", "posDate": "20080129", "destineTel": null, "togoTel": null, "trafficWay": "\u6caa\u677e\u7ebf \u60e0\u677e\u7ebf \u677e\u6885\u7ebf", "signBuilding": null, "businessArea": null, "selfRoom": null, "businessTime": null, "stall": null, "consume": null, "serviceFei": null, "favourable": null, "shopMemo": null, "appraise": null, "website": null, "memo": null, "payTypes": "\u6749\u5fb7\u5361", "shopTypes": "\u836f\u5e97", "consumeTypes": null, "cookTypes": null, "orderNum": 1000, "card4no": null, "card4noAcc": null, "district2": 412, "searchScope": null, "status": 1, "address": "\u8363\u4e50\u4e2d\u8def552\uff0d652\u53f7", "name": "\u534e\u6c0f\u5927\u836f\u623f \u8363\u4e50\u8def\u836f\u623f", "id": 135613, "pageNo": 0, "pageCount": null, "pageSize": 10, "ids": null, "endTime": null, "startTime": null}, {"cardNumFive": null, "isSupportYj": null, "cityName": null, "districtName": null, "shopinfo": {"mid": "888888859120043", "good_flag": null, "new_flag": null, "short_name": "\u534e\u6c0f\u5927\u836f\u623f", "short_name_pinyin": "huashidayaofang", "status": null, "address": null, "name": null, "id": "31907"}, "mid": "888888859120043", "shopId": "31907", "netid": null, "province": 901, "district": 601, "zipcode": null, "telephone": "53070861", "posDate": "20080201", "destineTel": null, "togoTel": null, "trafficWay": "\u516c\u4ea4814 984 \u5730\u94c1\u56db\u53f7\u7ebf", "signBuilding": null, "businessArea": null, "selfRoom": null, "businessTime": null, "stall": null, "consume": null, "serviceFei": null, "favourable": null, "shopMemo": null, "appraise": null, "website": null, "memo": null, "payTypes": "\u6749\u5fb7\u5361", "shopTypes": "\u836f\u5e97", "consumeTypes": null, "cookTypes": null, "orderNum": 1000, "card4no": null, "card4noAcc": null, "district2": 401, "searchScope": null, "status": 1, "address": "\u5236\u9020\u5c40\u8def602\u53f7", "name": "\u534e\u6c0f\u5927\u836f\u623f \u6c5d\u5357\u5206\u5e97", "id": 135614, "pageNo": 0, "pageCount": null, "pageSize": 10, "ids": null, "endTime": null, "startTime": null}, {"cardNumFive": null, "isSupportYj": null, "cityName": null, "districtName": null, "shopinfo": {"mid": "888888859120043", "good_flag": null, "new_flag": null, "short_name": "\u534e\u6c0f\u5927\u836f\u623f", "short_name_pinyin": "huashidayaofang", "status": null, "address": null, "name": null, "id": "31907"}, "mid": "888888859120043", "shopId": "31907", "netid": null, "province": 901, "district": 601, "zipcode": null, "telephone": "50831649", "posDate": "20070604", "destineTel": null, "togoTel": null, "trafficWay": "\u516c\u4ea4572 572\u533a\u95f4", "signBuilding": null, "businessArea": null, "selfRoom": "\u65e0", "businessTime": null, "stall": null, "consume": null, "serviceFei": null, "favourable": null, "shopMemo": null, "appraise": null, "website": null, "memo": null, "payTypes": "\u6749\u5fb7\u5361", "shopTypes": "\u836f\u5e97", "consumeTypes": null, "cookTypes": null, "orderNum": 1000, "card4no": null, "card4noAcc": null, "district2": 418, "searchScope": null, "status": 1, "address": "\u5b89\u76db\u8857197\u53f7", "name": "\u534e\u6c0f\u5927\u836f\u623f \u4e09\u6797\u5206\u5e97", "id": 135615, "pageNo": 0, "pageCount": null, "pageSize": 10, "ids": null, "endTime": null, "startTime": null}, {"cardNumFive": null, "isSupportYj": null, "cityName": null, "districtName": null, "shopinfo": {"mid": "888888859120137", "good_flag": "2", "new_flag": "2", "short_name": "\u534e\u6c0f\u5927\u836f\u623f", "short_name_pinyin": "huashidayaofang", "status": null, "address": null, "name": null, "id": "31908"}, "mid": "888888859120137", "shopId": "31908", "netid": null, "province": 901, "district": 601, "zipcode": null, "telephone": "56521980", "posDate": "20081106", "destineTel": null, "togoTel": null, "trafficWay": "\u516c\u4ea4974 741 \u5730\u94c1\u4e00\u53f7\u7ebf", "signBuilding": null, "businessArea": null, "selfRoom": null, "businessTime": null, "stall": null, "consume": null, "serviceFei": null, "favourable": null, "shopMemo": null, "appraise": null, "website": null, "memo": null, "payTypes": "\u6749\u5fb7\u5361", "shopTypes": "\u836f\u5e97", "consumeTypes": null, "cookTypes": null, "orderNum": 1000, "card4no": null, "card4noAcc": null, "district2": 410, "searchScope": null, "status": 1, "address": "\u8c08\u5bb6\u6865\u8def167\u53f7", "name": "\u534e\u6c0f\u5927\u836f\u623f \u4e09\u6cf0\u5e97", "id": 135616, "pageNo": 0, "pageCount": null, "pageSize": 10, "ids": null, "endTime": null, "startTime": null}, {"cardNumFive": null, "isSupportYj": null, "cityName": null, "districtName": null, "shopinfo": {"mid": "888888859120043", "good_flag": null, "new_flag": null, "short_name": "\u534e\u6c0f\u5927\u836f\u623f", "short_name_pinyin": "huashidayaofang", "status": null, "address": null, "name": null, "id": "31907"}, "mid": "888888859120043", "shopId": "31907", "netid": null, "province": 901, "district": 601, "zipcode": null, "telephone": "64518266", "posDate": "20080408", "destineTel": null, "togoTel": null, "trafficWay": "\u516c\u4ea443 49", "signBuilding": null, "businessArea": null, "selfRoom": null, "businessTime": null, "stall": null, "consume": null, "serviceFei": null, "favourable": null, "shopMemo": null, "appraise": null, "website": null, "memo": null, "payTypes": "\u6749\u5fb7\u5361", "shopTypes": "\u836f\u5e97", "consumeTypes": null, "cookTypes": null, "orderNum": 1000, "card4no": null, "card4noAcc": null, "district2": 401, "searchScope": null, "status": 1, "address": "\u8087\u5609\u6d5c\u8def128\u53f7\uff08\u4e50\u8d2d\u5362\u6e7e\u5e97\uff09", "name": "\u534e\u6c0f\u5927\u836f\u623f \u9655\u897f\u5357\u8def\u836f\u623f", "id": 135617, "pageNo": 0, "pageCount": null, "pageSize": 10, "ids": null, "endTime": null, "startTime": null}, {"cardNumFive": null, "isSupportYj": null, "cityName": null, "districtName": null, "shopinfo": {"mid": "888888859120137", "good_flag": "2", "new_flag": "2", "short_name": "\u534e\u6c0f\u5927\u836f\u623f", "short_name_pinyin": "huashidayaofang", "status": null, "address": null, "name": null, "id": "31908"}, "mid": "888888859120137", "shopId": "31908", "netid": null, "province": 901, "district": 601, "zipcode": null, "telephone": "38983731", "posDate": "20081106", "destineTel": null, "togoTel": null, "trafficWay": "\u516c\u4ea4\u6caa\u5408\u7ebf \u94a6\u4e1c\u4e13\u7ebf", "signBuilding": null, "businessArea": null, "selfRoom": null, "businessTime": null, "stall": null, "consume": null, "serviceFei": null, "favourable": null, "shopMemo": null, "appraise": null, "website": null, "memo": null, "payTypes": "\u6749\u5fb7\u5361", "shopTypes": "\u836f\u5e97", "consumeTypes": null, "cookTypes": null, "orderNum": 1000, "card4no": null, "card4noAcc": null, "district2": 418, "searchScope": null, "status": 1, "address": "\u4e0a\u5ddd\u8def1706\u53f7", "name": "\u534e\u6c0f\u5927\u836f\u623f \u4e0a\u5ddd\u5e97", "id": 135618, "pageNo": 0, "pageCount": null, "pageSize": 10, "ids": null, "endTime": null, "startTime": null}, {"cardNumFive": null, "isSupportYj": null, "cityName": null, "districtName": null, "shopinfo": {"mid": "888888859120043", "good_flag": null, "new_flag": null, "short_name": "\u534e\u6c0f\u5927\u836f\u623f", "short_name_pinyin": "huashidayaofang", "status": null, "address": null, "name": null, "id": "31907"}, "mid": "888888859120043", "shopId": "31907", "netid": null, "province": 901, "district": 601, "zipcode": null, "telephone": "68323156", "posDate": "20080204", "destineTel": null, "togoTel": null, "trafficWay": "\u516c\u4ea4955 \u4e07\u91ce\u7ebf \u6caa\u71ce\u7ebf", "signBuilding": "\u6613\u521d\u83b2\u82b1\u5546\u573a", "businessArea": null, "selfRoom": null, "businessTime": null, "stall": null, "consume": null, "serviceFei": null, "favourable": null, "shopMemo": null, "appraise": null, "website": null, "memo": null, "payTypes": "\u6749\u5fb7\u5361", "shopTypes": "\u836f\u5e97", "consumeTypes": null, "cookTypes": null, "orderNum": 1000, "card4no": null, "card4noAcc": null, "district2": 418, "searchScope": null, "status": 1, "address": "\u4e0a\u5357\u8def3521\u53f7", "name": "\u534e\u6c0f\u5927\u836f\u623f \u4e0a\u5357\u8def\u836f\u623f", "id": 135619, "pageNo": 0, "pageCount": null, "pageSize": 10, "ids": null, "endTime": null, "startTime": null}, {"cardNumFive": null, "isSupportYj": null, "cityName": null, "districtName": null, "shopinfo": {"mid": "888888859120043", "good_flag": null, "new_flag": null, "short_name": "\u534e\u6c0f\u5927\u836f\u623f", "short_name_pinyin": "huashidayaofang", "status": null, "address": null, "name": null, "id": "31907"}, "mid": "888888859120043", "shopId": "31907", "netid": null, "province": 901, "district": 601, "zipcode": null, "telephone": "54110309", "posDate": "20080203", "destineTel": null, "togoTel": null, "trafficWay": "\u516c\u4ea4957 50 \u5730\u94c1\u4e00\u53f7\u7ebf", "signBuilding": null, "businessArea": null, "selfRoom": null, "businessTime": null, "stall": null, "consume": null, "serviceFei": null, "favourable": null, "shopMemo": null, "appraise": null, "website": null, "memo": null, "payTypes": "\u6749\u5fb7\u5361", "shopTypes": "\u836f\u5e97", "consumeTypes": null, "cookTypes": null, "orderNum": 1000, "card4no": null, "card4noAcc": null, "district2": 403, "searchScope": null, "status": 1, "address": "\u77f3\u9f99\u8def681\uff0d683\u53f7", "name": "\u534e\u6c0f\u5927\u836f\u623f \u77f3\u9f99\u8def\u5206\u5e97", "id": 135620, "pageNo": 0, "pageCount": null, "pageSize": 10, "ids": null, "endTime": null, "startTime": null}, {"cardNumFive": null, "isSupportYj": null, "cityName": null, "districtName": null, "shopinfo": {"mid": "888888859120137", "good_flag": "2", "new_flag": "2", "short_name": "\u534e\u6c0f\u5927\u836f\u623f", "short_name_pinyin": "huashidayaofang", "status": null, "address": null, "name": null, "id": "31908"}, "mid": "888888859120137", "shopId": "31908", "netid": null, "province": 901, "district": 601, "zipcode": null, "telephone": "63242114", "posDate": "20081106", "destineTel": null, "togoTel": null, "trafficWay": "\u516c\u4ea4518 802 \u5730\u94c1\u516b\u53f7\u7ebf", "signBuilding": null, "businessArea": null, "selfRoom": null, "businessTime": null, "stall": null, "consume": null, "serviceFei": null, "favourable": null, "shopMemo": null, "appraise": null, "website": null, "memo": null, "payTypes": "\u6749\u5fb7\u5361", "shopTypes": "\u836f\u5e97", "consumeTypes": null, "cookTypes": null, "orderNum": 1000, "card4no": null, "card4noAcc": null, "district2": 410, "searchScope": null, "status": 1, "address": "\u5f00\u5c01\u8def234\u53f7", "name": "\u534e\u6c0f\u5927\u836f\u623f \u5e02\u5317\u5e97", "id": 135621, "pageNo": 0, "pageCount": null, "pageSize": 10, "ids": null, "endTime": null, "startTime": null}, {"cardNumFive": null, "isSupportYj": null, "cityName": null, "districtName": null, "shopinfo": {"mid": "888888859120137", "good_flag": "2", "new_flag": "2", "short_name": "\u534e\u6c0f\u5927\u836f\u623f", "short_name_pinyin": "huashidayaofang", "status": null, "address": null, "name": null, "id": "31908"}, "mid": "888888859120137", "shopId": "31908", "netid": null, "province": 901, "district": 601, "zipcode": null, "telephone": "56629312", "posDate": "20081106", "destineTel": null, "togoTel": null, "trafficWay": "\u516c\u4ea4537 952 \u5730\u94c1\u516b\u53f7\u7ebf", "signBuilding": null, "businessArea": null, "selfRoom": null, "businessTime": null, "stall": null, "consume": null, "serviceFei": null, "favourable": null, "shopMemo": null, "appraise": null, "website": null, "memo": null, "payTypes": "\u6749\u5fb7\u5361", "shopTypes": "\u836f\u5e97", "consumeTypes": null, "cookTypes": null, "orderNum": 1000, "card4no": null, "card4noAcc": null, "district2": 410, "searchScope": null, "status": 1, "address": "\u4e2d\u5174\u8def587\u53f7", "name": "\u534e\u6c0f\u5927\u836f\u623f \u6811\u65b0\u5e97", "id": 135622, "pageNo": 0, "pageCount": null, "pageSize": 10, "ids": null, "endTime": null, "startTime": null}], "pageLimit": 3300, "size": 10}