{"pageCount": 1095, "count": 10942, "pageNo": 343, "subShopInfo": {"cardNumFive": "", "isSupportYj": "", "cityName": null, "districtName": null, "shopinfo": {"mid": null, "good_flag": null, "new_flag": null, "short_name": null, "short_name_pinyin": null, "status": null, "address": "", "name": "", "id": null}, "mid": null, "shopId": null, "netid": null, "province": 901, "district": null, "zipcode": null, "telephone": null, "posDate": null, "destineTel": null, "togoTel": null, "trafficWay": null, "signBuilding": null, "businessArea": null, "selfRoom": null, "businessTime": null, "stall": null, "consume": null, "serviceFei": null, "favourable": null, "shopMemo": "1", "appraise": null, "website": null, "memo": null, "payTypes": "", "shopTypes": "", "consumeTypes": null, "cookTypes": null, "orderNum": null, "card4no": null, "card4noAcc": null, "district2": null, "searchScope": null, "status": null, "address": "", "name": null, "id": null, "pageNo": 342, "pageCount": null, "pageSize": 10, "ids": null, "endTime": null, "startTime": null}, "list": [{"cardNumFive": null, "isSupportYj": null, "cityName": null, "districtName": null, "shopinfo": {"mid": "888888854110024", "good_flag": null, "new_flag": "2", "short_name": "\u5bb6\u5f97\u5229", "short_name_pinyin": "jiadeli", "status": null, "address": null, "name": null, "id": "32029"}, "mid": "888888854110024", "shopId": "32029", "netid": null, "province": 901, "district": 601, "zipcode": null, "telephone": "56751628", "posDate": "20061230", "destineTel": "56751628", "togoTel": "56751628", "trafficWay": "\u516c\u4ea4851 916 943", "signBuilding": null, "businessArea": "500-1500\u5e73\u65b9\u7c73\u5de6\u53f3", "selfRoom": "\u65e0", "businessTime": "8:30~21:30", "stall": "\u65e0", "consume": null, "serviceFei": null, "favourable": null, "shopMemo": null, "appraise": null, "website": null, "memo": null, "payTypes": "\u6749\u5fb7\u5361", "shopTypes": "\u4fbf\u5229\u5e97", "consumeTypes": null, "cookTypes": null, "orderNum": 1000, "card4no": null, "card4noAcc": null, "district2": 416, "searchScope": null, "status": 1, "address": "\u864e\u6797\u8def501\u53f7", "name": "\u5bb6\u5f97\u5229 \u864e\u6797\u8def\u5e97", "id": 136345, "pageNo": 0, "pageCount": null, "pageSize": 10, "ids": null, "endTime": null, "startTime": null}, {"cardNumFive": null, "isSupportYj": null, "cityName": null, "districtName": null, "shopinfo": {"mid": "888888854110024", "good_flag": null, "new_flag": "2", "short_name": "\u5bb6\u5f97\u5229", "short_name_pinyin": "jiadeli", "status": null, "address": null, "name": null, "id": "32029"}, "mid": "888888854110024", "shopId": "32029", "netid": null, "province": 901, "district": 601, "zipcode": null, "telephone": "58560359", "posDate": "20061231", "destineTel": "58560359", "togoTel": "58560359", "trafficWay": "\u7533\u9646\u4e13\u7ebf", "signBuilding": null, "businessArea": "500-1500\u5e73\u65b9\u7c73\u5de6\u53f3", "selfRoom": "\u65e0", "businessTime": "8:30~21:30", "stall": "\u65e0", "consume": null, "serviceFei": null, "favourable": null, "shopMemo": null, "appraise": null, "website": null, "memo": null, "payTypes": "\u6749\u5fb7\u5361", "shopTypes": "\u4fbf\u5229\u5e97", "consumeTypes": null, "cookTypes": null, "orderNum": 1000, "card4no": null, "card4noAcc": null, "district2": 418, "searchScope": null, "status": 1, "address": "\u4e94\u83b2\u8def91\u53f7-113\u53f7", "name": "\u5bb6\u5f97\u5229 \u6caa\u4e1c\u5e97", "id": 136346, "pageNo": 0, "pageCount": null, "pageSize": 10, "ids": null, "endTime": null, "startTime": null}, {"cardNumFive": null, "isSupportYj": null, "cityName": null, "districtName": null, "shopinfo": {"mid": "888888854110024", "good_flag": null, "new_flag": "2", "short_name": "\u5bb6\u5f97\u5229", "short_name_pinyin": "jiadeli", "status": null, "address": null, "name": null, "id": "32029"}, "mid": "888888854110024", "shopId": "32029", "netid": null, "province": 901, "district": 601, "zipcode": null, "telephone": "20220399", "posDate": "20100623", "destineTel": null, "togoTel": null, "trafficWay": null, "signBuilding": null, "businessArea": null, "selfRoom": null, "businessTime": null, "stall": null, "consume": null, "serviceFei": null, "favourable": null, "shopMemo": null, "appraise": null, "website": null, "memo": null, "payTypes": "\u6749\u5fb7\u5361", "shopTypes": "\u4fbf\u5229\u5e97", "consumeTypes": null, "cookTypes": null, "orderNum": 1000, "card4no": null, "card4noAcc": null, "district2": 418, "searchScope": null, "status": 1, "address": "\u6caa\u4e1c\u8def71\u53f7", "name": "\u5bb6\u5f97\u5229 \u6caa\u4e1c\u4e8c\u5e97", "id": 136347, "pageNo": 0, "pageCount": null, "pageSize": 10, "ids": null, "endTime": null, "startTime": null}, {"cardNumFive": null, "isSupportYj": null, "cityName": null, "districtName": null, "shopinfo": {"mid": "888888854110024", "good_flag": null, "new_flag": "2", "short_name": "\u5bb6\u5f97\u5229", "short_name_pinyin": "jiadeli", "status": null, "address": null, "name": null, "id": "32029"}, "mid": "888888854110024", "shopId": "32029", "netid": null, "province": 901, "district": 601, "zipcode": null, "telephone": "68923620", "posDate": "20070104", "destineTel": "68923620", "togoTel": "68923620", "trafficWay": "\u516c\u4ea4976", "signBuilding": null, "businessArea": "500-1500\u5e73\u65b9\u7c73\u5de6\u53f3", "selfRoom": "\u65e0", "businessTime": "8:30~21:30", "stall": "\u65e0", "consume": null, "serviceFei": null, "favourable": null, "shopMemo": null, "appraise": null, "website": null, "memo": null, "payTypes": "\u6749\u5fb7\u5361", "shopTypes": "\u4fbf\u5229\u5e97", "consumeTypes": null, "cookTypes": null, "orderNum": 1000, "card4no": null, "card4noAcc": null, "district2": 418, "searchScope": null, "status": 1, "address": "\u82b3\u534e\u8def188\u5f047\u53f7?8\u53f7", "name": "\u5bb6\u5f97\u5229 \u82b1\u6728\u5e97", "id": 136348, "pageNo": 0, "pageCount": null, "pageSize": 10, "ids": null, "endTime": null, "startTime": null}, {"cardNumFive": null, "isSupportYj": null, "cityName": null, "districtName": null, "shopinfo": {"mid": "888888854110024", "good_flag": null, "new_flag": "2", "short_name": "\u5bb6\u5f97\u5229", "short_name_pinyin": "jiadeli", "status": null, "address": null, "name": null, "id": "32029"}, "mid": "888888854110024", "shopId": "32029", "netid": null, "province": 901, "district": 601, "zipcode": null, "telephone": "54888834", "posDate": "20061221", "destineTel": "54888834", "togoTel": "54888834", "trafficWay": "\u516c\u4ea4953 92", "signBuilding": null, "businessArea": "500-1500\u5e73\u65b9\u7c73\u5de6\u53f3", "selfRoom": "\u65e0", "businessTime": "8:30~21:30", "stall": "\u65e0", "consume": null, "serviceFei": null, "favourable": null, "shopMemo": null, "appraise": null, "website": null, "memo": null, "payTypes": "\u6749\u5fb7\u5361", "shopTypes": "\u4fbf\u5229\u5e97", "consumeTypes": null, "cookTypes": null, "orderNum": 1000, "card4no": null, "card4noAcc": null, "district2": 409, "searchScope": null, "status": 1, "address": "\u534e\u6797\u8def729\u5f0434\u53f7", "name": "\u5bb6\u5f97\u5229 \u534e\u6797\u5e97", "id": 136350, "pageNo": 0, "pageCount": null, "pageSize": 10, "ids": null, "endTime": null, "startTime": null}, {"cardNumFive": null, "isSupportYj": null, "cityName": null, "districtName": null, "shopinfo": {"mid": "888888854110024", "good_flag": null, "new_flag": "2", "short_name": "\u5bb6\u5f97\u5229", "short_name_pinyin": "jiadeli", "status": null, "address": null, "name": null, "id": "32029"}, "mid": "888888854110024", "shopId": "32029", "netid": null, "province": 901, "district": 601, "zipcode": null, "telephone": "58021313", "posDate": "20061222", "destineTel": "58021313", "togoTel": "58021313", "trafficWay": "\u5357\u4e03\u7ebf \u9f99\u4e07\u679c\u7ebf", "signBuilding": null, "businessArea": "500-1500\u5e73\u65b9\u7c73\u5de6\u53f3", "selfRoom": "\u65e0", "businessTime": "8:30~21:30", "stall": "\u65e0", "consume": null, "serviceFei": null, "favourable": null, "shopMemo": null, "appraise": null, "website": null, "memo": null, "payTypes": "\u6749\u5fb7\u5361", "shopTypes": "\u4fbf\u5229\u5e97", "consumeTypes": null, "cookTypes": null, "orderNum": 1000, "card4no": null, "card4noAcc": null, "district2": 418, "searchScope": null, "status": 1, "address": "\u60e0\u5357\u9547\u5357\u95e8\u5927\u8857120\u53f7", "name": "\u5bb6\u5f97\u5229 \u60e0\u5357\u5e97", "id": 136351, "pageNo": 0, "pageCount": null, "pageSize": 10, "ids": null, "endTime": null, "startTime": null}, {"cardNumFive": null, "isSupportYj": null, "cityName": null, "districtName": null, "shopinfo": {"mid": "888888854110024", "good_flag": null, "new_flag": "2", "short_name": "\u5bb6\u5f97\u5229", "short_name_pinyin": "jiadeli", "status": null, "address": null, "name": null, "id": "32029"}, "mid": "888888854110024", "shopId": "32029", "netid": null, "province": 901, "district": 601, "zipcode": null, "telephone": "58999014", "posDate": "20061231", "destineTel": "58999014", "togoTel": "58999014", "trafficWay": "\u516c\u4ea4936 984", "signBuilding": null, "businessArea": "500-1500\u5e73\u65b9\u7c73\u5de6\u53f3", "selfRoom": "\u65e0", "businessTime": "8:30~21:30", "stall": "\u65e0", "consume": null, "serviceFei": null, "favourable": null, "shopMemo": null, "appraise": null, "website": null, "memo": null, "payTypes": "\u6749\u5fb7\u5361", "shopTypes": "\u4fbf\u5229\u5e97", "consumeTypes": null, "cookTypes": null, "orderNum": 1000, "card4no": null, "card4noAcc": null, "district2": 418, "searchScope": null, "status": 1, "address": "\u4f73\u6797\u8def959\u53f7", "name": "\u5bb6\u5f97\u5229 \u4f73\u6797\u5e97", "id": 136352, "pageNo": 0, "pageCount": null, "pageSize": 10, "ids": null, "endTime": null, "startTime": null}, {"cardNumFive": null, "isSupportYj": null, "cityName": null, "districtName": null, "shopinfo": {"mid": "888888854110024", "good_flag": null, "new_flag": "2", "short_name": "\u5bb6\u5f97\u5229", "short_name_pinyin": "jiadeli", "status": null, "address": null, "name": null, "id": "32029"}, "mid": "888888854110024", "shopId": "32029", "netid": null, "province": 901, "district": 601, "zipcode": null, "telephone": null, "posDate": "20100630", "destineTel": null, "togoTel": null, "trafficWay": null, "signBuilding": null, "businessArea": null, "selfRoom": null, "businessTime": null, "stall": null, "consume": null, "serviceFei": null, "favourable": null, "shopMemo": null, "appraise": null, "website": null, "memo": null, "payTypes": "\u6749\u5fb7\u5361", "shopTypes": "\u4fbf\u5229\u5e97", "consumeTypes": null, "cookTypes": null, "orderNum": 1000, "card4no": null, "card4noAcc": null, "district2": 403, "searchScope": null, "status": 1, "address": "\u6c5f\u5b89\u8def213-217\u53f7", "name": "\u5bb6\u5f97\u5229 \u6c5f\u5b89\u8def\u5e97", "id": 136354, "pageNo": 0, "pageCount": null, "pageSize": 10, "ids": null, "endTime": null, "startTime": null}, {"cardNumFive": null, "isSupportYj": null, "cityName": null, "districtName": null, "shopinfo": {"mid": "888888854110024", "good_flag": null, "new_flag": "2", "short_name": "\u5bb6\u5f97\u5229", "short_name_pinyin": "jiadeli", "status": null, "address": null, "name": null, "id": "32029"}, "mid": "888888854110024", "shopId": "32029", "netid": null, "province": 901, "district": 601, "zipcode": null, "telephone": "64359288", "posDate": "20061227", "destineTel": "64359288", "togoTel": "64359288", "trafficWay": "\u5f90\u95f5\u7ebf \u4e1c\u95f5\u7ebf \u4e1c\u576a\u7ebf", "signBuilding": null, "businessArea": "500-1500\u5e73\u65b9\u7c73\u5de6\u53f3", "selfRoom": "\u65e0", "businessTime": "8:30~21:30", "stall": "\u65e0", "consume": null, "serviceFei": null, "favourable": null, "shopMemo": null, "appraise": null, "website": null, "memo": null, "payTypes": "\u6749\u5fb7\u5361", "shopTypes": "\u4fbf\u5229\u5e97", "consumeTypes": null, "cookTypes": null, "orderNum": 1000, "card4no": null, "card4noAcc": null, "district2": 409, "searchScope": null, "status": 1, "address": "\u6c5f\u5ddd\u4e1c\u8def950\u53f7", "name": "\u5bb6\u5f97\u5229 \u6c5f\u5ddd\u5e97", "id": 136355, "pageNo": 0, "pageCount": null, "pageSize": 10, "ids": null, "endTime": null, "startTime": null}, {"cardNumFive": null, "isSupportYj": null, "cityName": null, "districtName": null, "shopinfo": {"mid": "888888854110024", "good_flag": null, "new_flag": "2", "short_name": "\u5bb6\u5f97\u5229", "short_name_pinyin": "jiadeli", "status": null, "address": null, "name": null, "id": "32029"}, "mid": "888888854110024", "shopId": "32029", "netid": null, "province": 901, "district": 601, "zipcode": null, "telephone": null, "posDate": "20080714", "destineTel": null, "togoTel": null, "trafficWay": null, "signBuilding": null, "businessArea": null, "selfRoom": null, "businessTime": null, "stall": null, "consume": null, "serviceFei": null, "favourable": null, "shopMemo": null, "appraise": null, "website": null, "memo": null, "payTypes": "\u6749\u5fb7\u5361", "shopTypes": "\u4fbf\u5229\u5e97", "consumeTypes": null, "cookTypes": null, "orderNum": 1000, "card4no": null, "card4noAcc": null, "district2": 411, "searchScope": null, "status": 1, "address": "\u5357\u7fd4\u89e3\u653e\u885770-82\u53f7101\u5ba4\u5357", "name": "\u5bb6\u5f97\u5229 \u89e3\u653e\u5e97", "id": 136357, "pageNo": 0, "pageCount": null, "pageSize": 10, "ids": null, "endTime": null, "startTime": null}], "pageLimit": 3420, "size": 10}