{"pageCount": 1095, "count": 10942, "pageNo": 345, "subShopInfo": {"cardNumFive": "", "isSupportYj": "", "cityName": null, "districtName": null, "shopinfo": {"mid": null, "good_flag": null, "new_flag": null, "short_name": null, "short_name_pinyin": null, "status": null, "address": "", "name": "", "id": null}, "mid": null, "shopId": null, "netid": null, "province": 901, "district": null, "zipcode": null, "telephone": null, "posDate": null, "destineTel": null, "togoTel": null, "trafficWay": null, "signBuilding": null, "businessArea": null, "selfRoom": null, "businessTime": null, "stall": null, "consume": null, "serviceFei": null, "favourable": null, "shopMemo": "1", "appraise": null, "website": null, "memo": null, "payTypes": "", "shopTypes": "", "consumeTypes": null, "cookTypes": null, "orderNum": null, "card4no": null, "card4noAcc": null, "district2": null, "searchScope": null, "status": null, "address": "", "name": null, "id": null, "pageNo": 344, "pageCount": null, "pageSize": 10, "ids": null, "endTime": null, "startTime": null}, "list": [{"cardNumFive": null, "isSupportYj": null, "cityName": null, "districtName": null, "shopinfo": {"mid": "888888854110024", "good_flag": null, "new_flag": "2", "short_name": "\u5bb6\u5f97\u5229", "short_name_pinyin": "jiadeli", "status": null, "address": null, "name": null, "id": "32029"}, "mid": "888888854110024", "shopId": "32029", "netid": null, "province": 901, "district": 601, "zipcode": null, "telephone": null, "posDate": "20071203", "destineTel": null, "togoTel": null, "trafficWay": "\u516c\u4ea4572 72 104 128", "signBuilding": null, "businessArea": null, "selfRoom": null, "businessTime": null, "stall": null, "consume": null, "serviceFei": null, "favourable": null, "shopMemo": null, "appraise": null, "website": null, "memo": null, "payTypes": "\u6749\u5fb7\u5361", "shopTypes": "\u4fbf\u5229\u5e97", "consumeTypes": null, "cookTypes": null, "orderNum": 1000, "card4no": null, "card4noAcc": null, "district2": 403, "searchScope": null, "status": 1, "address": "\u96f6\u9675\u8def228-236\u53f7", "name": "\u5bb6\u5f97\u5229 \u96f6\u9675\u5e97", "id": 136377, "pageNo": 0, "pageCount": null, "pageSize": 10, "ids": null, "endTime": null, "startTime": null}, {"cardNumFive": null, "isSupportYj": null, "cityName": null, "districtName": null, "shopinfo": {"mid": "888888854110024", "good_flag": null, "new_flag": "2", "short_name": "\u5bb6\u5f97\u5229", "short_name_pinyin": "jiadeli", "status": null, "address": null, "name": null, "id": "32029"}, "mid": "888888854110024", "shopId": "32029", "netid": null, "province": 901, "district": 601, "zipcode": null, "telephone": "64026392", "posDate": "20061228", "destineTel": "64026392", "togoTel": "64026392", "trafficWay": "\u516c\u4ea4809", "signBuilding": null, "businessArea": "500-1500\u5e73\u65b9\u7c73\u5de6\u53f3", "selfRoom": "\u65e0", "businessTime": "8:30~21:30", "stall": "\u65e0", "consume": null, "serviceFei": null, "favourable": null, "shopMemo": null, "appraise": null, "website": null, "memo": null, "payTypes": "\u6749\u5fb7\u5361", "shopTypes": "\u4fbf\u5229\u5e97", "consumeTypes": null, "cookTypes": null, "orderNum": 1000, "card4no": null, "card4noAcc": null, "district2": 409, "searchScope": null, "status": 1, "address": "\u9ec4\u6866\u8def269\u53f7", "name": "\u5bb6\u5f97\u5229 \u9f99\u67cf\u5e97", "id": 136378, "pageNo": 0, "pageCount": null, "pageSize": 10, "ids": null, "endTime": null, "startTime": null}, {"cardNumFive": null, "isSupportYj": null, "cityName": null, "districtName": null, "shopinfo": {"mid": "888888854110024", "good_flag": null, "new_flag": "2", "short_name": "\u5bb6\u5f97\u5229", "short_name_pinyin": "jiadeli", "status": null, "address": null, "name": null, "id": "32029"}, "mid": "888888854110024", "shopId": "32029", "netid": null, "province": 901, "district": 601, "zipcode": null, "telephone": "54098492", "posDate": "20061221", "destineTel": "54098492", "togoTel": "54098492", "trafficWay": "\u516c\u4ea4932\u8def", "signBuilding": null, "businessArea": "500-1500\u5e73\u65b9\u7c73\u5de6\u53f3", "selfRoom": "\u65e0", "businessTime": "8:30~21:30", "stall": "\u65e0", "consume": null, "serviceFei": null, "favourable": null, "shopMemo": null, "appraise": null, "website": null, "memo": null, "payTypes": "\u6749\u5fb7\u5361", "shopTypes": "\u4fbf\u5229\u5e97", "consumeTypes": null, "cookTypes": null, "orderNum": 1000, "card4no": null, "card4noAcc": null, "district2": 401, "searchScope": null, "status": 1, "address": "\u5929\u94a5\u6865\u5357\u8def1191\u53f7", "name": "\u5bb6\u5f97\u5229 \u9f99\u5357\u5e97", "id": 136379, "pageNo": 0, "pageCount": null, "pageSize": 10, "ids": null, "endTime": null, "startTime": null}, {"cardNumFive": null, "isSupportYj": null, "cityName": null, "districtName": null, "shopinfo": {"mid": "888888854110024", "good_flag": null, "new_flag": "2", "short_name": "\u5bb6\u5f97\u5229", "short_name_pinyin": "jiadeli", "status": null, "address": null, "name": null, "id": "32029"}, "mid": "888888854110024", "shopId": "32029", "netid": null, "province": 901, "district": 601, "zipcode": null, "telephone": "56937862", "posDate": "20061230", "destineTel": "56937862", "togoTel": "56937862", "trafficWay": "\u5f6d\u6c5f\u7ebf \u6cf0\u6708\u7ebf", "signBuilding": null, "businessArea": "500-1500\u5e73\u65b9\u7c73\u5de6\u53f3", "selfRoom": "\u65e0", "businessTime": "8:30~21:30", "stall": "\u65e0", "consume": null, "serviceFei": null, "favourable": null, "shopMemo": null, "appraise": null, "website": null, "memo": null, "payTypes": "\u6749\u5fb7\u5361", "shopTypes": "\u4fbf\u5229\u5e97", "consumeTypes": null, "cookTypes": null, "orderNum": 1000, "card4no": null, "card4noAcc": null, "district2": 416, "searchScope": null, "status": 1, "address": "\u6708\u6d66\u9f99\u9547\u8def75\u53f7", "name": "\u5bb6\u5f97\u5229 \u9f99\u9547\u5e97", "id": 136380, "pageNo": 0, "pageCount": null, "pageSize": 10, "ids": null, "endTime": null, "startTime": null}, {"cardNumFive": null, "isSupportYj": null, "cityName": null, "districtName": null, "shopinfo": {"mid": "888888854110024", "good_flag": null, "new_flag": "2", "short_name": "\u5bb6\u5f97\u5229", "short_name_pinyin": "jiadeli", "status": null, "address": null, "name": null, "id": "32029"}, "mid": "888888854110024", "shopId": "32029", "netid": null, "province": 901, "district": 601, "zipcode": null, "telephone": null, "posDate": "20070724", "destineTel": null, "togoTel": null, "trafficWay": "\u6caa\u5510\u7ebf \u5317\u5609\u7ebf", "signBuilding": null, "businessArea": null, "selfRoom": null, "businessTime": null, "stall": null, "consume": null, "serviceFei": null, "favourable": null, "shopMemo": null, "appraise": null, "website": null, "memo": null, "payTypes": "\u6749\u5fb7\u5361", "shopTypes": "\u4fbf\u5229\u5e97", "consumeTypes": null, "cookTypes": null, "orderNum": 1000, "card4no": null, "card4noAcc": null, "district2": 411, "searchScope": null, "status": 1, "address": "\u5a04\u5858\u9547\u4e2d\u5927\u885780\u53f7", "name": "\u5bb6\u5f97\u5229 \u5a04\u5858\u5e97", "id": 136381, "pageNo": 0, "pageCount": null, "pageSize": 10, "ids": null, "endTime": null, "startTime": null}, {"cardNumFive": null, "isSupportYj": null, "cityName": null, "districtName": null, "shopinfo": {"mid": "888888854110024", "good_flag": null, "new_flag": "2", "short_name": "\u5bb6\u5f97\u5229", "short_name_pinyin": "jiadeli", "status": null, "address": null, "name": null, "id": "32029"}, "mid": "888888854110024", "shopId": "32029", "netid": null, "province": 901, "district": 601, "zipcode": null, "telephone": "64911462", "posDate": "20061228", "destineTel": "64911462", "togoTel": "64911462", "trafficWay": "\u4e1c\u95f5\u7ebf \u4e1c\u576a\u7ebf", "signBuilding": "\u822a\u5934\u897f\u97625\u516c\u91cc", "businessArea": "500-1500\u5e73\u65b9\u7c73\u5de6\u53f3", "selfRoom": "\u65e0", "businessTime": "8:30~21:30", "stall": "\u65e0", "consume": null, "serviceFei": null, "favourable": null, "shopMemo": null, "appraise": null, "website": null, "memo": null, "payTypes": "\u6749\u5fb7\u5361", "shopTypes": "\u4fbf\u5229\u5e97", "consumeTypes": null, "cookTypes": null, "orderNum": 1000, "card4no": null, "card4noAcc": null, "district2": 409, "searchScope": null, "status": 1, "address": "\u95f8\u822a\u8def2588\u53f7\uff5e2600\u53f7\uff08\u822a\u5934\u897f\u97625\u516c\u91cc\uff09", "name": "\u5bb6\u5f97\u5229 \u9c81\u6c47\u5e97", "id": 136382, "pageNo": 0, "pageCount": null, "pageSize": 10, "ids": null, "endTime": null, "startTime": null}, {"cardNumFive": null, "isSupportYj": null, "cityName": null, "districtName": null, "shopinfo": {"mid": "888888854110024", "good_flag": null, "new_flag": "2", "short_name": "\u5bb6\u5f97\u5229", "short_name_pinyin": "jiadeli", "status": null, "address": null, "name": null, "id": "32029"}, "mid": "888888854110024", "shopId": "32029", "netid": null, "province": 901, "district": 601, "zipcode": null, "telephone": "58523804", "posDate": "20061231", "destineTel": "58523804", "togoTel": "58523804", "trafficWay": "\u516c\u4ea4814", "signBuilding": null, "businessArea": "500-1500\u5e73\u65b9\u7c73\u5de6\u53f3", "selfRoom": "\u65e0", "businessTime": "8:30~21:30", "stall": "\u65e0", "consume": null, "serviceFei": null, "favourable": null, "shopMemo": null, "appraise": null, "website": null, "memo": null, "payTypes": "\u6749\u5fb7\u5361", "shopTypes": "\u4fbf\u5229\u5e97", "consumeTypes": null, "cookTypes": null, "orderNum": 1000, "card4no": null, "card4noAcc": null, "district2": 418, "searchScope": null, "status": 1, "address": "\u535a\u5c71\u4e1c\u8def66\u53f7", "name": "\u5bb6\u5f97\u5229 \u7f57\u5c71\u5e97", "id": 136383, "pageNo": 0, "pageCount": null, "pageSize": 10, "ids": null, "endTime": null, "startTime": null}, {"cardNumFive": null, "isSupportYj": null, "cityName": null, "districtName": null, "shopinfo": {"mid": "888888854110024", "good_flag": null, "new_flag": "2", "short_name": "\u5bb6\u5f97\u5229", "short_name_pinyin": "jiadeli", "status": null, "address": null, "name": null, "id": "32029"}, "mid": "888888854110024", "shopId": "32029", "netid": null, "province": 901, "district": 601, "zipcode": null, "telephone": "68557605", "posDate": "20061231", "destineTel": "68557605", "togoTel": "68557605", "trafficWay": "\u516c\u4ea4935 814", "signBuilding": null, "businessArea": "500-1500\u5e73\u65b9\u7c73\u5de6\u53f3", "selfRoom": "\u65e0", "businessTime": "8:30~21:30", "stall": "\u65e0", "consume": null, "serviceFei": null, "favourable": null, "shopMemo": null, "appraise": null, "website": null, "memo": null, "payTypes": "\u6749\u5fb7\u5361", "shopTypes": "\u4fbf\u5229\u5e97", "consumeTypes": null, "cookTypes": null, "orderNum": 1000, "card4no": null, "card4noAcc": null, "district2": 418, "searchScope": null, "status": 1, "address": "\u6c11\u751f\u8def628\u53f7", "name": "\u5bb6\u5f97\u5229 \u6c11\u751f\u5e97", "id": 136387, "pageNo": 0, "pageCount": null, "pageSize": 10, "ids": null, "endTime": null, "startTime": null}, {"cardNumFive": null, "isSupportYj": null, "cityName": null, "districtName": null, "shopinfo": {"mid": "888888854110024", "good_flag": null, "new_flag": "2", "short_name": "\u5bb6\u5f97\u5229", "short_name_pinyin": "jiadeli", "status": null, "address": null, "name": null, "id": "32029"}, "mid": "888888854110024", "shopId": "32029", "netid": null, "province": 901, "district": 601, "zipcode": null, "telephone": "64635906", "posDate": "20061227", "destineTel": "64635906", "togoTel": "64635906", "trafficWay": "\u8398\u8377\u7ebf", "signBuilding": null, "businessArea": "500-1500\u5e73\u65b9\u7c73\u5de6\u53f3", "selfRoom": "\u65e0", "businessTime": "8:30~21:30", "stall": "\u65e0", "consume": null, "serviceFei": null, "favourable": null, "shopMemo": null, "appraise": null, "website": null, "memo": null, "payTypes": "\u6749\u5fb7\u5361", "shopTypes": "\u4fbf\u5229\u5e97", "consumeTypes": null, "cookTypes": null, "orderNum": 1000, "card4no": null, "card4noAcc": null, "district2": 409, "searchScope": null, "status": 1, "address": "\u78a7\u6c5f\u8def403\u53f7", "name": "\u5bb6\u5f97\u5229 \u95f5\u884c\u5e97", "id": 136388, "pageNo": 0, "pageCount": null, "pageSize": 10, "ids": null, "endTime": null, "startTime": null}, {"cardNumFive": null, "isSupportYj": null, "cityName": null, "districtName": null, "shopinfo": {"mid": "888888854110024", "good_flag": null, "new_flag": "2", "short_name": "\u5bb6\u5f97\u5229", "short_name_pinyin": "jiadeli", "status": null, "address": null, "name": null, "id": "32029"}, "mid": "888888854110024", "shopId": "32029", "netid": null, "province": 901, "district": 601, "zipcode": null, "telephone": "57567040", "posDate": "20061221", "destineTel": "57567040", "togoTel": "57567040", "trafficWay": "\u6caa\u5949\u4e13\u7ebf \u7533\u5357\u4e13\u7ebf \u5357\u6885\u7ebf", "signBuilding": null, "businessArea": "500-1500\u5e73\u65b9\u7c73\u5de6\u53f3", "selfRoom": "\u65e0", "businessTime": "8:30~21:30", "stall": "\u65e0", "consume": null, "serviceFei": null, "favourable": null, "shopMemo": null, "appraise": null, "website": null, "memo": null, "payTypes": "\u6749\u5fb7\u5361", "shopTypes": "\u4fbf\u5229\u5e97", "consumeTypes": null, "cookTypes": null, "orderNum": 1000, "card4no": null, "card4noAcc": null, "district2": 413, "searchScope": null, "status": 1, "address": "\u5357\u5949\u516c\u8def2677\u53f7", "name": "\u5bb6\u5f97\u5229 \u5357\u5949\u5e97", "id": 136389, "pageNo": 0, "pageCount": null, "pageSize": 10, "ids": null, "endTime": null, "startTime": null}], "pageLimit": 3440, "size": 10}