{"pageCount": 1095, "count": 10942, "pageNo": 347, "subShopInfo": {"cardNumFive": "", "isSupportYj": "", "cityName": null, "districtName": null, "shopinfo": {"mid": null, "good_flag": null, "new_flag": null, "short_name": null, "short_name_pinyin": null, "status": null, "address": "", "name": "", "id": null}, "mid": null, "shopId": null, "netid": null, "province": 901, "district": null, "zipcode": null, "telephone": null, "posDate": null, "destineTel": null, "togoTel": null, "trafficWay": null, "signBuilding": null, "businessArea": null, "selfRoom": null, "businessTime": null, "stall": null, "consume": null, "serviceFei": null, "favourable": null, "shopMemo": "1", "appraise": null, "website": null, "memo": null, "payTypes": "", "shopTypes": "", "consumeTypes": null, "cookTypes": null, "orderNum": null, "card4no": null, "card4noAcc": null, "district2": null, "searchScope": null, "status": null, "address": "", "name": null, "id": null, "pageNo": 346, "pageCount": null, "pageSize": 10, "ids": null, "endTime": null, "startTime": null}, "list": [{"cardNumFive": null, "isSupportYj": null, "cityName": null, "districtName": null, "shopinfo": {"mid": "888888854110024", "good_flag": null, "new_flag": "2", "short_name": "\u5bb6\u5f97\u5229", "short_name_pinyin": "jiadeli", "status": null, "address": null, "name": null, "id": "32029"}, "mid": "888888854110024", "shopId": "32029", "netid": null, "province": 901, "district": 601, "zipcode": null, "telephone": null, "posDate": "20080818", "destineTel": null, "togoTel": null, "trafficWay": "\u516c\u4ea4920 926 \u5730\u94c1\u4e00\u53f7\u7ebf", "signBuilding": null, "businessArea": null, "selfRoom": null, "businessTime": null, "stall": null, "consume": null, "serviceFei": null, "favourable": null, "shopMemo": null, "appraise": null, "website": null, "memo": null, "payTypes": ",,\u6749\u5fb7\u5361", "shopTypes": "\u4fbf\u5229\u5e97", "consumeTypes": null, "cookTypes": null, "orderNum": 1000, "card4no": null, "card4noAcc": null, "district2": 401, "searchScope": null, "status": 1, "address": "\u592a\u4ed3\u8def70\u53f7", "name": "\u5bb6\u5f97\u5229 \u592a\u4ed3\u5e97", "id": 136412, "pageNo": 0, "pageCount": null, "pageSize": 10, "ids": null, "endTime": null, "startTime": null}, {"cardNumFive": null, "isSupportYj": null, "cityName": null, "districtName": null, "shopinfo": {"mid": "888888854110024", "good_flag": null, "new_flag": "2", "short_name": "\u5bb6\u5f97\u5229", "short_name_pinyin": "jiadeli", "status": null, "address": null, "name": null, "id": "32029"}, "mid": "888888854110024", "shopId": "32029", "netid": null, "province": 901, "district": 601, "zipcode": null, "telephone": "64081842", "posDate": "20061228", "destineTel": "64081842", "togoTel": "64081842", "trafficWay": "\u516c\u4ea4809 \u65c5\u6e381B\u7ebf", "signBuilding": null, "businessArea": "500-1500\u5e73\u65b9\u7c73\u5de6\u53f3", "selfRoom": "\u65e0", "businessTime": "8:30~21:30", "stall": "\u65e0", "consume": null, "serviceFei": null, "favourable": null, "shopMemo": null, "appraise": null, "website": null, "memo": null, "payTypes": ",,\u6749\u5fb7\u5361", "shopTypes": "\u4fbf\u5229\u5e97", "consumeTypes": null, "cookTypes": null, "orderNum": 1000, "card4no": null, "card4noAcc": null, "district2": 403, "searchScope": null, "status": 1, "address": "\u7530\u6797\u4e1c\u8def588\u53f7", "name": "\u5bb6\u5f97\u5229 \u7530\u6797\u5e97", "id": 136415, "pageNo": 0, "pageCount": null, "pageSize": 10, "ids": null, "endTime": null, "startTime": null}, {"cardNumFive": null, "isSupportYj": null, "cityName": null, "districtName": null, "shopinfo": {"mid": "888888854110024", "good_flag": null, "new_flag": "2", "short_name": "\u5bb6\u5f97\u5229", "short_name_pinyin": "jiadeli", "status": null, "address": null, "name": null, "id": "32029"}, "mid": "888888854110024", "shopId": "32029", "netid": null, "province": 901, "district": 601, "zipcode": null, "telephone": null, "posDate": "20071213", "destineTel": null, "togoTel": null, "trafficWay": "\u5858\u6d2a\u7ebf \u5858\u56db\u7ebf", "signBuilding": null, "businessArea": null, "selfRoom": null, "businessTime": null, "stall": null, "consume": null, "serviceFei": null, "favourable": null, "shopMemo": null, "appraise": null, "website": null, "memo": null, "payTypes": ",,\u6749\u5fb7\u5361", "shopTypes": "\u4fbf\u5229\u5e97", "consumeTypes": null, "cookTypes": null, "orderNum": 1000, "card4no": null, "card4noAcc": null, "district2": 413, "searchScope": null, "status": 1, "address": "\u5934\u6865\u4e2d\u8def12\u53f7", "name": "\u5bb6\u5f97\u5229 \u5934\u6865\u5e97", "id": 136418, "pageNo": 0, "pageCount": null, "pageSize": 10, "ids": null, "endTime": null, "startTime": null}, {"cardNumFive": null, "isSupportYj": null, "cityName": null, "districtName": null, "shopinfo": {"mid": "888888854110024", "good_flag": null, "new_flag": "2", "short_name": "\u5bb6\u5f97\u5229", "short_name_pinyin": "jiadeli", "status": null, "address": null, "name": null, "id": "32029"}, "mid": "888888854110024", "shopId": "32029", "netid": null, "province": 901, "district": 601, "zipcode": "200042", "telephone": null, "posDate": "20070208", "destineTel": null, "togoTel": null, "trafficWay": "\u516c\u4ea4824 93", "signBuilding": null, "businessArea": "500-1500\u5e73\u65b9\u7c73\u5de6\u53f3", "selfRoom": "\u65e0", "businessTime": "8:30~21:30", "stall": "\u65e0", "consume": null, "serviceFei": null, "favourable": null, "shopMemo": null, "appraise": null, "website": null, "memo": null, "payTypes": ",,\u6749\u5fb7\u5361", "shopTypes": "\u4fbf\u5229\u5e97", "consumeTypes": null, "cookTypes": null, "orderNum": 1000, "card4no": null, "card4noAcc": null, "district2": 404, "searchScope": null, "status": 1, "address": "\u4e07\u822a\u6e21\u8def666\u53f7", "name": "\u5bb6\u5f97\u5229 \u4e07\u822a\u6e21\u8def\u5e97", "id": 136420, "pageNo": 0, "pageCount": null, "pageSize": 10, "ids": null, "endTime": null, "startTime": null}, {"cardNumFive": null, "isSupportYj": null, "cityName": null, "districtName": null, "shopinfo": {"mid": "888888854110024", "good_flag": null, "new_flag": "2", "short_name": "\u5bb6\u5f97\u5229", "short_name_pinyin": "jiadeli", "status": null, "address": null, "name": null, "id": "32029"}, "mid": "888888854110024", "shopId": "32029", "netid": null, "province": 901, "district": 601, "zipcode": "200435", "telephone": null, "posDate": "20070208", "destineTel": null, "togoTel": null, "trafficWay": "\u5730\u94c1\u4e00\u53f7\u7ebf", "signBuilding": null, "businessArea": null, "selfRoom": "\u65e0", "businessTime": null, "stall": "\u65e0", "consume": null, "serviceFei": null, "favourable": null, "shopMemo": null, "appraise": null, "website": null, "memo": null, "payTypes": ",,\u6749\u5fb7\u5361", "shopTypes": "\u4fbf\u5229\u5e97", "consumeTypes": null, "cookTypes": null, "orderNum": 1000, "card4no": null, "card4noAcc": null, "district2": 410, "searchScope": null, "status": 1, "address": "\u95fb\u559c\u8def1090\u53f7", "name": "\u5bb6\u5f97\u5229 \u95fb\u559c\u5e97", "id": 136421, "pageNo": 0, "pageCount": null, "pageSize": 10, "ids": null, "endTime": null, "startTime": null}, {"cardNumFive": null, "isSupportYj": null, "cityName": null, "districtName": null, "shopinfo": {"mid": "888888854110024", "good_flag": null, "new_flag": "2", "short_name": "\u5bb6\u5f97\u5229", "short_name_pinyin": "jiadeli", "status": null, "address": null, "name": null, "id": "32029"}, "mid": "888888854110024", "shopId": "32029", "netid": null, "province": 901, "district": 601, "zipcode": null, "telephone": "64509440", "posDate": "20061227", "destineTel": "64509440", "togoTel": "64509440", "trafficWay": "\u516c\u4ea4729B", "signBuilding": null, "businessArea": "500-1500\u5e73\u65b9\u7c73\u5de6\u53f3", "selfRoom": "\u65e0", "businessTime": "8:30~21:30", "stall": "\u65e0", "consume": null, "serviceFei": null, "favourable": null, "shopMemo": null, "appraise": null, "website": null, "memo": null, "payTypes": ",,\u6749\u5fb7\u5361", "shopTypes": "\u4fbf\u5229\u5e97", "consumeTypes": null, "cookTypes": null, "orderNum": 1000, "card4no": null, "card4noAcc": null, "district2": 409, "searchScope": null, "status": 1, "address": "\u5251\u5ddd\u8def147\u53f7", "name": "\u5bb6\u5f97\u5229 \u5434\u6cfe\u5e97", "id": 136422, "pageNo": 0, "pageCount": null, "pageSize": 10, "ids": null, "endTime": null, "startTime": null}, {"cardNumFive": null, "isSupportYj": null, "cityName": null, "districtName": null, "shopinfo": {"mid": "888888854110024", "good_flag": null, "new_flag": "2", "short_name": "\u5bb6\u5f97\u5229", "short_name_pinyin": "jiadeli", "status": null, "address": null, "name": null, "id": "32029"}, "mid": "888888854110024", "shopId": "32029", "netid": null, "province": 901, "district": 601, "zipcode": null, "telephone": "63154780", "posDate": "20061222", "destineTel": "63154780", "togoTel": "63154780", "trafficWay": "\u516c\u4ea4114,814", "signBuilding": null, "businessArea": "500-1500\u5e73\u65b9\u7c73\u5de6\u53f3", "selfRoom": "\u65e0", "businessTime": "8:30~21:30", "stall": "\u65e0", "consume": null, "serviceFei": null, "favourable": null, "shopMemo": null, "appraise": null, "website": null, "memo": null, "payTypes": ",,\u6749\u5fb7\u5361", "shopTypes": "\u4fbf\u5229\u5e97", "consumeTypes": null, "cookTypes": null, "orderNum": 1000, "card4no": null, "card4noAcc": null, "district2": 401, "searchScope": null, "status": 1, "address": "\u897f\u85cf\u5357\u8def1737\u53f7", "name": "\u5bb6\u5f97\u5229 \u897f\u85cf\u5e97", "id": 136424, "pageNo": 0, "pageCount": null, "pageSize": 10, "ids": null, "endTime": null, "startTime": null}, {"cardNumFive": null, "isSupportYj": null, "cityName": null, "districtName": null, "shopinfo": {"mid": "888888854110024", "good_flag": null, "new_flag": "2", "short_name": "\u5bb6\u5f97\u5229", "short_name_pinyin": "jiadeli", "status": null, "address": null, "name": null, "id": "32029"}, "mid": "888888854110024", "shopId": "32029", "netid": null, "province": 901, "district": 601, "zipcode": null, "telephone": "58175777", "posDate": "20061223", "destineTel": "58175777", "togoTel": "58175777", "trafficWay": "\u65c5\u6e382\u53f7\u7ebf", "signBuilding": null, "businessArea": "500-1500\u5e73\u65b9\u7c73\u5de6\u53f3", "selfRoom": "\u65e0", "businessTime": "8:30~21:30", "stall": "\u65e0", "consume": null, "serviceFei": null, "favourable": null, "shopMemo": null, "appraise": null, "website": null, "memo": null, "payTypes": ",,\u6749\u5fb7\u5361", "shopTypes": "\u4fbf\u5229\u5e97", "consumeTypes": null, "cookTypes": null, "orderNum": 1000, "card4no": null, "card4noAcc": null, "district2": 418, "searchScope": null, "status": 1, "address": "\u65b0\u573a\u9547\u671d\u9633\u8def13\u53f7", "name": "\u5bb6\u5f97\u5229 \u65b0\u573a\u5e97", "id": 136425, "pageNo": 0, "pageCount": null, "pageSize": 10, "ids": null, "endTime": null, "startTime": null}, {"cardNumFive": null, "isSupportYj": null, "cityName": null, "districtName": null, "shopinfo": {"mid": "888888854110024", "good_flag": null, "new_flag": "2", "short_name": "\u5bb6\u5f97\u5229", "short_name_pinyin": "jiadeli", "status": null, "address": null, "name": null, "id": "32029"}, "mid": "888888854110024", "shopId": "32029", "netid": null, "province": 901, "district": 601, "zipcode": null, "telephone": "58909336", "posDate": "20070104", "destineTel": "58909336", "togoTel": "58909336", "trafficWay": "\u77f3\u5ddd\u7ebf \u65b9\u5ddd\u7ebf", "signBuilding": null, "businessArea": "500-1500\u5e73\u65b9\u7c73\u5de6\u53f3", "selfRoom": "\u65e0", "businessTime": "8:30~21:30", "stall": "\u65e0", "consume": null, "serviceFei": null, "favourable": null, "shopMemo": null, "appraise": null, "website": null, "memo": null, "payTypes": ",,\u6749\u5fb7\u5361", "shopTypes": "\u4fbf\u5229\u5e97", "consumeTypes": null, "cookTypes": null, "orderNum": 1000, "card4no": null, "card4noAcc": null, "district2": 418, "searchScope": null, "status": 1, "address": "\u65b0\u5ddd\u8def607\u53f7", "name": "\u5bb6\u5f97\u5229 \u65b0\u5ddd\u5e97", "id": 136426, "pageNo": 0, "pageCount": null, "pageSize": 10, "ids": null, "endTime": null, "startTime": null}, {"cardNumFive": null, "isSupportYj": null, "cityName": null, "districtName": null, "shopinfo": {"mid": "888888854110024", "good_flag": null, "new_flag": "2", "short_name": "\u5bb6\u5f97\u5229", "short_name_pinyin": "jiadeli", "status": null, "address": null, "name": null, "id": "32029"}, "mid": "888888854110024", "shopId": "32029", "netid": null, "province": 901, "district": 601, "zipcode": null, "telephone": "62946509", "posDate": "20061221", "destineTel": "62946509", "togoTel": "62946509", "trafficWay": "\u516c\u4ea4946 43\u533a\u95f4", "signBuilding": "\u534e\u5c71\u516c\u56ed", "businessArea": "500-1500\u5e73\u65b9\u7c73\u5de6\u53f3", "selfRoom": "\u65e0", "businessTime": "8:30~21:30", "stall": "\u65e0", "consume": null, "serviceFei": null, "favourable": null, "shopMemo": null, "appraise": null, "website": null, "memo": null, "payTypes": ",,\u6749\u5fb7\u5361", "shopTypes": "\u4fbf\u5229\u5e97", "consumeTypes": null, "cookTypes": null, "orderNum": 1000, "card4no": null, "card4noAcc": null, "district2": 404, "searchScope": null, "status": 1, "address": "\u5b9a\u897f\u8def385\u53f7", "name": "\u5bb6\u5f97\u5229 \u65b0\u534e\u5e97", "id": 136427, "pageNo": 0, "pageCount": null, "pageSize": 10, "ids": null, "endTime": null, "startTime": null}], "pageLimit": 3460, "size": 10}