{"pageCount": 1095, "count": 10942, "pageNo": 344, "subShopInfo": {"cardNumFive": "", "isSupportYj": "", "cityName": null, "districtName": null, "shopinfo": {"mid": null, "good_flag": null, "new_flag": null, "short_name": null, "short_name_pinyin": null, "status": null, "address": "", "name": "", "id": null}, "mid": null, "shopId": null, "netid": null, "province": 901, "district": null, "zipcode": null, "telephone": null, "posDate": null, "destineTel": null, "togoTel": null, "trafficWay": null, "signBuilding": null, "businessArea": null, "selfRoom": null, "businessTime": null, "stall": null, "consume": null, "serviceFei": null, "favourable": null, "shopMemo": "1", "appraise": null, "website": null, "memo": null, "payTypes": "", "shopTypes": "", "consumeTypes": null, "cookTypes": null, "orderNum": null, "card4no": null, "card4noAcc": null, "district2": null, "searchScope": null, "status": null, "address": "", "name": null, "id": null, "pageNo": 343, "pageCount": null, "pageSize": 10, "ids": null, "endTime": null, "startTime": null}, "list": [{"cardNumFive": null, "isSupportYj": null, "cityName": null, "districtName": null, "shopinfo": {"mid": "888888854110024", "good_flag": null, "new_flag": "2", "short_name": "\u5bb6\u5f97\u5229", "short_name_pinyin": "jiadeli", "status": null, "address": null, "name": null, "id": "32029"}, "mid": "888888854110024", "shopId": "32029", "netid": null, "province": 901, "district": 601, "zipcode": null, "telephone": null, "posDate": "20071127", "destineTel": null, "togoTel": null, "trafficWay": "\u6caa\u6d77\u7ebf \u6caa\u661f\u7ebf", "signBuilding": null, "businessArea": null, "selfRoom": null, "businessTime": null, "stall": null, "consume": null, "serviceFei": null, "favourable": null, "shopMemo": null, "appraise": null, "website": null, "memo": null, "payTypes": "\u6749\u5fb7\u5361", "shopTypes": "\u4fbf\u5229\u5e97", "consumeTypes": null, "cookTypes": null, "orderNum": 1000, "card4no": null, "card4noAcc": null, "district2": 413, "searchScope": null, "status": 1, "address": "\u91d1\u6c47\u9547\u91d1\u94b1\u516c\u8def1800\u53f7", "name": "\u5bb6\u5f97\u5229 \u91d1\u6c47\u5e97", "id": 136358, "pageNo": 0, "pageCount": null, "pageSize": 10, "ids": null, "endTime": null, "startTime": null}, {"cardNumFive": null, "isSupportYj": null, "cityName": null, "districtName": null, "shopinfo": {"mid": "888888854110024", "good_flag": null, "new_flag": "2", "short_name": "\u5bb6\u5f97\u5229", "short_name_pinyin": "jiadeli", "status": null, "address": null, "name": null, "id": "32029"}, "mid": "888888854110024", "shopId": "32029", "netid": null, "province": 901, "district": 601, "zipcode": null, "telephone": "68513543", "posDate": "20061231", "destineTel": "68513543", "togoTel": "68513543", "trafficWay": "\u516c\u4ea4984 936", "signBuilding": null, "businessArea": "500-1500\u5e73\u65b9\u7c73\u5de6\u53f3", "selfRoom": "\u65e0", "businessTime": "8:30~21:30", "stall": "\u65e0", "consume": null, "serviceFei": null, "favourable": null, "shopMemo": null, "appraise": null, "website": null, "memo": null, "payTypes": "\u6749\u5fb7\u5361", "shopTypes": "\u4fbf\u5229\u5e97", "consumeTypes": null, "cookTypes": null, "orderNum": 1000, "card4no": null, "card4noAcc": null, "district2": 418, "searchScope": null, "status": 1, "address": "\u53f0\u513f\u5e84\u8def365\u53f7", "name": "\u5bb6\u5f97\u5229 \u91d1\u6865\u5e97", "id": 136359, "pageNo": 0, "pageCount": null, "pageSize": 10, "ids": null, "endTime": null, "startTime": null}, {"cardNumFive": null, "isSupportYj": null, "cityName": null, "districtName": null, "shopinfo": {"mid": "888888854110024", "good_flag": null, "new_flag": "2", "short_name": "\u5bb6\u5f97\u5229", "short_name_pinyin": "jiadeli", "status": null, "address": null, "name": null, "id": "32029"}, "mid": "888888854110024", "shopId": "32029", "netid": null, "province": 901, "district": 601, "zipcode": null, "telephone": "50451674", "posDate": "20070104", "destineTel": "50451674", "togoTel": "50451674", "trafficWay": "\u5927\u6865\u4e8c\u7ebf", "signBuilding": null, "businessArea": "500-1500\u5e73\u65b9\u7c73\u5de6\u53f3", "selfRoom": "\u65e0", "businessTime": "8:30~21:30", "stall": "\u65e0", "consume": null, "serviceFei": null, "favourable": null, "shopMemo": null, "appraise": null, "website": null, "memo": null, "payTypes": "\u6749\u5fb7\u5361", "shopTypes": "\u4fbf\u5229\u5e97", "consumeTypes": null, "cookTypes": null, "orderNum": 1000, "card4no": null, "card4noAcc": null, "district2": 418, "searchScope": null, "status": 1, "address": "\u82b1\u6728\u8def500\u5f0481\u53f7\uff5e82\u53f7", "name": "\u5bb6\u5f97\u5229 \u9526\u7ee3\u5e97", "id": 136362, "pageNo": 0, "pageCount": null, "pageSize": 10, "ids": null, "endTime": null, "startTime": null}, {"cardNumFive": null, "isSupportYj": null, "cityName": null, "districtName": null, "shopinfo": {"mid": "888888854110024", "good_flag": null, "new_flag": "2", "short_name": "\u5bb6\u5f97\u5229", "short_name_pinyin": "jiadeli", "status": null, "address": null, "name": null, "id": "32029"}, "mid": "888888854110024", "shopId": "32029", "netid": null, "province": 901, "district": 601, "zipcode": null, "telephone": "58605880", "posDate": "20061231", "destineTel": "58605880", "togoTel": "58605880", "trafficWay": "\u96a7\u9053\u516d\u7ebf \u7533\u9646\u4e13\u7ebf \u65b0\u5ddd\u4e13\u7ebf", "signBuilding": null, "businessArea": "500-1500\u5e73\u65b9\u7c73\u5de6\u53f3", "selfRoom": "\u65e0", "businessTime": "8:30~21:30", "stall": "\u65e0", "consume": null, "serviceFei": null, "favourable": null, "shopMemo": null, "appraise": null, "website": null, "memo": null, "payTypes": "\u6749\u5fb7\u5361", "shopTypes": "\u4fbf\u5229\u5e97", "consumeTypes": null, "cookTypes": null, "orderNum": 1000, "card4no": null, "card4noAcc": null, "district2": 418, "searchScope": null, "status": 1, "address": "\u6816\u5c71\u8def117\u53f7\uff08\u6816\u5c71\u8def\u5de8\u91ce\u8def\u8def\u53e3\uff09", "name": "\u5bb6\u5f97\u5229 \u5de8\u91ce\u5e97", "id": 136365, "pageNo": 0, "pageCount": null, "pageSize": 10, "ids": null, "endTime": null, "startTime": null}, {"cardNumFive": null, "isSupportYj": null, "cityName": null, "districtName": null, "shopinfo": {"mid": "888888854110024", "good_flag": null, "new_flag": "2", "short_name": "\u5bb6\u5f97\u5229", "short_name_pinyin": "jiadeli", "status": null, "address": null, "name": null, "id": "32029"}, "mid": "888888854110024", "shopId": "32029", "netid": null, "province": 901, "district": 601, "zipcode": null, "telephone": "64030429", "posDate": "20061221", "destineTel": "64030429", "togoTel": "64030429", "trafficWay": "\u516c\u4ea4814 984 938", "signBuilding": null, "businessArea": "500-1500\u5e73\u65b9\u7c73\u5de6\u53f3", "selfRoom": "\u65e0", "businessTime": "8:30~21:30", "stall": "\u65e0", "consume": null, "serviceFei": null, "favourable": null, "shopMemo": null, "appraise": null, "website": null, "memo": null, "payTypes": "\u6749\u5fb7\u5361", "shopTypes": "\u4fbf\u5229\u5e97", "consumeTypes": null, "cookTypes": null, "orderNum": 1000, "card4no": null, "card4noAcc": null, "district2": 401, "searchScope": null, "status": 1, "address": "\u745e\u91d1\u5357\u8def570\u53f7", "name": "\u5bb6\u5f97\u5229 \u77bf\u6eaa\u5e97", "id": 136366, "pageNo": 0, "pageCount": null, "pageSize": 10, "ids": null, "endTime": null, "startTime": null}, {"cardNumFive": null, "isSupportYj": null, "cityName": null, "districtName": null, "shopinfo": {"mid": "888888854110024", "good_flag": null, "new_flag": "2", "short_name": "\u5bb6\u5f97\u5229", "short_name_pinyin": "jiadeli", "status": null, "address": null, "name": null, "id": "32029"}, "mid": "888888854110024", "shopId": "32029", "netid": null, "province": 901, "district": 601, "zipcode": null, "telephone": null, "posDate": "20071218", "destineTel": null, "togoTel": null, "trafficWay": "\u516c\u4ea4830 205 93", "signBuilding": null, "businessArea": null, "selfRoom": null, "businessTime": null, "stall": null, "consume": null, "serviceFei": null, "favourable": null, "shopMemo": null, "appraise": null, "website": null, "memo": null, "payTypes": "\u6749\u5fb7\u5361", "shopTypes": "\u4fbf\u5229\u5e97", "consumeTypes": null, "cookTypes": null, "orderNum": 1000, "card4no": null, "card4noAcc": null, "district2": 403, "searchScope": null, "status": 1, "address": "\u51ef\u65cb\u8def3021\u53f7", "name": "\u5bb6\u5f97\u5229 \u51ef\u65cb\u5e97", "id": 136367, "pageNo": 0, "pageCount": null, "pageSize": 10, "ids": null, "endTime": null, "startTime": null}, {"cardNumFive": null, "isSupportYj": null, "cityName": null, "districtName": null, "shopinfo": {"mid": "888888854110024", "good_flag": null, "new_flag": "2", "short_name": "\u5bb6\u5f97\u5229", "short_name_pinyin": "jiadeli", "status": null, "address": null, "name": null, "id": "32029"}, "mid": "888888854110024", "shopId": "32029", "netid": null, "province": 901, "district": 601, "zipcode": null, "telephone": "62567287", "posDate": "20061221", "destineTel": "62567287", "togoTel": "62567287", "trafficWay": "\u516c\u4ea4113,136", "signBuilding": null, "businessArea": "500-1500\u5e73\u65b9\u7c73\u5de6\u53f3", "selfRoom": "\u65e0", "businessTime": "8:30~21:30", "stall": "\u65e0", "consume": null, "serviceFei": null, "favourable": null, "shopMemo": null, "appraise": null, "website": null, "memo": null, "payTypes": "\u6749\u5fb7\u5361", "shopTypes": "\u4fbf\u5229\u5e97", "consumeTypes": null, "cookTypes": null, "orderNum": 1000, "card4no": null, "card4noAcc": null, "district2": 404, "searchScope": null, "status": 1, "address": "\u5eb7\u5b9a\u8def359\u53f7", "name": "\u5bb6\u5f97\u5229 \u5eb7\u5b9a\u5e97", "id": 136368, "pageNo": 0, "pageCount": null, "pageSize": 10, "ids": null, "endTime": null, "startTime": null}, {"cardNumFive": null, "isSupportYj": null, "cityName": null, "districtName": null, "shopinfo": {"mid": "888888854110024", "good_flag": null, "new_flag": "2", "short_name": "\u5bb6\u5f97\u5229", "short_name_pinyin": "jiadeli", "status": null, "address": null, "name": null, "id": "32029"}, "mid": "888888854110024", "shopId": "32029", "netid": null, "province": 901, "district": 601, "zipcode": null, "telephone": "63039386", "posDate": "20080818", "destineTel": null, "togoTel": null, "trafficWay": "\u516c\u4ea4931 43 806", "signBuilding": null, "businessArea": null, "selfRoom": null, "businessTime": null, "stall": null, "consume": null, "serviceFei": null, "favourable": null, "shopMemo": null, "appraise": null, "website": null, "memo": null, "payTypes": "\u6749\u5fb7\u5361", "shopTypes": "\u4fbf\u5229\u5e97", "consumeTypes": null, "cookTypes": null, "orderNum": 1000, "card4no": null, "card4noAcc": null, "district2": 401, "searchScope": null, "status": 1, "address": "\u4e3d\u56ed\u8def1020\u53f7", "name": "\u5bb6\u5f97\u5229 \u4e3d\u56ed\u5e97", "id": 136370, "pageNo": 0, "pageCount": null, "pageSize": 10, "ids": null, "endTime": null, "startTime": null}, {"cardNumFive": null, "isSupportYj": null, "cityName": null, "districtName": null, "shopinfo": {"mid": "888888854110024", "good_flag": null, "new_flag": "2", "short_name": "\u5bb6\u5f97\u5229", "short_name_pinyin": "jiadeli", "status": null, "address": null, "name": null, "id": "32029"}, "mid": "888888854110024", "shopId": "32029", "netid": null, "province": 901, "district": 601, "zipcode": null, "telephone": "68924116", "posDate": "20070104", "destineTel": "68924116", "togoTel": "68924116", "trafficWay": "\u516c\u4ea4730 782\u533a\u95f4 \u5f90\u5ddd\u4e13\u7ebf", "signBuilding": null, "businessArea": "500-1500\u5e73\u65b9\u7c73\u5de6\u53f3", "selfRoom": "\u65e0", "businessTime": "8:30~21:30", "stall": "\u65e0", "consume": null, "serviceFei": null, "favourable": null, "shopMemo": null, "appraise": null, "website": null, "memo": null, "payTypes": "\u6749\u5fb7\u5361", "shopTypes": "\u4fbf\u5229\u5e97", "consumeTypes": null, "cookTypes": null, "orderNum": 1000, "card4no": null, "card4noAcc": null, "district2": 418, "searchScope": null, "status": 1, "address": "\u83b2\u56ed\u8def31\u53f7", "name": "\u5bb6\u5f97\u5229 \u83b2\u56ed\u5e97", "id": 136372, "pageNo": 0, "pageCount": null, "pageSize": 10, "ids": null, "endTime": null, "startTime": null}, {"cardNumFive": null, "isSupportYj": null, "cityName": null, "districtName": null, "shopinfo": {"mid": "888888854110024", "good_flag": null, "new_flag": "2", "short_name": "\u5bb6\u5f97\u5229", "short_name_pinyin": "jiadeli", "status": null, "address": null, "name": null, "id": "32029"}, "mid": "888888854110024", "shopId": "32029", "netid": null, "province": 901, "district": 601, "zipcode": null, "telephone": "65286091", "posDate": "20061226", "destineTel": "65286091", "togoTel": "65286091", "trafficWay": "\u516c\u4ea4518 140", "signBuilding": null, "businessArea": "500-1500\u5e73\u65b9\u7c73\u5de6\u53f3", "selfRoom": "\u65e0", "businessTime": "8:30~21:30", "stall": "\u65e0", "consume": null, "serviceFei": null, "favourable": null, "shopMemo": null, "appraise": null, "website": null, "memo": null, "payTypes": "\u6749\u5fb7\u5361", "shopTypes": "\u4fbf\u5229\u5e97", "consumeTypes": null, "cookTypes": null, "orderNum": 1000, "card4no": null, "card4noAcc": null, "district2": 408, "searchScope": null, "status": 1, "address": "\u5e7f\u7075\u56db\u8def467\u53f7\u548c\u51c9\u57ce\u8def411-425\u53f7\uff08\u5341\u5b57\u8def\u53e3\uff09", "name": "\u5bb6\u5f97\u5229 \u51c9\u57ce\u5e97", "id": 136374, "pageNo": 0, "pageCount": null, "pageSize": 10, "ids": null, "endTime": null, "startTime": null}], "pageLimit": 3430, "size": 10}