{"pageCount": 1095, "count": 10942, "pageNo": 349, "subShopInfo": {"cardNumFive": "", "isSupportYj": "", "cityName": null, "districtName": null, "shopinfo": {"mid": null, "good_flag": null, "new_flag": null, "short_name": null, "short_name_pinyin": null, "status": null, "address": "", "name": "", "id": null}, "mid": null, "shopId": null, "netid": null, "province": 901, "district": null, "zipcode": null, "telephone": null, "posDate": null, "destineTel": null, "togoTel": null, "trafficWay": null, "signBuilding": null, "businessArea": null, "selfRoom": null, "businessTime": null, "stall": null, "consume": null, "serviceFei": null, "favourable": null, "shopMemo": "1", "appraise": null, "website": null, "memo": null, "payTypes": "", "shopTypes": "", "consumeTypes": null, "cookTypes": null, "orderNum": null, "card4no": null, "card4noAcc": null, "district2": null, "searchScope": null, "status": null, "address": "", "name": null, "id": null, "pageNo": 348, "pageCount": null, "pageSize": 10, "ids": null, "endTime": null, "startTime": null}, "list": [{"cardNumFive": null, "isSupportYj": null, "cityName": null, "districtName": null, "shopinfo": {"mid": "888888854110024", "good_flag": null, "new_flag": "2", "short_name": "\u5bb6\u5f97\u5229", "short_name_pinyin": "jiadeli", "status": null, "address": null, "name": null, "id": "32029"}, "mid": "888888854110024", "shopId": "32029", "netid": null, "province": 901, "district": 601, "zipcode": null, "telephone": "62807253", "posDate": null, "destineTel": null, "togoTel": null, "trafficWay": null, "signBuilding": null, "businessArea": null, "selfRoom": null, "businessTime": null, "stall": null, "consume": null, "serviceFei": null, "favourable": null, "shopMemo": null, "appraise": null, "website": null, "memo": null, "payTypes": "\u6749\u5fb7\u5361 \u5361\u62bc\u91d1\u6d88\u8d39", "shopTypes": "\u8d85\u5e02", "consumeTypes": null, "cookTypes": null, "orderNum": 1000, "card4no": null, "card4noAcc": null, "district2": 406, "searchScope": null, "status": 1, "address": "\u6768\u5b85\u8def20\u53f7", "name": "\u5bb6\u5f97\u5229 \u6768\u5b85\u5e97", "id": 184166, "pageNo": 0, "pageCount": null, "pageSize": 10, "ids": null, "endTime": null, "startTime": null}, {"cardNumFive": null, "isSupportYj": null, "cityName": null, "districtName": null, "shopinfo": {"mid": "888888854110024", "good_flag": null, "new_flag": "2", "short_name": "\u5bb6\u5f97\u5229", "short_name_pinyin": "jiadeli", "status": null, "address": null, "name": null, "id": "32029"}, "mid": "888888854110024", "shopId": "32029", "netid": null, "province": 901, "district": 601, "zipcode": null, "telephone": null, "posDate": null, "destineTel": null, "togoTel": null, "trafficWay": null, "signBuilding": null, "businessArea": null, "selfRoom": null, "businessTime": null, "stall": null, "consume": null, "serviceFei": null, "favourable": null, "shopMemo": null, "appraise": null, "website": null, "memo": null, "payTypes": "\u6749\u5fb7\u5361,", "shopTypes": "\u8d85\u5e02", "consumeTypes": null, "cookTypes": null, "orderNum": null, "card4no": null, "card4noAcc": null, "district2": 416, "searchScope": null, "status": 1, "address": "\u957f\u4e34\u8def800\u53f77\u5e62\u5e95\u5c42-01\u53f7", "name": "\u957f\u4e34\u8def\u5e97", "id": 418057315317448704, "pageNo": 0, "pageCount": null, "pageSize": 10, "ids": null, "endTime": null, "startTime": null}, {"cardNumFive": null, "isSupportYj": null, "cityName": null, "districtName": null, "shopinfo": {"mid": "888002154111001", "good_flag": "2", "new_flag": "2", "short_name": "\u5bb6\u5f97\u5229", "short_name_pinyin": "jiadeli", "status": null, "address": null, "name": null, "id": "418057333378121728"}, "mid": "888002154111001", "shopId": "418057333378121728", "netid": null, "province": 901, "district": 601, "zipcode": null, "telephone": null, "posDate": null, "destineTel": null, "togoTel": null, "trafficWay": null, "signBuilding": null, "businessArea": null, "selfRoom": null, "businessTime": null, "stall": null, "consume": null, "serviceFei": null, "favourable": null, "shopMemo": null, "appraise": null, "website": null, "memo": null, "payTypes": "\u6749\u5fb7\u5361,", "shopTypes": "\u8d85\u5e02", "consumeTypes": null, "cookTypes": null, "orderNum": null, "card4no": null, "card4noAcc": null, "district2": 410, "searchScope": null, "status": 1, "address": "\u82b7\u6c5f\u897f\u8def66\u53f7-67\u5546\u94fa", "name": "\u82b7\u6c5f\u897f\u8def\u5e97", "id": 418057332153384960, "pageNo": 0, "pageCount": null, "pageSize": 10, "ids": null, "endTime": null, "startTime": null}, {"cardNumFive": null, "isSupportYj": null, "cityName": null, "districtName": null, "shopinfo": {"mid": "888002154111001", "good_flag": "2", "new_flag": "2", "short_name": "\u5bb6\u5f97\u5229", "short_name_pinyin": "jiadeli", "status": null, "address": null, "name": null, "id": "418057333378121728"}, "mid": "888002154111001", "shopId": "418057333378121728", "netid": null, "province": 901, "district": 601, "zipcode": null, "telephone": null, "posDate": null, "destineTel": null, "togoTel": null, "trafficWay": null, "signBuilding": null, "businessArea": null, "selfRoom": null, "businessTime": null, "stall": null, "consume": null, "serviceFei": null, "favourable": null, "shopMemo": null, "appraise": null, "website": null, "memo": null, "payTypes": "\u6749\u5fb7\u5361,", "shopTypes": "\u8d85\u5e02", "consumeTypes": null, "cookTypes": null, "orderNum": null, "card4no": null, "card4noAcc": null, "district2": 414, "searchScope": null, "status": 1, "address": "\u6f15\u6cfe\u9547\u4e2d\u4e00\u4e1c\u8def293-301\u53f7", "name": "\u4e2d\u4e00\u4e1c\u8def\u5e97", "id": 418057398364667904, "pageNo": 0, "pageCount": null, "pageSize": 10, "ids": null, "endTime": null, "startTime": null}, {"cardNumFive": null, "isSupportYj": null, "cityName": null, "districtName": null, "shopinfo": {"mid": "888002154111001", "good_flag": "2", "new_flag": "2", "short_name": "\u5bb6\u5f97\u5229", "short_name_pinyin": "jiadeli", "status": null, "address": null, "name": null, "id": "418057333378121728"}, "mid": "888002154111001", "shopId": "418057333378121728", "netid": null, "province": 901, "district": 601, "zipcode": null, "telephone": null, "posDate": null, "destineTel": null, "togoTel": null, "trafficWay": null, "signBuilding": null, "businessArea": null, "selfRoom": null, "businessTime": null, "stall": null, "consume": null, "serviceFei": null, "favourable": null, "shopMemo": null, "appraise": null, "website": null, "memo": null, "payTypes": "\u6749\u5fb7\u5361,", "shopTypes": "\u8d85\u5e02", "consumeTypes": null, "cookTypes": null, "orderNum": null, "card4no": null, "card4noAcc": null, "district2": 401, "searchScope": null, "status": 1, "address": "\u6d59\u6c5f\u4e2d\u8def535\u53f71\u5c42-1", "name": "\u6d59\u6c5f\u4e2d\u8def", "id": 454317294722482176, "pageNo": 0, "pageCount": null, "pageSize": 10, "ids": null, "endTime": null, "startTime": null}, {"cardNumFive": null, "isSupportYj": null, "cityName": null, "districtName": null, "shopinfo": {"mid": "888888859120150", "good_flag": "2", "new_flag": "2", "short_name": "\u5609\u5b9a\u5927\u836f\u623f", "short_name_pinyin": "jiadingdayaofang", "status": null, "address": null, "name": null, "id": "32034"}, "mid": "888888859120150", "shopId": "32034", "netid": null, "province": 901, "district": 601, "zipcode": null, "telephone": "59509645", "posDate": "20081203", "destineTel": null, "togoTel": null, "trafficWay": "\u516c\u4ea4\u6dde\u5b89\u7ebf", "signBuilding": null, "businessArea": null, "selfRoom": null, "businessTime": null, "stall": null, "consume": null, "serviceFei": null, "favourable": null, "shopMemo": null, "appraise": null, "website": null, "memo": null, "payTypes": "\u6749\u5fb7\u5361", "shopTypes": "\u836f\u5e97", "consumeTypes": null, "cookTypes": null, "orderNum": 1000, "card4no": null, "card4noAcc": null, "district2": 411, "searchScope": null, "status": 1, "address": "\u5b89\u4ead\u9547\u65b9\u6cf0\u65b9\u9526\u8def51\u53f7", "name": "\u5609\u5b9a\u5927\u836f\u623f \u65b9\u6cf0\u5e97", "id": 136495, "pageNo": 0, "pageCount": null, "pageSize": 10, "ids": null, "endTime": null, "startTime": null}, {"cardNumFive": null, "isSupportYj": null, "cityName": null, "districtName": null, "shopinfo": {"mid": "888888859120150", "good_flag": "2", "new_flag": "2", "short_name": "\u5609\u5b9a\u5927\u836f\u623f", "short_name_pinyin": "jiadingdayaofang", "status": null, "address": null, "name": null, "id": "32034"}, "mid": "888888859120150", "shopId": "32034", "netid": null, "province": 901, "district": 601, "zipcode": null, "telephone": "59133049", "posDate": "20081203", "destineTel": null, "togoTel": null, "trafficWay": "\u516c\u4ea4\u5317\u5b89\u533a\u95f4\u7ebf \u5317\u5b89\u7ebf", "signBuilding": null, "businessArea": null, "selfRoom": null, "businessTime": null, "stall": null, "consume": null, "serviceFei": null, "favourable": null, "shopMemo": null, "appraise": null, "website": null, "memo": null, "payTypes": "\u6749\u5fb7\u5361", "shopTypes": "\u836f\u5e97", "consumeTypes": null, "cookTypes": null, "orderNum": 1000, "card4no": null, "card4noAcc": null, "district2": 411, "searchScope": null, "status": 1, "address": "\u5c01\u6d5c\u9547\u7fd4\u5c01\u8def110\u53f7", "name": "\u5609\u5b9a\u5927\u836f\u623f \u5c01\u6d5c\u5e97", "id": 136496, "pageNo": 0, "pageCount": null, "pageSize": 10, "ids": null, "endTime": null, "startTime": null}, {"cardNumFive": null, "isSupportYj": null, "cityName": null, "districtName": null, "shopinfo": {"mid": "888888859120150", "good_flag": "2", "new_flag": "2", "short_name": "\u5609\u5b9a\u5927\u836f\u623f", "short_name_pinyin": "jiadingdayaofang", "status": null, "address": null, "name": null, "id": "32034"}, "mid": "888888859120150", "shopId": "32034", "netid": null, "province": 901, "district": 601, "zipcode": null, "telephone": "59113603", "posDate": "20081203", "destineTel": null, "togoTel": null, "trafficWay": "\u516c\u4ea4\u6caa\u5510\u4e13\u7ebf \u65c5\u6e386A\u7ebf", "signBuilding": null, "businessArea": null, "selfRoom": null, "businessTime": null, "stall": null, "consume": null, "serviceFei": null, "favourable": null, "shopMemo": null, "appraise": null, "website": null, "memo": null, "payTypes": "\u6749\u5fb7\u5361", "shopTypes": "\u836f\u5e97", "consumeTypes": null, "cookTypes": null, "orderNum": 1000, "card4no": null, "card4noAcc": null, "district2": 411, "searchScope": null, "status": 1, "address": "\u6c5f\u6865\u9547\u534e\u6c5f\u8def21\u53f7", "name": "\u5609\u5b9a\u5927\u836f\u623f \u534e\u6c5f\u5e97", "id": 136497, "pageNo": 0, "pageCount": null, "pageSize": 10, "ids": null, "endTime": null, "startTime": null}, {"cardNumFive": null, "isSupportYj": null, "cityName": null, "districtName": null, "shopinfo": {"mid": "888888859120150", "good_flag": "2", "new_flag": "2", "short_name": "\u5609\u5b9a\u5927\u836f\u623f", "short_name_pinyin": "jiadingdayaofang", "status": null, "address": null, "name": null, "id": "32034"}, "mid": "888888859120150", "shopId": "32034", "netid": null, "province": 901, "district": 601, "zipcode": null, "telephone": "59595582", "posDate": "20081203", "destineTel": null, "togoTel": null, "trafficWay": "\u516c\u4ea4\u5b89\u8679\u7ebf \u5317\u5b89\u7ebf", "signBuilding": null, "businessArea": null, "selfRoom": null, "businessTime": null, "stall": null, "consume": null, "serviceFei": null, "favourable": null, "shopMemo": null, "appraise": null, "website": null, "memo": null, "payTypes": "\u6749\u5fb7\u5361", "shopTypes": "\u836f\u5e97", "consumeTypes": null, "cookTypes": null, "orderNum": 1000, "card4no": null, "card4noAcc": null, "district2": 411, "searchScope": null, "status": 1, "address": "\u9ec4\u6e21\u9547\u65b0\u9ec4\u8def60\u53f7", "name": "\u5609\u5b9a\u5927\u836f\u623f \u9ec4\u6e21\u5e97", "id": 136498, "pageNo": 0, "pageCount": null, "pageSize": 10, "ids": null, "endTime": null, "startTime": null}, {"cardNumFive": null, "isSupportYj": null, "cityName": null, "districtName": null, "shopinfo": {"mid": "888888859120150", "good_flag": "2", "new_flag": "2", "short_name": "\u5609\u5b9a\u5927\u836f\u623f", "short_name_pinyin": "jiadingdayaofang", "status": null, "address": null, "name": null, "id": "32034"}, "mid": "888888859120150", "shopId": "32034", "netid": null, "province": 901, "district": 601, "zipcode": null, "telephone": "69987668", "posDate": "20081203", "destineTel": null, "togoTel": null, "trafficWay": "\u516c\u4ea4\u65c5\u6e386A\u7ebf \u6caa\u5510\u4e13\u7ebf", "signBuilding": null, "businessArea": null, "selfRoom": null, "businessTime": null, "stall": null, "consume": null, "serviceFei": null, "favourable": null, "shopMemo": null, "appraise": null, "website": null, "memo": null, "payTypes": "\u6749\u5fb7\u5361", "shopTypes": "\u836f\u5e97", "consumeTypes": null, "cookTypes": null, "orderNum": 1000, "card4no": null, "card4noAcc": null, "district2": 411, "searchScope": null, "status": 1, "address": "\u57ce\u5317\u8def1\u53f7", "name": "\u5609\u5b9a\u5927\u836f\u623f \u5609\u4e2d\u836f\u5e97", "id": 136499, "pageNo": 0, "pageCount": null, "pageSize": 10, "ids": null, "endTime": null, "startTime": null}], "pageLimit": 3480, "size": 10}