{"pageCount": 1095, "count": 10942, "pageNo": 340, "subShopInfo": {"cardNumFive": "", "isSupportYj": "", "cityName": null, "districtName": null, "shopinfo": {"mid": null, "good_flag": null, "new_flag": null, "short_name": null, "short_name_pinyin": null, "status": null, "address": "", "name": "", "id": null}, "mid": null, "shopId": null, "netid": null, "province": 901, "district": null, "zipcode": null, "telephone": null, "posDate": null, "destineTel": null, "togoTel": null, "trafficWay": null, "signBuilding": null, "businessArea": null, "selfRoom": null, "businessTime": null, "stall": null, "consume": null, "serviceFei": null, "favourable": null, "shopMemo": "1", "appraise": null, "website": null, "memo": null, "payTypes": "", "shopTypes": "", "consumeTypes": null, "cookTypes": null, "orderNum": null, "card4no": null, "card4noAcc": null, "district2": null, "searchScope": null, "status": null, "address": "", "name": null, "id": null, "pageNo": 339, "pageCount": null, "pageSize": 10, "ids": null, "endTime": null, "startTime": null}, "list": [{"cardNumFive": null, "isSupportYj": null, "cityName": null, "districtName": null, "shopinfo": {"mid": "888888854110271", "good_flag": "2", "new_flag": "1", "short_name": "\u6c47\u91d1\u516d\u767e\u8d85\u5e02", "short_name_pinyin": "huijinliubaichaoshi", "status": null, "address": null, "name": null, "id": "31939"}, "mid": "888888854110271", "shopId": "31939", "netid": null, "province": 901, "district": 601, "zipcode": null, "telephone": null, "posDate": null, "destineTel": null, "togoTel": null, "trafficWay": "957\u3001731\u3001131", "signBuilding": null, "businessArea": null, "selfRoom": null, "businessTime": null, "stall": null, "consume": null, "serviceFei": null, "favourable": null, "shopMemo": null, "appraise": null, "website": null, "memo": null, "payTypes": "\u6749\u5fb7\u5361", "shopTypes": "\u8d85\u5e02", "consumeTypes": null, "cookTypes": null, "orderNum": 1000, "card4no": null, "card4noAcc": null, "district2": 403, "searchScope": null, "status": 1, "address": "\u51cc\u4e91\u8def212\u53f7\uff08\u8fd1\u4e0a\u4e2d\u897f\u8def\uff09", "name": "\u6c47\u91d1\u516d\u767e\u8d85\u5e02 \u51cc\u4e91\u5e97", "id": 135738, "pageNo": 0, "pageCount": null, "pageSize": 10, "ids": null, "endTime": null, "startTime": null}, {"cardNumFive": null, "isSupportYj": null, "cityName": null, "districtName": null, "shopinfo": {"mid": "888888854110271", "good_flag": "2", "new_flag": "1", "short_name": "\u6c47\u91d1\u516d\u767e\u8d85\u5e02", "short_name_pinyin": "huijinliubaichaoshi", "status": null, "address": null, "name": null, "id": "31939"}, "mid": "888888854110271", "shopId": "31939", "netid": null, "province": 901, "district": 601, "zipcode": null, "telephone": null, "posDate": null, "destineTel": null, "togoTel": null, "trafficWay": "69\u300188\u3001737", "signBuilding": null, "businessArea": null, "selfRoom": null, "businessTime": null, "stall": null, "consume": null, "serviceFei": null, "favourable": null, "shopMemo": null, "appraise": null, "website": null, "memo": null, "payTypes": "\u6749\u5fb7\u5361", "shopTypes": "\u8d85\u5e02", "consumeTypes": null, "cookTypes": null, "orderNum": 1000, "card4no": null, "card4noAcc": null, "district2": 406, "searchScope": null, "status": 1, "address": "\u5929\u5c71\u8def900\u53f7", "name": "\u6c47\u91d1\u516d\u767e\u8d85\u5e02 \u5929\u5c71\u5e97", "id": 135739, "pageNo": 0, "pageCount": null, "pageSize": 10, "ids": null, "endTime": null, "startTime": null}, {"cardNumFive": null, "isSupportYj": null, "cityName": null, "districtName": null, "shopinfo": {"mid": "888888853110094", "good_flag": "2", "new_flag": "1", "short_name": "\u6c47\u8054\u5546\u53a6", "short_name_pinyin": "huilianshangxia", "status": null, "address": null, "name": null, "id": "31940"}, "mid": "888888853110094", "shopId": "31940", "netid": null, "province": 901, "district": 601, "zipcode": null, "telephone": "64382288-540", "posDate": null, "destineTel": null, "togoTel": null, "trafficWay": null, "signBuilding": null, "businessArea": null, "selfRoom": null, "businessTime": null, "stall": null, "consume": null, "serviceFei": null, "favourable": null, "shopMemo": null, "appraise": null, "website": null, "memo": null, "payTypes": ",\u6749\u5fb7\u5361", "shopTypes": "\u767e\u8d27", "consumeTypes": null, "cookTypes": null, "orderNum": 1000, "card4no": null, "card4noAcc": null, "district2": 403, "searchScope": null, "status": 1, "address": "\u5929\u94a5\u6865\u8def40-90\u53f7", "name": "\u6c47\u8054\u5546\u53a6 \u5929\u94a5\u6865\u8def\u5e97", "id": 135741, "pageNo": 0, "pageCount": null, "pageSize": 10, "ids": null, "endTime": null, "startTime": null}, {"cardNumFive": null, "isSupportYj": null, "cityName": null, "districtName": null, "shopinfo": {"mid": "888002159121179", "good_flag": "2", "new_flag": "2", "short_name": "\u80e1\u5e86\u4f59\u5802", "short_name_pinyin": "huqingyutang", "status": null, "address": null, "name": null, "id": "31828"}, "mid": "888002159121179", "shopId": "31828", "netid": null, "province": 901, "district": 601, "zipcode": null, "telephone": "34500072", "posDate": "200911", "destineTel": null, "togoTel": null, "trafficWay": null, "signBuilding": null, "businessArea": null, "selfRoom": null, "businessTime": null, "stall": null, "consume": null, "serviceFei": null, "favourable": null, "shopMemo": null, "appraise": null, "website": null, "memo": null, "payTypes": "\u6749\u5fb7\u5361", "shopTypes": "\u836f\u5e97", "consumeTypes": null, "cookTypes": null, "orderNum": 1000, "card4no": null, "card4noAcc": null, "district2": 409, "searchScope": null, "status": 1, "address": "\u65b0\u6d66\u6c5f\u9547\u5317\u6c5f\u71d5\u8def116\u53f7", "name": "\u80e1\u5e86\u4f59\u5802 \u5317\u71d5\u8def\u5e97", "id": 135337, "pageNo": 0, "pageCount": null, "pageSize": 10, "ids": null, "endTime": null, "startTime": null}, {"cardNumFive": null, "isSupportYj": null, "cityName": null, "districtName": null, "shopinfo": {"mid": "888002159121179", "good_flag": "2", "new_flag": "2", "short_name": "\u80e1\u5e86\u4f59\u5802", "short_name_pinyin": "huqingyutang", "status": null, "address": null, "name": null, "id": "31828"}, "mid": "888002159121179", "shopId": "31828", "netid": null, "province": 901, "district": 601, "zipcode": null, "telephone": "58515457", "posDate": "200911", "destineTel": null, "togoTel": null, "trafficWay": null, "signBuilding": null, "businessArea": null, "selfRoom": null, "businessTime": "9:00~21:00", "stall": null, "consume": null, "serviceFei": null, "favourable": null, "shopMemo": null, "appraise": null, "website": null, "memo": null, "payTypes": "\u6749\u5fb7\u5361", "shopTypes": "\u836f\u5e97", "consumeTypes": null, "cookTypes": null, "orderNum": 1000, "card4no": null, "card4noAcc": null, "district2": 418, "searchScope": null, "status": 1, "address": "\u535a\u5c71\u8def69\u53f7", "name": "\u80e1\u5e86\u4f59\u5802 \u535a\u5c71\u8def\u5e97", "id": 135338, "pageNo": 0, "pageCount": null, "pageSize": 10, "ids": null, "endTime": null, "startTime": null}, {"cardNumFive": null, "isSupportYj": null, "cityName": null, "districtName": null, "shopinfo": {"mid": "888002159121179", "good_flag": "2", "new_flag": "2", "short_name": "\u80e1\u5e86\u4f59\u5802", "short_name_pinyin": "huqingyutang", "status": null, "address": null, "name": null, "id": "31828"}, "mid": "888002159121179", "shopId": "31828", "netid": null, "province": 901, "district": 601, "zipcode": null, "telephone": "63275710", "posDate": "200911", "destineTel": null, "togoTel": null, "trafficWay": null, "signBuilding": null, "businessArea": null, "selfRoom": null, "businessTime": "9:00~21:00", "stall": null, "consume": null, "serviceFei": null, "favourable": null, "shopMemo": null, "appraise": null, "website": null, "memo": null, "payTypes": "\u6749\u5fb7\u5361", "shopTypes": "\u836f\u5e97", "consumeTypes": null, "cookTypes": null, "orderNum": 1000, "card4no": null, "card4noAcc": null, "district2": 401, "searchScope": null, "status": 1, "address": "\u51e4\u9633\u8def389\u53f7", "name": "\u80e1\u5e86\u4f59\u5802 \u51e4\u9633\u8def\u5e97", "id": 135339, "pageNo": 0, "pageCount": null, "pageSize": 10, "ids": null, "endTime": null, "startTime": null}, {"cardNumFive": null, "isSupportYj": null, "cityName": null, "districtName": null, "shopinfo": {"mid": "888002159121179", "good_flag": "2", "new_flag": "2", "short_name": "\u80e1\u5e86\u4f59\u5802", "short_name_pinyin": "huqingyutang", "status": null, "address": null, "name": null, "id": "31828"}, "mid": "888002159121179", "shopId": "31828", "netid": null, "province": 901, "district": 601, "zipcode": null, "telephone": "54800494", "posDate": "200911", "destineTel": null, "togoTel": null, "trafficWay": null, "signBuilding": null, "businessArea": null, "selfRoom": null, "businessTime": "9:00~21:00", "stall": null, "consume": null, "serviceFei": null, "favourable": null, "shopMemo": null, "appraise": null, "website": null, "memo": null, "payTypes": "\u6749\u5fb7\u5361", "shopTypes": "\u836f\u5e97", "consumeTypes": null, "cookTypes": null, "orderNum": 1000, "card4no": null, "card4noAcc": null, "district2": 409, "searchScope": null, "status": 1, "address": "\u53e4\u7f8e\u897f\u8def296\u53f7", "name": "\u80e1\u5e86\u4f59\u5802 \u53e4\u6885\u897f\u8def\u5e97", "id": 135340, "pageNo": 0, "pageCount": null, "pageSize": 10, "ids": null, "endTime": null, "startTime": null}, {"cardNumFive": null, "isSupportYj": null, "cityName": null, "districtName": null, "shopinfo": {"mid": "888002159121179", "good_flag": "2", "new_flag": "2", "short_name": "\u80e1\u5e86\u4f59\u5802", "short_name_pinyin": "huqingyutang", "status": null, "address": null, "name": null, "id": "31828"}, "mid": "888002159121179", "shopId": "31828", "netid": null, "province": 901, "district": 601, "zipcode": null, "telephone": "63866558", "posDate": "200911", "destineTel": null, "togoTel": null, "trafficWay": null, "signBuilding": null, "businessArea": null, "selfRoom": null, "businessTime": "10:00~22:00", "stall": null, "consume": null, "serviceFei": null, "favourable": null, "shopMemo": null, "appraise": null, "website": null, "memo": null, "payTypes": "\u6749\u5fb7\u5361", "shopTypes": "\u836f\u5e97", "consumeTypes": null, "cookTypes": null, "orderNum": 1000, "card4no": null, "card4noAcc": null, "district2": 401, "searchScope": null, "status": 1, "address": "\u5ef6\u5b89\u4e1c\u8def379-381\u53f7", "name": "\u80e1\u5e86\u4f59\u5802 \u5ef6\u5b89\u4e1c\u8def\u5e97", "id": 135345, "pageNo": 0, "pageCount": null, "pageSize": 10, "ids": null, "endTime": null, "startTime": null}, {"cardNumFive": null, "isSupportYj": null, "cityName": null, "districtName": null, "shopinfo": {"mid": "888002159121179", "good_flag": "2", "new_flag": "2", "short_name": "\u80e1\u5e86\u4f59\u5802", "short_name_pinyin": "huqingyutang", "status": null, "address": null, "name": null, "id": "31828"}, "mid": "888002159121179", "shopId": "31828", "netid": null, "province": 901, "district": 601, "zipcode": null, "telephone": "63602818", "posDate": "200911", "destineTel": null, "togoTel": null, "trafficWay": null, "signBuilding": null, "businessArea": null, "selfRoom": null, "businessTime": null, "stall": null, "consume": null, "serviceFei": null, "favourable": null, "shopMemo": null, "appraise": null, "website": null, "memo": null, "payTypes": "\u6749\u5fb7\u5361", "shopTypes": "\u836f\u5e97", "consumeTypes": null, "cookTypes": null, "orderNum": 1000, "card4no": null, "card4noAcc": null, "district2": 401, "searchScope": null, "status": 1, "address": "\u6d59\u6c5f\u4e2d\u8def195\u53f7", "name": "\u80e1\u5e86\u4f59\u5802 \u6d59\u6c5f\u4e2d\u8def\u5e97", "id": 135346, "pageNo": 0, "pageCount": null, "pageSize": 10, "ids": null, "endTime": null, "startTime": null}, {"cardNumFive": null, "isSupportYj": null, "cityName": null, "districtName": null, "shopinfo": {"mid": "888002156911309", "good_flag": "2", "new_flag": "1", "short_name": "ICECUBE", "short_name_pinyin": "icecube", "status": null, "address": null, "name": null, "id": "31030"}, "mid": "888002156911309", "shopId": "31030", "netid": null, "province": 901, "district": 601, "zipcode": null, "telephone": null, "posDate": "20100223", "destineTel": null, "togoTel": null, "trafficWay": null, "signBuilding": null, "businessArea": null, "selfRoom": null, "businessTime": null, "stall": null, "consume": null, "serviceFei": null, "favourable": null, "shopMemo": null, "appraise": null, "website": null, "memo": null, "payTypes": "\u6749\u5fb7\u5361", "shopTypes": "\u670d\u9970\u5bb6\u7eba", "consumeTypes": null, "cookTypes": null, "orderNum": 1000, "card4no": null, "card4noAcc": null, "district2": 409, "searchScope": null, "status": 1, "address": "\u4e0a\u6d77\u5357\u7ad9\u94f6\u6cf0\u767e\u8d27\u5730\u4e0b\u4e00\u5c42\u53571-A14", "name": "ICECUBE \u4e0a\u6d77\u5357\u7ad9\u5e97", "id": 132037, "pageNo": 0, "pageCount": null, "pageSize": 10, "ids": null, "endTime": null, "startTime": null}], "pageLimit": 3390, "size": 10}