{"pageCount": 1095, "count": 10942, "pageNo": 353, "subShopInfo": {"cardNumFive": "", "isSupportYj": "", "cityName": null, "districtName": null, "shopinfo": {"mid": null, "good_flag": null, "new_flag": null, "short_name": null, "short_name_pinyin": null, "status": null, "address": "", "name": "", "id": null}, "mid": null, "shopId": null, "netid": null, "province": 901, "district": null, "zipcode": null, "telephone": null, "posDate": null, "destineTel": null, "togoTel": null, "trafficWay": null, "signBuilding": null, "businessArea": null, "selfRoom": null, "businessTime": null, "stall": null, "consume": null, "serviceFei": null, "favourable": null, "shopMemo": "1", "appraise": null, "website": null, "memo": null, "payTypes": "", "shopTypes": "", "consumeTypes": null, "cookTypes": null, "orderNum": null, "card4no": null, "card4noAcc": null, "district2": null, "searchScope": null, "status": null, "address": "", "name": null, "id": null, "pageNo": 352, "pageCount": null, "pageSize": 10, "ids": null, "endTime": null, "startTime": null}, "list": [{"cardNumFive": null, "isSupportYj": null, "cityName": null, "districtName": null, "shopinfo": {"mid": "888002154110564", "good_flag": null, "new_flag": null, "short_name": "\u5bb6\u4e50\u798f", "short_name_pinyin": "jialefu", "status": null, "address": null, "name": null, "id": "44065"}, "mid": "888002154110564", "shopId": "44065", "netid": null, "province": 901, "district": 601, "zipcode": null, "telephone": null, "posDate": null, "destineTel": null, "togoTel": null, "trafficWay": null, "signBuilding": null, "businessArea": null, "selfRoom": null, "businessTime": null, "stall": null, "consume": null, "serviceFei": null, "favourable": null, "shopMemo": null, "appraise": null, "website": null, "memo": null, "payTypes": "\u6749\u5fb7\u65af\u739b\u7279\u5361", "shopTypes": "\u8d85\u5e02", "consumeTypes": null, "cookTypes": null, "orderNum": 1000, "card4no": null, "card4noAcc": null, "district2": 403, "searchScope": null, "status": 1, "address": "\u5b9c\u5c71\u8def455\u53f7", "name": "\u5bb6\u4e50\u798f \u4e0a\u6d77\u5b9c\u5c71\u5e97", "id": 202488, "pageNo": 0, "pageCount": null, "pageSize": 10, "ids": null, "endTime": null, "startTime": null}, {"cardNumFive": null, "isSupportYj": null, "cityName": null, "districtName": null, "shopinfo": {"mid": "888002154110566", "good_flag": null, "new_flag": null, "short_name": "\u5bb6\u4e50\u798f", "short_name_pinyin": "jialefu", "status": null, "address": null, "name": null, "id": "44066"}, "mid": "888002154110566", "shopId": "44066", "netid": null, "province": 901, "district": 601, "zipcode": null, "telephone": null, "posDate": null, "destineTel": null, "togoTel": null, "trafficWay": null, "signBuilding": null, "businessArea": null, "selfRoom": null, "businessTime": null, "stall": null, "consume": null, "serviceFei": null, "favourable": null, "shopMemo": null, "appraise": null, "website": null, "memo": null, "payTypes": "\u6749\u5fb7\u65af\u739b\u7279\u5361", "shopTypes": "\u8d85\u5e02", "consumeTypes": null, "cookTypes": null, "orderNum": 1000, "card4no": null, "card4noAcc": null, "district2": 412, "searchScope": null, "status": 1, "address": "\u65b0\u5357\u8def959\u53f7", "name": "\u5bb6\u4e50\u798f \u4e0a\u6d77\u65b0\u5357\u8def\u5e97", "id": 202489, "pageNo": 0, "pageCount": null, "pageSize": 10, "ids": null, "endTime": null, "startTime": null}, {"cardNumFive": null, "isSupportYj": null, "cityName": null, "districtName": null, "shopinfo": {"mid": "888002154110599", "good_flag": null, "new_flag": null, "short_name": "\u5bb6\u4e50\u798f", "short_name_pinyin": "jialefu", "status": null, "address": null, "name": null, "id": "44067"}, "mid": "888002154110599", "shopId": "44067", "netid": null, "province": 901, "district": 601, "zipcode": null, "telephone": null, "posDate": null, "destineTel": null, "togoTel": null, "trafficWay": null, "signBuilding": null, "businessArea": null, "selfRoom": null, "businessTime": null, "stall": null, "consume": null, "serviceFei": null, "favourable": null, "shopMemo": null, "appraise": null, "website": null, "memo": null, "payTypes": "\u6749\u5fb7\u65af\u739b\u7279\u5361", "shopTypes": "\u8d85\u5e02", "consumeTypes": null, "cookTypes": null, "orderNum": 1000, "card4no": null, "card4noAcc": null, "district2": 403, "searchScope": null, "status": 1, "address": "\u67f3\u5dde\u8def77\u53f7", "name": "\u5bb6\u4e50\u798f \u4e0a\u6d77\u67f3\u5dde\u8def\u5e97", "id": 202490, "pageNo": 0, "pageCount": null, "pageSize": 10, "ids": null, "endTime": null, "startTime": null}, {"cardNumFive": null, "isSupportYj": null, "cityName": null, "districtName": null, "shopinfo": {"mid": "888002154110666", "good_flag": null, "new_flag": null, "short_name": "\u5bb6\u4e50\u798f", "short_name_pinyin": "jialefu", "status": null, "address": null, "name": null, "id": "44068"}, "mid": "888002154110666", "shopId": "44068", "netid": null, "province": 901, "district": 601, "zipcode": null, "telephone": null, "posDate": null, "destineTel": null, "togoTel": null, "trafficWay": null, "signBuilding": null, "businessArea": null, "selfRoom": null, "businessTime": null, "stall": null, "consume": null, "serviceFei": null, "favourable": null, "shopMemo": null, "appraise": null, "website": null, "memo": null, "payTypes": "\u6749\u5fb7\u65af\u739b\u7279\u5361", "shopTypes": "\u8d85\u5e02", "consumeTypes": null, "cookTypes": null, "orderNum": 1000, "card4no": null, "card4noAcc": null, "district2": 417, "searchScope": null, "status": 1, "address": "\u6dc0\u5c71\u6e56\u5927\u9053212\u53f7\u543e\u60a6\u5e7f\u573a\u8d1f\u4e00\u697c", "name": "\u5bb6\u4e50\u798f \u4e0a\u6d77\u6f15\u76c8\u5e97", "id": 202491, "pageNo": 0, "pageCount": null, "pageSize": 10, "ids": null, "endTime": null, "startTime": null}, {"cardNumFive": null, "isSupportYj": null, "cityName": null, "districtName": null, "shopinfo": {"mid": "888002154110768", "good_flag": null, "new_flag": null, "short_name": "\u5bb6\u4e50\u798f", "short_name_pinyin": "jialefu", "status": null, "address": null, "name": null, "id": "44069"}, "mid": "888002154110768", "shopId": "44069", "netid": null, "province": 901, "district": 601, "zipcode": null, "telephone": null, "posDate": null, "destineTel": null, "togoTel": null, "trafficWay": null, "signBuilding": null, "businessArea": null, "selfRoom": null, "businessTime": null, "stall": null, "consume": null, "serviceFei": null, "favourable": null, "shopMemo": null, "appraise": null, "website": null, "memo": null, "payTypes": "\u6749\u5fb7\u65af\u739b\u7279\u5361", "shopTypes": "\u8d85\u5e02", "consumeTypes": null, "cookTypes": null, "orderNum": 1000, "card4no": null, "card4noAcc": null, "district2": 405, "searchScope": null, "status": 1, "address": "\u65b0\u6751\u8def1500\u53f7", "name": "\u5bb6\u4e50\u798f \u4e0a\u6d77\u4e07\u91cc\u5e97", "id": 202492, "pageNo": 0, "pageCount": null, "pageSize": 10, "ids": null, "endTime": null, "startTime": null}, {"cardNumFive": null, "isSupportYj": null, "cityName": null, "districtName": null, "shopinfo": {"mid": "888898854110017", "good_flag": null, "new_flag": null, "short_name": "\u5bb6\u4e50\u798f", "short_name_pinyin": "jialefu", "status": null, "address": null, "name": null, "id": "44074"}, "mid": "888898854110017", "shopId": "44074", "netid": null, "province": 901, "district": 601, "zipcode": null, "telephone": null, "posDate": null, "destineTel": null, "togoTel": null, "trafficWay": null, "signBuilding": null, "businessArea": null, "selfRoom": null, "businessTime": null, "stall": null, "consume": null, "serviceFei": null, "favourable": null, "shopMemo": null, "appraise": null, "website": null, "memo": null, "payTypes": "\u6749\u5fb7\u65af\u739b\u7279\u5361", "shopTypes": "\u8d85\u5e02", "consumeTypes": null, "cookTypes": null, "orderNum": 1000, "card4no": null, "card4noAcc": null, "district2": 409, "searchScope": null, "status": 1, "address": "\u6caa\u95f5\u8def7388\u53f7", "name": "\u5bb6\u4e50\u798f \u4e0a\u6d77\u5357\u65b9\u5e97", "id": 202497, "pageNo": 0, "pageCount": null, "pageSize": 10, "ids": null, "endTime": null, "startTime": null}, {"cardNumFive": null, "isSupportYj": null, "cityName": null, "districtName": null, "shopinfo": {"mid": "888898854110018", "good_flag": null, "new_flag": null, "short_name": "\u5bb6\u4e50\u798f", "short_name_pinyin": "jialefu", "status": null, "address": null, "name": null, "id": "44075"}, "mid": "888898854110018", "shopId": "44075", "netid": null, "province": 901, "district": 601, "zipcode": null, "telephone": null, "posDate": null, "destineTel": null, "togoTel": null, "trafficWay": null, "signBuilding": null, "businessArea": null, "selfRoom": null, "businessTime": null, "stall": null, "consume": null, "serviceFei": null, "favourable": null, "shopMemo": null, "appraise": null, "website": null, "memo": null, "payTypes": "\u6749\u5fb7\u65af\u739b\u7279\u5361", "shopTypes": "\u8d85\u5e02", "consumeTypes": null, "cookTypes": null, "orderNum": 1000, "card4no": null, "card4noAcc": null, "district2": 418, "searchScope": null, "status": 1, "address": "\u78a7\u4e91\u8def555\u53f7", "name": "\u5bb6\u4e50\u798f \u4e0a\u6d77\u91d1\u6865\u5e97", "id": 202498, "pageNo": 0, "pageCount": null, "pageSize": 10, "ids": null, "endTime": null, "startTime": null}, {"cardNumFive": null, "isSupportYj": null, "cityName": null, "districtName": null, "shopinfo": {"mid": "888898854110019", "good_flag": null, "new_flag": null, "short_name": "\u5bb6\u4e50\u798f", "short_name_pinyin": "jialefu", "status": null, "address": null, "name": null, "id": "44076"}, "mid": "888898854110019", "shopId": "44076", "netid": null, "province": 901, "district": 601, "zipcode": null, "telephone": null, "posDate": null, "destineTel": null, "togoTel": null, "trafficWay": null, "signBuilding": null, "businessArea": null, "selfRoom": null, "businessTime": null, "stall": null, "consume": null, "serviceFei": null, "favourable": null, "shopMemo": null, "appraise": null, "website": null, "memo": null, "payTypes": "\u6749\u5fb7\u65af\u739b\u7279\u5361", "shopTypes": "\u8d85\u5e02", "consumeTypes": null, "cookTypes": null, "orderNum": 1000, "card4no": null, "card4noAcc": null, "district2": 405, "searchScope": null, "status": 1, "address": "\u65b0\u6751\u8def1500\u53f7", "name": "\u5bb6\u4e50\u798f \u4e0a\u6d77\u4e07\u91cc\u5e97", "id": 202499, "pageNo": 0, "pageCount": null, "pageSize": 10, "ids": null, "endTime": null, "startTime": null}, {"cardNumFive": null, "isSupportYj": null, "cityName": null, "districtName": null, "shopinfo": {"mid": "888898854110020", "good_flag": null, "new_flag": null, "short_name": "\u5bb6\u4e50\u798f", "short_name_pinyin": "jialefu", "status": null, "address": null, "name": null, "id": "44077"}, "mid": "888898854110020", "shopId": "44077", "netid": null, "province": 901, "district": 601, "zipcode": null, "telephone": null, "posDate": null, "destineTel": null, "togoTel": null, "trafficWay": null, "signBuilding": null, "businessArea": null, "selfRoom": null, "businessTime": null, "stall": null, "consume": null, "serviceFei": null, "favourable": null, "shopMemo": null, "appraise": null, "website": null, "memo": null, "payTypes": "\u6749\u5fb7\u65af\u739b\u7279\u5361", "shopTypes": "\u8d85\u5e02", "consumeTypes": null, "cookTypes": null, "orderNum": 1000, "card4no": null, "card4noAcc": null, "district2": 405, "searchScope": null, "status": 1, "address": "\u6b66\u5b81\u8def20\u53f7", "name": "\u5bb6\u4e50\u798f \u4e0a\u6d77\u6b66\u5b81\u5e97", "id": 202500, "pageNo": 0, "pageCount": null, "pageSize": 10, "ids": null, "endTime": null, "startTime": null}, {"cardNumFive": null, "isSupportYj": null, "cityName": null, "districtName": null, "shopinfo": {"mid": "888898854110021", "good_flag": null, "new_flag": null, "short_name": "\u5bb6\u4e50\u798f", "short_name_pinyin": "jialefu", "status": null, "address": null, "name": null, "id": "44078"}, "mid": "888898854110021", "shopId": "44078", "netid": null, "province": 901, "district": 601, "zipcode": null, "telephone": null, "posDate": null, "destineTel": null, "togoTel": null, "trafficWay": null, "signBuilding": null, "businessArea": null, "selfRoom": null, "businessTime": null, "stall": null, "consume": null, "serviceFei": null, "favourable": null, "shopMemo": null, "appraise": null, "website": null, "memo": null, "payTypes": "\u6749\u5fb7\u65af\u739b\u7279\u5361", "shopTypes": "\u8d85\u5e02", "consumeTypes": null, "cookTypes": null, "orderNum": 1000, "card4no": null, "card4noAcc": null, "district2": 406, "searchScope": null, "status": 1, "address": "\u6c34\u57ce\u5357\u8def268\u53f7", "name": "\u5bb6\u4e50\u798f \u4e0a\u6d77\u53e4\u5317\u5e97", "id": 202501, "pageNo": 0, "pageCount": null, "pageSize": 10, "ids": null, "endTime": null, "startTime": null}], "pageLimit": 3520, "size": 10}