{"pageCount": 1095, "count": 10942, "pageNo": 357, "subShopInfo": {"cardNumFive": "", "isSupportYj": "", "cityName": null, "districtName": null, "shopinfo": {"mid": null, "good_flag": null, "new_flag": null, "short_name": null, "short_name_pinyin": null, "status": null, "address": "", "name": "", "id": null}, "mid": null, "shopId": null, "netid": null, "province": 901, "district": null, "zipcode": null, "telephone": null, "posDate": null, "destineTel": null, "togoTel": null, "trafficWay": null, "signBuilding": null, "businessArea": null, "selfRoom": null, "businessTime": null, "stall": null, "consume": null, "serviceFei": null, "favourable": null, "shopMemo": "1", "appraise": null, "website": null, "memo": null, "payTypes": "", "shopTypes": "", "consumeTypes": null, "cookTypes": null, "orderNum": null, "card4no": null, "card4noAcc": null, "district2": null, "searchScope": null, "status": null, "address": "", "name": null, "id": null, "pageNo": 356, "pageCount": null, "pageSize": 10, "ids": null, "endTime": null, "startTime": null}, "list": [{"cardNumFive": null, "isSupportYj": null, "cityName": null, "districtName": null, "shopinfo": {"mid": "888888859770023", "good_flag": "2", "new_flag": "1", "short_name": "\u5bb6\u9686\u540d\u5986", "short_name_pinyin": "jialongmingzhuang", "status": null, "address": null, "name": null, "id": "32032"}, "mid": "888888859770023", "shopId": "32032", "netid": null, "province": 901, "district": 601, "zipcode": null, "telephone": "54041034", "posDate": "20080104", "destineTel": null, "togoTel": null, "trafficWay": "\u5730\u94c1\u4e00\u53f7\u7ebf \u65c5\u6e3810\u53f7\u7ebf \u516c\u4ea402", "signBuilding": null, "businessArea": null, "selfRoom": null, "businessTime": null, "stall": null, "consume": null, "serviceFei": null, "favourable": null, "shopMemo": null, "appraise": null, "website": null, "memo": null, "payTypes": "\u6749\u5fb7\u5361", "shopTypes": "\u4e13\u5356", "consumeTypes": null, "cookTypes": null, "orderNum": 1000, "card4no": null, "card4noAcc": null, "district2": 403, "searchScope": null, "status": 1, "address": "\u9655\u897f\u5357\u8def238\u53f7208\u5ba4", "name": "\u5bb6\u9686\u540d\u5986 \u9655\u897f\u5357\u8def\u4e8c\u5e97", "id": 136476, "pageNo": 0, "pageCount": null, "pageSize": 10, "ids": null, "endTime": null, "startTime": null}, {"cardNumFive": null, "isSupportYj": null, "cityName": null, "districtName": null, "shopinfo": {"mid": "888888859770023", "good_flag": "2", "new_flag": "1", "short_name": "\u5bb6\u9686\u540d\u5986", "short_name_pinyin": "jialongmingzhuang", "status": null, "address": null, "name": null, "id": "32032"}, "mid": "888888859770023", "shopId": "32032", "netid": null, "province": 901, "district": 601, "zipcode": null, "telephone": "66120095", "posDate": "20080117", "destineTel": null, "togoTel": null, "trafficWay": "\u516c\u4ea4110 767B", "signBuilding": null, "businessArea": null, "selfRoom": null, "businessTime": "8:00~21:00", "stall": null, "consume": null, "serviceFei": null, "favourable": null, "shopMemo": null, "appraise": null, "website": null, "memo": null, "payTypes": "\u6749\u5fb7\u5361", "shopTypes": "\u4e13\u5356", "consumeTypes": null, "cookTypes": null, "orderNum": 1000, "card4no": null, "card4noAcc": null, "district2": 416, "searchScope": null, "status": 1, "address": "\u805a\u4e30\u56ed\u8def45\u53f7", "name": "\u5bb6\u9686\u540d\u5986 \u4e0a\u5927\u5e97", "id": 136477, "pageNo": 0, "pageCount": null, "pageSize": 10, "ids": null, "endTime": null, "startTime": null}, {"cardNumFive": null, "isSupportYj": null, "cityName": null, "districtName": null, "shopinfo": {"mid": "888888859770023", "good_flag": "2", "new_flag": "1", "short_name": "\u5bb6\u9686\u540d\u5986", "short_name_pinyin": "jialongmingzhuang", "status": null, "address": null, "name": null, "id": "32032"}, "mid": "888888859770023", "shopId": "32032", "netid": null, "province": 901, "district": 601, "zipcode": null, "telephone": "62362753", "posDate": "20080104", "destineTel": null, "togoTel": null, "trafficWay": "\u516c\u4ea4836 855 \u673a\u573a\u4e09\u7ebf", "signBuilding": null, "businessArea": null, "selfRoom": null, "businessTime": null, "stall": null, "consume": null, "serviceFei": null, "favourable": null, "shopMemo": null, "appraise": null, "website": null, "memo": null, "payTypes": "\u6749\u5fb7\u5361", "shopTypes": "\u4e13\u5356", "consumeTypes": null, "cookTypes": null, "orderNum": 1000, "card4no": null, "card4noAcc": null, "district2": 406, "searchScope": null, "status": 1, "address": "\u5ef6\u5b89\u897f\u8def2299\u53f7\u4e16\u8d38\u5546\u573a\u4e1c\u533a1\u697c", "name": "\u5bb6\u9686\u540d\u5986 \u4e16\u8d38\u5e97", "id": 136478, "pageNo": 0, "pageCount": null, "pageSize": 10, "ids": null, "endTime": null, "startTime": null}, {"cardNumFive": null, "isSupportYj": null, "cityName": null, "districtName": null, "shopinfo": {"mid": "888888859770023", "good_flag": "2", "new_flag": "1", "short_name": "\u5bb6\u9686\u540d\u5986", "short_name_pinyin": "jialongmingzhuang", "status": null, "address": null, "name": null, "id": "32032"}, "mid": "888888859770023", "shopId": "32032", "netid": null, "province": 901, "district": 601, "zipcode": null, "telephone": "54670177", "posDate": "20100611", "destineTel": null, "togoTel": null, "trafficWay": null, "signBuilding": null, "businessArea": null, "selfRoom": null, "businessTime": null, "stall": null, "consume": null, "serviceFei": null, "favourable": null, "shopMemo": null, "appraise": null, "website": null, "memo": null, "payTypes": "\u6749\u5fb7\u5361", "shopTypes": "\u4e13\u5356", "consumeTypes": null, "cookTypes": null, "orderNum": 1000, "card4no": null, "card4noAcc": null, "district2": 408, "searchScope": null, "status": 1, "address": "\u56db\u5ddd\u5317\u8def1281\u53f7", "name": "\u5bb6\u9686\u540d\u5986 \u56db\u5ddd\u5317\u8def\u5e97", "id": 136479, "pageNo": 0, "pageCount": null, "pageSize": 10, "ids": null, "endTime": null, "startTime": null}, {"cardNumFive": null, "isSupportYj": null, "cityName": null, "districtName": null, "shopinfo": {"mid": "888888859770023", "good_flag": "2", "new_flag": "1", "short_name": "\u5bb6\u9686\u540d\u5986", "short_name_pinyin": "jialongmingzhuang", "status": null, "address": null, "name": null, "id": "32032"}, "mid": "888888859770023", "shopId": "32032", "netid": null, "province": 901, "district": 601, "zipcode": null, "telephone": null, "posDate": "20080104", "destineTel": null, "togoTel": null, "trafficWay": "\u65c5\u6e3810\u53f7\u7ebf \u516c\u4ea418 21", "signBuilding": null, "businessArea": null, "selfRoom": null, "businessTime": null, "stall": null, "consume": null, "serviceFei": null, "favourable": null, "shopMemo": null, "appraise": null, "website": null, "memo": null, "payTypes": "\u6749\u5fb7\u5361", "shopTypes": "\u4e13\u5356", "consumeTypes": null, "cookTypes": null, "orderNum": 1000, "card4no": null, "card4noAcc": null, "district2": 408, "searchScope": null, "status": 1, "address": "\u56db\u5ddd\u5317\u8def\u4e1c\u6cf0\u4f11\u95f2\u5e7f\u573a18\u94fa", "name": "\u5bb6\u9686\u540d\u5986 \u56db\u5ddd\u5e97", "id": 136480, "pageNo": 0, "pageCount": null, "pageSize": 10, "ids": null, "endTime": null, "startTime": null}, {"cardNumFive": null, "isSupportYj": null, "cityName": null, "districtName": null, "shopinfo": {"mid": "888888859770023", "good_flag": "2", "new_flag": "1", "short_name": "\u5bb6\u9686\u540d\u5986", "short_name_pinyin": "jialongmingzhuang", "status": null, "address": null, "name": null, "id": "32032"}, "mid": "888888859770023", "shopId": "32032", "netid": null, "province": 901, "district": 601, "zipcode": null, "telephone": "54039797", "posDate": "20080606", "destineTel": null, "togoTel": null, "trafficWay": "\u516c\u4ea471 \u5730\u94c1\u4e8c\u53f7\u7ebf", "signBuilding": null, "businessArea": null, "selfRoom": null, "businessTime": null, "stall": null, "consume": null, "serviceFei": null, "favourable": null, "shopMemo": null, "appraise": null, "website": null, "memo": null, "payTypes": "\u6749\u5fb7\u5361", "shopTypes": "\u4e13\u5356", "consumeTypes": null, "cookTypes": null, "orderNum": 1000, "card4no": null, "card4noAcc": null, "district2": 406, "searchScope": null, "status": 1, "address": "\u5929\u5c71\u8def1111\u53f7\u8679\u6865\u5929\u90fd\u5546\u573aB1\u697c", "name": "\u5bb6\u9686\u540d\u5986 \u5929\u5c71\u5e97", "id": 136482, "pageNo": 0, "pageCount": null, "pageSize": 10, "ids": null, "endTime": null, "startTime": null}, {"cardNumFive": null, "isSupportYj": null, "cityName": null, "districtName": null, "shopinfo": {"mid": "888888859770023", "good_flag": "2", "new_flag": "1", "short_name": "\u5bb6\u9686\u540d\u5986", "short_name_pinyin": "jialongmingzhuang", "status": null, "address": null, "name": null, "id": "32032"}, "mid": "888888859770023", "shopId": "32032", "netid": null, "province": 901, "district": 601, "zipcode": null, "telephone": "54039797", "posDate": "20080108", "destineTel": null, "togoTel": null, "trafficWay": "\u516c\u4ea4830 869 737", "signBuilding": null, "businessArea": "300\u5e73\u65b9\u7c73", "selfRoom": null, "businessTime": "8:00~22:00", "stall": "\u65e0", "consume": null, "serviceFei": null, "favourable": null, "shopMemo": null, "appraise": null, "website": null, "memo": null, "payTypes": "\u6749\u5fb7\u5361", "shopTypes": "\u4e13\u5356", "consumeTypes": null, "cookTypes": null, "orderNum": 1000, "card4no": null, "card4noAcc": null, "district2": 405, "searchScope": null, "status": 1, "address": "\u65b0\u6751\u8def1500\u53f7", "name": "\u5bb6\u9686\u540d\u5986 \u4e07\u91cc\u5e97", "id": 136484, "pageNo": 0, "pageCount": null, "pageSize": 10, "ids": null, "endTime": null, "startTime": null}, {"cardNumFive": null, "isSupportYj": null, "cityName": null, "districtName": null, "shopinfo": {"mid": "888888859770023", "good_flag": "2", "new_flag": "1", "short_name": "\u5bb6\u9686\u540d\u5986", "short_name_pinyin": "jialongmingzhuang", "status": null, "address": null, "name": null, "id": "32032"}, "mid": "888888859770023", "shopId": "32032", "netid": null, "province": 901, "district": 601, "zipcode": null, "telephone": "54039797", "posDate": "20080802", "destineTel": null, "togoTel": null, "trafficWay": "\u516c\u4ea414 123 \u5730\u94c1\u516b\u53f7\u7ebf", "signBuilding": null, "businessArea": null, "selfRoom": null, "businessTime": "24\u5c0f\u65f6", "stall": null, "consume": null, "serviceFei": null, "favourable": null, "shopMemo": null, "appraise": null, "website": null, "memo": null, "payTypes": "\u6749\u5fb7\u5361", "shopTypes": "\u4e13\u5356", "consumeTypes": null, "cookTypes": null, "orderNum": 1000, "card4no": null, "card4noAcc": null, "district2": 408, "searchScope": null, "status": 1, "address": "\u65b0\u6e2f\u8def245\u53f71-07\u94fa", "name": "\u5bb6\u9686\u540d\u5986 \u65b0\u6e2f\u5e97", "id": 136487, "pageNo": 0, "pageCount": null, "pageSize": 10, "ids": null, "endTime": null, "startTime": null}, {"cardNumFive": null, "isSupportYj": null, "cityName": null, "districtName": null, "shopinfo": {"mid": "888888859770023", "good_flag": "2", "new_flag": "1", "short_name": "\u5bb6\u9686\u540d\u5986", "short_name_pinyin": "jialongmingzhuang", "status": null, "address": null, "name": null, "id": "32032"}, "mid": "888888859770023", "shopId": "32032", "netid": null, "province": 901, "district": 601, "zipcode": null, "telephone": "64155010", "posDate": "20080102", "destineTel": null, "togoTel": null, "trafficWay": "\u5730\u94c1\u4e00\u53f7\u7ebf \u65c5\u6e3810\u53f7\u7ebf \u516c\u4ea4926", "signBuilding": null, "businessArea": null, "selfRoom": null, "businessTime": "24\u5c0f\u65f6", "stall": null, "consume": null, "serviceFei": null, "favourable": null, "shopMemo": null, "appraise": null, "website": null, "memo": null, "payTypes": "\u6749\u5fb7\u5361", "shopTypes": "\u4e13\u5356", "consumeTypes": null, "cookTypes": null, "orderNum": 1000, "card4no": null, "card4noAcc": null, "district2": 401, "searchScope": null, "status": 1, "address": "\u745e\u91d1\u4e8c\u8def181\u53f717\u5ea7", "name": "\u5bb6\u9686\u540d\u5986 \u6c38\u5609\u5e97", "id": 136489, "pageNo": 0, "pageCount": null, "pageSize": 10, "ids": null, "endTime": null, "startTime": null}, {"cardNumFive": null, "isSupportYj": null, "cityName": null, "districtName": null, "shopinfo": {"mid": "888888859770023", "good_flag": "2", "new_flag": "1", "short_name": "\u5bb6\u9686\u540d\u5986", "short_name_pinyin": "jialongmingzhuang", "status": null, "address": null, "name": null, "id": "32032"}, "mid": "888888859770023", "shopId": "32032", "netid": null, "province": 901, "district": 601, "zipcode": null, "telephone": "54670177", "posDate": "200911", "destineTel": null, "togoTel": null, "trafficWay": null, "signBuilding": null, "businessArea": null, "selfRoom": null, "businessTime": "24\u5c0f\u65f6", "stall": null, "consume": null, "serviceFei": null, "favourable": null, "shopMemo": null, "appraise": null, "website": null, "memo": null, "payTypes": "\u6749\u5fb7\u5361", "shopTypes": "\u4e13\u5356", "consumeTypes": null, "cookTypes": null, "orderNum": 1000, "card4no": null, "card4noAcc": null, "district2": 418, "searchScope": null, "status": 1, "address": "\u6caa\u5357\u516c\u8def3449\u5f04\u4e50\u8d2d\u8d85\u5e02-1\u697cS3\u94fa", "name": "\u5bb6\u9686\u540d\u5986 \u5468\u6d66\u5e97", "id": 136492, "pageNo": 0, "pageCount": null, "pageSize": 10, "ids": null, "endTime": null, "startTime": null}], "pageLimit": 3560, "size": 10}