{"pageCount": 1095, "count": 10942, "pageNo": 359, "subShopInfo": {"cardNumFive": "", "isSupportYj": "", "cityName": null, "districtName": null, "shopinfo": {"mid": null, "good_flag": null, "new_flag": null, "short_name": null, "short_name_pinyin": null, "status": null, "address": "", "name": "", "id": null}, "mid": null, "shopId": null, "netid": null, "province": 901, "district": null, "zipcode": null, "telephone": null, "posDate": null, "destineTel": null, "togoTel": null, "trafficWay": null, "signBuilding": null, "businessArea": null, "selfRoom": null, "businessTime": null, "stall": null, "consume": null, "serviceFei": null, "favourable": null, "shopMemo": "1", "appraise": null, "website": null, "memo": null, "payTypes": "", "shopTypes": "", "consumeTypes": null, "cookTypes": null, "orderNum": null, "card4no": null, "card4noAcc": null, "district2": null, "searchScope": null, "status": null, "address": "", "name": null, "id": null, "pageNo": 358, "pageCount": null, "pageSize": 10, "ids": null, "endTime": null, "startTime": null}, "list": [{"cardNumFive": null, "isSupportYj": null, "cityName": null, "districtName": null, "shopinfo": {"mid": "888888854410053", "good_flag": null, "new_flag": null, "short_name": "\u7b80\u6734\u68ee\u9762\u5305\u623f\uff08Jepson\uff09", "short_name_pinyin": "jianpusenmianbaofang\uff08jepson\uff09", "status": null, "address": null, "name": null, "id": "37713"}, "mid": "888888854410053", "shopId": "37713", "netid": null, "province": 901, "district": 601, "zipcode": null, "telephone": "20916298", "posDate": null, "destineTel": null, "togoTel": null, "trafficWay": null, "signBuilding": null, "businessArea": null, "selfRoom": null, "businessTime": null, "stall": null, "consume": null, "serviceFei": null, "favourable": null, "shopMemo": null, "appraise": null, "website": null, "memo": null, "payTypes": "\u6749\u5fb7\u5361", "shopTypes": "\u9762\u5305\u897f\u997c", "consumeTypes": null, "cookTypes": null, "orderNum": 1000, "card4no": null, "card4noAcc": null, "district2": 418, "searchScope": null, "status": 1, "address": "\u5eb7\u6c88\u8def1542\u53f7", "name": "\u7b80\u6734\u68ee\u9762\u5305\u623f\uff08Jepson\uff09 \u5eb7\u6865\u5e97", "id": 159937, "pageNo": 0, "pageCount": null, "pageSize": 10, "ids": null, "endTime": null, "startTime": null}, {"cardNumFive": null, "isSupportYj": null, "cityName": null, "districtName": null, "shopinfo": {"mid": "888888854410053", "good_flag": null, "new_flag": null, "short_name": "\u7b80\u6734\u68ee\u9762\u5305\u623f\uff08Jepson\uff09", "short_name_pinyin": "jianpusenmianbaofang\uff08jepson\uff09", "status": null, "address": null, "name": null, "id": "39214"}, "mid": "888888854410053", "shopId": "39214", "netid": null, "province": 901, "district": 601, "zipcode": null, "telephone": "54312809", "posDate": null, "destineTel": null, "togoTel": null, "trafficWay": null, "signBuilding": null, "businessArea": null, "selfRoom": null, "businessTime": null, "stall": null, "consume": null, "serviceFei": null, "favourable": null, "shopMemo": null, "appraise": null, "website": null, "memo": null, "payTypes": "\u6749\u5fb7\u5361", "shopTypes": "\u9762\u5305\u897f\u997c", "consumeTypes": null, "cookTypes": null, "orderNum": 1000, "card4no": null, "card4noAcc": null, "district2": 409, "searchScope": null, "status": 1, "address": "\u5b9d\u94ed\u8def8\u53f7", "name": "\u7b80\u6734\u68ee\u9762\u5305\u623f\uff08Jepson\uff09 \u5b9d\u94ed\u5e97", "id": 167284, "pageNo": 0, "pageCount": null, "pageSize": 10, "ids": null, "endTime": null, "startTime": null}, {"cardNumFive": null, "isSupportYj": null, "cityName": null, "districtName": null, "shopinfo": {"mid": "888888854410053", "good_flag": null, "new_flag": null, "short_name": "\u7b80\u6734\u68ee\u9762\u5305\u623f\uff08Jepson\uff09", "short_name_pinyin": "jianpusenmianbaofang\uff08jepson\uff09", "status": null, "address": null, "name": null, "id": "32044"}, "mid": "888888854410053", "shopId": "32044", "netid": null, "province": 901, "district": 601, "zipcode": null, "telephone": "20930690", "posDate": null, "destineTel": null, "togoTel": null, "trafficWay": null, "signBuilding": null, "businessArea": null, "selfRoom": null, "businessTime": null, "stall": null, "consume": null, "serviceFei": null, "favourable": null, "shopMemo": null, "appraise": null, "website": null, "memo": null, "payTypes": "\u6749\u5fb7\u5361", "shopTypes": "\u9762\u5305\u897f\u997c", "consumeTypes": null, "cookTypes": null, "orderNum": 1000, "card4no": null, "card4noAcc": null, "district2": 418, "searchScope": null, "status": 1, "address": "\u65b0\u573a\u9547\u724c\u697c\u4e1c\u8def38\u53f71\u697c", "name": "\u7b80\u6734\u68ee\u9762\u5305\u623f\uff08Jepson\uff09 \u65b0\u573a\u5e97", "id": 169286, "pageNo": 0, "pageCount": null, "pageSize": 10, "ids": null, "endTime": null, "startTime": null}, {"cardNumFive": null, "isSupportYj": null, "cityName": null, "districtName": null, "shopinfo": {"mid": "888888854410053", "good_flag": null, "new_flag": null, "short_name": "\u7b80\u6734\u68ee\u9762\u5305\u623f\uff08Jepson\uff09", "short_name_pinyin": "jianpusenmianbaofang\uff08jepson\uff09", "status": null, "address": null, "name": null, "id": "32044"}, "mid": "888888854410053", "shopId": "32044", "netid": null, "province": 901, "district": 601, "zipcode": null, "telephone": "33832635", "posDate": null, "destineTel": null, "togoTel": null, "trafficWay": null, "signBuilding": null, "businessArea": null, "selfRoom": null, "businessTime": null, "stall": null, "consume": null, "serviceFei": null, "favourable": null, "shopMemo": null, "appraise": null, "website": null, "memo": null, "payTypes": "\u6749\u5fb7\u5361", "shopTypes": "\u9762\u5305\u897f\u997c", "consumeTypes": null, "cookTypes": null, "orderNum": 1000, "card4no": null, "card4noAcc": null, "district2": 418, "searchScope": null, "status": 1, "address": "\u84dd\u6751\u8def453\u53f7", "name": "\u7b80\u6734\u68ee\u9762\u5305\u623f\uff08Jepson\uff09 \u84dd\u6751\u8def\u5e97", "id": 169287, "pageNo": 0, "pageCount": null, "pageSize": 10, "ids": null, "endTime": null, "startTime": null}, {"cardNumFive": null, "isSupportYj": null, "cityName": null, "districtName": null, "shopinfo": {"mid": "888888854410053", "good_flag": null, "new_flag": null, "short_name": "\u7b80\u6734\u68ee\u9762\u5305\u623f\uff08Jepson\uff09", "short_name_pinyin": "jianpusenmianbaofang\uff08jepson\uff09", "status": null, "address": null, "name": null, "id": "32044"}, "mid": "888888854410053", "shopId": "32044", "netid": null, "province": 901, "district": 601, "zipcode": null, "telephone": null, "posDate": null, "destineTel": null, "togoTel": null, "trafficWay": null, "signBuilding": null, "businessArea": null, "selfRoom": null, "businessTime": null, "stall": null, "consume": null, "serviceFei": null, "favourable": null, "shopMemo": null, "appraise": null, "website": null, "memo": null, "payTypes": "\u6749\u5fb7\u5361", "shopTypes": "\u9762\u5305\u897f\u997c", "consumeTypes": null, "cookTypes": null, "orderNum": 1000, "card4no": null, "card4noAcc": null, "district2": 413, "searchScope": null, "status": 1, "address": "\u89e3\u653e\u4e2d\u8def353-355\u53f7", "name": "\u7b80\u6734\u68ee\u9762\u5305\u623f\uff08Jepson\uff09 \u89e3\u653e\u4e2d\u8def\u5e97", "id": 172402, "pageNo": 0, "pageCount": null, "pageSize": 10, "ids": null, "endTime": null, "startTime": null}, {"cardNumFive": null, "isSupportYj": null, "cityName": null, "districtName": null, "shopinfo": {"mid": "888888854410053", "good_flag": null, "new_flag": null, "short_name": "\u7b80\u6734\u68ee\u9762\u5305\u623f\uff08Jepson\uff09", "short_name_pinyin": "jianpusenmianbaofang\uff08jepson\uff09", "status": null, "address": null, "name": null, "id": "32044"}, "mid": "888888854410053", "shopId": "32044", "netid": null, "province": 901, "district": 601, "zipcode": null, "telephone": "50259317", "posDate": null, "destineTel": null, "togoTel": null, "trafficWay": null, "signBuilding": null, "businessArea": null, "selfRoom": null, "businessTime": null, "stall": null, "consume": null, "serviceFei": null, "favourable": null, "shopMemo": null, "appraise": null, "website": null, "memo": null, "payTypes": "\u6749\u5fb7\u5361", "shopTypes": "\u9762\u5305\u897f\u997c", "consumeTypes": null, "cookTypes": null, "orderNum": 1000, "card4no": null, "card4noAcc": null, "district2": 418, "searchScope": null, "status": 1, "address": "\u957f\u5c9b\u8def1289-1295\u53f7", "name": "\u7b80\u6734\u68ee\u9762\u5305\u623f\uff08Jepson\uff09 \u91d1\u6865\u5e97", "id": 177499, "pageNo": 0, "pageCount": null, "pageSize": 10, "ids": null, "endTime": null, "startTime": null}, {"cardNumFive": null, "isSupportYj": null, "cityName": null, "districtName": null, "shopinfo": {"mid": "888888854410053", "good_flag": null, "new_flag": null, "short_name": "\u7b80\u6734\u68ee\u9762\u5305\u623f\uff08Jepson\uff09", "short_name_pinyin": "jianpusenmianbaofang\uff08jepson\uff09", "status": null, "address": null, "name": null, "id": "32044"}, "mid": "888888854410053", "shopId": "32044", "netid": null, "province": 901, "district": 601, "zipcode": null, "telephone": "38683327", "posDate": null, "destineTel": null, "togoTel": null, "trafficWay": null, "signBuilding": null, "businessArea": null, "selfRoom": null, "businessTime": null, "stall": null, "consume": null, "serviceFei": null, "favourable": null, "shopMemo": null, "appraise": null, "website": null, "memo": null, "payTypes": "\u6749\u5fb7\u5361", "shopTypes": "\u9762\u5305\u897f\u997c", "consumeTypes": null, "cookTypes": null, "orderNum": 1000, "card4no": null, "card4noAcc": null, "district2": 418, "searchScope": null, "status": 1, "address": "\u5ddd\u6c99\u8def5558\u5f04105-107\u5ba4", "name": "\u7b80\u6734\u68ee\u9762\u5305\u623f\uff08Jepson\uff09 \u7eff\u5730\u4e1c\u6d77\u5cb8\u5e97", "id": 177500, "pageNo": 0, "pageCount": null, "pageSize": 10, "ids": null, "endTime": null, "startTime": null}, {"cardNumFive": null, "isSupportYj": null, "cityName": null, "districtName": null, "shopinfo": {"mid": "888888854410053", "good_flag": null, "new_flag": null, "short_name": "\u7b80\u6734\u68ee\u9762\u5305\u623f\uff08Jepson\uff09", "short_name_pinyin": "jianpusenmianbaofang\uff08jepson\uff09", "status": null, "address": null, "name": null, "id": "32044"}, "mid": "888888854410053", "shopId": "32044", "netid": null, "province": 901, "district": 601, "zipcode": null, "telephone": null, "posDate": null, "destineTel": null, "togoTel": null, "trafficWay": null, "signBuilding": null, "businessArea": null, "selfRoom": null, "businessTime": null, "stall": null, "consume": null, "serviceFei": null, "favourable": null, "shopMemo": null, "appraise": null, "website": null, "memo": null, "payTypes": "\u6749\u5fb7\u5361", "shopTypes": "\u9762\u5305\u897f\u997c", "consumeTypes": null, "cookTypes": null, "orderNum": 1000, "card4no": null, "card4noAcc": null, "district2": 418, "searchScope": null, "status": 1, "address": "\u7075\u5c71\u8def1740\u53f7", "name": "\u7b80\u6734\u68ee\u9762\u5305\u623f\uff08Jepson\uff09 \u7075\u5c71\u8def\u5e97", "id": 177501, "pageNo": 0, "pageCount": null, "pageSize": 10, "ids": null, "endTime": null, "startTime": null}, {"cardNumFive": null, "isSupportYj": null, "cityName": null, "districtName": null, "shopinfo": {"mid": "888888854410053", "good_flag": null, "new_flag": null, "short_name": "\u7b80\u6734\u68ee\u9762\u5305\u623f\uff08Jepson\uff09", "short_name_pinyin": "jianpusenmianbaofang\uff08jepson\uff09", "status": null, "address": null, "name": null, "id": "32044"}, "mid": "888888854410053", "shopId": "32044", "netid": null, "province": 901, "district": 601, "zipcode": null, "telephone": null, "posDate": null, "destineTel": null, "togoTel": null, "trafficWay": null, "signBuilding": null, "businessArea": null, "selfRoom": null, "businessTime": null, "stall": null, "consume": null, "serviceFei": null, "favourable": null, "shopMemo": null, "appraise": null, "website": null, "memo": null, "payTypes": "\u6749\u5fb7\u5361", "shopTypes": "\u9762\u5305\u897f\u997c", "consumeTypes": null, "cookTypes": null, "orderNum": 1000, "card4no": null, "card4noAcc": null, "district2": 418, "searchScope": null, "status": 1, "address": "\u8fdb\u8d24\u8def192\u53f71\u697c", "name": "\u7b80\u6734\u68ee\u9762\u5305\u623f\uff08Jepson\uff09 \u8fdb\u8d24\u8def\u5e97", "id": 177502, "pageNo": 0, "pageCount": null, "pageSize": 10, "ids": null, "endTime": null, "startTime": null}, {"cardNumFive": null, "isSupportYj": null, "cityName": null, "districtName": null, "shopinfo": {"mid": "888888854410053", "good_flag": null, "new_flag": null, "short_name": "\u7b80\u6734\u68ee\u9762\u5305\u623f\uff08Jepson\uff09", "short_name_pinyin": "jianpusenmianbaofang\uff08jepson\uff09", "status": null, "address": null, "name": null, "id": "32044"}, "mid": "888888854410053", "shopId": "32044", "netid": null, "province": 901, "district": 601, "zipcode": null, "telephone": "67353695", "posDate": null, "destineTel": null, "togoTel": null, "trafficWay": null, "signBuilding": null, "businessArea": null, "selfRoom": null, "businessTime": null, "stall": null, "consume": null, "serviceFei": null, "favourable": null, "shopMemo": null, "appraise": null, "website": null, "memo": null, "payTypes": "\u6749\u5fb7\u5361", "shopTypes": "\u9762\u5305\u897f\u997c", "consumeTypes": null, "cookTypes": null, "orderNum": 1000, "card4no": null, "card4noAcc": null, "district2": 414, "searchScope": null, "status": 1, "address": "\u9f99\u80dc\u8def196\u53f7", "name": "\u7b80\u6734\u68ee\u9762\u5305\u623f\uff08Jepson\uff09 \u9f99\u80dc\u8def\u5e97", "id": 177504, "pageNo": 0, "pageCount": null, "pageSize": 10, "ids": null, "endTime": null, "startTime": null}], "pageLimit": 3580, "size": 10}