{"pageCount": 1095, "count": 10942, "pageNo": 358, "subShopInfo": {"cardNumFive": "", "isSupportYj": "", "cityName": null, "districtName": null, "shopinfo": {"mid": null, "good_flag": null, "new_flag": null, "short_name": null, "short_name_pinyin": null, "status": null, "address": "", "name": "", "id": null}, "mid": null, "shopId": null, "netid": null, "province": 901, "district": null, "zipcode": null, "telephone": null, "posDate": null, "destineTel": null, "togoTel": null, "trafficWay": null, "signBuilding": null, "businessArea": null, "selfRoom": null, "businessTime": null, "stall": null, "consume": null, "serviceFei": null, "favourable": null, "shopMemo": "1", "appraise": null, "website": null, "memo": null, "payTypes": "", "shopTypes": "", "consumeTypes": null, "cookTypes": null, "orderNum": null, "card4no": null, "card4noAcc": null, "district2": null, "searchScope": null, "status": null, "address": "", "name": null, "id": null, "pageNo": 357, "pageCount": null, "pageSize": 10, "ids": null, "endTime": null, "startTime": null}, "list": [{"cardNumFive": null, "isSupportYj": null, "cityName": null, "districtName": null, "shopinfo": {"mid": "888888859770023", "good_flag": null, "new_flag": null, "short_name": "\u5bb6\u9686\u540d\u5986", "short_name_pinyin": "jialongmingzhuang", "status": null, "address": null, "name": null, "id": "39230"}, "mid": "888888859770023", "shopId": "39230", "netid": null, "province": 901, "district": 601, "zipcode": null, "telephone": null, "posDate": null, "destineTel": null, "togoTel": null, "trafficWay": null, "signBuilding": null, "businessArea": null, "selfRoom": null, "businessTime": null, "stall": null, "consume": null, "serviceFei": null, "favourable": null, "shopMemo": null, "appraise": null, "website": null, "memo": null, "payTypes": "\u6749\u5fb7\u5361", "shopTypes": "\u4e13\u5356", "consumeTypes": null, "cookTypes": null, "orderNum": 1000, "card4no": null, "card4noAcc": null, "district2": 407, "searchScope": null, "status": 1, "address": "\u90af\u90f8\u8def587\u53f7", "name": "\u5bb6\u9686\u540d\u5986 \u90af\u90f8\u5e97", "id": 167428, "pageNo": 0, "pageCount": null, "pageSize": 10, "ids": null, "endTime": null, "startTime": null}, {"cardNumFive": null, "isSupportYj": null, "cityName": null, "districtName": null, "shopinfo": {"mid": "888888857190010", "good_flag": "1", "new_flag": "2", "short_name": "\u526a\u5200\u77f3\u5934\u5e03", "short_name_pinyin": "jiandaoshitoubu", "status": null, "address": null, "name": null, "id": "32042"}, "mid": "888888857190010", "shopId": "32042", "netid": null, "province": 901, "district": 601, "zipcode": null, "telephone": "64056890", "posDate": "20071011", "destineTel": null, "togoTel": null, "trafficWay": "\u516c\u4ea4776 69 548", "signBuilding": "\u6613\u521d\u83b2\u82b1", "businessArea": "60000\u5e73\u65b9\u7c73", "selfRoom": null, "businessTime": null, "stall": "\u6709", "consume": null, "serviceFei": null, "favourable": null, "shopMemo": null, "appraise": null, "website": null, "memo": null, "payTypes": ",\u6749\u5fb7\u5361", "shopTypes": "\u4e13\u5356", "consumeTypes": null, "cookTypes": null, "orderNum": 1000, "card4no": null, "card4noAcc": null, "district2": 409, "searchScope": null, "status": 1, "address": "\u5434\u4e2d\u8def1263\u53f7A/B\u99861-3\u697c", "name": "\u526a\u5200\u77f3\u5934\u5e03 \u5434\u4e2d\u8def\u5e97", "id": 136511, "pageNo": 0, "pageCount": null, "pageSize": 10, "ids": null, "endTime": null, "startTime": null}, {"cardNumFive": null, "isSupportYj": null, "cityName": null, "districtName": null, "shopinfo": {"mid": "888888858120163", "good_flag": "2", "new_flag": "2", "short_name": "\u6c5f\u5357\u6751\u9152\u5bb6", "short_name_pinyin": "jiangnancunjiujia", "status": null, "address": null, "name": null, "id": "32047"}, "mid": "888888858120163", "shopId": "32047", "netid": null, "province": 901, "district": 601, "zipcode": null, "telephone": "63173638", "posDate": null, "destineTel": null, "togoTel": null, "trafficWay": null, "signBuilding": null, "businessArea": null, "selfRoom": null, "businessTime": null, "stall": null, "consume": null, "serviceFei": null, "favourable": null, "shopMemo": null, "appraise": null, "website": null, "memo": null, "payTypes": "", "shopTypes": "\u9910\u996e", "consumeTypes": null, "cookTypes": null, "orderNum": 1000, "card4no": null, "card4noAcc": null, "district2": 410, "searchScope": null, "status": 1, "address": "\u957f\u5b89\u8def1033\u53f7", "name": "\u6c5f\u5357\u6751\u9152\u5bb6 \u957f\u5b89\u8def\u5e97", "id": 136522, "pageNo": 0, "pageCount": null, "pageSize": 10, "ids": null, "endTime": null, "startTime": null}, {"cardNumFive": null, "isSupportYj": null, "cityName": null, "districtName": null, "shopinfo": {"mid": "888888854410053", "good_flag": null, "new_flag": null, "short_name": "\u7b80\u6734\u68ee\u9762\u5305\u623f\uff08Jepson\uff09", "short_name_pinyin": "jianpusenmianbaofang\uff08jepson\uff09", "status": null, "address": null, "name": null, "id": "32044"}, "mid": "888888854410053", "shopId": "32044", "netid": null, "province": 901, "district": 601, "zipcode": null, "telephone": "58625093", "posDate": "200908", "destineTel": null, "togoTel": null, "trafficWay": "\u516c\u4ea4453\u8def\u3001\u9ad8\u5ddd\u4e13\u7ebf", "signBuilding": null, "businessArea": null, "selfRoom": null, "businessTime": null, "stall": null, "consume": null, "serviceFei": null, "favourable": null, "shopMemo": null, "appraise": null, "website": null, "memo": null, "payTypes": "\u6749\u5fb7\u5361", "shopTypes": "\u9762\u5305\u897f\u997c", "consumeTypes": null, "cookTypes": null, "orderNum": 1000, "card4no": null, "card4noAcc": null, "district2": 418, "searchScope": null, "status": 1, "address": "\u9ad8\u6865\u9547\u5b63\u666f\u8def15\u53f7\u5546\u94fa", "name": "\u7b80\u6734\u68ee\u9762\u5305\u623f\uff08Jepson\uff09 \u5b63\u666f\u8def\u5e97", "id": 136514, "pageNo": 0, "pageCount": null, "pageSize": 10, "ids": null, "endTime": null, "startTime": null}, {"cardNumFive": null, "isSupportYj": null, "cityName": null, "districtName": null, "shopinfo": {"mid": "888888854410053", "good_flag": null, "new_flag": null, "short_name": "\u7b80\u6734\u68ee\u9762\u5305\u623f\uff08Jepson\uff09", "short_name_pinyin": "jianpusenmianbaofang\uff08jepson\uff09", "status": null, "address": null, "name": null, "id": "32044"}, "mid": "888888854410053", "shopId": "32044", "netid": null, "province": 901, "district": 601, "zipcode": null, "telephone": "58909597", "posDate": "20070907", "destineTel": null, "togoTel": null, "trafficWay": "\u5f90\u5ddd\u7ebf \u4e0a\u5ddd\u7ebf", "signBuilding": null, "businessArea": "80\u5e73\u65b9\u7c73", "selfRoom": null, "businessTime": "7:00~21:00", "stall": null, "consume": null, "serviceFei": null, "favourable": null, "shopMemo": null, "appraise": null, "website": null, "memo": null, "payTypes": "\u6749\u5fb7\u5361", "shopTypes": "\u9762\u5305\u897f\u997c", "consumeTypes": null, "cookTypes": null, "orderNum": 1000, "card4no": null, "card4noAcc": null, "district2": 418, "searchScope": null, "status": 1, "address": "\u5ddd\u6c99\u9547\u65b0\u5fb7\u8def603\u53f7", "name": "\u7b80\u6734\u68ee\u9762\u5305\u623f\uff08Jepson\uff09 \u65b0\u5fb7\u8def\u5e97", "id": 136516, "pageNo": 0, "pageCount": null, "pageSize": 10, "ids": null, "endTime": null, "startTime": null}, {"cardNumFive": null, "isSupportYj": null, "cityName": null, "districtName": null, "shopinfo": {"mid": "888888854410053", "good_flag": null, "new_flag": null, "short_name": "\u7b80\u6734\u68ee\u9762\u5305\u623f\uff08Jepson\uff09", "short_name_pinyin": "jianpusenmianbaofang\uff08jepson\uff09", "status": null, "address": null, "name": null, "id": "32044"}, "mid": "888888854410053", "shopId": "32044", "netid": null, "province": 901, "district": 601, "zipcode": null, "telephone": "58908786", "posDate": "20090323", "destineTel": null, "togoTel": null, "trafficWay": null, "signBuilding": null, "businessArea": null, "selfRoom": null, "businessTime": null, "stall": null, "consume": null, "serviceFei": null, "favourable": null, "shopMemo": null, "appraise": null, "website": null, "memo": null, "payTypes": "\u6749\u5fb7\u5361", "shopTypes": "\u9762\u5305\u897f\u997c", "consumeTypes": null, "cookTypes": null, "orderNum": 1000, "card4no": null, "card4noAcc": null, "district2": 418, "searchScope": null, "status": 1, "address": "\u5ddd\u6c99\u534e\u590f\u4e1c\u8def2239\u53f7", "name": "\u7b80\u6734\u68ee\u9762\u5305\u623f\uff08Jepson\uff09 \u6613\u521d\u83b2\u82b1\u5e97", "id": 136517, "pageNo": 0, "pageCount": null, "pageSize": 10, "ids": null, "endTime": null, "startTime": null}, {"cardNumFive": null, "isSupportYj": null, "cityName": null, "districtName": null, "shopinfo": {"mid": "888888854410053", "good_flag": null, "new_flag": null, "short_name": "\u7b80\u6734\u68ee\u9762\u5305\u623f\uff08Jepson\uff09", "short_name_pinyin": "jianpusenmianbaofang\uff08jepson\uff09", "status": null, "address": null, "name": null, "id": "32044"}, "mid": "888888854410053", "shopId": "32044", "netid": null, "province": 901, "district": 601, "zipcode": null, "telephone": "51873330", "posDate": "20080718", "destineTel": null, "togoTel": null, "trafficWay": null, "signBuilding": null, "businessArea": null, "selfRoom": null, "businessTime": null, "stall": null, "consume": null, "serviceFei": null, "favourable": null, "shopMemo": null, "appraise": null, "website": null, "memo": null, "payTypes": "\u6749\u5fb7\u5361", "shopTypes": "\u9762\u5305\u897f\u997c", "consumeTypes": null, "cookTypes": null, "orderNum": 1000, "card4no": null, "card4noAcc": null, "district2": 418, "searchScope": null, "status": 1, "address": "\u7d2b\u8587\u8def199\u53f7", "name": "\u7b80\u6734\u68ee\u9762\u5305\u623f\uff08Jepson\uff09 \u7d2b\u8587\u8def\u5e97", "id": 136518, "pageNo": 0, "pageCount": null, "pageSize": 10, "ids": null, "endTime": null, "startTime": null}, {"cardNumFive": null, "isSupportYj": null, "cityName": null, "districtName": null, "shopinfo": {"mid": "888888854410053", "good_flag": null, "new_flag": null, "short_name": "\u7b80\u6734\u68ee\u9762\u5305\u623f\uff08Jepson\uff09", "short_name_pinyin": "jianpusenmianbaofang\uff08jepson\uff09", "status": null, "address": null, "name": null, "id": "36186"}, "mid": "888888854410053", "shopId": "36186", "netid": null, "province": 901, "district": 601, "zipcode": null, "telephone": "57105227", "posDate": "20100727", "destineTel": null, "togoTel": null, "trafficWay": null, "signBuilding": null, "businessArea": null, "selfRoom": null, "businessTime": null, "stall": null, "consume": null, "serviceFei": null, "favourable": null, "shopMemo": null, "appraise": null, "website": null, "memo": null, "payTypes": "\u6749\u5fb7\u5361", "shopTypes": "\u9762\u5305\u897f\u997c", "consumeTypes": null, "cookTypes": null, "orderNum": 1000, "card4no": null, "card4noAcc": null, "district2": 413, "searchScope": null, "status": 1, "address": "\u5357\u6865\u9547\u4eba\u6c11\u5357\u8def185-1", "name": "\u7b80\u6734\u68ee\u9762\u5305\u623f\uff08Jepson\uff09 \u4eba\u6c11\u5357\u8def\u5e97", "id": 150754, "pageNo": 0, "pageCount": null, "pageSize": 10, "ids": null, "endTime": null, "startTime": null}, {"cardNumFive": null, "isSupportYj": null, "cityName": null, "districtName": null, "shopinfo": {"mid": "888888854410053", "good_flag": null, "new_flag": null, "short_name": "\u7b80\u6734\u68ee\u9762\u5305\u623f\uff08Jepson\uff09", "short_name_pinyin": "jianpusenmianbaofang\uff08jepson\uff09", "status": null, "address": null, "name": null, "id": "36186"}, "mid": "888888854410053", "shopId": "36186", "netid": null, "province": 901, "district": 601, "zipcode": null, "telephone": null, "posDate": "20100727", "destineTel": null, "togoTel": null, "trafficWay": null, "signBuilding": null, "businessArea": null, "selfRoom": null, "businessTime": null, "stall": null, "consume": null, "serviceFei": null, "favourable": null, "shopMemo": null, "appraise": null, "website": null, "memo": null, "payTypes": "\u6749\u5fb7\u5361", "shopTypes": "\u9762\u5305\u897f\u997c", "consumeTypes": null, "cookTypes": null, "orderNum": 1000, "card4no": null, "card4noAcc": null, "district2": 418, "searchScope": null, "status": 1, "address": "\u5ddd\u6c99\u57ce\u5357\u8def759-761\u53f7", "name": "\u7b80\u6734\u68ee\u9762\u5305\u623f\uff08Jepson\uff09 \u57ce\u5357\u8def\u5e97", "id": 150755, "pageNo": 0, "pageCount": null, "pageSize": 10, "ids": null, "endTime": null, "startTime": null}, {"cardNumFive": null, "isSupportYj": null, "cityName": null, "districtName": null, "shopinfo": {"mid": "888888854410053", "good_flag": null, "new_flag": null, "short_name": "\u7b80\u6734\u68ee\u9762\u5305\u623f\uff08Jepson\uff09", "short_name_pinyin": "jianpusenmianbaofang\uff08jepson\uff09", "status": null, "address": null, "name": null, "id": "36494"}, "mid": "888888854410053", "shopId": "36494", "netid": null, "province": 901, "district": 601, "zipcode": null, "telephone": null, "posDate": "20100912", "destineTel": null, "togoTel": null, "trafficWay": null, "signBuilding": null, "businessArea": null, "selfRoom": null, "businessTime": null, "stall": null, "consume": null, "serviceFei": null, "favourable": null, "shopMemo": null, "appraise": null, "website": null, "memo": null, "payTypes": "\u6749\u5fb7\u5361", "shopTypes": "\u9762\u5305\u897f\u997c", "consumeTypes": null, "cookTypes": null, "orderNum": 1000, "card4no": null, "card4noAcc": null, "district2": 418, "searchScope": null, "status": 1, "address": "\u535a\u5c71\u8def25\u53f7", "name": "\u7b80\u6734\u68ee\u9762\u5305\u623f\uff08Jepson\uff09 \u535a\u5c71\u8def\u5e97", "id": 151761, "pageNo": 0, "pageCount": null, "pageSize": 10, "ids": null, "endTime": null, "startTime": null}], "pageLimit": 3570, "size": 10}