{"pageCount": 1095, "count": 10942, "pageNo": 356, "subShopInfo": {"cardNumFive": "", "isSupportYj": "", "cityName": null, "districtName": null, "shopinfo": {"mid": null, "good_flag": null, "new_flag": null, "short_name": null, "short_name_pinyin": null, "status": null, "address": "", "name": "", "id": null}, "mid": null, "shopId": null, "netid": null, "province": 901, "district": null, "zipcode": null, "telephone": null, "posDate": null, "destineTel": null, "togoTel": null, "trafficWay": null, "signBuilding": null, "businessArea": null, "selfRoom": null, "businessTime": null, "stall": null, "consume": null, "serviceFei": null, "favourable": null, "shopMemo": "1", "appraise": null, "website": null, "memo": null, "payTypes": "", "shopTypes": "", "consumeTypes": null, "cookTypes": null, "orderNum": null, "card4no": null, "card4noAcc": null, "district2": null, "searchScope": null, "status": null, "address": "", "name": null, "id": null, "pageNo": 355, "pageCount": null, "pageSize": 10, "ids": null, "endTime": null, "startTime": null}, "list": [{"cardNumFive": null, "isSupportYj": null, "cityName": null, "districtName": null, "shopinfo": {"mid": "888888859770023", "good_flag": "2", "new_flag": "1", "short_name": "\u5bb6\u9686\u540d\u5986", "short_name_pinyin": "jialongmingzhuang", "status": null, "address": null, "name": null, "id": "32032"}, "mid": "888888859770023", "shopId": "32032", "netid": null, "province": 901, "district": 601, "zipcode": null, "telephone": "53011097", "posDate": "20080117", "destineTel": null, "togoTel": null, "trafficWay": "\u516c\u4ea489 \u96a7\u9053\u516b\u7ebf 24 23", "signBuilding": null, "businessArea": null, "selfRoom": null, "businessTime": "\u65e5\u591c\u670d\u52a1", "stall": null, "consume": null, "serviceFei": null, "favourable": null, "shopMemo": null, "appraise": null, "website": null, "memo": null, "payTypes": "\u6749\u5fb7\u5361", "shopTypes": "\u4e13\u5356", "consumeTypes": null, "cookTypes": null, "orderNum": 1000, "card4no": null, "card4noAcc": null, "district2": 401, "searchScope": null, "status": 1, "address": "\u77bf\u6eaa\u8def920\u53f7", "name": "\u5bb6\u9686\u540d\u5986 \u77bf\u6eaa\u5e97", "id": 136463, "pageNo": 0, "pageCount": null, "pageSize": 10, "ids": null, "endTime": null, "startTime": null}, {"cardNumFive": null, "isSupportYj": null, "cityName": null, "districtName": null, "shopinfo": {"mid": "888888859770023", "good_flag": "2", "new_flag": "1", "short_name": "\u5bb6\u9686\u540d\u5986", "short_name_pinyin": "jialongmingzhuang", "status": null, "address": null, "name": null, "id": "32032"}, "mid": "888888859770023", "shopId": "32032", "netid": null, "province": 901, "district": 601, "zipcode": null, "telephone": "51962539", "posDate": "20080108", "destineTel": null, "togoTel": null, "trafficWay": "\u5730\u94c1\u4e8c\u53f7\u7ebf \u5927\u6865\u4e8c\u7ebf", "signBuilding": null, "businessArea": "300\u5e73\u65b9\u7c73", "selfRoom": null, "businessTime": "\u65e5\u591c\u670d\u52a1", "stall": "\u65e0", "consume": null, "serviceFei": null, "favourable": null, "shopMemo": null, "appraise": null, "website": null, "memo": null, "payTypes": "\u6749\u5fb7\u5361", "shopTypes": "\u4e13\u5356", "consumeTypes": null, "cookTypes": null, "orderNum": 1000, "card4no": null, "card4noAcc": null, "district2": 418, "searchScope": null, "status": 1, "address": "\u4e16\u7eaa\u5927\u90532002\u53f7\u5357F-02", "name": "\u5bb6\u9686\u540d\u5986 \u79d1\u6280\u5e97", "id": 136464, "pageNo": 0, "pageCount": null, "pageSize": 10, "ids": null, "endTime": null, "startTime": null}, {"cardNumFive": null, "isSupportYj": null, "cityName": null, "districtName": null, "shopinfo": {"mid": "888888859770023", "good_flag": "2", "new_flag": "1", "short_name": "\u5bb6\u9686\u540d\u5986", "short_name_pinyin": "jialongmingzhuang", "status": null, "address": null, "name": null, "id": "32032"}, "mid": "888888859770023", "shopId": "32032", "netid": null, "province": 901, "district": 601, "zipcode": null, "telephone": "66970960", "posDate": "20080108", "destineTel": null, "togoTel": null, "trafficWay": "\u516c\u4ea4253 951 \u5730\u94c1\u4e00\u53f7\u7ebf", "signBuilding": null, "businessArea": "300\u5e73\u65b9\u7c73", "selfRoom": null, "businessTime": "\u65e5\u591c\u670d\u52a1", "stall": "\u65e0", "consume": null, "serviceFei": null, "favourable": null, "shopMemo": null, "appraise": null, "website": null, "memo": null, "payTypes": "\u6749\u5fb7\u5361", "shopTypes": "\u4e13\u5356", "consumeTypes": null, "cookTypes": null, "orderNum": 1000, "card4no": null, "card4noAcc": null, "district2": 410, "searchScope": null, "status": 1, "address": "\u4e34\u6c7e\u8def708\u53f7", "name": "\u5bb6\u9686\u540d\u5986 \u4e34\u6c7e\u5e97", "id": 136465, "pageNo": 0, "pageCount": null, "pageSize": 10, "ids": null, "endTime": null, "startTime": null}, {"cardNumFive": null, "isSupportYj": null, "cityName": null, "districtName": null, "shopinfo": {"mid": "888888859770023", "good_flag": "2", "new_flag": "1", "short_name": "\u5bb6\u9686\u540d\u5986", "short_name_pinyin": "jialongmingzhuang", "status": null, "address": null, "name": null, "id": "32032"}, "mid": "888888859770023", "shopId": "32032", "netid": null, "province": 901, "district": 601, "zipcode": null, "telephone": null, "posDate": "20080515", "destineTel": null, "togoTel": null, "trafficWay": "\u516c\u4ea4952 952B \u5b9d\u6768\u7801\u5934\u4e13\u7ebf", "signBuilding": null, "businessArea": null, "selfRoom": null, "businessTime": "\u65e5\u591c\u670d\u52a1", "stall": null, "consume": null, "serviceFei": null, "favourable": null, "shopMemo": null, "appraise": null, "website": null, "memo": null, "payTypes": "\u6749\u5fb7\u5361", "shopTypes": "\u4e13\u5356", "consumeTypes": null, "cookTypes": null, "orderNum": 1000, "card4no": null, "card4noAcc": null, "district2": 416, "searchScope": null, "status": 1, "address": "\u7261\u4e39\u6c5f\u8def1599\u53f7\u5317\u7ffc\u5546\u573aA-1232\u53f7", "name": "\u5bb6\u9686\u540d\u5986 \u7261\u4e39\u6c5f\u8def\u5e97", "id": 136466, "pageNo": 0, "pageCount": null, "pageSize": 10, "ids": null, "endTime": null, "startTime": null}, {"cardNumFive": null, "isSupportYj": null, "cityName": null, "districtName": null, "shopinfo": {"mid": "888888859770023", "good_flag": "2", "new_flag": "1", "short_name": "\u5bb6\u9686\u540d\u5986", "short_name_pinyin": "jialongmingzhuang", "status": null, "address": null, "name": null, "id": "32032"}, "mid": "888888859770023", "shopId": "32032", "netid": null, "province": 901, "district": 601, "zipcode": null, "telephone": "54039797", "posDate": "20080109", "destineTel": null, "togoTel": null, "trafficWay": "\u5357\u65b0\u7ebf \u65c5\u6e382\u53f7\u7ebf \u6caa\u5357\u7ebf", "signBuilding": null, "businessArea": null, "selfRoom": null, "businessTime": "\u65e5\u591c\u670d\u52a1", "stall": null, "consume": null, "serviceFei": null, "favourable": null, "shopMemo": null, "appraise": null, "website": null, "memo": null, "payTypes": "\u6749\u5fb7\u5361", "shopTypes": "\u4e13\u5356", "consumeTypes": null, "cookTypes": null, "orderNum": 1000, "card4no": null, "card4noAcc": null, "district2": 418, "searchScope": null, "status": 1, "address": "\u60e0\u5357\u9547\u4e1c\u95e8\u5927\u8857384\u53f71\u697c", "name": "\u5bb6\u9686\u540d\u5986 \u5357\u6c47\u5e97", "id": 136467, "pageNo": 0, "pageCount": null, "pageSize": 10, "ids": null, "endTime": null, "startTime": null}, {"cardNumFive": null, "isSupportYj": null, "cityName": null, "districtName": null, "shopinfo": {"mid": "888888859770023", "good_flag": "2", "new_flag": "1", "short_name": "\u5bb6\u9686\u540d\u5986", "short_name_pinyin": "jialongmingzhuang", "status": null, "address": null, "name": null, "id": "32032"}, "mid": "888888859770023", "shopId": "32032", "netid": null, "province": 901, "district": 601, "zipcode": null, "telephone": "54670177", "posDate": "200911", "destineTel": null, "togoTel": null, "trafficWay": null, "signBuilding": null, "businessArea": null, "selfRoom": null, "businessTime": "\u65e5\u591c\u670d\u52a1", "stall": null, "consume": null, "serviceFei": null, "favourable": null, "shopMemo": null, "appraise": null, "website": null, "memo": null, "payTypes": "\u6749\u5fb7\u5361", "shopTypes": "\u4e13\u5356", "consumeTypes": null, "cookTypes": null, "orderNum": 1000, "card4no": null, "card4noAcc": null, "district2": 418, "searchScope": null, "status": 1, "address": "\u60e0\u5357\u9547\u5357\u95e8\u5927\u885718\u53f7\u4e50\u8d2d\u4e09\u697c", "name": "\u5bb6\u9686\u540d\u5986 \u5357\u6c47\u4e50\u8d2d\u5e97", "id": 136468, "pageNo": 0, "pageCount": null, "pageSize": 10, "ids": null, "endTime": null, "startTime": null}, {"cardNumFive": null, "isSupportYj": null, "cityName": null, "districtName": null, "shopinfo": {"mid": "888888859770023", "good_flag": "2", "new_flag": "1", "short_name": "\u5bb6\u9686\u540d\u5986", "short_name_pinyin": "jialongmingzhuang", "status": null, "address": null, "name": null, "id": "32032"}, "mid": "888888859770023", "shopId": "32032", "netid": null, "province": 901, "district": 601, "zipcode": null, "telephone": "54670177", "posDate": "20080909", "destineTel": null, "togoTel": null, "trafficWay": "\u516c\u4ea449 108 \u5730\u94c1\u516b\u53f7\u7ebf", "signBuilding": null, "businessArea": null, "selfRoom": null, "businessTime": "\u65e5\u591c\u670d\u52a1", "stall": null, "consume": null, "serviceFei": null, "favourable": null, "shopMemo": null, "appraise": null, "website": null, "memo": null, "payTypes": "\u6749\u5fb7\u5361", "shopTypes": "\u4e13\u5356", "consumeTypes": null, "cookTypes": null, "orderNum": 1000, "card4no": null, "card4noAcc": null, "district2": 401, "searchScope": null, "status": 1, "address": "\u666e\u5b89\u8def10\u53f7", "name": "\u5bb6\u9686\u540d\u5986 \u666e\u5b89\u5e97", "id": 136471, "pageNo": 0, "pageCount": null, "pageSize": 10, "ids": null, "endTime": null, "startTime": null}, {"cardNumFive": null, "isSupportYj": null, "cityName": null, "districtName": null, "shopinfo": {"mid": "888888859770023", "good_flag": "2", "new_flag": "1", "short_name": "\u5bb6\u9686\u540d\u5986", "short_name_pinyin": "jialongmingzhuang", "status": null, "address": null, "name": null, "id": "32032"}, "mid": "888888859770023", "shopId": "32032", "netid": null, "province": 901, "district": 601, "zipcode": null, "telephone": "63076404", "posDate": "20080104", "destineTel": null, "togoTel": null, "trafficWay": "\u65c5\u6e3810\u53f7\u7ebf \u516c\u4ea415 \u5730\u94c1\u4e8c\u53f7\u7ebf", "signBuilding": null, "businessArea": null, "selfRoom": null, "businessTime": null, "stall": null, "consume": null, "serviceFei": null, "favourable": null, "shopMemo": null, "appraise": null, "website": null, "memo": null, "payTypes": "\u6749\u5fb7\u5361", "shopTypes": "\u4e13\u5356", "consumeTypes": null, "cookTypes": null, "orderNum": 1000, "card4no": null, "card4noAcc": null, "district2": 401, "searchScope": null, "status": 1, "address": "\u6cb3\u5357\u5317\u8def\u6cbf\u885711\u53f7\u5174\u65fa\u56fd\u9645\u670d\u9970\u57ce", "name": "\u5bb6\u9686\u540d\u5986 \u4e03\u6d66\u5e97", "id": 136472, "pageNo": 0, "pageCount": null, "pageSize": 10, "ids": null, "endTime": null, "startTime": null}, {"cardNumFive": null, "isSupportYj": null, "cityName": null, "districtName": null, "shopinfo": {"mid": "888888859770023", "good_flag": "2", "new_flag": "1", "short_name": "\u5bb6\u9686\u540d\u5986", "short_name_pinyin": "jialongmingzhuang", "status": null, "address": null, "name": null, "id": "32032"}, "mid": "888888859770023", "shopId": "32032", "netid": null, "province": 901, "district": 601, "zipcode": null, "telephone": "55880644", "posDate": "20080108", "destineTel": null, "togoTel": null, "trafficWay": "\u65c5\u6e3810\u53f7\u7ebf \u516c\u4ea4933 \u5730\u94c1\u516b\u53f7\u7ebf", "signBuilding": null, "businessArea": "300\u5e73\u65b9\u7c73", "selfRoom": null, "businessTime": null, "stall": "\u65e0", "consume": null, "serviceFei": null, "favourable": null, "shopMemo": null, "appraise": null, "website": null, "memo": null, "payTypes": "\u6749\u5fb7\u5361", "shopTypes": "\u4e13\u5356", "consumeTypes": null, "cookTypes": null, "orderNum": 1000, "card4no": null, "card4noAcc": null, "district2": 408, "searchScope": null, "status": 1, "address": "\u66f2\u9633\u8def566\u53f7", "name": "\u5bb6\u9686\u540d\u5986 \u66f2\u9633\u5e97", "id": 136473, "pageNo": 0, "pageCount": null, "pageSize": 10, "ids": null, "endTime": null, "startTime": null}, {"cardNumFive": null, "isSupportYj": null, "cityName": null, "districtName": null, "shopinfo": {"mid": "888888859770023", "good_flag": "2", "new_flag": "1", "short_name": "\u5bb6\u9686\u540d\u5986", "short_name_pinyin": "jialongmingzhuang", "status": null, "address": null, "name": null, "id": "32032"}, "mid": "888888859770023", "shopId": "32032", "netid": null, "province": 901, "district": 601, "zipcode": null, "telephone": "54039797", "posDate": "20080104", "destineTel": null, "togoTel": null, "trafficWay": "\u5730\u94c1\u4e00\u53f7\u7ebf \u65c5\u6e3810\u53f7\u7ebf \u516c\u4ea402", "signBuilding": null, "businessArea": null, "selfRoom": null, "businessTime": null, "stall": null, "consume": null, "serviceFei": null, "favourable": null, "shopMemo": null, "appraise": null, "website": null, "memo": null, "payTypes": "\u6749\u5fb7\u5361", "shopTypes": "\u4e13\u5356", "consumeTypes": null, "cookTypes": null, "orderNum": 1000, "card4no": null, "card4noAcc": null, "district2": 403, "searchScope": null, "status": 1, "address": "\u9655\u897f\u5357\u8def238\u53f7202\u5ba4", "name": "\u5bb6\u9686\u540d\u5986 \u9655\u897f\u5357\u8def\u5e97", "id": 136475, "pageNo": 0, "pageCount": null, "pageSize": 10, "ids": null, "endTime": null, "startTime": null}], "pageLimit": 3550, "size": 10}