{"pageCount": 1095, "count": 10942, "pageNo": 354, "subShopInfo": {"cardNumFive": "", "isSupportYj": "", "cityName": null, "districtName": null, "shopinfo": {"mid": null, "good_flag": null, "new_flag": null, "short_name": null, "short_name_pinyin": null, "status": null, "address": "", "name": "", "id": null}, "mid": null, "shopId": null, "netid": null, "province": 901, "district": null, "zipcode": null, "telephone": null, "posDate": null, "destineTel": null, "togoTel": null, "trafficWay": null, "signBuilding": null, "businessArea": null, "selfRoom": null, "businessTime": null, "stall": null, "consume": null, "serviceFei": null, "favourable": null, "shopMemo": "1", "appraise": null, "website": null, "memo": null, "payTypes": "", "shopTypes": "", "consumeTypes": null, "cookTypes": null, "orderNum": null, "card4no": null, "card4noAcc": null, "district2": null, "searchScope": null, "status": null, "address": "", "name": null, "id": null, "pageNo": 353, "pageCount": null, "pageSize": 10, "ids": null, "endTime": null, "startTime": null}, "list": [{"cardNumFive": null, "isSupportYj": null, "cityName": null, "districtName": null, "shopinfo": {"mid": "888898854110022", "good_flag": null, "new_flag": null, "short_name": "\u5bb6\u4e50\u798f", "short_name_pinyin": "jialefu", "status": null, "address": null, "name": null, "id": "44079"}, "mid": "888898854110022", "shopId": "44079", "netid": null, "province": 901, "district": 601, "zipcode": null, "telephone": null, "posDate": null, "destineTel": null, "togoTel": null, "trafficWay": null, "signBuilding": null, "businessArea": null, "selfRoom": null, "businessTime": null, "stall": null, "consume": null, "serviceFei": null, "favourable": null, "shopMemo": null, "appraise": null, "website": null, "memo": null, "payTypes": "\u6749\u5fb7\u65af\u739b\u7279\u5361", "shopTypes": "\u8d85\u5e02", "consumeTypes": null, "cookTypes": null, "orderNum": 1000, "card4no": null, "card4noAcc": null, "district2": 416, "searchScope": null, "status": 1, "address": "\u5171\u548c\u65b0\u8def5219\u53f7", "name": "\u5bb6\u4e50\u798f \u4e0a\u6d77\u5171\u6c5f\u5e97", "id": 202502, "pageNo": 0, "pageCount": null, "pageSize": 10, "ids": null, "endTime": null, "startTime": null}, {"cardNumFive": null, "isSupportYj": null, "cityName": null, "districtName": null, "shopinfo": {"mid": "888898854110023", "good_flag": null, "new_flag": null, "short_name": "\u5bb6\u4e50\u798f", "short_name_pinyin": "jialefu", "status": null, "address": null, "name": null, "id": "44080"}, "mid": "888898854110023", "shopId": "44080", "netid": null, "province": 901, "district": 601, "zipcode": null, "telephone": null, "posDate": null, "destineTel": null, "togoTel": null, "trafficWay": null, "signBuilding": null, "businessArea": null, "selfRoom": null, "businessTime": null, "stall": null, "consume": null, "serviceFei": null, "favourable": null, "shopMemo": null, "appraise": null, "website": null, "memo": null, "payTypes": "\u6749\u5fb7\u65af\u739b\u7279\u5361", "shopTypes": "\u8d85\u5e02", "consumeTypes": null, "cookTypes": null, "orderNum": 1000, "card4no": null, "card4noAcc": null, "district2": 418, "searchScope": null, "status": 1, "address": "\u82b3\u7538\u8def185\u53f7", "name": "\u5bb6\u4e50\u798f \u4e0a\u6d77\u8054\u6d0b\u5e97", "id": 202503, "pageNo": 0, "pageCount": null, "pageSize": 10, "ids": null, "endTime": null, "startTime": null}, {"cardNumFive": null, "isSupportYj": null, "cityName": null, "districtName": null, "shopinfo": {"mid": "888898854110024", "good_flag": null, "new_flag": null, "short_name": "\u5bb6\u4e50\u798f", "short_name_pinyin": "jialefu", "status": null, "address": null, "name": null, "id": "44081"}, "mid": "888898854110024", "shopId": "44081", "netid": null, "province": 901, "district": 601, "zipcode": null, "telephone": null, "posDate": null, "destineTel": null, "togoTel": null, "trafficWay": null, "signBuilding": null, "businessArea": null, "selfRoom": null, "businessTime": null, "stall": null, "consume": null, "serviceFei": null, "favourable": null, "shopMemo": null, "appraise": null, "website": null, "memo": null, "payTypes": "\u6749\u5fb7\u65af\u739b\u7279\u5361", "shopTypes": "\u8d85\u5e02", "consumeTypes": null, "cookTypes": null, "orderNum": 1000, "card4no": null, "card4noAcc": null, "district2": 408, "searchScope": null, "status": 1, "address": "\u66f2\u9633\u8def550\u53f7", "name": "\u5bb6\u4e50\u798f \u4e0a\u6d77\u66f2\u9633\u5e97", "id": 202504, "pageNo": 0, "pageCount": null, "pageSize": 10, "ids": null, "endTime": null, "startTime": null}, {"cardNumFive": null, "isSupportYj": null, "cityName": null, "districtName": null, "shopinfo": {"mid": "888898854110036", "good_flag": null, "new_flag": null, "short_name": "\u5bb6\u4e50\u798f", "short_name_pinyin": "jialefu", "status": null, "address": null, "name": null, "id": "44084"}, "mid": "888898854110036", "shopId": "44084", "netid": null, "province": 901, "district": 601, "zipcode": null, "telephone": null, "posDate": null, "destineTel": null, "togoTel": null, "trafficWay": null, "signBuilding": null, "businessArea": null, "selfRoom": null, "businessTime": null, "stall": null, "consume": null, "serviceFei": null, "favourable": null, "shopMemo": null, "appraise": null, "website": null, "memo": null, "payTypes": "\u6749\u5fb7\u65af\u739b\u7279\u5361", "shopTypes": "\u8d85\u5e02", "consumeTypes": null, "cookTypes": null, "orderNum": 1000, "card4no": null, "card4noAcc": null, "district2": 409, "searchScope": null, "status": 1, "address": "\u4e03\u8398\u8def3655\u53f7", "name": "\u5bb6\u4e50\u798f \u4e0a\u6d77\u4e03\u5b9d\u5e97", "id": 202507, "pageNo": 0, "pageCount": null, "pageSize": 10, "ids": null, "endTime": null, "startTime": null}, {"cardNumFive": null, "isSupportYj": null, "cityName": null, "districtName": null, "shopinfo": {"mid": "888898854110069", "good_flag": null, "new_flag": null, "short_name": "\u5bb6\u4e50\u798f", "short_name_pinyin": "jialefu", "status": null, "address": null, "name": null, "id": "44085"}, "mid": "888898854110069", "shopId": "44085", "netid": null, "province": 901, "district": 601, "zipcode": null, "telephone": null, "posDate": null, "destineTel": null, "togoTel": null, "trafficWay": null, "signBuilding": null, "businessArea": null, "selfRoom": null, "businessTime": null, "stall": null, "consume": null, "serviceFei": null, "favourable": null, "shopMemo": null, "appraise": null, "website": null, "memo": null, "payTypes": "\u6749\u5fb7\u65af\u739b\u7279\u5361", "shopTypes": "\u8d85\u5e02", "consumeTypes": null, "cookTypes": null, "orderNum": 1000, "card4no": null, "card4noAcc": null, "district2": 406, "searchScope": null, "status": 1, "address": "\u957f\u5b81\u8def1018\u53f7\u9f99\u4e4b\u68a6\u8d2d\u7269\u4e2d\u5fc3B3", "name": "\u5bb6\u4e50\u798f \u4e0a\u6d77\u4e2d\u5c71\u5e97", "id": 202508, "pageNo": 0, "pageCount": null, "pageSize": 10, "ids": null, "endTime": null, "startTime": null}, {"cardNumFive": null, "isSupportYj": null, "cityName": null, "districtName": null, "shopinfo": {"mid": "888898854110088", "good_flag": null, "new_flag": null, "short_name": "\u5bb6\u4e50\u798f", "short_name_pinyin": "jialefu", "status": null, "address": null, "name": null, "id": "44086"}, "mid": "888898854110088", "shopId": "44086", "netid": null, "province": 901, "district": 601, "zipcode": null, "telephone": null, "posDate": null, "destineTel": null, "togoTel": null, "trafficWay": null, "signBuilding": null, "businessArea": null, "selfRoom": null, "businessTime": null, "stall": null, "consume": null, "serviceFei": null, "favourable": null, "shopMemo": null, "appraise": null, "website": null, "memo": null, "payTypes": "\u6749\u5fb7\u65af\u739b\u7279\u5361", "shopTypes": "\u8d85\u5e02", "consumeTypes": null, "cookTypes": null, "orderNum": 1000, "card4no": null, "card4noAcc": null, "district2": 418, "searchScope": null, "status": 1, "address": "\u9ad8\u9752\u8def2671\u53f7", "name": "\u5bb6\u4e50\u798f \u4e0a\u6d77\u65b0\u91cc\u57ce\u5e97", "id": 202509, "pageNo": 0, "pageCount": null, "pageSize": 10, "ids": null, "endTime": null, "startTime": null}, {"cardNumFive": null, "isSupportYj": null, "cityName": null, "districtName": null, "shopinfo": {"mid": "888898854110119", "good_flag": null, "new_flag": null, "short_name": "\u5bb6\u4e50\u798f", "short_name_pinyin": "jialefu", "status": null, "address": null, "name": null, "id": "44088"}, "mid": "888898854110119", "shopId": "44088", "netid": null, "province": 901, "district": 601, "zipcode": null, "telephone": null, "posDate": null, "destineTel": null, "togoTel": null, "trafficWay": null, "signBuilding": null, "businessArea": null, "selfRoom": null, "businessTime": null, "stall": null, "consume": null, "serviceFei": null, "favourable": null, "shopMemo": null, "appraise": null, "website": null, "memo": null, "payTypes": "\u6749\u5fb7\u65af\u739b\u7279\u5361", "shopTypes": "\u8d85\u5e02", "consumeTypes": null, "cookTypes": null, "orderNum": 1000, "card4no": null, "card4noAcc": null, "district2": 411, "searchScope": null, "status": 1, "address": "\u4e30\u7fd4\u8def3168\u53f7\u5bb6\u4e50\u798f\u5357\u7fd4\u5e97", "name": "\u5bb6\u4e50\u798f \u4e0a\u6d77\u5357\u7fd4\u5e97", "id": 202511, "pageNo": 0, "pageCount": null, "pageSize": 10, "ids": null, "endTime": null, "startTime": null}, {"cardNumFive": null, "isSupportYj": null, "cityName": null, "districtName": null, "shopinfo": {"mid": "888898854110125", "good_flag": null, "new_flag": null, "short_name": "\u5bb6\u4e50\u798f", "short_name_pinyin": "jialefu", "status": null, "address": null, "name": null, "id": "44089"}, "mid": "888898854110125", "shopId": "44089", "netid": null, "province": 901, "district": 601, "zipcode": null, "telephone": null, "posDate": null, "destineTel": null, "togoTel": null, "trafficWay": null, "signBuilding": null, "businessArea": null, "selfRoom": null, "businessTime": null, "stall": null, "consume": null, "serviceFei": null, "favourable": null, "shopMemo": null, "appraise": null, "website": null, "memo": null, "payTypes": "\u6749\u5fb7\u65af\u739b\u7279\u5361", "shopTypes": "\u8d85\u5e02", "consumeTypes": null, "cookTypes": null, "orderNum": 1000, "card4no": null, "card4noAcc": null, "district2": 409, "searchScope": null, "status": 1, "address": "\u90fd\u5e02\u8def5001\u53f7\u4ef2\u76db\u5e7f\u573a\u5bb6\u4e50\u798f\u8398\u5e84\u5e97", "name": "\u5bb6\u4e50\u798f \u4e0a\u6d77\u8398\u5e84\u5e97", "id": 202512, "pageNo": 0, "pageCount": null, "pageSize": 10, "ids": null, "endTime": null, "startTime": null}, {"cardNumFive": null, "isSupportYj": null, "cityName": null, "districtName": null, "shopinfo": {"mid": "888898854110126", "good_flag": null, "new_flag": null, "short_name": "\u5bb6\u4e50\u798f", "short_name_pinyin": "jialefu", "status": null, "address": null, "name": null, "id": "44090"}, "mid": "888898854110126", "shopId": "44090", "netid": null, "province": 901, "district": 601, "zipcode": null, "telephone": null, "posDate": null, "destineTel": null, "togoTel": null, "trafficWay": null, "signBuilding": null, "businessArea": null, "selfRoom": null, "businessTime": null, "stall": null, "consume": null, "serviceFei": null, "favourable": null, "shopMemo": null, "appraise": null, "website": null, "memo": null, "payTypes": "\u6749\u5fb7\u65af\u739b\u7279\u5361", "shopTypes": "\u8d85\u5e02", "consumeTypes": null, "cookTypes": null, "orderNum": 1000, "card4no": null, "card4noAcc": null, "district2": 403, "searchScope": null, "status": 1, "address": "\u659c\u571f\u8def1995\u53f7\u5bb6\u4e50\u798f\u5f90\u6c47\u5e97", "name": "\u5bb6\u4e50\u798f \u4e0a\u6d77\u5f90\u6c47\u5e97", "id": 202513, "pageNo": 0, "pageCount": null, "pageSize": 10, "ids": null, "endTime": null, "startTime": null}, {"cardNumFive": null, "isSupportYj": null, "cityName": null, "districtName": null, "shopinfo": {"mid": "888898854110158", "good_flag": null, "new_flag": null, "short_name": "\u5bb6\u4e50\u798f", "short_name_pinyin": "jialefu", "status": null, "address": null, "name": null, "id": "44091"}, "mid": "888898854110158", "shopId": "44091", "netid": null, "province": 901, "district": 601, "zipcode": null, "telephone": null, "posDate": null, "destineTel": null, "togoTel": null, "trafficWay": null, "signBuilding": null, "businessArea": null, "selfRoom": null, "businessTime": null, "stall": null, "consume": null, "serviceFei": null, "favourable": null, "shopMemo": null, "appraise": null, "website": null, "memo": null, "payTypes": "\u6749\u5fb7\u65af\u739b\u7279\u5361", "shopTypes": "\u8d85\u5e02", "consumeTypes": null, "cookTypes": null, "orderNum": 1000, "card4no": null, "card4noAcc": null, "district2": 418, "searchScope": null, "status": 1, "address": "\u5de8\u5cf0\u8def\u5229\u6d25\u8def\u53e3\u5bb6\u4e50\u798f\u5de8\u5cf0\u5e97", "name": "\u5bb6\u4e50\u798f \u4e0a\u6d77\u5de8\u5cf0\u5e97", "id": 202514, "pageNo": 0, "pageCount": null, "pageSize": 10, "ids": null, "endTime": null, "startTime": null}], "pageLimit": 3530, "size": 10}