{"pageCount": 1095, "count": 10942, "pageNo": 350, "subShopInfo": {"cardNumFive": "", "isSupportYj": "", "cityName": null, "districtName": null, "shopinfo": {"mid": null, "good_flag": null, "new_flag": null, "short_name": null, "short_name_pinyin": null, "status": null, "address": "", "name": "", "id": null}, "mid": null, "shopId": null, "netid": null, "province": 901, "district": null, "zipcode": null, "telephone": null, "posDate": null, "destineTel": null, "togoTel": null, "trafficWay": null, "signBuilding": null, "businessArea": null, "selfRoom": null, "businessTime": null, "stall": null, "consume": null, "serviceFei": null, "favourable": null, "shopMemo": "1", "appraise": null, "website": null, "memo": null, "payTypes": "", "shopTypes": "", "consumeTypes": null, "cookTypes": null, "orderNum": null, "card4no": null, "card4noAcc": null, "district2": null, "searchScope": null, "status": null, "address": "", "name": null, "id": null, "pageNo": 349, "pageCount": null, "pageSize": 10, "ids": null, "endTime": null, "startTime": null}, "list": [{"cardNumFive": null, "isSupportYj": null, "cityName": null, "districtName": null, "shopinfo": {"mid": "888888859120150", "good_flag": "2", "new_flag": "2", "short_name": "\u5609\u5b9a\u5927\u836f\u623f", "short_name_pinyin": "jiadingdayaofang", "status": null, "address": null, "name": null, "id": "32034"}, "mid": "888888859120150", "shopId": "32034", "netid": null, "province": 901, "district": 601, "zipcode": null, "telephone": "39150049", "posDate": "20081203", "destineTel": null, "togoTel": null, "trafficWay": "\u516c\u4ea4822 \u5317\u5609\u4e13\u7ebf", "signBuilding": null, "businessArea": null, "selfRoom": null, "businessTime": null, "stall": null, "consume": null, "serviceFei": null, "favourable": null, "shopMemo": null, "appraise": null, "website": null, "memo": null, "payTypes": "\u6749\u5fb7\u5361", "shopTypes": "\u836f\u5e97", "consumeTypes": null, "cookTypes": null, "orderNum": 1000, "card4no": null, "card4noAcc": null, "district2": 411, "searchScope": null, "status": 1, "address": "\u9a6c\u9646\u9547\u6caa\u5b9c\u516c\u8def2208\u53f7", "name": "\u5609\u5b9a\u5927\u836f\u623f \u9a6c\u9646\u5e97", "id": 136500, "pageNo": 0, "pageCount": null, "pageSize": 10, "ids": null, "endTime": null, "startTime": null}, {"cardNumFive": null, "isSupportYj": null, "cityName": null, "districtName": null, "shopinfo": {"mid": "888888859120150", "good_flag": "2", "new_flag": "2", "short_name": "\u5609\u5b9a\u5927\u836f\u623f", "short_name_pinyin": "jiadingdayaofang", "status": null, "address": null, "name": null, "id": "32034"}, "mid": "888888859120150", "shopId": "32034", "netid": null, "province": 901, "district": 601, "zipcode": null, "telephone": "59531204", "posDate": "20081203", "destineTel": null, "togoTel": null, "trafficWay": "\u516c\u4ea4838 948 \u5317\u5b89\u7ebf", "signBuilding": null, "businessArea": null, "selfRoom": null, "businessTime": null, "stall": null, "consume": null, "serviceFei": null, "favourable": null, "shopMemo": null, "appraise": null, "website": null, "memo": null, "payTypes": "\u6749\u5fb7\u5361", "shopTypes": "\u836f\u5e97", "consumeTypes": null, "cookTypes": null, "orderNum": 1000, "card4no": null, "card4noAcc": null, "district2": 411, "searchScope": null, "status": 1, "address": "\u5357\u5927\u8857318-326\u53f7", "name": "\u5609\u5b9a\u5927\u836f\u623f \u5357\u5927\u8857\u603b\u5e97", "id": 136501, "pageNo": 0, "pageCount": null, "pageSize": 10, "ids": null, "endTime": null, "startTime": null}, {"cardNumFive": null, "isSupportYj": null, "cityName": null, "districtName": null, "shopinfo": {"mid": "888888859120150", "good_flag": "2", "new_flag": "2", "short_name": "\u5609\u5b9a\u5927\u836f\u623f", "short_name_pinyin": "jiadingdayaofang", "status": null, "address": null, "name": null, "id": "32034"}, "mid": "888888859120150", "shopId": "32034", "netid": null, "province": 901, "district": 601, "zipcode": null, "telephone": "59555697", "posDate": "20081203", "destineTel": null, "togoTel": null, "trafficWay": "\u516c\u4ea4\u6caa\u5510\u4e13\u7ebf \u65c5\u6e386A\u7ebf", "signBuilding": null, "businessArea": null, "selfRoom": null, "businessTime": null, "stall": null, "consume": null, "serviceFei": null, "favourable": null, "shopMemo": null, "appraise": null, "website": null, "memo": null, "payTypes": "\u6749\u5fb7\u5361", "shopTypes": "\u836f\u5e97", "consumeTypes": null, "cookTypes": null, "orderNum": 1000, "card4no": null, "card4noAcc": null, "district2": 411, "searchScope": null, "status": 1, "address": "\u5f90\u884c\u9547\u6f84\u6d4f\u8def474\u53f7", "name": "\u5609\u5b9a\u5927\u836f\u623f \u5f90\u884c\u5e97", "id": 136502, "pageNo": 0, "pageCount": null, "pageSize": 10, "ids": null, "endTime": null, "startTime": null}, {"cardNumFive": null, "isSupportYj": null, "cityName": null, "districtName": null, "shopinfo": {"mid": "888888859120150", "good_flag": "2", "new_flag": "2", "short_name": "\u5609\u5b9a\u5927\u836f\u623f", "short_name_pinyin": "jiadingdayaofang", "status": null, "address": null, "name": null, "id": "32034"}, "mid": "888888859120150", "shopId": "32034", "netid": null, "province": 901, "district": 601, "zipcode": null, "telephone": "59981442", "posDate": "20081203", "destineTel": null, "togoTel": null, "trafficWay": "\u516c\u4ea4\u6caa\u5510\u4e13\u7ebf \u5609\u6cf0\u7ebf", "signBuilding": null, "businessArea": null, "selfRoom": null, "businessTime": null, "stall": null, "consume": null, "serviceFei": null, "favourable": null, "shopMemo": null, "appraise": null, "website": null, "memo": null, "payTypes": "\u6749\u5fb7\u5361", "shopTypes": "\u836f\u5e97", "consumeTypes": null, "cookTypes": null, "orderNum": 1000, "card4no": null, "card4noAcc": null, "district2": 411, "searchScope": null, "status": 1, "address": "\u8fce\u56ed\u8def596\u53f7", "name": "\u5609\u5b9a\u5927\u836f\u623f \u8fce\u56ed\u5e97", "id": 136503, "pageNo": 0, "pageCount": null, "pageSize": 10, "ids": null, "endTime": null, "startTime": null}, {"cardNumFive": null, "isSupportYj": null, "cityName": null, "districtName": null, "shopinfo": {"mid": "888002153110264", "good_flag": null, "new_flag": null, "short_name": "\u5bb6\u4e50\u798f", "short_name_pinyin": "jialefu", "status": null, "address": null, "name": null, "id": "44038"}, "mid": "888002153110264", "shopId": "44038", "netid": null, "province": 901, "district": 601, "zipcode": null, "telephone": null, "posDate": null, "destineTel": null, "togoTel": null, "trafficWay": null, "signBuilding": null, "businessArea": null, "selfRoom": null, "businessTime": null, "stall": null, "consume": null, "serviceFei": null, "favourable": null, "shopMemo": null, "appraise": null, "website": null, "memo": null, "payTypes": "\u6749\u5fb7\u65af\u739b\u7279\u5361", "shopTypes": "\u8d85\u5e02", "consumeTypes": null, "cookTypes": null, "orderNum": 1000, "card4no": null, "card4noAcc": null, "district2": 418, "searchScope": null, "status": 1, "address": "\u91d1\u6d77\u8def2505\u53f7", "name": "\u5bb6\u4e50\u798f \u4e0a\u6d77\u66f9\u8def\u5e97", "id": 202460, "pageNo": 0, "pageCount": null, "pageSize": 10, "ids": null, "endTime": null, "startTime": null}, {"cardNumFive": null, "isSupportYj": null, "cityName": null, "districtName": null, "shopinfo": {"mid": "888002153110265", "good_flag": null, "new_flag": null, "short_name": "\u5bb6\u4e50\u798f", "short_name_pinyin": "jialefu", "status": null, "address": null, "name": null, "id": "44039"}, "mid": "888002153110265", "shopId": "44039", "netid": null, "province": 901, "district": 601, "zipcode": null, "telephone": null, "posDate": null, "destineTel": null, "togoTel": null, "trafficWay": null, "signBuilding": null, "businessArea": null, "selfRoom": null, "businessTime": null, "stall": null, "consume": null, "serviceFei": null, "favourable": null, "shopMemo": null, "appraise": null, "website": null, "memo": null, "payTypes": "\u6749\u5fb7\u65af\u739b\u7279\u5361", "shopTypes": "\u8d85\u5e02", "consumeTypes": null, "cookTypes": null, "orderNum": 1000, "card4no": null, "card4noAcc": null, "district2": 417, "searchScope": null, "status": 1, "address": "\u516c\u56ed\u4e1c\u8def1289\u5f042\u53f7", "name": "\u5bb6\u4e50\u798f \u4e0a\u6d77\u9752\u6d66\u5e97", "id": 202461, "pageNo": 0, "pageCount": null, "pageSize": 10, "ids": null, "endTime": null, "startTime": null}, {"cardNumFive": null, "isSupportYj": null, "cityName": null, "districtName": null, "shopinfo": {"mid": "888002153110266", "good_flag": null, "new_flag": null, "short_name": "\u5bb6\u4e50\u798f", "short_name_pinyin": "jialefu", "status": null, "address": null, "name": null, "id": "44040"}, "mid": "888002153110266", "shopId": "44040", "netid": null, "province": 901, "district": 601, "zipcode": null, "telephone": null, "posDate": null, "destineTel": null, "togoTel": null, "trafficWay": null, "signBuilding": null, "businessArea": null, "selfRoom": null, "businessTime": null, "stall": null, "consume": null, "serviceFei": null, "favourable": null, "shopMemo": null, "appraise": null, "website": null, "memo": null, "payTypes": "\u6749\u5fb7\u65af\u739b\u7279\u5361", "shopTypes": "\u8d85\u5e02", "consumeTypes": null, "cookTypes": null, "orderNum": 1000, "card4no": null, "card4noAcc": null, "district2": 418, "searchScope": null, "status": 1, "address": "\u9648\u884c\u516c\u8def2688\u53f7", "name": "\u5bb6\u4e50\u798f \u4e0a\u6d77\u6d66\u6c5f\u5e97", "id": 202462, "pageNo": 0, "pageCount": null, "pageSize": 10, "ids": null, "endTime": null, "startTime": null}, {"cardNumFive": null, "isSupportYj": null, "cityName": null, "districtName": null, "shopinfo": {"mid": "888002153310918", "good_flag": null, "new_flag": null, "short_name": "\u5bb6\u4e50\u798f", "short_name_pinyin": "jialefu", "status": null, "address": null, "name": null, "id": "44041"}, "mid": "888002153310918", "shopId": "44041", "netid": null, "province": 901, "district": 601, "zipcode": null, "telephone": null, "posDate": null, "destineTel": null, "togoTel": null, "trafficWay": null, "signBuilding": null, "businessArea": null, "selfRoom": null, "businessTime": null, "stall": null, "consume": null, "serviceFei": null, "favourable": null, "shopMemo": null, "appraise": null, "website": null, "memo": null, "payTypes": "\u6749\u5fb7\u65af\u739b\u7279\u5361", "shopTypes": "\u8d85\u5e02", "consumeTypes": null, "cookTypes": null, "orderNum": 1000, "card4no": null, "card4noAcc": null, "district2": 412, "searchScope": null, "status": 1, "address": "\u8363\u4e50\u897f\u8def860\u53f7", "name": "\u5bb6\u4e50\u798f \u4e0a\u6d77\u8363\u4e50\u897f\u8def\u5e97", "id": 202464, "pageNo": 0, "pageCount": null, "pageSize": 10, "ids": null, "endTime": null, "startTime": null}, {"cardNumFive": null, "isSupportYj": null, "cityName": null, "districtName": null, "shopinfo": {"mid": "888002154110017", "good_flag": null, "new_flag": null, "short_name": "\u5bb6\u4e50\u798f", "short_name_pinyin": "jialefu", "status": null, "address": null, "name": null, "id": "44042"}, "mid": "888002154110017", "shopId": "44042", "netid": null, "province": 901, "district": 601, "zipcode": null, "telephone": null, "posDate": null, "destineTel": null, "togoTel": null, "trafficWay": null, "signBuilding": null, "businessArea": null, "selfRoom": null, "businessTime": null, "stall": null, "consume": null, "serviceFei": null, "favourable": null, "shopMemo": null, "appraise": null, "website": null, "memo": null, "payTypes": "\u6749\u5fb7\u65af\u739b\u7279\u5361", "shopTypes": "\u8d85\u5e02", "consumeTypes": null, "cookTypes": null, "orderNum": 1000, "card4no": null, "card4noAcc": null, "district2": 409, "searchScope": null, "status": 1, "address": "\u6caa\u95f5\u8def7388\u53f7", "name": "\u5bb6\u4e50\u798f \u4e0a\u6d77\u5357\u65b9\u5e97", "id": 202465, "pageNo": 0, "pageCount": null, "pageSize": 10, "ids": null, "endTime": null, "startTime": null}, {"cardNumFive": null, "isSupportYj": null, "cityName": null, "districtName": null, "shopinfo": {"mid": "888002154110018", "good_flag": null, "new_flag": null, "short_name": "\u5bb6\u4e50\u798f", "short_name_pinyin": "jialefu", "status": null, "address": null, "name": null, "id": "44043"}, "mid": "888002154110018", "shopId": "44043", "netid": null, "province": 901, "district": 601, "zipcode": null, "telephone": null, "posDate": null, "destineTel": null, "togoTel": null, "trafficWay": null, "signBuilding": null, "businessArea": null, "selfRoom": null, "businessTime": null, "stall": null, "consume": null, "serviceFei": null, "favourable": null, "shopMemo": null, "appraise": null, "website": null, "memo": null, "payTypes": "\u6749\u5fb7\u65af\u739b\u7279\u5361", "shopTypes": "\u8d85\u5e02", "consumeTypes": null, "cookTypes": null, "orderNum": 1000, "card4no": null, "card4noAcc": null, "district2": 418, "searchScope": null, "status": 1, "address": "\u78a7\u4e91\u8def555\u53f7", "name": "\u5bb6\u4e50\u798f \u4e0a\u6d77\u91d1\u6865\u5e97", "id": 202466, "pageNo": 0, "pageCount": null, "pageSize": 10, "ids": null, "endTime": null, "startTime": null}], "pageLimit": 3490, "size": 10}