{"pageCount": 1095, "count": 10942, "pageNo": 369, "subShopInfo": {"cardNumFive": "", "isSupportYj": "", "cityName": null, "districtName": null, "shopinfo": {"mid": null, "good_flag": null, "new_flag": null, "short_name": null, "short_name_pinyin": null, "status": null, "address": "", "name": "", "id": null}, "mid": null, "shopId": null, "netid": null, "province": 901, "district": null, "zipcode": null, "telephone": null, "posDate": null, "destineTel": null, "togoTel": null, "trafficWay": null, "signBuilding": null, "businessArea": null, "selfRoom": null, "businessTime": null, "stall": null, "consume": null, "serviceFei": null, "favourable": null, "shopMemo": "1", "appraise": null, "website": null, "memo": null, "payTypes": "", "shopTypes": "", "consumeTypes": null, "cookTypes": null, "orderNum": null, "card4no": null, "card4noAcc": null, "district2": null, "searchScope": null, "status": null, "address": "", "name": null, "id": null, "pageNo": 368, "pageCount": null, "pageSize": 10, "ids": null, "endTime": null, "startTime": null}, "list": [{"cardNumFive": null, "isSupportYj": null, "cityName": null, "districtName": null, "shopinfo": {"mid": "888888854110209", "good_flag": null, "new_flag": null, "short_name": "\u6377\u5f3a", "short_name_pinyin": "jieqiang", "status": null, "address": null, "name": null, "id": "32062"}, "mid": "888888854110209", "shopId": "32062", "netid": null, "province": 901, "district": 601, "zipcode": null, "telephone": "56041132", "posDate": "20090219", "destineTel": null, "togoTel": null, "trafficWay": null, "signBuilding": null, "businessArea": null, "selfRoom": null, "businessTime": null, "stall": null, "consume": null, "serviceFei": null, "favourable": null, "shopMemo": null, "appraise": null, "website": null, "memo": null, "payTypes": "\u6749\u5fb7\u5361", "shopTypes": "\u8d85\u5e02", "consumeTypes": null, "cookTypes": null, "orderNum": 1000, "card4no": null, "card4noAcc": null, "district2": 416, "searchScope": null, "status": 1, "address": "\u6cf0\u548c\u897f\u8def3463\u5f04163\u53f7", "name": "\u6377\u5f3a \u6cf0\u548c\u5e97", "id": 136709, "pageNo": 0, "pageCount": null, "pageSize": 10, "ids": null, "endTime": null, "startTime": null}, {"cardNumFive": null, "isSupportYj": null, "cityName": null, "districtName": null, "shopinfo": {"mid": "888888854110209", "good_flag": null, "new_flag": null, "short_name": "\u6377\u5f3a", "short_name_pinyin": "jieqiang", "status": null, "address": null, "name": null, "id": "32062"}, "mid": "888888854110209", "shopId": "32062", "netid": null, "province": 901, "district": 601, "zipcode": null, "telephone": "64452043", "posDate": "20090121", "destineTel": null, "togoTel": null, "trafficWay": "\u516c\u4ea417\u8def24\u8def864\u8def", "signBuilding": null, "businessArea": null, "selfRoom": null, "businessTime": null, "stall": null, "consume": null, "serviceFei": null, "favourable": null, "shopMemo": null, "appraise": null, "website": null, "memo": null, "payTypes": "\u6749\u5fb7\u5361", "shopTypes": "\u8d85\u5e02", "consumeTypes": null, "cookTypes": null, "orderNum": 1000, "card4no": null, "card4noAcc": null, "district2": 401, "searchScope": null, "status": 1, "address": "\u6cf0\u5eb7\u8def334\u53f7", "name": "\u6377\u5f3a \u6cf0\u5eb7\u5e97", "id": 136710, "pageNo": 0, "pageCount": null, "pageSize": 10, "ids": null, "endTime": null, "startTime": null}, {"cardNumFive": null, "isSupportYj": null, "cityName": null, "districtName": null, "shopinfo": {"mid": "888888854110209", "good_flag": null, "new_flag": null, "short_name": "\u6377\u5f3a", "short_name_pinyin": "jieqiang", "status": null, "address": null, "name": null, "id": "32062"}, "mid": "888888854110209", "shopId": "32062", "netid": null, "province": 901, "district": 601, "zipcode": null, "telephone": null, "posDate": "20090223", "destineTel": null, "togoTel": null, "trafficWay": null, "signBuilding": null, "businessArea": null, "selfRoom": null, "businessTime": null, "stall": null, "consume": null, "serviceFei": null, "favourable": null, "shopMemo": null, "appraise": null, "website": null, "memo": null, "payTypes": "\u6749\u5fb7\u5361", "shopTypes": "\u8d85\u5e02", "consumeTypes": null, "cookTypes": null, "orderNum": 1000, "card4no": null, "card4noAcc": null, "district2": 404, "searchScope": null, "status": 1, "address": "\u6cf0\u5174\u8def606--618\u53f7", "name": "\u6377\u5f3a \u6cf0\u5174\u5e97", "id": 136711, "pageNo": 0, "pageCount": null, "pageSize": 10, "ids": null, "endTime": null, "startTime": null}, {"cardNumFive": null, "isSupportYj": null, "cityName": null, "districtName": null, "shopinfo": {"mid": "888888854110209", "good_flag": null, "new_flag": null, "short_name": "\u6377\u5f3a", "short_name_pinyin": "jieqiang", "status": null, "address": null, "name": null, "id": "32062"}, "mid": "888888854110209", "shopId": "32062", "netid": null, "province": 901, "district": 601, "zipcode": null, "telephone": "52769412", "posDate": "20090217", "destineTel": null, "togoTel": null, "trafficWay": null, "signBuilding": null, "businessArea": null, "selfRoom": null, "businessTime": null, "stall": null, "consume": null, "serviceFei": null, "favourable": null, "shopMemo": null, "appraise": null, "website": null, "memo": null, "payTypes": "\u6749\u5fb7\u5361", "shopTypes": "\u8d85\u5e02", "consumeTypes": null, "cookTypes": null, "orderNum": 1000, "card4no": null, "card4noAcc": null, "district2": 405, "searchScope": null, "status": 1, "address": "\u6843\u6d66\u8def1180\u53f7", "name": "\u6377\u5f3a \u6843\u6d66\u5e97", "id": 136712, "pageNo": 0, "pageCount": null, "pageSize": 10, "ids": null, "endTime": null, "startTime": null}, {"cardNumFive": null, "isSupportYj": null, "cityName": null, "districtName": null, "shopinfo": {"mid": "888888854110209", "good_flag": null, "new_flag": null, "short_name": "\u6377\u5f3a", "short_name_pinyin": "jieqiang", "status": null, "address": null, "name": null, "id": "32062"}, "mid": "888888854110209", "shopId": "32062", "netid": null, "province": 901, "district": 601, "zipcode": null, "telephone": "52799281", "posDate": "20090217", "destineTel": null, "togoTel": null, "trafficWay": null, "signBuilding": null, "businessArea": null, "selfRoom": null, "businessTime": null, "stall": null, "consume": null, "serviceFei": null, "favourable": null, "shopMemo": null, "appraise": null, "website": null, "memo": null, "payTypes": "\u6749\u5fb7\u5361", "shopTypes": "\u8d85\u5e02", "consumeTypes": null, "cookTypes": null, "orderNum": 1000, "card4no": null, "card4noAcc": null, "district2": 405, "searchScope": null, "status": 1, "address": "\u6843\u6d66\u8def705\u53f7", "name": "\u6377\u5f3a \u6843\u6d66\u4e8c\u5e97", "id": 136713, "pageNo": 0, "pageCount": null, "pageSize": 10, "ids": null, "endTime": null, "startTime": null}, {"cardNumFive": null, "isSupportYj": null, "cityName": null, "districtName": null, "shopinfo": {"mid": "888888854110209", "good_flag": null, "new_flag": null, "short_name": "\u6377\u5f3a", "short_name_pinyin": "jieqiang", "status": null, "address": null, "name": null, "id": "32062"}, "mid": "888888854110209", "shopId": "32062", "netid": null, "province": 901, "district": 601, "zipcode": null, "telephone": "65221919", "posDate": "20090213", "destineTel": null, "togoTel": null, "trafficWay": null, "signBuilding": null, "businessArea": null, "selfRoom": null, "businessTime": null, "stall": null, "consume": null, "serviceFei": null, "favourable": null, "shopMemo": null, "appraise": null, "website": null, "memo": null, "payTypes": "\u6749\u5fb7\u5361", "shopTypes": "\u8d85\u5e02", "consumeTypes": null, "cookTypes": null, "orderNum": 1000, "card4no": null, "card4noAcc": null, "district2": 408, "searchScope": null, "status": 1, "address": "\u5929\u6c34\u8def76\u53f7", "name": "\u6377\u5f3a \u5929\u6c34\u8def\u603b\u90e8", "id": 136715, "pageNo": 0, "pageCount": null, "pageSize": 10, "ids": null, "endTime": null, "startTime": null}, {"cardNumFive": null, "isSupportYj": null, "cityName": null, "districtName": null, "shopinfo": {"mid": "888888854110209", "good_flag": null, "new_flag": null, "short_name": "\u6377\u5f3a", "short_name_pinyin": "jieqiang", "status": null, "address": null, "name": null, "id": "32062"}, "mid": "888888854110209", "shopId": "32062", "netid": null, "province": 901, "district": 601, "zipcode": null, "telephone": "63247985", "posDate": "20090218", "destineTel": null, "togoTel": null, "trafficWay": null, "signBuilding": null, "businessArea": null, "selfRoom": null, "businessTime": null, "stall": null, "consume": null, "serviceFei": null, "favourable": null, "shopMemo": null, "appraise": null, "website": null, "memo": null, "payTypes": "\u6749\u5fb7\u5361", "shopTypes": "\u8d85\u5e02", "consumeTypes": null, "cookTypes": null, "orderNum": 1000, "card4no": null, "card4noAcc": null, "district2": 408, "searchScope": null, "status": 1, "address": "\u5929\u6f7c\u8def470-472\u53f7", "name": "\u6377\u5f3a \u5929\u6f7c\u5e97", "id": 136716, "pageNo": 0, "pageCount": null, "pageSize": 10, "ids": null, "endTime": null, "startTime": null}, {"cardNumFive": null, "isSupportYj": null, "cityName": null, "districtName": null, "shopinfo": {"mid": "888888854110209", "good_flag": null, "new_flag": null, "short_name": "\u6377\u5f3a", "short_name_pinyin": "jieqiang", "status": null, "address": null, "name": null, "id": "32062"}, "mid": "888888854110209", "shopId": "32062", "netid": null, "province": 901, "district": 601, "zipcode": null, "telephone": "69182179", "posDate": "20090217", "destineTel": null, "togoTel": null, "trafficWay": null, "signBuilding": null, "businessArea": null, "selfRoom": null, "businessTime": null, "stall": null, "consume": null, "serviceFei": null, "favourable": null, "shopMemo": null, "appraise": null, "website": null, "memo": null, "payTypes": "\u6749\u5fb7\u5361", "shopTypes": "\u8d85\u5e02", "consumeTypes": null, "cookTypes": null, "orderNum": 1000, "card4no": null, "card4noAcc": null, "district2": 405, "searchScope": null, "status": 1, "address": "\u4e07\u9547\u8def1281\u53f7", "name": "\u6377\u5f3a \u94dc\u5ddd\u5e97", "id": 136717, "pageNo": 0, "pageCount": null, "pageSize": 10, "ids": null, "endTime": null, "startTime": null}, {"cardNumFive": null, "isSupportYj": null, "cityName": null, "districtName": null, "shopinfo": {"mid": "888888854110209", "good_flag": null, "new_flag": null, "short_name": "\u6377\u5f3a", "short_name_pinyin": "jieqiang", "status": null, "address": null, "name": null, "id": "32062"}, "mid": "888888854110209", "shopId": "32062", "netid": null, "province": 901, "district": 601, "zipcode": null, "telephone": "62890226", "posDate": "20090223", "destineTel": null, "togoTel": null, "trafficWay": null, "signBuilding": null, "businessArea": null, "selfRoom": null, "businessTime": null, "stall": null, "consume": null, "serviceFei": null, "favourable": null, "shopMemo": null, "appraise": null, "website": null, "memo": null, "payTypes": "\u6749\u5fb7\u5361", "shopTypes": "\u8d85\u5e02", "consumeTypes": null, "cookTypes": null, "orderNum": 1000, "card4no": null, "card4noAcc": null, "district2": 404, "searchScope": null, "status": 1, "address": "\u94dc\u4ec1\u8def329\u53f7", "name": "\u6377\u5f3a \u94dc\u4ec1\u5e97", "id": 136718, "pageNo": 0, "pageCount": null, "pageSize": 10, "ids": null, "endTime": null, "startTime": null}, {"cardNumFive": null, "isSupportYj": null, "cityName": null, "districtName": null, "shopinfo": {"mid": "888888854110209", "good_flag": null, "new_flag": null, "short_name": "\u6377\u5f3a", "short_name_pinyin": "jieqiang", "status": null, "address": null, "name": null, "id": "32062"}, "mid": "888888854110209", "shopId": "32062", "netid": null, "province": 901, "district": 601, "zipcode": null, "telephone": "33685743", "posDate": "20090223", "destineTel": null, "togoTel": null, "trafficWay": null, "signBuilding": null, "businessArea": null, "selfRoom": null, "businessTime": null, "stall": null, "consume": null, "serviceFei": null, "favourable": null, "shopMemo": null, "appraise": null, "website": null, "memo": null, "payTypes": "\u6749\u5fb7\u5361", "shopTypes": "\u8d85\u5e02", "consumeTypes": null, "cookTypes": null, "orderNum": 1000, "card4no": null, "card4noAcc": null, "district2": 403, "searchScope": null, "status": 1, "address": "\u5b9b\u5e73\u5357\u8def215\u53f7", "name": "\u6377\u5f3a \u5b9b\u5e73\u5e97", "id": 136719, "pageNo": 0, "pageCount": null, "pageSize": 10, "ids": null, "endTime": null, "startTime": null}], "pageLimit": 3680, "size": 10}