{"pageCount": 1095, "count": 10942, "pageNo": 360, "subShopInfo": {"cardNumFive": "", "isSupportYj": "", "cityName": null, "districtName": null, "shopinfo": {"mid": null, "good_flag": null, "new_flag": null, "short_name": null, "short_name_pinyin": null, "status": null, "address": "", "name": "", "id": null}, "mid": null, "shopId": null, "netid": null, "province": 901, "district": null, "zipcode": null, "telephone": null, "posDate": null, "destineTel": null, "togoTel": null, "trafficWay": null, "signBuilding": null, "businessArea": null, "selfRoom": null, "businessTime": null, "stall": null, "consume": null, "serviceFei": null, "favourable": null, "shopMemo": "1", "appraise": null, "website": null, "memo": null, "payTypes": "", "shopTypes": "", "consumeTypes": null, "cookTypes": null, "orderNum": null, "card4no": null, "card4noAcc": null, "district2": null, "searchScope": null, "status": null, "address": "", "name": null, "id": null, "pageNo": 359, "pageCount": null, "pageSize": 10, "ids": null, "endTime": null, "startTime": null}, "list": [{"cardNumFive": null, "isSupportYj": null, "cityName": null, "districtName": null, "shopinfo": {"mid": "888888853110069", "good_flag": "2", "new_flag": "2", "short_name": "\u5047\u65e5\u767e\u8d27", "short_name_pinyin": "jiaribaihuo", "status": null, "address": null, "name": null, "id": "32041"}, "mid": "888888853110069", "shopId": "32041", "netid": null, "province": 901, "district": 601, "zipcode": null, "telephone": "65156600*1012/65146522", "posDate": null, "destineTel": null, "togoTel": null, "trafficWay": "\u5730\u94c1\u516b\u53f7\u7ebf 220", "signBuilding": null, "businessArea": "27000\u5e73\u65b9\u7c73", "selfRoom": null, "businessTime": "10:00~21:30", "stall": null, "consume": null, "serviceFei": null, "favourable": null, "shopMemo": null, "appraise": null, "website": null, "memo": null, "payTypes": "\u6749\u5fb7\u5361", "shopTypes": "\u767e\u8d27", "consumeTypes": null, "cookTypes": null, "orderNum": 1000, "card4no": null, "card4noAcc": null, "district2": 407, "searchScope": null, "status": 1, "address": "\u978d\u5c71\u8def1\u53f7", "name": "\u5047\u65e5\u767e\u8d27 \u978d\u5c71\u8def\u5e97", "id": 136510, "pageNo": 0, "pageCount": null, "pageSize": 10, "ids": null, "endTime": null, "startTime": null}, {"cardNumFive": null, "isSupportYj": null, "cityName": null, "districtName": null, "shopinfo": {"mid": "888002153310569", "good_flag": null, "new_flag": null, "short_name": "\u5609\u58f9\u7cbe\u54c1\u8d85\u5e02", "short_name_pinyin": "jiayijingpinchaoshi", "status": null, "address": null, "name": null, "id": "41469"}, "mid": "888002153310569", "shopId": "41469", "netid": null, "province": 901, "district": 601, "zipcode": null, "telephone": null, "posDate": null, "destineTel": null, "togoTel": null, "trafficWay": null, "signBuilding": null, "businessArea": null, "selfRoom": null, "businessTime": null, "stall": null, "consume": null, "serviceFei": null, "favourable": null, "shopMemo": null, "appraise": null, "website": null, "memo": null, "payTypes": "\u6749\u5fb7\u5361", "shopTypes": "\u8d85\u5e02", "consumeTypes": null, "cookTypes": null, "orderNum": 1000, "card4no": null, "card4noAcc": null, "district2": 409, "searchScope": null, "status": 1, "address": "\u6caa\u661f\u8def289\u5f0428\u53f72\u697c202\u5ba4", "name": "\u5609\u58f9\u7cbe\u54c1\u8d85\u5e02 \u987a\u6052\u5e97", "id": 182702, "pageNo": 0, "pageCount": null, "pageSize": 10, "ids": null, "endTime": null, "startTime": null}, {"cardNumFive": null, "isSupportYj": null, "cityName": null, "districtName": null, "shopinfo": {"mid": "888002153310569", "good_flag": null, "new_flag": null, "short_name": "\u5609\u58f9\u7cbe\u54c1\u8d85\u5e02", "short_name_pinyin": "jiayijingpinchaoshi", "status": null, "address": null, "name": null, "id": "41469"}, "mid": "888002153310569", "shopId": "41469", "netid": null, "province": 901, "district": 601, "zipcode": null, "telephone": null, "posDate": null, "destineTel": null, "togoTel": null, "trafficWay": null, "signBuilding": null, "businessArea": null, "selfRoom": null, "businessTime": null, "stall": null, "consume": null, "serviceFei": null, "favourable": null, "shopMemo": null, "appraise": null, "website": null, "memo": null, "payTypes": "\u6749\u5fb7\u5361", "shopTypes": "\u8d85\u5e02", "consumeTypes": null, "cookTypes": null, "orderNum": 1000, "card4no": null, "card4noAcc": null, "district2": 410, "searchScope": null, "status": 1, "address": "\u67f3\u8425\u8def777\u53f7", "name": "\u5609\u58f9\u7cbe\u54c1\u8d85\u5e02 \u76db\u6e90\u5e97", "id": 182703, "pageNo": 0, "pageCount": null, "pageSize": 10, "ids": null, "endTime": null, "startTime": null}, {"cardNumFive": null, "isSupportYj": null, "cityName": null, "districtName": null, "shopinfo": {"mid": "888002153310569", "good_flag": null, "new_flag": null, "short_name": "\u5609\u58f9\u7cbe\u54c1\u8d85\u5e02", "short_name_pinyin": "jiayijingpinchaoshi", "status": null, "address": null, "name": null, "id": "41469"}, "mid": "888002153310569", "shopId": "41469", "netid": null, "province": 901, "district": 601, "zipcode": null, "telephone": null, "posDate": null, "destineTel": null, "togoTel": null, "trafficWay": null, "signBuilding": null, "businessArea": null, "selfRoom": null, "businessTime": null, "stall": null, "consume": null, "serviceFei": null, "favourable": null, "shopMemo": null, "appraise": null, "website": null, "memo": null, "payTypes": "\u6749\u5fb7\u5361", "shopTypes": "\u8d85\u5e02", "consumeTypes": null, "cookTypes": null, "orderNum": 1000, "card4no": null, "card4noAcc": null, "district2": 409, "searchScope": null, "status": 1, "address": "\u4e07\u6e90\u8def916\u53f7", "name": "\u5609\u58f9\u7cbe\u54c1\u8d85\u5e02 \u4e07\u6e90\u5e97", "id": 182704, "pageNo": 0, "pageCount": null, "pageSize": 10, "ids": null, "endTime": null, "startTime": null}, {"cardNumFive": null, "isSupportYj": null, "cityName": null, "districtName": null, "shopinfo": {"mid": "888002153310569", "good_flag": null, "new_flag": null, "short_name": "\u5609\u58f9\u7cbe\u54c1\u8d85\u5e02", "short_name_pinyin": "jiayijingpinchaoshi", "status": null, "address": null, "name": null, "id": "41469"}, "mid": "888002153310569", "shopId": "41469", "netid": null, "province": 901, "district": 601, "zipcode": null, "telephone": null, "posDate": null, "destineTel": null, "togoTel": null, "trafficWay": null, "signBuilding": null, "businessArea": null, "selfRoom": null, "businessTime": null, "stall": null, "consume": null, "serviceFei": null, "favourable": null, "shopMemo": null, "appraise": null, "website": null, "memo": null, "payTypes": "\u6749\u5fb7\u5361", "shopTypes": "\u8d85\u5e02", "consumeTypes": null, "cookTypes": null, "orderNum": 1000, "card4no": null, "card4noAcc": null, "district2": 407, "searchScope": null, "status": 1, "address": "\u6c11\u5e86\u8def76\u53f7", "name": "\u5609\u58f9\u7cbe\u54c1\u8d85\u5e02 \u4e2d\u539f\u5e97", "id": 182705, "pageNo": 0, "pageCount": null, "pageSize": 10, "ids": null, "endTime": null, "startTime": null}, {"cardNumFive": null, "isSupportYj": null, "cityName": null, "districtName": null, "shopinfo": {"mid": "888002153310569", "good_flag": null, "new_flag": null, "short_name": "\u5609\u58f9\u7cbe\u54c1\u8d85\u5e02", "short_name_pinyin": "jiayijingpinchaoshi", "status": null, "address": null, "name": null, "id": "41469"}, "mid": "888002153310569", "shopId": "41469", "netid": null, "province": 901, "district": 601, "zipcode": null, "telephone": null, "posDate": null, "destineTel": null, "togoTel": null, "trafficWay": null, "signBuilding": null, "businessArea": null, "selfRoom": null, "businessTime": null, "stall": null, "consume": null, "serviceFei": null, "favourable": null, "shopMemo": null, "appraise": null, "website": null, "memo": null, "payTypes": "\u6749\u5fb7\u5361", "shopTypes": "\u8d85\u5e02", "consumeTypes": null, "cookTypes": null, "orderNum": 1000, "card4no": null, "card4noAcc": null, "district2": 406, "searchScope": null, "status": 1, "address": "\u9ec4\u91d1\u57ce\u9053605\u53f7", "name": "\u5609\u58f9\u7cbe\u54c1\u8d85\u5e02 \u9ec4\u91d1\u57ce\u9053\u5e97", "id": 182706, "pageNo": 0, "pageCount": null, "pageSize": 10, "ids": null, "endTime": null, "startTime": null}, {"cardNumFive": null, "isSupportYj": null, "cityName": null, "districtName": null, "shopinfo": {"mid": "888002153310569", "good_flag": null, "new_flag": null, "short_name": "\u5609\u58f9\u7cbe\u54c1\u8d85\u5e02", "short_name_pinyin": "jiayijingpinchaoshi", "status": null, "address": null, "name": null, "id": "41469"}, "mid": "888002153310569", "shopId": "41469", "netid": null, "province": 901, "district": 601, "zipcode": null, "telephone": null, "posDate": null, "destineTel": null, "togoTel": null, "trafficWay": null, "signBuilding": null, "businessArea": null, "selfRoom": null, "businessTime": null, "stall": null, "consume": null, "serviceFei": null, "favourable": null, "shopMemo": null, "appraise": null, "website": null, "memo": null, "payTypes": "\u6749\u5fb7\u5361", "shopTypes": "\u8d85\u5e02", "consumeTypes": null, "cookTypes": null, "orderNum": 1000, "card4no": null, "card4noAcc": null, "district2": 406, "searchScope": null, "status": 1, "address": "\u5929\u5c71\u8def919\u53f7", "name": "\u5609\u58f9\u7cbe\u54c1\u8d85\u5e02 \u5929\u5c71\u5e97", "id": 182707, "pageNo": 0, "pageCount": null, "pageSize": 10, "ids": null, "endTime": null, "startTime": null}, {"cardNumFive": null, "isSupportYj": null, "cityName": null, "districtName": null, "shopinfo": {"mid": "888002153310491", "good_flag": null, "new_flag": null, "short_name": "\u6377\u4f73\u8d85\u5e02", "short_name_pinyin": "jiejiachaoshi", "status": null, "address": null, "name": null, "id": "41468"}, "mid": "888002153310491", "shopId": "41468", "netid": null, "province": 901, "district": 601, "zipcode": null, "telephone": "50119796", "posDate": null, "destineTel": null, "togoTel": null, "trafficWay": null, "signBuilding": null, "businessArea": null, "selfRoom": null, "businessTime": null, "stall": null, "consume": null, "serviceFei": null, "favourable": null, "shopMemo": null, "appraise": null, "website": null, "memo": null, "payTypes": "\u6749\u5fb7\u5361", "shopTypes": "\u8d85\u5e02", "consumeTypes": null, "cookTypes": null, "orderNum": 1000, "card4no": null, "card4noAcc": null, "district2": 418, "searchScope": null, "status": 1, "address": "\u6d66\u4e1c\u5357\u8def1657\u53f7", "name": "\u6377\u4f73\u8d85\u5e02 \u6d66\u4e1c\u5357\u8def\u5e97", "id": 182696, "pageNo": 0, "pageCount": null, "pageSize": 10, "ids": null, "endTime": null, "startTime": null}, {"cardNumFive": null, "isSupportYj": null, "cityName": null, "districtName": null, "shopinfo": {"mid": "888002153310491", "good_flag": null, "new_flag": null, "short_name": "\u6377\u4f73\u8d85\u5e02", "short_name_pinyin": "jiejiachaoshi", "status": null, "address": null, "name": null, "id": "41468"}, "mid": "888002153310491", "shopId": "41468", "netid": null, "province": 901, "district": 601, "zipcode": null, "telephone": "50871873", "posDate": null, "destineTel": null, "togoTel": null, "trafficWay": null, "signBuilding": null, "businessArea": null, "selfRoom": null, "businessTime": null, "stall": null, "consume": null, "serviceFei": null, "favourable": null, "shopMemo": null, "appraise": null, "website": null, "memo": null, "payTypes": "\u6749\u5fb7\u5361", "shopTypes": "\u8d85\u5e02", "consumeTypes": null, "cookTypes": null, "orderNum": 1000, "card4no": null, "card4noAcc": null, "district2": 418, "searchScope": null, "status": 1, "address": "\u4e0a\u5357\u8def1251\u5f0431\u53f7", "name": "\u6377\u4f73\u8d85\u5e02 \u4e0a\u5357\u8def\u4e8c\u5e97", "id": 182697, "pageNo": 0, "pageCount": null, "pageSize": 10, "ids": null, "endTime": null, "startTime": null}, {"cardNumFive": null, "isSupportYj": null, "cityName": null, "districtName": null, "shopinfo": {"mid": "888002153310491", "good_flag": null, "new_flag": null, "short_name": "\u6377\u4f73\u8d85\u5e02", "short_name_pinyin": "jiejiachaoshi", "status": null, "address": null, "name": null, "id": "41468"}, "mid": "888002153310491", "shopId": "41468", "netid": null, "province": 901, "district": 601, "zipcode": null, "telephone": "65452226", "posDate": null, "destineTel": null, "togoTel": null, "trafficWay": null, "signBuilding": null, "businessArea": null, "selfRoom": null, "businessTime": null, "stall": null, "consume": null, "serviceFei": null, "favourable": null, "shopMemo": null, "appraise": null, "website": null, "memo": null, "payTypes": "\u6749\u5fb7\u5361", "shopTypes": "\u8d85\u5e02", "consumeTypes": null, "cookTypes": null, "orderNum": 1000, "card4no": null, "card4noAcc": null, "district2": 408, "searchScope": null, "status": 1, "address": "\u5b89\u56fd\u8def285\u53f7", "name": "\u6377\u4f73\u8d85\u5e02 \u5b89\u56fd\u8def\u5e97", "id": 182698, "pageNo": 0, "pageCount": null, "pageSize": 10, "ids": null, "endTime": null, "startTime": null}], "pageLimit": 3590, "size": 10}