{"pageCount": 1095, "count": 10942, "pageNo": 362, "subShopInfo": {"cardNumFive": "", "isSupportYj": "", "cityName": null, "districtName": null, "shopinfo": {"mid": null, "good_flag": null, "new_flag": null, "short_name": null, "short_name_pinyin": null, "status": null, "address": "", "name": "", "id": null}, "mid": null, "shopId": null, "netid": null, "province": 901, "district": null, "zipcode": null, "telephone": null, "posDate": null, "destineTel": null, "togoTel": null, "trafficWay": null, "signBuilding": null, "businessArea": null, "selfRoom": null, "businessTime": null, "stall": null, "consume": null, "serviceFei": null, "favourable": null, "shopMemo": "1", "appraise": null, "website": null, "memo": null, "payTypes": "", "shopTypes": "", "consumeTypes": null, "cookTypes": null, "orderNum": null, "card4no": null, "card4noAcc": null, "district2": null, "searchScope": null, "status": null, "address": "", "name": null, "id": null, "pageNo": 361, "pageCount": null, "pageSize": 10, "ids": null, "endTime": null, "startTime": null}, "list": [{"cardNumFive": null, "isSupportYj": null, "cityName": null, "districtName": null, "shopinfo": {"mid": "888888854110209", "good_flag": null, "new_flag": null, "short_name": "\u6377\u5f3a", "short_name_pinyin": "jieqiang", "status": null, "address": null, "name": null, "id": "32062"}, "mid": "888888854110209", "shopId": "32062", "netid": null, "province": 901, "district": 601, "zipcode": null, "telephone": "50567297", "posDate": "20090219", "destineTel": null, "togoTel": null, "trafficWay": null, "signBuilding": null, "businessArea": null, "selfRoom": null, "businessTime": null, "stall": null, "consume": null, "serviceFei": null, "favourable": null, "shopMemo": null, "appraise": null, "website": null, "memo": null, "payTypes": "\u6749\u5fb7\u5361", "shopTypes": "\u8d85\u5e02", "consumeTypes": null, "cookTypes": null, "orderNum": 1000, "card4no": null, "card4noAcc": null, "district2": 418, "searchScope": null, "status": 1, "address": "\u957f\u6e05\u8def131\u53f7", "name": "\u6377\u5f3a \u957f\u6e05\u5e97", "id": 136631, "pageNo": 0, "pageCount": null, "pageSize": 10, "ids": null, "endTime": null, "startTime": null}, {"cardNumFive": null, "isSupportYj": null, "cityName": null, "districtName": null, "shopinfo": {"mid": "888888854110209", "good_flag": null, "new_flag": null, "short_name": "\u6377\u5f3a", "short_name_pinyin": "jieqiang", "status": null, "address": null, "name": null, "id": "32062"}, "mid": "888888854110209", "shopId": "32062", "netid": null, "province": 901, "district": 601, "zipcode": null, "telephone": "58414914", "posDate": "20090219", "destineTel": null, "togoTel": null, "trafficWay": null, "signBuilding": null, "businessArea": null, "selfRoom": null, "businessTime": null, "stall": null, "consume": null, "serviceFei": null, "favourable": null, "shopMemo": null, "appraise": null, "website": null, "memo": null, "payTypes": "\u6749\u5fb7\u5361", "shopTypes": "\u8d85\u5e02", "consumeTypes": null, "cookTypes": null, "orderNum": 1000, "card4no": null, "card4noAcc": null, "district2": 418, "searchScope": null, "status": 1, "address": "\u957f\u6e05\u8def2039\u53f7", "name": "\u6377\u5f3a \u957f\u6e05\u4e8c\u5e97", "id": 136632, "pageNo": 0, "pageCount": null, "pageSize": 10, "ids": null, "endTime": null, "startTime": null}, {"cardNumFive": null, "isSupportYj": null, "cityName": null, "districtName": null, "shopinfo": {"mid": "888888854110209", "good_flag": null, "new_flag": null, "short_name": "\u6377\u5f3a", "short_name_pinyin": "jieqiang", "status": null, "address": null, "name": null, "id": "32062"}, "mid": "888888854110209", "shopId": "32062", "netid": null, "province": 901, "district": 601, "zipcode": null, "telephone": "62760031", "posDate": "20090121", "destineTel": null, "togoTel": null, "trafficWay": "\u516c\u4ea4138\u8def768\u8def105\u8def", "signBuilding": null, "businessArea": null, "selfRoom": null, "businessTime": null, "stall": null, "consume": null, "serviceFei": null, "favourable": null, "shopMemo": null, "appraise": null, "website": null, "memo": null, "payTypes": "\u6749\u5fb7\u5361", "shopTypes": "\u8d85\u5e02", "consumeTypes": null, "cookTypes": null, "orderNum": 1000, "card4no": null, "card4noAcc": null, "district2": 404, "searchScope": null, "status": 1, "address": "\u5e38\u5fb7\u8def1166\u53f7\u4e59", "name": "\u6377\u5f3a \u5e38\u5fb7\u5e97", "id": 136634, "pageNo": 0, "pageCount": null, "pageSize": 10, "ids": null, "endTime": null, "startTime": null}, {"cardNumFive": null, "isSupportYj": null, "cityName": null, "districtName": null, "shopinfo": {"mid": "888888854110209", "good_flag": null, "new_flag": null, "short_name": "\u6377\u5f3a", "short_name_pinyin": "jieqiang", "status": null, "address": null, "name": null, "id": "32062"}, "mid": "888888854110209", "shopId": "32062", "netid": null, "province": 901, "district": 601, "zipcode": null, "telephone": "65368503", "posDate": "20090218", "destineTel": null, "togoTel": null, "trafficWay": null, "signBuilding": null, "businessArea": null, "selfRoom": null, "businessTime": null, "stall": null, "consume": null, "serviceFei": null, "favourable": null, "shopMemo": null, "appraise": null, "website": null, "memo": null, "payTypes": "\u6749\u5fb7\u5361", "shopTypes": "\u8d85\u5e02", "consumeTypes": null, "cookTypes": null, "orderNum": 1000, "card4no": null, "card4noAcc": null, "district2": 408, "searchScope": null, "status": 1, "address": "\u8f66\u7ad9\u5317\u8def201\u53f7", "name": "\u6377\u5f3a \u8f66\u7ad9\u5e97", "id": 136635, "pageNo": 0, "pageCount": null, "pageSize": 10, "ids": null, "endTime": null, "startTime": null}, {"cardNumFive": null, "isSupportYj": null, "cityName": null, "districtName": null, "shopinfo": {"mid": "888888854110209", "good_flag": null, "new_flag": null, "short_name": "\u6377\u5f3a", "short_name_pinyin": "jieqiang", "status": null, "address": null, "name": null, "id": "32062"}, "mid": "888888854110209", "shopId": "32062", "netid": null, "province": 901, "district": 601, "zipcode": null, "telephone": "66342967", "posDate": "20090219", "destineTel": null, "togoTel": null, "trafficWay": null, "signBuilding": null, "businessArea": null, "selfRoom": null, "businessTime": null, "stall": null, "consume": null, "serviceFei": null, "favourable": null, "shopMemo": null, "appraise": null, "website": null, "memo": null, "payTypes": "\u6749\u5fb7\u5361", "shopTypes": "\u8d85\u5e02", "consumeTypes": null, "cookTypes": null, "orderNum": 1000, "card4no": null, "card4noAcc": null, "district2": 416, "searchScope": null, "status": 1, "address": "\u5927\u534e\u8def1374\u53f7", "name": "\u6377\u5f3a \u5927\u534e\u5e97", "id": 136637, "pageNo": 0, "pageCount": null, "pageSize": 10, "ids": null, "endTime": null, "startTime": null}, {"cardNumFive": null, "isSupportYj": null, "cityName": null, "districtName": null, "shopinfo": {"mid": "888888854110209", "good_flag": null, "new_flag": null, "short_name": "\u6377\u5f3a", "short_name_pinyin": "jieqiang", "status": null, "address": null, "name": null, "id": "32062"}, "mid": "888888854110209", "shopId": "32062", "netid": null, "province": 901, "district": 601, "zipcode": null, "telephone": "63563679", "posDate": "20090218", "destineTel": null, "togoTel": null, "trafficWay": null, "signBuilding": null, "businessArea": null, "selfRoom": null, "businessTime": null, "stall": null, "consume": null, "serviceFei": null, "favourable": null, "shopMemo": null, "appraise": null, "website": null, "memo": null, "payTypes": "\u6749\u5fb7\u5361", "shopTypes": "\u8d85\u5e02", "consumeTypes": null, "cookTypes": null, "orderNum": 1000, "card4no": null, "card4noAcc": null, "district2": 408, "searchScope": null, "status": 1, "address": "\u5927\u540d\u8def259\u53f7", "name": "\u6377\u5f3a \u5927\u540d\u5e97", "id": 136638, "pageNo": 0, "pageCount": null, "pageSize": 10, "ids": null, "endTime": null, "startTime": null}, {"cardNumFive": null, "isSupportYj": null, "cityName": null, "districtName": null, "shopinfo": {"mid": "888888854110209", "good_flag": null, "new_flag": null, "short_name": "\u6377\u5f3a", "short_name_pinyin": "jieqiang", "status": null, "address": null, "name": null, "id": "32062"}, "mid": "888888854110209", "shopId": "32062", "netid": null, "province": 901, "district": 601, "zipcode": null, "telephone": "62676670", "posDate": "20090223", "destineTel": null, "togoTel": null, "trafficWay": null, "signBuilding": null, "businessArea": null, "selfRoom": null, "businessTime": null, "stall": null, "consume": null, "serviceFei": null, "favourable": null, "shopMemo": null, "appraise": null, "website": null, "memo": null, "payTypes": "\u6749\u5fb7\u5361", "shopTypes": "\u8d85\u5e02", "consumeTypes": null, "cookTypes": null, "orderNum": 1000, "card4no": null, "card4noAcc": null, "district2": 404, "searchScope": null, "status": 1, "address": "\u5927\u7530\u8def367\u53f7", "name": "\u6377\u5f3a \u5927\u7530\u5e97", "id": 136639, "pageNo": 0, "pageCount": null, "pageSize": 10, "ids": null, "endTime": null, "startTime": null}, {"cardNumFive": null, "isSupportYj": null, "cityName": null, "districtName": null, "shopinfo": {"mid": "888888854110209", "good_flag": null, "new_flag": null, "short_name": "\u6377\u5f3a", "short_name_pinyin": "jieqiang", "status": null, "address": null, "name": null, "id": "32062"}, "mid": "888888854110209", "shopId": "32062", "netid": null, "province": 901, "district": 601, "zipcode": null, "telephone": "58213139", "posDate": "20090219", "destineTel": null, "togoTel": null, "trafficWay": null, "signBuilding": null, "businessArea": null, "selfRoom": null, "businessTime": null, "stall": null, "consume": null, "serviceFei": null, "favourable": null, "shopMemo": null, "appraise": null, "website": null, "memo": null, "payTypes": "\u6749\u5fb7\u5361", "shopTypes": "\u8d85\u5e02", "consumeTypes": null, "cookTypes": null, "orderNum": 1000, "card4no": null, "card4noAcc": null, "district2": 418, "searchScope": null, "status": 1, "address": "\u5fb7\u5e73\u8def98\u53f7", "name": "\u6377\u5f3a \u5fb7\u5e73\u5e97", "id": 136640, "pageNo": 0, "pageCount": null, "pageSize": 10, "ids": null, "endTime": null, "startTime": null}, {"cardNumFive": null, "isSupportYj": null, "cityName": null, "districtName": null, "shopinfo": {"mid": "888888854110209", "good_flag": null, "new_flag": null, "short_name": "\u6377\u5f3a", "short_name_pinyin": "jieqiang", "status": null, "address": null, "name": null, "id": "32062"}, "mid": "888888854110209", "shopId": "32062", "netid": null, "province": 901, "district": 601, "zipcode": null, "telephone": "68564442", "posDate": "20090219", "destineTel": null, "togoTel": null, "trafficWay": null, "signBuilding": null, "businessArea": null, "selfRoom": null, "businessTime": null, "stall": null, "consume": null, "serviceFei": null, "favourable": null, "shopMemo": null, "appraise": null, "website": null, "memo": null, "payTypes": "\u6749\u5fb7\u5361", "shopTypes": "\u8d85\u5e02", "consumeTypes": null, "cookTypes": null, "orderNum": 1000, "card4no": null, "card4noAcc": null, "district2": 418, "searchScope": null, "status": 1, "address": "\u5fb7\u5e73\u8def1107\u53f7", "name": "\u6377\u5f3a \u5fb7\u5e73\u4e8c\u5e97", "id": 136641, "pageNo": 0, "pageCount": null, "pageSize": 10, "ids": null, "endTime": null, "startTime": null}, {"cardNumFive": null, "isSupportYj": null, "cityName": null, "districtName": null, "shopinfo": {"mid": "888888854110209", "good_flag": null, "new_flag": null, "short_name": "\u6377\u5f3a", "short_name_pinyin": "jieqiang", "status": null, "address": null, "name": null, "id": "32062"}, "mid": "888888854110209", "shopId": "32062", "netid": null, "province": 901, "district": 601, "zipcode": null, "telephone": "56304774", "posDate": "20090218", "destineTel": null, "togoTel": null, "trafficWay": null, "signBuilding": null, "businessArea": null, "selfRoom": null, "businessTime": null, "stall": null, "consume": null, "serviceFei": null, "favourable": null, "shopMemo": null, "appraise": null, "website": null, "memo": null, "payTypes": "\u6749\u5fb7\u5361", "shopTypes": "\u8d85\u5e02", "consumeTypes": null, "cookTypes": null, "orderNum": 1000, "card4no": null, "card4noAcc": null, "district2": 410, "searchScope": null, "status": 1, "address": "\u4e1c\u5b9d\u5174\u8def625\u53f7", "name": "\u6377\u5f3a \u4e1c\u5b9d\u5e97", "id": 136642, "pageNo": 0, "pageCount": null, "pageSize": 10, "ids": null, "endTime": null, "startTime": null}], "pageLimit": 3610, "size": 10}