{"pageCount": 1095, "count": 10942, "pageNo": 364, "subShopInfo": {"cardNumFive": "", "isSupportYj": "", "cityName": null, "districtName": null, "shopinfo": {"mid": null, "good_flag": null, "new_flag": null, "short_name": null, "short_name_pinyin": null, "status": null, "address": "", "name": "", "id": null}, "mid": null, "shopId": null, "netid": null, "province": 901, "district": null, "zipcode": null, "telephone": null, "posDate": null, "destineTel": null, "togoTel": null, "trafficWay": null, "signBuilding": null, "businessArea": null, "selfRoom": null, "businessTime": null, "stall": null, "consume": null, "serviceFei": null, "favourable": null, "shopMemo": "1", "appraise": null, "website": null, "memo": null, "payTypes": "", "shopTypes": "", "consumeTypes": null, "cookTypes": null, "orderNum": null, "card4no": null, "card4noAcc": null, "district2": null, "searchScope": null, "status": null, "address": "", "name": null, "id": null, "pageNo": 363, "pageCount": null, "pageSize": 10, "ids": null, "endTime": null, "startTime": null}, "list": [{"cardNumFive": null, "isSupportYj": null, "cityName": null, "districtName": null, "shopinfo": {"mid": "888888854110209", "good_flag": null, "new_flag": null, "short_name": "\u6377\u5f3a", "short_name_pinyin": "jieqiang", "status": null, "address": null, "name": null, "id": "32062"}, "mid": "888888854110209", "shopId": "32062", "netid": null, "province": 901, "district": 601, "zipcode": null, "telephone": "65443277", "posDate": "20090218", "destineTel": null, "togoTel": null, "trafficWay": null, "signBuilding": null, "businessArea": null, "selfRoom": null, "businessTime": null, "stall": null, "consume": null, "serviceFei": null, "favourable": null, "shopMemo": null, "appraise": null, "website": null, "memo": null, "payTypes": "\u6749\u5fb7\u5361", "shopTypes": "\u8d85\u5e02", "consumeTypes": null, "cookTypes": null, "orderNum": 1000, "card4no": null, "card4noAcc": null, "district2": 408, "searchScope": null, "status": 1, "address": "\u5e7f\u7075\u56db\u8def160\u53f7", "name": "\u6377\u5f3a \u5e7f\u7075\u5e97", "id": 136653, "pageNo": 0, "pageCount": null, "pageSize": 10, "ids": null, "endTime": null, "startTime": null}, {"cardNumFive": null, "isSupportYj": null, "cityName": null, "districtName": null, "shopinfo": {"mid": "888888854110209", "good_flag": null, "new_flag": null, "short_name": "\u6377\u5f3a", "short_name_pinyin": "jieqiang", "status": null, "address": null, "name": null, "id": "32062"}, "mid": "888888854110209", "shopId": "32062", "netid": null, "province": 901, "district": 601, "zipcode": null, "telephone": "65326563", "posDate": "20090218", "destineTel": null, "togoTel": null, "trafficWay": null, "signBuilding": null, "businessArea": null, "selfRoom": null, "businessTime": null, "stall": null, "consume": null, "serviceFei": null, "favourable": null, "shopMemo": null, "appraise": null, "website": null, "memo": null, "payTypes": "\u6749\u5fb7\u5361", "shopTypes": "\u8d85\u5e02", "consumeTypes": null, "cookTypes": null, "orderNum": 1000, "card4no": null, "card4noAcc": null, "district2": 407, "searchScope": null, "status": 1, "address": "\u56fd\u548c\u8def1024\u53f7", "name": "\u6377\u5f3a \u56fd\u548c\u5e97", "id": 136654, "pageNo": 0, "pageCount": null, "pageSize": 10, "ids": null, "endTime": null, "startTime": null}, {"cardNumFive": null, "isSupportYj": null, "cityName": null, "districtName": null, "shopinfo": {"mid": "888888854110209", "good_flag": null, "new_flag": null, "short_name": "\u6377\u5f3a", "short_name_pinyin": "jieqiang", "status": null, "address": null, "name": null, "id": "32062"}, "mid": "888888854110209", "shopId": "32062", "netid": null, "province": 901, "district": 601, "zipcode": null, "telephone": "63082028", "posDate": "20090223", "destineTel": null, "togoTel": null, "trafficWay": null, "signBuilding": null, "businessArea": null, "selfRoom": null, "businessTime": null, "stall": null, "consume": null, "serviceFei": null, "favourable": null, "shopMemo": null, "appraise": null, "website": null, "memo": null, "payTypes": "\u6749\u5fb7\u5361", "shopTypes": "\u8d85\u5e02", "consumeTypes": null, "cookTypes": null, "orderNum": 1000, "card4no": null, "card4noAcc": null, "district2": 418, "searchScope": null, "status": 1, "address": "\u56fd\u8d27\u8def321\u53f7", "name": "\u6377\u5f3a \u56fd\u8d27\u5e97", "id": 136655, "pageNo": 0, "pageCount": null, "pageSize": 10, "ids": null, "endTime": null, "startTime": null}, {"cardNumFive": null, "isSupportYj": null, "cityName": null, "districtName": null, "shopinfo": {"mid": "888888854110209", "good_flag": null, "new_flag": null, "short_name": "\u6377\u5f3a", "short_name_pinyin": "jieqiang", "status": null, "address": null, "name": null, "id": "32062"}, "mid": "888888854110209", "shopId": "32062", "netid": null, "province": 901, "district": 601, "zipcode": null, "telephone": "52187565", "posDate": "20090218", "destineTel": null, "togoTel": null, "trafficWay": null, "signBuilding": null, "businessArea": null, "selfRoom": null, "businessTime": null, "stall": null, "consume": null, "serviceFei": null, "favourable": null, "shopMemo": null, "appraise": null, "website": null, "memo": null, "payTypes": "\u6749\u5fb7\u5361", "shopTypes": "\u8d85\u5e02", "consumeTypes": null, "cookTypes": null, "orderNum": 1000, "card4no": null, "card4noAcc": null, "district2": 406, "searchScope": null, "status": 1, "address": "\u54c8\u5bc6\u8def104\u53f7", "name": "\u6377\u5f3a \u54c8\u5bc6\u5e97", "id": 136656, "pageNo": 0, "pageCount": null, "pageSize": 10, "ids": null, "endTime": null, "startTime": null}, {"cardNumFive": null, "isSupportYj": null, "cityName": null, "districtName": null, "shopinfo": {"mid": "888888854110209", "good_flag": null, "new_flag": null, "short_name": "\u6377\u5f3a", "short_name_pinyin": "jieqiang", "status": null, "address": null, "name": null, "id": "32062"}, "mid": "888888854110209", "shopId": "32062", "netid": null, "province": 901, "district": 601, "zipcode": null, "telephone": "64218069", "posDate": "20090217", "destineTel": null, "togoTel": null, "trafficWay": null, "signBuilding": null, "businessArea": null, "selfRoom": null, "businessTime": null, "stall": null, "consume": null, "serviceFei": null, "favourable": null, "shopMemo": null, "appraise": null, "website": null, "memo": null, "payTypes": "\u6749\u5fb7\u5361", "shopTypes": "\u8d85\u5e02", "consumeTypes": null, "cookTypes": null, "orderNum": 1000, "card4no": null, "card4noAcc": null, "district2": 409, "searchScope": null, "status": 1, "address": "\u822a\u5317\u8def230-236\u53f7", "name": "\u6377\u5f3a \u822a\u5317\u5e97", "id": 136657, "pageNo": 0, "pageCount": null, "pageSize": 10, "ids": null, "endTime": null, "startTime": null}, {"cardNumFive": null, "isSupportYj": null, "cityName": null, "districtName": null, "shopinfo": {"mid": "888888854110209", "good_flag": null, "new_flag": null, "short_name": "\u6377\u5f3a", "short_name_pinyin": "jieqiang", "status": null, "address": null, "name": null, "id": "32062"}, "mid": "888888854110209", "shopId": "32062", "netid": null, "province": 901, "district": 601, "zipcode": null, "telephone": "54472715", "posDate": "20090121", "destineTel": null, "togoTel": null, "trafficWay": "\u516c\u4ea4945\u8def519\u8def709\u8def", "signBuilding": null, "businessArea": null, "selfRoom": null, "businessTime": null, "stall": null, "consume": null, "serviceFei": null, "favourable": null, "shopMemo": null, "appraise": null, "website": null, "memo": null, "payTypes": "\u6749\u5fb7\u5361", "shopTypes": "\u8d85\u5e02", "consumeTypes": null, "cookTypes": null, "orderNum": 1000, "card4no": null, "card4noAcc": null, "district2": 409, "searchScope": null, "status": 1, "address": "\u822a\u5317\u8def206\u53f71\u697c\u7532", "name": "\u6377\u5f3a \u822a\u4e1c\u5e97", "id": 136658, "pageNo": 0, "pageCount": null, "pageSize": 10, "ids": null, "endTime": null, "startTime": null}, {"cardNumFive": null, "isSupportYj": null, "cityName": null, "districtName": null, "shopinfo": {"mid": "888888854110209", "good_flag": null, "new_flag": null, "short_name": "\u6377\u5f3a", "short_name_pinyin": "jieqiang", "status": null, "address": null, "name": null, "id": "32062"}, "mid": "888888854110209", "shopId": "32062", "netid": null, "province": 901, "district": 601, "zipcode": null, "telephone": "56964780", "posDate": "20090218", "destineTel": null, "togoTel": null, "trafficWay": null, "signBuilding": null, "businessArea": null, "selfRoom": null, "businessTime": null, "stall": null, "consume": null, "serviceFei": null, "favourable": null, "shopMemo": null, "appraise": null, "website": null, "memo": null, "payTypes": "\u6749\u5fb7\u5361", "shopTypes": "\u8d85\u5e02", "consumeTypes": null, "cookTypes": null, "orderNum": 1000, "card4no": null, "card4noAcc": null, "district2": 408, "searchScope": null, "status": 1, "address": "\u6a2a\u6d5c\u8def190\u53f7", "name": "\u6377\u5f3a \u6a2a\u6d5c\u5e97", "id": 136659, "pageNo": 0, "pageCount": null, "pageSize": 10, "ids": null, "endTime": null, "startTime": null}, {"cardNumFive": null, "isSupportYj": null, "cityName": null, "districtName": null, "shopinfo": {"mid": "888888854110209", "good_flag": null, "new_flag": null, "short_name": "\u6377\u5f3a", "short_name_pinyin": "jieqiang", "status": null, "address": null, "name": null, "id": "32062"}, "mid": "888888854110209", "shopId": "32062", "netid": null, "province": 901, "district": 601, "zipcode": null, "telephone": "56744850", "posDate": "20090219", "destineTel": null, "togoTel": null, "trafficWay": null, "signBuilding": null, "businessArea": null, "selfRoom": null, "businessTime": null, "stall": null, "consume": null, "serviceFei": null, "favourable": null, "shopMemo": null, "appraise": null, "website": null, "memo": null, "payTypes": "\u6749\u5fb7\u5361", "shopTypes": "\u8d85\u5e02", "consumeTypes": null, "cookTypes": null, "orderNum": 1000, "card4no": null, "card4noAcc": null, "district2": 416, "searchScope": null, "status": 1, "address": "\u547c\u5170\u8def987\u53f7", "name": "\u6377\u5f3a \u547c\u5170\u5e97", "id": 136660, "pageNo": 0, "pageCount": null, "pageSize": 10, "ids": null, "endTime": null, "startTime": null}, {"cardNumFive": null, "isSupportYj": null, "cityName": null, "districtName": null, "shopinfo": {"mid": "888888854110209", "good_flag": null, "new_flag": null, "short_name": "\u6377\u5f3a", "short_name_pinyin": "jieqiang", "status": null, "address": null, "name": null, "id": "32062"}, "mid": "888888854110209", "shopId": "32062", "netid": null, "province": 901, "district": 601, "zipcode": null, "telephone": "63450736", "posDate": "20090223", "destineTel": null, "togoTel": null, "trafficWay": null, "signBuilding": null, "businessArea": null, "selfRoom": null, "businessTime": null, "stall": null, "consume": null, "serviceFei": null, "favourable": null, "shopMemo": null, "appraise": null, "website": null, "memo": null, "payTypes": "\u6749\u5fb7\u5361", "shopTypes": "\u8d85\u5e02", "consumeTypes": null, "cookTypes": null, "orderNum": 1000, "card4no": null, "card4noAcc": null, "district2": 401, "searchScope": null, "status": 1, "address": "\u9ec4\u5bb6\u9619\u8def115\u53f7", "name": "\u6377\u5f3a \u9ec4\u5bb6\u9619\u5e97", "id": 136662, "pageNo": 0, "pageCount": null, "pageSize": 10, "ids": null, "endTime": null, "startTime": null}, {"cardNumFive": null, "isSupportYj": null, "cityName": null, "districtName": null, "shopinfo": {"mid": "888888854110209", "good_flag": null, "new_flag": null, "short_name": "\u6377\u5f3a", "short_name_pinyin": "jieqiang", "status": null, "address": null, "name": null, "id": "32062"}, "mid": "888888854110209", "shopId": "32062", "netid": null, "province": 901, "district": 601, "zipcode": null, "telephone": "63165328", "posDate": "20090223", "destineTel": null, "togoTel": null, "trafficWay": null, "signBuilding": null, "businessArea": null, "selfRoom": null, "businessTime": null, "stall": null, "consume": null, "serviceFei": null, "favourable": null, "shopMemo": null, "appraise": null, "website": null, "memo": null, "payTypes": "\u6749\u5fb7\u5361", "shopTypes": "\u8d85\u5e02", "consumeTypes": null, "cookTypes": null, "orderNum": 1000, "card4no": null, "card4noAcc": null, "district2": 401, "searchScope": null, "status": 1, "address": "\u5fbd\u5b81\u8def429\u53f7", "name": "\u6377\u5f3a \u5fbd\u5b81\u5e97", "id": 136663, "pageNo": 0, "pageCount": null, "pageSize": 10, "ids": null, "endTime": null, "startTime": null}], "pageLimit": 3630, "size": 10}