{"pageCount": 1095, "count": 10942, "pageNo": 376, "subShopInfo": {"cardNumFive": "", "isSupportYj": "", "cityName": null, "districtName": null, "shopinfo": {"mid": null, "good_flag": null, "new_flag": null, "short_name": null, "short_name_pinyin": null, "status": null, "address": "", "name": "", "id": null}, "mid": null, "shopId": null, "netid": null, "province": 901, "district": null, "zipcode": null, "telephone": null, "posDate": null, "destineTel": null, "togoTel": null, "trafficWay": null, "signBuilding": null, "businessArea": null, "selfRoom": null, "businessTime": null, "stall": null, "consume": null, "serviceFei": null, "favourable": null, "shopMemo": "1", "appraise": null, "website": null, "memo": null, "payTypes": "", "shopTypes": "", "consumeTypes": null, "cookTypes": null, "orderNum": null, "card4no": null, "card4noAcc": null, "district2": null, "searchScope": null, "status": null, "address": "", "name": null, "id": null, "pageNo": 375, "pageCount": null, "pageSize": 10, "ids": null, "endTime": null, "startTime": null}, "list": [{"cardNumFive": null, "isSupportYj": null, "cityName": null, "districtName": null, "shopinfo": {"mid": "888888854410015", "good_flag": null, "new_flag": null, "short_name": "\u9759\u5b89\u9762\u5305\u623f", "short_name_pinyin": "jinganmianbaofang", "status": null, "address": null, "name": null, "id": "32183"}, "mid": "888888854410015", "shopId": "32183", "netid": null, "province": 901, "district": 601, "zipcode": null, "telephone": "55219178", "posDate": "20070110", "destineTel": "55219178", "togoTel": "55219178", "trafficWay": "\u516c\u4ea4934 22 33", "signBuilding": null, "businessArea": "50~100\u5e73\u7c73", "selfRoom": "\u65e0", "businessTime": null, "stall": "\u65e0", "consume": null, "serviceFei": null, "favourable": null, "shopMemo": null, "appraise": null, "website": null, "memo": null, "payTypes": "\u6749\u5fb7\u5361", "shopTypes": "\u9762\u5305\u897f\u997c", "consumeTypes": null, "cookTypes": null, "orderNum": 1000, "card4no": null, "card4noAcc": null, "district2": 407, "searchScope": null, "status": 1, "address": "\u957f\u9633\u8def1161\u53f7", "name": "\u9759\u5b89\u9762\u5305\u623f \u957f\u9633\u5e97", "id": 136951, "pageNo": 0, "pageCount": null, "pageSize": 10, "ids": null, "endTime": null, "startTime": null}, {"cardNumFive": null, "isSupportYj": null, "cityName": null, "districtName": null, "shopinfo": {"mid": "888888854410015", "good_flag": null, "new_flag": null, "short_name": "\u9759\u5b89\u9762\u5305\u623f", "short_name_pinyin": "jinganmianbaofang", "status": null, "address": null, "name": null, "id": "32183"}, "mid": "888888854410015", "shopId": "32183", "netid": null, "province": 901, "district": 601, "zipcode": null, "telephone": "63050845", "posDate": "20070111", "destineTel": "63050845", "togoTel": "63050845", "trafficWay": "\u516c\u4ea4814 43", "signBuilding": null, "businessArea": "50~100\u5e73\u7c73", "selfRoom": "\u65e0", "businessTime": null, "stall": "\u65e0", "consume": null, "serviceFei": null, "favourable": null, "shopMemo": null, "appraise": null, "website": null, "memo": null, "payTypes": "\u6749\u5fb7\u5361", "shopTypes": "\u9762\u5305\u897f\u997c", "consumeTypes": null, "cookTypes": null, "orderNum": 1000, "card4no": null, "card4noAcc": null, "district2": 401, "searchScope": null, "status": 1, "address": "\u6253\u6d66\u8def242\u53f7", "name": "\u9759\u5b89\u9762\u5305\u623f \u6253\u6d66\u5e97", "id": 136954, "pageNo": 0, "pageCount": null, "pageSize": 10, "ids": null, "endTime": null, "startTime": null}, {"cardNumFive": null, "isSupportYj": null, "cityName": null, "districtName": null, "shopinfo": {"mid": "888888854410015", "good_flag": null, "new_flag": null, "short_name": "\u9759\u5b89\u9762\u5305\u623f", "short_name_pinyin": "jinganmianbaofang", "status": null, "address": null, "name": null, "id": "32183"}, "mid": "888888854410015", "shopId": "32183", "netid": null, "province": 901, "district": 601, "zipcode": null, "telephone": "63455281", "posDate": "20070531", "destineTel": null, "togoTel": null, "trafficWay": "\u516c\u4ea4218 43", "signBuilding": null, "businessArea": "50~100\u5e73\u7c73", "selfRoom": "\u65e0", "businessTime": null, "stall": "\u65e0", "consume": null, "serviceFei": null, "favourable": null, "shopMemo": null, "appraise": null, "website": null, "memo": null, "payTypes": "\u6749\u5fb7\u5361", "shopTypes": "\u9762\u5305\u897f\u997c", "consumeTypes": null, "cookTypes": null, "orderNum": 1000, "card4no": null, "card4noAcc": null, "district2": 401, "searchScope": null, "status": 1, "address": "\u65b9\u659c\u8def505\u53f7", "name": "\u9759\u5b89\u9762\u5305\u623f \u5927\u5409\u5e97", "id": 136957, "pageNo": 0, "pageCount": null, "pageSize": 10, "ids": null, "endTime": null, "startTime": null}, {"cardNumFive": null, "isSupportYj": null, "cityName": null, "districtName": null, "shopinfo": {"mid": "888888854410015", "good_flag": null, "new_flag": null, "short_name": "\u9759\u5b89\u9762\u5305\u623f", "short_name_pinyin": "jinganmianbaofang", "status": null, "address": null, "name": null, "id": "32183"}, "mid": "888888854410015", "shopId": "32183", "netid": null, "province": 901, "district": 601, "zipcode": null, "telephone": "65441697", "posDate": "20070110", "destineTel": "65441697", "togoTel": "65441697", "trafficWay": "\u516c\u4ea4107 933 829", "signBuilding": null, "businessArea": "50~100\u5e73\u7c73", "selfRoom": "\u65e0", "businessTime": null, "stall": "\u65e0", "consume": null, "serviceFei": null, "favourable": null, "shopMemo": null, "appraise": null, "website": null, "memo": null, "payTypes": "\u6749\u5fb7\u5361", "shopTypes": "\u9762\u5305\u897f\u997c", "consumeTypes": null, "cookTypes": null, "orderNum": 1000, "card4no": null, "card4noAcc": null, "district2": 408, "searchScope": null, "status": 1, "address": "\u5e7f\u7075\u4e00\u8def34\u53f7", "name": "\u9759\u5b89\u9762\u5305\u623f \u5e7f\u7075\u5e97", "id": 136964, "pageNo": 0, "pageCount": null, "pageSize": 10, "ids": null, "endTime": null, "startTime": null}, {"cardNumFive": null, "isSupportYj": null, "cityName": null, "districtName": null, "shopinfo": {"mid": "888888854410015", "good_flag": null, "new_flag": null, "short_name": "\u9759\u5b89\u9762\u5305\u623f", "short_name_pinyin": "jinganmianbaofang", "status": null, "address": null, "name": null, "id": "32183"}, "mid": "888888854410015", "shopId": "32183", "netid": null, "province": 901, "district": 601, "zipcode": null, "telephone": "54189626", "posDate": "20070109", "destineTel": "54189626", "togoTel": "54189626", "trafficWay": "43 122 131", "signBuilding": null, "businessArea": "50~100\u5e73\u7c73", "selfRoom": "\u65e0", "businessTime": null, "stall": "\u65e0", "consume": null, "serviceFei": null, "favourable": null, "shopMemo": null, "appraise": null, "website": null, "memo": null, "payTypes": "\u6749\u5fb7\u5361", "shopTypes": "\u9762\u5305\u897f\u997c", "consumeTypes": null, "cookTypes": null, "orderNum": 1000, "card4no": null, "card4noAcc": null, "district2": 403, "searchScope": null, "status": 1, "address": "\u6842\u6797\u897f\u885735\u53f7", "name": "\u9759\u5b89\u9762\u5305\u623f \u6842\u6797\u5e97", "id": 136965, "pageNo": 0, "pageCount": null, "pageSize": 10, "ids": null, "endTime": null, "startTime": null}, {"cardNumFive": null, "isSupportYj": null, "cityName": null, "districtName": null, "shopinfo": {"mid": "888888854410015", "good_flag": null, "new_flag": null, "short_name": "\u9759\u5b89\u9762\u5305\u623f", "short_name_pinyin": "jinganmianbaofang", "status": null, "address": null, "name": null, "id": "32183"}, "mid": "888888854410015", "shopId": "32183", "netid": null, "province": 901, "district": 601, "zipcode": null, "telephone": "62487537", "posDate": "20080815", "destineTel": null, "togoTel": null, "trafficWay": null, "signBuilding": null, "businessArea": null, "selfRoom": null, "businessTime": null, "stall": null, "consume": null, "serviceFei": null, "favourable": null, "shopMemo": null, "appraise": null, "website": null, "memo": null, "payTypes": "\u6749\u5fb7\u5361", "shopTypes": "\u9762\u5305\u897f\u997c", "consumeTypes": null, "cookTypes": null, "orderNum": 1000, "card4no": null, "card4noAcc": null, "district2": 418, "searchScope": null, "status": 1, "address": "\u5d02\u5c71\u4e1c\u8def20-1\u53f7", "name": "\u9759\u5b89\u9762\u5305\u623f \u5d02\u5c71\u4e1c\u8def\u5e97", "id": 136975, "pageNo": 0, "pageCount": null, "pageSize": 10, "ids": null, "endTime": null, "startTime": null}, {"cardNumFive": null, "isSupportYj": null, "cityName": null, "districtName": null, "shopinfo": {"mid": "888888854410015", "good_flag": null, "new_flag": null, "short_name": "\u9759\u5b89\u9762\u5305\u623f", "short_name_pinyin": "jinganmianbaofang", "status": null, "address": null, "name": null, "id": "32183"}, "mid": "888888854410015", "shopId": "32183", "netid": null, "province": 901, "district": 601, "zipcode": null, "telephone": "64071180", "posDate": "20070109", "destineTel": "64071180", "togoTel": "64071180", "trafficWay": "\u5730\u94c1\u4e00\u53f7\u7ebf 93 43\u533a\u95f4", "signBuilding": null, "businessArea": "50~100\u5e73\u7c73", "selfRoom": "\u65e0", "businessTime": null, "stall": "\u65e0", "consume": null, "serviceFei": null, "favourable": null, "shopMemo": null, "appraise": null, "website": null, "memo": null, "payTypes": "\u6749\u5fb7\u5361", "shopTypes": "\u9762\u5305\u897f\u997c", "consumeTypes": null, "cookTypes": null, "orderNum": 1000, "card4no": null, "card4noAcc": null, "district2": 403, "searchScope": null, "status": 1, "address": "\u4e50\u5c71\u8def75\u53f7", "name": "\u9759\u5b89\u9762\u5305\u623f \u4e50\u5c71\u5e97", "id": 136976, "pageNo": 0, "pageCount": null, "pageSize": 10, "ids": null, "endTime": null, "startTime": null}, {"cardNumFive": null, "isSupportYj": null, "cityName": null, "districtName": null, "shopinfo": {"mid": "888888854410015", "good_flag": null, "new_flag": null, "short_name": "\u9759\u5b89\u9762\u5305\u623f", "short_name_pinyin": "jinganmianbaofang", "status": null, "address": null, "name": null, "id": "32183"}, "mid": "888888854410015", "shopId": "32183", "netid": null, "province": 901, "district": 601, "zipcode": null, "telephone": "54630674", "posDate": "20070109", "destineTel": "54630674", "togoTel": "54630674", "trafficWay": "218 703B\u7ebf 50", "signBuilding": null, "businessArea": "50~100\u5e73\u7c73", "selfRoom": "\u65e0", "businessTime": null, "stall": "\u65e0", "consume": null, "serviceFei": null, "favourable": null, "shopMemo": null, "appraise": null, "website": null, "memo": null, "payTypes": "\u6749\u5fb7\u5361", "shopTypes": "\u9762\u5305\u897f\u997c", "consumeTypes": null, "cookTypes": null, "orderNum": 1000, "card4no": null, "card4noAcc": null, "district2": 403, "searchScope": null, "status": 1, "address": "\u51cc\u4e91\u8def397\u53f7", "name": "\u9759\u5b89\u9762\u5305\u623f \u51cc\u4e91\u5e97", "id": 136980, "pageNo": 0, "pageCount": null, "pageSize": 10, "ids": null, "endTime": null, "startTime": null}, {"cardNumFive": null, "isSupportYj": null, "cityName": null, "districtName": null, "shopinfo": {"mid": "888888854410015", "good_flag": null, "new_flag": null, "short_name": "\u9759\u5b89\u9762\u5305\u623f", "short_name_pinyin": "jinganmianbaofang", "status": null, "address": null, "name": null, "id": "32183"}, "mid": "888888854410015", "shopId": "32183", "netid": null, "province": 901, "district": 601, "zipcode": null, "telephone": "33583597", "posDate": "20080205", "destineTel": null, "togoTel": null, "trafficWay": "\u516c\u4ea4205 \u6caa\u677e\u7ebf 506", "signBuilding": null, "businessArea": null, "selfRoom": null, "businessTime": null, "stall": null, "consume": null, "serviceFei": null, "favourable": null, "shopMemo": null, "appraise": null, "website": null, "memo": null, "payTypes": "\u6749\u5fb7\u5361", "shopTypes": "\u9762\u5305\u897f\u997c", "consumeTypes": null, "cookTypes": null, "orderNum": 1000, "card4no": null, "card4noAcc": null, "district2": 409, "searchScope": null, "status": 1, "address": "\u9f99\u8317\u8def2391\u53f7\u9759\u5b89\u65b0\u57ce", "name": "\u9759\u5b89\u9762\u5305\u623f \u9f99\u8317\u5e97", "id": 136982, "pageNo": 0, "pageCount": null, "pageSize": 10, "ids": null, "endTime": null, "startTime": null}, {"cardNumFive": null, "isSupportYj": null, "cityName": null, "districtName": null, "shopinfo": {"mid": "888888854410015", "good_flag": null, "new_flag": null, "short_name": "\u9759\u5b89\u9762\u5305\u623f", "short_name_pinyin": "jinganmianbaofang", "status": null, "address": null, "name": null, "id": "32183"}, "mid": "888888854410015", "shopId": "32183", "netid": null, "province": 901, "district": 601, "zipcode": null, "telephone": "62280693", "posDate": "20070118", "destineTel": "62280693", "togoTel": "62280693", "trafficWay": "\u516c\u4ea4808 855", "signBuilding": null, "businessArea": "50~100\u5e73\u7c73", "selfRoom": "\u65e0", "businessTime": null, "stall": "\u65e0", "consume": null, "serviceFei": null, "favourable": null, "shopMemo": null, "appraise": null, "website": null, "memo": null, "payTypes": "\u6749\u5fb7\u5361", "shopTypes": "\u9762\u5305\u897f\u997c", "consumeTypes": null, "cookTypes": null, "orderNum": 1000, "card4no": null, "card4noAcc": null, "district2": 406, "searchScope": null, "status": 1, "address": "\u8305\u53f0\u8def520\u53f7", "name": "\u9759\u5b89\u9762\u5305\u623f \u8305\u53f0\u5e97", "id": 136986, "pageNo": 0, "pageCount": null, "pageSize": 10, "ids": null, "endTime": null, "startTime": null}], "pageLimit": 3750, "size": 10}