{"pageCount": 1095, "count": 10942, "pageNo": 379, "subShopInfo": {"cardNumFive": "", "isSupportYj": "", "cityName": null, "districtName": null, "shopinfo": {"mid": null, "good_flag": null, "new_flag": null, "short_name": null, "short_name_pinyin": null, "status": null, "address": "", "name": "", "id": null}, "mid": null, "shopId": null, "netid": null, "province": 901, "district": null, "zipcode": null, "telephone": null, "posDate": null, "destineTel": null, "togoTel": null, "trafficWay": null, "signBuilding": null, "businessArea": null, "selfRoom": null, "businessTime": null, "stall": null, "consume": null, "serviceFei": null, "favourable": null, "shopMemo": "1", "appraise": null, "website": null, "memo": null, "payTypes": "", "shopTypes": "", "consumeTypes": null, "cookTypes": null, "orderNum": null, "card4no": null, "card4noAcc": null, "district2": null, "searchScope": null, "status": null, "address": "", "name": null, "id": null, "pageNo": 378, "pageCount": null, "pageSize": 10, "ids": null, "endTime": null, "startTime": null}, "list": [{"cardNumFive": null, "isSupportYj": null, "cityName": null, "districtName": null, "shopinfo": {"mid": "888888880430053", "good_flag": "2", "new_flag": "2", "short_name": "\u775b\u5f69\u773c\u955c", "short_name_pinyin": "jingcaiyanjing", "status": null, "address": null, "name": null, "id": "32175"}, "mid": "888888880430053", "shopId": "32175", "netid": null, "province": 901, "district": 601, "zipcode": null, "telephone": "56711404", "posDate": "20080514", "destineTel": null, "togoTel": null, "trafficWay": "\u516c\u4ea4167 537 \u5730\u94c1\u516b\u53f7\u7ebf", "signBuilding": null, "businessArea": null, "selfRoom": null, "businessTime": "10:00~22:00", "stall": null, "consume": null, "serviceFei": null, "favourable": null, "shopMemo": null, "appraise": null, "website": null, "memo": null, "payTypes": "\u6749\u5fb7\u5361", "shopTypes": "\u96f6\u552e,\u4e13\u5356", "consumeTypes": null, "cookTypes": null, "orderNum": 1000, "card4no": null, "card4noAcc": null, "district2": 408, "searchScope": null, "status": 1, "address": "\u56db\u5ddd\u5317\u8def2076\u53f7", "name": "\u775b\u5f69\u773c\u955c \u5929\u5174\u5e97", "id": 136933, "pageNo": 0, "pageCount": null, "pageSize": 10, "ids": null, "endTime": null, "startTime": null}, {"cardNumFive": null, "isSupportYj": null, "cityName": null, "districtName": null, "shopinfo": {"mid": "888888880430053", "good_flag": "2", "new_flag": "2", "short_name": "\u775b\u5f69\u773c\u955c", "short_name_pinyin": "jingcaiyanjing", "status": null, "address": null, "name": null, "id": "32175"}, "mid": "888888880430053", "shopId": "32175", "netid": null, "province": 901, "district": 601, "zipcode": null, "telephone": "65133303", "posDate": "20080514", "destineTel": null, "togoTel": null, "trafficWay": "\u516c\u4ea4502 760 875", "signBuilding": null, "businessArea": null, "selfRoom": null, "businessTime": "10:00~22:00", "stall": null, "consume": null, "serviceFei": null, "favourable": null, "shopMemo": null, "appraise": null, "website": null, "memo": null, "payTypes": "\u6749\u5fb7\u5361", "shopTypes": "\u96f6\u552e,\u4e13\u5356", "consumeTypes": null, "cookTypes": null, "orderNum": 1000, "card4no": null, "card4noAcc": null, "district2": 407, "searchScope": null, "status": 1, "address": "\u51c7\u6caa\u8def77\u53f7\u4e0a\u6d77\u4e07\u8fbe\u5546\u4e1a\u5e7f\u573a\u5730\u4e0b\u4e00\u5c42A-09", "name": "\u775b\u5f69\u773c\u955c \u4e94\u89d2\u573a\u5e97", "id": 136934, "pageNo": 0, "pageCount": null, "pageSize": 10, "ids": null, "endTime": null, "startTime": null}, {"cardNumFive": null, "isSupportYj": null, "cityName": null, "districtName": null, "shopinfo": {"mid": "888888872300009", "good_flag": null, "new_flag": null, "short_name": "\u4eac\u4e16", "short_name_pinyin": "jingshi", "status": null, "address": null, "name": null, "id": "32171"}, "mid": "888888872300009", "shopId": "32171", "netid": null, "province": 901, "district": 601, "zipcode": null, "telephone": "62982269", "posDate": "20081212", "destineTel": null, "togoTel": null, "trafficWay": "\u516c\u4ea4\u5730\u94c1\u516d\u53f7\u7ebf", "signBuilding": null, "businessArea": "300", "selfRoom": null, "businessTime": "9:00~21:00", "stall": "\u65e0", "consume": null, "serviceFei": null, "favourable": null, "shopMemo": null, "appraise": null, "website": null, "memo": null, "payTypes": "\u6749\u5fb7\u5361", "shopTypes": "\u7f8e\u5bb9\u7f8e\u53d1", "consumeTypes": null, "cookTypes": null, "orderNum": 1000, "card4no": null, "card4noAcc": null, "district2": 405, "searchScope": null, "status": 1, "address": "\u6fb3\u95e8\u8def729\u53f7", "name": "\u4eac\u4e16 \u6fb3\u95e8\u8def\u5e97", "id": 136913, "pageNo": 0, "pageCount": null, "pageSize": 10, "ids": null, "endTime": null, "startTime": null}, {"cardNumFive": null, "isSupportYj": null, "cityName": null, "districtName": null, "shopinfo": {"mid": "888888872300009", "good_flag": null, "new_flag": null, "short_name": "\u4eac\u4e16", "short_name_pinyin": "jingshi", "status": null, "address": null, "name": null, "id": "32171"}, "mid": "888888872300009", "shopId": "32171", "netid": null, "province": 901, "district": 601, "zipcode": "200001", "telephone": "63604677", "posDate": "20070321", "destineTel": "63604677", "togoTel": "63604677", "trafficWay": "\u5730\u94c1\u4e00\u53f7\u7ebf", "signBuilding": null, "businessArea": "150\u5e73\u7c73\u5de6\u53f3", "selfRoom": "\u65e0", "businessTime": "9:00~23:00", "stall": "\u65e0", "consume": "80\u5143", "serviceFei": null, "favourable": null, "shopMemo": null, "appraise": null, "website": null, "memo": null, "payTypes": "\u6749\u5fb7\u5361", "shopTypes": "\u7f8e\u5bb9\u7f8e\u53d1", "consumeTypes": null, "cookTypes": null, "orderNum": 1000, "card4no": null, "card4noAcc": null, "district2": 401, "searchScope": null, "status": 1, "address": "\u798f\u5dde\u8def568\u53f72\u697c", "name": "\u4eac\u4e16 \u798f\u5dde\u5e97", "id": 136915, "pageNo": 0, "pageCount": null, "pageSize": 10, "ids": null, "endTime": null, "startTime": null}, {"cardNumFive": null, "isSupportYj": null, "cityName": null, "districtName": null, "shopinfo": {"mid": "888888872300009", "good_flag": null, "new_flag": null, "short_name": "\u4eac\u4e16", "short_name_pinyin": "jingshi", "status": null, "address": null, "name": null, "id": "32171"}, "mid": "888888872300009", "shopId": "32171", "netid": null, "province": 901, "district": 601, "zipcode": "201101", "telephone": "64549427", "posDate": "20070321", "destineTel": "64549427", "togoTel": "64549427", "trafficWay": "\u516c\u4ea4755 804", "signBuilding": null, "businessArea": "150\u5e73\u7c73\u5de6\u53f3", "selfRoom": "\u65e0", "businessTime": "9:00~23:00", "stall": "\u65e0", "consume": "80\u5143", "serviceFei": null, "favourable": null, "shopMemo": null, "appraise": null, "website": null, "memo": null, "payTypes": "\u6749\u5fb7\u5361", "shopTypes": "\u7f8e\u5bb9\u7f8e\u53d1", "consumeTypes": null, "cookTypes": null, "orderNum": 1000, "card4no": null, "card4noAcc": null, "district2": 403, "searchScope": null, "status": 1, "address": "\u7f57\u79c0\u8def225-227\u53f7", "name": "\u4eac\u4e16 \u6885\u9647\u5e97", "id": 136921, "pageNo": 0, "pageCount": null, "pageSize": 10, "ids": null, "endTime": null, "startTime": null}, {"cardNumFive": null, "isSupportYj": null, "cityName": null, "districtName": null, "shopinfo": {"mid": "888888872300009", "good_flag": null, "new_flag": null, "short_name": "\u4eac\u4e16", "short_name_pinyin": "jingshi", "status": null, "address": null, "name": null, "id": "32171"}, "mid": "888888872300009", "shopId": "32171", "netid": null, "province": 901, "district": 601, "zipcode": null, "telephone": "52175899", "posDate": "20071226", "destineTel": null, "togoTel": null, "trafficWay": "\u516c\u4ea4846 \u5730\u94c1\u4e8c\u53f7\u7ebf", "signBuilding": "\u8fd1\u5929\u5c71\u897f\u8def", "businessArea": "150\u5e73\u7c73\u5de6\u53f3", "selfRoom": "\u65e0", "businessTime": "9:00~23:00", "stall": "\u65e0", "consume": "80\u5143", "serviceFei": null, "favourable": null, "shopMemo": null, "appraise": null, "website": null, "memo": null, "payTypes": "\u6749\u5fb7\u5361", "shopTypes": "\u7f8e\u5bb9\u7f8e\u53d1", "consumeTypes": null, "cookTypes": null, "orderNum": 1000, "card4no": null, "card4noAcc": null, "district2": 406, "searchScope": null, "status": 1, "address": "\u5317\u6e14\u8def70-72\u53f7", "name": "\u4eac\u4e16 \u5929\u5c71\u5e97", "id": 136924, "pageNo": 0, "pageCount": null, "pageSize": 10, "ids": null, "endTime": null, "startTime": null}, {"cardNumFive": null, "isSupportYj": null, "cityName": null, "districtName": null, "shopinfo": {"mid": "888888872300009", "good_flag": null, "new_flag": null, "short_name": "\u4eac\u4e16", "short_name_pinyin": "jingshi", "status": null, "address": null, "name": null, "id": "32171"}, "mid": "888888872300009", "shopId": "32171", "netid": null, "province": 901, "district": 601, "zipcode": null, "telephone": "64607223", "posDate": "20071226", "destineTel": null, "togoTel": null, "trafficWay": "\u5f90\u95f5\u7ebf \u4e1c\u576a\u7ebf \u6caa\u536b\u7ebf", "signBuilding": "\u8fd1\u8398\u5e84\u5730\u94c1\u7ad9", "businessArea": "150\u5e73\u7c73\u5de6\u53f3", "selfRoom": "\u65e0", "businessTime": "9:00~23:00", "stall": "\u65e0", "consume": "80\u5143", "serviceFei": null, "favourable": null, "shopMemo": null, "appraise": null, "website": null, "memo": null, "payTypes": "\u6749\u5fb7\u5361", "shopTypes": "\u7f8e\u5bb9\u7f8e\u53d1", "consumeTypes": null, "cookTypes": null, "orderNum": 1000, "card4no": null, "card4noAcc": null, "district2": 409, "searchScope": null, "status": 1, "address": "\u8398\u6731\u8def325\u53f7", "name": "\u4eac\u4e16 \u8398\u5e84\u5e97", "id": 136926, "pageNo": 0, "pageCount": null, "pageSize": 10, "ids": null, "endTime": null, "startTime": null}, {"cardNumFive": null, "isSupportYj": null, "cityName": null, "districtName": null, "shopinfo": {"mid": "888888872300009", "good_flag": null, "new_flag": null, "short_name": "\u4eac\u4e16", "short_name_pinyin": "jingshi", "status": null, "address": null, "name": null, "id": "36389"}, "mid": "888888872300009", "shopId": "36389", "netid": null, "province": 901, "district": 601, "zipcode": null, "telephone": null, "posDate": "20100915", "destineTel": null, "togoTel": null, "trafficWay": null, "signBuilding": null, "businessArea": null, "selfRoom": null, "businessTime": null, "stall": null, "consume": null, "serviceFei": null, "favourable": null, "shopMemo": null, "appraise": null, "website": null, "memo": null, "payTypes": "\u6749\u5fb7\u5361", "shopTypes": "\u7f8e\u5bb9\u7f8e\u53d1", "consumeTypes": null, "cookTypes": null, "orderNum": 1000, "card4no": null, "card4noAcc": null, "district2": 411, "searchScope": null, "status": 1, "address": "\u4e30\u5e84\u8def68\u53f7", "name": "\u4eac\u4e16 \u4e30\u5e84\u5e97", "id": 151434, "pageNo": 0, "pageCount": null, "pageSize": 10, "ids": null, "endTime": null, "startTime": null}, {"cardNumFive": null, "isSupportYj": null, "cityName": null, "districtName": null, "shopinfo": {"mid": "888888872300009", "good_flag": null, "new_flag": null, "short_name": "\u4eac\u4e16", "short_name_pinyin": "jingshi", "status": null, "address": null, "name": null, "id": "36476"}, "mid": "888888872300009", "shopId": "36476", "netid": null, "province": 901, "district": 601, "zipcode": null, "telephone": null, "posDate": "20100914", "destineTel": null, "togoTel": null, "trafficWay": null, "signBuilding": null, "businessArea": null, "selfRoom": null, "businessTime": null, "stall": null, "consume": null, "serviceFei": null, "favourable": null, "shopMemo": null, "appraise": null, "website": null, "memo": null, "payTypes": "\u6749\u5fb7\u5361", "shopTypes": "\u7f8e\u5bb9\u7f8e\u53d1", "consumeTypes": null, "cookTypes": null, "orderNum": 1000, "card4no": null, "card4noAcc": null, "district2": 401, "searchScope": null, "status": 1, "address": "\u9646\u5bb6\u6d5c\u8def1527\u53f7", "name": "\u4eac\u4e16 \u9646\u5bb6\u6d5c\u5e97", "id": 151707, "pageNo": 0, "pageCount": null, "pageSize": 10, "ids": null, "endTime": null, "startTime": null}, {"cardNumFive": null, "isSupportYj": null, "cityName": null, "districtName": null, "shopinfo": {"mid": "888888872300009", "good_flag": null, "new_flag": null, "short_name": "\u4eac\u4e16", "short_name_pinyin": "jingshi", "status": null, "address": null, "name": null, "id": "36476"}, "mid": "888888872300009", "shopId": "36476", "netid": null, "province": 901, "district": 601, "zipcode": null, "telephone": null, "posDate": "20100914", "destineTel": null, "togoTel": null, "trafficWay": null, "signBuilding": null, "businessArea": null, "selfRoom": null, "businessTime": null, "stall": null, "consume": null, "serviceFei": null, "favourable": null, "shopMemo": null, "appraise": null, "website": null, "memo": null, "payTypes": "\u6749\u5fb7\u5361", "shopTypes": "\u7f8e\u5bb9\u7f8e\u53d1", "consumeTypes": null, "cookTypes": null, "orderNum": 1000, "card4no": null, "card4noAcc": null, "district2": 410, "searchScope": null, "status": 1, "address": "\u5b9c\u5ddd\u8def326\u53f7", "name": "\u4eac\u4e16 \u5b9c\u5ddd\u5e97", "id": 151708, "pageNo": 0, "pageCount": null, "pageSize": 10, "ids": null, "endTime": null, "startTime": null}], "pageLimit": 3780, "size": 10}