{"pageCount": 1095, "count": 10942, "pageNo": 377, "subShopInfo": {"cardNumFive": "", "isSupportYj": "", "cityName": null, "districtName": null, "shopinfo": {"mid": null, "good_flag": null, "new_flag": null, "short_name": null, "short_name_pinyin": null, "status": null, "address": "", "name": "", "id": null}, "mid": null, "shopId": null, "netid": null, "province": 901, "district": null, "zipcode": null, "telephone": null, "posDate": null, "destineTel": null, "togoTel": null, "trafficWay": null, "signBuilding": null, "businessArea": null, "selfRoom": null, "businessTime": null, "stall": null, "consume": null, "serviceFei": null, "favourable": null, "shopMemo": "1", "appraise": null, "website": null, "memo": null, "payTypes": "", "shopTypes": "", "consumeTypes": null, "cookTypes": null, "orderNum": null, "card4no": null, "card4noAcc": null, "district2": null, "searchScope": null, "status": null, "address": "", "name": null, "id": null, "pageNo": 376, "pageCount": null, "pageSize": 10, "ids": null, "endTime": null, "startTime": null}, "list": [{"cardNumFive": null, "isSupportYj": null, "cityName": null, "districtName": null, "shopinfo": {"mid": "888888854410015", "good_flag": null, "new_flag": null, "short_name": "\u9759\u5b89\u9762\u5305\u623f", "short_name_pinyin": "jinganmianbaofang", "status": null, "address": null, "name": null, "id": "32183"}, "mid": "888888854410015", "shopId": "32183", "netid": null, "province": 901, "district": 601, "zipcode": null, "telephone": "55800039", "posDate": "20080114", "destineTel": null, "togoTel": null, "trafficWay": "\u516c\u4ea437 868 \u7533\u5ddd\u7ebf", "signBuilding": null, "businessArea": null, "selfRoom": null, "businessTime": null, "stall": null, "consume": null, "serviceFei": null, "favourable": null, "shopMemo": null, "appraise": null, "website": null, "memo": null, "payTypes": "\u6749\u5fb7\u5361", "shopTypes": "\u9762\u5305\u897f\u997c", "consumeTypes": null, "cookTypes": null, "orderNum": 1000, "card4no": null, "card4noAcc": null, "district2": 407, "searchScope": null, "status": 1, "address": "\u5e73\u51c9\u8def1136\u53f7", "name": "\u9759\u5b89\u9762\u5305\u623f \u5e73\u51c9\u5e97", "id": 136990, "pageNo": 0, "pageCount": null, "pageSize": 10, "ids": null, "endTime": null, "startTime": null}, {"cardNumFive": null, "isSupportYj": null, "cityName": null, "districtName": null, "shopinfo": {"mid": "888888854410015", "good_flag": null, "new_flag": null, "short_name": "\u9759\u5b89\u9762\u5305\u623f", "short_name_pinyin": "jinganmianbaofang", "status": null, "address": null, "name": null, "id": "32183"}, "mid": "888888854410015", "shopId": "32183", "netid": null, "province": 901, "district": 601, "zipcode": null, "telephone": "54245287", "posDate": "20090124", "destineTel": null, "togoTel": null, "trafficWay": null, "signBuilding": null, "businessArea": null, "selfRoom": null, "businessTime": null, "stall": null, "consume": null, "serviceFei": null, "favourable": null, "shopMemo": null, "appraise": null, "website": null, "memo": null, "payTypes": "\u6749\u5fb7\u5361", "shopTypes": "\u9762\u5305\u897f\u997c", "consumeTypes": null, "cookTypes": null, "orderNum": 1000, "card4no": null, "card4noAcc": null, "district2": 403, "searchScope": null, "status": 1, "address": "\u53cc\u5cf0\u8def320-2\u53f7", "name": "\u9759\u5b89\u9762\u5305\u623f \u53cc\u5cf0\u5e97", "id": 136997, "pageNo": 0, "pageCount": null, "pageSize": 10, "ids": null, "endTime": null, "startTime": null}, {"cardNumFive": null, "isSupportYj": null, "cityName": null, "districtName": null, "shopinfo": {"mid": "888888854410015", "good_flag": null, "new_flag": null, "short_name": "\u9759\u5b89\u9762\u5305\u623f", "short_name_pinyin": "jinganmianbaofang", "status": null, "address": null, "name": null, "id": "32183"}, "mid": "888888854410015", "shopId": "32183", "netid": null, "province": 901, "district": 601, "zipcode": null, "telephone": "56665379", "posDate": "20070110", "destineTel": "56665379", "togoTel": "56665379", "trafficWay": "\u516c\u4ea4537 \u65c5\u6e3810\u53f7\u7ebf 18", "signBuilding": null, "businessArea": "50~100\u5e73\u7c73", "selfRoom": "\u65e0", "businessTime": null, "stall": "\u65e0", "consume": null, "serviceFei": null, "favourable": null, "shopMemo": null, "appraise": null, "website": null, "memo": null, "payTypes": "\u6749\u5fb7\u5361", "shopTypes": "\u9762\u5305\u897f\u997c", "consumeTypes": null, "cookTypes": null, "orderNum": 1000, "card4no": null, "card4noAcc": null, "district2": 408, "searchScope": null, "status": 1, "address": "\u56db\u5ddd\u5317\u8def2044\u53f7", "name": "\u9759\u5b89\u9762\u5305\u623f \u56db\u5ddd\u5e97", "id": 136998, "pageNo": 0, "pageCount": null, "pageSize": 10, "ids": null, "endTime": null, "startTime": null}, {"cardNumFive": null, "isSupportYj": null, "cityName": null, "districtName": null, "shopinfo": {"mid": "888888854410015", "good_flag": null, "new_flag": null, "short_name": "\u9759\u5b89\u9762\u5305\u623f", "short_name_pinyin": "jinganmianbaofang", "status": null, "address": null, "name": null, "id": "32183"}, "mid": "888888854410015", "shopId": "32183", "netid": null, "province": 901, "district": 601, "zipcode": null, "telephone": "52183540", "posDate": "20070118", "destineTel": "52183540", "togoTel": "52183540", "trafficWay": "\u516c\u4ea4808 855", "signBuilding": null, "businessArea": "50~100\u5e73\u7c73", "selfRoom": "\u65e0", "businessTime": null, "stall": "\u65e0", "consume": null, "serviceFei": null, "favourable": null, "shopMemo": null, "appraise": null, "website": null, "memo": null, "payTypes": "\u6749\u5fb7\u5361", "shopTypes": "\u9762\u5305\u897f\u997c", "consumeTypes": null, "cookTypes": null, "orderNum": 1000, "card4no": null, "card4noAcc": null, "district2": 406, "searchScope": null, "status": 1, "address": "\u5929\u5c71\u897f\u8def250\u53f7", "name": "\u9759\u5b89\u9762\u5305\u623f \u5929\u5c71\u5e97", "id": 137000, "pageNo": 0, "pageCount": null, "pageSize": 10, "ids": null, "endTime": null, "startTime": null}, {"cardNumFive": null, "isSupportYj": null, "cityName": null, "districtName": null, "shopinfo": {"mid": "888888854410015", "good_flag": null, "new_flag": null, "short_name": "\u9759\u5b89\u9762\u5305\u623f", "short_name_pinyin": "jinganmianbaofang", "status": null, "address": null, "name": null, "id": "32183"}, "mid": "888888854410015", "shopId": "32183", "netid": null, "province": 901, "district": 601, "zipcode": null, "telephone": "65400539", "posDate": "20070110", "destineTel": "65400539", "togoTel": "65400539", "trafficWay": "\u516c\u4ea418 47 537", "signBuilding": null, "businessArea": "50~100\u5e73\u7c73", "selfRoom": "\u65e0", "businessTime": null, "stall": "\u65e0", "consume": null, "serviceFei": null, "favourable": null, "shopMemo": null, "appraise": null, "website": null, "memo": null, "payTypes": "\u6749\u5fb7\u5361", "shopTypes": "\u9762\u5305\u897f\u997c", "consumeTypes": null, "cookTypes": null, "orderNum": 1000, "card4no": null, "card4noAcc": null, "district2": 408, "searchScope": null, "status": 1, "address": "\u540c\u5fc3\u8def111\u53f7", "name": "\u9759\u5b89\u9762\u5305\u623f \u540c\u5fc3\u5e97", "id": 137001, "pageNo": 0, "pageCount": null, "pageSize": 10, "ids": null, "endTime": null, "startTime": null}, {"cardNumFive": null, "isSupportYj": null, "cityName": null, "districtName": null, "shopinfo": {"mid": "888888854410015", "good_flag": null, "new_flag": null, "short_name": "\u9759\u5b89\u9762\u5305\u623f", "short_name_pinyin": "jinganmianbaofang", "status": null, "address": null, "name": null, "id": "32183"}, "mid": "888888854410015", "shopId": "32183", "netid": null, "province": 901, "district": 601, "zipcode": null, "telephone": "62303924", "posDate": "20070111", "destineTel": "62303924", "togoTel": "62303924", "trafficWay": "\u516c\u4ea444 824 45", "signBuilding": null, "businessArea": "50~100\u5e73\u7c73", "selfRoom": "\u65e0", "businessTime": null, "stall": "\u65e0", "consume": null, "serviceFei": null, "favourable": null, "shopMemo": null, "appraise": null, "website": null, "memo": null, "payTypes": "\u6749\u5fb7\u5361", "shopTypes": "\u9762\u5305\u897f\u997c", "consumeTypes": null, "cookTypes": null, "orderNum": 1000, "card4no": null, "card4noAcc": null, "district2": 404, "searchScope": null, "status": 1, "address": "\u4e07\u822a\u6e21\u8def689\u53f7", "name": "\u9759\u5b89\u9762\u5305\u623f \u4e07\u822a\u5e97", "id": 137002, "pageNo": 0, "pageCount": null, "pageSize": 10, "ids": null, "endTime": null, "startTime": null}, {"cardNumFive": null, "isSupportYj": null, "cityName": null, "districtName": null, "shopinfo": {"mid": "888888854410015", "good_flag": null, "new_flag": null, "short_name": "\u9759\u5b89\u9762\u5305\u623f", "short_name_pinyin": "jinganmianbaofang", "status": null, "address": null, "name": null, "id": "32183"}, "mid": "888888854410015", "shopId": "32183", "netid": null, "province": 901, "district": 601, "zipcode": null, "telephone": "62536324", "posDate": "20070111", "destineTel": "62559190", "togoTel": "62559190", "trafficWay": "\u516c\u4ea4824 830 93", "signBuilding": null, "businessArea": "50~100\u5e73\u7c73", "selfRoom": "\u65e0", "businessTime": null, "stall": "\u65e0", "consume": null, "serviceFei": null, "favourable": null, "shopMemo": null, "appraise": null, "website": null, "memo": null, "payTypes": ",,\u6749\u5fb7\u5361", "shopTypes": "\u9762\u5305\u897f\u997c", "consumeTypes": null, "cookTypes": null, "orderNum": 1000, "card4no": null, "card4noAcc": null, "district2": 404, "searchScope": null, "status": 1, "address": "\u65b0\u95f8\u8def1996\u53f7", "name": "\u9759\u5b89\u9762\u5305\u623f \u4e07\u65b0\u5e97", "id": 137003, "pageNo": 0, "pageCount": null, "pageSize": 10, "ids": null, "endTime": null, "startTime": null}, {"cardNumFive": null, "isSupportYj": null, "cityName": null, "districtName": null, "shopinfo": {"mid": "888888854410015", "good_flag": null, "new_flag": null, "short_name": "\u9759\u5b89\u9762\u5305\u623f", "short_name_pinyin": "jinganmianbaofang", "status": null, "address": null, "name": null, "id": "32183"}, "mid": "888888854410015", "shopId": "32183", "netid": null, "province": 901, "district": 601, "zipcode": null, "telephone": "62250385", "posDate": "20070118", "destineTel": "62250385", "togoTel": "62250385", "trafficWay": "96\u8def", "signBuilding": null, "businessArea": "50~100\u5e73\u7c73", "selfRoom": "\u65e0", "businessTime": null, "stall": "\u65e0", "consume": null, "serviceFei": null, "favourable": null, "shopMemo": null, "appraise": null, "website": null, "memo": null, "payTypes": "\u6749\u5fb7\u5361", "shopTypes": "\u9762\u5305\u897f\u997c", "consumeTypes": null, "cookTypes": null, "orderNum": 1000, "card4no": null, "card4noAcc": null, "district2": 406, "searchScope": null, "status": 1, "address": "\u5b9a\u897f\u8def1225\u53f7", "name": "\u9759\u5b89\u9762\u5305\u623f \u6b66\u5937\u5e97", "id": 137007, "pageNo": 0, "pageCount": null, "pageSize": 10, "ids": null, "endTime": null, "startTime": null}, {"cardNumFive": null, "isSupportYj": null, "cityName": null, "districtName": null, "shopinfo": {"mid": "888888854410015", "good_flag": null, "new_flag": null, "short_name": "\u9759\u5b89\u9762\u5305\u623f", "short_name_pinyin": "jinganmianbaofang", "status": null, "address": null, "name": null, "id": "32183"}, "mid": "888888854410015", "shopId": "32183", "netid": null, "province": 901, "district": 601, "zipcode": null, "telephone": "53077479", "posDate": "20070119", "destineTel": "53077479", "togoTel": "53077479", "trafficWay": "\u516c\u4ea4814,89", "signBuilding": null, "businessArea": "50~100\u5e73\u7c73", "selfRoom": "\u65e0", "businessTime": null, "stall": "\u65e0", "consume": null, "serviceFei": null, "favourable": null, "shopMemo": null, "appraise": null, "website": null, "memo": null, "payTypes": "\u6749\u5fb7\u5361", "shopTypes": "\u9762\u5305\u897f\u997c", "consumeTypes": null, "cookTypes": null, "orderNum": 1000, "card4no": null, "card4noAcc": null, "district2": 401, "searchScope": null, "status": 1, "address": "\u897f\u51cc\u5bb6\u5b85128\u53f7", "name": "\u9759\u5b89\u9762\u5305\u623f \u897f\u51cc\u5bb6\u5b85\u5e97", "id": 137008, "pageNo": 0, "pageCount": null, "pageSize": 10, "ids": null, "endTime": null, "startTime": null}, {"cardNumFive": null, "isSupportYj": null, "cityName": null, "districtName": null, "shopinfo": {"mid": "888888854410015", "good_flag": null, "new_flag": null, "short_name": "\u9759\u5b89\u9762\u5305\u623f", "short_name_pinyin": "jinganmianbaofang", "status": null, "address": null, "name": null, "id": "32183"}, "mid": "888888854410015", "shopId": "32183", "netid": null, "province": 901, "district": 601, "zipcode": null, "telephone": "63594028", "posDate": "20070118", "destineTel": "63594028", "togoTel": "63594028", "trafficWay": "\u5730\u94c1\u4e00\u53f7\u7ebf", "signBuilding": null, "businessArea": "50~100\u5e73\u7c73", "selfRoom": "\u65e0", "businessTime": null, "stall": "\u65e0", "consume": null, "serviceFei": null, "favourable": null, "shopMemo": null, "appraise": null, "website": null, "memo": null, "payTypes": "\u6749\u5fb7\u5361", "shopTypes": "\u9762\u5305\u897f\u997c", "consumeTypes": null, "cookTypes": null, "orderNum": 1000, "card4no": null, "card4noAcc": null, "district2": 401, "searchScope": null, "status": 1, "address": "\u5357\u4eac\u897f\u8def2-58\u53f7", "name": "\u9759\u5b89\u9762\u5305\u623f \u65b0\u4e16\u754c\u5e97", "id": 137012, "pageNo": 0, "pageCount": null, "pageSize": 10, "ids": null, "endTime": null, "startTime": null}], "pageLimit": 3760, "size": 10}