{"pageCount": 1095, "count": 10942, "pageNo": 375, "subShopInfo": {"cardNumFive": "", "isSupportYj": "", "cityName": null, "districtName": null, "shopinfo": {"mid": null, "good_flag": null, "new_flag": null, "short_name": null, "short_name_pinyin": null, "status": null, "address": "", "name": "", "id": null}, "mid": null, "shopId": null, "netid": null, "province": 901, "district": null, "zipcode": null, "telephone": null, "posDate": null, "destineTel": null, "togoTel": null, "trafficWay": null, "signBuilding": null, "businessArea": null, "selfRoom": null, "businessTime": null, "stall": null, "consume": null, "serviceFei": null, "favourable": null, "shopMemo": "1", "appraise": null, "website": null, "memo": null, "payTypes": "", "shopTypes": "", "consumeTypes": null, "cookTypes": null, "orderNum": null, "card4no": null, "card4noAcc": null, "district2": null, "searchScope": null, "status": null, "address": "", "name": null, "id": null, "pageNo": 374, "pageCount": null, "pageSize": 10, "ids": null, "endTime": null, "startTime": null}, "list": [{"cardNumFive": null, "isSupportYj": null, "cityName": null, "districtName": null, "shopinfo": {"mid": "888002154110765", "good_flag": "2", "new_flag": "2", "short_name": "\u6377\u5f3a\u70df\u8349", "short_name_pinyin": "jieqiangyancao", "status": null, "address": null, "name": null, "id": "469523865182142464"}, "mid": "888002154110765", "shopId": "469523865182142464", "netid": null, "province": 901, "district": 601, "zipcode": null, "telephone": null, "posDate": null, "destineTel": null, "togoTel": null, "trafficWay": null, "signBuilding": null, "businessArea": null, "selfRoom": null, "businessTime": null, "stall": null, "consume": null, "serviceFei": null, "favourable": null, "shopMemo": null, "appraise": null, "website": null, "memo": null, "payTypes": "\u6749\u5fb7\u5361,", "shopTypes": "\u70df\u8349", "consumeTypes": null, "cookTypes": null, "orderNum": null, "card4no": null, "card4noAcc": null, "district2": 416, "searchScope": null, "status": 1, "address": "\u6768\u6cf0\u8def2158\u5f042\u53f7", "name": "\u6377\u5f3a\u6768\u6cf0\u5e97", "id": 469523865337331712, "pageNo": 0, "pageCount": null, "pageSize": 10, "ids": null, "endTime": null, "startTime": null}, {"cardNumFive": null, "isSupportYj": null, "cityName": null, "districtName": null, "shopinfo": {"mid": "888002154110765", "good_flag": "2", "new_flag": "2", "short_name": "\u6377\u5f3a\u70df\u8349", "short_name_pinyin": "jieqiangyancao", "status": null, "address": null, "name": null, "id": "469523865182142464"}, "mid": "888002154110765", "shopId": "469523865182142464", "netid": null, "province": 901, "district": 601, "zipcode": null, "telephone": null, "posDate": null, "destineTel": null, "togoTel": null, "trafficWay": null, "signBuilding": null, "businessArea": null, "selfRoom": null, "businessTime": null, "stall": null, "consume": null, "serviceFei": null, "favourable": null, "shopMemo": null, "appraise": null, "website": null, "memo": null, "payTypes": "\u6749\u5fb7\u5361,", "shopTypes": "\u70df\u8349", "consumeTypes": null, "cookTypes": null, "orderNum": null, "card4no": null, "card4noAcc": null, "district2": 416, "searchScope": null, "status": 1, "address": "\u6c34\u4ea7\u8def2609\u53f7\u4e00\u5c42133\u5ba4", "name": "\u6377\u5f3a\u6c34\u4ea7\u4e1c\u5e97", "id": 469523865857425408, "pageNo": 0, "pageCount": null, "pageSize": 10, "ids": null, "endTime": null, "startTime": null}, {"cardNumFive": null, "isSupportYj": null, "cityName": null, "districtName": null, "shopinfo": {"mid": "888002154110765", "good_flag": "2", "new_flag": "2", "short_name": "\u6377\u5f3a\u70df\u8349", "short_name_pinyin": "jieqiangyancao", "status": null, "address": null, "name": null, "id": "469523865182142464"}, "mid": "888002154110765", "shopId": "469523865182142464", "netid": null, "province": 901, "district": 601, "zipcode": null, "telephone": null, "posDate": null, "destineTel": null, "togoTel": null, "trafficWay": null, "signBuilding": null, "businessArea": null, "selfRoom": null, "businessTime": null, "stall": null, "consume": null, "serviceFei": null, "favourable": null, "shopMemo": null, "appraise": null, "website": null, "memo": null, "payTypes": "\u6749\u5fb7\u5361,", "shopTypes": "\u70df\u8349", "consumeTypes": null, "cookTypes": null, "orderNum": null, "card4no": null, "card4noAcc": null, "district2": 416, "searchScope": null, "status": 1, "address": "\u6768\u946b\u8def158\u53f7", "name": "\u6377\u5f3a\u6768\u946b\u5e97", "id": 469523866272661504, "pageNo": 0, "pageCount": null, "pageSize": 10, "ids": null, "endTime": null, "startTime": null}, {"cardNumFive": null, "isSupportYj": null, "cityName": null, "districtName": null, "shopinfo": {"mid": "888888854110145", "good_flag": null, "new_flag": null, "short_name": "\u5409\u4e70\u76db", "short_name_pinyin": "jimaisheng", "status": null, "address": null, "name": null, "id": "36219"}, "mid": "888888854110145", "shopId": "36219", "netid": null, "province": 901, "district": 601, "zipcode": null, "telephone": "67312752", "posDate": "20100816", "destineTel": null, "togoTel": null, "trafficWay": null, "signBuilding": null, "businessArea": null, "selfRoom": null, "businessTime": null, "stall": null, "consume": null, "serviceFei": null, "favourable": null, "shopMemo": null, "appraise": null, "website": null, "memo": null, "payTypes": "\u6749\u5fb7\u5361", "shopTypes": "\u8d85\u5e02", "consumeTypes": null, "cookTypes": null, "orderNum": 1000, "card4no": null, "card4noAcc": null, "district2": 414, "searchScope": null, "status": 1, "address": "\u91d1\u5c71\u533a\u6731\u6cfe\u9547\u5357\u5729\u8def312\u53f7", "name": "\u534e\u8054\u5409\u4e70\u76db \u6731\u6cfe\u5e97", "id": 150945, "pageNo": 0, "pageCount": null, "pageSize": 10, "ids": null, "endTime": null, "startTime": null}, {"cardNumFive": null, "isSupportYj": null, "cityName": null, "districtName": null, "shopinfo": {"mid": "888002154110598", "good_flag": null, "new_flag": null, "short_name": "\u5409\u4e70\u76db", "short_name_pinyin": "jimaisheng", "status": null, "address": null, "name": null, "id": "40967"}, "mid": "888002154110598", "shopId": "40967", "netid": null, "province": 901, "district": 601, "zipcode": null, "telephone": null, "posDate": null, "destineTel": null, "togoTel": null, "trafficWay": null, "signBuilding": null, "businessArea": null, "selfRoom": null, "businessTime": null, "stall": null, "consume": null, "serviceFei": null, "favourable": null, "shopMemo": null, "appraise": null, "website": null, "memo": null, "payTypes": "\u6749\u5fb7\u5361", "shopTypes": "\u8d85\u5e02", "consumeTypes": null, "cookTypes": null, "orderNum": 1000, "card4no": null, "card4noAcc": null, "district2": 416, "searchScope": null, "status": 1, "address": "\u771f\u5317\u8def4288\u53f7", "name": "\u534e\u8054\u5409\u4e70\u76db \u771f\u5317\u5e97", "id": 177883, "pageNo": 0, "pageCount": null, "pageSize": 10, "ids": null, "endTime": null, "startTime": null}, {"cardNumFive": null, "isSupportYj": null, "cityName": null, "districtName": null, "shopinfo": {"mid": "888002154110624", "good_flag": null, "new_flag": null, "short_name": "\u5409\u4e70\u76db", "short_name_pinyin": "jimaisheng", "status": null, "address": null, "name": null, "id": "43613"}, "mid": "888002154110624", "shopId": "43613", "netid": null, "province": 901, "district": 601, "zipcode": null, "telephone": null, "posDate": null, "destineTel": null, "togoTel": null, "trafficWay": null, "signBuilding": null, "businessArea": null, "selfRoom": null, "businessTime": null, "stall": null, "consume": null, "serviceFei": null, "favourable": null, "shopMemo": null, "appraise": null, "website": null, "memo": null, "payTypes": "\u6749\u5fb7\u5361", "shopTypes": "\u8d85\u5e02", "consumeTypes": null, "cookTypes": null, "orderNum": 1000, "card4no": null, "card4noAcc": null, "district2": 409, "searchScope": null, "status": 1, "address": "\u7533\u6ee8\u8def1026\u5f0450\u53f7\u5730\u4e0b\u4e00\u5c42", "name": "\u5409\u4e70\u76db \u7533\u6ee8\u5e97", "id": 199108, "pageNo": 0, "pageCount": null, "pageSize": 10, "ids": null, "endTime": null, "startTime": null}, {"cardNumFive": null, "isSupportYj": null, "cityName": null, "districtName": null, "shopinfo": {"mid": "888888854110193", "good_flag": "2", "new_flag": "2", "short_name": "\u534e\u8054\u5409\u4e70\u76db", "short_name_pinyin": "jimaishengyuepudian", "status": null, "address": null, "name": null, "id": "31901"}, "mid": "888888854110193", "shopId": "31901", "netid": null, "province": 901, "district": 601, "zipcode": null, "telephone": null, "posDate": "20080626", "destineTel": null, "togoTel": null, "trafficWay": "\u516c\u4ea4\u5f6d\u77f3\u7ebf \u5f6d\u6c5f\u7ebf", "signBuilding": null, "businessArea": null, "selfRoom": null, "businessTime": null, "stall": null, "consume": null, "serviceFei": null, "favourable": null, "shopMemo": null, "appraise": null, "website": null, "memo": null, "payTypes": "\u6749\u5fb7\u5361", "shopTypes": "\u8d85\u5e02", "consumeTypes": null, "cookTypes": null, "orderNum": 1000, "card4no": null, "card4noAcc": null, "district2": 416, "searchScope": null, "status": 1, "address": "\u5fb7\u90fd\u8def285\u53f7", "name": "\u534e\u8054\u5409\u4e70\u76db \u6708\u6d66\u5e97", "id": 135449, "pageNo": 0, "pageCount": null, "pageSize": 10, "ids": null, "endTime": null, "startTime": null}, {"cardNumFive": null, "isSupportYj": null, "cityName": null, "districtName": null, "shopinfo": {"mid": "888888850940070", "good_flag": "2", "new_flag": "1", "short_name": "\u91d1\u4f2f\u5229\u94bb\u77f3", "short_name_pinyin": "jinbolizuanshi", "status": null, "address": null, "name": null, "id": "32069"}, "mid": "888888850940070", "shopId": "32069", "netid": null, "province": 901, "district": 601, "zipcode": null, "telephone": null, "posDate": "20100611", "destineTel": null, "togoTel": null, "trafficWay": null, "signBuilding": null, "businessArea": null, "selfRoom": null, "businessTime": null, "stall": null, "consume": null, "serviceFei": null, "favourable": null, "shopMemo": null, "appraise": null, "website": null, "memo": null, "payTypes": "\u6749\u5fb7\u5361", "shopTypes": "\u4e13\u5356", "consumeTypes": null, "cookTypes": null, "orderNum": 1000, "card4no": null, "card4noAcc": null, "district2": 413, "searchScope": null, "status": 1, "address": "\u5357\u6865\u9547\u4eba\u6c11\u4e2d\u8def77\u53f7", "name": "\u91d1\u4f2f\u5229\u94bb\u77f3 \u4eba\u6c11\u4e2d\u8def\u5e97", "id": 136788, "pageNo": 0, "pageCount": null, "pageSize": 10, "ids": null, "endTime": null, "startTime": null}, {"cardNumFive": null, "isSupportYj": null, "cityName": null, "districtName": null, "shopinfo": {"mid": "888888870110046", "good_flag": "2", "new_flag": "2", "short_name": "\u91d1\u8fb0\u5927\u9152\u5e97", "short_name_pinyin": "jinchendajiudian", "status": null, "address": null, "name": null, "id": "32072"}, "mid": "888888870110046", "shopId": "32072", "netid": null, "province": 901, "district": 601, "zipcode": null, "telephone": "64717000", "posDate": "20080428", "destineTel": null, "togoTel": null, "trafficWay": "\u516c\u4ea4167 925 \u5730\u94c1\u4e00\u53f7\u7ebf", "signBuilding": null, "businessArea": null, "selfRoom": null, "businessTime": null, "stall": null, "consume": null, "serviceFei": null, "favourable": null, "shopMemo": null, "appraise": null, "website": null, "memo": null, "payTypes": "\u6749\u5fb7\u5361", "shopTypes": "\u9910\u996e", "consumeTypes": null, "cookTypes": null, "orderNum": 1000, "card4no": null, "card4noAcc": null, "district2": 401, "searchScope": null, "status": 1, "address": "\u6dee\u6d77\u4e2d\u8def795\u53f7", "name": "\u91d1\u8fb0\u5927\u9152\u5e97 \u6dee\u6d77\u4e2d\u8def\u5e97", "id": 136791, "pageNo": 0, "pageCount": null, "pageSize": 10, "ids": null, "endTime": null, "startTime": null}, {"cardNumFive": null, "isSupportYj": null, "cityName": null, "districtName": null, "shopinfo": {"mid": "888888854410015", "good_flag": null, "new_flag": null, "short_name": "\u9759\u5b89\u9762\u5305\u623f", "short_name_pinyin": "jinganmianbaofang", "status": null, "address": null, "name": null, "id": "32183"}, "mid": "888888854410015", "shopId": "32183", "netid": null, "province": 901, "district": 601, "zipcode": null, "telephone": "55492029", "posDate": "20071106", "destineTel": null, "togoTel": null, "trafficWay": "\u516c\u4ea4537 966", "signBuilding": null, "businessArea": null, "selfRoom": null, "businessTime": null, "stall": null, "consume": null, "serviceFei": null, "favourable": null, "shopMemo": null, "appraise": null, "website": null, "memo": null, "payTypes": "\u6749\u5fb7\u5361", "shopTypes": "\u9762\u5305\u897f\u997c", "consumeTypes": null, "cookTypes": null, "orderNum": 1000, "card4no": null, "card4noAcc": null, "district2": 407, "searchScope": null, "status": 1, "address": "\u5305\u5934\u8def872\u53f7", "name": "\u9759\u5b89\u9762\u5305\u623f \u5305\u5934\u5e97", "id": 136946, "pageNo": 0, "pageCount": null, "pageSize": 10, "ids": null, "endTime": null, "startTime": null}], "pageLimit": 3740, "size": 10}