{"pageCount": 1095, "count": 10942, "pageNo": 378, "subShopInfo": {"cardNumFive": "", "isSupportYj": "", "cityName": null, "districtName": null, "shopinfo": {"mid": null, "good_flag": null, "new_flag": null, "short_name": null, "short_name_pinyin": null, "status": null, "address": "", "name": "", "id": null}, "mid": null, "shopId": null, "netid": null, "province": 901, "district": null, "zipcode": null, "telephone": null, "posDate": null, "destineTel": null, "togoTel": null, "trafficWay": null, "signBuilding": null, "businessArea": null, "selfRoom": null, "businessTime": null, "stall": null, "consume": null, "serviceFei": null, "favourable": null, "shopMemo": "1", "appraise": null, "website": null, "memo": null, "payTypes": "", "shopTypes": "", "consumeTypes": null, "cookTypes": null, "orderNum": null, "card4no": null, "card4noAcc": null, "district2": null, "searchScope": null, "status": null, "address": "", "name": null, "id": null, "pageNo": 377, "pageCount": null, "pageSize": 10, "ids": null, "endTime": null, "startTime": null}, "list": [{"cardNumFive": null, "isSupportYj": null, "cityName": null, "districtName": null, "shopinfo": {"mid": "888888854410015", "good_flag": null, "new_flag": null, "short_name": "\u9759\u5b89\u9762\u5305\u623f", "short_name_pinyin": "jinganmianbaofang", "status": null, "address": null, "name": null, "id": "32183"}, "mid": "888888854410015", "shopId": "32183", "netid": null, "province": 901, "district": 601, "zipcode": null, "telephone": "56330046", "posDate": "20070105", "destineTel": "56330046", "togoTel": "56330046", "trafficWay": "\u5730\u94c1\u4e00\u53f7\u7ebf", "signBuilding": null, "businessArea": "50~100\u5e73\u7c73", "selfRoom": "\u65e0", "businessTime": null, "stall": "\u65e0", "consume": null, "serviceFei": null, "favourable": null, "shopMemo": null, "appraise": null, "website": null, "memo": null, "payTypes": "\u6749\u5fb7\u5361", "shopTypes": "\u9762\u5305\u897f\u997c", "consumeTypes": null, "cookTypes": null, "orderNum": 1000, "card4no": null, "card4noAcc": null, "district2": 410, "searchScope": null, "status": 1, "address": "\u5ef6\u957f\u8def150\u53f7", "name": "\u9759\u5b89\u9762\u5305\u623f \u5ef6\u957f\u5e97", "id": 137014, "pageNo": 0, "pageCount": null, "pageSize": 10, "ids": null, "endTime": null, "startTime": null}, {"cardNumFive": null, "isSupportYj": null, "cityName": null, "districtName": null, "shopinfo": {"mid": "888888854410015", "good_flag": null, "new_flag": null, "short_name": "\u9759\u5b89\u9762\u5305\u623f", "short_name_pinyin": "jinganmianbaofang", "status": null, "address": null, "name": null, "id": "32183"}, "mid": "888888854410015", "shopId": "32183", "netid": null, "province": 901, "district": 601, "zipcode": null, "telephone": "62487537", "posDate": "20080815", "destineTel": null, "togoTel": null, "trafficWay": "\u516c\u4ea4824 830 506", "signBuilding": null, "businessArea": null, "selfRoom": null, "businessTime": null, "stall": null, "consume": null, "serviceFei": null, "favourable": null, "shopMemo": null, "appraise": null, "website": null, "memo": null, "payTypes": "\u6749\u5fb7\u5361", "shopTypes": "\u9762\u5305\u897f\u997c", "consumeTypes": null, "cookTypes": null, "orderNum": 1000, "card4no": null, "card4noAcc": null, "district2": 404, "searchScope": null, "status": 1, "address": "\u4f59\u59da\u8def412-1\u53f7", "name": "\u9759\u5b89\u9762\u5305\u623f \u4f59\u59da\u5e97", "id": 137017, "pageNo": 0, "pageCount": null, "pageSize": 10, "ids": null, "endTime": null, "startTime": null}, {"cardNumFive": null, "isSupportYj": null, "cityName": null, "districtName": null, "shopinfo": {"mid": "888888854410015", "good_flag": null, "new_flag": null, "short_name": "\u9759\u5b89\u9762\u5305\u623f", "short_name_pinyin": "jinganmianbaofang", "status": null, "address": null, "name": null, "id": "36214"}, "mid": "888888854410015", "shopId": "36214", "netid": null, "province": 901, "district": 601, "zipcode": null, "telephone": "64471819", "posDate": "20100816", "destineTel": null, "togoTel": null, "trafficWay": null, "signBuilding": null, "businessArea": null, "selfRoom": null, "businessTime": null, "stall": null, "consume": null, "serviceFei": null, "favourable": null, "shopMemo": null, "appraise": null, "website": null, "memo": null, "payTypes": "\u6749\u5fb7\u5361", "shopTypes": "\u9762\u5305\u897f\u997c", "consumeTypes": null, "cookTypes": null, "orderNum": 1000, "card4no": null, "card4noAcc": null, "district2": 406, "searchScope": null, "status": 1, "address": "\u957f\u5b81\u533a\u756a\u79ba\u8def878-3\u53f7", "name": "\u9759\u5b89\u9762\u5305\u623f \u756a\u79ba\u8def\u4e8c\u5e97", "id": 150926, "pageNo": 0, "pageCount": null, "pageSize": 10, "ids": null, "endTime": null, "startTime": null}, {"cardNumFive": null, "isSupportYj": null, "cityName": null, "districtName": null, "shopinfo": {"mid": "888888854410015", "good_flag": null, "new_flag": null, "short_name": "\u9759\u5b89\u9762\u5305\u623f", "short_name_pinyin": "jinganmianbaofang", "status": null, "address": null, "name": null, "id": "36214"}, "mid": "888888854410015", "shopId": "36214", "netid": null, "province": 901, "district": 601, "zipcode": null, "telephone": "38230922", "posDate": "20100816", "destineTel": null, "togoTel": null, "trafficWay": null, "signBuilding": null, "businessArea": null, "selfRoom": null, "businessTime": null, "stall": null, "consume": null, "serviceFei": null, "favourable": null, "shopMemo": null, "appraise": null, "website": null, "memo": null, "payTypes": "\u6749\u5fb7\u5361", "shopTypes": "\u9762\u5305\u897f\u997c", "consumeTypes": null, "cookTypes": null, "orderNum": 1000, "card4no": null, "card4noAcc": null, "district2": 418, "searchScope": null, "status": 1, "address": "\u6d66\u4e1c\u65b0\u533a\u5468\u6d66\u5927\u8fde\u4e07\u8fbe\u5e7f\u573a\u4e8c\u671f\u5546\u4e1a\u885716\u53f7\u5546\u94fa1\u5c42", "name": "\u9759\u5b89\u9762\u5305\u623f \u5468\u6d66\u5e97", "id": 150928, "pageNo": 0, "pageCount": null, "pageSize": 10, "ids": null, "endTime": null, "startTime": null}, {"cardNumFive": null, "isSupportYj": null, "cityName": null, "districtName": null, "shopinfo": {"mid": "888888854410015", "good_flag": null, "new_flag": null, "short_name": "\u9759\u5b89\u9762\u5305\u623f", "short_name_pinyin": "jinganmianbaofang", "status": null, "address": null, "name": null, "id": "32183"}, "mid": "888888854410015", "shopId": "32183", "netid": null, "province": 901, "district": 601, "zipcode": null, "telephone": "61720214", "posDate": null, "destineTel": null, "togoTel": null, "trafficWay": null, "signBuilding": null, "businessArea": null, "selfRoom": null, "businessTime": null, "stall": null, "consume": null, "serviceFei": null, "favourable": null, "shopMemo": null, "appraise": null, "website": null, "memo": null, "payTypes": "\u6749\u5fb7\u5361", "shopTypes": "\u9762\u5305\u897f\u997c", "consumeTypes": null, "cookTypes": null, "orderNum": 1000, "card4no": null, "card4noAcc": null, "district2": 403, "searchScope": null, "status": 1, "address": "\u5927\u6728\u6865\u8def277\u53f7", "name": "\u9759\u5b89\u9762\u5305\u623f \u5927\u6728\u6865\u5e97", "id": 172401, "pageNo": 0, "pageCount": null, "pageSize": 10, "ids": null, "endTime": null, "startTime": null}, {"cardNumFive": null, "isSupportYj": null, "cityName": null, "districtName": null, "shopinfo": {"mid": "888888854410015", "good_flag": null, "new_flag": null, "short_name": "\u9759\u5b89\u9762\u5305\u623f", "short_name_pinyin": "jinganmianbaofang", "status": null, "address": null, "name": null, "id": "32183"}, "mid": "888888854410015", "shopId": "32183", "netid": null, "province": 901, "district": 601, "zipcode": null, "telephone": "33665675", "posDate": null, "destineTel": null, "togoTel": null, "trafficWay": null, "signBuilding": null, "businessArea": null, "selfRoom": null, "businessTime": null, "stall": null, "consume": null, "serviceFei": null, "favourable": null, "shopMemo": null, "appraise": null, "website": null, "memo": null, "payTypes": "\u6749\u5fb7\u5361", "shopTypes": "\u9762\u5305\u897f\u997c", "consumeTypes": null, "cookTypes": null, "orderNum": 1000, "card4no": null, "card4noAcc": null, "district2": 401, "searchScope": null, "status": 1, "address": "\u8499\u81ea\u8def49\u53f7", "name": "\u9759\u5b89\u9762\u5305\u623f \u8499\u81ea\u5e97", "id": 181454, "pageNo": 0, "pageCount": null, "pageSize": 10, "ids": null, "endTime": null, "startTime": null}, {"cardNumFive": null, "isSupportYj": null, "cityName": null, "districtName": null, "shopinfo": {"mid": "888888854410015", "good_flag": null, "new_flag": null, "short_name": "\u9759\u5b89\u9762\u5305\u623f", "short_name_pinyin": "jinganmianbaofang", "status": null, "address": null, "name": null, "id": "32183"}, "mid": "888888854410015", "shopId": "32183", "netid": null, "province": 901, "district": 601, "zipcode": null, "telephone": "61124797", "posDate": null, "destineTel": null, "togoTel": null, "trafficWay": null, "signBuilding": null, "businessArea": null, "selfRoom": null, "businessTime": null, "stall": null, "consume": null, "serviceFei": null, "favourable": null, "shopMemo": null, "appraise": null, "website": null, "memo": null, "payTypes": "\u6749\u5fb7\u5361", "shopTypes": "\u9762\u5305\u897f\u997c", "consumeTypes": null, "cookTypes": null, "orderNum": 1000, "card4no": null, "card4noAcc": null, "district2": 404, "searchScope": null, "status": 1, "address": "\u534e\u5c71\u8def370\u53f7", "name": "\u9759\u5b89\u9762\u5305\u623f \u534e\u5c71\u5e97", "id": 181455, "pageNo": 0, "pageCount": null, "pageSize": 10, "ids": null, "endTime": null, "startTime": null}, {"cardNumFive": null, "isSupportYj": null, "cityName": null, "districtName": null, "shopinfo": {"mid": "888002154620016", "good_flag": "2", "new_flag": "2", "short_name": "\u9759\u5b89\u9762\u5305\u623f", "short_name_pinyin": "jinganmianbaofang", "status": null, "address": null, "name": null, "id": "418057392765272064"}, "mid": "888002154620016", "shopId": "418057392765272064", "netid": null, "province": 901, "district": 601, "zipcode": null, "telephone": null, "posDate": null, "destineTel": null, "togoTel": null, "trafficWay": null, "signBuilding": null, "businessArea": null, "selfRoom": null, "businessTime": null, "stall": null, "consume": null, "serviceFei": null, "favourable": null, "shopMemo": null, "appraise": null, "website": null, "memo": null, "payTypes": "\u6749\u5fb7\u5361,", "shopTypes": "\u9762\u5305\u897f\u997c", "consumeTypes": null, "cookTypes": null, "orderNum": null, "card4no": null, "card4noAcc": null, "district2": 418, "searchScope": null, "status": 1, "address": "\u6d66\u4e09\u8def198\u53f7", "name": "\u6d66\u4e09\u8def\u5e97", "id": 418057391590866944, "pageNo": 0, "pageCount": null, "pageSize": 10, "ids": null, "endTime": null, "startTime": null}, {"cardNumFive": null, "isSupportYj": null, "cityName": null, "districtName": null, "shopinfo": {"mid": "888002154620016", "good_flag": "2", "new_flag": "2", "short_name": "\u9759\u5b89\u9762\u5305\u623f", "short_name_pinyin": "jinganmianbaofang", "status": null, "address": null, "name": null, "id": "418057392765272064"}, "mid": "888002154620016", "shopId": "418057392765272064", "netid": null, "province": 901, "district": 601, "zipcode": null, "telephone": null, "posDate": null, "destineTel": null, "togoTel": null, "trafficWay": null, "signBuilding": null, "businessArea": null, "selfRoom": null, "businessTime": null, "stall": null, "consume": null, "serviceFei": null, "favourable": null, "shopMemo": null, "appraise": null, "website": null, "memo": null, "payTypes": "\u6749\u5fb7\u5361,", "shopTypes": "\u9762\u5305\u897f\u997c", "consumeTypes": null, "cookTypes": null, "orderNum": null, "card4no": null, "card4noAcc": null, "district2": 401, "searchScope": null, "status": 1, "address": "\u798f\u5dde\u8def348\u53f7", "name": "\u798f\u5dde\u8def\u5e97", "id": 418057393046290432, "pageNo": 0, "pageCount": null, "pageSize": 10, "ids": null, "endTime": null, "startTime": null}, {"cardNumFive": null, "isSupportYj": null, "cityName": null, "districtName": null, "shopinfo": {"mid": "888002154620016", "good_flag": "2", "new_flag": "2", "short_name": "\u9759\u5b89\u9762\u5305\u623f", "short_name_pinyin": "jinganmianbaofang", "status": null, "address": null, "name": null, "id": "418057392765272064"}, "mid": "888002154620016", "shopId": "418057392765272064", "netid": null, "province": 901, "district": 601, "zipcode": null, "telephone": null, "posDate": null, "destineTel": null, "togoTel": null, "trafficWay": null, "signBuilding": null, "businessArea": null, "selfRoom": null, "businessTime": null, "stall": null, "consume": null, "serviceFei": null, "favourable": null, "shopMemo": null, "appraise": null, "website": null, "memo": null, "payTypes": "\u6749\u5fb7\u5361,", "shopTypes": "\u9762\u5305\u897f\u997c", "consumeTypes": null, "cookTypes": null, "orderNum": null, "card4no": null, "card4noAcc": null, "district2": 406, "searchScope": null, "status": 1, "address": "\u91d1\u949f\u8def633\u53f71\u5e621\u5c4201/02/03\u5ba4", "name": "\u91d1\u949f\u8def\u5e97", "id": 418057393365057536, "pageNo": 0, "pageCount": null, "pageSize": 10, "ids": null, "endTime": null, "startTime": null}], "pageLimit": 3770, "size": 10}