{"pageCount": 1095, "count": 10942, "pageNo": 371, "subShopInfo": {"cardNumFive": "", "isSupportYj": "", "cityName": null, "districtName": null, "shopinfo": {"mid": null, "good_flag": null, "new_flag": null, "short_name": null, "short_name_pinyin": null, "status": null, "address": "", "name": "", "id": null}, "mid": null, "shopId": null, "netid": null, "province": 901, "district": null, "zipcode": null, "telephone": null, "posDate": null, "destineTel": null, "togoTel": null, "trafficWay": null, "signBuilding": null, "businessArea": null, "selfRoom": null, "businessTime": null, "stall": null, "consume": null, "serviceFei": null, "favourable": null, "shopMemo": "1", "appraise": null, "website": null, "memo": null, "payTypes": "", "shopTypes": "", "consumeTypes": null, "cookTypes": null, "orderNum": null, "card4no": null, "card4noAcc": null, "district2": null, "searchScope": null, "status": null, "address": "", "name": null, "id": null, "pageNo": 370, "pageCount": null, "pageSize": 10, "ids": null, "endTime": null, "startTime": null}, "list": [{"cardNumFive": null, "isSupportYj": null, "cityName": null, "districtName": null, "shopinfo": {"mid": "888888854110209", "good_flag": null, "new_flag": null, "short_name": "\u6377\u5f3a", "short_name_pinyin": "jieqiang", "status": null, "address": null, "name": null, "id": "32062"}, "mid": "888888854110209", "shopId": "32062", "netid": null, "province": 901, "district": 601, "zipcode": null, "telephone": "63390154", "posDate": "20090121", "destineTel": null, "togoTel": null, "trafficWay": "\u516c\u4ea4939\u8def220\u8def21\u8def", "signBuilding": null, "businessArea": null, "selfRoom": null, "businessTime": null, "stall": null, "consume": null, "serviceFei": null, "favourable": null, "shopMemo": null, "appraise": null, "website": null, "memo": null, "payTypes": "\u6749\u5fb7\u5361", "shopTypes": "\u8d85\u5e02", "consumeTypes": null, "cookTypes": null, "orderNum": 1000, "card4no": null, "card4noAcc": null, "district2": 401, "searchScope": null, "status": 1, "address": "\u9999\u6e2f\u8def123\u53f7", "name": "\u6377\u5f3a \u9999\u6e2f\u5e97", "id": 136731, "pageNo": 0, "pageCount": null, "pageSize": 10, "ids": null, "endTime": null, "startTime": null}, {"cardNumFive": null, "isSupportYj": null, "cityName": null, "districtName": null, "shopinfo": {"mid": "888888854110209", "good_flag": null, "new_flag": null, "short_name": "\u6377\u5f3a", "short_name_pinyin": "jieqiang", "status": null, "address": null, "name": null, "id": "32062"}, "mid": "888888854110209", "shopId": "32062", "netid": null, "province": 901, "district": 601, "zipcode": null, "telephone": "65211829", "posDate": "20090218", "destineTel": null, "togoTel": null, "trafficWay": null, "signBuilding": null, "businessArea": null, "selfRoom": null, "businessTime": null, "stall": null, "consume": null, "serviceFei": null, "favourable": null, "shopMemo": null, "appraise": null, "website": null, "memo": null, "payTypes": "\u6749\u5fb7\u5361", "shopTypes": "\u8d85\u5e02", "consumeTypes": null, "cookTypes": null, "orderNum": 1000, "card4no": null, "card4noAcc": null, "district2": 408, "searchScope": null, "status": 1, "address": "\u7965\u5fb7\u8def321\u53f7", "name": "\u6377\u5f3a \u7965\u5fb7\u5e97", "id": 136732, "pageNo": 0, "pageCount": null, "pageSize": 10, "ids": null, "endTime": null, "startTime": null}, {"cardNumFive": null, "isSupportYj": null, "cityName": null, "districtName": null, "shopinfo": {"mid": "888888854110209", "good_flag": null, "new_flag": null, "short_name": "\u6377\u5f3a", "short_name_pinyin": "jieqiang", "status": null, "address": null, "name": null, "id": "32062"}, "mid": "888888854110209", "shopId": "32062", "netid": null, "province": 901, "district": 601, "zipcode": null, "telephone": "65493911", "posDate": "20090218", "destineTel": null, "togoTel": null, "trafficWay": null, "signBuilding": null, "businessArea": null, "selfRoom": null, "businessTime": null, "stall": null, "consume": null, "serviceFei": null, "favourable": null, "shopMemo": null, "appraise": null, "website": null, "memo": null, "payTypes": "\u6749\u5fb7\u5361", "shopTypes": "\u8d85\u5e02", "consumeTypes": null, "cookTypes": null, "orderNum": 1000, "card4no": null, "card4noAcc": null, "district2": 407, "searchScope": null, "status": 1, "address": "\u7fd4\u6bb7\u8def311-315\u53f7", "name": "\u6377\u5f3a \u7fd4\u6bb7\u5e97", "id": 136733, "pageNo": 0, "pageCount": null, "pageSize": 10, "ids": null, "endTime": null, "startTime": null}, {"cardNumFive": null, "isSupportYj": null, "cityName": null, "districtName": null, "shopinfo": {"mid": "888888854110209", "good_flag": null, "new_flag": null, "short_name": "\u6377\u5f3a", "short_name_pinyin": "jieqiang", "status": null, "address": null, "name": null, "id": "32062"}, "mid": "888888854110209", "shopId": "32062", "netid": null, "province": 901, "district": 601, "zipcode": null, "telephone": "64186939", "posDate": "20090223", "destineTel": null, "togoTel": null, "trafficWay": null, "signBuilding": null, "businessArea": null, "selfRoom": null, "businessTime": null, "stall": null, "consume": null, "serviceFei": null, "favourable": null, "shopMemo": null, "appraise": null, "website": null, "memo": null, "payTypes": "\u6749\u5fb7\u5361", "shopTypes": "\u8d85\u5e02", "consumeTypes": null, "cookTypes": null, "orderNum": 1000, "card4no": null, "card4noAcc": null, "district2": 403, "searchScope": null, "status": 1, "address": "\u5c0f\u6728\u6865\u8def353\u53f7", "name": "\u6377\u5f3a \u5c0f\u6728\u6865\u5e97", "id": 136734, "pageNo": 0, "pageCount": null, "pageSize": 10, "ids": null, "endTime": null, "startTime": null}, {"cardNumFive": null, "isSupportYj": null, "cityName": null, "districtName": null, "shopinfo": {"mid": "888888854110209", "good_flag": null, "new_flag": null, "short_name": "\u6377\u5f3a", "short_name_pinyin": "jieqiang", "status": null, "address": null, "name": null, "id": "32062"}, "mid": "888888854110209", "shopId": "32062", "netid": null, "province": 901, "district": 601, "zipcode": null, "telephone": "64760822", "posDate": "20090217", "destineTel": null, "togoTel": null, "trafficWay": null, "signBuilding": null, "businessArea": null, "selfRoom": null, "businessTime": null, "stall": null, "consume": null, "serviceFei": null, "favourable": null, "shopMemo": null, "appraise": null, "website": null, "memo": null, "payTypes": "\u6749\u5fb7\u5361", "shopTypes": "\u8d85\u5e02", "consumeTypes": null, "cookTypes": null, "orderNum": 1000, "card4no": null, "card4noAcc": null, "district2": 409, "searchScope": null, "status": 1, "address": "\u8398\u6731\u8def1922\u53f7", "name": "\u6377\u5f3a \u8398\u6731\u5e97", "id": 136735, "pageNo": 0, "pageCount": null, "pageSize": 10, "ids": null, "endTime": null, "startTime": null}, {"cardNumFive": null, "isSupportYj": null, "cityName": null, "districtName": null, "shopinfo": {"mid": "888888854110209", "good_flag": null, "new_flag": null, "short_name": "\u6377\u5f3a", "short_name_pinyin": "jieqiang", "status": null, "address": null, "name": null, "id": "32062"}, "mid": "888888854110209", "shopId": "32062", "netid": null, "province": 901, "district": 601, "zipcode": null, "telephone": "36321479", "posDate": "20090121", "destineTel": null, "togoTel": null, "trafficWay": "\u516c\u4ea4107\u8def937\u8def766\u8def", "signBuilding": null, "businessArea": null, "selfRoom": null, "businessTime": null, "stall": null, "consume": null, "serviceFei": null, "favourable": null, "shopMemo": null, "appraise": null, "website": null, "memo": null, "payTypes": "\u6749\u5fb7\u5361", "shopTypes": "\u8d85\u5e02", "consumeTypes": null, "cookTypes": null, "orderNum": 1000, "card4no": null, "card4noAcc": null, "district2": 405, "searchScope": null, "status": 1, "address": "\u65b0\u6751\u8def1404\u53f7", "name": "\u6377\u5f3a \u65b0\u6751\u5e97", "id": 136736, "pageNo": 0, "pageCount": null, "pageSize": 10, "ids": null, "endTime": null, "startTime": null}, {"cardNumFive": null, "isSupportYj": null, "cityName": null, "districtName": null, "shopinfo": {"mid": "888888854110209", "good_flag": null, "new_flag": null, "short_name": "\u6377\u5f3a", "short_name_pinyin": "jieqiang", "status": null, "address": null, "name": null, "id": "32062"}, "mid": "888888854110209", "shopId": "32062", "netid": null, "province": 901, "district": 601, "zipcode": null, "telephone": "69106823", "posDate": "200909", "destineTel": null, "togoTel": null, "trafficWay": "\u516c\u4ea4860\u3001561", "signBuilding": null, "businessArea": null, "selfRoom": null, "businessTime": null, "stall": null, "consume": null, "serviceFei": null, "favourable": null, "shopMemo": null, "appraise": null, "website": null, "memo": null, "payTypes": "\u6749\u5fb7\u5361", "shopTypes": "\u8d85\u5e02", "consumeTypes": null, "cookTypes": null, "orderNum": 1000, "card4no": null, "card4noAcc": null, "district2": 405, "searchScope": null, "status": 1, "address": "\u65b0\u90c1\u8def835\u53f71045-1046", "name": "\u6377\u5f3a \u65b0\u90c1\u8def\u5e97", "id": 136737, "pageNo": 0, "pageCount": null, "pageSize": 10, "ids": null, "endTime": null, "startTime": null}, {"cardNumFive": null, "isSupportYj": null, "cityName": null, "districtName": null, "shopinfo": {"mid": "888888854110209", "good_flag": null, "new_flag": null, "short_name": "\u6377\u5f3a", "short_name_pinyin": "jieqiang", "status": null, "address": null, "name": null, "id": "32062"}, "mid": "888888854110209", "shopId": "32062", "netid": null, "province": 901, "district": 601, "zipcode": null, "telephone": "63591326", "posDate": "20090223", "destineTel": null, "togoTel": null, "trafficWay": null, "signBuilding": null, "businessArea": null, "selfRoom": null, "businessTime": null, "stall": null, "consume": null, "serviceFei": null, "favourable": null, "shopMemo": null, "appraise": null, "website": null, "memo": null, "payTypes": "\u6749\u5fb7\u5361", "shopTypes": "\u8d85\u5e02", "consumeTypes": null, "cookTypes": null, "orderNum": 1000, "card4no": null, "card4noAcc": null, "district2": 401, "searchScope": null, "status": 1, "address": "\u65b0\u95f8\u8def251\u53f7\u7532", "name": "\u6377\u5f3a \u65b0\u95f8\u5e97", "id": 136738, "pageNo": 0, "pageCount": null, "pageSize": 10, "ids": null, "endTime": null, "startTime": null}, {"cardNumFive": null, "isSupportYj": null, "cityName": null, "districtName": null, "shopinfo": {"mid": "888888854110209", "good_flag": null, "new_flag": null, "short_name": "\u6377\u5f3a", "short_name_pinyin": "jieqiang", "status": null, "address": null, "name": null, "id": "32062"}, "mid": "888888854110209", "shopId": "32062", "netid": null, "province": 901, "district": 601, "zipcode": null, "telephone": "66357184", "posDate": "20090217", "destineTel": null, "togoTel": null, "trafficWay": null, "signBuilding": null, "businessArea": null, "selfRoom": null, "businessTime": null, "stall": null, "consume": null, "serviceFei": null, "favourable": null, "shopMemo": null, "appraise": null, "website": null, "memo": null, "payTypes": "\u6749\u5fb7\u5361", "shopTypes": "\u8d85\u5e02", "consumeTypes": null, "cookTypes": null, "orderNum": 1000, "card4no": null, "card4noAcc": null, "district2": 416, "searchScope": null, "status": 1, "address": "\u884c\u77e5\u8def454\u53f7", "name": "\u6377\u5f3a \u884c\u77e5\u5e97", "id": 136739, "pageNo": 0, "pageCount": null, "pageSize": 10, "ids": null, "endTime": null, "startTime": null}, {"cardNumFive": null, "isSupportYj": null, "cityName": null, "districtName": null, "shopinfo": {"mid": "888888854110209", "good_flag": null, "new_flag": null, "short_name": "\u6377\u5f3a", "short_name_pinyin": "jieqiang", "status": null, "address": null, "name": null, "id": "32062"}, "mid": "888888854110209", "shopId": "32062", "netid": null, "province": 901, "district": 601, "zipcode": null, "telephone": "56073882", "posDate": "20090219", "destineTel": null, "togoTel": null, "trafficWay": null, "signBuilding": null, "businessArea": null, "selfRoom": null, "businessTime": null, "stall": null, "consume": null, "serviceFei": null, "favourable": null, "shopMemo": null, "appraise": null, "website": null, "memo": null, "payTypes": "\u6749\u5fb7\u5361", "shopTypes": "\u8d85\u5e02", "consumeTypes": null, "cookTypes": null, "orderNum": 1000, "card4no": null, "card4noAcc": null, "district2": 405, "searchScope": null, "status": 1, "address": "\u5ef6\u957f\u897f\u8def637\u53f7", "name": "\u6377\u5f3a \u5ef6\u957f\u5e97", "id": 136740, "pageNo": 0, "pageCount": null, "pageSize": 10, "ids": null, "endTime": null, "startTime": null}], "pageLimit": 3700, "size": 10}