{"pageCount": 1095, "count": 10942, "pageNo": 373, "subShopInfo": {"cardNumFive": "", "isSupportYj": "", "cityName": null, "districtName": null, "shopinfo": {"mid": null, "good_flag": null, "new_flag": null, "short_name": null, "short_name_pinyin": null, "status": null, "address": "", "name": "", "id": null}, "mid": null, "shopId": null, "netid": null, "province": 901, "district": null, "zipcode": null, "telephone": null, "posDate": null, "destineTel": null, "togoTel": null, "trafficWay": null, "signBuilding": null, "businessArea": null, "selfRoom": null, "businessTime": null, "stall": null, "consume": null, "serviceFei": null, "favourable": null, "shopMemo": "1", "appraise": null, "website": null, "memo": null, "payTypes": "", "shopTypes": "", "consumeTypes": null, "cookTypes": null, "orderNum": null, "card4no": null, "card4noAcc": null, "district2": null, "searchScope": null, "status": null, "address": "", "name": null, "id": null, "pageNo": 372, "pageCount": null, "pageSize": 10, "ids": null, "endTime": null, "startTime": null}, "list": [{"cardNumFive": null, "isSupportYj": null, "cityName": null, "districtName": null, "shopinfo": {"mid": "888888854110209", "good_flag": null, "new_flag": null, "short_name": "\u6377\u5f3a", "short_name_pinyin": "jieqiang", "status": null, "address": null, "name": null, "id": "32062"}, "mid": "888888854110209", "shopId": "32062", "netid": null, "province": 901, "district": 601, "zipcode": null, "telephone": "50332439", "posDate": "20090219", "destineTel": null, "togoTel": null, "trafficWay": null, "signBuilding": null, "businessArea": null, "selfRoom": null, "businessTime": null, "stall": null, "consume": null, "serviceFei": null, "favourable": null, "shopMemo": null, "appraise": null, "website": null, "memo": null, "payTypes": "\u6749\u5fb7\u5361", "shopTypes": "\u8d85\u5e02", "consumeTypes": null, "cookTypes": null, "orderNum": 1000, "card4no": null, "card4noAcc": null, "district2": 418, "searchScope": null, "status": 1, "address": "\u7fbd\u5c71\u8def1936\u53f7", "name": "\u6377\u5f3a \u7fbd\u5c71\u5e97", "id": 136751, "pageNo": 0, "pageCount": null, "pageSize": 10, "ids": null, "endTime": null, "startTime": null}, {"cardNumFive": null, "isSupportYj": null, "cityName": null, "districtName": null, "shopinfo": {"mid": "888888854110209", "good_flag": null, "new_flag": null, "short_name": "\u6377\u5f3a", "short_name_pinyin": "jieqiang", "status": null, "address": null, "name": null, "id": "32062"}, "mid": "888888854110209", "shopId": "32062", "netid": null, "province": 901, "district": 601, "zipcode": null, "telephone": "63288308", "posDate": "20090121", "destineTel": null, "togoTel": null, "trafficWay": "\u516c\u4ea424\u8def66\u533a\u95f4581\u8def", "signBuilding": null, "businessArea": null, "selfRoom": null, "businessTime": null, "stall": null, "consume": null, "serviceFei": null, "favourable": null, "shopMemo": null, "appraise": null, "website": null, "memo": null, "payTypes": "\u6749\u5fb7\u5361", "shopTypes": "\u8d85\u5e02", "consumeTypes": null, "cookTypes": null, "orderNum": 1000, "card4no": null, "card4noAcc": null, "district2": 401, "searchScope": null, "status": 1, "address": "\u4e09\u724c\u697c\u8def11\u53f7", "name": "\u6377\u5f3a \u8c6b\u56ed\u5e97", "id": 136752, "pageNo": 0, "pageCount": null, "pageSize": 10, "ids": null, "endTime": null, "startTime": null}, {"cardNumFive": null, "isSupportYj": null, "cityName": null, "districtName": null, "shopinfo": {"mid": "888888854110209", "good_flag": null, "new_flag": null, "short_name": "\u6377\u5f3a", "short_name_pinyin": "jieqiang", "status": null, "address": null, "name": null, "id": "32062"}, "mid": "888888854110209", "shopId": "32062", "netid": null, "province": 901, "district": 601, "zipcode": null, "telephone": "62542996", "posDate": "20090217", "destineTel": null, "togoTel": null, "trafficWay": null, "signBuilding": null, "businessArea": null, "selfRoom": null, "businessTime": null, "stall": null, "consume": null, "serviceFei": null, "favourable": null, "shopMemo": null, "appraise": null, "website": null, "memo": null, "payTypes": "\u6749\u5fb7\u5361", "shopTypes": "\u8d85\u5e02", "consumeTypes": null, "cookTypes": null, "orderNum": 1000, "card4no": null, "card4noAcc": null, "district2": 405, "searchScope": null, "status": 1, "address": "\u829d\u5ddd\u8def142\u53f7", "name": "\u6377\u5f3a \u829d\u5ddd\u5e97", "id": 136754, "pageNo": 0, "pageCount": null, "pageSize": 10, "ids": null, "endTime": null, "startTime": null}, {"cardNumFive": null, "isSupportYj": null, "cityName": null, "districtName": null, "shopinfo": {"mid": "888888854110209", "good_flag": null, "new_flag": null, "short_name": "\u6377\u5f3a", "short_name_pinyin": "jieqiang", "status": null, "address": null, "name": null, "id": "32062"}, "mid": "888888854110209", "shopId": "32062", "netid": null, "province": 901, "district": 601, "zipcode": null, "telephone": "56720577", "posDate": "20090219", "destineTel": null, "togoTel": null, "trafficWay": null, "signBuilding": null, "businessArea": null, "selfRoom": null, "businessTime": null, "stall": null, "consume": null, "serviceFei": null, "favourable": null, "shopMemo": null, "appraise": null, "website": null, "memo": null, "payTypes": "\u6749\u5fb7\u5361", "shopTypes": "\u8d85\u5e02", "consumeTypes": null, "cookTypes": null, "orderNum": 1000, "card4no": null, "card4noAcc": null, "district2": 410, "searchScope": null, "status": 1, "address": "\u82b7\u6c5f\u897f\u8def66-1", "name": "\u6377\u5f3a \u82b7\u6c5f\u5e97", "id": 136755, "pageNo": 0, "pageCount": null, "pageSize": 10, "ids": null, "endTime": null, "startTime": null}, {"cardNumFive": null, "isSupportYj": null, "cityName": null, "districtName": null, "shopinfo": {"mid": "888888854110209", "good_flag": null, "new_flag": null, "short_name": "\u6377\u5f3a", "short_name_pinyin": "jieqiang", "status": null, "address": null, "name": null, "id": "32062"}, "mid": "888888854110209", "shopId": "32062", "netid": null, "province": 901, "district": 601, "zipcode": null, "telephone": "56634563", "posDate": "20090409", "destineTel": null, "togoTel": null, "trafficWay": null, "signBuilding": null, "businessArea": null, "selfRoom": null, "businessTime": null, "stall": null, "consume": null, "serviceFei": null, "favourable": null, "shopMemo": null, "appraise": null, "website": null, "memo": null, "payTypes": "\u6749\u5fb7\u5361", "shopTypes": "\u8d85\u5e02", "consumeTypes": null, "cookTypes": null, "orderNum": 1000, "card4no": null, "card4noAcc": null, "district2": 410, "searchScope": null, "status": 1, "address": "\u82b7\u6c5f\u4e2d\u8def268\u53f7", "name": "\u6377\u5f3a \u82b7\u6c5f\u4e8c\u5e97", "id": 136756, "pageNo": 0, "pageCount": null, "pageSize": 10, "ids": null, "endTime": null, "startTime": null}, {"cardNumFive": null, "isSupportYj": null, "cityName": null, "districtName": null, "shopinfo": {"mid": "888888854110209", "good_flag": null, "new_flag": null, "short_name": "\u6377\u5f3a", "short_name_pinyin": "jieqiang", "status": null, "address": null, "name": null, "id": "32062"}, "mid": "888888854110209", "shopId": "32062", "netid": null, "province": 901, "district": 601, "zipcode": null, "telephone": "63125402", "posDate": "20090223", "destineTel": null, "togoTel": null, "trafficWay": null, "signBuilding": null, "businessArea": null, "selfRoom": null, "businessTime": null, "stall": null, "consume": null, "serviceFei": null, "favourable": null, "shopMemo": null, "appraise": null, "website": null, "memo": null, "payTypes": "\u6749\u5fb7\u5361", "shopTypes": "\u8d85\u5e02", "consumeTypes": null, "cookTypes": null, "orderNum": 1000, "card4no": null, "card4noAcc": null, "district2": 401, "searchScope": null, "status": 1, "address": "\u5236\u9020\u5c40\u8def55\u53f7", "name": "\u6377\u5f3a \u5236\u9020\u5c40\u5e97", "id": 136757, "pageNo": 0, "pageCount": null, "pageSize": 10, "ids": null, "endTime": null, "startTime": null}, {"cardNumFive": null, "isSupportYj": null, "cityName": null, "districtName": null, "shopinfo": {"mid": "888888854110209", "good_flag": null, "new_flag": null, "short_name": "\u6377\u5f3a", "short_name_pinyin": "jieqiang", "status": null, "address": null, "name": null, "id": "32062"}, "mid": "888888854110209", "shopId": "32062", "netid": null, "province": 901, "district": 601, "zipcode": null, "telephone": "56720768", "posDate": "20090219", "destineTel": null, "togoTel": null, "trafficWay": null, "signBuilding": null, "businessArea": null, "selfRoom": null, "businessTime": null, "stall": null, "consume": null, "serviceFei": null, "favourable": null, "shopMemo": null, "appraise": null, "website": null, "memo": null, "payTypes": "\u6749\u5fb7\u5361", "shopTypes": "\u8d85\u5e02", "consumeTypes": null, "cookTypes": null, "orderNum": 1000, "card4no": null, "card4noAcc": null, "district2": 410, "searchScope": null, "status": 1, "address": "\u4e2d\u534e\u65b0\u8def957\u53f7", "name": "\u6377\u5f3a \u4e2d\u534e\u5e97", "id": 136759, "pageNo": 0, "pageCount": null, "pageSize": 10, "ids": null, "endTime": null, "startTime": null}, {"cardNumFive": null, "isSupportYj": null, "cityName": null, "districtName": null, "shopinfo": {"mid": "888888854110209", "good_flag": null, "new_flag": null, "short_name": "\u6377\u5f3a", "short_name_pinyin": "jieqiang", "status": null, "address": null, "name": null, "id": "32062"}, "mid": "888888854110209", "shopId": "32062", "netid": null, "province": 901, "district": 601, "zipcode": null, "telephone": "56315728", "posDate": "20090219", "destineTel": null, "togoTel": null, "trafficWay": null, "signBuilding": null, "businessArea": null, "selfRoom": null, "businessTime": null, "stall": null, "consume": null, "serviceFei": null, "favourable": null, "shopMemo": null, "appraise": null, "website": null, "memo": null, "payTypes": "\u6749\u5fb7\u5361", "shopTypes": "\u8d85\u5e02", "consumeTypes": null, "cookTypes": null, "orderNum": 1000, "card4no": null, "card4noAcc": null, "district2": 401, "searchScope": null, "status": 1, "address": "\u4e2d\u5174\u8def1238\u53f7", "name": "\u6377\u5f3a \u4e2d\u5174\u5e97", "id": 136761, "pageNo": 0, "pageCount": null, "pageSize": 10, "ids": null, "endTime": null, "startTime": null}, {"cardNumFive": null, "isSupportYj": null, "cityName": null, "districtName": null, "shopinfo": {"mid": "888002153310105", "good_flag": null, "new_flag": null, "short_name": "\u6377\u5f3a", "short_name_pinyin": "jieqiang", "status": null, "address": null, "name": null, "id": "36164"}, "mid": "888002153310105", "shopId": "36164", "netid": null, "province": 901, "district": 601, "zipcode": null, "telephone": "56329019", "posDate": "20100722", "destineTel": null, "togoTel": null, "trafficWay": null, "signBuilding": null, "businessArea": null, "selfRoom": null, "businessTime": null, "stall": null, "consume": null, "serviceFei": null, "favourable": null, "shopMemo": null, "appraise": null, "website": null, "memo": null, "payTypes": "\u6749\u5fb7\u5361", "shopTypes": "\u4fbf\u5229\u5e97", "consumeTypes": null, "cookTypes": null, "orderNum": 1000, "card4no": null, "card4noAcc": null, "district2": 410, "searchScope": null, "status": 1, "address": "\u5b9d\u901a\u8def536\u53f7", "name": "\u6377\u5f3a \u5b9d\u901a\u4e8c\u5e97", "id": 150716, "pageNo": 0, "pageCount": null, "pageSize": 10, "ids": null, "endTime": null, "startTime": null}, {"cardNumFive": null, "isSupportYj": null, "cityName": null, "districtName": null, "shopinfo": {"mid": "888888854110209", "good_flag": null, "new_flag": null, "short_name": "\u6377\u5f3a", "short_name_pinyin": "jieqiang", "status": null, "address": null, "name": null, "id": "36388"}, "mid": "888888854110209", "shopId": "36388", "netid": null, "province": 901, "district": 601, "zipcode": null, "telephone": "64534005", "posDate": "20100915", "destineTel": null, "togoTel": null, "trafficWay": null, "signBuilding": null, "businessArea": null, "selfRoom": null, "businessTime": null, "stall": null, "consume": null, "serviceFei": null, "favourable": null, "shopMemo": null, "appraise": null, "website": null, "memo": null, "payTypes": "\u6749\u5fb7\u5361", "shopTypes": "\u8d85\u5e02", "consumeTypes": null, "cookTypes": null, "orderNum": 1000, "card4no": null, "card4noAcc": null, "district2": 403, "searchScope": null, "status": 1, "address": "\u7f57\u79c0\u8def947\u53f7", "name": "\u6377\u5f3a \u7f57\u79c0\u8def\u5e97", "id": 151433, "pageNo": 0, "pageCount": null, "pageSize": 10, "ids": null, "endTime": null, "startTime": null}], "pageLimit": 3720, "size": 10}