{"pageCount": 1095, "count": 10942, "pageNo": 389, "subShopInfo": {"cardNumFive": "", "isSupportYj": "", "cityName": null, "districtName": null, "shopinfo": {"mid": null, "good_flag": null, "new_flag": null, "short_name": null, "short_name_pinyin": null, "status": null, "address": "", "name": "", "id": null}, "mid": null, "shopId": null, "netid": null, "province": 901, "district": null, "zipcode": null, "telephone": null, "posDate": null, "destineTel": null, "togoTel": null, "trafficWay": null, "signBuilding": null, "businessArea": null, "selfRoom": null, "businessTime": null, "stall": null, "consume": null, "serviceFei": null, "favourable": null, "shopMemo": "1", "appraise": null, "website": null, "memo": null, "payTypes": "", "shopTypes": "", "consumeTypes": null, "cookTypes": null, "orderNum": null, "card4no": null, "card4noAcc": null, "district2": null, "searchScope": null, "status": null, "address": "", "name": null, "id": null, "pageNo": 388, "pageCount": null, "pageSize": 10, "ids": null, "endTime": null, "startTime": null}, "list": [{"cardNumFive": null, "isSupportYj": null, "cityName": null, "districtName": null, "shopinfo": {"mid": "888002154110161", "good_flag": null, "new_flag": null, "short_name": "\u57ce\u5e02\u8d85\u5e02", "short_name_pinyin": "ke", "status": null, "address": null, "name": null, "id": "42365"}, "mid": "888002154110161", "shopId": "42365", "netid": null, "province": 901, "district": 601, "zipcode": null, "telephone": null, "posDate": null, "destineTel": null, "togoTel": null, "trafficWay": null, "signBuilding": null, "businessArea": null, "selfRoom": null, "businessTime": null, "stall": null, "consume": null, "serviceFei": null, "favourable": null, "shopMemo": null, "appraise": null, "website": null, "memo": null, "payTypes": "\u6749\u5fb7\u5361", "shopTypes": "\u4fbf\u5229\u5e97", "consumeTypes": null, "cookTypes": null, "orderNum": 1000, "card4no": null, "card4noAcc": null, "district2": 405, "searchScope": null, "status": 1, "address": "\u771f\u5317\u8def788\u53f7\u8fd1\u94c1\u5e7f\u573a\u5357\u533aB2\u5c42", "name": "\u57ce\u5e02\u8d85\u5e02 \u8fd1\u94c1\u5e97", "id": 188977, "pageNo": 0, "pageCount": null, "pageSize": 10, "ids": null, "endTime": null, "startTime": null}, {"cardNumFive": null, "isSupportYj": null, "cityName": null, "districtName": null, "shopinfo": {"mid": "888002154119986", "good_flag": null, "new_flag": null, "short_name": "\u53ef\u7684\u4fbf\u5229", "short_name_pinyin": "kedibianli", "status": null, "address": null, "name": null, "id": "37201"}, "mid": "888002154119986", "shopId": "37201", "netid": null, "province": 901, "district": 601, "zipcode": null, "telephone": "62402073", "posDate": null, "destineTel": null, "togoTel": null, "trafficWay": null, "signBuilding": null, "businessArea": null, "selfRoom": null, "businessTime": null, "stall": null, "consume": null, "serviceFei": null, "favourable": null, "shopMemo": null, "appraise": null, "website": null, "memo": null, "payTypes": "\u6749\u5fb7\u5361", "shopTypes": "\u4fbf\u5229\u5e97", "consumeTypes": null, "cookTypes": null, "orderNum": 1000, "card4no": null, "card4noAcc": null, "district2": 406, "searchScope": null, "status": 1, "address": "\u5b89\u897f\u8def506\u53f7", "name": "\u53ef\u7684\u4fbf\u5229 \u5b89\u897f\u5e97", "id": 156805, "pageNo": 0, "pageCount": null, "pageSize": 10, "ids": null, "endTime": null, "startTime": null}, {"cardNumFive": null, "isSupportYj": null, "cityName": null, "districtName": null, "shopinfo": {"mid": "888002154119986", "good_flag": null, "new_flag": null, "short_name": "\u53ef\u7684\u4fbf\u5229", "short_name_pinyin": "kedibianli", "status": null, "address": null, "name": null, "id": "37201"}, "mid": "888002154119986", "shopId": "37201", "netid": null, "province": 901, "district": 601, "zipcode": null, "telephone": "62312462", "posDate": null, "destineTel": null, "togoTel": null, "trafficWay": null, "signBuilding": null, "businessArea": null, "selfRoom": null, "businessTime": null, "stall": null, "consume": null, "serviceFei": null, "favourable": null, "shopMemo": null, "appraise": null, "website": null, "memo": null, "payTypes": "\u6749\u5fb7\u5361", "shopTypes": "\u4fbf\u5229\u5e97", "consumeTypes": null, "cookTypes": null, "orderNum": 1000, "card4no": null, "card4noAcc": null, "district2": 405, "searchScope": null, "status": 1, "address": "\u5b89\u8fdc\u8def728\u5f0428\u53f7301\u5ba4", "name": "\u53ef\u7684\u4fbf\u5229 \u53f6\u5bb6\u5b85\u5e97", "id": 156806, "pageNo": 0, "pageCount": null, "pageSize": 10, "ids": null, "endTime": null, "startTime": null}, {"cardNumFive": null, "isSupportYj": null, "cityName": null, "districtName": null, "shopinfo": {"mid": "888002154119986", "good_flag": null, "new_flag": null, "short_name": "\u53ef\u7684\u4fbf\u5229", "short_name_pinyin": "kedibianli", "status": null, "address": null, "name": null, "id": "37201"}, "mid": "888002154119986", "shopId": "37201", "netid": null, "province": 901, "district": 601, "zipcode": null, "telephone": "64543321", "posDate": null, "destineTel": null, "togoTel": null, "trafficWay": null, "signBuilding": null, "businessArea": null, "selfRoom": null, "businessTime": null, "stall": null, "consume": null, "serviceFei": null, "favourable": null, "shopMemo": null, "appraise": null, "website": null, "memo": null, "payTypes": "\u6749\u5fb7\u5361", "shopTypes": "\u4fbf\u5229\u5e97", "consumeTypes": null, "cookTypes": null, "orderNum": 1000, "card4no": null, "card4noAcc": null, "district2": 403, "searchScope": null, "status": 1, "address": "\u767e\u8272\u8def956\u53f7", "name": "\u53ef\u7684\u4fbf\u5229 \u767e\u8272\u5e97", "id": 156808, "pageNo": 0, "pageCount": null, "pageSize": 10, "ids": null, "endTime": null, "startTime": null}, {"cardNumFive": null, "isSupportYj": null, "cityName": null, "districtName": null, "shopinfo": {"mid": "888002154119986", "good_flag": null, "new_flag": null, "short_name": "\u53ef\u7684\u4fbf\u5229", "short_name_pinyin": "kedibianli", "status": null, "address": null, "name": null, "id": "37201"}, "mid": "888002154119986", "shopId": "37201", "netid": null, "province": 901, "district": 601, "zipcode": null, "telephone": "65566309", "posDate": null, "destineTel": null, "togoTel": null, "trafficWay": null, "signBuilding": null, "businessArea": null, "selfRoom": null, "businessTime": null, "stall": null, "consume": null, "serviceFei": null, "favourable": null, "shopMemo": null, "appraise": null, "website": null, "memo": null, "payTypes": "\u6749\u5fb7\u5361", "shopTypes": "\u4fbf\u5229\u5e97", "consumeTypes": null, "cookTypes": null, "orderNum": 1000, "card4no": null, "card4noAcc": null, "district2": 407, "searchScope": null, "status": 1, "address": "\u5305\u5934\u8def180\u53f7", "name": "\u53ef\u7684\u4fbf\u5229 \u5305\u5934\u4e8c\u5e97", "id": 156809, "pageNo": 0, "pageCount": null, "pageSize": 10, "ids": null, "endTime": null, "startTime": null}, {"cardNumFive": null, "isSupportYj": null, "cityName": null, "districtName": null, "shopinfo": {"mid": "888002154119986", "good_flag": null, "new_flag": null, "short_name": "\u53ef\u7684\u4fbf\u5229", "short_name_pinyin": "kedibianli", "status": null, "address": null, "name": null, "id": "37201"}, "mid": "888002154119986", "shopId": "37201", "netid": null, "province": 901, "district": 601, "zipcode": null, "telephone": "65272070", "posDate": null, "destineTel": null, "togoTel": null, "trafficWay": null, "signBuilding": null, "businessArea": null, "selfRoom": null, "businessTime": null, "stall": null, "consume": null, "serviceFei": null, "favourable": null, "shopMemo": null, "appraise": null, "website": null, "memo": null, "payTypes": "\u6749\u5fb7\u5361", "shopTypes": "\u4fbf\u5229\u5e97", "consumeTypes": null, "cookTypes": null, "orderNum": 1000, "card4no": null, "card4noAcc": null, "district2": 407, "searchScope": null, "status": 1, "address": "\u5305\u5934\u8def412\u53f7", "name": "\u53ef\u7684\u4fbf\u5229 \u5305\u5934\u5e97", "id": 156810, "pageNo": 0, "pageCount": null, "pageSize": 10, "ids": null, "endTime": null, "startTime": null}, {"cardNumFive": null, "isSupportYj": null, "cityName": null, "districtName": null, "shopinfo": {"mid": "888002154119986", "good_flag": null, "new_flag": null, "short_name": "\u53ef\u7684\u4fbf\u5229", "short_name_pinyin": "kedibianli", "status": null, "address": null, "name": null, "id": "37201"}, "mid": "888002154119986", "shopId": "37201", "netid": null, "province": 901, "district": 601, "zipcode": null, "telephone": "56110747", "posDate": null, "destineTel": null, "togoTel": null, "trafficWay": null, "signBuilding": null, "businessArea": null, "selfRoom": null, "businessTime": null, "stall": null, "consume": null, "serviceFei": null, "favourable": null, "shopMemo": null, "appraise": null, "website": null, "memo": null, "payTypes": "\u6749\u5fb7\u5361", "shopTypes": "\u4fbf\u5229\u5e97", "consumeTypes": null, "cookTypes": null, "orderNum": 1000, "card4no": null, "card4noAcc": null, "district2": 416, "searchScope": null, "status": 1, "address": "\u5b9d\u6768\u8def557\u53f7", "name": "\u53ef\u7684\u4fbf\u5229 \u5b9d\u6768\u5e97", "id": 156811, "pageNo": 0, "pageCount": null, "pageSize": 10, "ids": null, "endTime": null, "startTime": null}, {"cardNumFive": null, "isSupportYj": null, "cityName": null, "districtName": null, "shopinfo": {"mid": "888002154119986", "good_flag": null, "new_flag": null, "short_name": "\u53ef\u7684\u4fbf\u5229", "short_name_pinyin": "kedibianli", "status": null, "address": null, "name": null, "id": "37201"}, "mid": "888002154119986", "shopId": "37201", "netid": null, "province": 901, "district": 601, "zipcode": null, "telephone": "56308313", "posDate": null, "destineTel": null, "togoTel": null, "trafficWay": null, "signBuilding": null, "businessArea": null, "selfRoom": null, "businessTime": null, "stall": null, "consume": null, "serviceFei": null, "favourable": null, "shopMemo": null, "appraise": null, "website": null, "memo": null, "payTypes": "\u6749\u5fb7\u5361", "shopTypes": "\u4fbf\u5229\u5e97", "consumeTypes": null, "cookTypes": null, "orderNum": 1000, "card4no": null, "card4noAcc": null, "district2": 408, "searchScope": null, "status": 1, "address": "\u5b9d\u6e90\u8def131\u53f7", "name": "\u53ef\u7684\u4fbf\u5229 \u5b9d\u6e90\u5e97", "id": 156812, "pageNo": 0, "pageCount": null, "pageSize": 10, "ids": null, "endTime": null, "startTime": null}, {"cardNumFive": null, "isSupportYj": null, "cityName": null, "districtName": null, "shopinfo": {"mid": "888002154119986", "good_flag": null, "new_flag": null, "short_name": "\u53ef\u7684\u4fbf\u5229", "short_name_pinyin": "kedibianli", "status": null, "address": null, "name": null, "id": "37201"}, "mid": "888002154119986", "shopId": "37201", "netid": null, "province": 901, "district": 601, "zipcode": null, "telephone": "54174522", "posDate": null, "destineTel": null, "togoTel": null, "trafficWay": null, "signBuilding": null, "businessArea": null, "selfRoom": null, "businessTime": null, "stall": null, "consume": null, "serviceFei": null, "favourable": null, "shopMemo": null, "appraise": null, "website": null, "memo": null, "payTypes": "\u6749\u5fb7\u5361", "shopTypes": "\u4fbf\u5229\u5e97", "consumeTypes": null, "cookTypes": null, "orderNum": 1000, "card4no": null, "card4noAcc": null, "district2": 409, "searchScope": null, "status": 1, "address": "\u62a5\u6625\u8def110\u53f7", "name": "\u53ef\u7684\u4fbf\u5229 \u4e1c\u6167\u5e97", "id": 156813, "pageNo": 0, "pageCount": null, "pageSize": 10, "ids": null, "endTime": null, "startTime": null}, {"cardNumFive": null, "isSupportYj": null, "cityName": null, "districtName": null, "shopinfo": {"mid": "888002154119986", "good_flag": null, "new_flag": null, "short_name": "\u53ef\u7684\u4fbf\u5229", "short_name_pinyin": "kedibianli", "status": null, "address": null, "name": null, "id": "37201"}, "mid": "888002154119986", "shopId": "37201", "netid": null, "province": 901, "district": 601, "zipcode": null, "telephone": "64124759", "posDate": null, "destineTel": null, "togoTel": null, "trafficWay": null, "signBuilding": null, "businessArea": null, "selfRoom": null, "businessTime": null, "stall": null, "consume": null, "serviceFei": null, "favourable": null, "shopMemo": null, "appraise": null, "website": null, "memo": null, "payTypes": "\u6749\u5fb7\u5361", "shopTypes": "\u4fbf\u5229\u5e97", "consumeTypes": null, "cookTypes": null, "orderNum": 1000, "card4no": null, "card4noAcc": null, "district2": 409, "searchScope": null, "status": 1, "address": "\u62a5\u6625\u8def831\u53f7", "name": "\u53ef\u7684\u4fbf\u5229 \u62a5\u6625\u5e97", "id": 156814, "pageNo": 0, "pageCount": null, "pageSize": 10, "ids": null, "endTime": null, "startTime": null}], "pageLimit": 3880, "size": 10}