{"pageCount": 1095, "count": 10942, "pageNo": 387, "subShopInfo": {"cardNumFive": "", "isSupportYj": "", "cityName": null, "districtName": null, "shopinfo": {"mid": null, "good_flag": null, "new_flag": null, "short_name": null, "short_name_pinyin": null, "status": null, "address": "", "name": "", "id": null}, "mid": null, "shopId": null, "netid": null, "province": 901, "district": null, "zipcode": null, "telephone": null, "posDate": null, "destineTel": null, "togoTel": null, "trafficWay": null, "signBuilding": null, "businessArea": null, "selfRoom": null, "businessTime": null, "stall": null, "consume": null, "serviceFei": null, "favourable": null, "shopMemo": "1", "appraise": null, "website": null, "memo": null, "payTypes": "", "shopTypes": "", "consumeTypes": null, "cookTypes": null, "orderNum": null, "card4no": null, "card4noAcc": null, "district2": null, "searchScope": null, "status": null, "address": "", "name": null, "id": null, "pageNo": 386, "pageCount": null, "pageSize": 10, "ids": null, "endTime": null, "startTime": null}, "list": [{"cardNumFive": null, "isSupportYj": null, "cityName": null, "districtName": null, "shopinfo": {"mid": "888888859120206", "good_flag": "2", "new_flag": "1", "short_name": "\u4e5d\u5dde\u901a", "short_name_pinyin": "jiuzhoutong", "status": null, "address": null, "name": null, "id": "32203"}, "mid": "888888859120206", "shopId": "32203", "netid": null, "province": 901, "district": 601, "zipcode": null, "telephone": null, "posDate": "20100118", "destineTel": null, "togoTel": null, "trafficWay": null, "signBuilding": null, "businessArea": null, "selfRoom": null, "businessTime": null, "stall": null, "consume": null, "serviceFei": null, "favourable": null, "shopMemo": null, "appraise": null, "website": null, "memo": null, "payTypes": "\u6749\u5fb7\u5361", "shopTypes": "\u836f\u5e97", "consumeTypes": null, "cookTypes": null, "orderNum": 1000, "card4no": null, "card4noAcc": null, "district2": 412, "searchScope": null, "status": 1, "address": "\u5357\u6865\u9547\u897f\u6e21\u6cbf\u8857\u6cbf\u6d66\u8def551\u53f7", "name": "\u4e5d\u5dde\u901a \u4e2d\u8fde\u5927\u836f\u623f", "id": 137252, "pageNo": 0, "pageCount": null, "pageSize": 10, "ids": null, "endTime": null, "startTime": null}, {"cardNumFive": null, "isSupportYj": null, "cityName": null, "districtName": null, "shopinfo": {"mid": "888002159121227", "good_flag": "2", "new_flag": "1", "short_name": "\u4e5d\u5dde\u901a\u4e5d\u91cc\u4ead\u836f\u5e97", "short_name_pinyin": "jiuzhoutongjiulitingyaodian", "status": null, "address": null, "name": null, "id": "32215"}, "mid": "888002159121227", "shopId": "32215", "netid": null, "province": 901, "district": 601, "zipcode": null, "telephone": null, "posDate": "20100702", "destineTel": null, "togoTel": null, "trafficWay": null, "signBuilding": null, "businessArea": null, "selfRoom": null, "businessTime": null, "stall": null, "consume": null, "serviceFei": null, "favourable": null, "shopMemo": null, "appraise": null, "website": null, "memo": null, "payTypes": "\u6749\u5fb7\u5361", "shopTypes": "\u836f\u5e97", "consumeTypes": null, "cookTypes": null, "orderNum": 1000, "card4no": null, "card4noAcc": null, "district2": 412, "searchScope": null, "status": 1, "address": "\u6caa\u677e\u8def1552\u53f7", "name": "\u4e5d\u5dde\u901a\u4e5d\u91cc\u4ead\u836f\u5e97 \u6caa\u677e\u8def\u5e97", "id": 137254, "pageNo": 0, "pageCount": null, "pageSize": 10, "ids": null, "endTime": null, "startTime": null}, {"cardNumFive": null, "isSupportYj": null, "cityName": null, "districtName": null, "shopinfo": {"mid": "888002159121247", "good_flag": null, "new_flag": null, "short_name": "\u4e5d\u5dde\u901a\u516d\u56e2\u836f\u5e97", "short_name_pinyin": "jiuzhoutongliutuanyaodian", "status": null, "address": null, "name": null, "id": "36347"}, "mid": "888002159121247", "shopId": "36347", "netid": null, "province": 901, "district": 601, "zipcode": null, "telephone": null, "posDate": "20100824", "destineTel": null, "togoTel": null, "trafficWay": null, "signBuilding": null, "businessArea": null, "selfRoom": null, "businessTime": null, "stall": null, "consume": null, "serviceFei": null, "favourable": null, "shopMemo": null, "appraise": null, "website": null, "memo": null, "payTypes": "\u6749\u5fb7\u5361", "shopTypes": "\u836f\u5e97", "consumeTypes": null, "cookTypes": null, "orderNum": 1000, "card4no": null, "card4noAcc": null, "district2": 418, "searchScope": null, "status": 1, "address": "\u516d\u56e2\u9547\u5ddd\u516d\u516c\u8def1330\u53f7", "name": "\u4e5d\u5dde\u901a\u516d\u56e2\u836f\u5e97 \u516b\u7076\u836f\u5e97", "id": 151292, "pageNo": 0, "pageCount": null, "pageSize": 10, "ids": null, "endTime": null, "startTime": null}, {"cardNumFive": null, "isSupportYj": null, "cityName": null, "districtName": null, "shopinfo": {"mid": "888002159121247", "good_flag": null, "new_flag": null, "short_name": "\u4e5d\u5dde\u901a\u516d\u56e2\u836f\u5e97", "short_name_pinyin": "jiuzhoutongliutuanyaodian", "status": null, "address": null, "name": null, "id": "36347"}, "mid": "888002159121247", "shopId": "36347", "netid": null, "province": 901, "district": 601, "zipcode": null, "telephone": null, "posDate": "20100824", "destineTel": null, "togoTel": null, "trafficWay": null, "signBuilding": null, "businessArea": null, "selfRoom": null, "businessTime": null, "stall": null, "consume": null, "serviceFei": null, "favourable": null, "shopMemo": null, "appraise": null, "website": null, "memo": null, "payTypes": "\u6749\u5fb7\u5361", "shopTypes": "\u836f\u5e97", "consumeTypes": null, "cookTypes": null, "orderNum": 1000, "card4no": null, "card4noAcc": null, "district2": 418, "searchScope": null, "status": 1, "address": "\u5357\u6c47\u6d66\u7ea2\u897f\u8def71\u53f7", "name": "\u4e5d\u5dde\u901a\u516d\u56e2\u836f\u5e97 \u6d66\u7ea2\u897f\u8def\u836f\u5e97", "id": 151293, "pageNo": 0, "pageCount": null, "pageSize": 10, "ids": null, "endTime": null, "startTime": null}, {"cardNumFive": null, "isSupportYj": null, "cityName": null, "districtName": null, "shopinfo": {"mid": "888002159121247", "good_flag": null, "new_flag": null, "short_name": "\u4e5d\u5dde\u901a\u516d\u56e2\u836f\u5e97", "short_name_pinyin": "jiuzhoutongliutuanyaodian", "status": null, "address": null, "name": null, "id": "36347"}, "mid": "888002159121247", "shopId": "36347", "netid": null, "province": 901, "district": 601, "zipcode": null, "telephone": null, "posDate": "20100824", "destineTel": null, "togoTel": null, "trafficWay": null, "signBuilding": null, "businessArea": null, "selfRoom": null, "businessTime": null, "stall": null, "consume": null, "serviceFei": null, "favourable": null, "shopMemo": null, "appraise": null, "website": null, "memo": null, "payTypes": "\u6749\u5fb7\u5361", "shopTypes": "\u836f\u5e97", "consumeTypes": null, "cookTypes": null, "orderNum": 1000, "card4no": null, "card4noAcc": null, "district2": 418, "searchScope": null, "status": 1, "address": "\u6d66\u4e1c\u65b0\u533a\u5fb7\u5174\u8857190\u53f71-2\u5c42", "name": "\u4e5d\u5dde\u901a\u516d\u56e2\u836f\u5e97 \u4e5d\u5dde\u901a\u516d\u56e2\u836f\u5e97", "id": 151294, "pageNo": 0, "pageCount": null, "pageSize": 10, "ids": null, "endTime": null, "startTime": null}, {"cardNumFive": null, "isSupportYj": null, "cityName": null, "districtName": null, "shopinfo": {"mid": "888002159121247", "good_flag": null, "new_flag": null, "short_name": "\u4e5d\u5dde\u901a\u516d\u56e2\u836f\u5e97", "short_name_pinyin": "jiuzhoutongliutuanyaodian", "status": null, "address": null, "name": null, "id": "36347"}, "mid": "888002159121247", "shopId": "36347", "netid": null, "province": 901, "district": 601, "zipcode": null, "telephone": null, "posDate": "20100824", "destineTel": null, "togoTel": null, "trafficWay": null, "signBuilding": null, "businessArea": null, "selfRoom": null, "businessTime": null, "stall": null, "consume": null, "serviceFei": null, "favourable": null, "shopMemo": null, "appraise": null, "website": null, "memo": null, "payTypes": "\u6749\u5fb7\u5361", "shopTypes": "\u836f\u5e97", "consumeTypes": null, "cookTypes": null, "orderNum": 1000, "card4no": null, "card4noAcc": null, "district2": 418, "searchScope": null, "status": 1, "address": "\u5b59\u6865\u6a2a\u6c94\u6c5f\u8def216\u53f7", "name": "\u4e5d\u5dde\u901a\u516d\u56e2\u836f\u5e97 \u6caa\u9ea6\u836f\u5e97", "id": 151295, "pageNo": 0, "pageCount": null, "pageSize": 10, "ids": null, "endTime": null, "startTime": null}, {"cardNumFive": null, "isSupportYj": null, "cityName": null, "districtName": null, "shopinfo": {"mid": "888002159121245", "good_flag": null, "new_flag": null, "short_name": "\u4e5d\u5dde\u901a\u5510\u9547\u836f\u5e97", "short_name_pinyin": "jiuzhoutongtangzhenyaodian", "status": null, "address": null, "name": null, "id": "36348"}, "mid": "888002159121245", "shopId": "36348", "netid": null, "province": 901, "district": 601, "zipcode": null, "telephone": null, "posDate": "20100824", "destineTel": null, "togoTel": null, "trafficWay": null, "signBuilding": null, "businessArea": null, "selfRoom": null, "businessTime": null, "stall": null, "consume": null, "serviceFei": null, "favourable": null, "shopMemo": null, "appraise": null, "website": null, "memo": null, "payTypes": "\u6749\u5fb7\u5361", "shopTypes": "\u836f\u5e97", "consumeTypes": null, "cookTypes": null, "orderNum": 1000, "card4no": null, "card4noAcc": null, "district2": 418, "searchScope": null, "status": 1, "address": "\u516d\u56e2\u9547\u666e\u65b0\u8def729\u53f7", "name": "\u4e5d\u5dde\u901a\u5510\u9547\u836f\u5e97 \u666e\u65b0\u836f\u5e97", "id": 151296, "pageNo": 0, "pageCount": null, "pageSize": 10, "ids": null, "endTime": null, "startTime": null}, {"cardNumFive": null, "isSupportYj": null, "cityName": null, "districtName": null, "shopinfo": {"mid": "888002159121245", "good_flag": null, "new_flag": null, "short_name": "\u4e5d\u5dde\u901a\u5510\u9547\u836f\u5e97", "short_name_pinyin": "jiuzhoutongtangzhenyaodian", "status": null, "address": null, "name": null, "id": "36348"}, "mid": "888002159121245", "shopId": "36348", "netid": null, "province": 901, "district": 601, "zipcode": null, "telephone": null, "posDate": "20100823", "destineTel": null, "togoTel": null, "trafficWay": null, "signBuilding": null, "businessArea": null, "selfRoom": null, "businessTime": null, "stall": null, "consume": null, "serviceFei": null, "favourable": null, "shopMemo": null, "appraise": null, "website": null, "memo": null, "payTypes": "\u6749\u5fb7\u5361", "shopTypes": "\u836f\u5e97", "consumeTypes": null, "cookTypes": null, "orderNum": 1000, "card4no": null, "card4noAcc": null, "district2": 418, "searchScope": null, "status": 1, "address": "\u5510\u9547\u8def296\u53f7", "name": "\u4e5d\u5dde\u901a\u5510\u9547\u836f\u5e97 \u5510\u9547\u836f\u5e97", "id": 151297, "pageNo": 0, "pageCount": null, "pageSize": 10, "ids": null, "endTime": null, "startTime": null}, {"cardNumFive": null, "isSupportYj": null, "cityName": null, "districtName": null, "shopinfo": {"mid": "888888858120684", "good_flag": null, "new_flag": null, "short_name": "\u5409\u91ce\u5bb6", "short_name_pinyin": "jiyejia", "status": null, "address": null, "name": null, "id": "31954"}, "mid": "888888858120684", "shopId": "31954", "netid": null, "province": 901, "district": 601, "zipcode": null, "telephone": "50328018", "posDate": null, "destineTel": null, "togoTel": null, "trafficWay": "\u5730\u94c12\u53f7\u7ebf", "signBuilding": null, "businessArea": null, "selfRoom": null, "businessTime": null, "stall": null, "consume": null, "serviceFei": null, "favourable": null, "shopMemo": null, "appraise": null, "website": null, "memo": null, "payTypes": "\u6749\u5fb7\u5361", "shopTypes": "\u9910\u996e", "consumeTypes": null, "cookTypes": null, "orderNum": 1000, "card4no": null, "card4noAcc": null, "district2": 418, "searchScope": null, "status": 1, "address": "\u9646\u5bb6\u5634\u897f\u8def168\u53f78\u697c", "name": "\u5409\u91ce\u5bb6 \u9646\u5bb6\u5634\u897f\u8def\u5e97", "id": 135756, "pageNo": 0, "pageCount": null, "pageSize": 10, "ids": null, "endTime": null, "startTime": null}, {"cardNumFive": null, "isSupportYj": null, "cityName": null, "districtName": null, "shopinfo": {"mid": "888888858120684", "good_flag": null, "new_flag": null, "short_name": "\u5409\u91ce\u5bb6", "short_name_pinyin": "jiyejia", "status": null, "address": null, "name": null, "id": "31954"}, "mid": "888888858120684", "shopId": "31954", "netid": null, "province": 901, "district": 601, "zipcode": null, "telephone": "18821135613", "posDate": null, "destineTel": null, "togoTel": null, "trafficWay": "\u5730\u94c1\u4e00\u53f7\u7ebf", "signBuilding": null, "businessArea": null, "selfRoom": null, "businessTime": null, "stall": null, "consume": null, "serviceFei": null, "favourable": null, "shopMemo": null, "appraise": null, "website": null, "memo": null, "payTypes": "\u6749\u5fb7\u5361", "shopTypes": "\u9910\u996e", "consumeTypes": null, "cookTypes": null, "orderNum": 1000, "card4no": null, "card4noAcc": null, "district2": 409, "searchScope": null, "status": 1, "address": "\u5730\u94c1\u4e00\u53f7\u7ebf\u4e0a\u6d77\u5357\u7ad9\u7ad9\u5385C104\u5546\u94fa", "name": "\u5409\u91ce\u5bb6 \u5357\u7ad9\u7ad9\u5385\u5e97", "id": 135758, "pageNo": 0, "pageCount": null, "pageSize": 10, "ids": null, "endTime": null, "startTime": null}], "pageLimit": 3860, "size": 10}