{"pageCount": 1095, "count": 10942, "pageNo": 385, "subShopInfo": {"cardNumFive": "", "isSupportYj": "", "cityName": null, "districtName": null, "shopinfo": {"mid": null, "good_flag": null, "new_flag": null, "short_name": null, "short_name_pinyin": null, "status": null, "address": "", "name": "", "id": null}, "mid": null, "shopId": null, "netid": null, "province": 901, "district": null, "zipcode": null, "telephone": null, "posDate": null, "destineTel": null, "togoTel": null, "trafficWay": null, "signBuilding": null, "businessArea": null, "selfRoom": null, "businessTime": null, "stall": null, "consume": null, "serviceFei": null, "favourable": null, "shopMemo": "1", "appraise": null, "website": null, "memo": null, "payTypes": "", "shopTypes": "", "consumeTypes": null, "cookTypes": null, "orderNum": null, "card4no": null, "card4noAcc": null, "district2": null, "searchScope": null, "status": null, "address": "", "name": null, "id": null, "pageNo": 384, "pageCount": null, "pageSize": 10, "ids": null, "endTime": null, "startTime": null}, "list": [{"cardNumFive": null, "isSupportYj": null, "cityName": null, "districtName": null, "shopinfo": {"mid": "888888852110023", "good_flag": "2", "new_flag": "2", "short_name": "\u4e5d\u661f\u7535\u5b50", "short_name_pinyin": "jiuxingdianzi", "status": null, "address": null, "name": null, "id": "32199"}, "mid": "888888852110023", "shopId": "32199", "netid": null, "province": 901, "district": 601, "zipcode": null, "telephone": "54793443", "posDate": "200909", "destineTel": null, "togoTel": null, "trafficWay": "\u516c\u4ea492\u3001\u4e0a\u4f58\u7ebf\u3001953\u3001735", "signBuilding": null, "businessArea": null, "selfRoom": null, "businessTime": "7:30~22:00", "stall": null, "consume": null, "serviceFei": null, "favourable": null, "shopMemo": null, "appraise": null, "website": null, "memo": null, "payTypes": "\u6749\u5fb7\u5361", "shopTypes": "\u4e13\u5356", "consumeTypes": null, "cookTypes": null, "orderNum": 1000, "card4no": null, "card4noAcc": null, "district2": 409, "searchScope": null, "status": 1, "address": "\u661f\u5b9d\u88576\u53f7\u623f5\u53f7", "name": "\u4e5d\u661f\u7535\u5b50 \u4ebf\u4f1f\u5bb6\u5177\u7ecf\u8425\u90e8_\u661f\u5b9d\u8857\u5e97", "id": 137211, "pageNo": 0, "pageCount": null, "pageSize": 10, "ids": null, "endTime": null, "startTime": null}, {"cardNumFive": null, "isSupportYj": null, "cityName": null, "districtName": null, "shopinfo": {"mid": "888888852110023", "good_flag": "2", "new_flag": "2", "short_name": "\u4e5d\u661f\u7535\u5b50", "short_name_pinyin": "jiuxingdianzi", "status": null, "address": null, "name": null, "id": "32199"}, "mid": "888888852110023", "shopId": "32199", "netid": null, "province": 901, "district": 601, "zipcode": null, "telephone": "13761692126", "posDate": "200909", "destineTel": null, "togoTel": null, "trafficWay": "\u516c\u4ea492\u3001\u4e0a\u4f58\u7ebf\u3001953\u3001735", "signBuilding": null, "businessArea": null, "selfRoom": null, "businessTime": "8:00~22:00", "stall": null, "consume": null, "serviceFei": null, "favourable": null, "shopMemo": null, "appraise": null, "website": null, "memo": null, "payTypes": "\u6749\u5fb7\u5361", "shopTypes": "\u4e13\u5356", "consumeTypes": null, "cookTypes": null, "orderNum": 1000, "card4no": null, "card4noAcc": null, "district2": 409, "searchScope": null, "status": 1, "address": "\u505c\u8f66\u573a\u885732\u5e62106-107\u53f7", "name": "\u4e5d\u661f\u7535\u5b50 \u4e91\u4f1f\u4e94\u91d1\u7ecf\u8425\u90e8_\u505c\u8f66\u573a\u8def\u5e97", "id": 137219, "pageNo": 0, "pageCount": null, "pageSize": 10, "ids": null, "endTime": null, "startTime": null}, {"cardNumFive": null, "isSupportYj": null, "cityName": null, "districtName": null, "shopinfo": {"mid": "888888852110023", "good_flag": "2", "new_flag": "2", "short_name": "\u4e5d\u661f\u7535\u5b50", "short_name_pinyin": "jiuxingdianzi", "status": null, "address": null, "name": null, "id": "32199"}, "mid": "888888852110023", "shopId": "32199", "netid": null, "province": 901, "district": 601, "zipcode": null, "telephone": "15221762881", "posDate": "200909", "destineTel": null, "togoTel": null, "trafficWay": "\u516c\u4ea492\u3001\u4e0a\u4f58\u7ebf\u3001953\u3001735", "signBuilding": null, "businessArea": null, "selfRoom": null, "businessTime": "8:00~22:00", "stall": null, "consume": null, "serviceFei": null, "favourable": null, "shopMemo": null, "appraise": null, "website": null, "memo": null, "payTypes": "\u6749\u5fb7\u5361", "shopTypes": "\u4e13\u5356", "consumeTypes": null, "cookTypes": null, "orderNum": 1000, "card4no": null, "card4noAcc": null, "district2": 409, "searchScope": null, "status": 1, "address": "\u505c\u8f66\u573a\u885736\u5e627-8\u53f7", "name": "\u4e5d\u661f\u7535\u5b50 \u6d59\u6c5f\u65b0\u4e1c\u65b9\u7d27\u4ef6\u6709\u9650\u516c\u53f8\u4e0a\u6d77\u5206\u516c\u53f8_\u505c\u8f66\u573a\u8def\u5e97", "id": 137222, "pageNo": 0, "pageCount": null, "pageSize": 10, "ids": null, "endTime": null, "startTime": null}, {"cardNumFive": null, "isSupportYj": null, "cityName": null, "districtName": null, "shopinfo": {"mid": "888888852110023", "good_flag": "2", "new_flag": "2", "short_name": "\u4e5d\u661f\u7535\u5b50", "short_name_pinyin": "jiuxingdianzi", "status": null, "address": null, "name": null, "id": "32199"}, "mid": "888888852110023", "shopId": "32199", "netid": null, "province": 901, "district": 601, "zipcode": null, "telephone": "13122708058", "posDate": "200909", "destineTel": null, "togoTel": null, "trafficWay": "\u516c\u4ea492\u3001\u4e0a\u4f58\u7ebf\u3001953\u3001735", "signBuilding": null, "businessArea": null, "selfRoom": null, "businessTime": "8:30~21:30", "stall": null, "consume": null, "serviceFei": null, "favourable": null, "shopMemo": null, "appraise": null, "website": null, "memo": null, "payTypes": "\u6749\u5fb7\u5361", "shopTypes": "\u4e13\u5356", "consumeTypes": null, "cookTypes": null, "orderNum": 1000, "card4no": null, "card4noAcc": null, "district2": 409, "searchScope": null, "status": 1, "address": "\u5bb6\u5177\u5317\u901a3\u5e628\u30019\u53f7", "name": "\u4e5d\u661f\u7535\u5b50 \u4ef2\u73ae\u8d38\u6613\u6709\u9650\u516c\u53f8_\u4e5d\u661f\u5e97", "id": 137223, "pageNo": 0, "pageCount": null, "pageSize": 10, "ids": null, "endTime": null, "startTime": null}, {"cardNumFive": null, "isSupportYj": null, "cityName": null, "districtName": null, "shopinfo": {"mid": "888002159121155", "good_flag": "2", "new_flag": "1", "short_name": "\u4e5d\u5dde\u901a", "short_name_pinyin": "jiuzhoutong", "status": null, "address": null, "name": null, "id": "32200"}, "mid": "888002159121155", "shopId": "32200", "netid": null, "province": 901, "district": 601, "zipcode": null, "telephone": null, "posDate": "20100118", "destineTel": null, "togoTel": null, "trafficWay": null, "signBuilding": null, "businessArea": null, "selfRoom": null, "businessTime": null, "stall": null, "consume": null, "serviceFei": null, "favourable": null, "shopMemo": null, "appraise": null, "website": null, "memo": null, "payTypes": "\u6749\u5fb7\u5361", "shopTypes": "\u836f\u5e97", "consumeTypes": null, "cookTypes": null, "orderNum": 1000, "card4no": null, "card4noAcc": null, "district2": 411, "searchScope": null, "status": 1, "address": "\u5609\u5b9a\u533a\u9a6c\u9646\u9547\u5b9d\u5b89\u516c\u8def3705\u5f04189\u53f7103\u3001104\u5ba4", "name": "\u4e5d\u5dde\u901a \u5b9d\u5b89\u8def\u5e97", "id": 137224, "pageNo": 0, "pageCount": null, "pageSize": 10, "ids": null, "endTime": null, "startTime": null}, {"cardNumFive": null, "isSupportYj": null, "cityName": null, "districtName": null, "shopinfo": {"mid": "888888859120208", "good_flag": "2", "new_flag": "1", "short_name": "\u4e5d\u5dde\u901a", "short_name_pinyin": "jiuzhoutong", "status": null, "address": null, "name": null, "id": "32202"}, "mid": "888888859120208", "shopId": "32202", "netid": null, "province": 901, "district": 601, "zipcode": null, "telephone": null, "posDate": "20100118", "destineTel": null, "togoTel": null, "trafficWay": null, "signBuilding": null, "businessArea": null, "selfRoom": null, "businessTime": null, "stall": null, "consume": null, "serviceFei": null, "favourable": null, "shopMemo": null, "appraise": null, "website": null, "memo": null, "payTypes": "\u6749\u5fb7\u5361", "shopTypes": "\u836f\u5e97", "consumeTypes": null, "cookTypes": null, "orderNum": 1000, "card4no": null, "card4noAcc": null, "district2": 409, "searchScope": null, "status": 1, "address": "\u4e0a\u6d77\u5e02\u95f5\u884c\u533a\u78a7\u6c5f\u8def327\u53f7", "name": "\u4e5d\u5dde\u901a \u78a7\u4e91\u836f\u5e97", "id": 137226, "pageNo": 0, "pageCount": null, "pageSize": 10, "ids": null, "endTime": null, "startTime": null}, {"cardNumFive": null, "isSupportYj": null, "cityName": null, "districtName": null, "shopinfo": {"mid": "888002159121155", "good_flag": "2", "new_flag": "1", "short_name": "\u4e5d\u5dde\u901a", "short_name_pinyin": "jiuzhoutong", "status": null, "address": null, "name": null, "id": "32200"}, "mid": "888002159121155", "shopId": "32200", "netid": null, "province": 901, "district": 601, "zipcode": null, "telephone": null, "posDate": "20100118", "destineTel": null, "togoTel": null, "trafficWay": null, "signBuilding": null, "businessArea": null, "selfRoom": null, "businessTime": null, "stall": null, "consume": null, "serviceFei": null, "favourable": null, "shopMemo": null, "appraise": null, "website": null, "memo": null, "payTypes": "\u6749\u5fb7\u5361", "shopTypes": "\u836f\u5e97", "consumeTypes": null, "cookTypes": null, "orderNum": 1000, "card4no": null, "card4noAcc": null, "district2": 411, "searchScope": null, "status": 1, "address": "\u4e0a\u6d77\u5e02\u5609\u5b9a\u533a\u9a6c\u9646\u9547\u6caa\u5b9c\u516c\u8def2520\u53f7C-20", "name": "\u4e5d\u5dde\u901a \u6caa\u5b9c\u8def\u5e97", "id": 137231, "pageNo": 0, "pageCount": null, "pageSize": 10, "ids": null, "endTime": null, "startTime": null}, {"cardNumFive": null, "isSupportYj": null, "cityName": null, "districtName": null, "shopinfo": {"mid": "888002159121155", "good_flag": "2", "new_flag": "1", "short_name": "\u4e5d\u5dde\u901a", "short_name_pinyin": "jiuzhoutong", "status": null, "address": null, "name": null, "id": "32200"}, "mid": "888002159121155", "shopId": "32200", "netid": null, "province": 901, "district": 601, "zipcode": null, "telephone": null, "posDate": "20100118", "destineTel": null, "togoTel": null, "trafficWay": null, "signBuilding": null, "businessArea": null, "selfRoom": null, "businessTime": null, "stall": null, "consume": null, "serviceFei": null, "favourable": null, "shopMemo": null, "appraise": null, "website": null, "memo": null, "payTypes": "\u6749\u5fb7\u5361", "shopTypes": "\u836f\u5e97", "consumeTypes": null, "cookTypes": null, "orderNum": 1000, "card4no": null, "card4noAcc": null, "district2": 405, "searchScope": null, "status": 1, "address": "\u4e0a\u6d77\u5e02\u666e\u9640\u533a\u4ea4\u66a8\u8def5\u53f7\u5e95\u5c42", "name": "\u4e5d\u5dde\u901a \u4ea4\u66a8\u8def\u5e97", "id": 137232, "pageNo": 0, "pageCount": null, "pageSize": 10, "ids": null, "endTime": null, "startTime": null}, {"cardNumFive": null, "isSupportYj": null, "cityName": null, "districtName": null, "shopinfo": {"mid": "888888859120202", "good_flag": "1", "new_flag": "1", "short_name": "\u4e5d\u5dde\u901a", "short_name_pinyin": "jiuzhoutong", "status": null, "address": null, "name": null, "id": "32204"}, "mid": "888888859120202", "shopId": "32204", "netid": null, "province": 901, "district": 601, "zipcode": null, "telephone": null, "posDate": "200911", "destineTel": null, "togoTel": null, "trafficWay": null, "signBuilding": null, "businessArea": null, "selfRoom": null, "businessTime": null, "stall": null, "consume": null, "serviceFei": null, "favourable": null, "shopMemo": null, "appraise": null, "website": null, "memo": null, "payTypes": "\u6749\u5fb7\u5361", "shopTypes": "\u836f\u5e97", "consumeTypes": null, "cookTypes": null, "orderNum": 1000, "card4no": null, "card4noAcc": null, "district2": 414, "searchScope": null, "status": 1, "address": "\u536b\u6e05\u897f\u8def1245\u30011247\u53f7", "name": "\u4e5d\u5dde\u901a \u91d1\u7532\u836f\u5e97", "id": 137233, "pageNo": 0, "pageCount": null, "pageSize": 10, "ids": null, "endTime": null, "startTime": null}, {"cardNumFive": null, "isSupportYj": null, "cityName": null, "districtName": null, "shopinfo": {"mid": "888002159121194", "good_flag": "1", "new_flag": "1", "short_name": "\u4e5d\u5dde\u901a", "short_name_pinyin": "jiuzhoutong", "status": null, "address": null, "name": null, "id": "32205"}, "mid": "888002159121194", "shopId": "32205", "netid": null, "province": 901, "district": 601, "zipcode": null, "telephone": null, "posDate": "20091214", "destineTel": null, "togoTel": null, "trafficWay": null, "signBuilding": null, "businessArea": null, "selfRoom": null, "businessTime": null, "stall": null, "consume": null, "serviceFei": null, "favourable": null, "shopMemo": null, "appraise": null, "website": null, "memo": null, "payTypes": "\u6749\u5fb7\u5361", "shopTypes": "\u836f\u5e97", "consumeTypes": null, "cookTypes": null, "orderNum": 1000, "card4no": null, "card4noAcc": null, "district2": 414, "searchScope": null, "status": 1, "address": "\u91d1\u5c71\u536b\u9547\u8001\u536b\u6e05\u8def352-354\u53f7", "name": "\u4e5d\u5dde\u901a \u91d1\u7532\u836f\u5e97\u536b\u6e05\u8def\u5e97", "id": 137234, "pageNo": 0, "pageCount": null, "pageSize": 10, "ids": null, "endTime": null, "startTime": null}], "pageLimit": 3840, "size": 10}