{"pageCount": 1095, "count": 10942, "pageNo": 382, "subShopInfo": {"cardNumFive": "", "isSupportYj": "", "cityName": null, "districtName": null, "shopinfo": {"mid": null, "good_flag": null, "new_flag": null, "short_name": null, "short_name_pinyin": null, "status": null, "address": "", "name": "", "id": null}, "mid": null, "shopId": null, "netid": null, "province": 901, "district": null, "zipcode": null, "telephone": null, "posDate": null, "destineTel": null, "togoTel": null, "trafficWay": null, "signBuilding": null, "businessArea": null, "selfRoom": null, "businessTime": null, "stall": null, "consume": null, "serviceFei": null, "favourable": null, "shopMemo": "1", "appraise": null, "website": null, "memo": null, "payTypes": "", "shopTypes": "", "consumeTypes": null, "cookTypes": null, "orderNum": null, "card4no": null, "card4noAcc": null, "district2": null, "searchScope": null, "status": null, "address": "", "name": null, "id": null, "pageNo": 381, "pageCount": null, "pageSize": 10, "ids": null, "endTime": null, "startTime": null}, "list": [{"cardNumFive": null, "isSupportYj": null, "cityName": null, "districtName": null, "shopinfo": {"mid": "888888854410146", "good_flag": "2", "new_flag": "2", "short_name": "\u4e5d\u767e\u4e16\u7eaa\u98df\u54c1", "short_name_pinyin": "jiubaishijishipin", "status": null, "address": null, "name": null, "id": "32193"}, "mid": "888888854410146", "shopId": "32193", "netid": null, "province": 901, "district": 601, "zipcode": null, "telephone": null, "posDate": "20090330", "destineTel": null, "togoTel": null, "trafficWay": null, "signBuilding": null, "businessArea": null, "selfRoom": null, "businessTime": null, "stall": null, "consume": null, "serviceFei": null, "favourable": null, "shopMemo": null, "appraise": null, "website": null, "memo": null, "payTypes": "\u6749\u5fb7\u5361", "shopTypes": "\u767e\u8d27", "consumeTypes": null, "cookTypes": null, "orderNum": 1000, "card4no": null, "card4noAcc": null, "district2": 404, "searchScope": null, "status": 1, "address": "\u4e07\u822a\u6e21\u8def50\u53f7", "name": "\u4e5d\u767e\u4e16\u7eaa\u98df\u54c1 \u4e07\u822a\u6e21\u8def\u5e97", "id": 137028, "pageNo": 0, "pageCount": null, "pageSize": 10, "ids": null, "endTime": null, "startTime": null}, {"cardNumFive": null, "isSupportYj": null, "cityName": null, "districtName": null, "shopinfo": {"mid": "888002153310656", "good_flag": "2", "new_flag": "2", "short_name": "\u4e45\u5149\u9c9c\u54c1\u9986", "short_name_pinyin": "jiuguangxianpinguan", "status": null, "address": null, "name": null, "id": "41231"}, "mid": "888002153310656", "shopId": "41231", "netid": null, "province": 901, "district": 601, "zipcode": null, "telephone": null, "posDate": null, "destineTel": null, "togoTel": null, "trafficWay": null, "signBuilding": null, "businessArea": null, "selfRoom": null, "businessTime": null, "stall": null, "consume": null, "serviceFei": null, "favourable": null, "shopMemo": null, "appraise": null, "website": null, "memo": null, "payTypes": "\u6749\u5fb7\u5361", "shopTypes": "\u8d85\u5e02", "consumeTypes": null, "cookTypes": null, "orderNum": 1000, "card4no": null, "card4noAcc": null, "district2": 406, "searchScope": null, "status": 1, "address": "\u4ed9\u971e\u8def99\u53f7\u5730\u4e0b2\u697c", "name": "\u4e45\u5149\u9c9c\u54c1\u9986 \u8679\u6865\u5e97", "id": 180641, "pageNo": 0, "pageCount": null, "pageSize": 10, "ids": null, "endTime": null, "startTime": null}, {"cardNumFive": null, "isSupportYj": null, "cityName": null, "districtName": null, "shopinfo": {"mid": "888002156910586", "good_flag": "2", "new_flag": "2", "short_name": "\u4e5d\u7267\u738b", "short_name_pinyin": "jiumuwang", "status": null, "address": null, "name": null, "id": "565224395916705792"}, "mid": "888002156910586", "shopId": "565224395916705792", "netid": null, "province": 901, "district": 601, "zipcode": null, "telephone": null, "posDate": null, "destineTel": null, "togoTel": null, "trafficWay": null, "signBuilding": null, "businessArea": null, "selfRoom": null, "businessTime": null, "stall": null, "consume": null, "serviceFei": null, "favourable": null, "shopMemo": null, "appraise": null, "website": null, "memo": null, "payTypes": "\u6749\u5fb7\u5361,", "shopTypes": null, "consumeTypes": null, "cookTypes": null, "orderNum": null, "card4no": null, "card4noAcc": null, "district2": 412, "searchScope": null, "status": 1, "address": "\u4e2d\u5c71\u4e2d\u8def385\u5f041-5\u53f7\u5230\u5e95\u5c42", "name": "\u4e5d\u7267\u738b\u7537\u88c5", "id": 565224393974743040, "pageNo": 0, "pageCount": null, "pageSize": 10, "ids": null, "endTime": null, "startTime": null}, {"cardNumFive": null, "isSupportYj": null, "cityName": null, "districtName": null, "shopinfo": {"mid": "888888852110023", "good_flag": "2", "new_flag": "2", "short_name": "\u4e5d\u661f\u7535\u5b50", "short_name_pinyin": "jiuxingdianzi", "status": null, "address": null, "name": null, "id": "32199"}, "mid": "888888852110023", "shopId": "32199", "netid": null, "province": 901, "district": 601, "zipcode": null, "telephone": null, "posDate": null, "destineTel": null, "togoTel": null, "trafficWay": "92\u3001953\u3001\u4e0a\u4f58\u7ebf", "signBuilding": null, "businessArea": null, "selfRoom": null, "businessTime": "8:00~21:00", "stall": null, "consume": null, "serviceFei": null, "favourable": null, "shopMemo": null, "appraise": null, "website": null, "memo": null, "payTypes": "\u6749\u5fb7\u5361", "shopTypes": "\u4e13\u5356", "consumeTypes": null, "cookTypes": null, "orderNum": 1000, "card4no": null, "card4noAcc": null, "district2": 409, "searchScope": null, "status": 1, "address": "\u9676\u74f7\u4e09\u671f1\u5e626\u53f7", "name": "\u4e5d\u661f\u7535\u5b50 \u707f\u76db\u9676\u74f7\u7ecf\u8425\u90e8_\u4e5d\u661f\u5e97", "id": 137048, "pageNo": 0, "pageCount": null, "pageSize": 10, "ids": null, "endTime": null, "startTime": null}, {"cardNumFive": null, "isSupportYj": null, "cityName": null, "districtName": null, "shopinfo": {"mid": "888888852110023", "good_flag": "2", "new_flag": "2", "short_name": "\u4e5d\u661f\u7535\u5b50", "short_name_pinyin": "jiuxingdianzi", "status": null, "address": null, "name": null, "id": "32199"}, "mid": "888888852110023", "shopId": "32199", "netid": null, "province": 901, "district": 601, "zipcode": null, "telephone": "64597239", "posDate": "200909", "destineTel": null, "togoTel": null, "trafficWay": "\u516c\u4ea492\u3001\u4e0a\u4f58\u7ebf\u3001953\u3001735", "signBuilding": null, "businessArea": null, "selfRoom": null, "businessTime": "7:30~22:00", "stall": null, "consume": null, "serviceFei": null, "favourable": null, "shopMemo": null, "appraise": null, "website": null, "memo": null, "payTypes": "\u6749\u5fb7\u5361", "shopTypes": "\u4e13\u5356", "consumeTypes": null, "cookTypes": null, "orderNum": 1000, "card4no": null, "card4noAcc": null, "district2": 409, "searchScope": null, "status": 1, "address": "\u661f\u5317\u88578\u53f7\u623f4-6\u53f7", "name": "\u4e5d\u661f\u7535\u5b50 \u4e1c\u82ac\u91d1\u5c5e\u6750\u6599\u6709\u9650\u516c\u53f8_\u661f\u5317\u8857\u5e97", "id": 137055, "pageNo": 0, "pageCount": null, "pageSize": 10, "ids": null, "endTime": null, "startTime": null}, {"cardNumFive": null, "isSupportYj": null, "cityName": null, "districtName": null, "shopinfo": {"mid": "888888852110023", "good_flag": "2", "new_flag": "2", "short_name": "\u4e5d\u661f\u7535\u5b50", "short_name_pinyin": "jiuxingdianzi", "status": null, "address": null, "name": null, "id": "32199"}, "mid": "888888852110023", "shopId": "32199", "netid": null, "province": 901, "district": 601, "zipcode": null, "telephone": null, "posDate": null, "destineTel": null, "togoTel": null, "trafficWay": "92\u3001953\u3001\u4e0a\u4f58\u7ebf", "signBuilding": null, "businessArea": null, "selfRoom": null, "businessTime": "8:30~21:30", "stall": null, "consume": null, "serviceFei": null, "favourable": null, "shopMemo": null, "appraise": null, "website": null, "memo": null, "payTypes": "\u6749\u5fb7\u5361", "shopTypes": "\u4e13\u5356", "consumeTypes": null, "cookTypes": null, "orderNum": 1000, "card4no": null, "card4noAcc": null, "district2": 409, "searchScope": null, "status": 1, "address": "\u9676\u74f7\u4e09\u671f8\u5e621\u53f7", "name": "\u4e5d\u661f\u7535\u5b50 \u7ff0\u7136\u5efa\u6750\u6709\u9650\u516c\u53f8_\u4e5d\u661f\u5e97", "id": 137067, "pageNo": 0, "pageCount": null, "pageSize": 10, "ids": null, "endTime": null, "startTime": null}, {"cardNumFive": null, "isSupportYj": null, "cityName": null, "districtName": null, "shopinfo": {"mid": "888888852110023", "good_flag": "2", "new_flag": "2", "short_name": "\u4e5d\u661f\u7535\u5b50", "short_name_pinyin": "jiuxingdianzi", "status": null, "address": null, "name": null, "id": "32199"}, "mid": "888888852110023", "shopId": "32199", "netid": null, "province": 901, "district": 601, "zipcode": null, "telephone": "54851072", "posDate": "200909", "destineTel": null, "togoTel": null, "trafficWay": "\u516c\u4ea492\u3001\u4e0a\u4f58\u7ebf\u3001953\u3001735", "signBuilding": null, "businessArea": null, "selfRoom": null, "businessTime": "09:00~21:00", "stall": null, "consume": null, "serviceFei": null, "favourable": null, "shopMemo": null, "appraise": null, "website": null, "memo": null, "payTypes": "\u6749\u5fb7\u5361", "shopTypes": "\u4e13\u5356", "consumeTypes": null, "cookTypes": null, "orderNum": 1000, "card4no": null, "card4noAcc": null, "district2": 409, "searchScope": null, "status": 1, "address": "\u661f\u53cb\u8def1\u53f7\u623f8.9\u53f7", "name": "\u4e5d\u661f\u7535\u5b50 \u6d2a\u6625\u5b9e\u4e1a\u6709\u9650\u516c\u53f8\u5206\u516c\u53f8_\u661f\u53cb\u8def\u5e97", "id": 137081, "pageNo": 0, "pageCount": null, "pageSize": 10, "ids": null, "endTime": null, "startTime": null}, {"cardNumFive": null, "isSupportYj": null, "cityName": null, "districtName": null, "shopinfo": {"mid": "888888852110023", "good_flag": "2", "new_flag": "2", "short_name": "\u4e5d\u661f\u7535\u5b50", "short_name_pinyin": "jiuxingdianzi", "status": null, "address": null, "name": null, "id": "32199"}, "mid": "888888852110023", "shopId": "32199", "netid": null, "province": 901, "district": 601, "zipcode": null, "telephone": "64194166", "posDate": "200909", "destineTel": null, "togoTel": null, "trafficWay": "\u516c\u4ea492\u3001\u4e0a\u4f58\u7ebf\u3001953\u3001735", "signBuilding": null, "businessArea": null, "selfRoom": null, "businessTime": "8:30~21:30", "stall": null, "consume": null, "serviceFei": null, "favourable": null, "shopMemo": null, "appraise": null, "website": null, "memo": null, "payTypes": "\u6749\u5fb7\u5361", "shopTypes": "\u4e13\u5356", "consumeTypes": null, "cookTypes": null, "orderNum": 1000, "card4no": null, "card4noAcc": null, "district2": 409, "searchScope": null, "status": 1, "address": "\u4e09\u533a14\u5e6212\u53f7", "name": "\u4e5d\u661f\u7535\u5b50 \u534e\u4f26\u9cc4\u4e94\u91d1\u7ecf\u8425\u90e8_\u4e5d\u661f\u5e97", "id": 137085, "pageNo": 0, "pageCount": null, "pageSize": 10, "ids": null, "endTime": null, "startTime": null}, {"cardNumFive": null, "isSupportYj": null, "cityName": null, "districtName": null, "shopinfo": {"mid": "888888852110023", "good_flag": "2", "new_flag": "2", "short_name": "\u4e5d\u661f\u7535\u5b50", "short_name_pinyin": "jiuxingdianzi", "status": null, "address": null, "name": null, "id": "32199"}, "mid": "888888852110023", "shopId": "32199", "netid": null, "province": 901, "district": 601, "zipcode": null, "telephone": null, "posDate": null, "destineTel": null, "togoTel": null, "trafficWay": "92\u3001953\u3001\u4e0a\u4f58\u7ebf", "signBuilding": null, "businessArea": null, "selfRoom": null, "businessTime": "8:00~22:00", "stall": null, "consume": null, "serviceFei": null, "favourable": null, "shopMemo": null, "appraise": null, "website": null, "memo": null, "payTypes": "\u6749\u5fb7\u5361", "shopTypes": "\u4e13\u5356", "consumeTypes": null, "cookTypes": null, "orderNum": 1000, "card4no": null, "card4noAcc": null, "district2": 409, "searchScope": null, "status": 1, "address": "\u9676\u74f7\u5e02\u573a\u661f\u4e2d\u8def\u4e09\u671f\u4e09\u5e622-1\u30012\u30016\u30018\u300110\u300112\u300116\u53f7", "name": "\u4e5d\u661f\u7535\u5b50 \u6770\u5144\u5b9e\u4e1a\u6709\u9650\u516c\u53f8_\u661f\u4e2d\u8def\u5e97", "id": 137094, "pageNo": 0, "pageCount": null, "pageSize": 10, "ids": null, "endTime": null, "startTime": null}, {"cardNumFive": null, "isSupportYj": null, "cityName": null, "districtName": null, "shopinfo": {"mid": "888888852110023", "good_flag": "2", "new_flag": "2", "short_name": "\u4e5d\u661f\u7535\u5b50", "short_name_pinyin": "jiuxingdianzi", "status": null, "address": null, "name": null, "id": "32199"}, "mid": "888888852110023", "shopId": "32199", "netid": null, "province": 901, "district": 601, "zipcode": null, "telephone": null, "posDate": null, "destineTel": null, "togoTel": null, "trafficWay": "92\u3001953\u3001\u4e0a\u4f58\u7ebf", "signBuilding": null, "businessArea": null, "selfRoom": null, "businessTime": "09:00~21:00", "stall": null, "consume": null, "serviceFei": null, "favourable": null, "shopMemo": null, "appraise": null, "website": null, "memo": null, "payTypes": "\u6749\u5fb7\u5361", "shopTypes": "\u4e13\u5356", "consumeTypes": null, "cookTypes": null, "orderNum": 1000, "card4no": null, "card4noAcc": null, "district2": 409, "searchScope": null, "status": 1, "address": "\u661f\u4e1c\u8def26\u5e621\u53f7", "name": "\u4e5d\u661f\u7535\u5b50 \u4e3d\u51b2\u706f\u5177\u7ecf\u8425\u90e8_\u661f\u4e1c\u8def\u5e97", "id": 137112, "pageNo": 0, "pageCount": null, "pageSize": 10, "ids": null, "endTime": null, "startTime": null}], "pageLimit": 3810, "size": 10}