{"pageCount": 1095, "count": 10942, "pageNo": 380, "subShopInfo": {"cardNumFive": "", "isSupportYj": "", "cityName": null, "districtName": null, "shopinfo": {"mid": null, "good_flag": null, "new_flag": null, "short_name": null, "short_name_pinyin": null, "status": null, "address": "", "name": "", "id": null}, "mid": null, "shopId": null, "netid": null, "province": 901, "district": null, "zipcode": null, "telephone": null, "posDate": null, "destineTel": null, "togoTel": null, "trafficWay": null, "signBuilding": null, "businessArea": null, "selfRoom": null, "businessTime": null, "stall": null, "consume": null, "serviceFei": null, "favourable": null, "shopMemo": "1", "appraise": null, "website": null, "memo": null, "payTypes": "", "shopTypes": "", "consumeTypes": null, "cookTypes": null, "orderNum": null, "card4no": null, "card4noAcc": null, "district2": null, "searchScope": null, "status": null, "address": "", "name": null, "id": null, "pageNo": 379, "pageCount": null, "pageSize": 10, "ids": null, "endTime": null, "startTime": null}, "list": [{"cardNumFive": null, "isSupportYj": null, "cityName": null, "districtName": null, "shopinfo": {"mid": "888888880430033", "good_flag": "2", "new_flag": "2", "short_name": "\u955c\u598d\u574a", "short_name_pinyin": "jingyanfang", "status": null, "address": null, "name": null, "id": "32186"}, "mid": "888888880430033", "shopId": "32186", "netid": null, "province": 901, "district": 601, "zipcode": null, "telephone": "51379780", "posDate": null, "destineTel": null, "togoTel": null, "trafficWay": "\u5730\u94c1\u4e8c\u53f7\u7ebf", "signBuilding": null, "businessArea": "40\u5e73\u65b9\u7c73", "selfRoom": null, "businessTime": "9:00~22:00", "stall": null, "consume": "500\u5143", "serviceFei": null, "favourable": null, "shopMemo": null, "appraise": null, "website": null, "memo": null, "payTypes": "\u6749\u5fb7\u5361", "shopTypes": "\u96f6\u552e", "consumeTypes": null, "cookTypes": null, "orderNum": 1000, "card4no": null, "card4noAcc": null, "district2": 418, "searchScope": null, "status": 1, "address": "\u5f20\u6768\u8def601\u53f7\u534e\u57ce\u5927\u53a64\u697cD-8", "name": "\u955c\u598d\u574a \u5f20\u6768\u8def\u5e97", "id": 137021, "pageNo": 0, "pageCount": null, "pageSize": 10, "ids": null, "endTime": null, "startTime": null}, {"cardNumFive": null, "isSupportYj": null, "cityName": null, "districtName": null, "shopinfo": {"mid": "888888854410114", "good_flag": "2", "new_flag": "2", "short_name": "\u9526\u6d77\u6d77\u9c9c", "short_name_pinyin": "jinhaihaixian", "status": null, "address": null, "name": null, "id": "32105"}, "mid": "888888854410114", "shopId": "32105", "netid": null, "province": 901, "district": 601, "zipcode": null, "telephone": "62428083*806", "posDate": "20081014", "destineTel": null, "togoTel": null, "trafficWay": "\u516c\u4ea488 \u8398\u5317\u4e13\u7ebf", "signBuilding": null, "businessArea": "2000", "selfRoom": null, "businessTime": "08:30~20:30", "stall": null, "consume": null, "serviceFei": null, "favourable": null, "shopMemo": null, "appraise": null, "website": null, "memo": null, "payTypes": "\u6749\u5fb7\u5361", "shopTypes": "\u4e13\u5356", "consumeTypes": null, "cookTypes": null, "orderNum": 1000, "card4no": null, "card4noAcc": null, "district2": 406, "searchScope": null, "status": 1, "address": "\u54c8\u5bc6\u8def800\u53f7", "name": "\u9526\u6d77\u6d77\u9c9c \u54c8\u5bc6\u8def\u5e97", "id": 136843, "pageNo": 0, "pageCount": null, "pageSize": 10, "ids": null, "endTime": null, "startTime": null}, {"cardNumFive": null, "isSupportYj": null, "cityName": null, "districtName": null, "shopinfo": {"mid": "888888856910138", "good_flag": "2", "new_flag": "2", "short_name": "\u91d1\u9f99\u670d\u9970", "short_name_pinyin": "jinlongfushi", "status": null, "address": null, "name": null, "id": "32085"}, "mid": "888888856910138", "shopId": "32085", "netid": null, "province": 901, "district": 601, "zipcode": null, "telephone": "53061158", "posDate": "20080227", "destineTel": null, "togoTel": null, "trafficWay": "\u516c\u4ea442 \u5730\u94c1\u4e00\u53f7\u7ebf", "signBuilding": null, "businessArea": "20\u5e73\u65b9\u7c73", "selfRoom": null, "businessTime": null, "stall": "\u65e0", "consume": "100\u5143", "serviceFei": null, "favourable": null, "shopMemo": null, "appraise": null, "website": null, "memo": null, "payTypes": "\u6749\u5fb7\u5361", "shopTypes": "\u670d\u9970\u5bb6\u7eba", "consumeTypes": null, "cookTypes": null, "orderNum": 1000, "card4no": null, "card4noAcc": null, "district2": 401, "searchScope": null, "status": 1, "address": "\u601d\u5357\u8def29\u53f7", "name": "\u91d1\u9f99\u670d\u9970 \u601d\u5357\u8def\u5e97", "id": 136812, "pageNo": 0, "pageCount": null, "pageSize": 10, "ids": null, "endTime": null, "startTime": null}, {"cardNumFive": null, "isSupportYj": null, "cityName": null, "districtName": null, "shopinfo": {"mid": "888888858120326", "good_flag": "2", "new_flag": "2", "short_name": "\u9526\u5e90\u9910\u5385", "short_name_pinyin": "jinlucanting", "status": null, "address": null, "name": null, "id": "32163"}, "mid": "888888858120326", "shopId": "32163", "netid": null, "province": 901, "district": 601, "zipcode": null, "telephone": "64451717", "posDate": "20080402", "destineTel": null, "togoTel": null, "trafficWay": "\u516c\u4ea4926 \u89c2\u5149\u5df4\u58eb1\u8def \u5730\u94c1\u4e00\u53f7\u7ebf", "signBuilding": "\u9526\u6c5f\u996d\u5e97", "businessArea": "880.5\u5e73\u65b9\u7c73", "selfRoom": "6\u95f4", "businessTime": "11:00~23:00", "stall": "\u6709", "consume": "200~500\u5143", "serviceFei": null, "favourable": null, "shopMemo": null, "appraise": "\u8212\u9002 \u8c6a\u534e", "website": null, "memo": null, "payTypes": "\u6749\u5fb7\u5361", "shopTypes": "\u9910\u996e", "consumeTypes": "\u4f11\u95f2\u5c31\u9910 \u597d\u53cb\u5c0f\u805a \u6d6a\u6f2b\u7ea6\u4f1a \u5bb6\u4eba\u56e2\u805a \u5546\u52a1\u5bb4\u8bf7", "cookTypes": "\u672c\u5e2e\u83dc \u7ca4\u83dc \u6d77\u9c9c \u521b\u610f\u83dc \u4e1c\u5357\u4e9a", "orderNum": 1000, "card4no": null, "card4noAcc": null, "district2": 401, "searchScope": null, "status": 1, "address": "\u8302\u540d\u5357\u8def59\u53f7\u9526\u5317\u697c\u4e00\u697c", "name": "\u9526\u5e90\u9910\u5385 \u8302\u540d\u5357\u8def\u5e97", "id": 136901, "pageNo": 0, "pageCount": null, "pageSize": 10, "ids": null, "endTime": null, "startTime": null}, {"cardNumFive": null, "isSupportYj": null, "cityName": null, "districtName": null, "shopinfo": {"mid": "888888858120472", "good_flag": "1", "new_flag": "2", "short_name": "\u91d1\u94b1\u8c79\u9910\u996e", "short_name_pinyin": "jinqianbaocanyin", "status": null, "address": null, "name": null, "id": "32087"}, "mid": "888888858120472", "shopId": "32087", "netid": null, "province": 901, "district": 601, "zipcode": null, "telephone": "54580899", "posDate": "20080905", "destineTel": null, "togoTel": null, "trafficWay": null, "signBuilding": null, "businessArea": null, "selfRoom": null, "businessTime": null, "stall": "\u6709", "consume": null, "serviceFei": null, "favourable": null, "shopMemo": null, "appraise": null, "website": null, "memo": null, "payTypes": "\u6749\u5fb7\u5361", "shopTypes": "\u9910\u996e", "consumeTypes": null, "cookTypes": null, "orderNum": 1000, "card4no": null, "card4noAcc": null, "district2": 406, "searchScope": null, "status": 1, "address": "\u5ef6\u5b89\u897f\u8def3162\u53f7", "name": "\u91d1\u94b1\u8c79\u9910\u996e \u7a0b\u5bb6\u6865\u8def\u5e97", "id": 136815, "pageNo": 0, "pageCount": null, "pageSize": 10, "ids": null, "endTime": null, "startTime": null}, {"cardNumFive": null, "isSupportYj": null, "cityName": null, "districtName": null, "shopinfo": {"mid": "888888858120473", "good_flag": "1", "new_flag": "2", "short_name": "\u91d1\u94b1\u8c79\u9910\u996e", "short_name_pinyin": "jinqianbaocanyin", "status": null, "address": null, "name": null, "id": "32088"}, "mid": "888888858120473", "shopId": "32088", "netid": null, "province": 901, "district": 601, "zipcode": null, "telephone": null, "posDate": "20080905", "destineTel": null, "togoTel": null, "trafficWay": null, "signBuilding": null, "businessArea": null, "selfRoom": null, "businessTime": null, "stall": "\u6709", "consume": null, "serviceFei": null, "favourable": null, "shopMemo": null, "appraise": null, "website": null, "memo": null, "payTypes": "\u6749\u5fb7\u5361", "shopTypes": "\u9910\u996e", "consumeTypes": null, "cookTypes": "\u81ea\u52a9", "orderNum": 1000, "card4no": null, "card4noAcc": null, "district2": 403, "searchScope": null, "status": 1, "address": "\u8087\u5bb6\u6d5c\u8def1000\u53f78\u697c", "name": "\u91d1\u94b1\u8c79\u9910\u996e \u6c47\u91d1\u5e97", "id": 136816, "pageNo": 0, "pageCount": null, "pageSize": 10, "ids": null, "endTime": null, "startTime": null}, {"cardNumFive": null, "isSupportYj": null, "cityName": null, "districtName": null, "shopinfo": {"mid": "888888859120082", "good_flag": "2", "new_flag": "2", "short_name": "\u91d1\u77f3\u5927\u836f\u623f", "short_name_pinyin": "jinshidayaofang", "status": null, "address": null, "name": null, "id": "32091"}, "mid": "888888859120082", "shopId": "32091", "netid": null, "province": 901, "district": 601, "zipcode": null, "telephone": "57263415", "posDate": "20080116", "destineTel": null, "togoTel": null, "trafficWay": "\u536b\u6885\u7ebf \u83b2\u77f3\u7ebf", "signBuilding": null, "businessArea": null, "selfRoom": null, "businessTime": null, "stall": null, "consume": null, "serviceFei": null, "favourable": null, "shopMemo": null, "appraise": null, "website": null, "memo": null, "payTypes": "\u6749\u5fb7\u5361", "shopTypes": "\u836f\u5e97", "consumeTypes": null, "cookTypes": null, "orderNum": 1000, "card4no": null, "card4noAcc": null, "district2": 414, "searchScope": null, "status": 1, "address": "\u677f\u6865\u897f\u8def1481\u53f7", "name": "\u91d1\u77f3\u5927\u836f\u623f \u677f\u6865\u836f\u5e97", "id": 136820, "pageNo": 0, "pageCount": null, "pageSize": 10, "ids": null, "endTime": null, "startTime": null}, {"cardNumFive": null, "isSupportYj": null, "cityName": null, "districtName": null, "shopinfo": {"mid": "888888859120082", "good_flag": "2", "new_flag": "2", "short_name": "\u91d1\u77f3\u5927\u836f\u623f", "short_name_pinyin": "jinshidayaofang", "status": null, "address": null, "name": null, "id": "32091"}, "mid": "888888859120082", "shopId": "32091", "netid": null, "province": 901, "district": 601, "zipcode": null, "telephone": "57970339", "posDate": "20080115", "destineTel": null, "togoTel": null, "trafficWay": null, "signBuilding": null, "businessArea": null, "selfRoom": null, "businessTime": null, "stall": null, "consume": null, "serviceFei": null, "favourable": null, "shopMemo": null, "appraise": null, "website": null, "memo": null, "payTypes": "\u6749\u5fb7\u5361", "shopTypes": "\u836f\u5e97", "consumeTypes": null, "cookTypes": null, "orderNum": 1000, "card4no": null, "card4noAcc": null, "district2": 414, "searchScope": null, "status": 1, "address": "\u77f3\u5316\u8499\u5c71\u8def325-329\u53f7", "name": "\u91d1\u77f3\u5927\u836f\u623f \u4eca\u65e5\u836f\u5e97", "id": 136821, "pageNo": 0, "pageCount": null, "pageSize": 10, "ids": null, "endTime": null, "startTime": null}, {"cardNumFive": null, "isSupportYj": null, "cityName": null, "districtName": null, "shopinfo": {"mid": "888888859120082", "good_flag": "2", "new_flag": "2", "short_name": "\u91d1\u77f3\u5927\u836f\u623f", "short_name_pinyin": "jinshidayaofang", "status": null, "address": null, "name": null, "id": "32091"}, "mid": "888888859120082", "shopId": "32091", "netid": null, "province": 901, "district": 601, "zipcode": null, "telephone": "57972189", "posDate": "20080115", "destineTel": null, "togoTel": null, "trafficWay": null, "signBuilding": null, "businessArea": null, "selfRoom": null, "businessTime": null, "stall": null, "consume": null, "serviceFei": null, "favourable": null, "shopMemo": null, "appraise": null, "website": null, "memo": null, "payTypes": "\u6749\u5fb7\u5361", "shopTypes": "\u836f\u5e97", "consumeTypes": null, "cookTypes": null, "orderNum": 1000, "card4no": null, "card4noAcc": null, "district2": 414, "searchScope": null, "status": 1, "address": "\u9f99\u80dc\u8def141-2\u53f7", "name": "\u91d1\u77f3\u5927\u836f\u623f \u9f99\u80dc\u8def\u836f\u5e97", "id": 136823, "pageNo": 0, "pageCount": null, "pageSize": 10, "ids": null, "endTime": null, "startTime": null}, {"cardNumFive": null, "isSupportYj": null, "cityName": null, "districtName": null, "shopinfo": {"mid": "888888859120082", "good_flag": "2", "new_flag": "2", "short_name": "\u91d1\u77f3\u5927\u836f\u623f", "short_name_pinyin": "jinshidayaofang", "status": null, "address": null, "name": null, "id": "32091"}, "mid": "888888859120082", "shopId": "32091", "netid": null, "province": 901, "district": 601, "zipcode": null, "telephone": "57933476", "posDate": "20080116", "destineTel": null, "togoTel": null, "trafficWay": "\u77f3\u6885\u7ebf \u5916\u536b\u4e13\u7ebf", "signBuilding": null, "businessArea": null, "selfRoom": null, "businessTime": null, "stall": null, "consume": null, "serviceFei": null, "favourable": null, "shopMemo": null, "appraise": null, "website": null, "memo": null, "payTypes": "\u6749\u5fb7\u5361", "shopTypes": "\u836f\u5e97", "consumeTypes": null, "cookTypes": null, "orderNum": 1000, "card4no": null, "card4noAcc": null, "district2": 414, "searchScope": null, "status": 1, "address": "\u77f3\u5316\u91d1\u4e00\u4e1c\u8def181\u53f7", "name": "\u91d1\u77f3\u5927\u836f\u623f \u540c\u6e90\u6625\u53c1\u836f\u5e97", "id": 136824, "pageNo": 0, "pageCount": null, "pageSize": 10, "ids": null, "endTime": null, "startTime": null}], "pageLimit": 3790, "size": 10}