{"pageCount": 1095, "count": 10942, "pageNo": 381, "subShopInfo": {"cardNumFive": "", "isSupportYj": "", "cityName": null, "districtName": null, "shopinfo": {"mid": null, "good_flag": null, "new_flag": null, "short_name": null, "short_name_pinyin": null, "status": null, "address": "", "name": "", "id": null}, "mid": null, "shopId": null, "netid": null, "province": 901, "district": null, "zipcode": null, "telephone": null, "posDate": null, "destineTel": null, "togoTel": null, "trafficWay": null, "signBuilding": null, "businessArea": null, "selfRoom": null, "businessTime": null, "stall": null, "consume": null, "serviceFei": null, "favourable": null, "shopMemo": "1", "appraise": null, "website": null, "memo": null, "payTypes": "", "shopTypes": "", "consumeTypes": null, "cookTypes": null, "orderNum": null, "card4no": null, "card4noAcc": null, "district2": null, "searchScope": null, "status": null, "address": "", "name": null, "id": null, "pageNo": 380, "pageCount": null, "pageSize": 10, "ids": null, "endTime": null, "startTime": null}, "list": [{"cardNumFive": null, "isSupportYj": null, "cityName": null, "districtName": null, "shopinfo": {"mid": "888888857190027", "good_flag": "2", "new_flag": "2", "short_name": "\u91d1\u7761\u83b2\uff08MLILY\uff09", "short_name_pinyin": "jinshuilian\uff08mlily\uff09", "status": null, "address": null, "name": null, "id": "32093"}, "mid": "888888857190027", "shopId": "32093", "netid": null, "province": 901, "district": 601, "zipcode": null, "telephone": "31358206*12", "posDate": "20080910", "destineTel": null, "togoTel": null, "trafficWay": "\u516c\u4ea4\u4e0a\u6731\u7ebf \u6caa\u9752\u4e13\u7ebf", "signBuilding": null, "businessArea": null, "selfRoom": null, "businessTime": null, "stall": null, "consume": null, "serviceFei": null, "favourable": null, "shopMemo": null, "appraise": null, "website": null, "memo": null, "payTypes": "\u6749\u5fb7\u5361", "shopTypes": "\u4e13\u5356", "consumeTypes": null, "cookTypes": null, "orderNum": 1000, "card4no": null, "card4noAcc": null, "district2": 417, "searchScope": null, "status": 1, "address": "\u8d75\u5df7\u5609\u677e\u4e2d\u8def5369\u53f7\u5357\u533aB7102-2\u53f7", "name": "\u91d1\u7761\u83b2\uff08MLILY\uff09 \u5609\u677e\u4e2d\u8def\u5e97", "id": 136828, "pageNo": 0, "pageCount": null, "pageSize": 10, "ids": null, "endTime": null, "startTime": null}, {"cardNumFive": null, "isSupportYj": null, "cityName": null, "districtName": null, "shopinfo": {"mid": "888002178320019", "good_flag": null, "new_flag": null, "short_name": "\u91d1\u9038\u5f71\u9662", "short_name_pinyin": "jinyiyingyuan", "status": null, "address": null, "name": null, "id": "43896"}, "mid": "888002178320019", "shopId": "43896", "netid": null, "province": 901, "district": 601, "zipcode": null, "telephone": null, "posDate": null, "destineTel": null, "togoTel": null, "trafficWay": null, "signBuilding": null, "businessArea": null, "selfRoom": null, "businessTime": null, "stall": null, "consume": null, "serviceFei": null, "favourable": null, "shopMemo": null, "appraise": null, "website": null, "memo": null, "payTypes": "\u6749\u5fb7\u5361", "shopTypes": "\u65c5\u6e38\u5f71\u9662", "consumeTypes": null, "cookTypes": null, "orderNum": 1000, "card4no": null, "card4noAcc": null, "district2": 407, "searchScope": null, "status": 1, "address": "\u98de\u8679\u8def568\u5f0445-49\u53f7", "name": "\u91d1\u9038\u5f71\u9662 \u5927\u8fde\u8def\u5e97", "id": 202254, "pageNo": 0, "pageCount": null, "pageSize": 10, "ids": null, "endTime": null, "startTime": null}, {"cardNumFive": null, "isSupportYj": null, "cityName": null, "districtName": null, "shopinfo": {"mid": "888002178320021", "good_flag": null, "new_flag": null, "short_name": "\u91d1\u9038\u5f71\u9662", "short_name_pinyin": "jinyiyingyuan", "status": null, "address": null, "name": null, "id": "43898"}, "mid": "888002178320021", "shopId": "43898", "netid": null, "province": 901, "district": 601, "zipcode": null, "telephone": null, "posDate": null, "destineTel": null, "togoTel": null, "trafficWay": null, "signBuilding": null, "businessArea": null, "selfRoom": null, "businessTime": null, "stall": null, "consume": null, "serviceFei": null, "favourable": null, "shopMemo": null, "appraise": null, "website": null, "memo": null, "payTypes": "\u6749\u5fb7\u5361", "shopTypes": "\u65c5\u6e38\u5f71\u9662", "consumeTypes": null, "cookTypes": null, "orderNum": 1000, "card4no": null, "card4noAcc": null, "district2": 418, "searchScope": null, "status": 1, "address": "\u78a7\u6ce2\u8def635\u5f04\u4f20\u5947\u5e7f\u573a\u4e8c\u697c", "name": "\u91d1\u9038\u5f71\u9662 \u5f20\u6c5f\u5206\u516c\u53f8", "id": 202258, "pageNo": 0, "pageCount": null, "pageSize": 10, "ids": null, "endTime": null, "startTime": null}, {"cardNumFive": null, "isSupportYj": null, "cityName": null, "districtName": null, "shopinfo": {"mid": "888002178320018", "good_flag": "2", "new_flag": "2", "short_name": "\u91d1\u9038\u5f71\u9662", "short_name_pinyin": "jinyiyingyuan", "status": null, "address": null, "name": null, "id": "375966520309710848"}, "mid": "888002178320018", "shopId": "375966520309710848", "netid": null, "province": 901, "district": 601, "zipcode": null, "telephone": null, "posDate": null, "destineTel": null, "togoTel": null, "trafficWay": null, "signBuilding": null, "businessArea": null, "selfRoom": null, "businessTime": null, "stall": null, "consume": null, "serviceFei": null, "favourable": null, "shopMemo": null, "appraise": null, "website": null, "memo": null, "payTypes": "\u6749\u5fb7\u5361,", "shopTypes": "\u65c5\u6e38\u5f71\u9662", "consumeTypes": null, "cookTypes": null, "orderNum": null, "card4no": null, "card4noAcc": null, "district2": 405, "searchScope": null, "status": 1, "address": "\u91d1\u6c99\u6c5f\u8def1628\u53f7\u7eff\u6d32\u4e2d\u73af5\u53f7\u697c", "name": "\u666e\u9640\u5e97", "id": 375966520313905152, "pageNo": 0, "pageCount": null, "pageSize": 10, "ids": null, "endTime": null, "startTime": null}, {"cardNumFive": null, "isSupportYj": null, "cityName": null, "districtName": null, "shopinfo": {"mid": "888888854410056", "good_flag": "2", "new_flag": "2", "short_name": "\u91d1\u56ed\u8336\u53f6", "short_name_pinyin": "jinyuanchaye", "status": null, "address": null, "name": null, "id": "32104"}, "mid": "888888854410056", "shopId": "32104", "netid": null, "province": 901, "district": 601, "zipcode": null, "telephone": "67961783", "posDate": "20070912", "destineTel": null, "togoTel": null, "trafficWay": "\u83b2\u77f3\u7ebf \u536b\u6885\u7ebf", "signBuilding": null, "businessArea": "50\u5e73\u65b9\u7c73", "selfRoom": "\u65e0", "businessTime": "8:00~22:00", "stall": "\u65e0", "consume": "80\u5143", "serviceFei": null, "favourable": null, "shopMemo": null, "appraise": null, "website": null, "memo": null, "payTypes": "\u6749\u5fb7\u5361", "shopTypes": "\u4e13\u5356", "consumeTypes": null, "cookTypes": null, "orderNum": 1000, "card4no": null, "card4noAcc": null, "district2": 414, "searchScope": null, "status": 1, "address": "\u77f3\u5316\u8857\u9053\u536b\u6e05\u897f\u8def957\u53f7", "name": "\u91d1\u56ed\u8336\u53f6 \u536b\u6e05\u897f\u8def\u5e97", "id": 136842, "pageNo": 0, "pageCount": null, "pageSize": 10, "ids": null, "endTime": null, "startTime": null}, {"cardNumFive": null, "isSupportYj": null, "cityName": null, "districtName": null, "shopinfo": {"mid": "888888857190043", "good_flag": "2", "new_flag": "2", "short_name": "\u5409\u76db\u4f1f\u90a6", "short_name_pinyin": "jishengweibang", "status": null, "address": null, "name": null, "id": "31947"}, "mid": "888888857190043", "shopId": "31947", "netid": null, "province": 901, "district": 601, "zipcode": null, "telephone": "69755543", "posDate": "20090323", "destineTel": null, "togoTel": null, "trafficWay": null, "signBuilding": null, "businessArea": "70000", "selfRoom": "8\u95f4", "businessTime": null, "stall": null, "consume": null, "serviceFei": null, "favourable": null, "shopMemo": null, "appraise": null, "website": null, "memo": null, "payTypes": "\u6749\u5fb7\u5361", "shopTypes": "\u4e13\u5356", "consumeTypes": null, "cookTypes": null, "orderNum": 1000, "card4no": null, "card4noAcc": null, "district2": 411, "searchScope": null, "status": 1, "address": "\u5609\u677e\u4e2d\u8def5369\u53f7", "name": "\u5409\u76db\u4f1f\u90a6 \u5609\u677e\u4e2d\u8def\u7eff\u5730\u56fd\u5bb6\u5bb6\u5177\u6751", "id": 135748, "pageNo": 0, "pageCount": null, "pageSize": 10, "ids": null, "endTime": null, "startTime": null}, {"cardNumFive": null, "isSupportYj": null, "cityName": null, "districtName": null, "shopinfo": {"mid": "888002154119889", "good_flag": "1", "new_flag": "1", "short_name": "\u5409\u76db\u4f1f\u90a6", "short_name_pinyin": "jishengweibang", "status": null, "address": null, "name": null, "id": "31948"}, "mid": "888002154119889", "shopId": "31948", "netid": null, "province": 901, "district": 601, "zipcode": null, "telephone": null, "posDate": "20091221", "destineTel": null, "togoTel": null, "trafficWay": null, "signBuilding": null, "businessArea": null, "selfRoom": null, "businessTime": "10:00~24:00", "stall": null, "consume": null, "serviceFei": null, "favourable": null, "shopMemo": null, "appraise": null, "website": null, "memo": null, "payTypes": "\u6749\u5fb7\u5361", "shopTypes": "\u4e13\u5356", "consumeTypes": null, "cookTypes": null, "orderNum": 1000, "card4no": null, "card4noAcc": null, "district2": 406, "searchScope": null, "status": 1, "address": "\u5a04\u5c71\u5173\u8def75\u53f7", "name": "\u5409\u76db\u4f1f\u90a6 \u5a04\u5c71\u5173\u8def\u5e97", "id": 135749, "pageNo": 0, "pageCount": null, "pageSize": 10, "ids": null, "endTime": null, "startTime": null}, {"cardNumFive": null, "isSupportYj": null, "cityName": null, "districtName": null, "shopinfo": {"mid": "888888852110001", "good_flag": "1", "new_flag": "2", "short_name": "\u4e5d\u767e\u5bb6\u5c45", "short_name_pinyin": "jiubaijiaju", "status": null, "address": null, "name": null, "id": "32187"}, "mid": "888888852110001", "shopId": "32187", "netid": null, "province": 901, "district": 601, "zipcode": null, "telephone": "66342198", "posDate": "20070515", "destineTel": "66342198", "togoTel": null, "trafficWay": "\u516c\u4ea4909\uff0c923", "signBuilding": null, "businessArea": "13000\u5e73\u65b9\u7c73", "selfRoom": null, "businessTime": "9:00~21:00", "stall": "\u6709", "consume": null, "serviceFei": null, "favourable": null, "shopMemo": null, "appraise": null, "website": null, "memo": null, "payTypes": "\u6749\u5fb7\u5361", "shopTypes": "\u767e\u8d27", "consumeTypes": null, "cookTypes": null, "orderNum": 1000, "card4no": null, "card4noAcc": null, "district2": 405, "searchScope": null, "status": 1, "address": "\u6caa\u592a\u8def1618\u53f7", "name": "\u4e5d\u767e\u5bb6\u5c45 \u5927\u534e\u5e97", "id": 137022, "pageNo": 0, "pageCount": null, "pageSize": 10, "ids": null, "endTime": null, "startTime": null}, {"cardNumFive": null, "isSupportYj": null, "cityName": null, "districtName": null, "shopinfo": {"mid": "888888852110003", "good_flag": "1", "new_flag": "2", "short_name": "\u4e5d\u767e\u5bb6\u5c45", "short_name_pinyin": "jiubaijiaju", "status": null, "address": null, "name": null, "id": "32189"}, "mid": "888888852110003", "shopId": "32189", "netid": null, "province": 901, "district": 601, "zipcode": null, "telephone": "68319833", "posDate": "20070410", "destineTel": "68319833", "togoTel": null, "trafficWay": "\u516c\u4ea4973", "signBuilding": null, "businessArea": "13000\u5e73\u65b9\u7c73", "selfRoom": null, "businessTime": "9:00~21:00", "stall": "\u6709", "consume": null, "serviceFei": null, "favourable": null, "shopMemo": null, "appraise": null, "website": null, "memo": null, "payTypes": "\u6749\u5fb7\u5361", "shopTypes": "\u767e\u8d27", "consumeTypes": null, "cookTypes": null, "orderNum": 1000, "card4no": null, "card4noAcc": null, "district2": 418, "searchScope": null, "status": 1, "address": "\u4e0a\u5357\u8def3521\u53f7", "name": "\u4e5d\u767e\u5bb6\u5c45 \u4e0a\u5357\u5e97", "id": 137024, "pageNo": 0, "pageCount": null, "pageSize": 10, "ids": null, "endTime": null, "startTime": null}, {"cardNumFive": null, "isSupportYj": null, "cityName": null, "districtName": null, "shopinfo": {"mid": "888888852110002", "good_flag": "1", "new_flag": "2", "short_name": "\u4e5d\u767e\u5bb6\u5c45", "short_name_pinyin": "jiubaijiaju", "status": null, "address": null, "name": null, "id": "32191"}, "mid": "888888852110002", "shopId": "32191", "netid": null, "province": 901, "district": 601, "zipcode": null, "telephone": "54154862", "posDate": "20070410", "destineTel": "54154862", "togoTel": null, "trafficWay": "\u516c\u4ea4703", "signBuilding": null, "businessArea": "13000\u5e73\u65b9\u7c73", "selfRoom": null, "businessTime": "9:00~21:00", "stall": "\u6709", "consume": null, "serviceFei": null, "favourable": null, "shopMemo": null, "appraise": null, "website": null, "memo": null, "payTypes": "\u6749\u5fb7\u5361", "shopTypes": "\u767e\u8d27", "consumeTypes": null, "cookTypes": null, "orderNum": 1000, "card4no": null, "card4noAcc": null, "district2": 409, "searchScope": null, "status": 1, "address": "\u6625\u7533\u8def3333\u53f7", "name": "\u4e5d\u767e\u5bb6\u5c45 \u8398\u5e84\u5e97", "id": 137026, "pageNo": 0, "pageCount": null, "pageSize": 10, "ids": null, "endTime": null, "startTime": null}], "pageLimit": 3800, "size": 10}