{"pageCount": 1095, "count": 10942, "pageNo": 384, "subShopInfo": {"cardNumFive": "", "isSupportYj": "", "cityName": null, "districtName": null, "shopinfo": {"mid": null, "good_flag": null, "new_flag": null, "short_name": null, "short_name_pinyin": null, "status": null, "address": "", "name": "", "id": null}, "mid": null, "shopId": null, "netid": null, "province": 901, "district": null, "zipcode": null, "telephone": null, "posDate": null, "destineTel": null, "togoTel": null, "trafficWay": null, "signBuilding": null, "businessArea": null, "selfRoom": null, "businessTime": null, "stall": null, "consume": null, "serviceFei": null, "favourable": null, "shopMemo": "1", "appraise": null, "website": null, "memo": null, "payTypes": "", "shopTypes": "", "consumeTypes": null, "cookTypes": null, "orderNum": null, "card4no": null, "card4noAcc": null, "district2": null, "searchScope": null, "status": null, "address": "", "name": null, "id": null, "pageNo": 383, "pageCount": null, "pageSize": 10, "ids": null, "endTime": null, "startTime": null}, "list": [{"cardNumFive": null, "isSupportYj": null, "cityName": null, "districtName": null, "shopinfo": {"mid": "888888852110023", "good_flag": "2", "new_flag": "2", "short_name": "\u4e5d\u661f\u7535\u5b50", "short_name_pinyin": "jiuxingdianzi", "status": null, "address": null, "name": null, "id": "32199"}, "mid": "888888852110023", "shopId": "32199", "netid": null, "province": 901, "district": 601, "zipcode": null, "telephone": null, "posDate": null, "destineTel": null, "togoTel": null, "trafficWay": "92\u3001953\u3001\u4e0a\u4f58\u7ebf", "signBuilding": null, "businessArea": null, "selfRoom": null, "businessTime": "8:30~21:30", "stall": null, "consume": null, "serviceFei": null, "favourable": null, "shopMemo": null, "appraise": null, "website": null, "memo": null, "payTypes": "\u6749\u5fb7\u5361", "shopTypes": "\u4e13\u5356", "consumeTypes": null, "cookTypes": null, "orderNum": 1000, "card4no": null, "card4noAcc": null, "district2": 409, "searchScope": null, "status": 1, "address": "\u9676\u74f7\u4e09\u671f1-1\u30011-2\u53f7", "name": "\u4e5d\u661f\u7535\u5b50 \u4e03\u5b9d\u5144\u5f1f\u9676\u74f7\u7ecf\u8425\u90e8_\u4e5d\u661f\u5e97", "id": 137165, "pageNo": 0, "pageCount": null, "pageSize": 10, "ids": null, "endTime": null, "startTime": null}, {"cardNumFive": null, "isSupportYj": null, "cityName": null, "districtName": null, "shopinfo": {"mid": "888888852110023", "good_flag": "2", "new_flag": "2", "short_name": "\u4e5d\u661f\u7535\u5b50", "short_name_pinyin": "jiuxingdianzi", "status": null, "address": null, "name": null, "id": "32199"}, "mid": "888888852110023", "shopId": "32199", "netid": null, "province": 901, "district": 601, "zipcode": null, "telephone": "64594748", "posDate": "200909", "destineTel": null, "togoTel": null, "trafficWay": "\u516c\u4ea492\u3001\u4e0a\u4f58\u7ebf\u3001953\u3001735", "signBuilding": null, "businessArea": null, "selfRoom": null, "businessTime": "8:30~21:30", "stall": null, "consume": null, "serviceFei": null, "favourable": null, "shopMemo": null, "appraise": null, "website": null, "memo": null, "payTypes": "\u6749\u5fb7\u5361", "shopTypes": "\u4e13\u5356", "consumeTypes": null, "cookTypes": null, "orderNum": 1000, "card4no": null, "card4noAcc": null, "district2": 409, "searchScope": null, "status": 1, "address": "\u9676\u74f7\u531710-1\u5e627-8\u53f7", "name": "\u4e5d\u661f\u7535\u5b50 \u4e03\u5b9d\u96c4\u5b87\u9676\u74f7\u7ecf\u8425\u90e8_\u4e5d\u661f\u5e97", "id": 137166, "pageNo": 0, "pageCount": null, "pageSize": 10, "ids": null, "endTime": null, "startTime": null}, {"cardNumFive": null, "isSupportYj": null, "cityName": null, "districtName": null, "shopinfo": {"mid": "888888852110023", "good_flag": "2", "new_flag": "2", "short_name": "\u4e5d\u661f\u7535\u5b50", "short_name_pinyin": "jiuxingdianzi", "status": null, "address": null, "name": null, "id": "32199"}, "mid": "888888852110023", "shopId": "32199", "netid": null, "province": 901, "district": 601, "zipcode": null, "telephone": null, "posDate": null, "destineTel": null, "togoTel": null, "trafficWay": "92\u3001953\u3001\u4e0a\u4f58\u7ebf", "signBuilding": null, "businessArea": null, "selfRoom": null, "businessTime": "8:30~21:30", "stall": null, "consume": null, "serviceFei": null, "favourable": null, "shopMemo": null, "appraise": null, "website": null, "memo": null, "payTypes": "\u6749\u5fb7\u5361", "shopTypes": "\u4e13\u5356", "consumeTypes": null, "cookTypes": null, "orderNum": 1000, "card4no": null, "card4noAcc": null, "district2": 409, "searchScope": null, "status": 1, "address": "\u9676\u74f7\u4e09\u671f4\u5e622\u30014\u30016\u53f7", "name": "\u4e5d\u661f\u7535\u5b50 \u4e03\u5b9d\u9547\u8054\u6c11\u9676\u74f7\u7ecf\u8425\u90e8_\u4e5d\u661f\u5e97", "id": 137172, "pageNo": 0, "pageCount": null, "pageSize": 10, "ids": null, "endTime": null, "startTime": null}, {"cardNumFive": null, "isSupportYj": null, "cityName": null, "districtName": null, "shopinfo": {"mid": "888888852110023", "good_flag": "2", "new_flag": "2", "short_name": "\u4e5d\u661f\u7535\u5b50", "short_name_pinyin": "jiuxingdianzi", "status": null, "address": null, "name": null, "id": "32199"}, "mid": "888888852110023", "shopId": "32199", "netid": null, "province": 901, "district": 601, "zipcode": null, "telephone": "13391064060", "posDate": "200909", "destineTel": null, "togoTel": null, "trafficWay": "\u516c\u4ea492\u3001\u4e0a\u4f58\u7ebf\u3001953\u3001735", "signBuilding": null, "businessArea": null, "selfRoom": null, "businessTime": "09:00~21:00", "stall": null, "consume": null, "serviceFei": null, "favourable": null, "shopMemo": null, "appraise": null, "website": null, "memo": null, "payTypes": "\u6749\u5fb7\u5361", "shopTypes": "\u4e13\u5356", "consumeTypes": null, "cookTypes": null, "orderNum": 1000, "card4no": null, "card4noAcc": null, "district2": 409, "searchScope": null, "status": 1, "address": "\u661f\u4e2d\u8def\u9676\u74f7\u533a\u535711\u5e626\u30017\u53f7", "name": "\u4e5d\u661f\u7535\u5b50 \u65d7\u6797\u5546\u8d38\u6709\u9650\u516c\u53f8_\u661f\u4e2d\u8def\u5e97", "id": 137175, "pageNo": 0, "pageCount": null, "pageSize": 10, "ids": null, "endTime": null, "startTime": null}, {"cardNumFive": null, "isSupportYj": null, "cityName": null, "districtName": null, "shopinfo": {"mid": "888888852110023", "good_flag": "2", "new_flag": "2", "short_name": "\u4e5d\u661f\u7535\u5b50", "short_name_pinyin": "jiuxingdianzi", "status": null, "address": null, "name": null, "id": "32199"}, "mid": "888888852110023", "shopId": "32199", "netid": null, "province": 901, "district": 601, "zipcode": null, "telephone": "13801840522", "posDate": "200909", "destineTel": null, "togoTel": null, "trafficWay": "\u516c\u4ea492\u3001\u4e0a\u4f58\u7ebf\u3001953\u3001735", "signBuilding": null, "businessArea": null, "selfRoom": null, "businessTime": "8:30~21:30", "stall": null, "consume": null, "serviceFei": null, "favourable": null, "shopMemo": null, "appraise": null, "website": null, "memo": null, "payTypes": "\u6749\u5fb7\u5361", "shopTypes": "\u4e13\u5356", "consumeTypes": null, "cookTypes": null, "orderNum": 1000, "card4no": null, "card4noAcc": null, "district2": 409, "searchScope": null, "status": 1, "address": "\u9676\u74f7\u4e09\u671f1\u5e6213\u53f7", "name": "\u4e5d\u661f\u7535\u5b50 \u8363\u8c37\u592a\u9633\u80fd\u8bbe\u5907\u7ecf\u8425\u90e8_\u4e5d\u661f\u5e97", "id": 137178, "pageNo": 0, "pageCount": null, "pageSize": 10, "ids": null, "endTime": null, "startTime": null}, {"cardNumFive": null, "isSupportYj": null, "cityName": null, "districtName": null, "shopinfo": {"mid": "888888852110023", "good_flag": "2", "new_flag": "2", "short_name": "\u4e5d\u661f\u7535\u5b50", "short_name_pinyin": "jiuxingdianzi", "status": null, "address": null, "name": null, "id": "32199"}, "mid": "888888852110023", "shopId": "32199", "netid": null, "province": 901, "district": 601, "zipcode": null, "telephone": "13801655945 64790638", "posDate": "200909", "destineTel": null, "togoTel": null, "trafficWay": "\u516c\u4ea492\u3001\u4e0a\u4f58\u7ebf\u3001953\u3001735", "signBuilding": null, "businessArea": null, "selfRoom": null, "businessTime": "8:30~21:30", "stall": null, "consume": null, "serviceFei": null, "favourable": null, "shopMemo": null, "appraise": null, "website": null, "memo": null, "payTypes": "\u6749\u5fb7\u5361", "shopTypes": "\u4e13\u5356", "consumeTypes": null, "cookTypes": null, "orderNum": 1000, "card4no": null, "card4noAcc": null, "district2": 409, "searchScope": null, "status": 1, "address": "\u4e5d\u533a3\u5e628-14\u53f7", "name": "\u4e5d\u661f\u7535\u5b50 \u4e09\u5176\u5b9e\u4e1a\u6709\u9650\u516c\u53f8_\u4e5d\u661f\u5e97", "id": 137180, "pageNo": 0, "pageCount": null, "pageSize": 10, "ids": null, "endTime": null, "startTime": null}, {"cardNumFive": null, "isSupportYj": null, "cityName": null, "districtName": null, "shopinfo": {"mid": "888888852110023", "good_flag": "2", "new_flag": "2", "short_name": "\u4e5d\u661f\u7535\u5b50", "short_name_pinyin": "jiuxingdianzi", "status": null, "address": null, "name": null, "id": "32199"}, "mid": "888888852110023", "shopId": "32199", "netid": null, "province": 901, "district": 601, "zipcode": null, "telephone": "13917960268", "posDate": "200909", "destineTel": null, "togoTel": null, "trafficWay": "\u516c\u4ea492\u3001\u4e0a\u4f58\u7ebf\u3001953\u3001735", "signBuilding": null, "businessArea": null, "selfRoom": null, "businessTime": "8:30~21:30", "stall": null, "consume": null, "serviceFei": null, "favourable": null, "shopMemo": null, "appraise": null, "website": null, "memo": null, "payTypes": "\u6749\u5fb7\u5361", "shopTypes": "\u4e13\u5356", "consumeTypes": null, "cookTypes": null, "orderNum": 1000, "card4no": null, "card4noAcc": null, "district2": 409, "searchScope": null, "status": 1, "address": "\u8679\u8398\u8def8\u53f7\u697c2A4-2A6\u53f7", "name": "\u4e5d\u661f\u7535\u5b50 \u68ee\u6750\u706f\u9970\u5546\u884c_\u8679\u8398\u8def\u5e97", "id": 137181, "pageNo": 0, "pageCount": null, "pageSize": 10, "ids": null, "endTime": null, "startTime": null}, {"cardNumFive": null, "isSupportYj": null, "cityName": null, "districtName": null, "shopinfo": {"mid": "888888852110023", "good_flag": "2", "new_flag": "2", "short_name": "\u4e5d\u661f\u7535\u5b50", "short_name_pinyin": "jiuxingdianzi", "status": null, "address": null, "name": null, "id": "32199"}, "mid": "888888852110023", "shopId": "32199", "netid": null, "province": 901, "district": 601, "zipcode": null, "telephone": null, "posDate": null, "destineTel": null, "togoTel": null, "trafficWay": "92\u3001953\u3001\u4e0a\u4f58\u7ebf", "signBuilding": null, "businessArea": null, "selfRoom": null, "businessTime": "8:30~21:30", "stall": null, "consume": null, "serviceFei": null, "favourable": null, "shopMemo": null, "appraise": null, "website": null, "memo": null, "payTypes": "\u6749\u5fb7\u5361", "shopTypes": "\u4e13\u5356", "consumeTypes": null, "cookTypes": null, "orderNum": 1000, "card4no": null, "card4noAcc": null, "district2": 409, "searchScope": null, "status": 1, "address": "\u9676\u74f7\u533a\u53578\u5e623\u53f7", "name": "\u4e5d\u661f\u7535\u5b50 \u6749\u4e3d\u5b9e\u4e1a\u6709\u9650\u516c\u53f8_\u4e5d\u661f\u5e97", "id": 137182, "pageNo": 0, "pageCount": null, "pageSize": 10, "ids": null, "endTime": null, "startTime": null}, {"cardNumFive": null, "isSupportYj": null, "cityName": null, "districtName": null, "shopinfo": {"mid": "888888852110023", "good_flag": "2", "new_flag": "2", "short_name": "\u4e5d\u661f\u7535\u5b50", "short_name_pinyin": "jiuxingdianzi", "status": null, "address": null, "name": null, "id": "32199"}, "mid": "888888852110023", "shopId": "32199", "netid": null, "province": 901, "district": 601, "zipcode": null, "telephone": "54864062", "posDate": "200909", "destineTel": null, "togoTel": null, "trafficWay": "\u516c\u4ea492\u3001\u4e0a\u4f58\u7ebf\u3001953\u3001735", "signBuilding": null, "businessArea": null, "selfRoom": null, "businessTime": "8:30~21:30", "stall": null, "consume": null, "serviceFei": null, "favourable": null, "shopMemo": null, "appraise": null, "website": null, "memo": null, "payTypes": "\u6749\u5fb7\u5361", "shopTypes": "\u4e13\u5356", "consumeTypes": null, "cookTypes": null, "orderNum": 1000, "card4no": null, "card4noAcc": null, "district2": 409, "searchScope": null, "status": 1, "address": "\u6587\u5177\u793c\u54c1\u533aB2\u533a8-14\u53f7", "name": "\u4e5d\u661f\u7535\u5b50 \u6843\u8f89\u529e\u516c\u7528\u54c1\u7ecf\u8425\u90e8_\u4e5d\u661f\u5e97", "id": 137191, "pageNo": 0, "pageCount": null, "pageSize": 10, "ids": null, "endTime": null, "startTime": null}, {"cardNumFive": null, "isSupportYj": null, "cityName": null, "districtName": null, "shopinfo": {"mid": "888888852110023", "good_flag": "2", "new_flag": "2", "short_name": "\u4e5d\u661f\u7535\u5b50", "short_name_pinyin": "jiuxingdianzi", "status": null, "address": null, "name": null, "id": "32199"}, "mid": "888888852110023", "shopId": "32199", "netid": null, "province": 901, "district": 601, "zipcode": null, "telephone": null, "posDate": null, "destineTel": null, "togoTel": null, "trafficWay": "92\u3001953\u3001\u4e0a\u4f58\u7ebf", "signBuilding": null, "businessArea": null, "selfRoom": null, "businessTime": "8:30~21:30", "stall": null, "consume": null, "serviceFei": null, "favourable": null, "shopMemo": null, "appraise": null, "website": null, "memo": null, "payTypes": "\u6749\u5fb7\u5361", "shopTypes": "\u4e13\u5356", "consumeTypes": null, "cookTypes": null, "orderNum": 1000, "card4no": null, "card4noAcc": null, "district2": 409, "searchScope": null, "status": 1, "address": "\u9676\u74f7\u4e09\u671f1\u5e6216-18\u53f7", "name": "\u4e5d\u661f\u7535\u5b50 \u95fb\u6d32\u6d01\u5177\u6709\u9650\u516c\u53f8_\u4e5d\u661f\u5e97", "id": 137197, "pageNo": 0, "pageCount": null, "pageSize": 10, "ids": null, "endTime": null, "startTime": null}], "pageLimit": 3830, "size": 10}