{"pageCount": 1095, "count": 10942, "pageNo": 386, "subShopInfo": {"cardNumFive": "", "isSupportYj": "", "cityName": null, "districtName": null, "shopinfo": {"mid": null, "good_flag": null, "new_flag": null, "short_name": null, "short_name_pinyin": null, "status": null, "address": "", "name": "", "id": null}, "mid": null, "shopId": null, "netid": null, "province": 901, "district": null, "zipcode": null, "telephone": null, "posDate": null, "destineTel": null, "togoTel": null, "trafficWay": null, "signBuilding": null, "businessArea": null, "selfRoom": null, "businessTime": null, "stall": null, "consume": null, "serviceFei": null, "favourable": null, "shopMemo": "1", "appraise": null, "website": null, "memo": null, "payTypes": "", "shopTypes": "", "consumeTypes": null, "cookTypes": null, "orderNum": null, "card4no": null, "card4noAcc": null, "district2": null, "searchScope": null, "status": null, "address": "", "name": null, "id": null, "pageNo": 385, "pageCount": null, "pageSize": 10, "ids": null, "endTime": null, "startTime": null}, "list": [{"cardNumFive": null, "isSupportYj": null, "cityName": null, "districtName": null, "shopinfo": {"mid": "888002159121195", "good_flag": "1", "new_flag": "1", "short_name": "\u4e5d\u5dde\u901a", "short_name_pinyin": "jiuzhoutong", "status": null, "address": null, "name": null, "id": "32206"}, "mid": "888002159121195", "shopId": "32206", "netid": null, "province": 901, "district": 601, "zipcode": null, "telephone": null, "posDate": "20091214", "destineTel": null, "togoTel": null, "trafficWay": null, "signBuilding": null, "businessArea": null, "selfRoom": null, "businessTime": null, "stall": null, "consume": null, "serviceFei": null, "favourable": null, "shopMemo": null, "appraise": null, "website": null, "memo": null, "payTypes": "\u6749\u5fb7\u5361", "shopTypes": "\u836f\u5e97", "consumeTypes": null, "cookTypes": null, "orderNum": 1000, "card4no": null, "card4noAcc": null, "district2": 414, "searchScope": null, "status": 1, "address": "\u91d1\u5c71\u536b\u9547\u5b66\u5e9c\u8def1331\u53f7", "name": "\u4e5d\u5dde\u901a \u91d1\u7532\u836f\u5e97\u5b66\u5e9c\u8def\u5e97", "id": 137235, "pageNo": 0, "pageCount": null, "pageSize": 10, "ids": null, "endTime": null, "startTime": null}, {"cardNumFive": null, "isSupportYj": null, "cityName": null, "districtName": null, "shopinfo": {"mid": "888002159121183", "good_flag": "2", "new_flag": "2", "short_name": "\u4e5d\u5dde\u901a", "short_name_pinyin": "jiuzhoutong", "status": null, "address": null, "name": null, "id": "32207"}, "mid": "888002159121183", "shopId": "32207", "netid": null, "province": 901, "district": 601, "zipcode": null, "telephone": "58410999", "posDate": "200911", "destineTel": null, "togoTel": null, "trafficWay": null, "signBuilding": null, "businessArea": null, "selfRoom": null, "businessTime": "9:30~22:00", "stall": null, "consume": null, "serviceFei": null, "favourable": null, "shopMemo": null, "appraise": null, "website": null, "memo": null, "payTypes": "\u6749\u5fb7\u5361", "shopTypes": "\u836f\u5e97", "consumeTypes": null, "cookTypes": null, "orderNum": 1000, "card4no": null, "card4noAcc": null, "district2": 418, "searchScope": null, "status": 1, "address": "\u4e09\u6797\u8def719\u53f7102\u5ba4", "name": "\u4e5d\u5dde\u901a \u9526\u6797\u836f\u5e97", "id": 137236, "pageNo": 0, "pageCount": null, "pageSize": 10, "ids": null, "endTime": null, "startTime": null}, {"cardNumFive": null, "isSupportYj": null, "cityName": null, "districtName": null, "shopinfo": {"mid": "888002159121155", "good_flag": "2", "new_flag": "1", "short_name": "\u4e5d\u5dde\u901a", "short_name_pinyin": "jiuzhoutong", "status": null, "address": null, "name": null, "id": "32200"}, "mid": "888002159121155", "shopId": "32200", "netid": null, "province": 901, "district": 601, "zipcode": null, "telephone": null, "posDate": "20100118", "destineTel": null, "togoTel": null, "trafficWay": null, "signBuilding": null, "businessArea": null, "selfRoom": null, "businessTime": null, "stall": null, "consume": null, "serviceFei": null, "favourable": null, "shopMemo": null, "appraise": null, "website": null, "memo": null, "payTypes": "\u6749\u5fb7\u5361", "shopTypes": "\u836f\u5e97", "consumeTypes": null, "cookTypes": null, "orderNum": 1000, "card4no": null, "card4noAcc": null, "district2": 416, "searchScope": null, "status": 1, "address": "\u5b9d\u5c71\u533a\u5357\u5927\u8def\u5236\u9769\u8def58-64\u53f7\u7b2c\u56db\u5e62", "name": "\u4e5d\u5dde\u901a \u5357\u5927\u8def\u5e97", "id": 137239, "pageNo": 0, "pageCount": null, "pageSize": 10, "ids": null, "endTime": null, "startTime": null}, {"cardNumFive": null, "isSupportYj": null, "cityName": null, "districtName": null, "shopinfo": {"mid": "888002159121155", "good_flag": "2", "new_flag": "1", "short_name": "\u4e5d\u5dde\u901a", "short_name_pinyin": "jiuzhoutong", "status": null, "address": null, "name": null, "id": "32200"}, "mid": "888002159121155", "shopId": "32200", "netid": null, "province": 901, "district": 601, "zipcode": null, "telephone": null, "posDate": "20100118", "destineTel": null, "togoTel": null, "trafficWay": null, "signBuilding": null, "businessArea": null, "selfRoom": null, "businessTime": null, "stall": null, "consume": null, "serviceFei": null, "favourable": null, "shopMemo": null, "appraise": null, "website": null, "memo": null, "payTypes": "\u6749\u5fb7\u5361", "shopTypes": "\u836f\u5e97", "consumeTypes": null, "cookTypes": null, "orderNum": 1000, "card4no": null, "card4noAcc": null, "district2": 412, "searchScope": null, "status": 1, "address": "\u4e0a\u6d77\u5e02\u677e\u6c5f\u533a\u4e5d\u4ead\u9547\u866c\u6cfe\u8def519\u597d1\u5c42", "name": "\u4e5d\u5dde\u901a \u866c\u6cfe\u8def\u5e97", "id": 137241, "pageNo": 0, "pageCount": null, "pageSize": 10, "ids": null, "endTime": null, "startTime": null}, {"cardNumFive": null, "isSupportYj": null, "cityName": null, "districtName": null, "shopinfo": {"mid": "888888859120206", "good_flag": "2", "new_flag": "1", "short_name": "\u4e5d\u5dde\u901a", "short_name_pinyin": "jiuzhoutong", "status": null, "address": null, "name": null, "id": "32203"}, "mid": "888888859120206", "shopId": "32203", "netid": null, "province": 901, "district": 601, "zipcode": null, "telephone": null, "posDate": "20100118", "destineTel": null, "togoTel": null, "trafficWay": null, "signBuilding": null, "businessArea": null, "selfRoom": null, "businessTime": null, "stall": null, "consume": null, "serviceFei": null, "favourable": null, "shopMemo": null, "appraise": null, "website": null, "memo": null, "payTypes": "\u6749\u5fb7\u5361", "shopTypes": "\u836f\u5e97", "consumeTypes": null, "cookTypes": null, "orderNum": 1000, "card4no": null, "card4noAcc": null, "district2": 412, "searchScope": null, "status": 1, "address": "\u677e\u6c5f\u533a\u677e\u6c47\u4e1c\u8def2\u53f7", "name": "\u4e5d\u5dde\u901a \u677e\u6e2f\u5927\u836f\u623f", "id": 137244, "pageNo": 0, "pageCount": null, "pageSize": 10, "ids": null, "endTime": null, "startTime": null}, {"cardNumFive": null, "isSupportYj": null, "cityName": null, "districtName": null, "shopinfo": {"mid": "888002159121155", "good_flag": "2", "new_flag": "1", "short_name": "\u4e5d\u5dde\u901a", "short_name_pinyin": "jiuzhoutong", "status": null, "address": null, "name": null, "id": "32200"}, "mid": "888002159121155", "shopId": "32200", "netid": null, "province": 901, "district": 601, "zipcode": null, "telephone": null, "posDate": "20100118", "destineTel": null, "togoTel": null, "trafficWay": null, "signBuilding": null, "businessArea": null, "selfRoom": null, "businessTime": null, "stall": null, "consume": null, "serviceFei": null, "favourable": null, "shopMemo": null, "appraise": null, "website": null, "memo": null, "payTypes": "\u6749\u5fb7\u5361", "shopTypes": "\u836f\u5e97", "consumeTypes": null, "cookTypes": null, "orderNum": 1000, "card4no": null, "card4noAcc": null, "district2": 416, "searchScope": null, "status": 1, "address": "\u5b9d\u5c71\u533a\u677e\u5170\u8def1166\u5f04116\u53f7", "name": "\u4e5d\u5dde\u901a \u677e\u5170\u8def\u5e97", "id": 137245, "pageNo": 0, "pageCount": null, "pageSize": 10, "ids": null, "endTime": null, "startTime": null}, {"cardNumFive": null, "isSupportYj": null, "cityName": null, "districtName": null, "shopinfo": {"mid": "888888859120099", "good_flag": "2", "new_flag": "2", "short_name": "\u4e5d\u5dde\u901a", "short_name_pinyin": "jiuzhoutong", "status": null, "address": null, "name": null, "id": "32213"}, "mid": "888888859120099", "shopId": "32213", "netid": null, "province": 901, "district": 601, "zipcode": null, "telephone": "59441139", "posDate": null, "destineTel": null, "togoTel": null, "trafficWay": null, "signBuilding": null, "businessArea": "200\u5e73\u65b9\u7c73", "selfRoom": null, "businessTime": "7:30~20:00", "stall": null, "consume": null, "serviceFei": null, "favourable": null, "shopMemo": null, "appraise": null, "website": null, "memo": null, "payTypes": "\u6749\u5fb7\u5361", "shopTypes": "\u836f\u5e97", "consumeTypes": null, "cookTypes": null, "orderNum": 1000, "card4no": null, "card4noAcc": null, "district2": 415, "searchScope": null, "status": 1, "address": "\u5d07\u660e\u53bf\u5411\u5316\u9547\u5411\u6c11\u8def251\u53f7", "name": "\u4e5d\u5dde\u901a \u5411\u5b8f\u5927\u836f\u623f", "id": 137247, "pageNo": 0, "pageCount": null, "pageSize": 10, "ids": null, "endTime": null, "startTime": null}, {"cardNumFive": null, "isSupportYj": null, "cityName": null, "districtName": null, "shopinfo": {"mid": "888888859120177", "good_flag": "2", "new_flag": "2", "short_name": "\u4e5d\u5dde\u901a", "short_name_pinyin": "jiuzhoutong", "status": null, "address": null, "name": null, "id": "32214"}, "mid": "888888859120177", "shopId": "32214", "netid": null, "province": 901, "district": 601, "zipcode": null, "telephone": "57485191", "posDate": null, "destineTel": null, "togoTel": null, "trafficWay": "\u5357\u534e\u4e13\u7ebf\u3001\u5357\u9c81\u7ebf", "signBuilding": null, "businessArea": null, "selfRoom": null, "businessTime": null, "stall": null, "consume": null, "serviceFei": null, "favourable": null, "shopMemo": null, "appraise": null, "website": null, "memo": null, "payTypes": "\u6749\u5fb7\u5361", "shopTypes": "\u836f\u5e97", "consumeTypes": null, "cookTypes": null, "orderNum": 1000, "card4no": null, "card4noAcc": null, "district2": 413, "searchScope": null, "status": 1, "address": "\u91d1\u6c47\u9547\u91d1\u94b1\u516c\u8def547\u53f7", "name": "\u4e5d\u5dde\u901a \u73cd\u548c\u836f\u5e97", "id": 137249, "pageNo": 0, "pageCount": null, "pageSize": 10, "ids": null, "endTime": null, "startTime": null}, {"cardNumFive": null, "isSupportYj": null, "cityName": null, "districtName": null, "shopinfo": {"mid": "888002159121155", "good_flag": "2", "new_flag": "1", "short_name": "\u4e5d\u5dde\u901a", "short_name_pinyin": "jiuzhoutong", "status": null, "address": null, "name": null, "id": "32200"}, "mid": "888002159121155", "shopId": "32200", "netid": null, "province": 901, "district": 601, "zipcode": null, "telephone": "52844137", "posDate": "20100118", "destineTel": null, "togoTel": null, "trafficWay": null, "signBuilding": null, "businessArea": null, "selfRoom": null, "businessTime": null, "stall": null, "consume": null, "serviceFei": null, "favourable": null, "shopMemo": null, "appraise": null, "website": null, "memo": null, "payTypes": "\u6749\u5fb7\u5361", "shopTypes": "\u836f\u5e97", "consumeTypes": null, "cookTypes": null, "orderNum": 1000, "card4no": null, "card4noAcc": null, "district2": 405, "searchScope": null, "status": 1, "address": "\u4e0a\u6d77\u5e02\u666e\u9640\u533a\u7941\u8fde\u5c71\u5357\u8def3181\u53f7", "name": "\u4e5d\u5dde\u901a \u771f\u5357\u8def\u5e97", "id": 137250, "pageNo": 0, "pageCount": null, "pageSize": 10, "ids": null, "endTime": null, "startTime": null}, {"cardNumFive": null, "isSupportYj": null, "cityName": null, "districtName": null, "shopinfo": {"mid": "888002159121155", "good_flag": "2", "new_flag": "1", "short_name": "\u4e5d\u5dde\u901a", "short_name_pinyin": "jiuzhoutong", "status": null, "address": null, "name": null, "id": "32200"}, "mid": "888002159121155", "shopId": "32200", "netid": null, "province": 901, "district": 601, "zipcode": null, "telephone": null, "posDate": "20100118", "destineTel": null, "togoTel": null, "trafficWay": null, "signBuilding": null, "businessArea": null, "selfRoom": null, "businessTime": null, "stall": null, "consume": null, "serviceFei": null, "favourable": null, "shopMemo": null, "appraise": null, "website": null, "memo": null, "payTypes": "\u6749\u5fb7\u5361", "shopTypes": "\u836f\u5e97", "consumeTypes": null, "cookTypes": null, "orderNum": 1000, "card4no": null, "card4noAcc": null, "district2": 405, "searchScope": null, "status": 1, "address": "\u666e\u9640\u533a\u771f\u5357\u8def1289\u53f7-4", "name": "\u4e5d\u5dde\u901a \u771f\u5357\u8def\u4e8c\u5e97", "id": 137251, "pageNo": 0, "pageCount": null, "pageSize": 10, "ids": null, "endTime": null, "startTime": null}], "pageLimit": 3850, "size": 10}