{"pageCount": 1095, "count": 10942, "pageNo": 388, "subShopInfo": {"cardNumFive": "", "isSupportYj": "", "cityName": null, "districtName": null, "shopinfo": {"mid": null, "good_flag": null, "new_flag": null, "short_name": null, "short_name_pinyin": null, "status": null, "address": "", "name": "", "id": null}, "mid": null, "shopId": null, "netid": null, "province": 901, "district": null, "zipcode": null, "telephone": null, "posDate": null, "destineTel": null, "togoTel": null, "trafficWay": null, "signBuilding": null, "businessArea": null, "selfRoom": null, "businessTime": null, "stall": null, "consume": null, "serviceFei": null, "favourable": null, "shopMemo": "1", "appraise": null, "website": null, "memo": null, "payTypes": "", "shopTypes": "", "consumeTypes": null, "cookTypes": null, "orderNum": null, "card4no": null, "card4noAcc": null, "district2": null, "searchScope": null, "status": null, "address": "", "name": null, "id": null, "pageNo": 387, "pageCount": null, "pageSize": 10, "ids": null, "endTime": null, "startTime": null}, "list": [{"cardNumFive": null, "isSupportYj": null, "cityName": null, "districtName": null, "shopinfo": {"mid": "888888858120684", "good_flag": null, "new_flag": null, "short_name": "\u5409\u91ce\u5bb6", "short_name_pinyin": "jiyejia", "status": null, "address": null, "name": null, "id": "31954"}, "mid": "888888858120684", "shopId": "31954", "netid": null, "province": 901, "district": 601, "zipcode": null, "telephone": "51379762", "posDate": null, "destineTel": null, "togoTel": null, "trafficWay": "792\u3001787\u3001119", "signBuilding": null, "businessArea": null, "selfRoom": null, "businessTime": null, "stall": null, "consume": null, "serviceFei": null, "favourable": null, "shopMemo": null, "appraise": null, "website": null, "memo": null, "payTypes": "\u6749\u5fb7\u5361", "shopTypes": "\u9910\u996e", "consumeTypes": null, "cookTypes": null, "orderNum": 1000, "card4no": null, "card4noAcc": null, "district2": 418, "searchScope": null, "status": 1, "address": "\u5f20\u6768\u8def601\u53f7\u4e00\u5c42A-4\u5355\u5143", "name": "\u5409\u91ce\u5bb6 \u5f20\u6768\u8def\u5e97", "id": 135763, "pageNo": 0, "pageCount": null, "pageSize": 10, "ids": null, "endTime": null, "startTime": null}, {"cardNumFive": null, "isSupportYj": null, "cityName": null, "districtName": null, "shopinfo": {"mid": "888888858120684", "good_flag": null, "new_flag": null, "short_name": "\u5409\u91ce\u5bb6", "short_name_pinyin": "jiyejia", "status": null, "address": null, "name": null, "id": "36387"}, "mid": "888888858120684", "shopId": "36387", "netid": null, "province": 901, "district": 601, "zipcode": null, "telephone": "18821135513", "posDate": "20100916", "destineTel": null, "togoTel": null, "trafficWay": null, "signBuilding": null, "businessArea": null, "selfRoom": null, "businessTime": null, "stall": null, "consume": null, "serviceFei": null, "favourable": null, "shopMemo": null, "appraise": null, "website": null, "memo": null, "payTypes": "\u6749\u5fb7\u5361", "shopTypes": "\u9910\u996e", "consumeTypes": null, "cookTypes": null, "orderNum": 1000, "card4no": null, "card4noAcc": null, "district2": 418, "searchScope": null, "status": 1, "address": "\u4e0a\u5357\u8def3521\u53f7", "name": "\u5409\u91ce\u5bb6 \u4e0a\u5357\u5e97", "id": 151429, "pageNo": 0, "pageCount": null, "pageSize": 10, "ids": null, "endTime": null, "startTime": null}, {"cardNumFive": null, "isSupportYj": null, "cityName": null, "districtName": null, "shopinfo": {"mid": "888888858120684", "good_flag": null, "new_flag": null, "short_name": "\u5409\u91ce\u5bb6", "short_name_pinyin": "jiyejia", "status": null, "address": null, "name": null, "id": "36387"}, "mid": "888888858120684", "shopId": "36387", "netid": null, "province": 901, "district": 601, "zipcode": null, "telephone": "50898832", "posDate": "20100916", "destineTel": null, "togoTel": null, "trafficWay": null, "signBuilding": null, "businessArea": null, "selfRoom": null, "businessTime": null, "stall": null, "consume": null, "serviceFei": null, "favourable": null, "shopMemo": null, "appraise": null, "website": null, "memo": null, "payTypes": "\u6749\u5fb7\u5361", "shopTypes": "\u9910\u996e", "consumeTypes": null, "cookTypes": null, "orderNum": 1000, "card4no": null, "card4noAcc": null, "district2": 418, "searchScope": null, "status": 1, "address": "\u6768\u9ad8\u5357\u8def1126\u53f7", "name": "\u5409\u91ce\u5bb6 \u6768\u9ad8\u5e97", "id": 151431, "pageNo": 0, "pageCount": null, "pageSize": 10, "ids": null, "endTime": null, "startTime": null}, {"cardNumFive": null, "isSupportYj": null, "cityName": null, "districtName": null, "shopinfo": {"mid": "888888858120684", "good_flag": null, "new_flag": null, "short_name": "\u5409\u91ce\u5bb6", "short_name_pinyin": "jiyejia", "status": null, "address": null, "name": null, "id": "31954"}, "mid": "888888858120684", "shopId": "31954", "netid": null, "province": 901, "district": 601, "zipcode": null, "telephone": "60298112", "posDate": null, "destineTel": null, "togoTel": null, "trafficWay": null, "signBuilding": null, "businessArea": null, "selfRoom": null, "businessTime": null, "stall": null, "consume": null, "serviceFei": null, "favourable": null, "shopMemo": null, "appraise": null, "website": null, "memo": null, "payTypes": "\u6749\u5fb7\u5361", "shopTypes": "\u9910\u996e", "consumeTypes": null, "cookTypes": null, "orderNum": 1000, "card4no": null, "card4noAcc": null, "district2": 403, "searchScope": null, "status": 1, "address": "\u5b9c\u5c71\u8def425\u53f7\u5730\u4e0b2\u697c06-07\u5546\u94fa", "name": "\u5409\u91ce\u5bb6 \u5149\u542f\u57ce\u5e97", "id": 171497, "pageNo": 0, "pageCount": null, "pageSize": 10, "ids": null, "endTime": null, "startTime": null}, {"cardNumFive": null, "isSupportYj": null, "cityName": null, "districtName": null, "shopinfo": {"mid": "888888857340047", "good_flag": "2", "new_flag": "2", "short_name": "JOURDENESS", "short_name_pinyin": "jourdeness", "status": null, "address": null, "name": null, "id": "31036"}, "mid": "888888857340047", "shopId": "31036", "netid": null, "province": 901, "district": 601, "zipcode": null, "telephone": "55056122", "posDate": null, "destineTel": null, "togoTel": null, "trafficWay": "\u5730\u94c11\u30018\u53f7\u7ebf\uff0c\u516c\u4ea418\u8def", "signBuilding": null, "businessArea": null, "selfRoom": null, "businessTime": "7:30~20:30", "stall": null, "consume": null, "serviceFei": null, "favourable": null, "shopMemo": null, "appraise": null, "website": null, "memo": null, "payTypes": "\u6749\u5fb7\u5361", "shopTypes": "\u4e13\u5356", "consumeTypes": null, "cookTypes": null, "orderNum": 1000, "card4no": null, "card4noAcc": null, "district2": 407, "searchScope": null, "status": 1, "address": "\u56fd\u6743\u4e1c\u8def138\u53f7", "name": "JOURDENESS \u56fd\u6743\u4e1c\u8def\u5e97", "id": 132043, "pageNo": 0, "pageCount": null, "pageSize": 10, "ids": null, "endTime": null, "startTime": null}, {"cardNumFive": null, "isSupportYj": null, "cityName": null, "districtName": null, "shopinfo": {"mid": "888888859320001", "good_flag": "2", "new_flag": "2", "short_name": "\u89c9\u749e\u8f69", "short_name_pinyin": "juepuxuan", "status": null, "address": null, "name": null, "id": "32233"}, "mid": "888888859320001", "shopId": "32233", "netid": null, "province": 901, "district": 601, "zipcode": null, "telephone": "65871301", "posDate": "20080108", "destineTel": null, "togoTel": null, "trafficWay": "\u516c\u4ea418 \u5730\u94c1\u4e09\u53f7\u7ebf \u65c5\u6e3810\u53f7\u7ebf", "signBuilding": null, "businessArea": "100\u5e73\u65b9\u7c73", "selfRoom": null, "businessTime": "8:00~22:00", "stall": null, "consume": null, "serviceFei": null, "favourable": null, "shopMemo": "\u7389\u5668,\u53e4\u73a9\u4e13\u5356", "appraise": null, "website": null, "memo": null, "payTypes": "\u6749\u5fb7\u5361", "shopTypes": "\u4e13\u5356", "consumeTypes": null, "cookTypes": null, "orderNum": 1000, "card4no": null, "card4noAcc": null, "district2": 408, "searchScope": null, "status": 1, "address": "\u591a\u4f26\u8def152\u53f7", "name": "\u89c9\u749e\u8f69 \u591a\u4f26\u8def\u5e97", "id": 137274, "pageNo": 0, "pageCount": null, "pageSize": 10, "ids": null, "endTime": null, "startTime": null}, {"cardNumFive": null, "isSupportYj": null, "cityName": null, "districtName": null, "shopinfo": {"mid": "888002153110229", "good_flag": null, "new_flag": null, "short_name": "Juicy Couture", "short_name_pinyin": "juicycouture", "status": null, "address": null, "name": null, "id": "41198"}, "mid": "888002153110229", "shopId": "41198", "netid": null, "province": 901, "district": 601, "zipcode": null, "telephone": "38820792", "posDate": null, "destineTel": null, "togoTel": null, "trafficWay": null, "signBuilding": null, "businessArea": null, "selfRoom": null, "businessTime": null, "stall": null, "consume": null, "serviceFei": null, "favourable": null, "shopMemo": null, "appraise": null, "website": null, "memo": null, "payTypes": "\u6749\u5fb7\u5361", "shopTypes": "\u4e13\u5356", "consumeTypes": null, "cookTypes": null, "orderNum": 1000, "card4no": null, "card4noAcc": null, "district2": 418, "searchScope": null, "status": 1, "address": "\u4e16\u7eaa\u5927\u90538\u53f73\u697c13\u53f7\u94fa", "name": "Juicy Couture \u56fd\u91d1\u4e2d\u5fc3\u5e97", "id": 180401, "pageNo": 0, "pageCount": null, "pageSize": 10, "ids": null, "endTime": null, "startTime": null}, {"cardNumFive": null, "isSupportYj": null, "cityName": null, "districtName": null, "shopinfo": {"mid": "888002153110229", "good_flag": null, "new_flag": null, "short_name": "Juicy Couture", "short_name_pinyin": "juicycouture", "status": null, "address": null, "name": null, "id": "41198"}, "mid": "888002153110229", "shopId": "41198", "netid": null, "province": 901, "district": 601, "zipcode": null, "telephone": "38820792", "posDate": null, "destineTel": null, "togoTel": null, "trafficWay": null, "signBuilding": null, "businessArea": null, "selfRoom": null, "businessTime": null, "stall": null, "consume": null, "serviceFei": null, "favourable": null, "shopMemo": null, "appraise": null, "website": null, "memo": null, "payTypes": "\u6749\u5fb7\u5361", "shopTypes": "\u4e13\u5356", "consumeTypes": null, "cookTypes": null, "orderNum": 1000, "card4no": null, "card4noAcc": null, "district2": 401, "searchScope": null, "status": 1, "address": "\u897f\u85cf\u4e2d\u8def268\u53f71\u697c", "name": "Juicy Couture \u6765\u798f\u58eb\u5e97", "id": 180403, "pageNo": 0, "pageCount": null, "pageSize": 10, "ids": null, "endTime": null, "startTime": null}, {"cardNumFive": null, "isSupportYj": null, "cityName": null, "districtName": null, "shopinfo": {"mid": "888002154510033", "good_flag": "2", "new_flag": "1", "short_name": "\u541b\u6021\u8336\u5177", "short_name_pinyin": "junyichaju", "status": null, "address": null, "name": null, "id": "32235"}, "mid": "888002154510033", "shopId": "32235", "netid": null, "province": 901, "district": 601, "zipcode": null, "telephone": "66527525", "posDate": "20100624", "destineTel": null, "togoTel": null, "trafficWay": null, "signBuilding": null, "businessArea": null, "selfRoom": null, "businessTime": null, "stall": null, "consume": null, "serviceFei": null, "favourable": null, "shopMemo": null, "appraise": null, "website": null, "memo": null, "payTypes": "\u6749\u5fb7\u5361", "shopTypes": "\u96f6\u552e", "consumeTypes": null, "cookTypes": null, "orderNum": 1000, "card4no": null, "card4noAcc": null, "district2": 416, "searchScope": null, "status": 1, "address": "\u5171\u548c\u65b0\u8def1536\u53f7\u5927\u5b81\u8336\u57ce2311\u5ba4", "name": "\u541b\u6021\u8336\u5177 \u5171\u548c\u65b0\u8def\u5e97", "id": 137276, "pageNo": 0, "pageCount": null, "pageSize": 10, "ids": null, "endTime": null, "startTime": null}, {"cardNumFive": null, "isSupportYj": null, "cityName": null, "districtName": null, "shopinfo": {"mid": "888002158122908", "good_flag": "2", "new_flag": "2", "short_name": "\u805a\u670b\u53cb", "short_name_pinyin": "jvpengyou", "status": null, "address": null, "name": null, "id": "476799491169583104"}, "mid": "888002158122908", "shopId": "476799491169583104", "netid": null, "province": 901, "district": 601, "zipcode": null, "telephone": null, "posDate": null, "destineTel": null, "togoTel": null, "trafficWay": null, "signBuilding": null, "businessArea": null, "selfRoom": null, "businessTime": null, "stall": null, "consume": null, "serviceFei": null, "favourable": null, "shopMemo": null, "appraise": null, "website": null, "memo": null, "payTypes": "", "shopTypes": null, "consumeTypes": null, "cookTypes": null, "orderNum": null, "card4no": null, "card4noAcc": null, "district2": 418, "searchScope": null, "status": 1, "address": "\u9f99\u4e1c\u5927\u90533000\u53f710\u53f7\u697c", "name": "\u805a\u670b\u53cb", "id": 476799489617690624, "pageNo": 0, "pageCount": null, "pageSize": 10, "ids": null, "endTime": null, "startTime": null}], "pageLimit": 3870, "size": 10}