{"pageCount": 1095, "count": 10942, "pageNo": 383, "subShopInfo": {"cardNumFive": "", "isSupportYj": "", "cityName": null, "districtName": null, "shopinfo": {"mid": null, "good_flag": null, "new_flag": null, "short_name": null, "short_name_pinyin": null, "status": null, "address": "", "name": "", "id": null}, "mid": null, "shopId": null, "netid": null, "province": 901, "district": null, "zipcode": null, "telephone": null, "posDate": null, "destineTel": null, "togoTel": null, "trafficWay": null, "signBuilding": null, "businessArea": null, "selfRoom": null, "businessTime": null, "stall": null, "consume": null, "serviceFei": null, "favourable": null, "shopMemo": "1", "appraise": null, "website": null, "memo": null, "payTypes": "", "shopTypes": "", "consumeTypes": null, "cookTypes": null, "orderNum": null, "card4no": null, "card4noAcc": null, "district2": null, "searchScope": null, "status": null, "address": "", "name": null, "id": null, "pageNo": 382, "pageCount": null, "pageSize": 10, "ids": null, "endTime": null, "startTime": null}, "list": [{"cardNumFive": null, "isSupportYj": null, "cityName": null, "districtName": null, "shopinfo": {"mid": "888888852110023", "good_flag": "2", "new_flag": "2", "short_name": "\u4e5d\u661f\u7535\u5b50", "short_name_pinyin": "jiuxingdianzi", "status": null, "address": null, "name": null, "id": "32199"}, "mid": "888888852110023", "shopId": "32199", "netid": null, "province": 901, "district": 601, "zipcode": null, "telephone": "13122598619", "posDate": "200909", "destineTel": null, "togoTel": null, "trafficWay": "\u516c\u4ea492\u3001\u4e0a\u4f58\u7ebf\u3001953\u3001735", "signBuilding": null, "businessArea": null, "selfRoom": null, "businessTime": "8:30~21:30", "stall": null, "consume": null, "serviceFei": null, "favourable": null, "shopMemo": null, "appraise": null, "website": null, "memo": null, "payTypes": "\u6749\u5fb7\u5361", "shopTypes": "\u4e13\u5356", "consumeTypes": null, "cookTypes": null, "orderNum": 1000, "card4no": null, "card4noAcc": null, "district2": 409, "searchScope": null, "status": 1, "address": "\u4e09\u671f9\u5e622.4.6.8.10\u53f7", "name": "\u4e5d\u661f\u7535\u5b50 \u9f99\u9e4f\u9676\u74f7\u6709\u9650\u516c\u53f8_\u4e5d\u661f\u5e97", "id": 137114, "pageNo": 0, "pageCount": null, "pageSize": 10, "ids": null, "endTime": null, "startTime": null}, {"cardNumFive": null, "isSupportYj": null, "cityName": null, "districtName": null, "shopinfo": {"mid": "888888852110023", "good_flag": "2", "new_flag": "2", "short_name": "\u4e5d\u661f\u7535\u5b50", "short_name_pinyin": "jiuxingdianzi", "status": null, "address": null, "name": null, "id": "32199"}, "mid": "888888852110023", "shopId": "32199", "netid": null, "province": 901, "district": 601, "zipcode": null, "telephone": "13819729202", "posDate": "200909", "destineTel": null, "togoTel": null, "trafficWay": "\u516c\u4ea492\u3001\u4e0a\u4f58\u7ebf\u3001953\u3001735", "signBuilding": null, "businessArea": null, "selfRoom": null, "businessTime": "8:30~21:30", "stall": null, "consume": null, "serviceFei": null, "favourable": null, "shopMemo": null, "appraise": null, "website": null, "memo": null, "payTypes": "\u6749\u5fb7\u5361", "shopTypes": "\u4e13\u5356", "consumeTypes": null, "cookTypes": null, "orderNum": 1000, "card4no": null, "card4noAcc": null, "district2": 409, "searchScope": null, "status": 1, "address": "\u4e09\u533a14\u5e6213\u53f7", "name": "\u4e5d\u661f\u7535\u5b50 \u7f8e\u754c\u4e94\u91d1\u7ecf\u8425\u90e8_\u4e5d\u661f\u5e97", "id": 137116, "pageNo": 0, "pageCount": null, "pageSize": 10, "ids": null, "endTime": null, "startTime": null}, {"cardNumFive": null, "isSupportYj": null, "cityName": null, "districtName": null, "shopinfo": {"mid": "888888852110023", "good_flag": "2", "new_flag": "2", "short_name": "\u4e5d\u661f\u7535\u5b50", "short_name_pinyin": "jiuxingdianzi", "status": null, "address": null, "name": null, "id": "32199"}, "mid": "888888852110023", "shopId": "32199", "netid": null, "province": 901, "district": 601, "zipcode": null, "telephone": "64613650", "posDate": "200909", "destineTel": null, "togoTel": null, "trafficWay": "\u516c\u4ea492\u3001\u4e0a\u4f58\u7ebf\u3001953\u3001735", "signBuilding": null, "businessArea": null, "selfRoom": null, "businessTime": "8:30~21:30", "stall": null, "consume": null, "serviceFei": null, "favourable": null, "shopMemo": null, "appraise": null, "website": null, "memo": null, "payTypes": "\u6749\u5fb7\u5361", "shopTypes": "\u4e13\u5356", "consumeTypes": null, "cookTypes": null, "orderNum": 1000, "card4no": null, "card4noAcc": null, "district2": 409, "searchScope": null, "status": 1, "address": "\u73af\u4e1c\u94a2\u7ed3\u6784\u623f103-112\u53f7", "name": "\u4e5d\u661f\u7535\u5b50 \u540d\u9f0e\u5b9e\u4e1a\u6709\u9650\u516c\u53f8_\u4e5d\u661f\u5e97", "id": 137120, "pageNo": 0, "pageCount": null, "pageSize": 10, "ids": null, "endTime": null, "startTime": null}, {"cardNumFive": null, "isSupportYj": null, "cityName": null, "districtName": null, "shopinfo": {"mid": "888888852110023", "good_flag": "2", "new_flag": "2", "short_name": "\u4e5d\u661f\u7535\u5b50", "short_name_pinyin": "jiuxingdianzi", "status": null, "address": null, "name": null, "id": "32199"}, "mid": "888888852110023", "shopId": "32199", "netid": null, "province": 901, "district": 601, "zipcode": null, "telephone": "34101297", "posDate": "200909", "destineTel": null, "togoTel": null, "trafficWay": "\u516c\u4ea492\u3001\u4e0a\u4f58\u7ebf\u3001953\u3001735", "signBuilding": null, "businessArea": null, "selfRoom": null, "businessTime": "8:30~21:30", "stall": null, "consume": null, "serviceFei": null, "favourable": null, "shopMemo": null, "appraise": null, "website": null, "memo": null, "payTypes": "\u6749\u5fb7\u5361", "shopTypes": "\u4e13\u5356", "consumeTypes": null, "cookTypes": null, "orderNum": 1000, "card4no": null, "card4noAcc": null, "district2": 409, "searchScope": null, "status": 1, "address": "\u56db\u533a21\u5e621-6\u300120-26\u53f7", "name": "\u4e5d\u661f\u7535\u5b50 \u660e\u559c\u5de5\u8d38\u6709\u9650\u516c\u53f8_\u4e5d\u661f\u5e97", "id": 137122, "pageNo": 0, "pageCount": null, "pageSize": 10, "ids": null, "endTime": null, "startTime": null}, {"cardNumFive": null, "isSupportYj": null, "cityName": null, "districtName": null, "shopinfo": {"mid": "888888852110023", "good_flag": "2", "new_flag": "2", "short_name": "\u4e5d\u661f\u7535\u5b50", "short_name_pinyin": "jiuxingdianzi", "status": null, "address": null, "name": null, "id": "32199"}, "mid": "888888852110023", "shopId": "32199", "netid": null, "province": 901, "district": 601, "zipcode": null, "telephone": null, "posDate": null, "destineTel": null, "togoTel": null, "trafficWay": "92\u3001953\u3001\u4e0a\u4f58\u7ebf", "signBuilding": null, "businessArea": null, "selfRoom": null, "businessTime": "8:30~21:30", "stall": null, "consume": null, "serviceFei": null, "favourable": null, "shopMemo": null, "appraise": null, "website": null, "memo": null, "payTypes": "\u6749\u5fb7\u5361", "shopTypes": "\u4e13\u5356", "consumeTypes": null, "cookTypes": null, "orderNum": 1000, "card4no": null, "card4noAcc": null, "district2": 409, "searchScope": null, "status": 1, "address": "\u9676\u74f7\u4e09\u671f2\u5e6215\u300117\u53f7", "name": "\u4e5d\u661f\u7535\u5b50 \u4e03\u5b9d\u5b89\u5a1c\u5efa\u6750\u5546\u884c_\u4e5d\u661f\u5e97", "id": 137125, "pageNo": 0, "pageCount": null, "pageSize": 10, "ids": null, "endTime": null, "startTime": null}, {"cardNumFive": null, "isSupportYj": null, "cityName": null, "districtName": null, "shopinfo": {"mid": "888888852110023", "good_flag": "2", "new_flag": "2", "short_name": "\u4e5d\u661f\u7535\u5b50", "short_name_pinyin": "jiuxingdianzi", "status": null, "address": null, "name": null, "id": "32199"}, "mid": "888888852110023", "shopId": "32199", "netid": null, "province": 901, "district": 601, "zipcode": null, "telephone": "13916261231 64596125", "posDate": "200909", "destineTel": null, "togoTel": null, "trafficWay": "\u516c\u4ea492\u3001\u4e0a\u4f58\u7ebf\u3001953\u3001735", "signBuilding": null, "businessArea": null, "selfRoom": null, "businessTime": null, "stall": null, "consume": null, "serviceFei": null, "favourable": null, "shopMemo": null, "appraise": null, "website": null, "memo": null, "payTypes": "\u6749\u5fb7\u5361", "shopTypes": "\u4e13\u5356", "consumeTypes": null, "cookTypes": null, "orderNum": 1000, "card4no": null, "card4noAcc": null, "district2": 409, "searchScope": null, "status": 1, "address": "\u4e8c\u533a9\u680b1\u53f7", "name": "\u4e5d\u661f\u7535\u5b50 \u4e03\u5b9d\u9648\u6797\u4e94\u91d1\u7535\u5668\u7ecf\u8425\u90e8_\u661f\u4e1c\u8def\u5e97", "id": 137130, "pageNo": 0, "pageCount": null, "pageSize": 10, "ids": null, "endTime": null, "startTime": null}, {"cardNumFive": null, "isSupportYj": null, "cityName": null, "districtName": null, "shopinfo": {"mid": "888888852110023", "good_flag": "2", "new_flag": "2", "short_name": "\u4e5d\u661f\u7535\u5b50", "short_name_pinyin": "jiuxingdianzi", "status": null, "address": null, "name": null, "id": "32199"}, "mid": "888888852110023", "shopId": "32199", "netid": null, "province": 901, "district": 601, "zipcode": null, "telephone": "64613493", "posDate": "200909", "destineTel": null, "togoTel": null, "trafficWay": "\u516c\u4ea492\u3001\u4e0a\u4f58\u7ebf\u3001953\u3001735", "signBuilding": null, "businessArea": null, "selfRoom": null, "businessTime": "09:00~21:00", "stall": null, "consume": null, "serviceFei": null, "favourable": null, "shopMemo": null, "appraise": null, "website": null, "memo": null, "payTypes": "\u6749\u5fb7\u5361", "shopTypes": "\u4e13\u5356", "consumeTypes": null, "cookTypes": null, "orderNum": 1000, "card4no": null, "card4noAcc": null, "district2": 409, "searchScope": null, "status": 1, "address": "\u661f\u4e2d\u8def6\u53f7\u623f2-3\u53f7", "name": "\u4e5d\u661f\u7535\u5b50 \u4e03\u5b9d\u51a0\u661f\u9600\u95e8\u7ba1\u9053\u7ecf\u8425\u90e8_\u661f\u4e2d\u8def\u5e97", "id": 137133, "pageNo": 0, "pageCount": null, "pageSize": 10, "ids": null, "endTime": null, "startTime": null}, {"cardNumFive": null, "isSupportYj": null, "cityName": null, "districtName": null, "shopinfo": {"mid": "888888852110023", "good_flag": "2", "new_flag": "2", "short_name": "\u4e5d\u661f\u7535\u5b50", "short_name_pinyin": "jiuxingdianzi", "status": null, "address": null, "name": null, "id": "32199"}, "mid": "888888852110023", "shopId": "32199", "netid": null, "province": 901, "district": 601, "zipcode": null, "telephone": "64611760", "posDate": "200909", "destineTel": null, "togoTel": null, "trafficWay": "\u516c\u4ea492\u3001\u4e0a\u4f58\u7ebf\u3001953\u3001735", "signBuilding": null, "businessArea": null, "selfRoom": null, "businessTime": "09:00~21:00", "stall": null, "consume": null, "serviceFei": null, "favourable": null, "shopMemo": null, "appraise": null, "website": null, "memo": null, "payTypes": "\u6749\u5fb7\u5361", "shopTypes": "\u4e13\u5356", "consumeTypes": null, "cookTypes": null, "orderNum": 1000, "card4no": null, "card4noAcc": null, "district2": 409, "searchScope": null, "status": 1, "address": "\u661f\u4e2d\u8def6\u53f7\u623f4-5\u53f7", "name": "\u4e5d\u661f\u7535\u5b50 \u4e03\u5b9d\u4e5d\u9f99\u9632\u6c34\u6750\u6599\u7ecf\u8425\u90e8_\u661f\u4e2d\u8def\u5e97", "id": 137143, "pageNo": 0, "pageCount": null, "pageSize": 10, "ids": null, "endTime": null, "startTime": null}, {"cardNumFive": null, "isSupportYj": null, "cityName": null, "districtName": null, "shopinfo": {"mid": "888888852110023", "good_flag": "2", "new_flag": "2", "short_name": "\u4e5d\u661f\u7535\u5b50", "short_name_pinyin": "jiuxingdianzi", "status": null, "address": null, "name": null, "id": "32199"}, "mid": "888888852110023", "shopId": "32199", "netid": null, "province": 901, "district": 601, "zipcode": null, "telephone": "13002158038", "posDate": "200909", "destineTel": null, "togoTel": null, "trafficWay": "\u516c\u4ea492\u3001\u4e0a\u4f58\u7ebf\u3001953\u3001735", "signBuilding": null, "businessArea": null, "selfRoom": null, "businessTime": "8:30~21:30", "stall": null, "consume": null, "serviceFei": null, "favourable": null, "shopMemo": null, "appraise": null, "website": null, "memo": null, "payTypes": "\u6749\u5fb7\u5361", "shopTypes": "\u4e13\u5356", "consumeTypes": null, "cookTypes": null, "orderNum": 1000, "card4no": null, "card4noAcc": null, "district2": 409, "searchScope": null, "status": 1, "address": "\u9676\u74f7\u535716\u5e623-6.18\u53f7", "name": "\u4e5d\u661f\u7535\u5b50 \u4e03\u5b9d\u79cb\u534e\u9676\u74f7\u7ecf\u8425\u90e8_\u4e5d\u661f\u5e97", "id": 137152, "pageNo": 0, "pageCount": null, "pageSize": 10, "ids": null, "endTime": null, "startTime": null}, {"cardNumFive": null, "isSupportYj": null, "cityName": null, "districtName": null, "shopinfo": {"mid": "888888852110023", "good_flag": "2", "new_flag": "2", "short_name": "\u4e5d\u661f\u7535\u5b50", "short_name_pinyin": "jiuxingdianzi", "status": null, "address": null, "name": null, "id": "32199"}, "mid": "888888852110023", "shopId": "32199", "netid": null, "province": 901, "district": 601, "zipcode": null, "telephone": "54145408 13916613560", "posDate": "200909", "destineTel": null, "togoTel": null, "trafficWay": "\u516c\u4ea492\u3001\u4e0a\u4f58\u7ebf\u3001953\u3001735", "signBuilding": null, "businessArea": null, "selfRoom": null, "businessTime": "09:00~21:00", "stall": null, "consume": null, "serviceFei": null, "favourable": null, "shopMemo": null, "appraise": null, "website": null, "memo": null, "payTypes": "\u6749\u5fb7\u5361", "shopTypes": "\u4e13\u5356", "consumeTypes": null, "cookTypes": null, "orderNum": 1000, "card4no": null, "card4noAcc": null, "district2": 409, "searchScope": null, "status": 1, "address": "\u661f\u5409\u8def29\u5e627-12\u53f7", "name": "\u4e5d\u661f\u7535\u5b50 \u4e03\u5b9d\u5929\u4e30\u5efa\u6750\u7ecf\u8425\u90e8_\u661f\u5409\u8def\u5e97", "id": 137154, "pageNo": 0, "pageCount": null, "pageSize": 10, "ids": null, "endTime": null, "startTime": null}], "pageLimit": 3820, "size": 10}