{"pageCount": 1095, "count": 10942, "pageNo": 395, "subShopInfo": {"cardNumFive": "", "isSupportYj": "", "cityName": null, "districtName": null, "shopinfo": {"mid": null, "good_flag": null, "new_flag": null, "short_name": null, "short_name_pinyin": null, "status": null, "address": "", "name": "", "id": null}, "mid": null, "shopId": null, "netid": null, "province": 901, "district": null, "zipcode": null, "telephone": null, "posDate": null, "destineTel": null, "togoTel": null, "trafficWay": null, "signBuilding": null, "businessArea": null, "selfRoom": null, "businessTime": null, "stall": null, "consume": null, "serviceFei": null, "favourable": null, "shopMemo": "1", "appraise": null, "website": null, "memo": null, "payTypes": "", "shopTypes": "", "consumeTypes": null, "cookTypes": null, "orderNum": null, "card4no": null, "card4noAcc": null, "district2": null, "searchScope": null, "status": null, "address": "", "name": null, "id": null, "pageNo": 394, "pageCount": null, "pageSize": 10, "ids": null, "endTime": null, "startTime": null}, "list": [{"cardNumFive": null, "isSupportYj": null, "cityName": null, "districtName": null, "shopinfo": {"mid": "888002154119986", "good_flag": null, "new_flag": null, "short_name": "\u53ef\u7684\u4fbf\u5229", "short_name_pinyin": "kedibianli", "status": null, "address": null, "name": null, "id": "37201"}, "mid": "888002154119986", "shopId": "37201", "netid": null, "province": 901, "district": 601, "zipcode": null, "telephone": "62660748", "posDate": null, "destineTel": null, "togoTel": null, "trafficWay": null, "signBuilding": null, "businessArea": null, "selfRoom": null, "businessTime": null, "stall": null, "consume": null, "serviceFei": null, "favourable": null, "shopMemo": null, "appraise": null, "website": null, "memo": null, "payTypes": "\u6749\u5fb7\u5361", "shopTypes": "\u4fbf\u5229\u5e97", "consumeTypes": null, "cookTypes": null, "orderNum": 1000, "card4no": null, "card4noAcc": null, "district2": 404, "searchScope": null, "status": 1, "address": "\u6d77\u9632\u8def189-1\u53f7", "name": "\u53ef\u7684\u4fbf\u5229 \u6d77\u660c\u5e97", "id": 156876, "pageNo": 0, "pageCount": null, "pageSize": 10, "ids": null, "endTime": null, "startTime": null}, {"cardNumFive": null, "isSupportYj": null, "cityName": null, "districtName": null, "shopinfo": {"mid": "888002154119986", "good_flag": null, "new_flag": null, "short_name": "\u53ef\u7684\u4fbf\u5229", "short_name_pinyin": "kedibianli", "status": null, "address": null, "name": null, "id": "37201"}, "mid": "888002154119986", "shopId": "37201", "netid": null, "province": 901, "district": 601, "zipcode": null, "telephone": "65375046", "posDate": null, "destineTel": null, "togoTel": null, "trafficWay": null, "signBuilding": null, "businessArea": null, "selfRoom": null, "businessTime": null, "stall": null, "consume": null, "serviceFei": null, "favourable": null, "shopMemo": null, "appraise": null, "website": null, "memo": null, "payTypes": "\u6749\u5fb7\u5361", "shopTypes": "\u4fbf\u5229\u5e97", "consumeTypes": null, "cookTypes": null, "orderNum": 1000, "card4no": null, "card4noAcc": null, "district2": 408, "searchScope": null, "status": 1, "address": "\u6d77\u95e8\u8def176-178\u53f7", "name": "\u53ef\u7684\u4fbf\u5229 \u6d77\u95e8\u5e97", "id": 156877, "pageNo": 0, "pageCount": null, "pageSize": 10, "ids": null, "endTime": null, "startTime": null}, {"cardNumFive": null, "isSupportYj": null, "cityName": null, "districtName": null, "shopinfo": {"mid": "888002154119986", "good_flag": null, "new_flag": null, "short_name": "\u53ef\u7684\u4fbf\u5229", "short_name_pinyin": "kedibianli", "status": null, "address": null, "name": null, "id": "37201"}, "mid": "888002154119986", "shopId": "37201", "netid": null, "province": 901, "district": 601, "zipcode": null, "telephone": "63062979", "posDate": null, "destineTel": null, "togoTel": null, "trafficWay": null, "signBuilding": null, "businessArea": null, "selfRoom": null, "businessTime": null, "stall": null, "consume": null, "serviceFei": null, "favourable": null, "shopMemo": null, "appraise": null, "website": null, "memo": null, "payTypes": "\u6749\u5fb7\u5361", "shopTypes": "\u4fbf\u5229\u5e97", "consumeTypes": null, "cookTypes": null, "orderNum": 1000, "card4no": null, "card4noAcc": null, "district2": 408, "searchScope": null, "status": 1, "address": "\u6d77\u5b81\u8def1125\u53f7", "name": "\u53ef\u7684\u4fbf\u5229 \u6d77\u5b81\u4e8c\u5e97", "id": 156878, "pageNo": 0, "pageCount": null, "pageSize": 10, "ids": null, "endTime": null, "startTime": null}, {"cardNumFive": null, "isSupportYj": null, "cityName": null, "districtName": null, "shopinfo": {"mid": "888002154119986", "good_flag": null, "new_flag": null, "short_name": "\u53ef\u7684\u4fbf\u5229", "short_name_pinyin": "kedibianli", "status": null, "address": null, "name": null, "id": "37201"}, "mid": "888002154119986", "shopId": "37201", "netid": null, "province": 901, "district": 601, "zipcode": null, "telephone": "65611560", "posDate": null, "destineTel": null, "togoTel": null, "trafficWay": null, "signBuilding": null, "businessArea": null, "selfRoom": null, "businessTime": null, "stall": null, "consume": null, "serviceFei": null, "favourable": null, "shopMemo": null, "appraise": null, "website": null, "memo": null, "payTypes": "\u6749\u5fb7\u5361", "shopTypes": "\u4fbf\u5229\u5e97", "consumeTypes": null, "cookTypes": null, "orderNum": 1000, "card4no": null, "card4noAcc": null, "district2": 407, "searchScope": null, "status": 1, "address": "\u90af\u90f8\u8def70\u53f7", "name": "\u53ef\u7684\u4fbf\u5229 \u90af\u90f8\u4e09\u5e97", "id": 156879, "pageNo": 0, "pageCount": null, "pageSize": 10, "ids": null, "endTime": null, "startTime": null}, {"cardNumFive": null, "isSupportYj": null, "cityName": null, "districtName": null, "shopinfo": {"mid": "888002154119986", "good_flag": null, "new_flag": null, "short_name": "\u53ef\u7684\u4fbf\u5229", "short_name_pinyin": "kedibianli", "status": null, "address": null, "name": null, "id": "37201"}, "mid": "888002154119986", "shopId": "37201", "netid": null, "province": 901, "district": 601, "zipcode": null, "telephone": "63775185", "posDate": null, "destineTel": null, "togoTel": null, "trafficWay": null, "signBuilding": null, "businessArea": null, "selfRoom": null, "businessTime": null, "stall": null, "consume": null, "serviceFei": null, "favourable": null, "shopMemo": null, "appraise": null, "website": null, "memo": null, "payTypes": "\u6749\u5fb7\u5361", "shopTypes": "\u4fbf\u5229\u5e97", "consumeTypes": null, "cookTypes": null, "orderNum": 1000, "card4no": null, "card4noAcc": null, "district2": 401, "searchScope": null, "status": 1, "address": "\u6cb3\u5357\u5357\u8def764\u53f7", "name": "\u53ef\u7684\u4fbf\u5229 \u6cb3\u5357\u5e97", "id": 156880, "pageNo": 0, "pageCount": null, "pageSize": 10, "ids": null, "endTime": null, "startTime": null}, {"cardNumFive": null, "isSupportYj": null, "cityName": null, "districtName": null, "shopinfo": {"mid": "888002154119986", "good_flag": null, "new_flag": null, "short_name": "\u53ef\u7684\u4fbf\u5229", "short_name_pinyin": "kedibianli", "status": null, "address": null, "name": null, "id": "37201"}, "mid": "888002154119986", "shopId": "37201", "netid": null, "province": 901, "district": 601, "zipcode": null, "telephone": "64020500", "posDate": null, "destineTel": null, "togoTel": null, "trafficWay": null, "signBuilding": null, "businessArea": null, "selfRoom": null, "businessTime": null, "stall": null, "consume": null, "serviceFei": null, "favourable": null, "shopMemo": null, "appraise": null, "website": null, "memo": null, "payTypes": "\u6749\u5fb7\u5361", "shopTypes": "\u4fbf\u5229\u5e97", "consumeTypes": null, "cookTypes": null, "orderNum": 1000, "card4no": null, "card4noAcc": null, "district2": 409, "searchScope": null, "status": 1, "address": "\u7ea2\u677e\u8def180\u53f7", "name": "\u53ef\u7684\u4fbf\u5229 \u91d1\u6c47\u5e97", "id": 156881, "pageNo": 0, "pageCount": null, "pageSize": 10, "ids": null, "endTime": null, "startTime": null}, {"cardNumFive": null, "isSupportYj": null, "cityName": null, "districtName": null, "shopinfo": {"mid": "888002154119986", "good_flag": null, "new_flag": null, "short_name": "\u53ef\u7684\u4fbf\u5229", "short_name_pinyin": "kedibianli", "status": null, "address": null, "name": null, "id": "37201"}, "mid": "888002154119986", "shopId": "37201", "netid": null, "province": 901, "district": 601, "zipcode": null, "telephone": "58832062", "posDate": null, "destineTel": null, "togoTel": null, "trafficWay": null, "signBuilding": null, "businessArea": null, "selfRoom": null, "businessTime": null, "stall": null, "consume": null, "serviceFei": null, "favourable": null, "shopMemo": null, "appraise": null, "website": null, "memo": null, "payTypes": "\u6749\u5fb7\u5361", "shopTypes": "\u4fbf\u5229\u5e97", "consumeTypes": null, "cookTypes": null, "orderNum": 1000, "card4no": null, "card4noAcc": null, "district2": 418, "searchScope": null, "status": 1, "address": "\u6d2a\u5c71\u8def122\u53f7", "name": "\u53ef\u7684\u4fbf\u5229 \u516d\u89d2\u4ead\u5e97", "id": 156882, "pageNo": 0, "pageCount": null, "pageSize": 10, "ids": null, "endTime": null, "startTime": null}, {"cardNumFive": null, "isSupportYj": null, "cityName": null, "districtName": null, "shopinfo": {"mid": "888002154119986", "good_flag": null, "new_flag": null, "short_name": "\u53ef\u7684\u4fbf\u5229", "short_name_pinyin": "kedibianli", "status": null, "address": null, "name": null, "id": "37201"}, "mid": "888002154119986", "shopId": "37201", "netid": null, "province": 901, "district": 601, "zipcode": null, "telephone": "64941101", "posDate": null, "destineTel": null, "togoTel": null, "trafficWay": null, "signBuilding": null, "businessArea": null, "selfRoom": null, "businessTime": null, "stall": null, "consume": null, "serviceFei": null, "favourable": null, "shopMemo": null, "appraise": null, "website": null, "memo": null, "payTypes": "\u6749\u5fb7\u5361", "shopTypes": "\u4fbf\u5229\u5e97", "consumeTypes": null, "cookTypes": null, "orderNum": 1000, "card4no": null, "card4noAcc": null, "district2": 403, "searchScope": null, "status": 1, "address": "\u8679\u6f15\u5357\u8def188\u53f7", "name": "\u53ef\u7684\u4fbf\u5229 \u8679\u6f15\u5e97", "id": 156883, "pageNo": 0, "pageCount": null, "pageSize": 10, "ids": null, "endTime": null, "startTime": null}, {"cardNumFive": null, "isSupportYj": null, "cityName": null, "districtName": null, "shopinfo": {"mid": "888002154119986", "good_flag": null, "new_flag": null, "short_name": "\u53ef\u7684\u4fbf\u5229", "short_name_pinyin": "kedibianli", "status": null, "address": null, "name": null, "id": "37201"}, "mid": "888002154119986", "shopId": "37201", "netid": null, "province": 901, "district": 601, "zipcode": null, "telephone": "54934202", "posDate": null, "destineTel": null, "togoTel": null, "trafficWay": null, "signBuilding": null, "businessArea": null, "selfRoom": null, "businessTime": null, "stall": null, "consume": null, "serviceFei": null, "favourable": null, "shopMemo": null, "appraise": null, "website": null, "memo": null, "payTypes": "\u6749\u5fb7\u5361", "shopTypes": "\u4fbf\u5229\u5e97", "consumeTypes": null, "cookTypes": null, "orderNum": 1000, "card4no": null, "card4noAcc": null, "district2": 409, "searchScope": null, "status": 1, "address": "\u8679\u6885\u8def263\u53f7", "name": "\u53ef\u7684\u4fbf\u5229 \u5e73\u9633\u5e97", "id": 156884, "pageNo": 0, "pageCount": null, "pageSize": 10, "ids": null, "endTime": null, "startTime": null}, {"cardNumFive": null, "isSupportYj": null, "cityName": null, "districtName": null, "shopinfo": {"mid": "888002154119986", "good_flag": null, "new_flag": null, "short_name": "\u53ef\u7684\u4fbf\u5229", "short_name_pinyin": "kedibianli", "status": null, "address": null, "name": null, "id": "37201"}, "mid": "888002154119986", "shopId": "37201", "netid": null, "province": 901, "district": 601, "zipcode": null, "telephone": "54160169", "posDate": null, "destineTel": null, "togoTel": null, "trafficWay": null, "signBuilding": null, "businessArea": null, "selfRoom": null, "businessTime": null, "stall": null, "consume": null, "serviceFei": null, "favourable": null, "shopMemo": null, "appraise": null, "website": null, "memo": null, "payTypes": "\u6749\u5fb7\u5361", "shopTypes": "\u4fbf\u5229\u5e97", "consumeTypes": null, "cookTypes": null, "orderNum": 1000, "card4no": null, "card4noAcc": null, "district2": 409, "searchScope": null, "status": 1, "address": "\u8679\u8398\u8def\u5e73\u5409\u4e8c\u6751179\u53f7", "name": "\u53ef\u7684\u4fbf\u5229 \u5e73\u5409\u5e97", "id": 156885, "pageNo": 0, "pageCount": null, "pageSize": 10, "ids": null, "endTime": null, "startTime": null}], "pageLimit": 3940, "size": 10}