{"pageCount": 1095, "count": 10942, "pageNo": 393, "subShopInfo": {"cardNumFive": "", "isSupportYj": "", "cityName": null, "districtName": null, "shopinfo": {"mid": null, "good_flag": null, "new_flag": null, "short_name": null, "short_name_pinyin": null, "status": null, "address": "", "name": "", "id": null}, "mid": null, "shopId": null, "netid": null, "province": 901, "district": null, "zipcode": null, "telephone": null, "posDate": null, "destineTel": null, "togoTel": null, "trafficWay": null, "signBuilding": null, "businessArea": null, "selfRoom": null, "businessTime": null, "stall": null, "consume": null, "serviceFei": null, "favourable": null, "shopMemo": "1", "appraise": null, "website": null, "memo": null, "payTypes": "", "shopTypes": "", "consumeTypes": null, "cookTypes": null, "orderNum": null, "card4no": null, "card4noAcc": null, "district2": null, "searchScope": null, "status": null, "address": "", "name": null, "id": null, "pageNo": 392, "pageCount": null, "pageSize": 10, "ids": null, "endTime": null, "startTime": null}, "list": [{"cardNumFive": null, "isSupportYj": null, "cityName": null, "districtName": null, "shopinfo": {"mid": "888002154119986", "good_flag": null, "new_flag": null, "short_name": "\u53ef\u7684\u4fbf\u5229", "short_name_pinyin": "kedibianli", "status": null, "address": null, "name": null, "id": "37201"}, "mid": "888002154119986", "shopId": "37201", "netid": null, "province": 901, "district": 601, "zipcode": null, "telephone": "57154387", "posDate": null, "destineTel": null, "togoTel": null, "trafficWay": null, "signBuilding": null, "businessArea": null, "selfRoom": null, "businessTime": null, "stall": null, "consume": null, "serviceFei": null, "favourable": null, "shopMemo": null, "appraise": null, "website": null, "memo": null, "payTypes": "\u6749\u5fb7\u5361", "shopTypes": "\u4fbf\u5229\u5e97", "consumeTypes": null, "cookTypes": null, "orderNum": 1000, "card4no": null, "card4noAcc": null, "district2": 413, "searchScope": null, "status": 1, "address": "\u6caa\u676d\u8def208\u53f7", "name": "\u53ef\u7684\u4fbf\u5229 \u897f\u6e21\u5e97", "id": 156850, "pageNo": 0, "pageCount": null, "pageSize": 10, "ids": null, "endTime": null, "startTime": null}, {"cardNumFive": null, "isSupportYj": null, "cityName": null, "districtName": null, "shopinfo": {"mid": "888002154119986", "good_flag": null, "new_flag": null, "short_name": "\u53ef\u7684\u4fbf\u5229", "short_name_pinyin": "kedibianli", "status": null, "address": null, "name": null, "id": "37201"}, "mid": "888002154119986", "shopId": "37201", "netid": null, "province": 901, "district": 601, "zipcode": null, "telephone": "52530052", "posDate": null, "destineTel": null, "togoTel": null, "trafficWay": null, "signBuilding": null, "businessArea": null, "selfRoom": null, "businessTime": null, "stall": null, "consume": null, "serviceFei": null, "favourable": null, "shopMemo": null, "appraise": null, "website": null, "memo": null, "payTypes": "\u6749\u5fb7\u5361", "shopTypes": "\u4fbf\u5229\u5e97", "consumeTypes": null, "cookTypes": null, "orderNum": 1000, "card4no": null, "card4noAcc": null, "district2": 408, "searchScope": null, "status": 1, "address": "\u8299\u84c9\u6c5f\u8def108\u53f7", "name": "\u53ef\u7684\u4fbf\u5229 \u8299\u4ed9\u5e97", "id": 156851, "pageNo": 0, "pageCount": null, "pageSize": 10, "ids": null, "endTime": null, "startTime": null}, {"cardNumFive": null, "isSupportYj": null, "cityName": null, "districtName": null, "shopinfo": {"mid": "888002154119986", "good_flag": null, "new_flag": null, "short_name": "\u53ef\u7684\u4fbf\u5229", "short_name_pinyin": "kedibianli", "status": null, "address": null, "name": null, "id": "37201"}, "mid": "888002154119986", "shopId": "37201", "netid": null, "province": 901, "district": 601, "zipcode": null, "telephone": "63742475", "posDate": null, "destineTel": null, "togoTel": null, "trafficWay": null, "signBuilding": null, "businessArea": null, "selfRoom": null, "businessTime": null, "stall": null, "consume": null, "serviceFei": null, "favourable": null, "shopMemo": null, "appraise": null, "website": null, "memo": null, "payTypes": "\u6749\u5fb7\u5361", "shopTypes": "\u4fbf\u5229\u5e97", "consumeTypes": null, "cookTypes": null, "orderNum": 1000, "card4no": null, "card4noAcc": null, "district2": 401, "searchScope": null, "status": 1, "address": "\u798f\u5efa\u5357\u8def27\u53f7", "name": "\u53ef\u7684\u4fbf\u5229 \u798f\u5357\u5e97", "id": 156852, "pageNo": 0, "pageCount": null, "pageSize": 10, "ids": null, "endTime": null, "startTime": null}, {"cardNumFive": null, "isSupportYj": null, "cityName": null, "districtName": null, "shopinfo": {"mid": "888002154119986", "good_flag": null, "new_flag": null, "short_name": "\u53ef\u7684\u4fbf\u5229", "short_name_pinyin": "kedibianli", "status": null, "address": null, "name": null, "id": "37201"}, "mid": "888002154119986", "shopId": "37201", "netid": null, "province": 901, "district": 601, "zipcode": null, "telephone": "58312001", "posDate": null, "destineTel": null, "togoTel": null, "trafficWay": null, "signBuilding": null, "businessArea": null, "selfRoom": null, "businessTime": null, "stall": null, "consume": null, "serviceFei": null, "favourable": null, "shopMemo": null, "appraise": null, "website": null, "memo": null, "payTypes": "\u6749\u5fb7\u5361", "shopTypes": "\u4fbf\u5229\u5e97", "consumeTypes": null, "cookTypes": null, "orderNum": 1000, "card4no": null, "card4noAcc": null, "district2": 418, "searchScope": null, "status": 1, "address": "\u798f\u5c71\u8def455\u53f7", "name": "\u53ef\u7684\u4fbf\u5229 \u798f\u5c71\u4e09\u5e97", "id": 156854, "pageNo": 0, "pageCount": null, "pageSize": 10, "ids": null, "endTime": null, "startTime": null}, {"cardNumFive": null, "isSupportYj": null, "cityName": null, "districtName": null, "shopinfo": {"mid": "888002154119986", "good_flag": null, "new_flag": null, "short_name": "\u53ef\u7684\u4fbf\u5229", "short_name_pinyin": "kedibianli", "status": null, "address": null, "name": null, "id": "37201"}, "mid": "888002154119986", "shopId": "37201", "netid": null, "province": 901, "district": 601, "zipcode": null, "telephone": "63221441", "posDate": null, "destineTel": null, "togoTel": null, "trafficWay": null, "signBuilding": null, "businessArea": null, "selfRoom": null, "businessTime": null, "stall": null, "consume": null, "serviceFei": null, "favourable": null, "shopMemo": null, "appraise": null, "website": null, "memo": null, "payTypes": "\u6749\u5fb7\u5361", "shopTypes": "\u4fbf\u5229\u5e97", "consumeTypes": null, "cookTypes": null, "orderNum": 1000, "card4no": null, "card4noAcc": null, "district2": 401, "searchScope": null, "status": 1, "address": "\u798f\u5dde\u8def300\u53f7", "name": "\u53ef\u7684\u4fbf\u5229 \u798f\u5dde\u4e8c\u5e97", "id": 156855, "pageNo": 0, "pageCount": null, "pageSize": 10, "ids": null, "endTime": null, "startTime": null}, {"cardNumFive": null, "isSupportYj": null, "cityName": null, "districtName": null, "shopinfo": {"mid": "888002154119986", "good_flag": null, "new_flag": null, "short_name": "\u53ef\u7684\u4fbf\u5229", "short_name_pinyin": "kedibianli", "status": null, "address": null, "name": null, "id": "37201"}, "mid": "888002154119986", "shopId": "37201", "netid": null, "province": 901, "district": 601, "zipcode": null, "telephone": "63320759", "posDate": null, "destineTel": null, "togoTel": null, "trafficWay": null, "signBuilding": null, "businessArea": null, "selfRoom": null, "businessTime": null, "stall": null, "consume": null, "serviceFei": null, "favourable": null, "shopMemo": null, "appraise": null, "website": null, "memo": null, "payTypes": "\u6749\u5fb7\u5361", "shopTypes": "\u4fbf\u5229\u5e97", "consumeTypes": null, "cookTypes": null, "orderNum": 1000, "card4no": null, "card4noAcc": null, "district2": 401, "searchScope": null, "status": 1, "address": "\u590d\u5174\u4e1c\u8def1\u53f7", "name": "\u53ef\u7684\u4fbf\u5229 \u590d\u6e21\u5e97", "id": 156856, "pageNo": 0, "pageCount": null, "pageSize": 10, "ids": null, "endTime": null, "startTime": null}, {"cardNumFive": null, "isSupportYj": null, "cityName": null, "districtName": null, "shopinfo": {"mid": "888002154119986", "good_flag": null, "new_flag": null, "short_name": "\u53ef\u7684\u4fbf\u5229", "short_name_pinyin": "kedibianli", "status": null, "address": null, "name": null, "id": "37201"}, "mid": "888002154119986", "shopId": "37201", "netid": null, "province": 901, "district": 601, "zipcode": null, "telephone": "62791164", "posDate": null, "destineTel": null, "togoTel": null, "trafficWay": null, "signBuilding": null, "businessArea": null, "selfRoom": null, "businessTime": null, "stall": null, "consume": null, "serviceFei": null, "favourable": null, "shopMemo": null, "appraise": null, "website": null, "memo": null, "payTypes": "\u6749\u5fb7\u5361", "shopTypes": "\u4fbf\u5229\u5e97", "consumeTypes": null, "cookTypes": null, "orderNum": 1000, "card4no": null, "card4noAcc": null, "district2": 404, "searchScope": null, "status": 1, "address": "\u5bcc\u6c11\u8def59\u53f7", "name": "\u53ef\u7684\u4fbf\u5229 \u5bcc\u6c11\u5e97", "id": 156857, "pageNo": 0, "pageCount": null, "pageSize": 10, "ids": null, "endTime": null, "startTime": null}, {"cardNumFive": null, "isSupportYj": null, "cityName": null, "districtName": null, "shopinfo": {"mid": "888002154119986", "good_flag": null, "new_flag": null, "short_name": "\u53ef\u7684\u4fbf\u5229", "short_name_pinyin": "kedibianli", "status": null, "address": null, "name": null, "id": "37201"}, "mid": "888002154119986", "shopId": "37201", "netid": null, "province": 901, "district": 601, "zipcode": null, "telephone": "52200125", "posDate": null, "destineTel": null, "togoTel": null, "trafficWay": null, "signBuilding": null, "businessArea": null, "selfRoom": null, "businessTime": null, "stall": null, "consume": null, "serviceFei": null, "favourable": null, "shopMemo": null, "appraise": null, "website": null, "memo": null, "payTypes": "\u6749\u5fb7\u5361", "shopTypes": "\u4fbf\u5229\u5e97", "consumeTypes": null, "cookTypes": null, "orderNum": 1000, "card4no": null, "card4noAcc": null, "district2": 406, "searchScope": null, "status": 1, "address": "\u7518\u6eaa\u8def352\u53f7", "name": "\u53ef\u7684\u4fbf\u5229 \u7518\u6eaa\u5e97", "id": 156858, "pageNo": 0, "pageCount": null, "pageSize": 10, "ids": null, "endTime": null, "startTime": null}, {"cardNumFive": null, "isSupportYj": null, "cityName": null, "districtName": null, "shopinfo": {"mid": "888002154119986", "good_flag": null, "new_flag": null, "short_name": "\u53ef\u7684\u4fbf\u5229", "short_name_pinyin": "kedibianli", "status": null, "address": null, "name": null, "id": "37201"}, "mid": "888002154119986", "shopId": "37201", "netid": null, "province": 901, "district": 601, "zipcode": null, "telephone": "64809815", "posDate": null, "destineTel": null, "togoTel": null, "trafficWay": null, "signBuilding": null, "businessArea": null, "selfRoom": null, "businessTime": null, "stall": null, "consume": null, "serviceFei": null, "favourable": null, "shopMemo": null, "appraise": null, "website": null, "memo": null, "payTypes": "\u6749\u5fb7\u5361", "shopTypes": "\u4fbf\u5229\u5e97", "consumeTypes": null, "cookTypes": null, "orderNum": 1000, "card4no": null, "card4noAcc": null, "district2": 409, "searchScope": null, "status": 1, "address": "\u53e4\u7f8e\u897f\u8def426\u53f7", "name": "\u53ef\u7684\u4fbf\u5229 \u53e4\u7f8e\u5e97", "id": 156860, "pageNo": 0, "pageCount": null, "pageSize": 10, "ids": null, "endTime": null, "startTime": null}, {"cardNumFive": null, "isSupportYj": null, "cityName": null, "districtName": null, "shopinfo": {"mid": "888002154119986", "good_flag": null, "new_flag": null, "short_name": "\u53ef\u7684\u4fbf\u5229", "short_name_pinyin": "kedibianli", "status": null, "address": null, "name": null, "id": "37201"}, "mid": "888002154119986", "shopId": "37201", "netid": null, "province": 901, "district": 601, "zipcode": null, "telephone": "58212629", "posDate": null, "destineTel": null, "togoTel": null, "trafficWay": null, "signBuilding": null, "businessArea": null, "selfRoom": null, "businessTime": null, "stall": null, "consume": null, "serviceFei": null, "favourable": null, "shopMemo": null, "appraise": null, "website": null, "memo": null, "payTypes": "\u6749\u5fb7\u5361", "shopTypes": "\u4fbf\u5229\u5e97", "consumeTypes": null, "cookTypes": null, "orderNum": 1000, "card4no": null, "card4noAcc": null, "district2": 418, "searchScope": null, "status": 1, "address": "\u5d2e\u5c71\u8def38\u53f7", "name": "\u53ef\u7684\u4fbf\u5229 \u5d2e\u5c71\u5e97", "id": 156862, "pageNo": 0, "pageCount": null, "pageSize": 10, "ids": null, "endTime": null, "startTime": null}], "pageLimit": 3920, "size": 10}