{"pageCount": 1095, "count": 10942, "pageNo": 405, "subShopInfo": {"cardNumFive": "", "isSupportYj": "", "cityName": null, "districtName": null, "shopinfo": {"mid": null, "good_flag": null, "new_flag": null, "short_name": null, "short_name_pinyin": null, "status": null, "address": "", "name": "", "id": null}, "mid": null, "shopId": null, "netid": null, "province": 901, "district": null, "zipcode": null, "telephone": null, "posDate": null, "destineTel": null, "togoTel": null, "trafficWay": null, "signBuilding": null, "businessArea": null, "selfRoom": null, "businessTime": null, "stall": null, "consume": null, "serviceFei": null, "favourable": null, "shopMemo": "1", "appraise": null, "website": null, "memo": null, "payTypes": "", "shopTypes": "", "consumeTypes": null, "cookTypes": null, "orderNum": null, "card4no": null, "card4noAcc": null, "district2": null, "searchScope": null, "status": null, "address": "", "name": null, "id": null, "pageNo": 404, "pageCount": null, "pageSize": 10, "ids": null, "endTime": null, "startTime": null}, "list": [{"cardNumFive": null, "isSupportYj": null, "cityName": null, "districtName": null, "shopinfo": {"mid": "888002154119986", "good_flag": null, "new_flag": null, "short_name": "\u53ef\u7684\u4fbf\u5229", "short_name_pinyin": "kedibianli", "status": null, "address": null, "name": null, "id": "37201"}, "mid": "888002154119986", "shopId": "37201", "netid": null, "province": 901, "district": 601, "zipcode": null, "telephone": "56674813", "posDate": null, "destineTel": null, "togoTel": null, "trafficWay": null, "signBuilding": null, "businessArea": null, "selfRoom": null, "businessTime": null, "stall": null, "consume": null, "serviceFei": null, "favourable": null, "shopMemo": null, "appraise": null, "website": null, "memo": null, "payTypes": "\u6749\u5fb7\u5361", "shopTypes": "\u4fbf\u5229\u5e97", "consumeTypes": null, "cookTypes": null, "orderNum": 1000, "card4no": null, "card4noAcc": null, "district2": 416, "searchScope": null, "status": 1, "address": "\u6dde\u6ee8\u8def161\u53f7", "name": "\u53ef\u7684\u4fbf\u5229 \u6dde\u6ee8\u5e97", "id": 156999, "pageNo": 0, "pageCount": null, "pageSize": 10, "ids": null, "endTime": null, "startTime": null}, {"cardNumFive": null, "isSupportYj": null, "cityName": null, "districtName": null, "shopinfo": {"mid": "888002154119986", "good_flag": null, "new_flag": null, "short_name": "\u53ef\u7684\u4fbf\u5229", "short_name_pinyin": "kedibianli", "status": null, "address": null, "name": null, "id": "37201"}, "mid": "888002154119986", "shopId": "37201", "netid": null, "province": 901, "district": 601, "zipcode": null, "telephone": "56459860", "posDate": null, "destineTel": null, "togoTel": null, "trafficWay": null, "signBuilding": null, "businessArea": null, "selfRoom": null, "businessTime": null, "stall": null, "consume": null, "serviceFei": null, "favourable": null, "shopMemo": null, "appraise": null, "website": null, "memo": null, "payTypes": "\u6749\u5fb7\u5361", "shopTypes": "\u4fbf\u5229\u5e97", "consumeTypes": null, "cookTypes": null, "orderNum": 1000, "card4no": null, "card4noAcc": null, "district2": 416, "searchScope": null, "status": 1, "address": "\u6dde\u5357\u8def213\u53f7", "name": "\u53ef\u7684\u4fbf\u5229 \u6dde\u4e8c\u5e97", "id": 157000, "pageNo": 0, "pageCount": null, "pageSize": 10, "ids": null, "endTime": null, "startTime": null}, {"cardNumFive": null, "isSupportYj": null, "cityName": null, "districtName": null, "shopinfo": {"mid": "888002154119986", "good_flag": null, "new_flag": null, "short_name": "\u53ef\u7684\u4fbf\u5229", "short_name_pinyin": "kedibianli", "status": null, "address": null, "name": null, "id": "37201"}, "mid": "888002154119986", "shopId": "37201", "netid": null, "province": 901, "district": 601, "zipcode": null, "telephone": "64284772", "posDate": null, "destineTel": null, "togoTel": null, "trafficWay": null, "signBuilding": null, "businessArea": null, "selfRoom": null, "businessTime": null, "stall": null, "consume": null, "serviceFei": null, "favourable": null, "shopMemo": null, "appraise": null, "website": null, "memo": null, "payTypes": "\u6749\u5fb7\u5361", "shopTypes": "\u4fbf\u5229\u5e97", "consumeTypes": null, "cookTypes": null, "orderNum": 1000, "card4no": null, "card4noAcc": null, "district2": 403, "searchScope": null, "status": 1, "address": "\u5b8b\u56ed\u8def133\u53f7", "name": "\u53ef\u7684\u4fbf\u5229 \u5b8b\u56ed\u5e97", "id": 157001, "pageNo": 0, "pageCount": null, "pageSize": 10, "ids": null, "endTime": null, "startTime": null}, {"cardNumFive": null, "isSupportYj": null, "cityName": null, "districtName": null, "shopinfo": {"mid": "888002154119986", "good_flag": null, "new_flag": null, "short_name": "\u53ef\u7684\u4fbf\u5229", "short_name_pinyin": "kedibianli", "status": null, "address": null, "name": null, "id": "37201"}, "mid": "888002154119986", "shopId": "37201", "netid": null, "province": 901, "district": 601, "zipcode": null, "telephone": "54306273", "posDate": null, "destineTel": null, "togoTel": null, "trafficWay": null, "signBuilding": null, "businessArea": null, "selfRoom": null, "businessTime": null, "stall": null, "consume": null, "serviceFei": null, "favourable": null, "shopMemo": null, "appraise": null, "website": null, "memo": null, "payTypes": "\u6749\u5fb7\u5361", "shopTypes": "\u4fbf\u5229\u5e97", "consumeTypes": null, "cookTypes": null, "orderNum": 1000, "card4no": null, "card4noAcc": null, "district2": 409, "searchScope": null, "status": 1, "address": "\u5929\u7b49\u8def400\u53f7104\u5ba4", "name": "\u53ef\u7684\u4fbf\u5229 \u6c49\u5ead\u4e09\u5e97", "id": 157002, "pageNo": 0, "pageCount": null, "pageSize": 10, "ids": null, "endTime": null, "startTime": null}, {"cardNumFive": null, "isSupportYj": null, "cityName": null, "districtName": null, "shopinfo": {"mid": "888002154119986", "good_flag": null, "new_flag": null, "short_name": "\u53ef\u7684\u4fbf\u5229", "short_name_pinyin": "kedibianli", "status": null, "address": null, "name": null, "id": "37201"}, "mid": "888002154119986", "shopId": "37201", "netid": null, "province": 901, "district": 601, "zipcode": null, "telephone": "63504765", "posDate": null, "destineTel": null, "togoTel": null, "trafficWay": null, "signBuilding": null, "businessArea": null, "selfRoom": null, "businessTime": null, "stall": null, "consume": null, "serviceFei": null, "favourable": null, "shopMemo": null, "appraise": null, "website": null, "memo": null, "payTypes": "\u6749\u5fb7\u5361", "shopTypes": "\u4fbf\u5229\u5e97", "consumeTypes": null, "cookTypes": null, "orderNum": 1000, "card4no": null, "card4noAcc": null, "district2": 401, "searchScope": null, "status": 1, "address": "\u5929\u6d25\u8def158\u53f7", "name": "\u53ef\u7684\u4fbf\u5229 \u5929\u6d25\u5e97", "id": 157003, "pageNo": 0, "pageCount": null, "pageSize": 10, "ids": null, "endTime": null, "startTime": null}, {"cardNumFive": null, "isSupportYj": null, "cityName": null, "districtName": null, "shopinfo": {"mid": "888002154119986", "good_flag": null, "new_flag": null, "short_name": "\u53ef\u7684\u4fbf\u5229", "short_name_pinyin": "kedibianli", "status": null, "address": null, "name": null, "id": "37201"}, "mid": "888002154119986", "shopId": "37201", "netid": null, "province": 901, "district": 601, "zipcode": null, "telephone": "63070376", "posDate": null, "destineTel": null, "togoTel": null, "trafficWay": null, "signBuilding": null, "businessArea": null, "selfRoom": null, "businessTime": null, "stall": null, "consume": null, "serviceFei": null, "favourable": null, "shopMemo": null, "appraise": null, "website": null, "memo": null, "payTypes": "\u6749\u5fb7\u5361", "shopTypes": "\u4fbf\u5229\u5e97", "consumeTypes": null, "cookTypes": null, "orderNum": 1000, "card4no": null, "card4noAcc": null, "district2": 410, "searchScope": null, "status": 1, "address": "\u5929\u76ee\u4e1c\u8def195\u53f7", "name": "\u53ef\u7684\u4fbf\u5229 \u5eb7\u4e50\u5e97", "id": 157004, "pageNo": 0, "pageCount": null, "pageSize": 10, "ids": null, "endTime": null, "startTime": null}, {"cardNumFive": null, "isSupportYj": null, "cityName": null, "districtName": null, "shopinfo": {"mid": "888002154119986", "good_flag": null, "new_flag": null, "short_name": "\u53ef\u7684\u4fbf\u5229", "short_name_pinyin": "kedibianli", "status": null, "address": null, "name": null, "id": "37201"}, "mid": "888002154119986", "shopId": "37201", "netid": null, "province": 901, "district": 601, "zipcode": null, "telephone": "63803274", "posDate": null, "destineTel": null, "togoTel": null, "trafficWay": null, "signBuilding": null, "businessArea": null, "selfRoom": null, "businessTime": null, "stall": null, "consume": null, "serviceFei": null, "favourable": null, "shopMemo": null, "appraise": null, "website": null, "memo": null, "payTypes": "\u6749\u5fb7\u5361", "shopTypes": "\u4fbf\u5229\u5e97", "consumeTypes": null, "cookTypes": null, "orderNum": 1000, "card4no": null, "card4noAcc": null, "district2": 410, "searchScope": null, "status": 1, "address": "\u5929\u76ee\u4e2d\u8def585\u53f7", "name": "\u53ef\u7684\u4fbf\u5229 \u65b0\u6885\u5e97", "id": 157006, "pageNo": 0, "pageCount": null, "pageSize": 10, "ids": null, "endTime": null, "startTime": null}, {"cardNumFive": null, "isSupportYj": null, "cityName": null, "districtName": null, "shopinfo": {"mid": "888002154119986", "good_flag": null, "new_flag": null, "short_name": "\u53ef\u7684\u4fbf\u5229", "short_name_pinyin": "kedibianli", "status": null, "address": null, "name": null, "id": "37201"}, "mid": "888002154119986", "shopId": "37201", "netid": null, "province": 901, "district": 601, "zipcode": null, "telephone": "62909105", "posDate": null, "destineTel": null, "togoTel": null, "trafficWay": null, "signBuilding": null, "businessArea": null, "selfRoom": null, "businessTime": null, "stall": null, "consume": null, "serviceFei": null, "favourable": null, "shopMemo": null, "appraise": null, "website": null, "memo": null, "payTypes": "\u6749\u5fb7\u5361", "shopTypes": "\u4fbf\u5229\u5e97", "consumeTypes": null, "cookTypes": null, "orderNum": 1000, "card4no": null, "card4noAcc": null, "district2": 406, "searchScope": null, "status": 1, "address": "\u5929\u5c71\u8def204\u53f7", "name": "\u53ef\u7684\u4fbf\u5229 \u5c0f\u91d1\u66f4\u5e97", "id": 157007, "pageNo": 0, "pageCount": null, "pageSize": 10, "ids": null, "endTime": null, "startTime": null}, {"cardNumFive": null, "isSupportYj": null, "cityName": null, "districtName": null, "shopinfo": {"mid": "888002154119986", "good_flag": null, "new_flag": null, "short_name": "\u53ef\u7684\u4fbf\u5229", "short_name_pinyin": "kedibianli", "status": null, "address": null, "name": null, "id": "37201"}, "mid": "888002154119986", "shopId": "37201", "netid": null, "province": 901, "district": 601, "zipcode": null, "telephone": "52176417", "posDate": null, "destineTel": null, "togoTel": null, "trafficWay": null, "signBuilding": null, "businessArea": null, "selfRoom": null, "businessTime": null, "stall": null, "consume": null, "serviceFei": null, "favourable": null, "shopMemo": null, "appraise": null, "website": null, "memo": null, "payTypes": "\u6749\u5fb7\u5361", "shopTypes": "\u4fbf\u5229\u5e97", "consumeTypes": null, "cookTypes": null, "orderNum": 1000, "card4no": null, "card4noAcc": null, "district2": 406, "searchScope": null, "status": 1, "address": "\u5929\u5c71\u897f\u8def356\u53f7", "name": "\u53ef\u7684\u4fbf\u5229 \u65b0\u6cfe\u5e97", "id": 157009, "pageNo": 0, "pageCount": null, "pageSize": 10, "ids": null, "endTime": null, "startTime": null}, {"cardNumFive": null, "isSupportYj": null, "cityName": null, "districtName": null, "shopinfo": {"mid": "888002154119986", "good_flag": null, "new_flag": null, "short_name": "\u53ef\u7684\u4fbf\u5229", "short_name_pinyin": "kedibianli", "status": null, "address": null, "name": null, "id": "37201"}, "mid": "888002154119986", "shopId": "37201", "netid": null, "province": 901, "district": 601, "zipcode": null, "telephone": "63562855", "posDate": null, "destineTel": null, "togoTel": null, "trafficWay": null, "signBuilding": null, "businessArea": null, "selfRoom": null, "businessTime": null, "stall": null, "consume": null, "serviceFei": null, "favourable": null, "shopMemo": null, "appraise": null, "website": null, "memo": null, "payTypes": "\u6749\u5fb7\u5361", "shopTypes": "\u4fbf\u5229\u5e97", "consumeTypes": null, "cookTypes": null, "orderNum": 1000, "card4no": null, "card4noAcc": null, "district2": 408, "searchScope": null, "status": 1, "address": "\u5929\u6f7c\u8def821\u53f7", "name": "\u53ef\u7684\u4fbf\u5229 \u6d59\u6f7c\u5e97", "id": 157012, "pageNo": 0, "pageCount": null, "pageSize": 10, "ids": null, "endTime": null, "startTime": null}], "pageLimit": 4040, "size": 10}