{"pageCount": 1095, "count": 10942, "pageNo": 401, "subShopInfo": {"cardNumFive": "", "isSupportYj": "", "cityName": null, "districtName": null, "shopinfo": {"mid": null, "good_flag": null, "new_flag": null, "short_name": null, "short_name_pinyin": null, "status": null, "address": "", "name": "", "id": null}, "mid": null, "shopId": null, "netid": null, "province": 901, "district": null, "zipcode": null, "telephone": null, "posDate": null, "destineTel": null, "togoTel": null, "trafficWay": null, "signBuilding": null, "businessArea": null, "selfRoom": null, "businessTime": null, "stall": null, "consume": null, "serviceFei": null, "favourable": null, "shopMemo": "1", "appraise": null, "website": null, "memo": null, "payTypes": "", "shopTypes": "", "consumeTypes": null, "cookTypes": null, "orderNum": null, "card4no": null, "card4noAcc": null, "district2": null, "searchScope": null, "status": null, "address": "", "name": null, "id": null, "pageNo": 400, "pageCount": null, "pageSize": 10, "ids": null, "endTime": null, "startTime": null}, "list": [{"cardNumFive": null, "isSupportYj": null, "cityName": null, "districtName": null, "shopinfo": {"mid": "888002154119986", "good_flag": null, "new_flag": null, "short_name": "\u53ef\u7684\u4fbf\u5229", "short_name_pinyin": "kedibianli", "status": null, "address": null, "name": null, "id": "37201"}, "mid": "888002154119986", "shopId": "37201", "netid": null, "province": 901, "district": 601, "zipcode": null, "telephone": "67116272", "posDate": null, "destineTel": null, "togoTel": null, "trafficWay": null, "signBuilding": null, "businessArea": null, "selfRoom": null, "businessTime": null, "stall": null, "consume": null, "serviceFei": null, "favourable": null, "shopMemo": null, "appraise": null, "website": null, "memo": null, "payTypes": "\u6749\u5fb7\u5361", "shopTypes": "\u4fbf\u5229\u5e97", "consumeTypes": null, "cookTypes": null, "orderNum": 1000, "card4no": null, "card4noAcc": null, "district2": 413, "searchScope": null, "status": 1, "address": "\u4eba\u6c11\u5357\u8def163\u53f7", "name": "\u53ef\u7684\u4fbf\u5229 \u4eba\u6c11\u4e8c\u5e97", "id": 156947, "pageNo": 0, "pageCount": null, "pageSize": 10, "ids": null, "endTime": null, "startTime": null}, {"cardNumFive": null, "isSupportYj": null, "cityName": null, "districtName": null, "shopinfo": {"mid": "888002154119986", "good_flag": null, "new_flag": null, "short_name": "\u53ef\u7684\u4fbf\u5229", "short_name_pinyin": "kedibianli", "status": null, "address": null, "name": null, "id": "37201"}, "mid": "888002154119986", "shopId": "37201", "netid": null, "province": 901, "district": 601, "zipcode": null, "telephone": "56620864", "posDate": null, "destineTel": null, "togoTel": null, "trafficWay": null, "signBuilding": null, "businessArea": null, "selfRoom": null, "businessTime": null, "stall": null, "consume": null, "serviceFei": null, "favourable": null, "shopMemo": null, "appraise": null, "website": null, "memo": null, "payTypes": "\u6749\u5fb7\u5361", "shopTypes": "\u4fbf\u5229\u5e97", "consumeTypes": null, "cookTypes": null, "orderNum": 1000, "card4no": null, "card4noAcc": null, "district2": 410, "searchScope": null, "status": 1, "address": "\u5357\u5c71\u8def31\u53f7", "name": "\u53ef\u7684\u4fbf\u5229 \u5357\u5c71\u4e8c\u5e97", "id": 156949, "pageNo": 0, "pageCount": null, "pageSize": 10, "ids": null, "endTime": null, "startTime": null}, {"cardNumFive": null, "isSupportYj": null, "cityName": null, "districtName": null, "shopinfo": {"mid": "888002154119986", "good_flag": null, "new_flag": null, "short_name": "\u53ef\u7684\u4fbf\u5229", "short_name_pinyin": "kedibianli", "status": null, "address": null, "name": null, "id": "37201"}, "mid": "888002154119986", "shopId": "37201", "netid": null, "province": 901, "district": 601, "zipcode": null, "telephone": "66345470", "posDate": null, "destineTel": null, "togoTel": null, "trafficWay": null, "signBuilding": null, "businessArea": null, "selfRoom": null, "businessTime": null, "stall": null, "consume": null, "serviceFei": null, "favourable": null, "shopMemo": null, "appraise": null, "website": null, "memo": null, "payTypes": "\u6749\u5fb7\u5361", "shopTypes": "\u4fbf\u5229\u5e97", "consumeTypes": null, "cookTypes": null, "orderNum": 1000, "card4no": null, "card4noAcc": null, "district2": 405, "searchScope": null, "status": 1, "address": "\u5e73\u5229\u8def188\u53f7", "name": "\u53ef\u7684\u4fbf\u5229 \u5e73\u5229\u5e97", "id": 156950, "pageNo": 0, "pageCount": null, "pageSize": 10, "ids": null, "endTime": null, "startTime": null}, {"cardNumFive": null, "isSupportYj": null, "cityName": null, "districtName": null, "shopinfo": {"mid": "888002154119986", "good_flag": null, "new_flag": null, "short_name": "\u53ef\u7684\u4fbf\u5229", "short_name_pinyin": "kedibianli", "status": null, "address": null, "name": null, "id": "37201"}, "mid": "888002154119986", "shopId": "37201", "netid": null, "province": 901, "district": 601, "zipcode": null, "telephone": "65392156", "posDate": null, "destineTel": null, "togoTel": null, "trafficWay": null, "signBuilding": null, "businessArea": null, "selfRoom": null, "businessTime": null, "stall": null, "consume": null, "serviceFei": null, "favourable": null, "shopMemo": null, "appraise": null, "website": null, "memo": null, "payTypes": "\u6749\u5fb7\u5361", "shopTypes": "\u4fbf\u5229\u5e97", "consumeTypes": null, "cookTypes": null, "orderNum": 1000, "card4no": null, "card4noAcc": null, "district2": 407, "searchScope": null, "status": 1, "address": "\u5e73\u51c9\u8def1480", "name": "\u53ef\u7684\u4fbf\u5229 \u5e73\u51c9\u4e8c\u5e97", "id": 156951, "pageNo": 0, "pageCount": null, "pageSize": 10, "ids": null, "endTime": null, "startTime": null}, {"cardNumFive": null, "isSupportYj": null, "cityName": null, "districtName": null, "shopinfo": {"mid": "888002154119986", "good_flag": null, "new_flag": null, "short_name": "\u53ef\u7684\u4fbf\u5229", "short_name_pinyin": "kedibianli", "status": null, "address": null, "name": null, "id": "37201"}, "mid": "888002154119986", "shopId": "37201", "netid": null, "province": 901, "district": 601, "zipcode": null, "telephone": "64822846", "posDate": null, "destineTel": null, "togoTel": null, "trafficWay": null, "signBuilding": null, "businessArea": null, "selfRoom": null, "businessTime": null, "stall": null, "consume": null, "serviceFei": null, "favourable": null, "shopMemo": null, "appraise": null, "website": null, "memo": null, "payTypes": "\u6749\u5fb7\u5361", "shopTypes": "\u4fbf\u5229\u5e97", "consumeTypes": null, "cookTypes": null, "orderNum": 1000, "card4no": null, "card4noAcc": null, "district2": 403, "searchScope": null, "status": 1, "address": "\u6d66\u5317\u8def21\u5f0435\u53f7", "name": "\u53ef\u7684\u4fbf\u5229 \u6caa\u95f5\u5e97", "id": 156953, "pageNo": 0, "pageCount": null, "pageSize": 10, "ids": null, "endTime": null, "startTime": null}, {"cardNumFive": null, "isSupportYj": null, "cityName": null, "districtName": null, "shopinfo": {"mid": "888002154119986", "good_flag": null, "new_flag": null, "short_name": "\u53ef\u7684\u4fbf\u5229", "short_name_pinyin": "kedibianli", "status": null, "address": null, "name": null, "id": "37201"}, "mid": "888002154119986", "shopId": "37201", "netid": null, "province": 901, "district": 601, "zipcode": null, "telephone": "58202584", "posDate": null, "destineTel": null, "togoTel": null, "trafficWay": null, "signBuilding": null, "businessArea": null, "selfRoom": null, "businessTime": null, "stall": null, "consume": null, "serviceFei": null, "favourable": null, "shopMemo": null, "appraise": null, "website": null, "memo": null, "payTypes": "\u6749\u5fb7\u5361", "shopTypes": "\u4fbf\u5229\u5e97", "consumeTypes": null, "cookTypes": null, "orderNum": 1000, "card4no": null, "card4noAcc": null, "district2": 418, "searchScope": null, "status": 1, "address": "\u6d66\u7535\u8def297\u53f7", "name": "\u53ef\u7684\u4fbf\u5229 \u6d66\u7535\u4e8c\u5e97", "id": 156954, "pageNo": 0, "pageCount": null, "pageSize": 10, "ids": null, "endTime": null, "startTime": null}, {"cardNumFive": null, "isSupportYj": null, "cityName": null, "districtName": null, "shopinfo": {"mid": "888002154119986", "good_flag": null, "new_flag": null, "short_name": "\u53ef\u7684\u4fbf\u5229", "short_name_pinyin": "kedibianli", "status": null, "address": null, "name": null, "id": "37201"}, "mid": "888002154119986", "shopId": "37201", "netid": null, "province": 901, "district": 601, "zipcode": null, "telephone": "50581714", "posDate": null, "destineTel": null, "togoTel": null, "trafficWay": null, "signBuilding": null, "businessArea": null, "selfRoom": null, "businessTime": null, "stall": null, "consume": null, "serviceFei": null, "favourable": null, "shopMemo": null, "appraise": null, "website": null, "memo": null, "payTypes": "\u6749\u5fb7\u5361", "shopTypes": "\u4fbf\u5229\u5e97", "consumeTypes": null, "cookTypes": null, "orderNum": 1000, "card4no": null, "card4noAcc": null, "district2": 418, "searchScope": null, "status": 1, "address": "\u6d66\u7535\u8def68\u53f7", "name": "\u53ef\u7684\u4fbf\u5229 \u6d66\u7535\u5e97", "id": 156955, "pageNo": 0, "pageCount": null, "pageSize": 10, "ids": null, "endTime": null, "startTime": null}, {"cardNumFive": null, "isSupportYj": null, "cityName": null, "districtName": null, "shopinfo": {"mid": "888002154119986", "good_flag": null, "new_flag": null, "short_name": "\u53ef\u7684\u4fbf\u5229", "short_name_pinyin": "kedibianli", "status": null, "address": null, "name": null, "id": "37201"}, "mid": "888002154119986", "shopId": "37201", "netid": null, "province": 901, "district": 601, "zipcode": null, "telephone": "58510065", "posDate": null, "destineTel": null, "togoTel": null, "trafficWay": null, "signBuilding": null, "businessArea": null, "selfRoom": null, "businessTime": null, "stall": null, "consume": null, "serviceFei": null, "favourable": null, "shopMemo": null, "appraise": null, "website": null, "memo": null, "payTypes": "\u6749\u5fb7\u5361", "shopTypes": "\u4fbf\u5229\u5e97", "consumeTypes": null, "cookTypes": null, "orderNum": 1000, "card4no": null, "card4noAcc": null, "district2": 418, "searchScope": null, "status": 1, "address": "\u6d66\u4e1c\u5927\u90531472\u53f7", "name": "\u53ef\u7684\u4fbf\u5229 \u6d77\u8fd0\u5e97", "id": 156956, "pageNo": 0, "pageCount": null, "pageSize": 10, "ids": null, "endTime": null, "startTime": null}, {"cardNumFive": null, "isSupportYj": null, "cityName": null, "districtName": null, "shopinfo": {"mid": "888002154119986", "good_flag": null, "new_flag": null, "short_name": "\u53ef\u7684\u4fbf\u5229", "short_name_pinyin": "kedibianli", "status": null, "address": null, "name": null, "id": "37201"}, "mid": "888002154119986", "shopId": "37201", "netid": null, "province": 901, "district": 601, "zipcode": null, "telephone": "58604151", "posDate": null, "destineTel": null, "togoTel": null, "trafficWay": null, "signBuilding": null, "businessArea": null, "selfRoom": null, "businessTime": null, "stall": null, "consume": null, "serviceFei": null, "favourable": null, "shopMemo": null, "appraise": null, "website": null, "memo": null, "payTypes": "\u6749\u5fb7\u5361", "shopTypes": "\u4fbf\u5229\u5e97", "consumeTypes": null, "cookTypes": null, "orderNum": 1000, "card4no": null, "card4noAcc": null, "district2": 418, "searchScope": null, "status": 1, "address": "\u6d66\u4e1c\u5927\u90531717\u53f7", "name": "\u53ef\u7684\u4fbf\u5229 \u6d0b\u6cfe\u5e97", "id": 156957, "pageNo": 0, "pageCount": null, "pageSize": 10, "ids": null, "endTime": null, "startTime": null}, {"cardNumFive": null, "isSupportYj": null, "cityName": null, "districtName": null, "shopinfo": {"mid": "888002154119986", "good_flag": null, "new_flag": null, "short_name": "\u53ef\u7684\u4fbf\u5229", "short_name_pinyin": "kedibianli", "status": null, "address": null, "name": null, "id": "37201"}, "mid": "888002154119986", "shopId": "37201", "netid": null, "province": 901, "district": 601, "zipcode": null, "telephone": "58517583", "posDate": null, "destineTel": null, "togoTel": null, "trafficWay": null, "signBuilding": null, "businessArea": null, "selfRoom": null, "businessTime": null, "stall": null, "consume": null, "serviceFei": null, "favourable": null, "shopMemo": null, "appraise": null, "website": null, "memo": null, "payTypes": "\u6749\u5fb7\u5361", "shopTypes": "\u4fbf\u5229\u5e97", "consumeTypes": null, "cookTypes": null, "orderNum": 1000, "card4no": null, "card4noAcc": null, "district2": 418, "searchScope": null, "status": 1, "address": "\u6d66\u4e1c\u5927\u90532000\u53f7", "name": "\u53ef\u7684\u4fbf\u5229 \u9633\u5149\u5e97", "id": 156958, "pageNo": 0, "pageCount": null, "pageSize": 10, "ids": null, "endTime": null, "startTime": null}], "pageLimit": 4000, "size": 10}