{"pageCount": 1095, "count": 10942, "pageNo": 426, "subShopInfo": {"cardNumFive": "", "isSupportYj": "", "cityName": null, "districtName": null, "shopinfo": {"mid": null, "good_flag": null, "new_flag": null, "short_name": null, "short_name_pinyin": null, "status": null, "address": "", "name": "", "id": null}, "mid": null, "shopId": null, "netid": null, "province": 901, "district": null, "zipcode": null, "telephone": null, "posDate": null, "destineTel": null, "togoTel": null, "trafficWay": null, "signBuilding": null, "businessArea": null, "selfRoom": null, "businessTime": null, "stall": null, "consume": null, "serviceFei": null, "favourable": null, "shopMemo": "1", "appraise": null, "website": null, "memo": null, "payTypes": "", "shopTypes": "", "consumeTypes": null, "cookTypes": null, "orderNum": null, "card4no": null, "card4noAcc": null, "district2": null, "searchScope": null, "status": null, "address": "", "name": null, "id": null, "pageNo": 425, "pageCount": null, "pageSize": 10, "ids": null, "endTime": null, "startTime": null}, "list": [{"cardNumFive": null, "isSupportYj": null, "cityName": null, "districtName": null, "shopinfo": {"mid": "888888854410150", "good_flag": null, "new_flag": null, "short_name": "\u514b\u8389\u4e1d\u6c40", "short_name_pinyin": "kelisiting", "status": null, "address": null, "name": null, "id": "32265"}, "mid": "888888854410150", "shopId": "32265", "netid": null, "province": 901, "district": 601, "zipcode": null, "telephone": "62240054", "posDate": "20090428", "destineTel": null, "togoTel": null, "trafficWay": null, "signBuilding": null, "businessArea": null, "selfRoom": null, "businessTime": null, "stall": null, "consume": null, "serviceFei": null, "favourable": null, "shopMemo": null, "appraise": null, "website": null, "memo": null, "payTypes": "\u6749\u5fb7\u5361", "shopTypes": "\u9762\u5305\u897f\u997c", "consumeTypes": null, "cookTypes": null, "orderNum": 1000, "card4no": null, "card4noAcc": null, "district2": 405, "searchScope": null, "status": 1, "address": "\u534e\u6c60\u8def196\u53f7\uff08\u7ba1\u5f04\u65b0\u6751\u53e3\uff09", "name": "\u514b\u8389\u4e1d\u6c40 \u7ba1\u5f04\u5e97", "id": 137475, "pageNo": 0, "pageCount": null, "pageSize": 10, "ids": null, "endTime": null, "startTime": null}, {"cardNumFive": null, "isSupportYj": null, "cityName": null, "districtName": null, "shopinfo": {"mid": "888888854410150", "good_flag": null, "new_flag": null, "short_name": "\u514b\u8389\u4e1d\u6c40", "short_name_pinyin": "kelisiting", "status": null, "address": null, "name": null, "id": "32265"}, "mid": "888888854410150", "shopId": "32265", "netid": null, "province": 901, "district": 601, "zipcode": null, "telephone": "65294877", "posDate": "20090423", "destineTel": null, "togoTel": null, "trafficWay": null, "signBuilding": null, "businessArea": null, "selfRoom": null, "businessTime": null, "stall": null, "consume": null, "serviceFei": null, "favourable": null, "shopMemo": null, "appraise": null, "website": null, "memo": null, "payTypes": "\u6749\u5fb7\u5361", "shopTypes": "\u9762\u5305\u897f\u997c", "consumeTypes": null, "cookTypes": null, "orderNum": 1000, "card4no": null, "card4noAcc": null, "district2": 408, "searchScope": null, "status": 1, "address": "\u5e7f\u7075\u8def500\u53f7-524\u53f7\uff08\u8fd1\u51c9\u57ce\u8def\uff09", "name": "\u514b\u8389\u4e1d\u6c40 \u5e7f\u7075\u5e97", "id": 137476, "pageNo": 0, "pageCount": null, "pageSize": 10, "ids": null, "endTime": null, "startTime": null}, {"cardNumFive": null, "isSupportYj": null, "cityName": null, "districtName": null, "shopinfo": {"mid": "888888854410150", "good_flag": null, "new_flag": null, "short_name": "\u514b\u8389\u4e1d\u6c40", "short_name_pinyin": "kelisiting", "status": null, "address": null, "name": null, "id": "32265"}, "mid": "888888854410150", "shopId": "32265", "netid": null, "province": 901, "district": 601, "zipcode": null, "telephone": "65281499", "posDate": "20090423", "destineTel": null, "togoTel": null, "trafficWay": null, "signBuilding": null, "businessArea": null, "selfRoom": null, "businessTime": null, "stall": null, "consume": null, "serviceFei": null, "favourable": null, "shopMemo": null, "appraise": null, "website": null, "memo": null, "payTypes": "\u6749\u5fb7\u5361", "shopTypes": "\u9762\u5305\u897f\u997c", "consumeTypes": null, "cookTypes": null, "orderNum": 1000, "card4no": null, "card4noAcc": null, "district2": 408, "searchScope": null, "status": 1, "address": "\u5e7f\u4e2d\u8def595\u53f7\uff08\u8fd1\u5e7f\u7ca4\u8def\uff09", "name": "\u514b\u8389\u4e1d\u6c40 \u5e7f\u4e2d\u5e97", "id": 137477, "pageNo": 0, "pageCount": null, "pageSize": 10, "ids": null, "endTime": null, "startTime": null}, {"cardNumFive": null, "isSupportYj": null, "cityName": null, "districtName": null, "shopinfo": {"mid": "888888854410150", "good_flag": null, "new_flag": null, "short_name": "\u514b\u8389\u4e1d\u6c40", "short_name_pinyin": "kelisiting", "status": null, "address": null, "name": null, "id": "32265"}, "mid": "888888854410150", "shopId": "32265", "netid": null, "province": 901, "district": 601, "zipcode": null, "telephone": "64857985", "posDate": "20090430", "destineTel": null, "togoTel": null, "trafficWay": null, "signBuilding": null, "businessArea": null, "selfRoom": null, "businessTime": null, "stall": null, "consume": null, "serviceFei": null, "favourable": null, "shopMemo": null, "appraise": null, "website": null, "memo": null, "payTypes": "\u6749\u5fb7\u5361", "shopTypes": "\u9762\u5305\u897f\u997c", "consumeTypes": null, "cookTypes": null, "orderNum": 1000, "card4no": null, "card4noAcc": null, "district2": 403, "searchScope": null, "status": 1, "address": "\u6842\u5e73\u8def291\u53f7\uff08\u8fd1\u6f15\u5b9d\u8def\uff09", "name": "\u514b\u8389\u4e1d\u6c40 \u6842\u4e8c\u5e97", "id": 137479, "pageNo": 0, "pageCount": null, "pageSize": 10, "ids": null, "endTime": null, "startTime": null}, {"cardNumFive": null, "isSupportYj": null, "cityName": null, "districtName": null, "shopinfo": {"mid": "888888854410150", "good_flag": null, "new_flag": null, "short_name": "\u514b\u8389\u4e1d\u6c40", "short_name_pinyin": "kelisiting", "status": null, "address": null, "name": null, "id": "32265"}, "mid": "888888854410150", "shopId": "32265", "netid": null, "province": 901, "district": 601, "zipcode": null, "telephone": "55660186", "posDate": "20090422", "destineTel": null, "togoTel": null, "trafficWay": null, "signBuilding": null, "businessArea": null, "selfRoom": null, "businessTime": null, "stall": null, "consume": null, "serviceFei": null, "favourable": null, "shopMemo": null, "appraise": null, "website": null, "memo": null, "payTypes": "\u6749\u5fb7\u5361", "shopTypes": "\u9762\u5305\u897f\u997c", "consumeTypes": null, "cookTypes": null, "orderNum": 1000, "card4no": null, "card4noAcc": null, "district2": 407, "searchScope": null, "status": 1, "address": "\u56fd\u5b9a\u8def328\u53f7", "name": "\u514b\u8389\u4e1d\u6c40 \u56fd\u5b9a\u4e8c\u5e97", "id": 137481, "pageNo": 0, "pageCount": null, "pageSize": 10, "ids": null, "endTime": null, "startTime": null}, {"cardNumFive": null, "isSupportYj": null, "cityName": null, "districtName": null, "shopinfo": {"mid": "888888854410150", "good_flag": null, "new_flag": null, "short_name": "\u514b\u8389\u4e1d\u6c40", "short_name_pinyin": "kelisiting", "status": null, "address": null, "name": null, "id": "32265"}, "mid": "888888854410150", "shopId": "32265", "netid": null, "province": 901, "district": 601, "zipcode": null, "telephone": "65882620", "posDate": "20090422", "destineTel": null, "togoTel": null, "trafficWay": null, "signBuilding": null, "businessArea": null, "selfRoom": null, "businessTime": null, "stall": null, "consume": null, "serviceFei": null, "favourable": null, "shopMemo": null, "appraise": null, "website": null, "memo": null, "payTypes": "\u6749\u5fb7\u5361", "shopTypes": "\u9762\u5305\u897f\u997c", "consumeTypes": null, "cookTypes": null, "orderNum": 1000, "card4no": null, "card4noAcc": null, "district2": 407, "searchScope": null, "status": 1, "address": "\u56fd\u548c\u8def1019\u53f7(\u8fd1\u4e16\u754c\u8def)", "name": "\u514b\u8389\u4e1d\u6c40 \u56fd\u548c\u5e97", "id": 137482, "pageNo": 0, "pageCount": null, "pageSize": 10, "ids": null, "endTime": null, "startTime": null}, {"cardNumFive": null, "isSupportYj": null, "cityName": null, "districtName": null, "shopinfo": {"mid": "888888854410150", "good_flag": null, "new_flag": null, "short_name": "\u514b\u8389\u4e1d\u6c40", "short_name_pinyin": "kelisiting", "status": null, "address": null, "name": null, "id": "32265"}, "mid": "888888854410150", "shopId": "32265", "netid": null, "province": 901, "district": 601, "zipcode": null, "telephone": "65335579", "posDate": "20090422", "destineTel": null, "togoTel": null, "trafficWay": null, "signBuilding": null, "businessArea": null, "selfRoom": null, "businessTime": null, "stall": null, "consume": null, "serviceFei": null, "favourable": null, "shopMemo": null, "appraise": null, "website": null, "memo": null, "payTypes": "\u6749\u5fb7\u5361", "shopTypes": "\u9762\u5305\u897f\u997c", "consumeTypes": null, "cookTypes": null, "orderNum": 1000, "card4no": null, "card4noAcc": null, "district2": 407, "searchScope": null, "status": 1, "address": "\u56fd\u987a\u4e1c\u8def180\u53f7\uff08\u8fd1\u6c99\u5c97\u8def\uff09", "name": "\u514b\u8389\u4e1d\u6c40 \u56fd\u987a\u4e1c\u8def\u5e97", "id": 137483, "pageNo": 0, "pageCount": null, "pageSize": 10, "ids": null, "endTime": null, "startTime": null}, {"cardNumFive": null, "isSupportYj": null, "cityName": null, "districtName": null, "shopinfo": {"mid": "888888854410150", "good_flag": null, "new_flag": null, "short_name": "\u514b\u8389\u4e1d\u6c40", "short_name_pinyin": "kelisiting", "status": null, "address": null, "name": null, "id": "32265"}, "mid": "888888854410150", "shopId": "32265", "netid": null, "province": 901, "district": 601, "zipcode": null, "telephone": "56102494", "posDate": "200911", "destineTel": null, "togoTel": null, "trafficWay": null, "signBuilding": null, "businessArea": null, "selfRoom": null, "businessTime": null, "stall": null, "consume": null, "serviceFei": null, "favourable": null, "shopMemo": null, "appraise": null, "website": null, "memo": null, "payTypes": "\u6749\u5fb7\u5361", "shopTypes": "\u9762\u5305\u897f\u997c", "consumeTypes": null, "cookTypes": null, "orderNum": 1000, "card4no": null, "card4noAcc": null, "district2": 416, "searchScope": null, "status": 1, "address": "\u6d77\u6c5f\u8def426\u53f7", "name": "\u514b\u8389\u4e1d\u6c40 \u6d77\u6c5f\u5e97", "id": 137484, "pageNo": 0, "pageCount": null, "pageSize": 10, "ids": null, "endTime": null, "startTime": null}, {"cardNumFive": null, "isSupportYj": null, "cityName": null, "districtName": null, "shopinfo": {"mid": "888888854410150", "good_flag": null, "new_flag": null, "short_name": "\u514b\u8389\u4e1d\u6c40", "short_name_pinyin": "kelisiting", "status": null, "address": null, "name": null, "id": "32265"}, "mid": "888888854410150", "shopId": "32265", "netid": null, "province": 901, "district": 601, "zipcode": null, "telephone": "68311979", "posDate": "20090424", "destineTel": null, "togoTel": null, "trafficWay": null, "signBuilding": null, "businessArea": null, "selfRoom": null, "businessTime": null, "stall": null, "consume": null, "serviceFei": null, "favourable": null, "shopMemo": null, "appraise": null, "website": null, "memo": null, "payTypes": "\u6749\u5fb7\u5361", "shopTypes": "\u9762\u5305\u897f\u997c", "consumeTypes": null, "cookTypes": null, "orderNum": 1000, "card4no": null, "card4noAcc": null, "district2": 418, "searchScope": null, "status": 1, "address": "\u6d77\u9633\u8def486\u53f7\uff08\u957f\u6e05\u8def/\u4e0a\u5357\u8def\uff09", "name": "\u514b\u8389\u4e1d\u6c40 \u6d77\u9633\u8def\u5e97", "id": 137485, "pageNo": 0, "pageCount": null, "pageSize": 10, "ids": null, "endTime": null, "startTime": null}, {"cardNumFive": null, "isSupportYj": null, "cityName": null, "districtName": null, "shopinfo": {"mid": "888888854410150", "good_flag": null, "new_flag": null, "short_name": "\u514b\u8389\u4e1d\u6c40", "short_name_pinyin": "kelisiting", "status": null, "address": null, "name": null, "id": "32265"}, "mid": "888888854410150", "shopId": "32265", "netid": null, "province": 901, "district": 601, "zipcode": null, "telephone": "54738199", "posDate": "20090430", "destineTel": null, "togoTel": null, "trafficWay": null, "signBuilding": null, "businessArea": null, "selfRoom": null, "businessTime": null, "stall": null, "consume": null, "serviceFei": null, "favourable": null, "shopMemo": null, "appraise": null, "website": null, "memo": null, "payTypes": "\u6749\u5fb7\u5361", "shopTypes": "\u9762\u5305\u897f\u997c", "consumeTypes": null, "cookTypes": null, "orderNum": 1000, "card4no": null, "card4noAcc": null, "district2": 409, "searchScope": null, "status": 1, "address": "\u9e64\u5e86\u8def267\u53f7\uff08\u8fd1\u5170\u576a\u8def\uff09", "name": "\u514b\u8389\u4e1d\u6c40 \u9e64\u5e86\u5e97", "id": 137488, "pageNo": 0, "pageCount": null, "pageSize": 10, "ids": null, "endTime": null, "startTime": null}], "pageLimit": 4250, "size": 10}