{"pageCount": 1095, "count": 10942, "pageNo": 422, "subShopInfo": {"cardNumFive": "", "isSupportYj": "", "cityName": null, "districtName": null, "shopinfo": {"mid": null, "good_flag": null, "new_flag": null, "short_name": null, "short_name_pinyin": null, "status": null, "address": "", "name": "", "id": null}, "mid": null, "shopId": null, "netid": null, "province": 901, "district": null, "zipcode": null, "telephone": null, "posDate": null, "destineTel": null, "togoTel": null, "trafficWay": null, "signBuilding": null, "businessArea": null, "selfRoom": null, "businessTime": null, "stall": null, "consume": null, "serviceFei": null, "favourable": null, "shopMemo": "1", "appraise": null, "website": null, "memo": null, "payTypes": "", "shopTypes": "", "consumeTypes": null, "cookTypes": null, "orderNum": null, "card4no": null, "card4noAcc": null, "district2": null, "searchScope": null, "status": null, "address": "", "name": null, "id": null, "pageNo": 421, "pageCount": null, "pageSize": 10, "ids": null, "endTime": null, "startTime": null}, "list": [{"cardNumFive": null, "isSupportYj": null, "cityName": null, "districtName": null, "shopinfo": {"mid": "888888854410150", "good_flag": null, "new_flag": null, "short_name": "\u514b\u8389\u4e1d\u6c40", "short_name_pinyin": "kelisiting", "status": null, "address": null, "name": null, "id": "32265"}, "mid": "888888854410150", "shopId": "32265", "netid": null, "province": 901, "district": 601, "zipcode": null, "telephone": "63022642", "posDate": "20090427", "destineTel": null, "togoTel": null, "trafficWay": null, "signBuilding": null, "businessArea": null, "selfRoom": null, "businessTime": null, "stall": null, "consume": null, "serviceFei": null, "favourable": null, "shopMemo": null, "appraise": null, "website": null, "memo": null, "payTypes": "\u6749\u5fb7\u5361", "shopTypes": "\u9762\u5305\u897f\u997c", "consumeTypes": null, "cookTypes": null, "orderNum": 1000, "card4no": null, "card4noAcc": null, "district2": 401, "searchScope": null, "status": 1, "address": "\u6253\u6d66\u8def459\u53f7(\u4e2d\u5c71\u5357\u4e00\u8def)", "name": "\u514b\u8389\u4e1d\u6c40 \u6253\u6d66\u5e97", "id": 137419, "pageNo": 0, "pageCount": null, "pageSize": 10, "ids": null, "endTime": null, "startTime": null}, {"cardNumFive": null, "isSupportYj": null, "cityName": null, "districtName": null, "shopinfo": {"mid": "888888854410150", "good_flag": null, "new_flag": null, "short_name": "\u514b\u8389\u4e1d\u6c40", "short_name_pinyin": "kelisiting", "status": null, "address": null, "name": null, "id": "32265"}, "mid": "888888854410150", "shopId": "32265", "netid": null, "province": 901, "district": 601, "zipcode": null, "telephone": "62658605", "posDate": "20090428", "destineTel": null, "togoTel": null, "trafficWay": null, "signBuilding": null, "businessArea": null, "selfRoom": null, "businessTime": null, "stall": null, "consume": null, "serviceFei": null, "favourable": null, "shopMemo": null, "appraise": null, "website": null, "memo": null, "payTypes": "\u6749\u5fb7\u5361", "shopTypes": "\u9762\u5305\u897f\u997c", "consumeTypes": null, "cookTypes": null, "orderNum": 1000, "card4no": null, "card4noAcc": null, "district2": 405, "searchScope": null, "status": 1, "address": "\u5927\u6e21\u6cb3\u8def2120\u53f7\uff08136\u7ec8\u70b9\u7ad9\u8fd1\u4e0a\u6d77\u897f\u7ad9\uff09", "name": "\u514b\u8389\u4e1d\u6c40 \u5927\u6e21\u6cb3\u5e97", "id": 137420, "pageNo": 0, "pageCount": null, "pageSize": 10, "ids": null, "endTime": null, "startTime": null}, {"cardNumFive": null, "isSupportYj": null, "cityName": null, "districtName": null, "shopinfo": {"mid": "888888854410150", "good_flag": null, "new_flag": null, "short_name": "\u514b\u8389\u4e1d\u6c40", "short_name_pinyin": "kelisiting", "status": null, "address": null, "name": null, "id": "32265"}, "mid": "888888854410150", "shopId": "32265", "netid": null, "province": 901, "district": 601, "zipcode": null, "telephone": "58447715/58676207", "posDate": "20090424", "destineTel": null, "togoTel": null, "trafficWay": null, "signBuilding": null, "businessArea": null, "selfRoom": null, "businessTime": null, "stall": null, "consume": null, "serviceFei": null, "favourable": null, "shopMemo": null, "appraise": null, "website": null, "memo": null, "payTypes": "\u6749\u5fb7\u5361", "shopTypes": "\u9762\u5305\u897f\u997c", "consumeTypes": null, "cookTypes": null, "orderNum": 1000, "card4no": null, "card4noAcc": null, "district2": 418, "searchScope": null, "status": 1, "address": "\u5927\u540c\u8def245\u53f7\uff08\u8fd1\u6e05\u6eaa\u8def\uff09", "name": "\u514b\u8389\u4e1d\u6c40 \u5927\u540c\u5e97", "id": 137422, "pageNo": 0, "pageCount": null, "pageSize": 10, "ids": null, "endTime": null, "startTime": null}, {"cardNumFive": null, "isSupportYj": null, "cityName": null, "districtName": null, "shopinfo": {"mid": "888888854410150", "good_flag": null, "new_flag": null, "short_name": "\u514b\u8389\u4e1d\u6c40", "short_name_pinyin": "kelisiting", "status": null, "address": null, "name": null, "id": "32265"}, "mid": "888888854410150", "shopId": "32265", "netid": null, "province": 901, "district": 601, "zipcode": null, "telephone": "36302577", "posDate": "20090429", "destineTel": null, "togoTel": null, "trafficWay": null, "signBuilding": null, "businessArea": null, "selfRoom": null, "businessTime": null, "stall": null, "consume": null, "serviceFei": null, "favourable": null, "shopMemo": null, "appraise": null, "website": null, "memo": null, "payTypes": "\u6749\u5fb7\u5361", "shopTypes": "\u9762\u5305\u897f\u997c", "consumeTypes": null, "cookTypes": null, "orderNum": 1000, "card4no": null, "card4noAcc": null, "district2": 416, "searchScope": null, "status": 1, "address": "\u5fb7\u90fd\u8def20\u53f7\u4e16\u7eaa\u8054\u534e\u5185", "name": "\u514b\u8389\u4e1d\u6c40 \u5fb7\u90fd\u5e97", "id": 137424, "pageNo": 0, "pageCount": null, "pageSize": 10, "ids": null, "endTime": null, "startTime": null}, {"cardNumFive": null, "isSupportYj": null, "cityName": null, "districtName": null, "shopinfo": {"mid": "888888854410150", "good_flag": null, "new_flag": null, "short_name": "\u514b\u8389\u4e1d\u6c40", "short_name_pinyin": "kelisiting", "status": null, "address": null, "name": null, "id": "32265"}, "mid": "888888854410150", "shopId": "32265", "netid": null, "province": 901, "district": 601, "zipcode": null, "telephone": "58021083/58858142", "posDate": "20090424", "destineTel": null, "togoTel": null, "trafficWay": null, "signBuilding": null, "businessArea": null, "selfRoom": null, "businessTime": null, "stall": null, "consume": null, "serviceFei": null, "favourable": null, "shopMemo": null, "appraise": null, "website": null, "memo": null, "payTypes": "\u6749\u5fb7\u5361", "shopTypes": "\u9762\u5305\u897f\u997c", "consumeTypes": null, "cookTypes": null, "orderNum": 1000, "card4no": null, "card4noAcc": null, "district2": 418, "searchScope": null, "status": 1, "address": "\u5fb7\u5e73\u8def16\u53f7-18\u53f7\uff08\u6d66\u4e1c\u5927\u9053/\u5c0f\u7ecd\u5174\u65c1\u8fb9\uff09", "name": "\u514b\u8389\u4e1d\u6c40 \u5fb7\u5e73\u5e97", "id": 137425, "pageNo": 0, "pageCount": null, "pageSize": 10, "ids": null, "endTime": null, "startTime": null}, {"cardNumFive": null, "isSupportYj": null, "cityName": null, "districtName": null, "shopinfo": {"mid": "888888854410150", "good_flag": null, "new_flag": null, "short_name": "\u514b\u8389\u4e1d\u6c40", "short_name_pinyin": "kelisiting", "status": null, "address": null, "name": null, "id": "32265"}, "mid": "888888854410150", "shopId": "32265", "netid": null, "province": 901, "district": 601, "zipcode": null, "telephone": "50707235", "posDate": "20090424", "destineTel": null, "togoTel": null, "trafficWay": null, "signBuilding": null, "businessArea": null, "selfRoom": null, "businessTime": null, "stall": null, "consume": null, "serviceFei": null, "favourable": null, "shopMemo": null, "appraise": null, "website": null, "memo": null, "payTypes": "\u6749\u5fb7\u5361", "shopTypes": "\u9762\u5305\u897f\u997c", "consumeTypes": null, "cookTypes": null, "orderNum": 1000, "card4no": null, "card4noAcc": null, "district2": 418, "searchScope": null, "status": 1, "address": "\u5fb7\u5e73\u8def1110\u53f7", "name": "\u514b\u8389\u4e1d\u6c40 \u5fb7\u5e73\u4e8c\u5e97", "id": 137426, "pageNo": 0, "pageCount": null, "pageSize": 10, "ids": null, "endTime": null, "startTime": null}, {"cardNumFive": null, "isSupportYj": null, "cityName": null, "districtName": null, "shopinfo": {"mid": "888888854410150", "good_flag": null, "new_flag": null, "short_name": "\u514b\u8389\u4e1d\u6c40", "short_name_pinyin": "kelisiting", "status": null, "address": null, "name": null, "id": "32265"}, "mid": "888888854410150", "shopId": "32265", "netid": null, "province": 901, "district": 601, "zipcode": null, "telephone": "69125797", "posDate": "20090420", "destineTel": null, "togoTel": null, "trafficWay": null, "signBuilding": null, "businessArea": null, "selfRoom": null, "businessTime": null, "stall": null, "consume": null, "serviceFei": null, "favourable": null, "shopMemo": null, "appraise": null, "website": null, "memo": null, "payTypes": "\u6749\u5fb7\u5361", "shopTypes": "\u9762\u5305\u897f\u997c", "consumeTypes": null, "cookTypes": null, "orderNum": 1000, "card4no": null, "card4noAcc": null, "district2": 411, "searchScope": null, "status": 1, "address": "\u5fb7\u56ed\u8def610\u53f7", "name": "\u514b\u8389\u4e1d\u6c40 \u5fb7\u56ed\u5e97", "id": 137427, "pageNo": 0, "pageCount": null, "pageSize": 10, "ids": null, "endTime": null, "startTime": null}, {"cardNumFive": null, "isSupportYj": null, "cityName": null, "districtName": null, "shopinfo": {"mid": "888888854410150", "good_flag": null, "new_flag": null, "short_name": "\u514b\u8389\u4e1d\u6c40", "short_name_pinyin": "kelisiting", "status": null, "address": null, "name": null, "id": "32265"}, "mid": "888888854410150", "shopId": "32265", "netid": null, "province": 901, "district": 601, "zipcode": null, "telephone": "22056092", "posDate": "20090427", "destineTel": null, "togoTel": null, "trafficWay": null, "signBuilding": null, "businessArea": null, "selfRoom": null, "businessTime": null, "stall": null, "consume": null, "serviceFei": null, "favourable": null, "shopMemo": null, "appraise": null, "website": null, "memo": null, "payTypes": "\u6749\u5fb7\u5361", "shopTypes": "\u9762\u5305\u897f\u997c", "consumeTypes": null, "cookTypes": null, "orderNum": 1000, "card4no": null, "card4noAcc": null, "district2": 406, "searchScope": null, "status": 1, "address": "\u4e8c\u53f7\u7ebf\u5a01\u5b81\u8def\u7ad92-105\u53f7", "name": "\u514b\u8389\u4e1d\u6c40 \u5730\u94c1\u5a01\u5b81\u5e97", "id": 137430, "pageNo": 0, "pageCount": null, "pageSize": 10, "ids": null, "endTime": null, "startTime": null}, {"cardNumFive": null, "isSupportYj": null, "cityName": null, "districtName": null, "shopinfo": {"mid": "888888854410150", "good_flag": null, "new_flag": null, "short_name": "\u514b\u8389\u4e1d\u6c40", "short_name_pinyin": "kelisiting", "status": null, "address": null, "name": null, "id": "32265"}, "mid": "888888854410150", "shopId": "32265", "netid": null, "province": 901, "district": 601, "zipcode": null, "telephone": "26031000-33151", "posDate": "20090423", "destineTel": null, "togoTel": null, "trafficWay": null, "signBuilding": null, "businessArea": null, "selfRoom": null, "businessTime": null, "stall": null, "consume": null, "serviceFei": null, "favourable": null, "shopMemo": null, "appraise": null, "website": null, "memo": null, "payTypes": "\u6749\u5fb7\u5361", "shopTypes": "\u9762\u5305\u897f\u997c", "consumeTypes": null, "cookTypes": null, "orderNum": 1000, "card4no": null, "card4noAcc": null, "district2": 408, "searchScope": null, "status": 1, "address": "\u660e\u73e0\u7ebf\u4e1c\u5b9d\u5174\u7ad9", "name": "\u514b\u8389\u4e1d\u6c40 \u4e1c\u5b9d\u5174\u5e97", "id": 137431, "pageNo": 0, "pageCount": null, "pageSize": 10, "ids": null, "endTime": null, "startTime": null}, {"cardNumFive": null, "isSupportYj": null, "cityName": null, "districtName": null, "shopinfo": {"mid": "888888854410150", "good_flag": null, "new_flag": null, "short_name": "\u514b\u8389\u4e1d\u6c40", "short_name_pinyin": "kelisiting", "status": null, "address": null, "name": null, "id": "32265"}, "mid": "888888854410150", "shopId": "32265", "netid": null, "province": 901, "district": 601, "zipcode": null, "telephone": "68467345", "posDate": "20090424", "destineTel": null, "togoTel": null, "trafficWay": null, "signBuilding": null, "businessArea": null, "selfRoom": null, "businessTime": null, "stall": null, "consume": null, "serviceFei": null, "favourable": null, "shopMemo": null, "appraise": null, "website": null, "memo": null, "payTypes": "\u6749\u5fb7\u5361", "shopTypes": "\u9762\u5305\u897f\u997c", "consumeTypes": null, "cookTypes": null, "orderNum": 1000, "card4no": null, "card4noAcc": null, "district2": 418, "searchScope": null, "status": 1, "address": "\u4e1c\u6ce2\u8def23\u53f7-25\u53f7\uff08\u8fd1\u6d66\u4e1c\u5927\u9053\uff09", "name": "\u514b\u8389\u4e1d\u6c40 \u4e1c\u6ce2\u5e97", "id": 137432, "pageNo": 0, "pageCount": null, "pageSize": 10, "ids": null, "endTime": null, "startTime": null}], "pageLimit": 4210, "size": 10}