{"pageCount": 1095, "count": 10942, "pageNo": 430, "subShopInfo": {"cardNumFive": "", "isSupportYj": "", "cityName": null, "districtName": null, "shopinfo": {"mid": null, "good_flag": null, "new_flag": null, "short_name": null, "short_name_pinyin": null, "status": null, "address": "", "name": "", "id": null}, "mid": null, "shopId": null, "netid": null, "province": 901, "district": null, "zipcode": null, "telephone": null, "posDate": null, "destineTel": null, "togoTel": null, "trafficWay": null, "signBuilding": null, "businessArea": null, "selfRoom": null, "businessTime": null, "stall": null, "consume": null, "serviceFei": null, "favourable": null, "shopMemo": "1", "appraise": null, "website": null, "memo": null, "payTypes": "", "shopTypes": "", "consumeTypes": null, "cookTypes": null, "orderNum": null, "card4no": null, "card4noAcc": null, "district2": null, "searchScope": null, "status": null, "address": "", "name": null, "id": null, "pageNo": 429, "pageCount": null, "pageSize": 10, "ids": null, "endTime": null, "startTime": null}, "list": [{"cardNumFive": null, "isSupportYj": null, "cityName": null, "districtName": null, "shopinfo": {"mid": "888888854410150", "good_flag": null, "new_flag": null, "short_name": "\u514b\u8389\u4e1d\u6c40", "short_name_pinyin": "kelisiting", "status": null, "address": null, "name": null, "id": "32265"}, "mid": "888888854410150", "shopId": "32265", "netid": null, "province": 901, "district": 601, "zipcode": null, "telephone": null, "posDate": "20100604", "destineTel": null, "togoTel": null, "trafficWay": null, "signBuilding": null, "businessArea": null, "selfRoom": null, "businessTime": null, "stall": null, "consume": null, "serviceFei": null, "favourable": null, "shopMemo": null, "appraise": null, "website": null, "memo": null, "payTypes": "\u6749\u5fb7\u5361", "shopTypes": "\u9762\u5305\u897f\u997c", "consumeTypes": null, "cookTypes": null, "orderNum": 1000, "card4no": null, "card4noAcc": null, "district2": 409, "searchScope": null, "status": 1, "address": "\u95f5\u884c\u533a\u666f\u8c37\u8def168\u53f7\u4e59102\u5ba4", "name": "\u514b\u8389\u4e1d\u6c40 \u666f\u8c37\u5e97", "id": 137531, "pageNo": 0, "pageCount": null, "pageSize": 10, "ids": null, "endTime": null, "startTime": null}, {"cardNumFive": null, "isSupportYj": null, "cityName": null, "districtName": null, "shopinfo": {"mid": "888888854410150", "good_flag": null, "new_flag": null, "short_name": "\u514b\u8389\u4e1d\u6c40", "short_name_pinyin": "kelisiting", "status": null, "address": null, "name": null, "id": "32265"}, "mid": "888888854410150", "shopId": "32265", "netid": null, "province": 901, "district": 601, "zipcode": null, "telephone": "65436913/65431422", "posDate": "20090422", "destineTel": null, "togoTel": null, "trafficWay": null, "signBuilding": null, "businessArea": null, "selfRoom": null, "businessTime": null, "stall": null, "consume": null, "serviceFei": null, "favourable": null, "shopMemo": null, "appraise": null, "website": null, "memo": null, "payTypes": "\u6749\u5fb7\u5361", "shopTypes": "\u9762\u5305\u897f\u997c", "consumeTypes": null, "cookTypes": null, "orderNum": 1000, "card4no": null, "card4noAcc": null, "district2": 407, "searchScope": null, "status": 1, "address": "\u9756\u5b87\u5357\u8def5\u53f7(\u8fd1\u63a7\u6c5f\u8def\\90\u8def\u7ec8\u70b9\u7ad9)", "name": "\u514b\u8389\u4e1d\u6c40 \u9756\u5b87\u5357\u8def\u5e97", "id": 137532, "pageNo": 0, "pageCount": null, "pageSize": 10, "ids": null, "endTime": null, "startTime": null}, {"cardNumFive": null, "isSupportYj": null, "cityName": null, "districtName": null, "shopinfo": {"mid": "888888854410150", "good_flag": null, "new_flag": null, "short_name": "\u514b\u8389\u4e1d\u6c40", "short_name_pinyin": "kelisiting", "status": null, "address": null, "name": null, "id": "32265"}, "mid": "888888854410150", "shopId": "32265", "netid": null, "province": 901, "district": 601, "zipcode": null, "telephone": "56139103", "posDate": "20090420", "destineTel": null, "togoTel": null, "trafficWay": null, "signBuilding": null, "businessArea": null, "selfRoom": null, "businessTime": null, "stall": null, "consume": null, "serviceFei": null, "favourable": null, "shopMemo": null, "appraise": null, "website": null, "memo": null, "payTypes": "\u6749\u5fb7\u5361", "shopTypes": "\u9762\u5305\u897f\u997c", "consumeTypes": null, "cookTypes": null, "orderNum": 1000, "card4no": null, "card4noAcc": null, "district2": 411, "searchScope": null, "status": 1, "address": "\u6c5f\u6865\u9547\u9756\u8fdc\u8def701\u53f7", "name": "\u514b\u8389\u4e1d\u6c40 \u9756\u8fdc\u5e97", "id": 137533, "pageNo": 0, "pageCount": null, "pageSize": 10, "ids": null, "endTime": null, "startTime": null}, {"cardNumFive": null, "isSupportYj": null, "cityName": null, "districtName": null, "shopinfo": {"mid": "888888854410150", "good_flag": null, "new_flag": null, "short_name": "\u514b\u8389\u4e1d\u6c40", "short_name_pinyin": "kelisiting", "status": null, "address": null, "name": null, "id": "32265"}, "mid": "888888854410150", "shopId": "32265", "netid": null, "province": 901, "district": 601, "zipcode": null, "telephone": "67695378", "posDate": "20090421", "destineTel": null, "togoTel": null, "trafficWay": null, "signBuilding": null, "businessArea": null, "selfRoom": null, "businessTime": null, "stall": null, "consume": null, "serviceFei": null, "favourable": null, "shopMemo": null, "appraise": null, "website": null, "memo": null, "payTypes": "\u6749\u5fb7\u5361", "shopTypes": "\u9762\u5305\u897f\u997c", "consumeTypes": null, "cookTypes": null, "orderNum": 1000, "card4no": null, "card4noAcc": null, "district2": 412, "searchScope": null, "status": 1, "address": "\u4e5d\u4ead\u5927\u8857264-2\u53f7\uff08\u8fd1\u6d9e\u4ead\u8def\uff09", "name": "\u514b\u8389\u4e1d\u6c40 \u4e5d\u4ead\u5927\u8857\u4e8c\u5e97", "id": 137535, "pageNo": 0, "pageCount": null, "pageSize": 10, "ids": null, "endTime": null, "startTime": null}, {"cardNumFive": null, "isSupportYj": null, "cityName": null, "districtName": null, "shopinfo": {"mid": "888888854410150", "good_flag": null, "new_flag": null, "short_name": "\u514b\u8389\u4e1d\u6c40", "short_name_pinyin": "kelisiting", "status": null, "address": null, "name": null, "id": "32265"}, "mid": "888888854410150", "shopId": "32265", "netid": null, "province": 901, "district": 601, "zipcode": null, "telephone": "68970530", "posDate": "20090424", "destineTel": null, "togoTel": null, "trafficWay": null, "signBuilding": null, "businessArea": null, "selfRoom": null, "businessTime": null, "stall": null, "consume": null, "serviceFei": null, "favourable": null, "shopMemo": null, "appraise": null, "website": null, "memo": null, "payTypes": "\u6749\u5fb7\u5361", "shopTypes": "\u9762\u5305\u897f\u997c", "consumeTypes": null, "cookTypes": null, "orderNum": 1000, "card4no": null, "card4noAcc": null, "district2": 418, "searchScope": null, "status": 1, "address": "\u4ff1\u8fdb\u8def358\u53f7", "name": "\u514b\u8389\u4e1d\u6c40 \u4ff1\u8fdb\u8def\u5e97", "id": 137537, "pageNo": 0, "pageCount": null, "pageSize": 10, "ids": null, "endTime": null, "startTime": null}, {"cardNumFive": null, "isSupportYj": null, "cityName": null, "districtName": null, "shopinfo": {"mid": "888888854410150", "good_flag": null, "new_flag": null, "short_name": "\u514b\u8389\u4e1d\u6c40", "short_name_pinyin": "kelisiting", "status": null, "address": null, "name": null, "id": "32265"}, "mid": "888888854410150", "shopId": "32265", "netid": null, "province": 901, "district": 601, "zipcode": null, "telephone": "66165557", "posDate": "20090429", "destineTel": null, "togoTel": null, "trafficWay": null, "signBuilding": null, "businessArea": null, "selfRoom": null, "businessTime": null, "stall": null, "consume": null, "serviceFei": null, "favourable": null, "shopMemo": null, "appraise": null, "website": null, "memo": null, "payTypes": "\u6749\u5fb7\u5361", "shopTypes": "\u9762\u5305\u897f\u997c", "consumeTypes": null, "cookTypes": null, "orderNum": 1000, "card4no": null, "card4noAcc": null, "district2": 416, "searchScope": null, "status": 1, "address": "\u805a\u4e30\u56ed\u8def9\u5f041\u53f7(\u4e0a\u6d77\u5927\u5b66\\\u8fd1\u7941\u8fde\u5c71\u8def)", "name": "\u514b\u8389\u4e1d\u6c40 \u805a\u4e30\u56ed\u8def\u5e97", "id": 137538, "pageNo": 0, "pageCount": null, "pageSize": 10, "ids": null, "endTime": null, "startTime": null}, {"cardNumFive": null, "isSupportYj": null, "cityName": null, "districtName": null, "shopinfo": {"mid": "888888854410150", "good_flag": null, "new_flag": null, "short_name": "\u514b\u8389\u4e1d\u6c40", "short_name_pinyin": "kelisiting", "status": null, "address": null, "name": null, "id": "32265"}, "mid": "888888854410150", "shopId": "32265", "netid": null, "province": 901, "district": 601, "zipcode": null, "telephone": "63085983", "posDate": "20090427", "destineTel": null, "togoTel": null, "trafficWay": null, "signBuilding": null, "businessArea": null, "selfRoom": null, "businessTime": null, "stall": null, "consume": null, "serviceFei": null, "favourable": null, "shopMemo": null, "appraise": null, "website": null, "memo": null, "payTypes": "\u6749\u5fb7\u5361", "shopTypes": "\u9762\u5305\u897f\u997c", "consumeTypes": null, "cookTypes": null, "orderNum": 1000, "card4no": null, "card4noAcc": null, "district2": 401, "searchScope": null, "status": 1, "address": "\u77bf\u6eaa\u8def135\u53f7-137\u53f7\uff08\u8fd1\u5357\u8f66\u7ad9\u8def\uff09", "name": "\u514b\u8389\u4e1d\u6c40 \u77bf\u6eaa\u5e97", "id": 137539, "pageNo": 0, "pageCount": null, "pageSize": 10, "ids": null, "endTime": null, "startTime": null}, {"cardNumFive": null, "isSupportYj": null, "cityName": null, "districtName": null, "shopinfo": {"mid": "888888854410150", "good_flag": null, "new_flag": null, "short_name": "\u514b\u8389\u4e1d\u6c40", "short_name_pinyin": "kelisiting", "status": null, "address": null, "name": null, "id": "32265"}, "mid": "888888854410150", "shopId": "32265", "netid": null, "province": 901, "district": 601, "zipcode": null, "telephone": "55490074", "posDate": "20090422", "destineTel": null, "togoTel": null, "trafficWay": null, "signBuilding": null, "businessArea": null, "selfRoom": null, "businessTime": null, "stall": null, "consume": null, "serviceFei": null, "favourable": null, "shopMemo": null, "appraise": null, "website": null, "memo": null, "payTypes": "\u6749\u5fb7\u5361", "shopTypes": "\u9762\u5305\u897f\u997c", "consumeTypes": null, "cookTypes": null, "orderNum": 1000, "card4no": null, "card4noAcc": null, "district2": 407, "searchScope": null, "status": 1, "address": "\u5f00\u9c81\u8def515\u53f7", "name": "\u514b\u8389\u4e1d\u6c40 \u5f00\u9c81\u5e97", "id": 137540, "pageNo": 0, "pageCount": null, "pageSize": 10, "ids": null, "endTime": null, "startTime": null}, {"cardNumFive": null, "isSupportYj": null, "cityName": null, "districtName": null, "shopinfo": {"mid": "888888854410150", "good_flag": null, "new_flag": null, "short_name": "\u514b\u8389\u4e1d\u6c40", "short_name_pinyin": "kelisiting", "status": null, "address": null, "name": null, "id": "32265"}, "mid": "888888854410150", "shopId": "32265", "netid": null, "province": 901, "district": 601, "zipcode": null, "telephone": "62530134", "posDate": "20090428", "destineTel": null, "togoTel": null, "trafficWay": null, "signBuilding": null, "businessArea": null, "selfRoom": null, "businessTime": null, "stall": null, "consume": null, "serviceFei": null, "favourable": null, "shopMemo": null, "appraise": null, "website": null, "memo": null, "payTypes": "\u6749\u5fb7\u5361", "shopTypes": "\u9762\u5305\u897f\u997c", "consumeTypes": null, "cookTypes": null, "orderNum": 1000, "card4no": null, "card4noAcc": null, "district2": 404, "searchScope": null, "status": 1, "address": "\u5eb7\u5b9a\u8def463\u53f7\uff08\u897f\u5eb7\u8def\u53e3\uff09", "name": "\u514b\u8389\u4e1d\u6c40 \u5eb7\u5b9a\u5e97", "id": 137541, "pageNo": 0, "pageCount": null, "pageSize": 10, "ids": null, "endTime": null, "startTime": null}, {"cardNumFive": null, "isSupportYj": null, "cityName": null, "districtName": null, "shopinfo": {"mid": "888888854410150", "good_flag": null, "new_flag": null, "short_name": "\u514b\u8389\u4e1d\u6c40", "short_name_pinyin": "kelisiting", "status": null, "address": null, "name": null, "id": "32265"}, "mid": "888888854410150", "shopId": "32265", "netid": null, "province": 901, "district": 601, "zipcode": null, "telephone": "68110473", "posDate": "20090420", "destineTel": null, "togoTel": null, "trafficWay": null, "signBuilding": null, "businessArea": null, "selfRoom": null, "businessTime": null, "stall": null, "consume": null, "serviceFei": null, "favourable": null, "shopMemo": null, "appraise": null, "website": null, "memo": null, "payTypes": "\u6749\u5fb7\u5361", "shopTypes": "\u9762\u5305\u897f\u997c", "consumeTypes": null, "cookTypes": null, "orderNum": 1000, "card4no": null, "card4noAcc": null, "district2": 418, "searchScope": null, "status": 1, "address": "\u5eb7\u6c88\u8def1604\u53f7", "name": "\u514b\u8389\u4e1d\u6c40 \u5eb7\u6c88\u5e97", "id": 137543, "pageNo": 0, "pageCount": null, "pageSize": 10, "ids": null, "endTime": null, "startTime": null}], "pageLimit": 4290, "size": 10}