{"pageCount": 1095, "count": 10942, "pageNo": 432, "subShopInfo": {"cardNumFive": "", "isSupportYj": "", "cityName": null, "districtName": null, "shopinfo": {"mid": null, "good_flag": null, "new_flag": null, "short_name": null, "short_name_pinyin": null, "status": null, "address": "", "name": "", "id": null}, "mid": null, "shopId": null, "netid": null, "province": 901, "district": null, "zipcode": null, "telephone": null, "posDate": null, "destineTel": null, "togoTel": null, "trafficWay": null, "signBuilding": null, "businessArea": null, "selfRoom": null, "businessTime": null, "stall": null, "consume": null, "serviceFei": null, "favourable": null, "shopMemo": "1", "appraise": null, "website": null, "memo": null, "payTypes": "", "shopTypes": "", "consumeTypes": null, "cookTypes": null, "orderNum": null, "card4no": null, "card4noAcc": null, "district2": null, "searchScope": null, "status": null, "address": "", "name": null, "id": null, "pageNo": 431, "pageCount": null, "pageSize": 10, "ids": null, "endTime": null, "startTime": null}, "list": [{"cardNumFive": null, "isSupportYj": null, "cityName": null, "districtName": null, "shopinfo": {"mid": "888888854410150", "good_flag": null, "new_flag": null, "short_name": "\u514b\u8389\u4e1d\u6c40", "short_name_pinyin": "kelisiting", "status": null, "address": null, "name": null, "id": "32265"}, "mid": "888888854410150", "shopId": "32265", "netid": null, "province": 901, "district": 601, "zipcode": null, "telephone": "59250281", "posDate": "200908", "destineTel": null, "togoTel": null, "trafficWay": "\u516c\u4ea4\u9752\u67ab\u7ebf\u3001\u9752\u77f3\u7ebf", "signBuilding": null, "businessArea": null, "selfRoom": null, "businessTime": null, "stall": null, "consume": null, "serviceFei": null, "favourable": null, "shopMemo": null, "appraise": null, "website": null, "memo": null, "payTypes": "\u6749\u5fb7\u5361", "shopTypes": "\u9762\u5305\u897f\u997c", "consumeTypes": null, "cookTypes": null, "orderNum": 1000, "card4no": null, "card4noAcc": null, "district2": 417, "searchScope": null, "status": 1, "address": "\u7ec3\u65b0\u8def115\u53f7", "name": "\u514b\u8389\u4e1d\u6c40 \u7ec3\u65b0\u8def\u5e97", "id": 137557, "pageNo": 0, "pageCount": null, "pageSize": 10, "ids": null, "endTime": null, "startTime": null}, {"cardNumFive": null, "isSupportYj": null, "cityName": null, "districtName": null, "shopinfo": {"mid": "888888854410150", "good_flag": null, "new_flag": null, "short_name": "\u514b\u8389\u4e1d\u6c40", "short_name_pinyin": "kelisiting", "status": null, "address": null, "name": null, "id": "32265"}, "mid": "888888854410150", "shopId": "32265", "netid": null, "province": 901, "district": 601, "zipcode": null, "telephone": "65285475", "posDate": "20090423", "destineTel": null, "togoTel": null, "trafficWay": null, "signBuilding": null, "businessArea": null, "selfRoom": null, "businessTime": null, "stall": null, "consume": null, "serviceFei": null, "favourable": null, "shopMemo": null, "appraise": null, "website": null, "memo": null, "payTypes": "\u6749\u5fb7\u5361", "shopTypes": "\u9762\u5305\u897f\u997c", "consumeTypes": null, "cookTypes": null, "orderNum": 1000, "card4no": null, "card4noAcc": null, "district2": 408, "searchScope": null, "status": 1, "address": "\u51c9\u57ce\u8def599\u53f7(\u8f66\u7ad9\u5357\u8def)", "name": "\u514b\u8389\u4e1d\u6c40 \u51c9\u57ce\u5e97", "id": 137558, "pageNo": 0, "pageCount": null, "pageSize": 10, "ids": null, "endTime": null, "startTime": null}, {"cardNumFive": null, "isSupportYj": null, "cityName": null, "districtName": null, "shopinfo": {"mid": "888888854410150", "good_flag": null, "new_flag": null, "short_name": "\u514b\u8389\u4e1d\u6c40", "short_name_pinyin": "kelisiting", "status": null, "address": null, "name": null, "id": "32265"}, "mid": "888888854410150", "shopId": "32265", "netid": null, "province": 901, "district": 601, "zipcode": null, "telephone": "56912247", "posDate": "20090423", "destineTel": null, "togoTel": null, "trafficWay": null, "signBuilding": null, "businessArea": null, "selfRoom": null, "businessTime": null, "stall": null, "consume": null, "serviceFei": null, "favourable": null, "shopMemo": null, "appraise": null, "website": null, "memo": null, "payTypes": "\u6749\u5fb7\u5361", "shopTypes": "\u9762\u5305\u897f\u997c", "consumeTypes": null, "cookTypes": null, "orderNum": 1000, "card4no": null, "card4noAcc": null, "district2": 410, "searchScope": null, "status": 1, "address": "\u5e73\u987a\u8def81\u53f7\u7532\uff08\u4e34\u6c7e\u8def\u53e3\uff09", "name": "\u514b\u8389\u4e1d\u6c40 \u4e34\u6c7e\u5e97", "id": 137559, "pageNo": 0, "pageCount": null, "pageSize": 10, "ids": null, "endTime": null, "startTime": null}, {"cardNumFive": null, "isSupportYj": null, "cityName": null, "districtName": null, "shopinfo": {"mid": "888888854410150", "good_flag": null, "new_flag": null, "short_name": "\u514b\u8389\u4e1d\u6c40", "short_name_pinyin": "kelisiting", "status": null, "address": null, "name": null, "id": "32265"}, "mid": "888888854410150", "shopId": "32265", "netid": null, "province": 901, "district": 601, "zipcode": null, "telephone": "50393901/50386197", "posDate": "20090424", "destineTel": null, "togoTel": null, "trafficWay": null, "signBuilding": null, "businessArea": null, "selfRoom": null, "businessTime": null, "stall": null, "consume": null, "serviceFei": null, "favourable": null, "shopMemo": null, "appraise": null, "website": null, "memo": null, "payTypes": "\u6749\u5fb7\u5361", "shopTypes": "\u9762\u5305\u897f\u997c", "consumeTypes": null, "cookTypes": null, "orderNum": 1000, "card4no": null, "card4noAcc": null, "district2": 418, "searchScope": null, "status": 1, "address": "\u4e34\u6c82\u8def366\u53f7\uff08\u8fd1\u534e\u4e30\u8def\uff09", "name": "\u514b\u8389\u4e1d\u6c40 \u4e34\u6c82\u5e97", "id": 137560, "pageNo": 0, "pageCount": null, "pageSize": 10, "ids": null, "endTime": null, "startTime": null}, {"cardNumFive": null, "isSupportYj": null, "cityName": null, "districtName": null, "shopinfo": {"mid": "888888854410150", "good_flag": null, "new_flag": null, "short_name": "\u514b\u8389\u4e1d\u6c40", "short_name_pinyin": "kelisiting", "status": null, "address": null, "name": null, "id": "32265"}, "mid": "888888854410150", "shopId": "32265", "netid": null, "province": 901, "district": 601, "zipcode": null, "telephone": "56613534", "posDate": "20090423", "destineTel": null, "togoTel": null, "trafficWay": null, "signBuilding": null, "businessArea": null, "selfRoom": null, "businessTime": null, "stall": null, "consume": null, "serviceFei": null, "favourable": null, "shopMemo": null, "appraise": null, "website": null, "memo": null, "payTypes": "\u6749\u5fb7\u5361", "shopTypes": "\u9762\u5305\u897f\u997c", "consumeTypes": null, "cookTypes": null, "orderNum": 1000, "card4no": null, "card4noAcc": null, "district2": 410, "searchScope": null, "status": 1, "address": "\u7075\u77f3\u8def894\u53f7\uff08\u8fd1\u6caa\u592a\u8def\uff09", "name": "\u514b\u8389\u4e1d\u6c40 \u7075\u77f3\u5e97", "id": 137561, "pageNo": 0, "pageCount": null, "pageSize": 10, "ids": null, "endTime": null, "startTime": null}, {"cardNumFive": null, "isSupportYj": null, "cityName": null, "districtName": null, "shopinfo": {"mid": "888888854410150", "good_flag": null, "new_flag": null, "short_name": "\u514b\u8389\u4e1d\u6c40", "short_name_pinyin": "kelisiting", "status": null, "address": null, "name": null, "id": "32265"}, "mid": "888888854410150", "shopId": "32265", "netid": null, "province": 901, "district": 601, "zipcode": null, "telephone": "66836227", "posDate": "20090423", "destineTel": null, "togoTel": null, "trafficWay": null, "signBuilding": null, "businessArea": null, "selfRoom": null, "businessTime": null, "stall": null, "consume": null, "serviceFei": null, "favourable": null, "shopMemo": null, "appraise": null, "website": null, "memo": null, "payTypes": "\u6749\u5fb7\u5361", "shopTypes": "\u9762\u5305\u897f\u997c", "consumeTypes": null, "cookTypes": null, "orderNum": 1000, "card4no": null, "card4noAcc": null, "district2": 410, "searchScope": null, "status": 1, "address": "\u5cad\u5357\u8def690\u53f7\uff08\u8fd1\u4fdd\u5fb7\u8def\uff09", "name": "\u514b\u8389\u4e1d\u6c40 \u5cad\u5357\u5e97", "id": 137562, "pageNo": 0, "pageCount": null, "pageSize": 10, "ids": null, "endTime": null, "startTime": null}, {"cardNumFive": null, "isSupportYj": null, "cityName": null, "districtName": null, "shopinfo": {"mid": "888888854410150", "good_flag": null, "new_flag": null, "short_name": "\u514b\u8389\u4e1d\u6c40", "short_name_pinyin": "kelisiting", "status": null, "address": null, "name": null, "id": "32265"}, "mid": "888888854410150", "shopId": "32265", "netid": null, "province": 901, "district": 601, "zipcode": null, "telephone": "50826634", "posDate": "20090424", "destineTel": null, "togoTel": null, "trafficWay": null, "signBuilding": null, "businessArea": null, "selfRoom": null, "businessTime": null, "stall": null, "consume": null, "serviceFei": null, "favourable": null, "shopMemo": null, "appraise": null, "website": null, "memo": null, "payTypes": "\u6749\u5fb7\u5361", "shopTypes": "\u9762\u5305\u897f\u997c", "consumeTypes": null, "cookTypes": null, "orderNum": 1000, "card4no": null, "card4noAcc": null, "district2": 418, "searchScope": null, "status": 1, "address": "\u51cc\u5146\u8def373\u53f7", "name": "\u514b\u8389\u4e1d\u6c40 \u51cc\u5146\u5e97", "id": 137564, "pageNo": 0, "pageCount": null, "pageSize": 10, "ids": null, "endTime": null, "startTime": null}, {"cardNumFive": null, "isSupportYj": null, "cityName": null, "districtName": null, "shopinfo": {"mid": "888888854410150", "good_flag": null, "new_flag": null, "short_name": "\u514b\u8389\u4e1d\u6c40", "short_name_pinyin": "kelisiting", "status": null, "address": null, "name": null, "id": "32265"}, "mid": "888888854410150", "shopId": "32265", "netid": null, "province": 901, "district": 601, "zipcode": null, "telephone": "64176298", "posDate": "20090418", "destineTel": null, "togoTel": null, "trafficWay": null, "signBuilding": null, "businessArea": null, "selfRoom": null, "businessTime": null, "stall": null, "consume": null, "serviceFei": null, "favourable": null, "shopMemo": null, "appraise": null, "website": null, "memo": null, "payTypes": "\u6749\u5fb7\u5361", "shopTypes": "\u9762\u5305\u897f\u997c", "consumeTypes": null, "cookTypes": null, "orderNum": 1000, "card4no": null, "card4noAcc": null, "district2": 403, "searchScope": null, "status": 1, "address": "\u96f6\u9675\u8def354\u53f7(\u4e1c\u5b89\u8def\u53e3)", "name": "\u514b\u8389\u4e1d\u6c40 \u96f6\u9675\u5e97", "id": 137565, "pageNo": 0, "pageCount": null, "pageSize": 10, "ids": null, "endTime": null, "startTime": null}, {"cardNumFive": null, "isSupportYj": null, "cityName": null, "districtName": null, "shopinfo": {"mid": "888888854410150", "good_flag": null, "new_flag": null, "short_name": "\u514b\u8389\u4e1d\u6c40", "short_name_pinyin": "kelisiting", "status": null, "address": null, "name": null, "id": "32265"}, "mid": "888888854410150", "shopId": "32265", "netid": null, "province": 901, "district": 601, "zipcode": null, "telephone": "51110201", "posDate": "20090430", "destineTel": null, "togoTel": null, "trafficWay": null, "signBuilding": null, "businessArea": null, "selfRoom": null, "businessTime": null, "stall": null, "consume": null, "serviceFei": null, "favourable": null, "shopMemo": null, "appraise": null, "website": null, "memo": null, "payTypes": "\u6749\u5fb7\u5361", "shopTypes": "\u9762\u5305\u897f\u997c", "consumeTypes": null, "cookTypes": null, "orderNum": 1000, "card4no": null, "card4noAcc": null, "district2": 409, "searchScope": null, "status": 1, "address": "\u9f99\u8317\u8def1670\u53f7", "name": "\u514b\u8389\u4e1d\u6c40 \u9f99\u8317\u4e09\u5e97", "id": 137571, "pageNo": 0, "pageCount": null, "pageSize": 10, "ids": null, "endTime": null, "startTime": null}, {"cardNumFive": null, "isSupportYj": null, "cityName": null, "districtName": null, "shopinfo": {"mid": "888888854410150", "good_flag": null, "new_flag": null, "short_name": "\u514b\u8389\u4e1d\u6c40", "short_name_pinyin": "kelisiting", "status": null, "address": null, "name": null, "id": "32265"}, "mid": "888888854410150", "shopId": "32265", "netid": null, "province": 901, "district": 601, "zipcode": null, "telephone": "54106258", "posDate": "20090418", "destineTel": null, "togoTel": null, "trafficWay": null, "signBuilding": null, "businessArea": null, "selfRoom": null, "businessTime": null, "stall": null, "consume": null, "serviceFei": null, "favourable": null, "shopMemo": null, "appraise": null, "website": null, "memo": null, "payTypes": "\u6749\u5fb7\u5361", "shopTypes": "\u9762\u5305\u897f\u997c", "consumeTypes": null, "cookTypes": null, "orderNum": 1000, "card4no": null, "card4noAcc": null, "district2": 403, "searchScope": null, "status": 1, "address": "\u9f99\u6c34\u5317\u8def871\u53f7(\u9f99\u5434\u8def\u53e3)", "name": "\u514b\u8389\u4e1d\u6c40 \u9f99\u6c34\u5317\u8def\u5e97", "id": 137572, "pageNo": 0, "pageCount": null, "pageSize": 10, "ids": null, "endTime": null, "startTime": null}], "pageLimit": 4310, "size": 10}