{"pageCount": 1095, "count": 10942, "pageNo": 444, "subShopInfo": {"cardNumFive": "", "isSupportYj": "", "cityName": null, "districtName": null, "shopinfo": {"mid": null, "good_flag": null, "new_flag": null, "short_name": null, "short_name_pinyin": null, "status": null, "address": "", "name": "", "id": null}, "mid": null, "shopId": null, "netid": null, "province": 901, "district": null, "zipcode": null, "telephone": null, "posDate": null, "destineTel": null, "togoTel": null, "trafficWay": null, "signBuilding": null, "businessArea": null, "selfRoom": null, "businessTime": null, "stall": null, "consume": null, "serviceFei": null, "favourable": null, "shopMemo": "1", "appraise": null, "website": null, "memo": null, "payTypes": "", "shopTypes": "", "consumeTypes": null, "cookTypes": null, "orderNum": null, "card4no": null, "card4noAcc": null, "district2": null, "searchScope": null, "status": null, "address": "", "name": null, "id": null, "pageNo": 443, "pageCount": null, "pageSize": 10, "ids": null, "endTime": null, "startTime": null}, "list": [{"cardNumFive": null, "isSupportYj": null, "cityName": null, "districtName": null, "shopinfo": {"mid": "888888854410150", "good_flag": null, "new_flag": null, "short_name": "\u514b\u8389\u4e1d\u6c40", "short_name_pinyin": "kelisiting", "status": null, "address": null, "name": null, "id": "32265"}, "mid": "888888854410150", "shopId": "32265", "netid": null, "province": 901, "district": 601, "zipcode": null, "telephone": "63601476", "posDate": "20090422", "destineTel": null, "togoTel": null, "trafficWay": null, "signBuilding": null, "businessArea": null, "selfRoom": null, "businessTime": null, "stall": null, "consume": null, "serviceFei": null, "favourable": null, "shopMemo": null, "appraise": null, "website": null, "memo": null, "payTypes": "\u6749\u5fb7\u5361", "shopTypes": "\u9762\u5305\u897f\u997c", "consumeTypes": null, "cookTypes": null, "orderNum": 1000, "card4no": null, "card4noAcc": null, "district2": 401, "searchScope": null, "status": 1, "address": "\u6d59\u6c5f\u4e2d\u8def636\u53f7\uff08\u8fd1\u53a6\u95e8\u8def\uff09", "name": "\u514b\u8389\u4e1d\u6c40 \u53a6\u95e8\u5e97", "id": 137726, "pageNo": 0, "pageCount": null, "pageSize": 10, "ids": null, "endTime": null, "startTime": null}, {"cardNumFive": null, "isSupportYj": null, "cityName": null, "districtName": null, "shopinfo": {"mid": "888888854410150", "good_flag": null, "new_flag": null, "short_name": "\u514b\u8389\u4e1d\u6c40", "short_name_pinyin": "kelisiting", "status": null, "address": null, "name": null, "id": "32265"}, "mid": "888888854410150", "shopId": "32265", "netid": null, "province": 901, "district": 601, "zipcode": null, "telephone": "64179789", "posDate": "20090418", "destineTel": null, "togoTel": null, "trafficWay": null, "signBuilding": null, "businessArea": null, "selfRoom": null, "businessTime": null, "stall": null, "consume": null, "serviceFei": null, "favourable": null, "shopMemo": null, "appraise": null, "website": null, "memo": null, "payTypes": "\u6749\u5fb7\u5361", "shopTypes": "\u9762\u5305\u897f\u997c", "consumeTypes": null, "cookTypes": null, "orderNum": 1000, "card4no": null, "card4noAcc": null, "district2": 403, "searchScope": null, "status": 1, "address": "\u5c0f\u6728\u6865\u8def10\u53f7\uff08\u8fd1\u8087\u5609\u6d5c\u8def\uff09", "name": "\u514b\u8389\u4e1d\u6c40 \u5c0f\u6728\u6865\u5e97", "id": 137728, "pageNo": 0, "pageCount": null, "pageSize": 10, "ids": null, "endTime": null, "startTime": null}, {"cardNumFive": null, "isSupportYj": null, "cityName": null, "districtName": null, "shopinfo": {"mid": "888888854410150", "good_flag": null, "new_flag": null, "short_name": "\u514b\u8389\u4e1d\u6c40", "short_name_pinyin": "kelisiting", "status": null, "address": null, "name": null, "id": "32265"}, "mid": "888888854410150", "shopId": "32265", "netid": null, "province": 901, "district": 601, "zipcode": null, "telephone": "54954609", "posDate": "20090430", "destineTel": null, "togoTel": null, "trafficWay": null, "signBuilding": null, "businessArea": null, "selfRoom": null, "businessTime": null, "stall": null, "consume": null, "serviceFei": null, "favourable": null, "shopMemo": null, "appraise": null, "website": null, "memo": null, "payTypes": "\u6749\u5fb7\u5361", "shopTypes": "\u9762\u5305\u897f\u997c", "consumeTypes": null, "cookTypes": null, "orderNum": 1000, "card4no": null, "card4noAcc": null, "district2": 409, "searchScope": null, "status": 1, "address": "\u897f\u73af\u8def281\u53f7(\u519c\u5de5\u5546\u5185\\\u8398\u677e\u8def)", "name": "\u514b\u8389\u4e1d\u6c40 \u8398\u5e84\u519c\u5de5\u5546\u5e97", "id": 137734, "pageNo": 0, "pageCount": null, "pageSize": 10, "ids": null, "endTime": null, "startTime": null}, {"cardNumFive": null, "isSupportYj": null, "cityName": null, "districtName": null, "shopinfo": {"mid": "888888854410150", "good_flag": null, "new_flag": null, "short_name": "\u514b\u8389\u4e1d\u6c40", "short_name_pinyin": "kelisiting", "status": null, "address": null, "name": null, "id": "32265"}, "mid": "888888854410150", "shopId": "32265", "netid": null, "province": 901, "district": 601, "zipcode": null, "telephone": "65199720", "posDate": "20090422", "destineTel": null, "togoTel": null, "trafficWay": null, "signBuilding": null, "businessArea": null, "selfRoom": null, "businessTime": null, "stall": null, "consume": null, "serviceFei": null, "favourable": null, "shopMemo": null, "appraise": null, "website": null, "memo": null, "payTypes": "\u6749\u5fb7\u5361", "shopTypes": "\u9762\u5305\u897f\u997c", "consumeTypes": null, "cookTypes": null, "orderNum": 1000, "card4no": null, "card4noAcc": null, "district2": 407, "searchScope": null, "status": 1, "address": "\u9756\u5b87\u4e2d\u8def59\u53f7\uff08\u8fd1\u65b0\u5bbe\u8def\uff09", "name": "\u514b\u8389\u4e1d\u6c40 \u65b0\u5bbe\u5e97", "id": 137735, "pageNo": 0, "pageCount": null, "pageSize": 10, "ids": null, "endTime": null, "startTime": null}, {"cardNumFive": null, "isSupportYj": null, "cityName": null, "districtName": null, "shopinfo": {"mid": "888888854410150", "good_flag": null, "new_flag": null, "short_name": "\u514b\u8389\u4e1d\u6c40", "short_name_pinyin": "kelisiting", "status": null, "address": null, "name": null, "id": "32265"}, "mid": "888888854410150", "shopId": "32265", "netid": null, "province": 901, "district": 601, "zipcode": null, "telephone": "58929270", "posDate": "20090424", "destineTel": null, "togoTel": null, "trafficWay": null, "signBuilding": null, "businessArea": null, "selfRoom": null, "businessTime": null, "stall": null, "consume": null, "serviceFei": null, "favourable": null, "shopMemo": null, "appraise": null, "website": null, "memo": null, "payTypes": "\u6749\u5fb7\u5361", "shopTypes": "\u9762\u5305\u897f\u997c", "consumeTypes": null, "cookTypes": null, "orderNum": 1000, "card4no": null, "card4noAcc": null, "district2": 418, "searchScope": null, "status": 1, "address": "\u65b0\u5ddd\u8def628A\u53f7", "name": "\u514b\u8389\u4e1d\u6c40 \u65b0\u5ddd\u5e97", "id": 137736, "pageNo": 0, "pageCount": null, "pageSize": 10, "ids": null, "endTime": null, "startTime": null}, {"cardNumFive": null, "isSupportYj": null, "cityName": null, "districtName": null, "shopinfo": {"mid": "888888854410150", "good_flag": null, "new_flag": null, "short_name": "\u514b\u8389\u4e1d\u6c40", "short_name_pinyin": "kelisiting", "status": null, "address": null, "name": null, "id": "32265"}, "mid": "888888854410150", "shopId": "32265", "netid": null, "province": 901, "district": 601, "zipcode": null, "telephone": "56944054", "posDate": "20090428", "destineTel": null, "togoTel": null, "trafficWay": null, "signBuilding": null, "businessArea": null, "selfRoom": null, "businessTime": null, "stall": null, "consume": null, "serviceFei": null, "favourable": null, "shopMemo": null, "appraise": null, "website": null, "memo": null, "payTypes": "\u6749\u5fb7\u5361", "shopTypes": "\u9762\u5305\u897f\u997c", "consumeTypes": null, "cookTypes": null, "orderNum": 1000, "card4no": null, "card4noAcc": null, "district2": 405, "searchScope": null, "status": 1, "address": "\u65b0\u6751\u8def562\u53f7\uff08\u8fd1\u53cc\u5c71\u8def\uff09", "name": "\u514b\u8389\u4e1d\u6c40 \u65b0\u6751\u8def\u5e97", "id": 137737, "pageNo": 0, "pageCount": null, "pageSize": 10, "ids": null, "endTime": null, "startTime": null}, {"cardNumFive": null, "isSupportYj": null, "cityName": null, "districtName": null, "shopinfo": {"mid": "888888854410150", "good_flag": null, "new_flag": null, "short_name": "\u514b\u8389\u4e1d\u6c40", "short_name_pinyin": "kelisiting", "status": null, "address": null, "name": null, "id": "32265"}, "mid": "888888854410150", "shopId": "32265", "netid": null, "province": 901, "district": 601, "zipcode": null, "telephone": "57100680", "posDate": "20090421", "destineTel": null, "togoTel": null, "trafficWay": null, "signBuilding": null, "businessArea": null, "selfRoom": null, "businessTime": null, "stall": null, "consume": null, "serviceFei": null, "favourable": null, "shopMemo": null, "appraise": null, "website": null, "memo": null, "payTypes": "\u6749\u5fb7\u5361", "shopTypes": "\u9762\u5305\u897f\u997c", "consumeTypes": null, "cookTypes": null, "orderNum": 1000, "card4no": null, "card4noAcc": null, "district2": 413, "searchScope": null, "status": 1, "address": "\u65b0\u5efa\u897f\u8def23\u53f7(\u8fd1\u5357\u6865\u8def)", "name": "\u514b\u8389\u4e1d\u6c40 \u65b0\u5efa\u897f\u8def\u5e97", "id": 137740, "pageNo": 0, "pageCount": null, "pageSize": 10, "ids": null, "endTime": null, "startTime": null}, {"cardNumFive": null, "isSupportYj": null, "cityName": null, "districtName": null, "shopinfo": {"mid": "888888854410150", "good_flag": null, "new_flag": null, "short_name": "\u514b\u8389\u4e1d\u6c40", "short_name_pinyin": "kelisiting", "status": null, "address": null, "name": null, "id": "32265"}, "mid": "888888854410150", "shopId": "32265", "netid": null, "province": 901, "district": 601, "zipcode": null, "telephone": "65165828", "posDate": "20090423", "destineTel": null, "togoTel": null, "trafficWay": null, "signBuilding": null, "businessArea": null, "selfRoom": null, "businessTime": null, "stall": null, "consume": null, "serviceFei": null, "favourable": null, "shopMemo": null, "appraise": null, "website": null, "memo": null, "payTypes": "\u6749\u5fb7\u5361", "shopTypes": "\u9762\u5305\u897f\u997c", "consumeTypes": null, "cookTypes": null, "orderNum": 1000, "card4no": null, "card4noAcc": null, "district2": 408, "searchScope": null, "status": 1, "address": "\u65b0\u5e02\u5357\u8def838\u53f7\uff08\u8fd1\u8f66\u7ad9\u5357\u8def\uff09", "name": "\u514b\u8389\u4e1d\u6c40 \u65b0\u5e02\u5357\u8def\u5e97", "id": 137741, "pageNo": 0, "pageCount": null, "pageSize": 10, "ids": null, "endTime": null, "startTime": null}, {"cardNumFive": null, "isSupportYj": null, "cityName": null, "districtName": null, "shopinfo": {"mid": "888888854410150", "good_flag": null, "new_flag": null, "short_name": "\u514b\u8389\u4e1d\u6c40", "short_name_pinyin": "kelisiting", "status": null, "address": null, "name": null, "id": "32265"}, "mid": "888888854410150", "shopId": "32265", "netid": null, "province": 901, "district": 601, "zipcode": null, "telephone": "33620271/13391060452", "posDate": "200910", "destineTel": null, "togoTel": null, "trafficWay": null, "signBuilding": null, "businessArea": null, "selfRoom": null, "businessTime": null, "stall": null, "consume": null, "serviceFei": null, "favourable": null, "shopMemo": null, "appraise": null, "website": null, "memo": null, "payTypes": "\u6749\u5fb7\u5361", "shopTypes": "\u9762\u5305\u897f\u997c", "consumeTypes": null, "cookTypes": null, "orderNum": 1000, "card4no": null, "card4noAcc": null, "district2": 407, "searchScope": null, "status": 1, "address": "\u56fd\u5b9a\u8def88\u5f048\u53f7", "name": "\u514b\u8389\u4e1d\u6c40 \u65b0\u4e07\u8fbe\u5e97", "id": 137742, "pageNo": 0, "pageCount": null, "pageSize": 10, "ids": null, "endTime": null, "startTime": null}, {"cardNumFive": null, "isSupportYj": null, "cityName": null, "districtName": null, "shopinfo": {"mid": "888888854410150", "good_flag": null, "new_flag": null, "short_name": "\u514b\u8389\u4e1d\u6c40", "short_name_pinyin": "kelisiting", "status": null, "address": null, "name": null, "id": "32265"}, "mid": "888888854410150", "shopId": "32265", "netid": null, "province": 901, "district": 601, "zipcode": null, "telephone": "57647597", "posDate": "20090421", "destineTel": null, "togoTel": null, "trafficWay": null, "signBuilding": null, "businessArea": null, "selfRoom": null, "businessTime": null, "stall": null, "consume": null, "serviceFei": null, "favourable": null, "shopMemo": null, "appraise": null, "website": null, "memo": null, "payTypes": "\u6749\u5fb7\u5361", "shopTypes": "\u9762\u5305\u897f\u997c", "consumeTypes": null, "cookTypes": null, "orderNum": 1000, "card4no": null, "card4noAcc": null, "district2": 412, "searchScope": null, "status": 1, "address": "\u65b0\u6865\u9547\u65b0\u5357\u8857514-516\u53f7", "name": "\u514b\u8389\u4e1d\u6c40 \u65b0\u9547\u5e97", "id": 137743, "pageNo": 0, "pageCount": null, "pageSize": 10, "ids": null, "endTime": null, "startTime": null}], "pageLimit": 4430, "size": 10}