{"pageCount": 1095, "count": 10942, "pageNo": 458, "subShopInfo": {"cardNumFive": "", "isSupportYj": "", "cityName": null, "districtName": null, "shopinfo": {"mid": null, "good_flag": null, "new_flag": null, "short_name": null, "short_name_pinyin": null, "status": null, "address": "", "name": "", "id": null}, "mid": null, "shopId": null, "netid": null, "province": 901, "district": null, "zipcode": null, "telephone": null, "posDate": null, "destineTel": null, "togoTel": null, "trafficWay": null, "signBuilding": null, "businessArea": null, "selfRoom": null, "businessTime": null, "stall": null, "consume": null, "serviceFei": null, "favourable": null, "shopMemo": "1", "appraise": null, "website": null, "memo": null, "payTypes": "", "shopTypes": "", "consumeTypes": null, "cookTypes": null, "orderNum": null, "card4no": null, "card4noAcc": null, "district2": null, "searchScope": null, "status": null, "address": "", "name": null, "id": null, "pageNo": 457, "pageCount": null, "pageSize": 10, "ids": null, "endTime": null, "startTime": null}, "list": [{"cardNumFive": null, "isSupportYj": null, "cityName": null, "districtName": null, "shopinfo": {"mid": "888888858120850", "good_flag": null, "new_flag": null, "short_name": "\u80af\u5fb7\u57fa", "short_name_pinyin": "kendeji", "status": null, "address": null, "name": null, "id": "32298"}, "mid": "888888858120850", "shopId": "32298", "netid": null, "province": 901, "district": 601, "zipcode": null, "telephone": null, "posDate": "20091225", "destineTel": null, "togoTel": null, "trafficWay": null, "signBuilding": null, "businessArea": null, "selfRoom": null, "businessTime": null, "stall": null, "consume": null, "serviceFei": null, "favourable": null, "shopMemo": null, "appraise": null, "website": null, "memo": null, "payTypes": "\u6749\u5fb7\u5361", "shopTypes": "\u9910\u996e", "consumeTypes": null, "cookTypes": null, "orderNum": 1000, "card4no": null, "card4noAcc": null, "district2": 416, "searchScope": null, "status": 1, "address": "\u7261\u4e39\u6c5f\u8def1255\u53f7\u5b89\u4fe1\u5546\u4e1a\u5e7f\u573aF\u533a", "name": "\u80af\u5fb7\u57fa \u5b89\u4fe1\u5e97", "id": 137848, "pageNo": 0, "pageCount": null, "pageSize": 10, "ids": null, "endTime": null, "startTime": null}, {"cardNumFive": null, "isSupportYj": null, "cityName": null, "districtName": null, "shopinfo": {"mid": "888888858120850", "good_flag": null, "new_flag": null, "short_name": "\u80af\u5fb7\u57fa", "short_name_pinyin": "kendeji", "status": null, "address": null, "name": null, "id": "32298"}, "mid": "888888858120850", "shopId": "32298", "netid": null, "province": 901, "district": 601, "zipcode": null, "telephone": null, "posDate": "20091229", "destineTel": null, "togoTel": null, "trafficWay": null, "signBuilding": null, "businessArea": null, "selfRoom": null, "businessTime": null, "stall": null, "consume": null, "serviceFei": null, "favourable": null, "shopMemo": null, "appraise": null, "website": null, "memo": null, "payTypes": "\u6749\u5fb7\u5361", "shopTypes": "\u9910\u996e", "consumeTypes": null, "cookTypes": null, "orderNum": 1000, "card4no": null, "card4noAcc": null, "district2": 415, "searchScope": null, "status": 1, "address": "\u516b\u4e00\u8def488\u53f7", "name": "\u80af\u5fb7\u57fa \u516b\u4e00\u5e97", "id": 137849, "pageNo": 0, "pageCount": null, "pageSize": 10, "ids": null, "endTime": null, "startTime": null}, {"cardNumFive": null, "isSupportYj": null, "cityName": null, "districtName": null, "shopinfo": {"mid": "888888858120850", "good_flag": null, "new_flag": null, "short_name": "\u80af\u5fb7\u57fa", "short_name_pinyin": "kendeji", "status": null, "address": null, "name": null, "id": "32298"}, "mid": "888888858120850", "shopId": "32298", "netid": null, "province": 901, "district": 601, "zipcode": null, "telephone": null, "posDate": "20091222", "destineTel": null, "togoTel": null, "trafficWay": null, "signBuilding": null, "businessArea": null, "selfRoom": null, "businessTime": null, "stall": null, "consume": null, "serviceFei": null, "favourable": null, "shopMemo": null, "appraise": null, "website": null, "memo": null, "payTypes": "\u6749\u5fb7\u5361", "shopTypes": "\u9910\u996e", "consumeTypes": null, "cookTypes": null, "orderNum": 1000, "card4no": null, "card4noAcc": null, "district2": 401, "searchScope": null, "status": 1, "address": "\u5317\u4eac\u897f\u8def1829\u53f7", "name": "\u80af\u5fb7\u57fa \u767e\u4e50\u5e97", "id": 137850, "pageNo": 0, "pageCount": null, "pageSize": 10, "ids": null, "endTime": null, "startTime": null}, {"cardNumFive": null, "isSupportYj": null, "cityName": null, "districtName": null, "shopinfo": {"mid": "888888858120850", "good_flag": null, "new_flag": null, "short_name": "\u80af\u5fb7\u57fa", "short_name_pinyin": "kendeji", "status": null, "address": null, "name": null, "id": "32298"}, "mid": "888888858120850", "shopId": "32298", "netid": null, "province": 901, "district": 601, "zipcode": null, "telephone": "33873439", "posDate": "20091225", "destineTel": null, "togoTel": null, "trafficWay": null, "signBuilding": null, "businessArea": null, "selfRoom": null, "businessTime": null, "stall": null, "consume": null, "serviceFei": null, "favourable": null, "shopMemo": null, "appraise": null, "website": null, "memo": null, "payTypes": "\u6749\u5fb7\u5361", "shopTypes": "\u9910\u996e", "consumeTypes": null, "cookTypes": null, "orderNum": 1000, "card4no": null, "card4noAcc": null, "district2": 416, "searchScope": null, "status": 1, "address": "\u957f\u6c5f\u897f\u8def2211\u53f71\u5c421FA-03\u53f7\u5546\u94fa", "name": "\u80af\u5fb7\u57fa \u5b9d\u5bb8\u5e97", "id": 137851, "pageNo": 0, "pageCount": null, "pageSize": 10, "ids": null, "endTime": null, "startTime": null}, {"cardNumFive": null, "isSupportYj": null, "cityName": null, "districtName": null, "shopinfo": {"mid": "888888858120850", "good_flag": null, "new_flag": null, "short_name": "\u80af\u5fb7\u57fa", "short_name_pinyin": "kendeji", "status": null, "address": null, "name": null, "id": "32298"}, "mid": "888888858120850", "shopId": "32298", "netid": null, "province": 901, "district": 601, "zipcode": null, "telephone": null, "posDate": "20091225", "destineTel": null, "togoTel": null, "trafficWay": null, "signBuilding": null, "businessArea": null, "selfRoom": null, "businessTime": null, "stall": null, "consume": null, "serviceFei": null, "favourable": null, "shopMemo": null, "appraise": null, "website": null, "memo": null, "payTypes": "\u6749\u5fb7\u5361", "shopTypes": "\u9910\u996e", "consumeTypes": null, "cookTypes": null, "orderNum": 1000, "card4no": null, "card4noAcc": null, "district2": 416, "searchScope": null, "status": 1, "address": "\u7261\u4e39\u6c5f\u8def1688\u53f7", "name": "\u80af\u5fb7\u57fa \u5b9d\u5c71\u5e97", "id": 137852, "pageNo": 0, "pageCount": null, "pageSize": 10, "ids": null, "endTime": null, "startTime": null}, {"cardNumFive": null, "isSupportYj": null, "cityName": null, "districtName": null, "shopinfo": {"mid": "888888858120850", "good_flag": null, "new_flag": null, "short_name": "\u80af\u5fb7\u57fa", "short_name_pinyin": "kendeji", "status": null, "address": null, "name": null, "id": "32298"}, "mid": "888888858120850", "shopId": "32298", "netid": null, "province": 901, "district": 601, "zipcode": null, "telephone": null, "posDate": "20091227", "destineTel": null, "togoTel": null, "trafficWay": null, "signBuilding": null, "businessArea": null, "selfRoom": null, "businessTime": null, "stall": null, "consume": null, "serviceFei": null, "favourable": null, "shopMemo": null, "appraise": null, "website": null, "memo": null, "payTypes": "\u6749\u5fb7\u5361", "shopTypes": "\u9910\u996e", "consumeTypes": null, "cookTypes": null, "orderNum": 1000, "card4no": null, "card4noAcc": null, "district2": 411, "searchScope": null, "status": 1, "address": "\u4e30\u7fd4\u8def3168\u53f7\u5b9d\u7fd4\u8def\uff08\u5bb6\u4e50\u798f\u5185\uff09", "name": "\u80af\u5fb7\u57fa \u5b9d\u7fd4\u5e97", "id": 137853, "pageNo": 0, "pageCount": null, "pageSize": 10, "ids": null, "endTime": null, "startTime": null}, {"cardNumFive": null, "isSupportYj": null, "cityName": null, "districtName": null, "shopinfo": {"mid": "888888858120850", "good_flag": null, "new_flag": null, "short_name": "\u80af\u5fb7\u57fa", "short_name_pinyin": "kendeji", "status": null, "address": null, "name": null, "id": "32298"}, "mid": "888888858120850", "shopId": "32298", "netid": null, "province": 901, "district": 601, "zipcode": null, "telephone": null, "posDate": "20091224", "destineTel": null, "togoTel": null, "trafficWay": null, "signBuilding": null, "businessArea": null, "selfRoom": null, "businessTime": null, "stall": null, "consume": null, "serviceFei": null, "favourable": null, "shopMemo": null, "appraise": null, "website": null, "memo": null, "payTypes": "\u6749\u5fb7\u5361", "shopTypes": "\u9910\u996e", "consumeTypes": null, "cookTypes": null, "orderNum": 1000, "card4no": null, "card4noAcc": null, "district2": 410, "searchScope": null, "status": 1, "address": "\u4fdd\u5fb7\u8def88\u53f7", "name": "\u80af\u5fb7\u57fa \u4fdd\u5fb7\u5e97", "id": 137854, "pageNo": 0, "pageCount": null, "pageSize": 10, "ids": null, "endTime": null, "startTime": null}, {"cardNumFive": null, "isSupportYj": null, "cityName": null, "districtName": null, "shopinfo": {"mid": "888888858120850", "good_flag": null, "new_flag": null, "short_name": "\u80af\u5fb7\u57fa", "short_name_pinyin": "kendeji", "status": null, "address": null, "name": null, "id": "32298"}, "mid": "888888858120850", "shopId": "32298", "netid": null, "province": 901, "district": 601, "zipcode": null, "telephone": "52263405", "posDate": null, "destineTel": null, "togoTel": null, "trafficWay": null, "signBuilding": null, "businessArea": null, "selfRoom": null, "businessTime": null, "stall": null, "consume": null, "serviceFei": null, "favourable": null, "shopMemo": null, "appraise": null, "website": null, "memo": null, "payTypes": "\u6749\u5fb7\u5361", "shopTypes": "\u9910\u996e", "consumeTypes": null, "cookTypes": null, "orderNum": 1000, "card4no": null, "card4noAcc": null, "district2": 409, "searchScope": null, "status": 1, "address": "\u534e\u6f15\u9547\u4fdd\u4e50\u8def\u4e0e\u7e41\u5174\u8def\u4ea4\u754c\u5904\uff0c \u7e41\u5174\u8def339\u5f042\u53f7", "name": "\u80af\u5fb7\u57fa \u4fdd\u4e50\u5e97", "id": 137855, "pageNo": 0, "pageCount": null, "pageSize": 10, "ids": null, "endTime": null, "startTime": null}, {"cardNumFive": null, "isSupportYj": null, "cityName": null, "districtName": null, "shopinfo": {"mid": "888888858120850", "good_flag": null, "new_flag": null, "short_name": "\u80af\u5fb7\u57fa", "short_name_pinyin": "kendeji", "status": null, "address": null, "name": null, "id": "32298"}, "mid": "888888858120850", "shopId": "32298", "netid": null, "province": 901, "district": 601, "zipcode": null, "telephone": "68030588", "posDate": "20091229", "destineTel": null, "togoTel": null, "trafficWay": null, "signBuilding": null, "businessArea": null, "selfRoom": null, "businessTime": null, "stall": null, "consume": null, "serviceFei": null, "favourable": null, "shopMemo": null, "appraise": null, "website": null, "memo": null, "payTypes": "\u6749\u5fb7\u5361", "shopTypes": "\u9910\u996e", "consumeTypes": null, "cookTypes": null, "orderNum": 1000, "card4no": null, "card4noAcc": null, "district2": 418, "searchScope": null, "status": 1, "address": "\u5317\u95e8\u5927\u885713\u53f7", "name": "\u80af\u5fb7\u57fa \u5317\u95e8\u5e97", "id": 137856, "pageNo": 0, "pageCount": null, "pageSize": 10, "ids": null, "endTime": null, "startTime": null}, {"cardNumFive": null, "isSupportYj": null, "cityName": null, "districtName": null, "shopinfo": {"mid": "888888858120850", "good_flag": null, "new_flag": null, "short_name": "\u80af\u5fb7\u57fa", "short_name_pinyin": "kendeji", "status": null, "address": null, "name": null, "id": "32298"}, "mid": "888888858120850", "shopId": "32298", "netid": null, "province": 901, "district": 601, "zipcode": null, "telephone": null, "posDate": "20091227", "destineTel": null, "togoTel": null, "trafficWay": null, "signBuilding": null, "businessArea": null, "selfRoom": null, "businessTime": null, "stall": null, "consume": null, "serviceFei": null, "favourable": null, "shopMemo": null, "appraise": null, "website": null, "memo": null, "payTypes": "\u6749\u5fb7\u5361", "shopTypes": "\u9910\u996e", "consumeTypes": null, "cookTypes": null, "orderNum": 1000, "card4no": null, "card4noAcc": null, "district2": 411, "searchScope": null, "status": 1, "address": "\u535a\u4e50\u8def99\u53f7", "name": "\u80af\u5fb7\u57fa \u535a\u4e50\u5e97", "id": 137857, "pageNo": 0, "pageCount": null, "pageSize": 10, "ids": null, "endTime": null, "startTime": null}], "pageLimit": 4570, "size": 10}