{"pageCount": 1095, "count": 10942, "pageNo": 462, "subShopInfo": {"cardNumFive": "", "isSupportYj": "", "cityName": null, "districtName": null, "shopinfo": {"mid": null, "good_flag": null, "new_flag": null, "short_name": null, "short_name_pinyin": null, "status": null, "address": "", "name": "", "id": null}, "mid": null, "shopId": null, "netid": null, "province": 901, "district": null, "zipcode": null, "telephone": null, "posDate": null, "destineTel": null, "togoTel": null, "trafficWay": null, "signBuilding": null, "businessArea": null, "selfRoom": null, "businessTime": null, "stall": null, "consume": null, "serviceFei": null, "favourable": null, "shopMemo": "1", "appraise": null, "website": null, "memo": null, "payTypes": "", "shopTypes": "", "consumeTypes": null, "cookTypes": null, "orderNum": null, "card4no": null, "card4noAcc": null, "district2": null, "searchScope": null, "status": null, "address": "", "name": null, "id": null, "pageNo": 461, "pageCount": null, "pageSize": 10, "ids": null, "endTime": null, "startTime": null}, "list": [{"cardNumFive": null, "isSupportYj": null, "cityName": null, "districtName": null, "shopinfo": {"mid": "888888858120850", "good_flag": null, "new_flag": null, "short_name": "\u80af\u5fb7\u57fa", "short_name_pinyin": "kendeji", "status": null, "address": null, "name": null, "id": "32298"}, "mid": "888888858120850", "shopId": "32298", "netid": null, "province": 901, "district": 601, "zipcode": null, "telephone": "59190800", "posDate": "20091227", "destineTel": null, "togoTel": null, "trafficWay": null, "signBuilding": null, "businessArea": null, "selfRoom": null, "businessTime": null, "stall": null, "consume": null, "serviceFei": null, "favourable": null, "shopMemo": null, "appraise": null, "website": null, "memo": null, "payTypes": "\u6749\u5fb7\u5361", "shopTypes": "\u9910\u996e", "consumeTypes": null, "cookTypes": null, "orderNum": 1000, "card4no": null, "card4noAcc": null, "district2": 405, "searchScope": null, "status": 1, "address": "\u66f9\u5b89\u8def1685\u53f7", "name": "\u80af\u5fb7\u57fa \u4e30\u5e84\u5e97", "id": 137893, "pageNo": 0, "pageCount": null, "pageSize": 10, "ids": null, "endTime": null, "startTime": null}, {"cardNumFive": null, "isSupportYj": null, "cityName": null, "districtName": null, "shopinfo": {"mid": "888888858120850", "good_flag": null, "new_flag": null, "short_name": "\u80af\u5fb7\u57fa", "short_name_pinyin": "kendeji", "status": null, "address": null, "name": null, "id": "32298"}, "mid": "888888858120850", "shopId": "32298", "netid": null, "province": 901, "district": 601, "zipcode": null, "telephone": null, "posDate": "20091224", "destineTel": null, "togoTel": null, "trafficWay": null, "signBuilding": null, "businessArea": null, "selfRoom": null, "businessTime": null, "stall": null, "consume": null, "serviceFei": null, "favourable": null, "shopMemo": null, "appraise": null, "website": null, "memo": null, "payTypes": "\u6749\u5fb7\u5361", "shopTypes": "\u9910\u996e", "consumeTypes": null, "cookTypes": null, "orderNum": 1000, "card4no": null, "card4noAcc": null, "district2": 401, "searchScope": null, "status": 1, "address": "\u798f\u5dde\u8def556\u53f7", "name": "\u80af\u5fb7\u57fa \u798f\u5dde\u5e97", "id": 137894, "pageNo": 0, "pageCount": null, "pageSize": 10, "ids": null, "endTime": null, "startTime": null}, {"cardNumFive": null, "isSupportYj": null, "cityName": null, "districtName": null, "shopinfo": {"mid": "888888858120850", "good_flag": null, "new_flag": null, "short_name": "\u80af\u5fb7\u57fa", "short_name_pinyin": "kendeji", "status": null, "address": null, "name": null, "id": "32298"}, "mid": "888888858120850", "shopId": "32298", "netid": null, "province": 901, "district": 601, "zipcode": null, "telephone": null, "posDate": "20091227", "destineTel": null, "togoTel": null, "trafficWay": null, "signBuilding": null, "businessArea": null, "selfRoom": null, "businessTime": null, "stall": null, "consume": null, "serviceFei": null, "favourable": null, "shopMemo": null, "appraise": null, "website": null, "memo": null, "payTypes": "\u6749\u5fb7\u5361", "shopTypes": "\u9910\u996e", "consumeTypes": null, "cookTypes": null, "orderNum": 1000, "card4no": null, "card4noAcc": null, "district2": 405, "searchScope": null, "status": 1, "address": "\u5fd7\u4e39\u8def135\u53f7", "name": "\u80af\u5fb7\u57fa \u7518\u6cc9\u5e97", "id": 137895, "pageNo": 0, "pageCount": null, "pageSize": 10, "ids": null, "endTime": null, "startTime": null}, {"cardNumFive": null, "isSupportYj": null, "cityName": null, "districtName": null, "shopinfo": {"mid": "888888858120850", "good_flag": null, "new_flag": null, "short_name": "\u80af\u5fb7\u57fa", "short_name_pinyin": "kendeji", "status": null, "address": null, "name": null, "id": "32298"}, "mid": "888888858120850", "shopId": "32298", "netid": null, "province": 901, "district": 601, "zipcode": null, "telephone": null, "posDate": "20091222", "destineTel": null, "togoTel": null, "trafficWay": null, "signBuilding": null, "businessArea": null, "selfRoom": null, "businessTime": null, "stall": null, "consume": null, "serviceFei": null, "favourable": null, "shopMemo": null, "appraise": null, "website": null, "memo": null, "payTypes": "\u6749\u5fb7\u5361", "shopTypes": "\u9910\u996e", "consumeTypes": null, "cookTypes": null, "orderNum": 1000, "card4no": null, "card4noAcc": null, "district2": 403, "searchScope": null, "status": 1, "address": "\u6c34\u6e05\u8def1390\u53f7", "name": "\u80af\u5fb7\u57fa \u6e2f\u6fb3\u5e97", "id": 137896, "pageNo": 0, "pageCount": null, "pageSize": 10, "ids": null, "endTime": null, "startTime": null}, {"cardNumFive": null, "isSupportYj": null, "cityName": null, "districtName": null, "shopinfo": {"mid": "888888858120850", "good_flag": null, "new_flag": null, "short_name": "\u80af\u5fb7\u57fa", "short_name_pinyin": "kendeji", "status": null, "address": null, "name": null, "id": "32298"}, "mid": "888888858120850", "shopId": "32298", "netid": null, "province": 901, "district": 601, "zipcode": null, "telephone": null, "posDate": "20091226", "destineTel": null, "togoTel": null, "trafficWay": null, "signBuilding": null, "businessArea": null, "selfRoom": null, "businessTime": null, "stall": null, "consume": null, "serviceFei": null, "favourable": null, "shopMemo": null, "appraise": null, "website": null, "memo": null, "payTypes": "\u6749\u5fb7\u5361", "shopTypes": "\u9910\u996e", "consumeTypes": null, "cookTypes": null, "orderNum": 1000, "card4no": null, "card4noAcc": null, "district2": 418, "searchScope": null, "status": 1, "address": "\u5927\u540c\u8def409\u53f7", "name": "\u80af\u5fb7\u57fa \u9ad8\u6865\u5e97", "id": 137898, "pageNo": 0, "pageCount": null, "pageSize": 10, "ids": null, "endTime": null, "startTime": null}, {"cardNumFive": null, "isSupportYj": null, "cityName": null, "districtName": null, "shopinfo": {"mid": "888888858120850", "good_flag": null, "new_flag": null, "short_name": "\u80af\u5fb7\u57fa", "short_name_pinyin": "kendeji", "status": null, "address": null, "name": null, "id": "32298"}, "mid": "888888858120850", "shopId": "32298", "netid": null, "province": 901, "district": 601, "zipcode": null, "telephone": null, "posDate": "20091224", "destineTel": null, "togoTel": null, "trafficWay": null, "signBuilding": null, "businessArea": null, "selfRoom": null, "businessTime": null, "stall": null, "consume": null, "serviceFei": null, "favourable": null, "shopMemo": null, "appraise": null, "website": null, "memo": null, "payTypes": "\u6749\u5fb7\u5361", "shopTypes": "\u9910\u996e", "consumeTypes": null, "cookTypes": null, "orderNum": 1000, "card4no": null, "card4noAcc": null, "district2": 410, "searchScope": null, "status": 1, "address": "\u5171\u548c\u65b0\u8def3318\u53f7", "name": "\u80af\u5fb7\u57fa \u5171\u548c\u5e97", "id": 137899, "pageNo": 0, "pageCount": null, "pageSize": 10, "ids": null, "endTime": null, "startTime": null}, {"cardNumFive": null, "isSupportYj": null, "cityName": null, "districtName": null, "shopinfo": {"mid": "888888858120850", "good_flag": null, "new_flag": null, "short_name": "\u80af\u5fb7\u57fa", "short_name_pinyin": "kendeji", "status": null, "address": null, "name": null, "id": "32298"}, "mid": "888888858120850", "shopId": "32298", "netid": null, "province": 901, "district": 601, "zipcode": null, "telephone": "66523452", "posDate": "20091224", "destineTel": null, "togoTel": null, "trafficWay": null, "signBuilding": null, "businessArea": null, "selfRoom": null, "businessTime": null, "stall": null, "consume": null, "serviceFei": null, "favourable": null, "shopMemo": null, "appraise": null, "website": null, "memo": null, "payTypes": "\u6749\u5fb7\u5361", "shopTypes": "\u9910\u996e", "consumeTypes": null, "cookTypes": null, "orderNum": 1000, "card4no": null, "card4noAcc": null, "district2": 410, "searchScope": null, "status": 1, "address": "\u5171\u548c\u65b0\u8def1968\u53f7", "name": "\u80af\u5fb7\u57fa \u5171\u548c\u65b0\u8def\u5e97", "id": 137900, "pageNo": 0, "pageCount": null, "pageSize": 10, "ids": null, "endTime": null, "startTime": null}, {"cardNumFive": null, "isSupportYj": null, "cityName": null, "districtName": null, "shopinfo": {"mid": "888888858120850", "good_flag": null, "new_flag": null, "short_name": "\u80af\u5fb7\u57fa", "short_name_pinyin": "kendeji", "status": null, "address": null, "name": null, "id": "32298"}, "mid": "888888858120850", "shopId": "32298", "netid": null, "province": 901, "district": 601, "zipcode": null, "telephone": null, "posDate": "20091225", "destineTel": null, "togoTel": null, "trafficWay": null, "signBuilding": null, "businessArea": null, "selfRoom": null, "businessTime": null, "stall": null, "consume": null, "serviceFei": null, "favourable": null, "shopMemo": null, "appraise": null, "website": null, "memo": null, "payTypes": "\u6749\u5fb7\u5361", "shopTypes": "\u9910\u996e", "consumeTypes": null, "cookTypes": null, "orderNum": 1000, "card4no": null, "card4noAcc": null, "district2": 416, "searchScope": null, "status": 1, "address": "\u5171\u6c5f\u8def1168\u53f7", "name": "\u80af\u5fb7\u57fa \u5171\u5eb7\u5e97", "id": 137901, "pageNo": 0, "pageCount": null, "pageSize": 10, "ids": null, "endTime": null, "startTime": null}, {"cardNumFive": null, "isSupportYj": null, "cityName": null, "districtName": null, "shopinfo": {"mid": "888888858120850", "good_flag": null, "new_flag": null, "short_name": "\u80af\u5fb7\u57fa", "short_name_pinyin": "kendeji", "status": null, "address": null, "name": null, "id": "32298"}, "mid": "888888858120850", "shopId": "32298", "netid": null, "province": 901, "district": 601, "zipcode": null, "telephone": null, "posDate": "20100223", "destineTel": null, "togoTel": null, "trafficWay": null, "signBuilding": null, "businessArea": null, "selfRoom": null, "businessTime": null, "stall": null, "consume": null, "serviceFei": null, "favourable": null, "shopMemo": null, "appraise": null, "website": null, "memo": null, "payTypes": "\u6749\u5fb7\u5361", "shopTypes": "\u9910\u996e", "consumeTypes": null, "cookTypes": null, "orderNum": 1000, "card4no": null, "card4noAcc": null, "district2": 412, "searchScope": null, "status": 1, "address": "\u677e\u6c5f\u533a\u677e\u6c47\u4e2d\u8def568\u53f7\u6c83\u5c14\u739b\u4e8c\u697c", "name": "\u80af\u5fb7\u57fa \u8c37\u9633\u5e97", "id": 137902, "pageNo": 0, "pageCount": null, "pageSize": 10, "ids": null, "endTime": null, "startTime": null}, {"cardNumFive": null, "isSupportYj": null, "cityName": null, "districtName": null, "shopinfo": {"mid": "888888858120850", "good_flag": null, "new_flag": null, "short_name": "\u80af\u5fb7\u57fa", "short_name_pinyin": "kendeji", "status": null, "address": null, "name": null, "id": "32298"}, "mid": "888888858120850", "shopId": "32298", "netid": null, "province": 901, "district": 601, "zipcode": null, "telephone": "62247417", "posDate": "20091227", "destineTel": null, "togoTel": null, "trafficWay": null, "signBuilding": null, "businessArea": null, "selfRoom": null, "businessTime": null, "stall": null, "consume": null, "serviceFei": null, "favourable": null, "shopMemo": null, "appraise": null, "website": null, "memo": null, "payTypes": "\u6749\u5fb7\u5361", "shopTypes": "\u9910\u996e", "consumeTypes": null, "cookTypes": null, "orderNum": 1000, "card4no": null, "card4noAcc": null, "district2": 405, "searchScope": null, "status": 1, "address": "\u7ba1\u5f04\u8def290\u53f7", "name": "\u80af\u5fb7\u57fa \u7ba1\u5f04\u5e97", "id": 137903, "pageNo": 0, "pageCount": null, "pageSize": 10, "ids": null, "endTime": null, "startTime": null}], "pageLimit": 4610, "size": 10}