{"pageCount": 1095, "count": 10942, "pageNo": 476, "subShopInfo": {"cardNumFive": "", "isSupportYj": "", "cityName": null, "districtName": null, "shopinfo": {"mid": null, "good_flag": null, "new_flag": null, "short_name": null, "short_name_pinyin": null, "status": null, "address": "", "name": "", "id": null}, "mid": null, "shopId": null, "netid": null, "province": 901, "district": null, "zipcode": null, "telephone": null, "posDate": null, "destineTel": null, "togoTel": null, "trafficWay": null, "signBuilding": null, "businessArea": null, "selfRoom": null, "businessTime": null, "stall": null, "consume": null, "serviceFei": null, "favourable": null, "shopMemo": "1", "appraise": null, "website": null, "memo": null, "payTypes": "", "shopTypes": "", "consumeTypes": null, "cookTypes": null, "orderNum": null, "card4no": null, "card4noAcc": null, "district2": null, "searchScope": null, "status": null, "address": "", "name": null, "id": null, "pageNo": 475, "pageCount": null, "pageSize": 10, "ids": null, "endTime": null, "startTime": null}, "list": [{"cardNumFive": null, "isSupportYj": null, "cityName": null, "districtName": null, "shopinfo": {"mid": "888888858120850", "good_flag": null, "new_flag": null, "short_name": "\u80af\u5fb7\u57fa", "short_name_pinyin": "kendeji", "status": null, "address": null, "name": null, "id": "32298"}, "mid": "888888858120850", "shopId": "32298", "netid": null, "province": 901, "district": 601, "zipcode": null, "telephone": null, "posDate": null, "destineTel": null, "togoTel": null, "trafficWay": null, "signBuilding": null, "businessArea": null, "selfRoom": null, "businessTime": null, "stall": null, "consume": null, "serviceFei": null, "favourable": null, "shopMemo": null, "appraise": null, "website": null, "memo": null, "payTypes": "\u6749\u5fb7\u5361", "shopTypes": "\u9910\u996e", "consumeTypes": null, "cookTypes": null, "orderNum": 1000, "card4no": null, "card4noAcc": null, "district2": 412, "searchScope": null, "status": 1, "address": "\u534e\u4fa8\u57ce\u6295\u8d44\u53d1\u5c55\u6709\u9650\u516c\u53f8\u56ed\u533a\u5185\u9633\u5149\u6e2f\u5546\u4e1a\u8857", "name": "\u80af\u5fb7\u57fa \u9633\u5149\u6e2f\u5e97", "id": 138055, "pageNo": 0, "pageCount": null, "pageSize": 10, "ids": null, "endTime": null, "startTime": null}, {"cardNumFive": null, "isSupportYj": null, "cityName": null, "districtName": null, "shopinfo": {"mid": "888888858120850", "good_flag": null, "new_flag": null, "short_name": "\u80af\u5fb7\u57fa", "short_name_pinyin": "kendeji", "status": null, "address": null, "name": null, "id": "32298"}, "mid": "888888858120850", "shopId": "32298", "netid": null, "province": 901, "district": 601, "zipcode": null, "telephone": "67195971", "posDate": "20091229", "destineTel": null, "togoTel": null, "trafficWay": null, "signBuilding": null, "businessArea": null, "selfRoom": null, "businessTime": null, "stall": null, "consume": null, "serviceFei": null, "favourable": null, "shopMemo": null, "appraise": null, "website": null, "memo": null, "payTypes": "\u6749\u5fb7\u5361", "shopTypes": "\u9910\u996e", "consumeTypes": null, "cookTypes": null, "orderNum": 1000, "card4no": null, "card4noAcc": null, "district2": 413, "searchScope": null, "status": 1, "address": "\u5357\u4ead\u516c\u8def601\u53f7", "name": "\u80af\u5fb7\u57fa \u9633\u5149\u5c0f\u533a\u5e97", "id": 138056, "pageNo": 0, "pageCount": null, "pageSize": 10, "ids": null, "endTime": null, "startTime": null}, {"cardNumFive": null, "isSupportYj": null, "cityName": null, "districtName": null, "shopinfo": {"mid": "888888858120850", "good_flag": null, "new_flag": null, "short_name": "\u80af\u5fb7\u57fa", "short_name_pinyin": "kendeji", "status": null, "address": null, "name": null, "id": "32298"}, "mid": "888888858120850", "shopId": "32298", "netid": null, "province": 901, "district": 601, "zipcode": null, "telephone": null, "posDate": "20091228", "destineTel": null, "togoTel": null, "trafficWay": null, "signBuilding": null, "businessArea": null, "selfRoom": null, "businessTime": null, "stall": null, "consume": null, "serviceFei": null, "favourable": null, "shopMemo": null, "appraise": null, "website": null, "memo": null, "payTypes": "\u6749\u5fb7\u5361", "shopTypes": "\u9910\u996e", "consumeTypes": null, "cookTypes": null, "orderNum": 1000, "card4no": null, "card4noAcc": null, "district2": 410, "searchScope": null, "status": 1, "address": "\u6768\u6811\u6d66\u8def61\u53f7", "name": "\u80af\u5fb7\u57fa \u6768\u6811\u6d66\u5e97", "id": 138057, "pageNo": 0, "pageCount": null, "pageSize": 10, "ids": null, "endTime": null, "startTime": null}, {"cardNumFive": null, "isSupportYj": null, "cityName": null, "districtName": null, "shopinfo": {"mid": "888888858120850", "good_flag": null, "new_flag": null, "short_name": "\u80af\u5fb7\u57fa", "short_name_pinyin": "kendeji", "status": null, "address": null, "name": null, "id": "32298"}, "mid": "888888858120850", "shopId": "32298", "netid": null, "province": 901, "district": 601, "zipcode": null, "telephone": "65174705", "posDate": "20091228", "destineTel": null, "togoTel": null, "trafficWay": null, "signBuilding": null, "businessArea": null, "selfRoom": null, "businessTime": null, "stall": null, "consume": null, "serviceFei": null, "favourable": null, "shopMemo": null, "appraise": null, "website": null, "memo": null, "payTypes": "\u6749\u5fb7\u5361", "shopTypes": "\u9910\u996e", "consumeTypes": null, "cookTypes": null, "orderNum": 1000, "card4no": null, "card4noAcc": null, "district2": 408, "searchScope": null, "status": 1, "address": "\u9038\u4ed9\u8def580\u53f7", "name": "\u80af\u5fb7\u57fa \u9038\u4ed9\u5e97", "id": 138060, "pageNo": 0, "pageCount": null, "pageSize": 10, "ids": null, "endTime": null, "startTime": null}, {"cardNumFive": null, "isSupportYj": null, "cityName": null, "districtName": null, "shopinfo": {"mid": "888888858120850", "good_flag": null, "new_flag": null, "short_name": "\u80af\u5fb7\u57fa", "short_name_pinyin": "kendeji", "status": null, "address": null, "name": null, "id": "32298"}, "mid": "888888858120850", "shopId": "32298", "netid": null, "province": 901, "district": 601, "zipcode": null, "telephone": "68456261", "posDate": "20091226", "destineTel": null, "togoTel": null, "trafficWay": null, "signBuilding": null, "businessArea": null, "selfRoom": null, "businessTime": null, "stall": null, "consume": null, "serviceFei": null, "favourable": null, "shopMemo": null, "appraise": null, "website": null, "memo": null, "payTypes": "\u6749\u5fb7\u5361", "shopTypes": "\u9910\u996e", "consumeTypes": null, "cookTypes": null, "orderNum": 1000, "card4no": null, "card4noAcc": null, "district2": 418, "searchScope": null, "status": 1, "address": "\u94f6\u9704\u8def393\u53f7\u767e\u5b89\u5c45\u9f99\u9633\u5e97\u4e00\u5c42", "name": "\u80af\u5fb7\u57fa \u94f6\u9704\u5e97", "id": 138062, "pageNo": 0, "pageCount": null, "pageSize": 10, "ids": null, "endTime": null, "startTime": null}, {"cardNumFive": null, "isSupportYj": null, "cityName": null, "districtName": null, "shopinfo": {"mid": "888888858120850", "good_flag": null, "new_flag": null, "short_name": "\u80af\u5fb7\u57fa", "short_name_pinyin": "kendeji", "status": null, "address": null, "name": null, "id": "32298"}, "mid": "888888858120850", "shopId": "32298", "netid": null, "province": 901, "district": 601, "zipcode": null, "telephone": "65876397", "posDate": "20091228", "destineTel": null, "togoTel": null, "trafficWay": null, "signBuilding": null, "businessArea": null, "selfRoom": null, "businessTime": null, "stall": null, "consume": null, "serviceFei": null, "favourable": null, "shopMemo": null, "appraise": null, "website": null, "memo": null, "payTypes": "\u6749\u5fb7\u5361", "shopTypes": "\u9910\u996e", "consumeTypes": null, "cookTypes": null, "orderNum": 1000, "card4no": null, "card4noAcc": null, "district2": 408, "searchScope": null, "status": 1, "address": "\u56db\u5ddd\u5317\u8def1818\u53f7", "name": "\u80af\u5fb7\u57fa \u6c38\u5b89\u5e97", "id": 138063, "pageNo": 0, "pageCount": null, "pageSize": 10, "ids": null, "endTime": null, "startTime": null}, {"cardNumFive": null, "isSupportYj": null, "cityName": null, "districtName": null, "shopinfo": {"mid": "888888858120850", "good_flag": null, "new_flag": null, "short_name": "\u80af\u5fb7\u57fa", "short_name_pinyin": "kendeji", "status": null, "address": null, "name": null, "id": "32298"}, "mid": "888888858120850", "shopId": "32298", "netid": null, "province": 901, "district": 601, "zipcode": null, "telephone": "64747044", "posDate": "20091222", "destineTel": null, "togoTel": null, "trafficWay": null, "signBuilding": null, "businessArea": null, "selfRoom": null, "businessTime": null, "stall": null, "consume": null, "serviceFei": null, "favourable": null, "shopMemo": null, "appraise": null, "website": null, "memo": null, "payTypes": "\u6749\u5fb7\u5361", "shopTypes": "\u9910\u996e", "consumeTypes": null, "cookTypes": null, "orderNum": 1000, "card4no": null, "card4noAcc": null, "district2": 401, "searchScope": null, "status": 1, "address": "\u6dee\u6d77\u4e2d\u8def1298\u53f7", "name": "\u80af\u5fb7\u57fa \u6c38\u9686\u5e97", "id": 138064, "pageNo": 0, "pageCount": null, "pageSize": 10, "ids": null, "endTime": null, "startTime": null}, {"cardNumFive": null, "isSupportYj": null, "cityName": null, "districtName": null, "shopinfo": {"mid": "888888858120850", "good_flag": null, "new_flag": null, "short_name": "\u80af\u5fb7\u57fa", "short_name_pinyin": "kendeji", "status": null, "address": null, "name": null, "id": "32298"}, "mid": "888888858120850", "shopId": "32298", "netid": null, "province": 901, "district": 601, "zipcode": null, "telephone": null, "posDate": "20091222", "destineTel": null, "togoTel": null, "trafficWay": null, "signBuilding": null, "businessArea": null, "selfRoom": null, "businessTime": null, "stall": null, "consume": null, "serviceFei": null, "favourable": null, "shopMemo": null, "appraise": null, "website": null, "memo": null, "payTypes": "\u6749\u5fb7\u5361", "shopTypes": "\u9910\u996e", "consumeTypes": null, "cookTypes": null, "orderNum": 1000, "card4no": null, "card4noAcc": null, "district2": 401, "searchScope": null, "status": 1, "address": "\u6dee\u6d77\u4e2d\u8def887-909\u53f7", "name": "\u80af\u5fb7\u57fa \u6c38\u65b0\u5e97", "id": 138065, "pageNo": 0, "pageCount": null, "pageSize": 10, "ids": null, "endTime": null, "startTime": null}, {"cardNumFive": null, "isSupportYj": null, "cityName": null, "districtName": null, "shopinfo": {"mid": "888888858120850", "good_flag": null, "new_flag": null, "short_name": "\u80af\u5fb7\u57fa", "short_name_pinyin": "kendeji", "status": null, "address": null, "name": null, "id": "32298"}, "mid": "888888858120850", "shopId": "32298", "netid": null, "province": 901, "district": 601, "zipcode": null, "telephone": null, "posDate": "20091226", "destineTel": null, "togoTel": null, "trafficWay": null, "signBuilding": null, "businessArea": null, "selfRoom": null, "businessTime": null, "stall": null, "consume": null, "serviceFei": null, "favourable": null, "shopMemo": null, "appraise": null, "website": null, "memo": null, "payTypes": "\u6749\u5fb7\u5361", "shopTypes": "\u9910\u996e", "consumeTypes": null, "cookTypes": null, "orderNum": 1000, "card4no": null, "card4noAcc": null, "district2": 418, "searchScope": null, "status": 1, "address": "\u6768\u9ad8\u5357\u8def1685\u53f7", "name": "\u80af\u5fb7\u57fa \u7531\u7531\u5e97", "id": 138066, "pageNo": 0, "pageCount": null, "pageSize": 10, "ids": null, "endTime": null, "startTime": null}, {"cardNumFive": null, "isSupportYj": null, "cityName": null, "districtName": null, "shopinfo": {"mid": "888888858120850", "good_flag": null, "new_flag": null, "short_name": "\u80af\u5fb7\u57fa", "short_name_pinyin": "kendeji", "status": null, "address": null, "name": null, "id": "32298"}, "mid": "888888858120850", "shopId": "32298", "netid": null, "province": 901, "district": 601, "zipcode": null, "telephone": null, "posDate": "20091228", "destineTel": null, "togoTel": null, "trafficWay": null, "signBuilding": null, "businessArea": null, "selfRoom": null, "businessTime": null, "stall": null, "consume": null, "serviceFei": null, "favourable": null, "shopMemo": null, "appraise": null, "website": null, "memo": null, "payTypes": "\u6749\u5fb7\u5361", "shopTypes": "\u9910\u996e", "consumeTypes": null, "cookTypes": null, "orderNum": 1000, "card4no": null, "card4noAcc": null, "district2": 408, "searchScope": null, "status": 1, "address": "\u66f2\u9633\u8def566\u53f7", "name": "\u80af\u5fb7\u57fa \u7389\u7530\u5e97", "id": 138067, "pageNo": 0, "pageCount": null, "pageSize": 10, "ids": null, "endTime": null, "startTime": null}], "pageLimit": 4750, "size": 10}