{"pageCount": 1095, "count": 10942, "pageNo": 486, "subShopInfo": {"cardNumFive": "", "isSupportYj": "", "cityName": null, "districtName": null, "shopinfo": {"mid": null, "good_flag": null, "new_flag": null, "short_name": null, "short_name_pinyin": null, "status": null, "address": "", "name": "", "id": null}, "mid": null, "shopId": null, "netid": null, "province": 901, "district": null, "zipcode": null, "telephone": null, "posDate": null, "destineTel": null, "togoTel": null, "trafficWay": null, "signBuilding": null, "businessArea": null, "selfRoom": null, "businessTime": null, "stall": null, "consume": null, "serviceFei": null, "favourable": null, "shopMemo": "1", "appraise": null, "website": null, "memo": null, "payTypes": "", "shopTypes": "", "consumeTypes": null, "cookTypes": null, "orderNum": null, "card4no": null, "card4noAcc": null, "district2": null, "searchScope": null, "status": null, "address": "", "name": null, "id": null, "pageNo": 485, "pageCount": null, "pageSize": 10, "ids": null, "endTime": null, "startTime": null}, "list": [{"cardNumFive": null, "isSupportYj": null, "cityName": null, "districtName": null, "shopinfo": {"mid": "888888854410004", "good_flag": null, "new_flag": null, "short_name": "\u53ef\u9882\u574a", "short_name_pinyin": "kesongfang", "status": null, "address": null, "name": null, "id": "32264"}, "mid": "888888854410004", "shopId": "32264", "netid": null, "province": 901, "district": 601, "zipcode": "200126", "telephone": "58864100", "posDate": "20061110", "destineTel": "58864100", "togoTel": "58864100", "trafficWay": "\u516c\u4ea4572", "signBuilding": null, "businessArea": "20~50\u5e73\u7c73", "selfRoom": "\u65e0", "businessTime": null, "stall": "\u65e0", "consume": null, "serviceFei": null, "favourable": null, "shopMemo": null, "appraise": null, "website": null, "memo": null, "payTypes": "\u6749\u5fb7\u5361", "shopTypes": "\u9762\u5305\u897f\u997c", "consumeTypes": null, "cookTypes": null, "orderNum": 1000, "card4no": null, "card4noAcc": null, "district2": 418, "searchScope": null, "status": 1, "address": "\u660c\u91cc\u8def351\u53f71\u53f7\u5546\u94fa", "name": "\u53ef\u9882\u574a \u4e0a\u5357\u5e97", "id": 137344, "pageNo": 0, "pageCount": null, "pageSize": 10, "ids": null, "endTime": null, "startTime": null}, {"cardNumFive": null, "isSupportYj": null, "cityName": null, "districtName": null, "shopinfo": {"mid": "888888854410004", "good_flag": null, "new_flag": null, "short_name": "\u53ef\u9882\u574a", "short_name_pinyin": "kesongfang", "status": null, "address": null, "name": null, "id": "32264"}, "mid": "888888854410004", "shopId": "32264", "netid": null, "province": 901, "district": 601, "zipcode": "200336", "telephone": "62288971", "posDate": "20061109", "destineTel": "62288971", "togoTel": "62288971", "trafficWay": "\u516c\u4ea4808 855", "signBuilding": null, "businessArea": "20~50\u5e73\u7c73", "selfRoom": "\u65e0", "businessTime": null, "stall": "\u65e0", "consume": null, "serviceFei": null, "favourable": null, "shopMemo": null, "appraise": null, "website": null, "memo": null, "payTypes": "\u6749\u5fb7\u5361", "shopTypes": "\u9762\u5305\u897f\u997c", "consumeTypes": null, "cookTypes": null, "orderNum": 1000, "card4no": null, "card4noAcc": null, "district2": 406, "searchScope": null, "status": 1, "address": "\u53e4\u5317\u8def380\u53f7", "name": "\u53ef\u9882\u574a \u5929\u5c71\u5e97", "id": 137347, "pageNo": 0, "pageCount": null, "pageSize": 10, "ids": null, "endTime": null, "startTime": null}, {"cardNumFive": null, "isSupportYj": null, "cityName": null, "districtName": null, "shopinfo": {"mid": "888888854410004", "good_flag": null, "new_flag": null, "short_name": "\u53ef\u9882\u574a", "short_name_pinyin": "kesongfang", "status": null, "address": null, "name": null, "id": "32264"}, "mid": "888888854410004", "shopId": "32264", "netid": null, "province": 901, "district": 601, "zipcode": "200042", "telephone": "62717809", "posDate": "20061117", "destineTel": "62717809", "togoTel": "62717809", "trafficWay": "\u516c\u4ea4830 15", "signBuilding": null, "businessArea": "20~50\u5e73\u7c73", "selfRoom": "\u65e0", "businessTime": null, "stall": "\u65e0", "consume": null, "serviceFei": null, "favourable": null, "shopMemo": null, "appraise": null, "website": null, "memo": null, "payTypes": "\u6749\u5fb7\u5361", "shopTypes": "\u9762\u5305\u897f\u997c", "consumeTypes": null, "cookTypes": null, "orderNum": 1000, "card4no": null, "card4noAcc": null, "district2": 404, "searchScope": null, "status": 1, "address": "\u65b0\u95f8\u8def1888\u53f7", "name": "\u53ef\u9882\u574a \u65b0\u95f8\u5e97", "id": 137354, "pageNo": 0, "pageCount": null, "pageSize": 10, "ids": null, "endTime": null, "startTime": null}, {"cardNumFive": null, "isSupportYj": null, "cityName": null, "districtName": null, "shopinfo": {"mid": "888888854410004", "good_flag": null, "new_flag": null, "short_name": "\u53ef\u9882\u574a", "short_name_pinyin": "kesongfang", "status": null, "address": null, "name": null, "id": "39213"}, "mid": "888888854410004", "shopId": "39213", "netid": null, "province": 901, "district": 601, "zipcode": null, "telephone": "58786180", "posDate": null, "destineTel": null, "togoTel": null, "trafficWay": null, "signBuilding": null, "businessArea": null, "selfRoom": null, "businessTime": null, "stall": null, "consume": null, "serviceFei": null, "favourable": null, "shopMemo": null, "appraise": null, "website": null, "memo": null, "payTypes": "\u6749\u5fb7\u5361", "shopTypes": "\u9762\u5305\u897f\u997c", "consumeTypes": null, "cookTypes": null, "orderNum": 1000, "card4no": null, "card4noAcc": null, "district2": 418, "searchScope": null, "status": 1, "address": "\u5546\u57ce\u8def665\u53f71\u697c", "name": "\u53ef\u9882\u574a \u5357\u6cc9\u5317\u8def\u5e97", "id": 167282, "pageNo": 0, "pageCount": null, "pageSize": 10, "ids": null, "endTime": null, "startTime": null}, {"cardNumFive": null, "isSupportYj": null, "cityName": null, "districtName": null, "shopinfo": {"mid": "888888854410004", "good_flag": null, "new_flag": null, "short_name": "\u53ef\u9882\u574a", "short_name_pinyin": "kesongfang", "status": null, "address": null, "name": null, "id": "39213"}, "mid": "888888854410004", "shopId": "39213", "netid": null, "province": 901, "district": 601, "zipcode": null, "telephone": "65482712", "posDate": null, "destineTel": null, "togoTel": null, "trafficWay": null, "signBuilding": null, "businessArea": null, "selfRoom": null, "businessTime": null, "stall": null, "consume": null, "serviceFei": null, "favourable": null, "shopMemo": null, "appraise": null, "website": null, "memo": null, "payTypes": "\u6749\u5fb7\u5361", "shopTypes": "\u9762\u5305\u897f\u997c", "consumeTypes": null, "cookTypes": null, "orderNum": 1000, "card4no": null, "card4noAcc": null, "district2": 407, "searchScope": null, "status": 1, "address": "\u6dde\u6caa\u8def8\u53f7", "name": "\u53ef\u9882\u574a \u6dde\u6caa\u5e97", "id": 167283, "pageNo": 0, "pageCount": null, "pageSize": 10, "ids": null, "endTime": null, "startTime": null}, {"cardNumFive": null, "isSupportYj": null, "cityName": null, "districtName": null, "shopinfo": {"mid": "888888854410004", "good_flag": null, "new_flag": null, "short_name": "\u53ef\u9882\u574a", "short_name_pinyin": "kesongfang", "status": null, "address": null, "name": null, "id": "32264"}, "mid": "888888854410004", "shopId": "32264", "netid": null, "province": 901, "district": 601, "zipcode": null, "telephone": null, "posDate": null, "destineTel": null, "togoTel": null, "trafficWay": null, "signBuilding": null, "businessArea": null, "selfRoom": null, "businessTime": null, "stall": null, "consume": null, "serviceFei": null, "favourable": null, "shopMemo": null, "appraise": null, "website": null, "memo": null, "payTypes": "\u6749\u5fb7\u5361", "shopTypes": "\u9762\u5305\u897f\u997c", "consumeTypes": null, "cookTypes": null, "orderNum": 1000, "card4no": null, "card4noAcc": null, "district2": 407, "searchScope": null, "status": 1, "address": "\u63a7\u6c5f\u8def1667\u53f7", "name": "\u53ef\u9882\u574a \u63a7\u6c5f\u65b0\u5e97", "id": 172400, "pageNo": 0, "pageCount": null, "pageSize": 10, "ids": null, "endTime": null, "startTime": null}, {"cardNumFive": null, "isSupportYj": null, "cityName": null, "districtName": null, "shopinfo": {"mid": "888002173110011", "good_flag": null, "new_flag": null, "short_name": "Kiss Me\u9ad8\u7ea7\u5a5a\u793c\u5b9a\u5236", "short_name_pinyin": "kissmegaojihunlidingzhi", "status": null, "address": null, "name": null, "id": "38703"}, "mid": "888002173110011", "shopId": "38703", "netid": null, "province": 901, "district": 601, "zipcode": null, "telephone": "60402129", "posDate": null, "destineTel": null, "togoTel": null, "trafficWay": null, "signBuilding": null, "businessArea": null, "selfRoom": null, "businessTime": null, "stall": null, "consume": null, "serviceFei": null, "favourable": null, "shopMemo": null, "appraise": null, "website": null, "memo": null, "payTypes": "\u6749\u5fb7\u5361", "shopTypes": "\u5176\u4ed6", "consumeTypes": null, "cookTypes": null, "orderNum": 1000, "card4no": null, "card4noAcc": null, "district2": 405, "searchScope": null, "status": 1, "address": "\u6012\u6c5f\u5317\u8def598\u53f7\u7ea2\u661f\u4e16\u8d38\u5927\u53a67\u53f7\u95e81616\u5ba4", "name": "Kiss Me\u9ad8\u7ea7\u5a5a\u793c\u5b9a\u5236 \u6012\u6c5f\u5317\u8def\u5e97", "id": 164129, "pageNo": 0, "pageCount": null, "pageSize": 10, "ids": null, "endTime": null, "startTime": null}, {"cardNumFive": null, "isSupportYj": null, "cityName": null, "districtName": null, "shopinfo": {"mid": "888888854410187", "good_flag": "2", "new_flag": "1", "short_name": "\u53e3\u5473\u4f73", "short_name_pinyin": "kouweijia", "status": null, "address": null, "name": null, "id": "32303"}, "mid": "888888854410187", "shopId": "32303", "netid": null, "province": 901, "district": 601, "zipcode": null, "telephone": null, "posDate": "20100118", "destineTel": null, "togoTel": null, "trafficWay": null, "signBuilding": null, "businessArea": null, "selfRoom": null, "businessTime": null, "stall": null, "consume": null, "serviceFei": null, "favourable": null, "shopMemo": null, "appraise": null, "website": null, "memo": null, "payTypes": "\u6749\u5fb7\u5361", "shopTypes": "\u96f6\u552e", "consumeTypes": null, "cookTypes": null, "orderNum": 1000, "card4no": null, "card4noAcc": null, "district2": 418, "searchScope": null, "status": 1, "address": "\u6d66\u4e1c\u65b0\u533a\u9ad8\u6865\u9547\u5b63\u666f\u5317\u8def106\u53f7\u4e00\u5c42", "name": "\u53e3\u5473\u4f73 \u5b63\u666f\u5317\u8def\u5e97", "id": 138092, "pageNo": 0, "pageCount": null, "pageSize": 10, "ids": null, "endTime": null, "startTime": null}, {"cardNumFive": null, "isSupportYj": null, "cityName": null, "districtName": null, "shopinfo": {"mid": "888002153310727", "good_flag": null, "new_flag": "2", "short_name": "\u5feb\u5ba2\u4fbf\u5229", "short_name_pinyin": "kuailebianli", "status": null, "address": null, "name": null, "id": "42348"}, "mid": "888002153310727", "shopId": "42348", "netid": null, "province": 901, "district": 601, "zipcode": null, "telephone": null, "posDate": null, "destineTel": null, "togoTel": null, "trafficWay": null, "signBuilding": null, "businessArea": null, "selfRoom": null, "businessTime": null, "stall": null, "consume": null, "serviceFei": null, "favourable": null, "shopMemo": null, "appraise": null, "website": null, "memo": null, "payTypes": "\u6749\u5fb7\u5361", "shopTypes": "\u8d85\u5e02", "consumeTypes": null, "cookTypes": null, "orderNum": 1000, "card4no": null, "card4noAcc": null, "district2": 408, "searchScope": null, "status": 1, "address": "\u6d77\u95e8\u8def609\u53f7\u5e95\u5c421\u5ba4\uff08\u95e8\u9762\u5728\u5468\u5bb6\u5634\u8def\u4e0a\uff09", "name": "\u5feb\u5ba2\u4fbf\u5229 \u5317\u6ee9\u5e97", "id": 188887, "pageNo": 0, "pageCount": null, "pageSize": 10, "ids": null, "endTime": null, "startTime": null}, {"cardNumFive": null, "isSupportYj": null, "cityName": null, "districtName": null, "shopinfo": {"mid": "888002153310727", "good_flag": null, "new_flag": "2", "short_name": "\u5feb\u5ba2\u4fbf\u5229", "short_name_pinyin": "kuailebianli", "status": null, "address": null, "name": null, "id": "42348"}, "mid": "888002153310727", "shopId": "42348", "netid": null, "province": 901, "district": 601, "zipcode": null, "telephone": null, "posDate": null, "destineTel": null, "togoTel": null, "trafficWay": null, "signBuilding": null, "businessArea": null, "selfRoom": null, "businessTime": null, "stall": null, "consume": null, "serviceFei": null, "favourable": null, "shopMemo": null, "appraise": null, "website": null, "memo": null, "payTypes": "\u6749\u5fb7\u5361", "shopTypes": "\u4fbf\u5229\u5e97", "consumeTypes": null, "cookTypes": null, "orderNum": 1000, "card4no": null, "card4noAcc": null, "district2": 408, "searchScope": null, "status": 1, "address": "\u6c99\u6cfe\u8def10\u53f7101A\u5ba4", "name": "\u5feb\u5ba2\u4fbf\u5229 \u535a\u798f\u5e97", "id": 189579, "pageNo": 0, "pageCount": null, "pageSize": 10, "ids": null, "endTime": null, "startTime": null}], "pageLimit": 4850, "size": 10}