{"pageCount": 1095, "count": 10942, "pageNo": 480, "subShopInfo": {"cardNumFive": "", "isSupportYj": "", "cityName": null, "districtName": null, "shopinfo": {"mid": null, "good_flag": null, "new_flag": null, "short_name": null, "short_name_pinyin": null, "status": null, "address": "", "name": "", "id": null}, "mid": null, "shopId": null, "netid": null, "province": 901, "district": null, "zipcode": null, "telephone": null, "posDate": null, "destineTel": null, "togoTel": null, "trafficWay": null, "signBuilding": null, "businessArea": null, "selfRoom": null, "businessTime": null, "stall": null, "consume": null, "serviceFei": null, "favourable": null, "shopMemo": "1", "appraise": null, "website": null, "memo": null, "payTypes": "", "shopTypes": "", "consumeTypes": null, "cookTypes": null, "orderNum": null, "card4no": null, "card4noAcc": null, "district2": null, "searchScope": null, "status": null, "address": "", "name": null, "id": null, "pageNo": 479, "pageCount": null, "pageSize": 10, "ids": null, "endTime": null, "startTime": null}, "list": [{"cardNumFive": null, "isSupportYj": null, "cityName": null, "districtName": null, "shopinfo": {"mid": "888888858120850", "good_flag": null, "new_flag": null, "short_name": "\u80af\u5fb7\u57fa", "short_name_pinyin": "kendeji", "status": null, "address": null, "name": null, "id": "37720"}, "mid": "888888858120850", "shopId": "37720", "netid": null, "province": 901, "district": 601, "zipcode": null, "telephone": null, "posDate": null, "destineTel": null, "togoTel": null, "trafficWay": null, "signBuilding": null, "businessArea": null, "selfRoom": null, "businessTime": null, "stall": null, "consume": null, "serviceFei": null, "favourable": null, "shopMemo": null, "appraise": null, "website": null, "memo": null, "payTypes": "\u6749\u5fb7\u5361", "shopTypes": "\u9910\u996e", "consumeTypes": null, "cookTypes": null, "orderNum": 1000, "card4no": null, "card4noAcc": null, "district2": 410, "searchScope": null, "status": 1, "address": "\u4e2d\u534e\u65b0\u8def567\u53f7", "name": "\u80af\u5fb7\u57fa \u4e2d\u534e\u65b0\u5e97", "id": 159970, "pageNo": 0, "pageCount": null, "pageSize": 10, "ids": null, "endTime": null, "startTime": null}, {"cardNumFive": null, "isSupportYj": null, "cityName": null, "districtName": null, "shopinfo": {"mid": "888888858120850", "good_flag": null, "new_flag": null, "short_name": "\u80af\u5fb7\u57fa", "short_name_pinyin": "kendeji", "status": null, "address": null, "name": null, "id": "38249"}, "mid": "888888858120850", "shopId": "38249", "netid": null, "province": 901, "district": 601, "zipcode": null, "telephone": null, "posDate": null, "destineTel": null, "togoTel": null, "trafficWay": null, "signBuilding": null, "businessArea": null, "selfRoom": null, "businessTime": null, "stall": null, "consume": null, "serviceFei": null, "favourable": null, "shopMemo": null, "appraise": null, "website": null, "memo": null, "payTypes": "\u6749\u5fb7\u5361", "shopTypes": "\u9910\u996e", "consumeTypes": null, "cookTypes": null, "orderNum": 1000, "card4no": null, "card4noAcc": null, "district2": 405, "searchScope": null, "status": 1, "address": "\u66f9\u5b89\u8def1538\u53f7", "name": "\u80af\u5fb7\u57fa \u66f9\u5b89\u5e97", "id": 163233, "pageNo": 0, "pageCount": null, "pageSize": 10, "ids": null, "endTime": null, "startTime": null}, {"cardNumFive": null, "isSupportYj": null, "cityName": null, "districtName": null, "shopinfo": {"mid": "888888858120850", "good_flag": null, "new_flag": null, "short_name": "\u80af\u5fb7\u57fa", "short_name_pinyin": "kendeji", "status": null, "address": null, "name": null, "id": "38249"}, "mid": "888888858120850", "shopId": "38249", "netid": null, "province": 901, "district": 601, "zipcode": null, "telephone": null, "posDate": null, "destineTel": null, "togoTel": null, "trafficWay": null, "signBuilding": null, "businessArea": null, "selfRoom": null, "businessTime": null, "stall": null, "consume": null, "serviceFei": null, "favourable": null, "shopMemo": null, "appraise": null, "website": null, "memo": null, "payTypes": "\u6749\u5fb7\u5361", "shopTypes": "\u9910\u996e", "consumeTypes": null, "cookTypes": null, "orderNum": 1000, "card4no": null, "card4noAcc": null, "district2": 418, "searchScope": null, "status": 1, "address": "\u4e0a\u5357\u8def1160\u53f71\u5c42", "name": "\u80af\u5fb7\u57fa \u660c\u91cc\u5e97", "id": 163234, "pageNo": 0, "pageCount": null, "pageSize": 10, "ids": null, "endTime": null, "startTime": null}, {"cardNumFive": null, "isSupportYj": null, "cityName": null, "districtName": null, "shopinfo": {"mid": "888888858120850", "good_flag": null, "new_flag": null, "short_name": "\u80af\u5fb7\u57fa", "short_name_pinyin": "kendeji", "status": null, "address": null, "name": null, "id": "38249"}, "mid": "888888858120850", "shopId": "38249", "netid": null, "province": 901, "district": 601, "zipcode": null, "telephone": null, "posDate": null, "destineTel": null, "togoTel": null, "trafficWay": null, "signBuilding": null, "businessArea": null, "selfRoom": null, "businessTime": null, "stall": null, "consume": null, "serviceFei": null, "favourable": null, "shopMemo": null, "appraise": null, "website": null, "memo": null, "payTypes": "\u6749\u5fb7\u5361", "shopTypes": "\u9910\u996e", "consumeTypes": null, "cookTypes": null, "orderNum": 1000, "card4no": null, "card4noAcc": null, "district2": 417, "searchScope": null, "status": 1, "address": "\u534e\u65b0\u9547\u534e\u5f3a\u8857239\u53f7", "name": "\u80af\u5fb7\u57fa \u534e\u65b0\u5e97", "id": 163237, "pageNo": 0, "pageCount": null, "pageSize": 10, "ids": null, "endTime": null, "startTime": null}, {"cardNumFive": null, "isSupportYj": null, "cityName": null, "districtName": null, "shopinfo": {"mid": "888888858120850", "good_flag": null, "new_flag": null, "short_name": "\u80af\u5fb7\u57fa", "short_name_pinyin": "kendeji", "status": null, "address": null, "name": null, "id": "38249"}, "mid": "888888858120850", "shopId": "38249", "netid": null, "province": 901, "district": 601, "zipcode": null, "telephone": null, "posDate": null, "destineTel": null, "togoTel": null, "trafficWay": null, "signBuilding": null, "businessArea": null, "selfRoom": null, "businessTime": null, "stall": null, "consume": null, "serviceFei": null, "favourable": null, "shopMemo": null, "appraise": null, "website": null, "memo": null, "payTypes": "\u6749\u5fb7\u5361", "shopTypes": "\u9910\u996e", "consumeTypes": null, "cookTypes": null, "orderNum": 1000, "card4no": null, "card4noAcc": null, "district2": 418, "searchScope": null, "status": 1, "address": "\u8f68\u9053\u4ea4\u901a\u516d\u53f7\u7ebf\u4e0a\u5357\u8def\u7ad9\u7ad9\u5385\u5c42", "name": "\u80af\u5fb7\u57fa \u8054\u660e\u5e97", "id": 163238, "pageNo": 0, "pageCount": null, "pageSize": 10, "ids": null, "endTime": null, "startTime": null}, {"cardNumFive": null, "isSupportYj": null, "cityName": null, "districtName": null, "shopinfo": {"mid": "888888858120850", "good_flag": null, "new_flag": null, "short_name": "\u80af\u5fb7\u57fa", "short_name_pinyin": "kendeji", "status": null, "address": null, "name": null, "id": "38951"}, "mid": "888888858120850", "shopId": "38951", "netid": null, "province": 901, "district": 601, "zipcode": null, "telephone": null, "posDate": null, "destineTel": null, "togoTel": null, "trafficWay": null, "signBuilding": null, "businessArea": null, "selfRoom": null, "businessTime": null, "stall": null, "consume": null, "serviceFei": null, "favourable": null, "shopMemo": null, "appraise": null, "website": null, "memo": null, "payTypes": "\u6749\u5fb7\u5361", "shopTypes": "\u9910\u996e", "consumeTypes": null, "cookTypes": null, "orderNum": 1000, "card4no": null, "card4noAcc": null, "district2": 411, "searchScope": null, "status": 1, "address": "\u5b89\u4ead\u9547\u58a8\u7389\u5357\u8def1055\u53f7110\u5ba4", "name": "\u80af\u5fb7\u57fa \u5b89\u4ead\u65b0\u9547\u5e97", "id": 164888, "pageNo": 0, "pageCount": null, "pageSize": 10, "ids": null, "endTime": null, "startTime": null}, {"cardNumFive": null, "isSupportYj": null, "cityName": null, "districtName": null, "shopinfo": {"mid": "888888858120850", "good_flag": null, "new_flag": null, "short_name": "\u80af\u5fb7\u57fa", "short_name_pinyin": "kendeji", "status": null, "address": null, "name": null, "id": "38951"}, "mid": "888888858120850", "shopId": "38951", "netid": null, "province": 901, "district": 601, "zipcode": null, "telephone": null, "posDate": null, "destineTel": null, "togoTel": null, "trafficWay": null, "signBuilding": null, "businessArea": null, "selfRoom": null, "businessTime": null, "stall": null, "consume": null, "serviceFei": null, "favourable": null, "shopMemo": null, "appraise": null, "website": null, "memo": null, "payTypes": "\u6749\u5fb7\u5361", "shopTypes": "\u9910\u996e", "consumeTypes": null, "cookTypes": null, "orderNum": 1000, "card4no": null, "card4noAcc": null, "district2": 403, "searchScope": null, "status": 1, "address": "\u5b9c\u5c71\u8def425-455\u53f7", "name": "\u80af\u5fb7\u57fa \u5149\u542f\u57ce\u5e97", "id": 164889, "pageNo": 0, "pageCount": null, "pageSize": 10, "ids": null, "endTime": null, "startTime": null}, {"cardNumFive": null, "isSupportYj": null, "cityName": null, "districtName": null, "shopinfo": {"mid": "888888858120850", "good_flag": null, "new_flag": null, "short_name": "\u80af\u5fb7\u57fa", "short_name_pinyin": "kendeji", "status": null, "address": null, "name": null, "id": "38951"}, "mid": "888888858120850", "shopId": "38951", "netid": null, "province": 901, "district": 601, "zipcode": null, "telephone": "34700012", "posDate": null, "destineTel": null, "togoTel": null, "trafficWay": null, "signBuilding": null, "businessArea": null, "selfRoom": null, "businessTime": null, "stall": null, "consume": null, "serviceFei": null, "favourable": null, "shopMemo": null, "appraise": null, "website": null, "memo": null, "payTypes": "\u6749\u5fb7\u5361", "shopTypes": "\u9910\u996e", "consumeTypes": null, "cookTypes": null, "orderNum": 1000, "card4no": null, "card4noAcc": null, "district2": 403, "searchScope": null, "status": 1, "address": "\u6f15\u5b9d\u8def1574\u53f71\u697c", "name": "\u80af\u5fb7\u57fa \u8398\u6f15\u5e97", "id": 164890, "pageNo": 0, "pageCount": null, "pageSize": 10, "ids": null, "endTime": null, "startTime": null}, {"cardNumFive": null, "isSupportYj": null, "cityName": null, "districtName": null, "shopinfo": {"mid": "888888858120850", "good_flag": null, "new_flag": null, "short_name": "\u80af\u5fb7\u57fa", "short_name_pinyin": "kendeji", "status": null, "address": null, "name": null, "id": "32298"}, "mid": "888888858120850", "shopId": "32298", "netid": null, "province": 901, "district": 601, "zipcode": null, "telephone": null, "posDate": null, "destineTel": null, "togoTel": null, "trafficWay": null, "signBuilding": null, "businessArea": null, "selfRoom": null, "businessTime": null, "stall": null, "consume": null, "serviceFei": null, "favourable": null, "shopMemo": null, "appraise": null, "website": null, "memo": null, "payTypes": "\u6749\u5fb7\u5361", "shopTypes": "\u9910\u996e", "consumeTypes": null, "cookTypes": null, "orderNum": 1000, "card4no": null, "card4noAcc": null, "district2": 411, "searchScope": null, "status": 1, "address": "\u5e73\u57ce\u8def1188\u53f7", "name": "\u80af\u5fb7\u57fa \u5609\u5b9a\u57ce\u5317\u5e97", "id": 169340, "pageNo": 0, "pageCount": null, "pageSize": 10, "ids": null, "endTime": null, "startTime": null}, {"cardNumFive": null, "isSupportYj": null, "cityName": null, "districtName": null, "shopinfo": {"mid": "888888858120850", "good_flag": null, "new_flag": null, "short_name": "\u80af\u5fb7\u57fa", "short_name_pinyin": "kendeji", "status": null, "address": null, "name": null, "id": "32298"}, "mid": "888888858120850", "shopId": "32298", "netid": null, "province": 901, "district": 601, "zipcode": null, "telephone": null, "posDate": null, "destineTel": null, "togoTel": null, "trafficWay": null, "signBuilding": null, "businessArea": null, "selfRoom": null, "businessTime": null, "stall": null, "consume": null, "serviceFei": null, "favourable": null, "shopMemo": null, "appraise": null, "website": null, "memo": null, "payTypes": "\u6749\u5fb7\u5361", "shopTypes": "\u9910\u996e", "consumeTypes": null, "cookTypes": null, "orderNum": 1000, "card4no": null, "card4noAcc": null, "district2": 410, "searchScope": null, "status": 1, "address": "\u82b7\u6c5f\u897f\u8def398\u53f7", "name": "\u80af\u5fb7\u57fa \u82b7\u6c5f\u5e97", "id": 170711, "pageNo": 0, "pageCount": null, "pageSize": 10, "ids": null, "endTime": null, "startTime": null}], "pageLimit": 4790, "size": 10}