{"pageCount": 1095, "count": 10942, "pageNo": 487, "subShopInfo": {"cardNumFive": "", "isSupportYj": "", "cityName": null, "districtName": null, "shopinfo": {"mid": null, "good_flag": null, "new_flag": null, "short_name": null, "short_name_pinyin": null, "status": null, "address": "", "name": "", "id": null}, "mid": null, "shopId": null, "netid": null, "province": 901, "district": null, "zipcode": null, "telephone": null, "posDate": null, "destineTel": null, "togoTel": null, "trafficWay": null, "signBuilding": null, "businessArea": null, "selfRoom": null, "businessTime": null, "stall": null, "consume": null, "serviceFei": null, "favourable": null, "shopMemo": "1", "appraise": null, "website": null, "memo": null, "payTypes": "", "shopTypes": "", "consumeTypes": null, "cookTypes": null, "orderNum": null, "card4no": null, "card4noAcc": null, "district2": null, "searchScope": null, "status": null, "address": "", "name": null, "id": null, "pageNo": 486, "pageCount": null, "pageSize": 10, "ids": null, "endTime": null, "startTime": null}, "list": [{"cardNumFive": null, "isSupportYj": null, "cityName": null, "districtName": null, "shopinfo": {"mid": "888002153310727", "good_flag": null, "new_flag": "2", "short_name": "\u5feb\u5ba2\u4fbf\u5229", "short_name_pinyin": "kuailebianli", "status": null, "address": null, "name": null, "id": "42348"}, "mid": "888002153310727", "shopId": "42348", "netid": null, "province": 901, "district": 601, "zipcode": null, "telephone": null, "posDate": null, "destineTel": null, "togoTel": null, "trafficWay": null, "signBuilding": null, "businessArea": null, "selfRoom": null, "businessTime": null, "stall": null, "consume": null, "serviceFei": null, "favourable": null, "shopMemo": null, "appraise": null, "website": null, "memo": null, "payTypes": "\u6749\u5fb7\u5361", "shopTypes": "\u4fbf\u5229\u5e97", "consumeTypes": null, "cookTypes": null, "orderNum": 1000, "card4no": null, "card4noAcc": null, "district2": 408, "searchScope": null, "status": 1, "address": "\u6c76\u6c34\u4e1c\u8def302\u53f71\u5c421\u5ba4", "name": "\u5feb\u5ba2\u4fbf\u5229 \u6881\u6ce2\u5e97", "id": 189588, "pageNo": 0, "pageCount": null, "pageSize": 10, "ids": null, "endTime": null, "startTime": null}, {"cardNumFive": null, "isSupportYj": null, "cityName": null, "districtName": null, "shopinfo": {"mid": "888002153310727", "good_flag": null, "new_flag": "2", "short_name": "\u5feb\u5ba2\u4fbf\u5229", "short_name_pinyin": "kuailebianli", "status": null, "address": null, "name": null, "id": "42348"}, "mid": "888002153310727", "shopId": "42348", "netid": null, "province": 901, "district": 601, "zipcode": null, "telephone": null, "posDate": null, "destineTel": null, "togoTel": null, "trafficWay": null, "signBuilding": null, "businessArea": null, "selfRoom": null, "businessTime": null, "stall": null, "consume": null, "serviceFei": null, "favourable": null, "shopMemo": null, "appraise": null, "website": null, "memo": null, "payTypes": "\u6749\u5fb7\u5361", "shopTypes": "\u4fbf\u5229\u5e97", "consumeTypes": null, "cookTypes": null, "orderNum": 1000, "card4no": null, "card4noAcc": null, "district2": 401, "searchScope": null, "status": 1, "address": "\u4e2d\u5c71\u5357\u4e00\u8def908\u53f7", "name": "\u5feb\u5ba2\u4fbf\u5229 \u5764\u6728\u5e97", "id": 190989, "pageNo": 0, "pageCount": null, "pageSize": 10, "ids": null, "endTime": null, "startTime": null}, {"cardNumFive": null, "isSupportYj": null, "cityName": null, "districtName": null, "shopinfo": {"mid": "888002153310727", "good_flag": null, "new_flag": "2", "short_name": "\u5feb\u5ba2\u4fbf\u5229", "short_name_pinyin": "kuailebianli", "status": null, "address": null, "name": null, "id": "42348"}, "mid": "888002153310727", "shopId": "42348", "netid": null, "province": 901, "district": 601, "zipcode": null, "telephone": null, "posDate": null, "destineTel": null, "togoTel": null, "trafficWay": null, "signBuilding": null, "businessArea": null, "selfRoom": null, "businessTime": null, "stall": null, "consume": null, "serviceFei": null, "favourable": null, "shopMemo": null, "appraise": null, "website": null, "memo": null, "payTypes": "\u6749\u5fb7\u5361", "shopTypes": "\u4fbf\u5229\u5e97", "consumeTypes": null, "cookTypes": null, "orderNum": 1000, "card4no": null, "card4noAcc": null, "district2": 404, "searchScope": null, "status": 1, "address": "\u660c\u5e73\u8def363\u53f72", "name": "\u5feb\u5ba2\u4fbf\u5229 \u660c\u5e73\u8def\u5e97", "id": 190990, "pageNo": 0, "pageCount": null, "pageSize": 10, "ids": null, "endTime": null, "startTime": null}, {"cardNumFive": null, "isSupportYj": null, "cityName": null, "districtName": null, "shopinfo": {"mid": "888002153310727", "good_flag": null, "new_flag": "2", "short_name": "\u5feb\u5ba2\u4fbf\u5229", "short_name_pinyin": "kuailebianli", "status": null, "address": null, "name": null, "id": "42348"}, "mid": "888002153310727", "shopId": "42348", "netid": null, "province": 901, "district": 601, "zipcode": null, "telephone": null, "posDate": null, "destineTel": null, "togoTel": null, "trafficWay": null, "signBuilding": null, "businessArea": null, "selfRoom": null, "businessTime": null, "stall": null, "consume": null, "serviceFei": null, "favourable": null, "shopMemo": null, "appraise": null, "website": null, "memo": null, "payTypes": "\u6749\u5fb7\u5361", "shopTypes": "\u4fbf\u5229\u5e97", "consumeTypes": null, "cookTypes": null, "orderNum": 1000, "card4no": null, "card4noAcc": null, "district2": 416, "searchScope": null, "status": 1, "address": "\u9038\u4ed9\u8def2816\u53f7B\u680b1\u5c423\u53f7\u5546\u94fa", "name": "\u5feb\u5ba2\u4fbf\u5229 \u817e\u98de\u5e97", "id": 193531, "pageNo": 0, "pageCount": null, "pageSize": 10, "ids": null, "endTime": null, "startTime": null}, {"cardNumFive": null, "isSupportYj": null, "cityName": null, "districtName": null, "shopinfo": {"mid": "888002153310727", "good_flag": null, "new_flag": "2", "short_name": "\u5feb\u5ba2\u4fbf\u5229", "short_name_pinyin": "kuailebianli", "status": null, "address": null, "name": null, "id": "42348"}, "mid": "888002153310727", "shopId": "42348", "netid": null, "province": 901, "district": 601, "zipcode": null, "telephone": null, "posDate": null, "destineTel": null, "togoTel": null, "trafficWay": null, "signBuilding": null, "businessArea": null, "selfRoom": null, "businessTime": null, "stall": null, "consume": null, "serviceFei": null, "favourable": null, "shopMemo": null, "appraise": null, "website": null, "memo": null, "payTypes": "\u6749\u5fb7\u5361", "shopTypes": "\u4fbf\u5229\u5e97", "consumeTypes": null, "cookTypes": null, "orderNum": 1000, "card4no": null, "card4noAcc": null, "district2": 418, "searchScope": null, "status": 1, "address": "\u4ea4\u901a\u8def4651\u53f7106\u5ba4", "name": "\u5feb\u5ba2\u4fbf\u5229 \u79be\u6749\u5e97", "id": 193561, "pageNo": 0, "pageCount": null, "pageSize": 10, "ids": null, "endTime": null, "startTime": null}, {"cardNumFive": null, "isSupportYj": null, "cityName": null, "districtName": null, "shopinfo": {"mid": "888002153310727", "good_flag": null, "new_flag": "2", "short_name": "\u5feb\u5ba2\u4fbf\u5229", "short_name_pinyin": "kuailebianli", "status": null, "address": null, "name": null, "id": "42348"}, "mid": "888002153310727", "shopId": "42348", "netid": null, "province": 901, "district": 601, "zipcode": null, "telephone": null, "posDate": null, "destineTel": null, "togoTel": null, "trafficWay": null, "signBuilding": null, "businessArea": null, "selfRoom": null, "businessTime": null, "stall": null, "consume": null, "serviceFei": null, "favourable": null, "shopMemo": null, "appraise": null, "website": null, "memo": null, "payTypes": "\u6749\u5fb7\u5361", "shopTypes": "\u4fbf\u5229\u5e97", "consumeTypes": null, "cookTypes": null, "orderNum": 1000, "card4no": null, "card4noAcc": null, "district2": 418, "searchScope": null, "status": 1, "address": "\u9526\u7ee3\u4e1c\u8def2777\u5f0428\u53f7\u4e00\u5c42101\u5ba4", "name": "\u5feb\u5ba2\u4fbf\u5229 \u8679\u714a\u5e97", "id": 193563, "pageNo": 0, "pageCount": null, "pageSize": 10, "ids": null, "endTime": null, "startTime": null}, {"cardNumFive": null, "isSupportYj": null, "cityName": null, "districtName": null, "shopinfo": {"mid": "888002153310727", "good_flag": null, "new_flag": "2", "short_name": "\u5feb\u5ba2\u4fbf\u5229", "short_name_pinyin": "kuailebianli", "status": null, "address": null, "name": null, "id": "42348"}, "mid": "888002153310727", "shopId": "42348", "netid": null, "province": 901, "district": 601, "zipcode": null, "telephone": null, "posDate": null, "destineTel": null, "togoTel": null, "trafficWay": null, "signBuilding": null, "businessArea": null, "selfRoom": null, "businessTime": null, "stall": null, "consume": null, "serviceFei": null, "favourable": null, "shopMemo": null, "appraise": null, "website": null, "memo": null, "payTypes": "\u6749\u5fb7\u5361", "shopTypes": "\u4fbf\u5229\u5e97", "consumeTypes": null, "cookTypes": null, "orderNum": 1000, "card4no": null, "card4noAcc": null, "district2": 416, "searchScope": null, "status": 1, "address": "\u95fb\u559c\u8def555\u5f0449\u53f7(\u573a\u4e2d\u8def1915\u53f7)", "name": "\u5feb\u5ba2\u4fbf\u5229 \u95fb\u559c\u8def\u5e97", "id": 195265, "pageNo": 0, "pageCount": null, "pageSize": 10, "ids": null, "endTime": null, "startTime": null}, {"cardNumFive": null, "isSupportYj": null, "cityName": null, "districtName": null, "shopinfo": {"mid": "888002153310727", "good_flag": null, "new_flag": "2", "short_name": "\u5feb\u5ba2\u4fbf\u5229", "short_name_pinyin": "kuailebianli", "status": null, "address": null, "name": null, "id": "42348"}, "mid": "888002153310727", "shopId": "42348", "netid": null, "province": 901, "district": 601, "zipcode": null, "telephone": null, "posDate": null, "destineTel": null, "togoTel": null, "trafficWay": null, "signBuilding": null, "businessArea": null, "selfRoom": null, "businessTime": null, "stall": null, "consume": null, "serviceFei": null, "favourable": null, "shopMemo": null, "appraise": null, "website": null, "memo": null, "payTypes": "\u6749\u5fb7\u5361", "shopTypes": "\u4fbf\u5229\u5e97", "consumeTypes": null, "cookTypes": null, "orderNum": 1000, "card4no": null, "card4noAcc": null, "district2": 403, "searchScope": null, "status": 1, "address": "\u9f99\u5434\u8def51\u53f71\u5e62104\u5ba4", "name": "\u5feb\u5ba2\u4fbf\u5229 \u9f99\u5434\u8def\u5e97", "id": 195266, "pageNo": 0, "pageCount": null, "pageSize": 10, "ids": null, "endTime": null, "startTime": null}, {"cardNumFive": null, "isSupportYj": null, "cityName": null, "districtName": null, "shopinfo": {"mid": "888002153310727", "good_flag": null, "new_flag": "2", "short_name": "\u5feb\u5ba2\u4fbf\u5229", "short_name_pinyin": "kuailebianli", "status": null, "address": null, "name": null, "id": "42348"}, "mid": "888002153310727", "shopId": "42348", "netid": null, "province": 901, "district": 601, "zipcode": null, "telephone": null, "posDate": null, "destineTel": null, "togoTel": null, "trafficWay": null, "signBuilding": null, "businessArea": null, "selfRoom": null, "businessTime": null, "stall": null, "consume": null, "serviceFei": null, "favourable": null, "shopMemo": null, "appraise": null, "website": null, "memo": null, "payTypes": "\u6749\u5fb7\u5361", "shopTypes": "\u4fbf\u5229\u5e97", "consumeTypes": null, "cookTypes": null, "orderNum": 1000, "card4no": null, "card4noAcc": null, "district2": 418, "searchScope": null, "status": 1, "address": "\u5468\u795d\u516c\u8def268\u5f043\u53f7118-119\u5ba4", "name": "\u5feb\u5ba2\u4fbf\u5229 \u5468\u795d\u516c\u8def\u5e97", "id": 195267, "pageNo": 0, "pageCount": null, "pageSize": 10, "ids": null, "endTime": null, "startTime": null}, {"cardNumFive": null, "isSupportYj": null, "cityName": null, "districtName": null, "shopinfo": {"mid": "888002153310727", "good_flag": null, "new_flag": "2", "short_name": "\u5feb\u5ba2\u4fbf\u5229", "short_name_pinyin": "kuailebianli", "status": null, "address": null, "name": null, "id": "42348"}, "mid": "888002153310727", "shopId": "42348", "netid": null, "province": 901, "district": 601, "zipcode": null, "telephone": null, "posDate": null, "destineTel": null, "togoTel": null, "trafficWay": null, "signBuilding": null, "businessArea": null, "selfRoom": null, "businessTime": null, "stall": null, "consume": null, "serviceFei": null, "favourable": null, "shopMemo": null, "appraise": null, "website": null, "memo": null, "payTypes": "\u6749\u5fb7\u5361", "shopTypes": "\u4fbf\u5229\u5e97", "consumeTypes": null, "cookTypes": null, "orderNum": 1000, "card4no": null, "card4noAcc": null, "district2": 409, "searchScope": null, "status": 1, "address": "\u9752\u6749\u8def154\u5e97", "name": "\u5feb\u5ba2\u4fbf\u5229 \u9752\u6749\u8def\u5e97", "id": 195269, "pageNo": 0, "pageCount": null, "pageSize": 10, "ids": null, "endTime": null, "startTime": null}], "pageLimit": 4860, "size": 10}