{"pageCount": 1095, "count": 10942, "pageNo": 485, "subShopInfo": {"cardNumFive": "", "isSupportYj": "", "cityName": null, "districtName": null, "shopinfo": {"mid": null, "good_flag": null, "new_flag": null, "short_name": null, "short_name_pinyin": null, "status": null, "address": "", "name": "", "id": null}, "mid": null, "shopId": null, "netid": null, "province": 901, "district": null, "zipcode": null, "telephone": null, "posDate": null, "destineTel": null, "togoTel": null, "trafficWay": null, "signBuilding": null, "businessArea": null, "selfRoom": null, "businessTime": null, "stall": null, "consume": null, "serviceFei": null, "favourable": null, "shopMemo": "1", "appraise": null, "website": null, "memo": null, "payTypes": "", "shopTypes": "", "consumeTypes": null, "cookTypes": null, "orderNum": null, "card4no": null, "card4noAcc": null, "district2": null, "searchScope": null, "status": null, "address": "", "name": null, "id": null, "pageNo": 484, "pageCount": null, "pageSize": 10, "ids": null, "endTime": null, "startTime": null}, "list": [{"cardNumFive": null, "isSupportYj": null, "cityName": null, "districtName": null, "shopinfo": {"mid": "888002158120150", "good_flag": null, "new_flag": "2", "short_name": "\u80af\u5fb7\u57fa", "short_name_pinyin": "kendeji", "status": null, "address": null, "name": null, "id": "42363"}, "mid": "888002158120150", "shopId": "42363", "netid": null, "province": 901, "district": 601, "zipcode": null, "telephone": null, "posDate": null, "destineTel": null, "togoTel": null, "trafficWay": null, "signBuilding": null, "businessArea": null, "selfRoom": null, "businessTime": null, "stall": null, "consume": null, "serviceFei": null, "favourable": null, "shopMemo": null, "appraise": null, "website": null, "memo": null, "payTypes": "", "shopTypes": null, "consumeTypes": null, "cookTypes": null, "orderNum": null, "card4no": null, "card4noAcc": null, "district2": 418, "searchScope": null, "status": 1, "address": "\u6d66\u4e1c\u5357\u8def889\u53f7\u9646\u5bb6\u5634\u4e2d\u5fc3LG01", "name": "\u9646\u5bb6\u5634\u4e2d\u5fc3SH1039", "id": 552801279613599744, "pageNo": 0, "pageCount": null, "pageSize": 10, "ids": null, "endTime": null, "startTime": null}, {"cardNumFive": null, "isSupportYj": null, "cityName": null, "districtName": null, "shopinfo": {"mid": "888002158120150", "good_flag": null, "new_flag": "2", "short_name": "\u80af\u5fb7\u57fa", "short_name_pinyin": "kendeji", "status": null, "address": null, "name": null, "id": "42363"}, "mid": "888002158120150", "shopId": "42363", "netid": null, "province": 901, "district": 601, "zipcode": null, "telephone": null, "posDate": null, "destineTel": null, "togoTel": null, "trafficWay": null, "signBuilding": null, "businessArea": null, "selfRoom": null, "businessTime": null, "stall": null, "consume": null, "serviceFei": null, "favourable": null, "shopMemo": null, "appraise": null, "website": null, "memo": null, "payTypes": "", "shopTypes": null, "consumeTypes": null, "cookTypes": null, "orderNum": null, "card4no": null, "card4noAcc": null, "district2": 414, "searchScope": null, "status": 1, "address": "\u9f99\u7693\u8def1098\u53f7", "name": "\u91d1\u5c71\u4e07\u8fbeSH1050", "id": 552801279970115584, "pageNo": 0, "pageCount": null, "pageSize": 10, "ids": null, "endTime": null, "startTime": null}, {"cardNumFive": null, "isSupportYj": null, "cityName": null, "districtName": null, "shopinfo": {"mid": "888002158120150", "good_flag": null, "new_flag": "2", "short_name": "\u80af\u5fb7\u57fa", "short_name_pinyin": "kendeji", "status": null, "address": null, "name": null, "id": "42363"}, "mid": "888002158120150", "shopId": "42363", "netid": null, "province": 901, "district": 601, "zipcode": null, "telephone": null, "posDate": null, "destineTel": null, "togoTel": null, "trafficWay": null, "signBuilding": null, "businessArea": null, "selfRoom": null, "businessTime": null, "stall": null, "consume": null, "serviceFei": null, "favourable": null, "shopMemo": null, "appraise": null, "website": null, "memo": null, "payTypes": "", "shopTypes": null, "consumeTypes": null, "cookTypes": null, "orderNum": null, "card4no": null, "card4noAcc": null, "district2": 408, "searchScope": null, "status": 1, "address": "\u4e1c\u957f\u6cbb\u8def588\u53f7\u4e0a\u6d77\u767d\u7389\u5170\u5e7f\u573a\u5546\u573aLD2-M55", "name": "\u91d1\u5149\u4e2d\u5fc3SH1042", "id": 552801280318242816, "pageNo": 0, "pageCount": null, "pageSize": 10, "ids": null, "endTime": null, "startTime": null}, {"cardNumFive": null, "isSupportYj": null, "cityName": null, "districtName": null, "shopinfo": {"mid": "888888854410004", "good_flag": null, "new_flag": null, "short_name": "\u53ef\u9882\u574a", "short_name_pinyin": "kesongfang", "status": null, "address": null, "name": null, "id": "32264"}, "mid": "888888854410004", "shopId": "32264", "netid": null, "province": 901, "district": 601, "zipcode": "200093", "telephone": "63521907", "posDate": "20061117", "destineTel": "63521907", "togoTel": "63521907", "trafficWay": "42 49 \u5730\u94c1\u4e8c\u53f7\u7ebf", "signBuilding": null, "businessArea": "20~50\u5e73\u7c73", "selfRoom": "\u65e0", "businessTime": null, "stall": "\u65e0", "consume": null, "serviceFei": null, "favourable": null, "shopMemo": null, "appraise": null, "website": null, "memo": null, "payTypes": "\u6749\u5fb7\u5361", "shopTypes": "\u9762\u5305\u897f\u997c", "consumeTypes": null, "cookTypes": null, "orderNum": 1000, "card4no": null, "card4noAcc": null, "district2": 401, "searchScope": null, "status": 1, "address": "\u6c49\u53e3\u8def357\u53f7", "name": "\u53ef\u9882\u574a \u6c49\u53e3\u5e97", "id": 137324, "pageNo": 0, "pageCount": null, "pageSize": 10, "ids": null, "endTime": null, "startTime": null}, {"cardNumFive": null, "isSupportYj": null, "cityName": null, "districtName": null, "shopinfo": {"mid": "888888854410004", "good_flag": null, "new_flag": null, "short_name": "\u53ef\u9882\u574a", "short_name_pinyin": "kesongfang", "status": null, "address": null, "name": null, "id": "32264"}, "mid": "888888854410004", "shopId": "32264", "netid": null, "province": 901, "district": 601, "zipcode": "200093", "telephone": "65033591", "posDate": "20061120", "destineTel": "65033591", "togoTel": "65033591", "trafficWay": "\u516c\u4ea4 14 220", "signBuilding": null, "businessArea": "20~50\u5e73\u7c73", "selfRoom": "\u65e0", "businessTime": null, "stall": "\u65e0", "consume": null, "serviceFei": null, "favourable": null, "shopMemo": null, "appraise": null, "website": null, "memo": null, "payTypes": "\u6749\u5fb7\u5361", "shopTypes": "\u9762\u5305\u897f\u997c", "consumeTypes": null, "cookTypes": null, "orderNum": 1000, "card4no": null, "card4noAcc": null, "district2": 407, "searchScope": null, "status": 1, "address": "\u63a7\u6c5f\u8def1882-1884\u53f7", "name": "\u53ef\u9882\u574a \u63a7\u6c5f\u590d\u5408\u5e97", "id": 137332, "pageNo": 0, "pageCount": null, "pageSize": 10, "ids": null, "endTime": null, "startTime": null}, {"cardNumFive": null, "isSupportYj": null, "cityName": null, "districtName": null, "shopinfo": {"mid": "888888854410004", "good_flag": null, "new_flag": null, "short_name": "\u53ef\u9882\u574a", "short_name_pinyin": "kesongfang", "status": null, "address": null, "name": null, "id": "32264"}, "mid": "888888854410004", "shopId": "32264", "netid": null, "province": 901, "district": 601, "zipcode": "200083", "telephone": "65281554", "posDate": "20061121", "destineTel": "65281554", "togoTel": "65281554", "trafficWay": "107 876 98", "signBuilding": null, "businessArea": "20~50\u5e73\u7c73", "selfRoom": "\u65e0", "businessTime": null, "stall": "\u65e0", "consume": null, "serviceFei": null, "favourable": null, "shopMemo": null, "appraise": null, "website": null, "memo": null, "payTypes": "\u6749\u5fb7\u5361", "shopTypes": "\u9762\u5305\u897f\u997c", "consumeTypes": null, "cookTypes": null, "orderNum": 1000, "card4no": null, "card4noAcc": null, "district2": 408, "searchScope": null, "status": 1, "address": "\u51c9\u57ce\u8def749\u53f7", "name": "\u53ef\u9882\u574a \u51c9\u57ce\u5e97", "id": 137335, "pageNo": 0, "pageCount": null, "pageSize": 10, "ids": null, "endTime": null, "startTime": null}, {"cardNumFive": null, "isSupportYj": null, "cityName": null, "districtName": null, "shopinfo": {"mid": "888888854410004", "good_flag": null, "new_flag": null, "short_name": "\u53ef\u9882\u574a", "short_name_pinyin": "kesongfang", "status": null, "address": null, "name": null, "id": "32264"}, "mid": "888888854410004", "shopId": "32264", "netid": null, "province": 901, "district": 601, "zipcode": "200023", "telephone": "63038286", "posDate": "20061116", "destineTel": "63038286", "togoTel": "63038286", "trafficWay": "218 43 43\u533a\u95f4", "signBuilding": null, "businessArea": "20~50\u5e73\u7c73", "selfRoom": "\u65e0", "businessTime": null, "stall": "\u65e0", "consume": null, "serviceFei": null, "favourable": null, "shopMemo": null, "appraise": null, "website": null, "memo": null, "payTypes": "\u6749\u5fb7\u5361", "shopTypes": "\u9762\u5305\u897f\u997c", "consumeTypes": null, "cookTypes": null, "orderNum": 1000, "card4no": null, "card4noAcc": null, "district2": 401, "searchScope": null, "status": 1, "address": "\u8499\u81ea\u897f\u8def1\u5f04\u75321\u53f7", "name": "\u53ef\u9882\u574a \u8499\u81ea\u5e97", "id": 137338, "pageNo": 0, "pageCount": null, "pageSize": 10, "ids": null, "endTime": null, "startTime": null}, {"cardNumFive": null, "isSupportYj": null, "cityName": null, "districtName": null, "shopinfo": {"mid": "888888854410004", "good_flag": null, "new_flag": null, "short_name": "\u53ef\u9882\u574a", "short_name_pinyin": "kesongfang", "status": null, "address": null, "name": null, "id": "32264"}, "mid": "888888854410004", "shopId": "32264", "netid": null, "province": 901, "district": 601, "zipcode": "200030", "telephone": "54891676", "posDate": "20061116", "destineTel": "54891676", "togoTel": "54891676", "trafficWay": "\u5730\u94c11\u53f7\u7ebf \u516c\u4ea489.72.932", "signBuilding": null, "businessArea": "20~50\u5e73\u7c73", "selfRoom": "\u65e0", "businessTime": null, "stall": "\u65e0", "consume": null, "serviceFei": null, "favourable": null, "shopMemo": null, "appraise": null, "website": null, "memo": null, "payTypes": "\u6749\u5fb7\u5361", "shopTypes": "\u9762\u5305\u897f\u997c", "consumeTypes": null, "cookTypes": null, "orderNum": 1000, "card4no": null, "card4noAcc": null, "district2": 403, "searchScope": null, "status": 1, "address": "\u5357\u4e39\u8def130\u53f7", "name": "\u53ef\u9882\u574a \u5357\u4e39\u5e97", "id": 137340, "pageNo": 0, "pageCount": null, "pageSize": 10, "ids": null, "endTime": null, "startTime": null}, {"cardNumFive": null, "isSupportYj": null, "cityName": null, "districtName": null, "shopinfo": {"mid": "888888854410004", "good_flag": null, "new_flag": null, "short_name": "\u53ef\u9882\u574a", "short_name_pinyin": "kesongfang", "status": null, "address": null, "name": null, "id": "32264"}, "mid": "888888854410004", "shopId": "32264", "netid": null, "province": 901, "district": 601, "zipcode": "200092", "telephone": "65531674", "posDate": "20061121", "destineTel": "65531674", "togoTel": "65531674", "trafficWay": "933 123\u533a\u95f4 \u65c5\u6e3810\u53f7\u7ebf", "signBuilding": null, "businessArea": "20~50\u5e73\u7c73", "selfRoom": "\u65e0", "businessTime": null, "stall": "\u65e0", "consume": null, "serviceFei": null, "favourable": null, "shopMemo": null, "appraise": null, "website": null, "memo": null, "payTypes": "\u6749\u5fb7\u5361", "shopTypes": "\u9762\u5305\u897f\u997c", "consumeTypes": null, "cookTypes": null, "orderNum": 1000, "card4no": null, "card4noAcc": null, "district2": 408, "searchScope": null, "status": 1, "address": "\u8d64\u5cf0\u8def366\u53f7", "name": "\u53ef\u9882\u574a \u66f2\u9633\u5e97", "id": 137342, "pageNo": 0, "pageCount": null, "pageSize": 10, "ids": null, "endTime": null, "startTime": null}, {"cardNumFive": null, "isSupportYj": null, "cityName": null, "districtName": null, "shopinfo": {"mid": "888888854410004", "good_flag": null, "new_flag": null, "short_name": "\u53ef\u9882\u574a", "short_name_pinyin": "kesongfang", "status": null, "address": null, "name": null, "id": "32264"}, "mid": "888888854410004", "shopId": "32264", "netid": null, "province": 901, "district": 601, "zipcode": "200025", "telephone": "64313163", "posDate": "20061117", "destineTel": "64313163", "togoTel": "64313163", "trafficWay": "43\u533a\u95f4 218", "signBuilding": null, "businessArea": "20~50\u5e73\u7c73", "selfRoom": "\u65e0", "businessTime": null, "stall": "\u65e0", "consume": null, "serviceFei": null, "favourable": null, "shopMemo": null, "appraise": null, "website": null, "memo": null, "payTypes": "\u6749\u5fb7\u5361", "shopTypes": "\u9762\u5305\u897f\u997c", "consumeTypes": null, "cookTypes": null, "orderNum": 1000, "card4no": null, "card4noAcc": null, "district2": 401, "searchScope": null, "status": 1, "address": "\u745e\u91d1\u4e8c\u8def202\u53f7", "name": "\u53ef\u9882\u574a \u745e\u91d1\u5e97", "id": 137343, "pageNo": 0, "pageCount": null, "pageSize": 10, "ids": null, "endTime": null, "startTime": null}], "pageLimit": 4840, "size": 10}