{"pageCount": 1095, "count": 10942, "pageNo": 495, "subShopInfo": {"cardNumFive": "", "isSupportYj": "", "cityName": null, "districtName": null, "shopinfo": {"mid": null, "good_flag": null, "new_flag": null, "short_name": null, "short_name_pinyin": null, "status": null, "address": "", "name": "", "id": null}, "mid": null, "shopId": null, "netid": null, "province": 901, "district": null, "zipcode": null, "telephone": null, "posDate": null, "destineTel": null, "togoTel": null, "trafficWay": null, "signBuilding": null, "businessArea": null, "selfRoom": null, "businessTime": null, "stall": null, "consume": null, "serviceFei": null, "favourable": null, "shopMemo": "1", "appraise": null, "website": null, "memo": null, "payTypes": "", "shopTypes": "", "consumeTypes": null, "cookTypes": null, "orderNum": null, "card4no": null, "card4noAcc": null, "district2": null, "searchScope": null, "status": null, "address": "", "name": null, "id": null, "pageNo": 494, "pageCount": null, "pageSize": 10, "ids": null, "endTime": null, "startTime": null}, "list": [{"cardNumFive": null, "isSupportYj": null, "cityName": null, "districtName": null, "shopinfo": {"mid": "888888854410138", "good_flag": null, "new_flag": null, "short_name": "\u6765\u4f0a\u4efd", "short_name_pinyin": "laiyifen", "status": null, "address": null, "name": null, "id": "32321"}, "mid": "888888854410138", "shopId": "32321", "netid": null, "province": 901, "district": 601, "zipcode": null, "telephone": "18821145336", "posDate": "20090327", "destineTel": null, "togoTel": null, "trafficWay": null, "signBuilding": null, "businessArea": null, "selfRoom": null, "businessTime": null, "stall": null, "consume": null, "serviceFei": null, "favourable": null, "shopMemo": null, "appraise": null, "website": null, "memo": null, "payTypes": "\u6749\u5fb7\u5361", "shopTypes": "\u96f6\u552e", "consumeTypes": null, "cookTypes": null, "orderNum": 1000, "card4no": null, "card4noAcc": null, "district2": 405, "searchScope": null, "status": 1, "address": "\u66f9\u6768\u8def930\u53f720\u680b106\u5ba4", "name": "\u6765\u4f0a\u4efd \u66f9\u6768\u4e09\u5e97", "id": 138186, "pageNo": 0, "pageCount": null, "pageSize": 10, "ids": null, "endTime": null, "startTime": null}, {"cardNumFive": null, "isSupportYj": null, "cityName": null, "districtName": null, "shopinfo": {"mid": "888888854410138", "good_flag": null, "new_flag": null, "short_name": "\u6765\u4f0a\u4efd", "short_name_pinyin": "laiyifen", "status": null, "address": null, "name": null, "id": "32321"}, "mid": "888888854410138", "shopId": "32321", "netid": null, "province": 901, "district": 601, "zipcode": null, "telephone": "64190753", "posDate": "20090407", "destineTel": null, "togoTel": null, "trafficWay": null, "signBuilding": null, "businessArea": null, "selfRoom": null, "businessTime": null, "stall": null, "consume": null, "serviceFei": null, "favourable": null, "shopMemo": null, "appraise": null, "website": null, "memo": null, "payTypes": "\u6749\u5fb7\u5361", "shopTypes": "\u96f6\u552e", "consumeTypes": null, "cookTypes": null, "orderNum": 1000, "card4no": null, "card4noAcc": null, "district2": 409, "searchScope": null, "status": 1, "address": "\u6f15\u5b9d\u8def1751\u53f7", "name": "\u6765\u4f0a\u4efd \u6f15\u5b9d\u8def\u5e97", "id": 138187, "pageNo": 0, "pageCount": null, "pageSize": 10, "ids": null, "endTime": null, "startTime": null}, {"cardNumFive": null, "isSupportYj": null, "cityName": null, "districtName": null, "shopinfo": {"mid": "888888854410138", "good_flag": null, "new_flag": null, "short_name": "\u6765\u4f0a\u4efd", "short_name_pinyin": "laiyifen", "status": null, "address": null, "name": null, "id": "32321"}, "mid": "888888854410138", "shopId": "32321", "netid": null, "province": 901, "district": 601, "zipcode": null, "telephone": null, "posDate": "20100708", "destineTel": null, "togoTel": null, "trafficWay": null, "signBuilding": null, "businessArea": null, "selfRoom": null, "businessTime": null, "stall": null, "consume": null, "serviceFei": null, "favourable": null, "shopMemo": null, "appraise": null, "website": null, "memo": null, "payTypes": "\u6749\u5fb7\u5361", "shopTypes": "\u96f6\u552e", "consumeTypes": null, "cookTypes": null, "orderNum": 1000, "card4no": null, "card4noAcc": null, "district2": 414, "searchScope": null, "status": 1, "address": "\u5eca\u4e0b\u9547\u6f15\u5eca\u516c\u8def7913\u53f7,\u8fd1\u666f\u4e50\u8def", "name": "\u6765\u4f0a\u4efd \u6f15\u5eca\u516c\u8def\u5e97", "id": 138189, "pageNo": 0, "pageCount": null, "pageSize": 10, "ids": null, "endTime": null, "startTime": null}, {"cardNumFive": null, "isSupportYj": null, "cityName": null, "districtName": null, "shopinfo": {"mid": "888888854410138", "good_flag": null, "new_flag": null, "short_name": "\u6765\u4f0a\u4efd", "short_name_pinyin": "laiyifen", "status": null, "address": null, "name": null, "id": "32321"}, "mid": "888888854410138", "shopId": "32321", "netid": null, "province": 901, "district": 601, "zipcode": null, "telephone": "64684247", "posDate": "20090328", "destineTel": null, "togoTel": null, "trafficWay": null, "signBuilding": null, "businessArea": null, "selfRoom": null, "businessTime": null, "stall": null, "consume": null, "serviceFei": null, "favourable": null, "shopMemo": null, "appraise": null, "website": null, "memo": null, "payTypes": "\u6749\u5fb7\u5361", "shopTypes": "\u96f6\u552e", "consumeTypes": null, "cookTypes": null, "orderNum": 1000, "card4no": null, "card4noAcc": null, "district2": 403, "searchScope": null, "status": 1, "address": "\u6f15\u6eaa\u8def169\u53f7102\u5ba4B\u5355\u5143/\u7530\u4e1c\u8def424\u53f7", "name": "\u6765\u4f0a\u4efd \u6f15\u6eaa\u8def\u5e97", "id": 138190, "pageNo": 0, "pageCount": null, "pageSize": 10, "ids": null, "endTime": null, "startTime": null}, {"cardNumFive": null, "isSupportYj": null, "cityName": null, "districtName": null, "shopinfo": {"mid": "888888854410138", "good_flag": null, "new_flag": null, "short_name": "\u6765\u4f0a\u4efd", "short_name_pinyin": "laiyifen", "status": null, "address": null, "name": null, "id": "32321"}, "mid": "888888854410138", "shopId": "32321", "netid": null, "province": 901, "district": 601, "zipcode": null, "telephone": "50861439", "posDate": "20090401", "destineTel": null, "togoTel": null, "trafficWay": null, "signBuilding": null, "businessArea": null, "selfRoom": null, "businessTime": null, "stall": null, "consume": null, "serviceFei": null, "favourable": null, "shopMemo": null, "appraise": null, "website": null, "memo": null, "payTypes": "\u6749\u5fb7\u5361", "shopTypes": "\u96f6\u552e", "consumeTypes": null, "cookTypes": null, "orderNum": 1000, "card4no": null, "card4noAcc": null, "district2": 418, "searchScope": null, "status": 1, "address": "\u660c\u91cc\u4e1c\u8def607\u3001609-1\u53f7", "name": "\u6765\u4f0a\u4efd \u660c\u91cc\u4e8c\u5e97", "id": 138191, "pageNo": 0, "pageCount": null, "pageSize": 10, "ids": null, "endTime": null, "startTime": null}, {"cardNumFive": null, "isSupportYj": null, "cityName": null, "districtName": null, "shopinfo": {"mid": "888888854410138", "good_flag": null, "new_flag": null, "short_name": "\u6765\u4f0a\u4efd", "short_name_pinyin": "laiyifen", "status": null, "address": null, "name": null, "id": "32321"}, "mid": "888888854410138", "shopId": "32321", "netid": null, "province": 901, "district": 601, "zipcode": null, "telephone": null, "posDate": null, "destineTel": null, "togoTel": null, "trafficWay": null, "signBuilding": null, "businessArea": null, "selfRoom": null, "businessTime": null, "stall": null, "consume": null, "serviceFei": null, "favourable": null, "shopMemo": null, "appraise": null, "website": null, "memo": null, "payTypes": "\u6749\u5fb7\u5361", "shopTypes": "\u96f6\u552e", "consumeTypes": null, "cookTypes": null, "orderNum": 1000, "card4no": null, "card4noAcc": null, "district2": 418, "searchScope": null, "status": 1, "address": "\u6d66\u4e1c\u65b0\u533a\u660c\u91cc\u8def260\u53f7,\u8fd1\u5386\u57ce\u8def", "name": "\u6765\u4f0a\u4efd \u660c\u91cc\u8def\u4e09\u5e97", "id": 138192, "pageNo": 0, "pageCount": null, "pageSize": 10, "ids": null, "endTime": null, "startTime": null}, {"cardNumFive": null, "isSupportYj": null, "cityName": null, "districtName": null, "shopinfo": {"mid": "888888854410138", "good_flag": null, "new_flag": null, "short_name": "\u6765\u4f0a\u4efd", "short_name_pinyin": "laiyifen", "status": null, "address": null, "name": null, "id": "32321"}, "mid": "888888854410138", "shopId": "32321", "netid": null, "province": 901, "district": 601, "zipcode": null, "telephone": "67691888/68513724", "posDate": "20090401", "destineTel": null, "togoTel": null, "trafficWay": null, "signBuilding": null, "businessArea": null, "selfRoom": null, "businessTime": null, "stall": null, "consume": null, "serviceFei": null, "favourable": null, "shopMemo": null, "appraise": null, "website": null, "memo": null, "payTypes": "\u6749\u5fb7\u5361", "shopTypes": "\u96f6\u552e", "consumeTypes": null, "cookTypes": null, "orderNum": 1000, "card4no": null, "card4noAcc": null, "district2": 418, "searchScope": null, "status": 1, "address": "\u957f\u5c9b\u8def1209\uff0d1211\u53f7", "name": "\u6765\u4f0a\u4efd \u957f\u5c9b\u8def\u5e97", "id": 138193, "pageNo": 0, "pageCount": null, "pageSize": 10, "ids": null, "endTime": null, "startTime": null}, {"cardNumFive": null, "isSupportYj": null, "cityName": null, "districtName": null, "shopinfo": {"mid": "888888854410138", "good_flag": null, "new_flag": null, "short_name": "\u6765\u4f0a\u4efd", "short_name_pinyin": "laiyifen", "status": null, "address": null, "name": null, "id": "32321"}, "mid": "888888854410138", "shopId": "32321", "netid": null, "province": 901, "district": 601, "zipcode": null, "telephone": "18821149229", "posDate": "20090407", "destineTel": null, "togoTel": null, "trafficWay": null, "signBuilding": null, "businessArea": null, "selfRoom": null, "businessTime": null, "stall": null, "consume": null, "serviceFei": null, "favourable": null, "shopMemo": null, "appraise": null, "website": null, "memo": null, "payTypes": "\u6749\u5fb7\u5361", "shopTypes": "\u96f6\u552e", "consumeTypes": null, "cookTypes": null, "orderNum": 1000, "card4no": null, "card4noAcc": null, "district2": 416, "searchScope": null, "status": 1, "address": "\u957f\u6c5f\u897f\u8def2000\u53f7", "name": "\u6765\u4f0a\u4efd \u957f\u6c5f\u897f\u8def\u4e8c\u5e97", "id": 138195, "pageNo": 0, "pageCount": null, "pageSize": 10, "ids": null, "endTime": null, "startTime": null}, {"cardNumFive": null, "isSupportYj": null, "cityName": null, "districtName": null, "shopinfo": {"mid": "888888854410138", "good_flag": null, "new_flag": null, "short_name": "\u6765\u4f0a\u4efd", "short_name_pinyin": "laiyifen", "status": null, "address": null, "name": null, "id": "32321"}, "mid": "888888854410138", "shopId": "32321", "netid": null, "province": 901, "district": 601, "zipcode": null, "telephone": "56739045", "posDate": "20090407", "destineTel": null, "togoTel": null, "trafficWay": null, "signBuilding": null, "businessArea": null, "selfRoom": null, "businessTime": null, "stall": null, "consume": null, "serviceFei": null, "favourable": null, "shopMemo": null, "appraise": null, "website": null, "memo": null, "payTypes": "\u6749\u5fb7\u5361", "shopTypes": "\u96f6\u552e", "consumeTypes": null, "cookTypes": null, "orderNum": 1000, "card4no": null, "card4noAcc": null, "district2": 416, "searchScope": null, "status": 1, "address": "\u957f\u6c5f\u897f\u8def1271\u53f7", "name": "\u6765\u4f0a\u4efd \u957f\u6c5f\u897f\u8def\u4e09\u5e97", "id": 138196, "pageNo": 0, "pageCount": null, "pageSize": 10, "ids": null, "endTime": null, "startTime": null}, {"cardNumFive": null, "isSupportYj": null, "cityName": null, "districtName": null, "shopinfo": {"mid": "888888854410138", "good_flag": null, "new_flag": null, "short_name": "\u6765\u4f0a\u4efd", "short_name_pinyin": "laiyifen", "status": null, "address": null, "name": null, "id": "32321"}, "mid": "888888854410138", "shopId": "32321", "netid": null, "province": 901, "district": 601, "zipcode": null, "telephone": "56756664", "posDate": "20090407", "destineTel": null, "togoTel": null, "trafficWay": null, "signBuilding": null, "businessArea": null, "selfRoom": null, "businessTime": null, "stall": null, "consume": null, "serviceFei": null, "favourable": null, "shopMemo": null, "appraise": null, "website": null, "memo": null, "payTypes": "\u6749\u5fb7\u5361", "shopTypes": "\u96f6\u552e", "consumeTypes": null, "cookTypes": null, "orderNum": 1000, "card4no": null, "card4noAcc": null, "district2": 416, "searchScope": null, "status": 1, "address": "\u957f\u6c5f\u897f\u8def1401\u53f7\u7532", "name": "\u6765\u4f0a\u4efd \u957f\u6c5f\u897f\u8def\u4e00\u5e97", "id": 138197, "pageNo": 0, "pageCount": null, "pageSize": 10, "ids": null, "endTime": null, "startTime": null}], "pageLimit": 4940, "size": 10}