{"pageCount": 1095, "count": 10942, "pageNo": 503, "subShopInfo": {"cardNumFive": "", "isSupportYj": "", "cityName": null, "districtName": null, "shopinfo": {"mid": null, "good_flag": null, "new_flag": null, "short_name": null, "short_name_pinyin": null, "status": null, "address": "", "name": "", "id": null}, "mid": null, "shopId": null, "netid": null, "province": 901, "district": null, "zipcode": null, "telephone": null, "posDate": null, "destineTel": null, "togoTel": null, "trafficWay": null, "signBuilding": null, "businessArea": null, "selfRoom": null, "businessTime": null, "stall": null, "consume": null, "serviceFei": null, "favourable": null, "shopMemo": "1", "appraise": null, "website": null, "memo": null, "payTypes": "", "shopTypes": "", "consumeTypes": null, "cookTypes": null, "orderNum": null, "card4no": null, "card4noAcc": null, "district2": null, "searchScope": null, "status": null, "address": "", "name": null, "id": null, "pageNo": 502, "pageCount": null, "pageSize": 10, "ids": null, "endTime": null, "startTime": null}, "list": [{"cardNumFive": null, "isSupportYj": null, "cityName": null, "districtName": null, "shopinfo": {"mid": "888888854410138", "good_flag": null, "new_flag": null, "short_name": "\u6765\u4f0a\u4efd", "short_name_pinyin": "laiyifen", "status": null, "address": null, "name": null, "id": "32321"}, "mid": "888888854410138", "shopId": "32321", "netid": null, "province": 901, "district": 601, "zipcode": null, "telephone": "52204761", "posDate": "200904", "destineTel": null, "togoTel": null, "trafficWay": null, "signBuilding": null, "businessArea": null, "selfRoom": null, "businessTime": null, "stall": null, "consume": null, "serviceFei": null, "favourable": null, "shopMemo": null, "appraise": null, "website": null, "memo": null, "payTypes": "\u6749\u5fb7\u5361", "shopTypes": "\u96f6\u552e", "consumeTypes": null, "cookTypes": null, "orderNum": 1000, "card4no": null, "card4noAcc": null, "district2": 406, "searchScope": null, "status": 1, "address": "\u7518\u6eaa\u8def356\u53f7", "name": "\u6765\u4f0a\u4efd \u7518\u6eaa\u8def\u5e97", "id": 138282, "pageNo": 0, "pageCount": null, "pageSize": 10, "ids": null, "endTime": null, "startTime": null}, {"cardNumFive": null, "isSupportYj": null, "cityName": null, "districtName": null, "shopinfo": {"mid": "888888854410138", "good_flag": null, "new_flag": null, "short_name": "\u6765\u4f0a\u4efd", "short_name_pinyin": "laiyifen", "status": null, "address": null, "name": null, "id": "32321"}, "mid": "888888854410138", "shopId": "32321", "netid": null, "province": 901, "district": 601, "zipcode": null, "telephone": null, "posDate": "20100611", "destineTel": null, "togoTel": null, "trafficWay": null, "signBuilding": null, "businessArea": null, "selfRoom": null, "businessTime": null, "stall": null, "consume": null, "serviceFei": null, "favourable": null, "shopMemo": null, "appraise": null, "website": null, "memo": null, "payTypes": "\u6749\u5fb7\u5361", "shopTypes": "\u96f6\u552e", "consumeTypes": null, "cookTypes": null, "orderNum": 1000, "card4no": null, "card4noAcc": null, "district2": 418, "searchScope": null, "status": 1, "address": "\u6d66\u4e1c\u65b0\u533a\u8f68\u9053\u516d\u53f7\u7ebf\u9ad8\u79d1\u897f\u8def\u7ad9-6-102\u5ba4", "name": "\u6765\u4f0a\u4efd \u9ad8\u79d1\u897f\u8def\u5e97", "id": 138283, "pageNo": 0, "pageCount": null, "pageSize": 10, "ids": null, "endTime": null, "startTime": null}, {"cardNumFive": null, "isSupportYj": null, "cityName": null, "districtName": null, "shopinfo": {"mid": "888888854410138", "good_flag": null, "new_flag": null, "short_name": "\u6765\u4f0a\u4efd", "short_name_pinyin": "laiyifen", "status": null, "address": null, "name": null, "id": "32321"}, "mid": "888888854410138", "shopId": "32321", "netid": null, "province": 901, "district": 601, "zipcode": null, "telephone": "50680396", "posDate": "20090331", "destineTel": null, "togoTel": null, "trafficWay": null, "signBuilding": null, "businessArea": null, "selfRoom": null, "businessTime": null, "stall": null, "consume": null, "serviceFei": null, "favourable": null, "shopMemo": null, "appraise": null, "website": null, "memo": null, "payTypes": "\u6749\u5fb7\u5361", "shopTypes": "\u96f6\u552e", "consumeTypes": null, "cookTypes": null, "orderNum": 1000, "card4no": null, "card4noAcc": null, "district2": 418, "searchScope": null, "status": 1, "address": "\u9f9a\u8def\u9547\u9f9a\u534e\u8def390\u53f7,\u8fd1\u9f9a\u4e30\u8def", "name": "\u6765\u4f0a\u4efd \u9f9a\u8def\u5e97", "id": 138284, "pageNo": 0, "pageCount": null, "pageSize": 10, "ids": null, "endTime": null, "startTime": null}, {"cardNumFive": null, "isSupportYj": null, "cityName": null, "districtName": null, "shopinfo": {"mid": "888888854410138", "good_flag": null, "new_flag": null, "short_name": "\u6765\u4f0a\u4efd", "short_name_pinyin": "laiyifen", "status": null, "address": null, "name": null, "id": "32321"}, "mid": "888888854410138", "shopId": "32321", "netid": null, "province": 901, "district": 601, "zipcode": null, "telephone": "33704204", "posDate": "20090402", "destineTel": null, "togoTel": null, "trafficWay": null, "signBuilding": null, "businessArea": null, "selfRoom": null, "businessTime": null, "stall": null, "consume": null, "serviceFei": null, "favourable": null, "shopMemo": null, "appraise": null, "website": null, "memo": null, "payTypes": "\u6749\u5fb7\u5361", "shopTypes": "\u96f6\u552e", "consumeTypes": null, "cookTypes": null, "orderNum": 1000, "card4no": null, "card4noAcc": null, "district2": 416, "searchScope": null, "status": 1, "address": "\u5171\u5bcc\u8def228\u5f04240-242\u53f7,\u8fd1\u8574\u5ddd\u8def", "name": "\u6765\u4f0a\u4efd \u5171\u5bcc\u5e97", "id": 138285, "pageNo": 0, "pageCount": null, "pageSize": 10, "ids": null, "endTime": null, "startTime": null}, {"cardNumFive": null, "isSupportYj": null, "cityName": null, "districtName": null, "shopinfo": {"mid": "888888854410138", "good_flag": null, "new_flag": null, "short_name": "\u6765\u4f0a\u4efd", "short_name_pinyin": "laiyifen", "status": null, "address": null, "name": null, "id": "32321"}, "mid": "888888854410138", "shopId": "32321", "netid": null, "province": 901, "district": 601, "zipcode": null, "telephone": "56622084", "posDate": "20090323", "destineTel": null, "togoTel": null, "trafficWay": null, "signBuilding": null, "businessArea": null, "selfRoom": null, "businessTime": null, "stall": null, "consume": null, "serviceFei": null, "favourable": null, "shopMemo": null, "appraise": null, "website": null, "memo": null, "payTypes": "\u6749\u5fb7\u5361", "shopTypes": "\u96f6\u552e", "consumeTypes": null, "cookTypes": null, "orderNum": 1000, "card4no": null, "card4noAcc": null, "district2": 410, "searchScope": null, "status": 1, "address": "\u5171\u548c\u65b0\u8def627\u53f7", "name": "\u6765\u4f0a\u4efd \u5171\u548c\u65b0\u8def\u5e97", "id": 138286, "pageNo": 0, "pageCount": null, "pageSize": 10, "ids": null, "endTime": null, "startTime": null}, {"cardNumFive": null, "isSupportYj": null, "cityName": null, "districtName": null, "shopinfo": {"mid": "888888854410138", "good_flag": null, "new_flag": null, "short_name": "\u6765\u4f0a\u4efd", "short_name_pinyin": "laiyifen", "status": null, "address": null, "name": null, "id": "32321"}, "mid": "888888854410138", "shopId": "32321", "netid": null, "province": 901, "district": 601, "zipcode": null, "telephone": "56732513", "posDate": "20090407", "destineTel": null, "togoTel": null, "trafficWay": null, "signBuilding": null, "businessArea": null, "selfRoom": null, "businessTime": null, "stall": null, "consume": null, "serviceFei": null, "favourable": null, "shopMemo": null, "appraise": null, "website": null, "memo": null, "payTypes": "\u6749\u5fb7\u5361", "shopTypes": "\u96f6\u552e", "consumeTypes": null, "cookTypes": null, "orderNum": 1000, "card4no": null, "card4noAcc": null, "district2": 416, "searchScope": null, "status": 1, "address": "\u5171\u6c5f\u8def925\u53f7", "name": "\u6765\u4f0a\u4efd \u5171\u6c5f\u8def\u4e8c\u5e97", "id": 138287, "pageNo": 0, "pageCount": null, "pageSize": 10, "ids": null, "endTime": null, "startTime": null}, {"cardNumFive": null, "isSupportYj": null, "cityName": null, "districtName": null, "shopinfo": {"mid": "888888854410138", "good_flag": null, "new_flag": null, "short_name": "\u6765\u4f0a\u4efd", "short_name_pinyin": "laiyifen", "status": null, "address": null, "name": null, "id": "32321"}, "mid": "888888854410138", "shopId": "32321", "netid": null, "province": 901, "district": 601, "zipcode": null, "telephone": "18821159038", "posDate": "20090402", "destineTel": null, "togoTel": null, "trafficWay": null, "signBuilding": null, "businessArea": null, "selfRoom": null, "businessTime": null, "stall": null, "consume": null, "serviceFei": null, "favourable": null, "shopMemo": null, "appraise": null, "website": null, "memo": null, "payTypes": "\u6749\u5fb7\u5361", "shopTypes": "\u96f6\u552e", "consumeTypes": null, "cookTypes": null, "orderNum": 1000, "card4no": null, "card4noAcc": null, "district2": 416, "searchScope": null, "status": 1, "address": "\u5171\u5eb7\u8def122\u53f7\uff0c\u8fd1\u5171\u548c\u65b0\u8def", "name": "\u6765\u4f0a\u4efd \u5171\u5eb7\u4e8c\u5e97", "id": 138288, "pageNo": 0, "pageCount": null, "pageSize": 10, "ids": null, "endTime": null, "startTime": null}, {"cardNumFive": null, "isSupportYj": null, "cityName": null, "districtName": null, "shopinfo": {"mid": "888888854410138", "good_flag": null, "new_flag": null, "short_name": "\u6765\u4f0a\u4efd", "short_name_pinyin": "laiyifen", "status": null, "address": null, "name": null, "id": "32321"}, "mid": "888888854410138", "shopId": "32321", "netid": null, "province": 901, "district": 601, "zipcode": null, "telephone": "18821143659", "posDate": "20090402", "destineTel": null, "togoTel": null, "trafficWay": null, "signBuilding": null, "businessArea": null, "selfRoom": null, "businessTime": null, "stall": null, "consume": null, "serviceFei": null, "favourable": null, "shopMemo": null, "appraise": null, "website": null, "memo": null, "payTypes": "\u6749\u5fb7\u5361", "shopTypes": "\u96f6\u552e", "consumeTypes": null, "cookTypes": null, "orderNum": 1000, "card4no": null, "card4noAcc": null, "district2": 416, "searchScope": null, "status": 1, "address": "\u5171\u5eb7\u8def375\u53f7", "name": "\u6765\u4f0a\u4efd \u5171\u5eb7\u8def\u5e97", "id": 138289, "pageNo": 0, "pageCount": null, "pageSize": 10, "ids": null, "endTime": null, "startTime": null}, {"cardNumFive": null, "isSupportYj": null, "cityName": null, "districtName": null, "shopinfo": {"mid": "888888854410138", "good_flag": null, "new_flag": null, "short_name": "\u6765\u4f0a\u4efd", "short_name_pinyin": "laiyifen", "status": null, "address": null, "name": null, "id": "32321"}, "mid": "888888854410138", "shopId": "32321", "netid": null, "province": 901, "district": 601, "zipcode": null, "telephone": "18821159010", "posDate": "200904", "destineTel": null, "togoTel": null, "trafficWay": null, "signBuilding": null, "businessArea": null, "selfRoom": null, "businessTime": null, "stall": null, "consume": null, "serviceFei": null, "favourable": null, "shopMemo": null, "appraise": null, "website": null, "memo": null, "payTypes": "\u6749\u5fb7\u5361", "shopTypes": "\u96f6\u552e", "consumeTypes": null, "cookTypes": null, "orderNum": 1000, "card4no": null, "card4noAcc": null, "district2": 409, "searchScope": null, "status": 1, "address": "\u53e4\u7f8e\u897f\u8def80\u53f7-1-2,\u8fd1\u53e4\u65b9\u8def", "name": "\u6765\u4f0a\u4efd \u53e4\u7f8e\u897f\u8def\u4e8c\u5e97", "id": 138291, "pageNo": 0, "pageCount": null, "pageSize": 10, "ids": null, "endTime": null, "startTime": null}, {"cardNumFive": null, "isSupportYj": null, "cityName": null, "districtName": null, "shopinfo": {"mid": "888888854410138", "good_flag": null, "new_flag": null, "short_name": "\u6765\u4f0a\u4efd", "short_name_pinyin": "laiyifen", "status": null, "address": null, "name": null, "id": "32321"}, "mid": "888888854410138", "shopId": "32321", "netid": null, "province": 901, "district": 601, "zipcode": null, "telephone": "62086246", "posDate": "200904", "destineTel": null, "togoTel": null, "trafficWay": null, "signBuilding": null, "businessArea": null, "selfRoom": null, "businessTime": null, "stall": null, "consume": null, "serviceFei": null, "favourable": null, "shopMemo": null, "appraise": null, "website": null, "memo": null, "payTypes": "\u6749\u5fb7\u5361", "shopTypes": "\u96f6\u552e", "consumeTypes": null, "cookTypes": null, "orderNum": 1000, "card4no": null, "card4noAcc": null, "district2": 406, "searchScope": null, "status": 1, "address": "\u53e4\u7f8a\u8def300\u53f7", "name": "\u6765\u4f0a\u4efd \u53e4\u7f8a\u8def\u5e97", "id": 138292, "pageNo": 0, "pageCount": null, "pageSize": 10, "ids": null, "endTime": null, "startTime": null}], "pageLimit": 5020, "size": 10}