{"pageCount": 1095, "count": 10942, "pageNo": 514, "subShopInfo": {"cardNumFive": "", "isSupportYj": "", "cityName": null, "districtName": null, "shopinfo": {"mid": null, "good_flag": null, "new_flag": null, "short_name": null, "short_name_pinyin": null, "status": null, "address": "", "name": "", "id": null}, "mid": null, "shopId": null, "netid": null, "province": 901, "district": null, "zipcode": null, "telephone": null, "posDate": null, "destineTel": null, "togoTel": null, "trafficWay": null, "signBuilding": null, "businessArea": null, "selfRoom": null, "businessTime": null, "stall": null, "consume": null, "serviceFei": null, "favourable": null, "shopMemo": "1", "appraise": null, "website": null, "memo": null, "payTypes": "", "shopTypes": "", "consumeTypes": null, "cookTypes": null, "orderNum": null, "card4no": null, "card4noAcc": null, "district2": null, "searchScope": null, "status": null, "address": "", "name": null, "id": null, "pageNo": 513, "pageCount": null, "pageSize": 10, "ids": null, "endTime": null, "startTime": null}, "list": [{"cardNumFive": null, "isSupportYj": null, "cityName": null, "districtName": null, "shopinfo": {"mid": "888888854410138", "good_flag": null, "new_flag": null, "short_name": "\u6765\u4f0a\u4efd", "short_name_pinyin": "laiyifen", "status": null, "address": null, "name": null, "id": "32321"}, "mid": "888888854410138", "shopId": "32321", "netid": null, "province": 901, "district": 601, "zipcode": null, "telephone": "18916709641/27638009", "posDate": "20090408", "destineTel": null, "togoTel": null, "trafficWay": null, "signBuilding": null, "businessArea": null, "selfRoom": null, "businessTime": null, "stall": null, "consume": null, "serviceFei": null, "favourable": null, "shopMemo": null, "appraise": null, "website": null, "memo": null, "payTypes": "\u6749\u5fb7\u5361", "shopTypes": "\u96f6\u552e", "consumeTypes": null, "cookTypes": null, "orderNum": 1000, "card4no": null, "card4noAcc": null, "district2": 409, "searchScope": null, "status": 1, "address": "\u4e03\u8398\u8def3655\u53f7\u5609\u8302\u8d2d\u7269\u5e7f\u573a\u4e00\u697c\u8fd1\u5434\u4e2d\u8def", "name": "\u6765\u4f0a\u4efd \u5609\u8302\u8d2d\u7269\u5e7f\u573a\u5e97", "id": 138417, "pageNo": 0, "pageCount": null, "pageSize": 10, "ids": null, "endTime": null, "startTime": null}, {"cardNumFive": null, "isSupportYj": null, "cityName": null, "districtName": null, "shopinfo": {"mid": "888888854410138", "good_flag": null, "new_flag": null, "short_name": "\u6765\u4f0a\u4efd", "short_name_pinyin": "laiyifen", "status": null, "address": null, "name": null, "id": "32321"}, "mid": "888888854410138", "shopId": "32321", "netid": null, "province": 901, "district": 601, "zipcode": null, "telephone": "59959414", "posDate": "20090316", "destineTel": null, "togoTel": null, "trafficWay": null, "signBuilding": null, "businessArea": null, "selfRoom": null, "businessTime": null, "stall": null, "consume": null, "serviceFei": null, "favourable": null, "shopMemo": null, "appraise": null, "website": null, "memo": null, "payTypes": "\u6749\u5fb7\u5361", "shopTypes": "\u96f6\u552e", "consumeTypes": null, "cookTypes": null, "orderNum": 1000, "card4no": null, "card4noAcc": null, "district2": 411, "searchScope": null, "status": 1, "address": "\u5510\u884c\u9547\u5609\u5510\u516c\u8def2557\u53f7,\u8fd1\u5609\u884c\u516c\u8def", "name": "\u6765\u4f0a\u4efd \u5609\u5510\u516c\u8def\u5e97", "id": 138418, "pageNo": 0, "pageCount": null, "pageSize": 10, "ids": null, "endTime": null, "startTime": null}, {"cardNumFive": null, "isSupportYj": null, "cityName": null, "districtName": null, "shopinfo": {"mid": "888888854410138", "good_flag": null, "new_flag": null, "short_name": "\u6765\u4f0a\u4efd", "short_name_pinyin": "laiyifen", "status": null, "address": null, "name": null, "id": "32321"}, "mid": "888888854410138", "shopId": "32321", "netid": null, "province": 901, "district": 601, "zipcode": null, "telephone": "67691888\uff1b53064951", "posDate": "20090317", "destineTel": null, "togoTel": null, "trafficWay": null, "signBuilding": null, "businessArea": null, "selfRoom": null, "businessTime": null, "stall": null, "consume": null, "serviceFei": null, "favourable": null, "shopMemo": null, "appraise": null, "website": null, "memo": null, "payTypes": "\u6749\u5fb7\u5361", "shopTypes": "\u96f6\u552e", "consumeTypes": null, "cookTypes": null, "orderNum": 1000, "card4no": null, "card4noAcc": null, "district2": 401, "searchScope": null, "status": 1, "address": "\u5efa\u56fd\u4e1c\u8def324\u53f7\u8fd1\u9ec4\u9642\u5357\u8def", "name": "\u6765\u4f0a\u4efd \u5efa\u56fd\u4e1c\u8def\u4e8c\u5e97", "id": 138419, "pageNo": 0, "pageCount": null, "pageSize": 10, "ids": null, "endTime": null, "startTime": null}, {"cardNumFive": null, "isSupportYj": null, "cityName": null, "districtName": null, "shopinfo": {"mid": "888888854410138", "good_flag": null, "new_flag": null, "short_name": "\u6765\u4f0a\u4efd", "short_name_pinyin": "laiyifen", "status": null, "address": null, "name": null, "id": "32321"}, "mid": "888888854410138", "shopId": "32321", "netid": null, "province": 901, "district": 601, "zipcode": null, "telephone": null, "posDate": "20100701", "destineTel": null, "togoTel": null, "trafficWay": null, "signBuilding": null, "businessArea": null, "selfRoom": null, "businessTime": null, "stall": null, "consume": null, "serviceFei": null, "favourable": null, "shopMemo": null, "appraise": null, "website": null, "memo": null, "payTypes": "\u6749\u5fb7\u5361", "shopTypes": "\u96f6\u552e", "consumeTypes": null, "cookTypes": null, "orderNum": 1000, "card4no": null, "card4noAcc": null, "district2": 409, "searchScope": null, "status": 1, "address": "\u5434\u6cfe\u9547\u5251\u5ddd\u8def165-9\u53f7,\u8fd1\u9f99\u5434\u8def", "name": "\u6765\u4f0a\u4efd \u5251\u5ddd\u8def\u5e97", "id": 138420, "pageNo": 0, "pageCount": null, "pageSize": 10, "ids": null, "endTime": null, "startTime": null}, {"cardNumFive": null, "isSupportYj": null, "cityName": null, "districtName": null, "shopinfo": {"mid": "888888854410138", "good_flag": null, "new_flag": null, "short_name": "\u6765\u4f0a\u4efd", "short_name_pinyin": "laiyifen", "status": null, "address": null, "name": null, "id": "32321"}, "mid": "888888854410138", "shopId": "32321", "netid": null, "province": 901, "district": 601, "zipcode": null, "telephone": "62389109", "posDate": "200904", "destineTel": null, "togoTel": null, "trafficWay": null, "signBuilding": null, "businessArea": null, "selfRoom": null, "businessTime": null, "stall": null, "consume": null, "serviceFei": null, "favourable": null, "shopMemo": null, "appraise": null, "website": null, "memo": null, "payTypes": "\u6749\u5fb7\u5361", "shopTypes": "\u96f6\u552e", "consumeTypes": null, "cookTypes": null, "orderNum": 1000, "card4no": null, "card4noAcc": null, "district2": 406, "searchScope": null, "status": 1, "address": "\u5251\u6cb3\u8def453\u53f7,\u8fd1\u6cc9\u53e3\u8def", "name": "\u6765\u4f0a\u4efd \u5251\u6cb3\u8def\u5e97", "id": 138421, "pageNo": 0, "pageCount": null, "pageSize": 10, "ids": null, "endTime": null, "startTime": null}, {"cardNumFive": null, "isSupportYj": null, "cityName": null, "districtName": null, "shopinfo": {"mid": "888888854410138", "good_flag": null, "new_flag": null, "short_name": "\u6765\u4f0a\u4efd", "short_name_pinyin": "laiyifen", "status": null, "address": null, "name": null, "id": "32321"}, "mid": "888888854410138", "shopId": "32321", "netid": null, "province": 901, "district": 601, "zipcode": null, "telephone": null, "posDate": "20100118", "destineTel": null, "togoTel": null, "trafficWay": null, "signBuilding": null, "businessArea": null, "selfRoom": null, "businessTime": null, "stall": null, "consume": null, "serviceFei": null, "favourable": null, "shopMemo": null, "appraise": null, "website": null, "memo": null, "payTypes": "\u6749\u5fb7\u5361", "shopTypes": "\u96f6\u552e", "consumeTypes": null, "cookTypes": null, "orderNum": 1000, "card4no": null, "card4noAcc": null, "district2": 409, "searchScope": null, "status": 1, "address": "\u95f5\u884c\u533a\u6c5f\u5ddd\u4e1c\u8def950\u53f7,\u8fd1\u6caa\u95f5\u8def", "name": "\u6765\u4f0a\u4efd \u6c5f\u5ddd\u4e1c\u8def\u5e97", "id": 138422, "pageNo": 0, "pageCount": null, "pageSize": 10, "ids": null, "endTime": null, "startTime": null}, {"cardNumFive": null, "isSupportYj": null, "cityName": null, "districtName": null, "shopinfo": {"mid": "888888854410138", "good_flag": null, "new_flag": null, "short_name": "\u6765\u4f0a\u4efd", "short_name_pinyin": "laiyifen", "status": null, "address": null, "name": null, "id": "32321"}, "mid": "888888854410138", "shopId": "32321", "netid": null, "province": 901, "district": 601, "zipcode": null, "telephone": "64356424", "posDate": "20090407", "destineTel": null, "togoTel": null, "trafficWay": null, "signBuilding": null, "businessArea": null, "selfRoom": null, "businessTime": null, "stall": null, "consume": null, "serviceFei": null, "favourable": null, "shopMemo": null, "appraise": null, "website": null, "memo": null, "payTypes": "\u6749\u5fb7\u5361", "shopTypes": "\u96f6\u552e", "consumeTypes": null, "cookTypes": null, "orderNum": 1000, "card4no": null, "card4noAcc": null, "district2": 409, "searchScope": null, "status": 1, "address": "\u95f5\u884c\u6c5f\u5ddd\u8def216\u53f7", "name": "\u6765\u4f0a\u4efd \u6c5f\u5ddd\u8def\u5e97", "id": 138423, "pageNo": 0, "pageCount": null, "pageSize": 10, "ids": null, "endTime": null, "startTime": null}, {"cardNumFive": null, "isSupportYj": null, "cityName": null, "districtName": null, "shopinfo": {"mid": "888888854410138", "good_flag": null, "new_flag": null, "short_name": "\u6765\u4f0a\u4efd", "short_name_pinyin": "laiyifen", "status": null, "address": null, "name": null, "id": "32321"}, "mid": "888888854410138", "shopId": "32321", "netid": null, "province": 901, "district": 601, "zipcode": null, "telephone": "62771734", "posDate": "20090319", "destineTel": null, "togoTel": null, "trafficWay": null, "signBuilding": null, "businessArea": null, "selfRoom": null, "businessTime": null, "stall": null, "consume": null, "serviceFei": null, "favourable": null, "shopMemo": null, "appraise": null, "website": null, "memo": null, "payTypes": "\u6749\u5fb7\u5361", "shopTypes": "\u96f6\u552e", "consumeTypes": null, "cookTypes": null, "orderNum": 1000, "card4no": null, "card4noAcc": null, "district2": 404, "searchScope": null, "status": 1, "address": "\u6c5f\u5b81\u8def931\u53f7", "name": "\u6765\u4f0a\u4efd \u6c5f\u5b81\u8def\u5e97", "id": 138424, "pageNo": 0, "pageCount": null, "pageSize": 10, "ids": null, "endTime": null, "startTime": null}, {"cardNumFive": null, "isSupportYj": null, "cityName": null, "districtName": null, "shopinfo": {"mid": "888888854410138", "good_flag": null, "new_flag": null, "short_name": "\u6765\u4f0a\u4efd", "short_name_pinyin": "laiyifen", "status": null, "address": null, "name": null, "id": "32321"}, "mid": "888888854410138", "shopId": "32321", "netid": null, "province": 901, "district": 601, "zipcode": null, "telephone": "65419677", "posDate": "20090316", "destineTel": null, "togoTel": null, "trafficWay": null, "signBuilding": null, "businessArea": null, "selfRoom": null, "businessTime": null, "stall": null, "consume": null, "serviceFei": null, "favourable": null, "shopMemo": null, "appraise": null, "website": null, "memo": null, "payTypes": "\u6749\u5fb7\u5361", "shopTypes": "\u96f6\u552e", "consumeTypes": null, "cookTypes": null, "orderNum": 1000, "card4no": null, "card4noAcc": null, "district2": 407, "searchScope": null, "status": 1, "address": "\u6c5f\u6d66\u8def1082\u53f7,\u8fd1\u5468\u5bb6\u5634\u8def", "name": "\u6765\u4f0a\u4efd \u6c5f\u6d66\u4e8c\u5e97", "id": 138426, "pageNo": 0, "pageCount": null, "pageSize": 10, "ids": null, "endTime": null, "startTime": null}, {"cardNumFive": null, "isSupportYj": null, "cityName": null, "districtName": null, "shopinfo": {"mid": "888888854410138", "good_flag": null, "new_flag": null, "short_name": "\u6765\u4f0a\u4efd", "short_name_pinyin": "laiyifen", "status": null, "address": null, "name": null, "id": "32321"}, "mid": "888888854410138", "shopId": "32321", "netid": null, "province": 901, "district": 601, "zipcode": null, "telephone": "65624722", "posDate": "20090317", "destineTel": null, "togoTel": null, "trafficWay": null, "signBuilding": null, "businessArea": null, "selfRoom": null, "businessTime": null, "stall": null, "consume": null, "serviceFei": null, "favourable": null, "shopMemo": null, "appraise": null, "website": null, "memo": null, "payTypes": "\u6749\u5fb7\u5361", "shopTypes": "\u96f6\u552e", "consumeTypes": null, "cookTypes": null, "orderNum": 1000, "card4no": null, "card4noAcc": null, "district2": 407, "searchScope": null, "status": 1, "address": "\u6c5f\u6d66\u8def2015\u53f7", "name": "\u6765\u4f0a\u4efd \u6c5f\u6d66\u8def\u5e97", "id": 138427, "pageNo": 0, "pageCount": null, "pageSize": 10, "ids": null, "endTime": null, "startTime": null}], "pageLimit": 5130, "size": 10}