{"pageCount": 1095, "count": 10942, "pageNo": 528, "subShopInfo": {"cardNumFive": "", "isSupportYj": "", "cityName": null, "districtName": null, "shopinfo": {"mid": null, "good_flag": null, "new_flag": null, "short_name": null, "short_name_pinyin": null, "status": null, "address": "", "name": "", "id": null}, "mid": null, "shopId": null, "netid": null, "province": 901, "district": null, "zipcode": null, "telephone": null, "posDate": null, "destineTel": null, "togoTel": null, "trafficWay": null, "signBuilding": null, "businessArea": null, "selfRoom": null, "businessTime": null, "stall": null, "consume": null, "serviceFei": null, "favourable": null, "shopMemo": "1", "appraise": null, "website": null, "memo": null, "payTypes": "", "shopTypes": "", "consumeTypes": null, "cookTypes": null, "orderNum": null, "card4no": null, "card4noAcc": null, "district2": null, "searchScope": null, "status": null, "address": "", "name": null, "id": null, "pageNo": 527, "pageCount": null, "pageSize": 10, "ids": null, "endTime": null, "startTime": null}, "list": [{"cardNumFive": null, "isSupportYj": null, "cityName": null, "districtName": null, "shopinfo": {"mid": "888888854410138", "good_flag": null, "new_flag": null, "short_name": "\u6765\u4f0a\u4efd", "short_name_pinyin": "laiyifen", "status": null, "address": null, "name": null, "id": "32321"}, "mid": "888888854410138", "shopId": "32321", "netid": null, "province": 901, "district": 601, "zipcode": null, "telephone": null, "posDate": null, "destineTel": null, "togoTel": null, "trafficWay": null, "signBuilding": null, "businessArea": null, "selfRoom": null, "businessTime": null, "stall": null, "consume": null, "serviceFei": null, "favourable": null, "shopMemo": null, "appraise": null, "website": null, "memo": null, "payTypes": "\u6749\u5fb7\u5361", "shopTypes": "\u96f6\u552e", "consumeTypes": null, "cookTypes": null, "orderNum": 1000, "card4no": null, "card4noAcc": null, "district2": 403, "searchScope": null, "status": 1, "address": "\u5f90\u6c47\u533a\u8001\u6caa\u95f5\u8def289\u53f7\u5730\u94c1\u4e00\u53f7\u7ebf\u4e0a\u6d77\u5357\u7ad9\u5385\u5c42C-106", "name": "\u6765\u4f0a\u4efd \u5357\u7ad9\u4e09\u5e97", "id": 138581, "pageNo": 0, "pageCount": null, "pageSize": 10, "ids": null, "endTime": null, "startTime": null}, {"cardNumFive": null, "isSupportYj": null, "cityName": null, "districtName": null, "shopinfo": {"mid": "888888854410138", "good_flag": null, "new_flag": null, "short_name": "\u6765\u4f0a\u4efd", "short_name_pinyin": "laiyifen", "status": null, "address": null, "name": null, "id": "32321"}, "mid": "888888854410138", "shopId": "32321", "netid": null, "province": 901, "district": 601, "zipcode": null, "telephone": "27638025", "posDate": "20090409", "destineTel": null, "togoTel": null, "trafficWay": null, "signBuilding": null, "businessArea": null, "selfRoom": null, "businessTime": null, "stall": null, "consume": null, "serviceFei": null, "favourable": null, "shopMemo": null, "appraise": null, "website": null, "memo": null, "payTypes": "\u6749\u5fb7\u5361", "shopTypes": "\u96f6\u552e", "consumeTypes": null, "cookTypes": null, "orderNum": 1000, "card4no": null, "card4noAcc": null, "district2": 418, "searchScope": null, "status": 1, "address": "\u5468\u6d66\u9547\u5e74\u5bb6\u6d5c\u8def336-9", "name": "\u6765\u4f0a\u4efd \u5e74\u5bb6\u6d5c\u5e97", "id": 138582, "pageNo": 0, "pageCount": null, "pageSize": 10, "ids": null, "endTime": null, "startTime": null}, {"cardNumFive": null, "isSupportYj": null, "cityName": null, "districtName": null, "shopinfo": {"mid": "888888854410138", "good_flag": null, "new_flag": null, "short_name": "\u6765\u4f0a\u4efd", "short_name_pinyin": "laiyifen", "status": null, "address": null, "name": null, "id": "32321"}, "mid": "888888854410138", "shopId": "32321", "netid": null, "province": 901, "district": 601, "zipcode": null, "telephone": null, "posDate": "200904", "destineTel": null, "togoTel": null, "trafficWay": null, "signBuilding": null, "businessArea": null, "selfRoom": null, "businessTime": null, "stall": null, "consume": null, "serviceFei": null, "favourable": null, "shopMemo": null, "appraise": null, "website": null, "memo": null, "payTypes": "\u6749\u5fb7\u5361", "shopTypes": "\u96f6\u552e", "consumeTypes": null, "cookTypes": null, "orderNum": 1000, "card4no": null, "card4noAcc": null, "district2": 407, "searchScope": null, "status": 1, "address": "\u5b81\u6b66\u8def290\u53f7", "name": "\u6765\u4f0a\u4efd \u5b81\u6b66\u8def\u5e97", "id": 138583, "pageNo": 0, "pageCount": null, "pageSize": 10, "ids": null, "endTime": null, "startTime": null}, {"cardNumFive": null, "isSupportYj": null, "cityName": null, "districtName": null, "shopinfo": {"mid": "888888854410138", "good_flag": null, "new_flag": null, "short_name": "\u6765\u4f0a\u4efd", "short_name_pinyin": "laiyifen", "status": null, "address": null, "name": null, "id": "32321"}, "mid": "888888854410138", "shopId": "32321", "netid": null, "province": 901, "district": 601, "zipcode": null, "telephone": "27636239", "posDate": "20090331", "destineTel": null, "togoTel": null, "trafficWay": null, "signBuilding": null, "businessArea": null, "selfRoom": null, "businessTime": null, "stall": null, "consume": null, "serviceFei": null, "favourable": null, "shopMemo": null, "appraise": null, "website": null, "memo": null, "payTypes": "\u6749\u5fb7\u5361", "shopTypes": "\u96f6\u552e", "consumeTypes": null, "cookTypes": null, "orderNum": 1000, "card4no": null, "card4noAcc": null, "district2": 418, "searchScope": null, "status": 1, "address": "\u5ddd\u6c99\u57ce\u5357\u8def318\u53f7\u4e00\u5c42,\u8fd1\u5ddd\u9ec4\u8def", "name": "\u6765\u4f0a\u4efd \u519c\u5de5\u5546\u5ddd\u6c99\u5e97", "id": 138586, "pageNo": 0, "pageCount": null, "pageSize": 10, "ids": null, "endTime": null, "startTime": null}, {"cardNumFive": null, "isSupportYj": null, "cityName": null, "districtName": null, "shopinfo": {"mid": "888888854410138", "good_flag": null, "new_flag": null, "short_name": "\u6765\u4f0a\u4efd", "short_name_pinyin": "laiyifen", "status": null, "address": null, "name": null, "id": "32321"}, "mid": "888888854410138", "shopId": "32321", "netid": null, "province": 901, "district": 601, "zipcode": null, "telephone": "58653364", "posDate": "20090331", "destineTel": null, "togoTel": null, "trafficWay": null, "signBuilding": null, "businessArea": null, "selfRoom": null, "businessTime": null, "stall": null, "consume": null, "serviceFei": null, "favourable": null, "shopMemo": null, "appraise": null, "website": null, "memo": null, "payTypes": "\u6749\u5fb7\u5361", "shopTypes": "\u96f6\u552e", "consumeTypes": null, "cookTypes": null, "orderNum": 1000, "card4no": null, "card4noAcc": null, "district2": 418, "searchScope": null, "status": 1, "address": "\u9ad8\u884c\u9547\u4ff1\u8fdb\u8def385\u53f7", "name": "\u6765\u4f0a\u4efd \u519c\u5de5\u5546\u9ad8\u884c\u5e97", "id": 138588, "pageNo": 0, "pageCount": null, "pageSize": 10, "ids": null, "endTime": null, "startTime": null}, {"cardNumFive": null, "isSupportYj": null, "cityName": null, "districtName": null, "shopinfo": {"mid": "888888854410138", "good_flag": null, "new_flag": null, "short_name": "\u6765\u4f0a\u4efd", "short_name_pinyin": "laiyifen", "status": null, "address": null, "name": null, "id": "32321"}, "mid": "888888854410138", "shopId": "32321", "netid": null, "province": 901, "district": 601, "zipcode": null, "telephone": "67691888/27638020", "posDate": "20090401", "destineTel": null, "togoTel": null, "trafficWay": null, "signBuilding": null, "businessArea": null, "selfRoom": null, "businessTime": null, "stall": null, "consume": null, "serviceFei": null, "favourable": null, "shopMemo": null, "appraise": null, "website": null, "memo": null, "payTypes": "\u6749\u5fb7\u5361", "shopTypes": "\u96f6\u552e", "consumeTypes": null, "cookTypes": null, "orderNum": 1000, "card4no": null, "card4noAcc": null, "district2": 418, "searchScope": null, "status": 1, "address": "\u91d1\u6865\u9547\u91d1\u9ad8\u8def2057\u53f7\u4e00\u5c42", "name": "\u6765\u4f0a\u4efd \u519c\u5de5\u5546\u91d1\u9ad8\u5e97", "id": 138589, "pageNo": 0, "pageCount": null, "pageSize": 10, "ids": null, "endTime": null, "startTime": null}, {"cardNumFive": null, "isSupportYj": null, "cityName": null, "districtName": null, "shopinfo": {"mid": "888888854410138", "good_flag": null, "new_flag": null, "short_name": "\u6765\u4f0a\u4efd", "short_name_pinyin": "laiyifen", "status": null, "address": null, "name": null, "id": "32321"}, "mid": "888888854410138", "shopId": "32321", "netid": null, "province": 901, "district": 601, "zipcode": null, "telephone": "68462035", "posDate": "20090328", "destineTel": null, "togoTel": null, "trafficWay": null, "signBuilding": null, "businessArea": null, "selfRoom": null, "businessTime": null, "stall": null, "consume": null, "serviceFei": null, "favourable": null, "shopMemo": null, "appraise": null, "website": null, "memo": null, "payTypes": "\u6749\u5fb7\u5361", "shopTypes": "\u96f6\u552e", "consumeTypes": null, "cookTypes": null, "orderNum": 1000, "card4no": null, "card4noAcc": null, "district2": 418, "searchScope": null, "status": 1, "address": "\u83b1\u9633\u8def937-957\u53f7\u4e00\u5c42", "name": "\u6765\u4f0a\u4efd \u519c\u5de5\u5546\u83b1\u9633\u5e97", "id": 138591, "pageNo": 0, "pageCount": null, "pageSize": 10, "ids": null, "endTime": null, "startTime": null}, {"cardNumFive": null, "isSupportYj": null, "cityName": null, "districtName": null, "shopinfo": {"mid": "888888854410138", "good_flag": null, "new_flag": null, "short_name": "\u6765\u4f0a\u4efd", "short_name_pinyin": "laiyifen", "status": null, "address": null, "name": null, "id": "32321"}, "mid": "888888854410138", "shopId": "32321", "netid": null, "province": 901, "district": 601, "zipcode": null, "telephone": "65144261", "posDate": "200904", "destineTel": null, "togoTel": null, "trafficWay": null, "signBuilding": null, "businessArea": null, "selfRoom": null, "businessTime": null, "stall": null, "consume": null, "serviceFei": null, "favourable": null, "shopMemo": null, "appraise": null, "website": null, "memo": null, "payTypes": "\u6749\u5fb7\u5361", "shopTypes": "\u96f6\u552e", "consumeTypes": null, "cookTypes": null, "orderNum": 1000, "card4no": null, "card4noAcc": null, "district2": 408, "searchScope": null, "status": 1, "address": "\u901a\u5dde\u8def188\u53f7", "name": "\u6765\u4f0a\u4efd \u519c\u5de5\u5546\u901a\u5dde\u8def\u5e97", "id": 138592, "pageNo": 0, "pageCount": null, "pageSize": 10, "ids": null, "endTime": null, "startTime": null}, {"cardNumFive": null, "isSupportYj": null, "cityName": null, "districtName": null, "shopinfo": {"mid": "888888854410138", "good_flag": null, "new_flag": null, "short_name": "\u6765\u4f0a\u4efd", "short_name_pinyin": "laiyifen", "status": null, "address": null, "name": null, "id": "32321"}, "mid": "888888854410138", "shopId": "32321", "netid": null, "province": 901, "district": 601, "zipcode": null, "telephone": "56603746", "posDate": "20090403", "destineTel": null, "togoTel": null, "trafficWay": null, "signBuilding": null, "businessArea": null, "selfRoom": null, "businessTime": null, "stall": null, "consume": null, "serviceFei": null, "favourable": null, "shopMemo": null, "appraise": null, "website": null, "memo": null, "payTypes": "\u6749\u5fb7\u5361", "shopTypes": "\u96f6\u552e", "consumeTypes": null, "cookTypes": null, "orderNum": 1000, "card4no": null, "card4noAcc": null, "district2": 416, "searchScope": null, "status": 1, "address": "\u76d8\u53e4\u8def506\u53f7\u8fd1\u7261\u4e39\u6c5f\u8def", "name": "\u6765\u4f0a\u4efd \u76d8\u53e4\u8def\u5e97", "id": 138596, "pageNo": 0, "pageCount": null, "pageSize": 10, "ids": null, "endTime": null, "startTime": null}, {"cardNumFive": null, "isSupportYj": null, "cityName": null, "districtName": null, "shopinfo": {"mid": "888888854410138", "good_flag": null, "new_flag": null, "short_name": "\u6765\u4f0a\u4efd", "short_name_pinyin": "laiyifen", "status": null, "address": null, "name": null, "id": "32321"}, "mid": "888888854410138", "shopId": "32321", "netid": null, "province": 901, "district": 601, "zipcode": null, "telephone": "58240678", "posDate": "20090409", "destineTel": null, "togoTel": null, "trafficWay": null, "signBuilding": null, "businessArea": null, "selfRoom": null, "businessTime": null, "stall": null, "consume": null, "serviceFei": null, "favourable": null, "shopMemo": null, "appraise": null, "website": null, "memo": null, "payTypes": "\u6749\u5fb7\u5361", "shopTypes": "\u96f6\u552e", "consumeTypes": null, "cookTypes": null, "orderNum": 1000, "card4no": null, "card4noAcc": null, "district2": 413, "searchScope": null, "status": 1, "address": "\u5f6d\u5e73\u516c\u8def\u5f6d\u5e73\u82b1\u56ed4\u5e623\u53f7101\u5ba4\uff0c\u8fd1\u9a6c\u4e94\u516c\u8def", "name": "\u6765\u4f0a\u4efd \u5f6d\u9547\u5e97", "id": 138597, "pageNo": 0, "pageCount": null, "pageSize": 10, "ids": null, "endTime": null, "startTime": null}], "pageLimit": 5270, "size": 10}