{"pageCount": 1095, "count": 10942, "pageNo": 566, "subShopInfo": {"cardNumFive": "", "isSupportYj": "", "cityName": null, "districtName": null, "shopinfo": {"mid": null, "good_flag": null, "new_flag": null, "short_name": null, "short_name_pinyin": null, "status": null, "address": "", "name": "", "id": null}, "mid": null, "shopId": null, "netid": null, "province": 901, "district": null, "zipcode": null, "telephone": null, "posDate": null, "destineTel": null, "togoTel": null, "trafficWay": null, "signBuilding": null, "businessArea": null, "selfRoom": null, "businessTime": null, "stall": null, "consume": null, "serviceFei": null, "favourable": null, "shopMemo": "1", "appraise": null, "website": null, "memo": null, "payTypes": "", "shopTypes": "", "consumeTypes": null, "cookTypes": null, "orderNum": null, "card4no": null, "card4noAcc": null, "district2": null, "searchScope": null, "status": null, "address": "", "name": null, "id": null, "pageNo": 565, "pageCount": null, "pageSize": 10, "ids": null, "endTime": null, "startTime": null}, "list": [{"cardNumFive": null, "isSupportYj": null, "cityName": null, "districtName": null, "shopinfo": {"mid": "888888854410138", "good_flag": null, "new_flag": null, "short_name": "\u6765\u4f0a\u4efd", "short_name_pinyin": "laiyifen", "status": null, "address": null, "name": null, "id": "38239"}, "mid": "888888854410138", "shopId": "38239", "netid": null, "province": 901, "district": 601, "zipcode": null, "telephone": null, "posDate": null, "destineTel": null, "togoTel": null, "trafficWay": null, "signBuilding": null, "businessArea": null, "selfRoom": null, "businessTime": null, "stall": null, "consume": null, "serviceFei": null, "favourable": null, "shopMemo": null, "appraise": null, "website": null, "memo": null, "payTypes": "\u6749\u5fb7\u5361", "shopTypes": "\u96f6\u552e", "consumeTypes": null, "cookTypes": null, "orderNum": 1000, "card4no": null, "card4noAcc": null, "district2": 417, "searchScope": null, "status": 1, "address": "\u57ce\u4e2d\u5357\u8def443\u53f7", "name": "\u6765\u4f0a\u4efd \u57ce\u4e2d\u5357\u8def\u4e8c\u5e97", "id": 163150, "pageNo": 0, "pageCount": null, "pageSize": 10, "ids": null, "endTime": null, "startTime": null}, {"cardNumFive": null, "isSupportYj": null, "cityName": null, "districtName": null, "shopinfo": {"mid": "888888854410138", "good_flag": null, "new_flag": null, "short_name": "\u6765\u4f0a\u4efd", "short_name_pinyin": "laiyifen", "status": null, "address": null, "name": null, "id": "38239"}, "mid": "888888854410138", "shopId": "38239", "netid": null, "province": 901, "district": 601, "zipcode": null, "telephone": null, "posDate": null, "destineTel": null, "togoTel": null, "trafficWay": null, "signBuilding": null, "businessArea": null, "selfRoom": null, "businessTime": null, "stall": null, "consume": null, "serviceFei": null, "favourable": null, "shopMemo": null, "appraise": null, "website": null, "memo": null, "payTypes": "\u6749\u5fb7\u5361", "shopTypes": "\u96f6\u552e", "consumeTypes": null, "cookTypes": null, "orderNum": 1000, "card4no": null, "card4noAcc": null, "district2": 418, "searchScope": null, "status": 1, "address": "\u9ad8\u5efa\u8def35\u53f7", "name": "\u6765\u4f0a\u4efd \u9ad8\u5efa\u8def\u5e97", "id": 163152, "pageNo": 0, "pageCount": null, "pageSize": 10, "ids": null, "endTime": null, "startTime": null}, {"cardNumFive": null, "isSupportYj": null, "cityName": null, "districtName": null, "shopinfo": {"mid": "888888854410138", "good_flag": null, "new_flag": null, "short_name": "\u6765\u4f0a\u4efd", "short_name_pinyin": "laiyifen", "status": null, "address": null, "name": null, "id": "38239"}, "mid": "888888854410138", "shopId": "38239", "netid": null, "province": 901, "district": 601, "zipcode": null, "telephone": null, "posDate": null, "destineTel": null, "togoTel": null, "trafficWay": null, "signBuilding": null, "businessArea": null, "selfRoom": null, "businessTime": null, "stall": null, "consume": null, "serviceFei": null, "favourable": null, "shopMemo": null, "appraise": null, "website": null, "memo": null, "payTypes": "\u6749\u5fb7\u5361", "shopTypes": "\u96f6\u552e", "consumeTypes": null, "cookTypes": null, "orderNum": 1000, "card4no": null, "card4noAcc": null, "district2": 418, "searchScope": null, "status": 1, "address": "\u6d77\u9633\u8def845\u53f7", "name": "\u6765\u4f0a\u4efd \u6d77\u9633\u8def\u4e09\u5e97", "id": 163153, "pageNo": 0, "pageCount": null, "pageSize": 10, "ids": null, "endTime": null, "startTime": null}, {"cardNumFive": null, "isSupportYj": null, "cityName": null, "districtName": null, "shopinfo": {"mid": "888888854410138", "good_flag": null, "new_flag": null, "short_name": "\u6765\u4f0a\u4efd", "short_name_pinyin": "laiyifen", "status": null, "address": null, "name": null, "id": "38239"}, "mid": "888888854410138", "shopId": "38239", "netid": null, "province": 901, "district": 601, "zipcode": null, "telephone": null, "posDate": null, "destineTel": null, "togoTel": null, "trafficWay": null, "signBuilding": null, "businessArea": null, "selfRoom": null, "businessTime": null, "stall": null, "consume": null, "serviceFei": null, "favourable": null, "shopMemo": null, "appraise": null, "website": null, "memo": null, "payTypes": "\u6749\u5fb7\u5361", "shopTypes": "\u96f6\u552e", "consumeTypes": null, "cookTypes": null, "orderNum": 1000, "card4no": null, "card4noAcc": null, "district2": 416, "searchScope": null, "status": 1, "address": "\u73af\u9547\u5317\u8def554\u53f7", "name": "\u6765\u4f0a\u4efd \u73af\u9547\u5317\u8def\u4e8c\u5e97", "id": 163154, "pageNo": 0, "pageCount": null, "pageSize": 10, "ids": null, "endTime": null, "startTime": null}, {"cardNumFive": null, "isSupportYj": null, "cityName": null, "districtName": null, "shopinfo": {"mid": "888888854410138", "good_flag": null, "new_flag": null, "short_name": "\u6765\u4f0a\u4efd", "short_name_pinyin": "laiyifen", "status": null, "address": null, "name": null, "id": "38239"}, "mid": "888888854410138", "shopId": "38239", "netid": null, "province": 901, "district": 601, "zipcode": null, "telephone": null, "posDate": null, "destineTel": null, "togoTel": null, "trafficWay": null, "signBuilding": null, "businessArea": null, "selfRoom": null, "businessTime": null, "stall": null, "consume": null, "serviceFei": null, "favourable": null, "shopMemo": null, "appraise": null, "website": null, "memo": null, "payTypes": "\u6749\u5fb7\u5361", "shopTypes": "\u96f6\u552e", "consumeTypes": null, "cookTypes": null, "orderNum": 1000, "card4no": null, "card4noAcc": null, "district2": 409, "searchScope": null, "status": 1, "address": "\u5251\u5ddd\u8def122\u53f7", "name": "\u6765\u4f0a\u4efd \u5251\u5ddd\u8def\u4e8c\u5e97", "id": 163155, "pageNo": 0, "pageCount": null, "pageSize": 10, "ids": null, "endTime": null, "startTime": null}, {"cardNumFive": null, "isSupportYj": null, "cityName": null, "districtName": null, "shopinfo": {"mid": "888888854410138", "good_flag": null, "new_flag": null, "short_name": "\u6765\u4f0a\u4efd", "short_name_pinyin": "laiyifen", "status": null, "address": null, "name": null, "id": "38239"}, "mid": "888888854410138", "shopId": "38239", "netid": null, "province": 901, "district": 601, "zipcode": null, "telephone": null, "posDate": null, "destineTel": null, "togoTel": null, "trafficWay": null, "signBuilding": null, "businessArea": null, "selfRoom": null, "businessTime": null, "stall": null, "consume": null, "serviceFei": null, "favourable": null, "shopMemo": null, "appraise": null, "website": null, "memo": null, "payTypes": "\u6749\u5fb7\u5361", "shopTypes": "\u96f6\u552e", "consumeTypes": null, "cookTypes": null, "orderNum": 1000, "card4no": null, "card4noAcc": null, "district2": 411, "searchScope": null, "status": 1, "address": "\u91d1\u6c99\u8def306\u53f7", "name": "\u6765\u4f0a\u4efd \u91d1\u6c99\u8def\u5e97", "id": 163156, "pageNo": 0, "pageCount": null, "pageSize": 10, "ids": null, "endTime": null, "startTime": null}, {"cardNumFive": null, "isSupportYj": null, "cityName": null, "districtName": null, "shopinfo": {"mid": "888888854410138", "good_flag": null, "new_flag": null, "short_name": "\u6765\u4f0a\u4efd", "short_name_pinyin": "laiyifen", "status": null, "address": null, "name": null, "id": "38239"}, "mid": "888888854410138", "shopId": "38239", "netid": null, "province": 901, "district": 601, "zipcode": null, "telephone": null, "posDate": null, "destineTel": null, "togoTel": null, "trafficWay": null, "signBuilding": null, "businessArea": null, "selfRoom": null, "businessTime": null, "stall": null, "consume": null, "serviceFei": null, "favourable": null, "shopMemo": null, "appraise": null, "website": null, "memo": null, "payTypes": "\u6749\u5fb7\u5361", "shopTypes": "\u96f6\u552e", "consumeTypes": null, "cookTypes": null, "orderNum": 1000, "card4no": null, "card4noAcc": null, "district2": 404, "searchScope": null, "status": 1, "address": "\u4e07\u822a\u6e21\u8def889\u53f7\u5730\u4e0b\u4e00\u5c42", "name": "\u6765\u4f0a\u4efd \u60a6\u8fbe889\u5e7f\u573a\u5e97", "id": 163157, "pageNo": 0, "pageCount": null, "pageSize": 10, "ids": null, "endTime": null, "startTime": null}, {"cardNumFive": null, "isSupportYj": null, "cityName": null, "districtName": null, "shopinfo": {"mid": "888888854410138", "good_flag": null, "new_flag": null, "short_name": "\u6765\u4f0a\u4efd", "short_name_pinyin": "laiyifen", "status": null, "address": null, "name": null, "id": "38239"}, "mid": "888888854410138", "shopId": "38239", "netid": null, "province": 901, "district": 601, "zipcode": null, "telephone": null, "posDate": null, "destineTel": null, "togoTel": null, "trafficWay": null, "signBuilding": null, "businessArea": null, "selfRoom": null, "businessTime": null, "stall": null, "consume": null, "serviceFei": null, "favourable": null, "shopMemo": null, "appraise": null, "website": null, "memo": null, "payTypes": "\u6749\u5fb7\u5361", "shopTypes": "\u96f6\u552e", "consumeTypes": null, "cookTypes": null, "orderNum": 1000, "card4no": null, "card4noAcc": null, "district2": 412, "searchScope": null, "status": 1, "address": "\u4e5d\u4ead\u9547\u4e5d\u65b0\u516c\u8def262\u53f7", "name": "\u6765\u4f0a\u4efd \u4e5d\u65b0\u516c\u8def\u5e97", "id": 163158, "pageNo": 0, "pageCount": null, "pageSize": 10, "ids": null, "endTime": null, "startTime": null}, {"cardNumFive": null, "isSupportYj": null, "cityName": null, "districtName": null, "shopinfo": {"mid": "888888854410138", "good_flag": null, "new_flag": null, "short_name": "\u6765\u4f0a\u4efd", "short_name_pinyin": "laiyifen", "status": null, "address": null, "name": null, "id": "38239"}, "mid": "888888854410138", "shopId": "38239", "netid": null, "province": 901, "district": 601, "zipcode": null, "telephone": null, "posDate": null, "destineTel": null, "togoTel": null, "trafficWay": null, "signBuilding": null, "businessArea": null, "selfRoom": null, "businessTime": null, "stall": null, "consume": null, "serviceFei": null, "favourable": null, "shopMemo": null, "appraise": null, "website": null, "memo": null, "payTypes": "\u6749\u5fb7\u5361", "shopTypes": "\u96f6\u552e", "consumeTypes": null, "cookTypes": null, "orderNum": 1000, "card4no": null, "card4noAcc": null, "district2": 418, "searchScope": null, "status": 1, "address": "\u51cc\u5146\u8def79\u53f7", "name": "\u6765\u4f0a\u4efd \u51cc\u5146\u8def\u5e97", "id": 163159, "pageNo": 0, "pageCount": null, "pageSize": 10, "ids": null, "endTime": null, "startTime": null}, {"cardNumFive": null, "isSupportYj": null, "cityName": null, "districtName": null, "shopinfo": {"mid": "888888854410138", "good_flag": null, "new_flag": null, "short_name": "\u6765\u4f0a\u4efd", "short_name_pinyin": "laiyifen", "status": null, "address": null, "name": null, "id": "38239"}, "mid": "888888854410138", "shopId": "38239", "netid": null, "province": 901, "district": 601, "zipcode": null, "telephone": null, "posDate": null, "destineTel": null, "togoTel": null, "trafficWay": null, "signBuilding": null, "businessArea": null, "selfRoom": null, "businessTime": null, "stall": null, "consume": null, "serviceFei": null, "favourable": null, "shopMemo": null, "appraise": null, "website": null, "memo": null, "payTypes": "\u6749\u5fb7\u5361", "shopTypes": "\u96f6\u552e", "consumeTypes": null, "cookTypes": null, "orderNum": 1000, "card4no": null, "card4noAcc": null, "district2": 416, "searchScope": null, "status": 1, "address": "\u94c1\u5cf0\u8def2026\u53f7", "name": "\u6765\u4f0a\u4efd \u94c1\u5cf0\u8def\u5e97", "id": 163160, "pageNo": 0, "pageCount": null, "pageSize": 10, "ids": null, "endTime": null, "startTime": null}], "pageLimit": 5650, "size": 10}