{"pageCount": 1095, "count": 10942, "pageNo": 579, "subShopInfo": {"cardNumFive": "", "isSupportYj": "", "cityName": null, "districtName": null, "shopinfo": {"mid": null, "good_flag": null, "new_flag": null, "short_name": null, "short_name_pinyin": null, "status": null, "address": "", "name": "", "id": null}, "mid": null, "shopId": null, "netid": null, "province": 901, "district": null, "zipcode": null, "telephone": null, "posDate": null, "destineTel": null, "togoTel": null, "trafficWay": null, "signBuilding": null, "businessArea": null, "selfRoom": null, "businessTime": null, "stall": null, "consume": null, "serviceFei": null, "favourable": null, "shopMemo": "1", "appraise": null, "website": null, "memo": null, "payTypes": "", "shopTypes": "", "consumeTypes": null, "cookTypes": null, "orderNum": null, "card4no": null, "card4noAcc": null, "district2": null, "searchScope": null, "status": null, "address": "", "name": null, "id": null, "pageNo": 578, "pageCount": null, "pageSize": 10, "ids": null, "endTime": null, "startTime": null}, "list": [{"cardNumFive": null, "isSupportYj": null, "cityName": null, "districtName": null, "shopinfo": {"mid": "888888859120159", "good_flag": null, "new_flag": null, "short_name": "\u8001\u767e\u59d3\u5927\u836f\u623f", "short_name_pinyin": "laobaixingdayaofang", "status": null, "address": null, "name": null, "id": "37439"}, "mid": "888888859120159", "shopId": "37439", "netid": null, "province": 901, "district": 601, "zipcode": null, "telephone": null, "posDate": null, "destineTel": null, "togoTel": null, "trafficWay": null, "signBuilding": null, "businessArea": null, "selfRoom": null, "businessTime": null, "stall": null, "consume": null, "serviceFei": null, "favourable": null, "shopMemo": null, "appraise": null, "website": null, "memo": null, "payTypes": "\u6749\u5fb7\u5361", "shopTypes": "\u836f\u5e97", "consumeTypes": null, "cookTypes": null, "orderNum": 1000, "card4no": null, "card4noAcc": null, "district2": 407, "searchScope": null, "status": 1, "address": "\u5b81\u6b66\u8def206\u53f7", "name": "\u8001\u767e\u59d3\u5927\u836f\u623f \u5b81\u6b66\u5e97", "id": 158765, "pageNo": 0, "pageCount": null, "pageSize": 10, "ids": null, "endTime": null, "startTime": null}, {"cardNumFive": null, "isSupportYj": null, "cityName": null, "districtName": null, "shopinfo": {"mid": "888888859120159", "good_flag": null, "new_flag": null, "short_name": "\u8001\u767e\u59d3\u5927\u836f\u623f", "short_name_pinyin": "laobaixingdayaofang", "status": null, "address": null, "name": null, "id": "32339"}, "mid": "888888859120159", "shopId": "32339", "netid": null, "province": 901, "district": 601, "zipcode": null, "telephone": null, "posDate": null, "destineTel": null, "togoTel": null, "trafficWay": null, "signBuilding": null, "businessArea": null, "selfRoom": null, "businessTime": null, "stall": null, "consume": null, "serviceFei": null, "favourable": null, "shopMemo": null, "appraise": null, "website": null, "memo": null, "payTypes": "\u6749\u5fb7\u5361", "shopTypes": "\u836f\u5e97", "consumeTypes": null, "cookTypes": null, "orderNum": 1000, "card4no": null, "card4noAcc": null, "district2": 418, "searchScope": null, "status": 1, "address": "\u677f\u6cc9\u8def1596\u53f71\u5c42", "name": "\u8001\u767e\u59d3\u5927\u836f\u623f \u677f\u6cc9\u8def\u5e97", "id": 191047, "pageNo": 0, "pageCount": null, "pageSize": 10, "ids": null, "endTime": null, "startTime": null}, {"cardNumFive": null, "isSupportYj": null, "cityName": null, "districtName": null, "shopinfo": {"mid": "888002159120003", "good_flag": "2", "new_flag": "2", "short_name": "\u8001\u767e\u59d3\u5927\u836f\u623f", "short_name_pinyin": "laobaixingdayaofang", "status": null, "address": null, "name": null, "id": "418057362419482624"}, "mid": "888002159120003", "shopId": "418057362419482624", "netid": null, "province": 901, "district": 601, "zipcode": null, "telephone": null, "posDate": null, "destineTel": null, "togoTel": null, "trafficWay": null, "signBuilding": null, "businessArea": null, "selfRoom": null, "businessTime": null, "stall": null, "consume": null, "serviceFei": null, "favourable": null, "shopMemo": null, "appraise": null, "website": null, "memo": null, "payTypes": "\u6749\u5fb7\u5361,", "shopTypes": "\u836f\u5e97", "consumeTypes": null, "cookTypes": null, "orderNum": null, "card4no": null, "card4noAcc": null, "district2": 404, "searchScope": null, "status": 1, "address": "\u82b7\u6c5f\u897f\u8def243\u53f7", "name": "\u82b7\u6c5f\u897f\u8def\u5e97", "id": 418057361190551552, "pageNo": 0, "pageCount": null, "pageSize": 10, "ids": null, "endTime": null, "startTime": null}, {"cardNumFive": null, "isSupportYj": null, "cityName": null, "districtName": null, "shopinfo": {"mid": "888002159120003", "good_flag": "2", "new_flag": "2", "short_name": "\u8001\u767e\u59d3\u5927\u836f\u623f", "short_name_pinyin": "laobaixingdayaofang", "status": null, "address": null, "name": null, "id": "418057362419482624"}, "mid": "888002159120003", "shopId": "418057362419482624", "netid": null, "province": 901, "district": 601, "zipcode": null, "telephone": null, "posDate": null, "destineTel": null, "togoTel": null, "trafficWay": null, "signBuilding": null, "businessArea": null, "selfRoom": null, "businessTime": null, "stall": null, "consume": null, "serviceFei": null, "favourable": null, "shopMemo": null, "appraise": null, "website": null, "memo": null, "payTypes": "\u6749\u5fb7\u5361,", "shopTypes": "\u836f\u5e97", "consumeTypes": null, "cookTypes": null, "orderNum": null, "card4no": null, "card4noAcc": null, "district2": 416, "searchScope": null, "status": 1, "address": "\u6caa\u592a\u8def1182\u53f7-1", "name": "\u6caa\u592a\u8def\u5e97", "id": 423171653816549376, "pageNo": 0, "pageCount": null, "pageSize": 10, "ids": null, "endTime": null, "startTime": null}, {"cardNumFive": null, "isSupportYj": null, "cityName": null, "districtName": null, "shopinfo": {"mid": "888002159120003", "good_flag": "2", "new_flag": "2", "short_name": "\u8001\u767e\u59d3\u5927\u836f\u623f", "short_name_pinyin": "laobaixingdayaofang", "status": null, "address": null, "name": null, "id": "418057362419482624"}, "mid": "888002159120003", "shopId": "418057362419482624", "netid": null, "province": 901, "district": 601, "zipcode": null, "telephone": null, "posDate": null, "destineTel": null, "togoTel": null, "trafficWay": null, "signBuilding": null, "businessArea": null, "selfRoom": null, "businessTime": null, "stall": null, "consume": null, "serviceFei": null, "favourable": null, "shopMemo": null, "appraise": null, "website": null, "memo": null, "payTypes": "\u6749\u5fb7\u5361,", "shopTypes": "\u836f\u5e97", "consumeTypes": null, "cookTypes": null, "orderNum": null, "card4no": null, "card4noAcc": null, "district2": 404, "searchScope": null, "status": 1, "address": "\u5e73\u578b\u5173\u8def1997\u53f7", "name": "\u5e73\u578b\u5173\u8def\u5e97", "id": 435789042236260352, "pageNo": 0, "pageCount": null, "pageSize": 10, "ids": null, "endTime": null, "startTime": null}, {"cardNumFive": null, "isSupportYj": null, "cityName": null, "districtName": null, "shopinfo": {"mid": "888002159120003", "good_flag": "2", "new_flag": "2", "short_name": "\u8001\u767e\u59d3\u5927\u836f\u623f", "short_name_pinyin": "laobaixingdayaofang", "status": null, "address": null, "name": null, "id": "418057362419482624"}, "mid": "888002159120003", "shopId": "418057362419482624", "netid": null, "province": 901, "district": 601, "zipcode": null, "telephone": null, "posDate": null, "destineTel": null, "togoTel": null, "trafficWay": null, "signBuilding": null, "businessArea": null, "selfRoom": null, "businessTime": null, "stall": null, "consume": null, "serviceFei": null, "favourable": null, "shopMemo": null, "appraise": null, "website": null, "memo": null, "payTypes": "\u6749\u5fb7\u5361,", "shopTypes": "\u836f\u5e97", "consumeTypes": null, "cookTypes": null, "orderNum": null, "card4no": null, "card4noAcc": null, "district2": 408, "searchScope": null, "status": 1, "address": "\u98de\u8679\u652f\u8def13\u53f7101-2", "name": "\u98de\u8679\u652f\u8def\u5e97", "id": 435789042869600256, "pageNo": 0, "pageCount": null, "pageSize": 10, "ids": null, "endTime": null, "startTime": null}, {"cardNumFive": null, "isSupportYj": null, "cityName": null, "districtName": null, "shopinfo": {"mid": "888002159120003", "good_flag": "2", "new_flag": "2", "short_name": "\u8001\u767e\u59d3\u5927\u836f\u623f", "short_name_pinyin": "laobaixingdayaofang", "status": null, "address": null, "name": null, "id": "418057362419482624"}, "mid": "888002159120003", "shopId": "418057362419482624", "netid": null, "province": 901, "district": 601, "zipcode": null, "telephone": null, "posDate": null, "destineTel": null, "togoTel": null, "trafficWay": null, "signBuilding": null, "businessArea": null, "selfRoom": null, "businessTime": null, "stall": null, "consume": null, "serviceFei": null, "favourable": null, "shopMemo": null, "appraise": null, "website": null, "memo": null, "payTypes": "\u6749\u5fb7\u5361,", "shopTypes": "\u836f\u5e97", "consumeTypes": null, "cookTypes": null, "orderNum": null, "card4no": null, "card4noAcc": null, "district2": 418, "searchScope": null, "status": 1, "address": "\u4e1c\u660e\u8def1090\u53f7", "name": "\u4e1c\u660e\u8def\u5e97", "id": 435789043297419264, "pageNo": 0, "pageCount": null, "pageSize": 10, "ids": null, "endTime": null, "startTime": null}, {"cardNumFive": null, "isSupportYj": null, "cityName": null, "districtName": null, "shopinfo": {"mid": "888002159120003", "good_flag": "2", "new_flag": "2", "short_name": "\u8001\u767e\u59d3\u5927\u836f\u623f", "short_name_pinyin": "laobaixingdayaofang", "status": null, "address": null, "name": null, "id": "418057362419482624"}, "mid": "888002159120003", "shopId": "418057362419482624", "netid": null, "province": 901, "district": 601, "zipcode": null, "telephone": null, "posDate": null, "destineTel": null, "togoTel": null, "trafficWay": null, "signBuilding": null, "businessArea": null, "selfRoom": null, "businessTime": null, "stall": null, "consume": null, "serviceFei": null, "favourable": null, "shopMemo": null, "appraise": null, "website": null, "memo": null, "payTypes": "\u6749\u5fb7\u5361,", "shopTypes": "\u836f\u5e97", "consumeTypes": null, "cookTypes": null, "orderNum": null, "card4no": null, "card4noAcc": null, "district2": 412, "searchScope": null, "status": 1, "address": "\u4e5d\u4ead\u5927\u8857617-619\u53f7", "name": "\u4e5d\u4ead\u5927\u8857\u5e97", "id": 454317305887719424, "pageNo": 0, "pageCount": null, "pageSize": 10, "ids": null, "endTime": null, "startTime": null}, {"cardNumFive": null, "isSupportYj": null, "cityName": null, "districtName": null, "shopinfo": {"mid": "888888858120185", "good_flag": "2", "new_flag": "2", "short_name": "\u8001\u4e30\u9601", "short_name_pinyin": "laofengge", "status": null, "address": null, "name": null, "id": "32340"}, "mid": "888888858120185", "shopId": "32340", "netid": null, "province": 901, "district": 601, "zipcode": null, "telephone": "63516177 63501858", "posDate": "20070727", "destineTel": null, "togoTel": null, "trafficWay": "\u516c\u4ea4801 20 \u5730\u94c1\u4e8c\u53f7\u7ebf", "signBuilding": null, "businessArea": null, "selfRoom": null, "businessTime": null, "stall": "\u6709", "consume": null, "serviceFei": null, "favourable": null, "shopMemo": null, "appraise": null, "website": null, "memo": null, "payTypes": "\u6749\u5fb7\u5361", "shopTypes": "\u9910\u996e", "consumeTypes": "\u597d\u53cb\u5c0f\u805a,\u6d6a\u6f2b\u7ea6\u4f1a", "cookTypes": null, "orderNum": 1000, "card4no": null, "card4noAcc": null, "district2": 401, "searchScope": null, "status": 1, "address": "\u5317\u4eac\u4e1c\u8def398\u53f73-4F", "name": "\u8001\u4e30\u9601 \u534f\u901a\u5e97", "id": 139012, "pageNo": 0, "pageCount": null, "pageSize": 10, "ids": null, "endTime": null, "startTime": null}, {"cardNumFive": null, "isSupportYj": null, "cityName": null, "districtName": null, "shopinfo": {"mid": "888002158122282", "good_flag": null, "new_flag": null, "short_name": "\u8001\u4e30\u9601\u54c1\u73cd\u8f69", "short_name_pinyin": "laofenggepinzhenxuan", "status": null, "address": null, "name": null, "id": "39687"}, "mid": "888002158122282", "shopId": "39687", "netid": null, "province": 901, "district": 601, "zipcode": null, "telephone": "65861717", "posDate": null, "destineTel": null, "togoTel": null, "trafficWay": null, "signBuilding": null, "businessArea": null, "selfRoom": null, "businessTime": null, "stall": null, "consume": null, "serviceFei": null, "favourable": null, "shopMemo": null, "appraise": null, "website": null, "memo": null, "payTypes": "\u6749\u5fb7\u5361", "shopTypes": "\u9910\u996e", "consumeTypes": null, "cookTypes": null, "orderNum": 1000, "card4no": null, "card4noAcc": null, "district2": 408, "searchScope": null, "status": 1, "address": "\u4e1c\u5927\u540d\u8def1171\u53f72\u697c", "name": "\u8001\u4e30\u9601\u54c1\u73cd\u8f69 \u8fdc\u6d0b\u5e97", "id": 170127, "pageNo": 0, "pageCount": null, "pageSize": 10, "ids": null, "endTime": null, "startTime": null}], "pageLimit": 5780, "size": 10}