{"pageCount": 1095, "count": 10942, "pageNo": 587, "subShopInfo": {"cardNumFive": "", "isSupportYj": "", "cityName": null, "districtName": null, "shopinfo": {"mid": null, "good_flag": null, "new_flag": null, "short_name": null, "short_name_pinyin": null, "status": null, "address": "", "name": "", "id": null}, "mid": null, "shopId": null, "netid": null, "province": 901, "district": null, "zipcode": null, "telephone": null, "posDate": null, "destineTel": null, "togoTel": null, "trafficWay": null, "signBuilding": null, "businessArea": null, "selfRoom": null, "businessTime": null, "stall": null, "consume": null, "serviceFei": null, "favourable": null, "shopMemo": "1", "appraise": null, "website": null, "memo": null, "payTypes": "", "shopTypes": "", "consumeTypes": null, "cookTypes": null, "orderNum": null, "card4no": null, "card4noAcc": null, "district2": null, "searchScope": null, "status": null, "address": "", "name": null, "id": null, "pageNo": 586, "pageCount": null, "pageSize": 10, "ids": null, "endTime": null, "startTime": null}, "list": [{"cardNumFive": null, "isSupportYj": null, "cityName": null, "districtName": null, "shopinfo": {"mid": "888002159121233", "good_flag": "2", "new_flag": "1", "short_name": "\u96f7\u5141\u4e0a", "short_name_pinyin": "leiyunshang", "status": null, "address": null, "name": null, "id": "32384"}, "mid": "888002159121233", "shopId": "32384", "netid": null, "province": 901, "district": 601, "zipcode": null, "telephone": "62203628", "posDate": "20100623", "destineTel": null, "togoTel": null, "trafficWay": null, "signBuilding": null, "businessArea": null, "selfRoom": null, "businessTime": null, "stall": null, "consume": null, "serviceFei": null, "favourable": null, "shopMemo": null, "appraise": null, "website": null, "memo": null, "payTypes": "\u6749\u5fb7\u5361", "shopTypes": "\u836f\u5e97", "consumeTypes": null, "cookTypes": null, "orderNum": 1000, "card4no": null, "card4noAcc": null, "district2": 409, "searchScope": null, "status": 1, "address": "\u5317\u7fdf\u8def1556\u5f049\u53f7", "name": "\u96f7\u5141\u4e0a \u5927\u5bf0\u836f\u623f", "id": 139107, "pageNo": 0, "pageCount": null, "pageSize": 10, "ids": null, "endTime": null, "startTime": null}, {"cardNumFive": null, "isSupportYj": null, "cityName": null, "districtName": null, "shopinfo": {"mid": "888888859120022", "good_flag": "1", "new_flag": "2", "short_name": "\u96f7\u5141\u4e0a", "short_name_pinyin": "leiyunshang", "status": null, "address": null, "name": null, "id": "32377"}, "mid": "888888859120022", "shopId": "32377", "netid": null, "province": 901, "district": 601, "zipcode": null, "telephone": "58082972", "posDate": "20071226", "destineTel": null, "togoTel": null, "trafficWay": "\u516c\u4ea4\u9f99\u5927\u7ebf \u9f99\u4e34\u7ebf", "signBuilding": null, "businessArea": "100\u5e73\u65b9\u7c73", "selfRoom": null, "businessTime": "8:00~22:00", "stall": null, "consume": null, "serviceFei": null, "favourable": null, "shopMemo": null, "appraise": null, "website": null, "memo": null, "payTypes": "\u6749\u5fb7\u5361", "shopTypes": "\u836f\u5e97", "consumeTypes": null, "cookTypes": null, "orderNum": 1000, "card4no": null, "card4noAcc": null, "district2": 418, "searchScope": null, "status": 1, "address": "\u6c38\u6625\u4e1c\u8def65-67\u53f7", "name": "\u96f7\u5141\u4e0a \u5927\u56e2\u5e97", "id": 139108, "pageNo": 0, "pageCount": null, "pageSize": 10, "ids": null, "endTime": null, "startTime": null}, {"cardNumFive": null, "isSupportYj": null, "cityName": null, "districtName": null, "shopinfo": {"mid": "888888859120072", "good_flag": "1", "new_flag": "2", "short_name": "\u96f7\u5141\u4e0a", "short_name_pinyin": "leiyunshang", "status": null, "address": null, "name": null, "id": "32385"}, "mid": "888888859120072", "shopId": "32385", "netid": null, "province": 901, "district": 601, "zipcode": null, "telephone": "66018858", "posDate": "20080205", "destineTel": null, "togoTel": null, "trafficWay": "\u516c\u4ea4552 \u94b1\u6cf0\u7ebf \u5317\u534e\u7ebf", "signBuilding": null, "businessArea": "100\u5e73\u65b9\u7c73", "selfRoom": null, "businessTime": "9:00~21:00", "stall": null, "consume": null, "serviceFei": null, "favourable": null, "shopMemo": null, "appraise": null, "website": null, "memo": null, "payTypes": "\u6749\u5fb7\u5361", "shopTypes": "\u836f\u5e97", "consumeTypes": null, "cookTypes": null, "orderNum": 1000, "card4no": null, "card4noAcc": null, "district2": 416, "searchScope": null, "status": 1, "address": "\u4e1c\u592a\u8def267\u53f7", "name": "\u96f7\u5141\u4e0a \u4e1c\u592a\u5e97", "id": 139109, "pageNo": 0, "pageCount": null, "pageSize": 10, "ids": null, "endTime": null, "startTime": null}, {"cardNumFive": null, "isSupportYj": null, "cityName": null, "districtName": null, "shopinfo": {"mid": "888888859120066", "good_flag": "1", "new_flag": "2", "short_name": "\u96f7\u5141\u4e0a", "short_name_pinyin": "leiyunshang", "status": null, "address": null, "name": null, "id": "32386"}, "mid": "888888859120066", "shopId": "32386", "netid": null, "province": 901, "district": 601, "zipcode": null, "telephone": "54432474", "posDate": "20071012", "destineTel": null, "togoTel": null, "trafficWay": "\u516c\u4ea4712 \u5730\u94c1\u4e94\u53f7\u7ebf \u5f90\u95f5\u7ebf", "signBuilding": null, "businessArea": "80\u5e73\u65b9\u7c73", "selfRoom": null, "businessTime": "7:00~21:00", "stall": null, "consume": null, "serviceFei": null, "favourable": null, "shopMemo": null, "appraise": null, "website": null, "memo": null, "payTypes": "\u6749\u5fb7\u5361", "shopTypes": "\u836f\u5e97", "consumeTypes": null, "cookTypes": null, "orderNum": 1000, "card4no": null, "card4noAcc": null, "district2": 409, "searchScope": null, "status": 1, "address": "\u90fd\u5e02\u8def4360\u53f7", "name": "\u96f7\u5141\u4e0a \u90fd\u5e02\u8def\u5e97", "id": 139110, "pageNo": 0, "pageCount": null, "pageSize": 10, "ids": null, "endTime": null, "startTime": null}, {"cardNumFive": null, "isSupportYj": null, "cityName": null, "districtName": null, "shopinfo": {"mid": "888888859120116", "good_flag": "1", "new_flag": "2", "short_name": "\u96f7\u5141\u4e0a", "short_name_pinyin": "leiyunshang", "status": null, "address": null, "name": null, "id": "32387"}, "mid": "888888859120116", "shopId": "32387", "netid": null, "province": 901, "district": 601, "zipcode": null, "telephone": "63591955", "posDate": "20080618", "destineTel": null, "togoTel": null, "trafficWay": "\u516c\u4ea4869 36 \u5730\u94c1\u4e00\u53f7\u7ebf", "signBuilding": "\u957f\u5f81\u533b\u9662", "businessArea": "100\u5e73\u65b9\u7c73", "selfRoom": null, "businessTime": "24\u5c0f\u65f6", "stall": "\u6709", "consume": null, "serviceFei": null, "favourable": null, "shopMemo": null, "appraise": null, "website": null, "memo": null, "payTypes": "\u6749\u5fb7\u5361", "shopTypes": "\u836f\u5e97", "consumeTypes": null, "cookTypes": null, "orderNum": 1000, "card4no": null, "card4noAcc": null, "district2": 401, "searchScope": null, "status": 1, "address": "\u6210\u90fd\u5317\u8def568\u53f7", "name": "\u96f7\u5141\u4e0a \u51e4\u9633\u5e97", "id": 139111, "pageNo": 0, "pageCount": null, "pageSize": 10, "ids": null, "endTime": null, "startTime": null}, {"cardNumFive": null, "isSupportYj": null, "cityName": null, "districtName": null, "shopinfo": {"mid": "888888859120090", "good_flag": "1", "new_flag": "2", "short_name": "\u96f7\u5141\u4e0a", "short_name_pinyin": "leiyunshang", "status": null, "address": null, "name": null, "id": "32389"}, "mid": "888888859120090", "shopId": "32389", "netid": null, "province": 901, "district": 601, "zipcode": null, "telephone": "52205468", "posDate": "20080124", "destineTel": null, "togoTel": null, "trafficWay": "\u516c\u4ea4836 855 808", "signBuilding": null, "businessArea": "100\u5e73\u65b9\u7c73", "selfRoom": null, "businessTime": "8:00~22:00", "stall": null, "consume": null, "serviceFei": null, "favourable": null, "shopMemo": null, "appraise": null, "website": null, "memo": null, "payTypes": ",\u6749\u5fb7\u5361", "shopTypes": "\u836f\u5e97", "consumeTypes": null, "cookTypes": null, "orderNum": 1000, "card4no": null, "card4noAcc": null, "district2": 406, "searchScope": null, "status": 1, "address": "\u7518\u6eaa\u8def376\u53f7", "name": "\u96f7\u5141\u4e0a \u7518\u798f\u836f\u623f", "id": 139113, "pageNo": 0, "pageCount": null, "pageSize": 10, "ids": null, "endTime": null, "startTime": null}, {"cardNumFive": null, "isSupportYj": null, "cityName": null, "districtName": null, "shopinfo": {"mid": "888888859120022", "good_flag": "1", "new_flag": "2", "short_name": "\u96f7\u5141\u4e0a", "short_name_pinyin": "leiyunshang", "status": null, "address": null, "name": null, "id": "32377"}, "mid": "888888859120022", "shopId": "32377", "netid": null, "province": 901, "district": 601, "zipcode": null, "telephone": "64279013", "posDate": "20090116", "destineTel": null, "togoTel": null, "trafficWay": "\u516c\u4ea4210944741", "signBuilding": null, "businessArea": null, "selfRoom": null, "businessTime": null, "stall": null, "consume": null, "serviceFei": null, "favourable": null, "shopMemo": null, "appraise": null, "website": null, "memo": null, "payTypes": "\u6749\u5fb7\u5361", "shopTypes": "\u836f\u5e97", "consumeTypes": null, "cookTypes": null, "orderNum": 1000, "card4no": null, "card4noAcc": null, "district2": 410, "searchScope": null, "status": 1, "address": "\u5171\u548c\u65b0\u8def1945\u53f7", "name": "\u96f7\u5141\u4e0a \u5171\u548c\u65b0\u8def\u5e97", "id": 139114, "pageNo": 0, "pageCount": null, "pageSize": 10, "ids": null, "endTime": null, "startTime": null}, {"cardNumFive": null, "isSupportYj": null, "cityName": null, "districtName": null, "shopinfo": {"mid": "888002159121182", "good_flag": "1", "new_flag": "2", "short_name": "\u96f7\u5141\u4e0a", "short_name_pinyin": "leiyunshang", "status": null, "address": null, "name": null, "id": "32390"}, "mid": "888002159121182", "shopId": "32390", "netid": null, "province": 901, "district": 601, "zipcode": null, "telephone": "39813309", "posDate": "200911", "destineTel": null, "togoTel": null, "trafficWay": null, "signBuilding": null, "businessArea": null, "selfRoom": null, "businessTime": "9:30~21:30", "stall": null, "consume": null, "serviceFei": null, "favourable": null, "shopMemo": null, "appraise": null, "website": null, "memo": null, "payTypes": "\u6749\u5fb7\u5361", "shopTypes": "\u836f\u5e97", "consumeTypes": null, "cookTypes": null, "orderNum": 1000, "card4no": null, "card4noAcc": null, "district2": 417, "searchScope": null, "status": 1, "address": "\u5f90\u6cfe\u9547\u8bf8\u5149\u8def479\u53f7", "name": "\u96f7\u5141\u4e0a \u5149\u8054\u836f\u623f", "id": 139115, "pageNo": 0, "pageCount": null, "pageSize": 10, "ids": null, "endTime": null, "startTime": null}, {"cardNumFive": null, "isSupportYj": null, "cityName": null, "districtName": null, "shopinfo": {"mid": "888888859120022", "good_flag": "1", "new_flag": "2", "short_name": "\u96f7\u5141\u4e0a", "short_name_pinyin": "leiyunshang", "status": null, "address": null, "name": null, "id": "32377"}, "mid": "888888859120022", "shopId": "32377", "netid": null, "province": 901, "district": 601, "zipcode": "200124", "telephone": "68318256", "posDate": "20070312", "destineTel": "68318256", "togoTel": "68318256", "trafficWay": "\u516c\u4ea4973", "signBuilding": null, "businessArea": "100~200\u5e73\u7c73", "selfRoom": "\u65e0", "businessTime": null, "stall": "\u65e0", "consume": null, "serviceFei": null, "favourable": null, "shopMemo": null, "appraise": null, "website": null, "memo": null, "payTypes": "\u6749\u5fb7\u5361", "shopTypes": "\u836f\u5e97", "consumeTypes": null, "cookTypes": null, "orderNum": 1000, "card4no": null, "card4noAcc": null, "district2": 418, "searchScope": null, "status": 1, "address": "\u6d77\u9633\u8def622\u53f7", "name": "\u96f7\u5141\u4e0a \u6d77\u9633\u8def\u5e97", "id": 139116, "pageNo": 0, "pageCount": null, "pageSize": 10, "ids": null, "endTime": null, "startTime": null}, {"cardNumFive": null, "isSupportYj": null, "cityName": null, "districtName": null, "shopinfo": {"mid": "888888859120070", "good_flag": "1", "new_flag": "2", "short_name": "\u96f7\u5141\u4e0a", "short_name_pinyin": "leiyunshang", "status": null, "address": null, "name": null, "id": "32392"}, "mid": "888888859120070", "shopId": "32392", "netid": null, "province": 901, "district": 601, "zipcode": null, "telephone": null, "posDate": "20071114", "destineTel": null, "togoTel": null, "trafficWay": "\u516c\u4ea492B 748", "signBuilding": null, "businessArea": null, "selfRoom": null, "businessTime": null, "stall": null, "consume": null, "serviceFei": null, "favourable": null, "shopMemo": null, "appraise": null, "website": null, "memo": null, "payTypes": "\u6749\u5fb7\u5361", "shopTypes": "\u836f\u5e97", "consumeTypes": null, "cookTypes": null, "orderNum": 1000, "card4no": null, "card4noAcc": null, "district2": 412, "searchScope": null, "status": 1, "address": "\u4e5d\u4ead\u9547\u6d9e\u4ead\u5357\u8def688-690\u53f7", "name": "\u96f7\u5141\u4e0a \u7ea2\u8389\u836f\u623f", "id": 139118, "pageNo": 0, "pageCount": null, "pageSize": 10, "ids": null, "endTime": null, "startTime": null}], "pageLimit": 5860, "size": 10}