{"pageCount": 1095, "count": 10942, "pageNo": 586, "subShopInfo": {"cardNumFive": "", "isSupportYj": "", "cityName": null, "districtName": null, "shopinfo": {"mid": null, "good_flag": null, "new_flag": null, "short_name": null, "short_name_pinyin": null, "status": null, "address": "", "name": "", "id": null}, "mid": null, "shopId": null, "netid": null, "province": 901, "district": null, "zipcode": null, "telephone": null, "posDate": null, "destineTel": null, "togoTel": null, "trafficWay": null, "signBuilding": null, "businessArea": null, "selfRoom": null, "businessTime": null, "stall": null, "consume": null, "serviceFei": null, "favourable": null, "shopMemo": "1", "appraise": null, "website": null, "memo": null, "payTypes": "", "shopTypes": "", "consumeTypes": null, "cookTypes": null, "orderNum": null, "card4no": null, "card4noAcc": null, "district2": null, "searchScope": null, "status": null, "address": "", "name": null, "id": null, "pageNo": 585, "pageCount": null, "pageSize": 10, "ids": null, "endTime": null, "startTime": null}, "list": [{"cardNumFive": null, "isSupportYj": null, "cityName": null, "districtName": null, "shopinfo": {"mid": "888888859120102", "good_flag": "1", "new_flag": "2", "short_name": "\u96f7\u5141\u4e0a", "short_name_pinyin": "leiyunshang", "status": null, "address": null, "name": null, "id": "32372"}, "mid": "888888859120102", "shopId": "32372", "netid": null, "province": 901, "district": 601, "zipcode": null, "telephone": "50805440", "posDate": "20080515", "destineTel": null, "togoTel": null, "trafficWay": "\u5730\u94c1\u4e8c\u53f7\u7ebf", "signBuilding": "\u5730\u94c1\u5f20\u6c5f\u7ad9", "businessArea": "100\u5e73\u65b9\u7c73", "selfRoom": null, "businessTime": "8:00~21:00", "stall": "\u6709", "consume": null, "serviceFei": null, "favourable": null, "shopMemo": null, "appraise": null, "website": null, "memo": null, "payTypes": "\u6749\u5fb7\u5361", "shopTypes": "\u836f\u5e97", "consumeTypes": null, "cookTypes": null, "orderNum": 1000, "card4no": null, "card4noAcc": null, "district2": 418, "searchScope": null, "status": 1, "address": "\u5f20\u6c5f\u9ad8\u79d1\u6280\u56ed\u533a\u78a7\u6ce2\u8def63\u53f7103-1F18\u5ba4", "name": "\u96f7\u5141\u4e0a \u78a7\u6ce2\u8def\u5e97", "id": 139094, "pageNo": 0, "pageCount": null, "pageSize": 10, "ids": null, "endTime": null, "startTime": null}, {"cardNumFive": null, "isSupportYj": null, "cityName": null, "districtName": null, "shopinfo": {"mid": "888888859120058", "good_flag": "1", "new_flag": "2", "short_name": "\u96f7\u5141\u4e0a", "short_name_pinyin": "leiyunshang", "status": null, "address": null, "name": null, "id": "32373"}, "mid": "888888859120058", "shopId": "32373", "netid": null, "province": 901, "district": 601, "zipcode": null, "telephone": "54749800", "posDate": "20070921", "destineTel": null, "togoTel": null, "trafficWay": "\u7533\u95f5\u7ebf \u5f90\u95f5\u7ebf \u4e1c\u576a\u7ebf", "signBuilding": null, "businessArea": "80\u5e73\u65b9\u7c73", "selfRoom": null, "businessTime": "9:00~18:00", "stall": "\u6709", "consume": null, "serviceFei": null, "favourable": null, "shopMemo": null, "appraise": null, "website": null, "memo": null, "payTypes": "\u6749\u5fb7\u5361", "shopTypes": "\u836f\u5e97", "consumeTypes": null, "cookTypes": null, "orderNum": 1000, "card4no": null, "card4noAcc": null, "district2": 409, "searchScope": null, "status": 1, "address": "\u6ca7\u6e90\u8def625\u53f7", "name": "\u96f7\u5141\u4e0a \u6ca7\u6e90\u5e97", "id": 139095, "pageNo": 0, "pageCount": null, "pageSize": 10, "ids": null, "endTime": null, "startTime": null}, {"cardNumFive": null, "isSupportYj": null, "cityName": null, "districtName": null, "shopinfo": {"mid": "888888859120112", "good_flag": "1", "new_flag": "2", "short_name": "\u96f7\u5141\u4e0a", "short_name_pinyin": "leiyunshang", "status": null, "address": null, "name": null, "id": "32374"}, "mid": "888888859120112", "shopId": "32374", "netid": null, "province": 901, "district": 601, "zipcode": null, "telephone": "64598793", "posDate": "20080626", "destineTel": null, "togoTel": null, "trafficWay": "\u516c\u4ea4\u4e0a\u4f58\u7ebf\u3000\u5357\u4f58\u7ebf", "signBuilding": null, "businessArea": null, "selfRoom": null, "businessTime": null, "stall": null, "consume": null, "serviceFei": null, "favourable": null, "shopMemo": null, "appraise": null, "website": null, "memo": null, "payTypes": "\u6749\u5fb7\u5361", "shopTypes": "\u836f\u5e97", "consumeTypes": null, "cookTypes": null, "orderNum": 1000, "card4no": null, "card4noAcc": null, "district2": 409, "searchScope": null, "status": 1, "address": "\u6f15\u5b9d\u8def1565\u5f04\u7ea2\u660e\u4e00\u675140\u53f71-2\u5ba4", "name": "\u96f7\u5141\u4e0a \u6f15\u5b9d\u8def\u5e97", "id": 139096, "pageNo": 0, "pageCount": null, "pageSize": 10, "ids": null, "endTime": null, "startTime": null}, {"cardNumFive": null, "isSupportYj": null, "cityName": null, "districtName": null, "shopinfo": {"mid": "888888859120106", "good_flag": "1", "new_flag": "2", "short_name": "\u96f7\u5141\u4e0a", "short_name_pinyin": "leiyunshang", "status": null, "address": null, "name": null, "id": "32375"}, "mid": "888888859120106", "shopId": "32375", "netid": null, "province": 901, "district": 601, "zipcode": null, "telephone": "34140871", "posDate": "20080623", "destineTel": null, "togoTel": null, "trafficWay": "\u516c\u4ea4703", "signBuilding": null, "businessArea": "127\u5e73\u65b9\u7c73", "selfRoom": null, "businessTime": "8:00~20:00", "stall": "\u6709", "consume": null, "serviceFei": null, "favourable": null, "shopMemo": null, "appraise": null, "website": null, "memo": null, "payTypes": "\u6749\u5fb7\u5361", "shopTypes": "\u836f\u5e97", "consumeTypes": null, "cookTypes": null, "orderNum": 1000, "card4no": null, "card4noAcc": null, "district2": 403, "searchScope": null, "status": 1, "address": "\u51a0\u751f\u56ed\u8def242\u53f7", "name": "\u96f7\u5141\u4e0a \u6f15\u6cb3\u6cfe\u836f\u5e97", "id": 139097, "pageNo": 0, "pageCount": null, "pageSize": 10, "ids": null, "endTime": null, "startTime": null}, {"cardNumFive": null, "isSupportYj": null, "cityName": null, "districtName": null, "shopinfo": {"mid": "888888859120022", "good_flag": "1", "new_flag": "2", "short_name": "\u96f7\u5141\u4e0a", "short_name_pinyin": "leiyunshang", "status": null, "address": null, "name": null, "id": "32377"}, "mid": "888888859120022", "shopId": "32377", "netid": null, "province": 901, "district": 601, "zipcode": null, "telephone": "64279013", "posDate": "20080724", "destineTel": null, "togoTel": null, "trafficWay": "\u516c\u4ea4506 927 \u5730\u94c1\u4e00\u53f7\u7ebf", "signBuilding": null, "businessArea": null, "selfRoom": null, "businessTime": null, "stall": null, "consume": null, "serviceFei": null, "favourable": null, "shopMemo": null, "appraise": null, "website": null, "memo": null, "payTypes": "\u6749\u5fb7\u5361", "shopTypes": "\u836f\u5e97", "consumeTypes": null, "cookTypes": null, "orderNum": 1000, "card4no": null, "card4noAcc": null, "district2": 404, "searchScope": null, "status": 1, "address": "\u66f9\u5bb6\u6e21\u8857\u9053\u660c\u5e73\u8def105\u53f7104\u5ba4", "name": "\u96f7\u5141\u4e0a \u660c\u5e73\u8def\u5e97", "id": 139099, "pageNo": 0, "pageCount": null, "pageSize": 10, "ids": null, "endTime": null, "startTime": null}, {"cardNumFive": null, "isSupportYj": null, "cityName": null, "districtName": null, "shopinfo": {"mid": "888888859120020", "good_flag": "1", "new_flag": "2", "short_name": "\u96f7\u5141\u4e0a", "short_name_pinyin": "leiyunshang", "status": null, "address": null, "name": null, "id": "32378"}, "mid": "888888859120020", "shopId": "32378", "netid": null, "province": 901, "district": 601, "zipcode": "200081", "telephone": "65870538", "posDate": "20070209", "destineTel": "65870538", "togoTel": "65870538", "trafficWay": "\u65c5\u6e3810\u53f7\u7ebf 123", "signBuilding": null, "businessArea": "100~200\u5e73\u7c73", "selfRoom": "\u65e0", "businessTime": null, "stall": "\u65e0", "consume": null, "serviceFei": null, "favourable": null, "shopMemo": null, "appraise": null, "website": null, "memo": null, "payTypes": "\u6749\u5fb7\u5361", "shopTypes": "\u836f\u5e97", "consumeTypes": null, "cookTypes": null, "orderNum": 1000, "card4no": null, "card4noAcc": null, "district2": 408, "searchScope": null, "status": 1, "address": "\u957f\u6625\u8def146\u53f7\u5e95\u5c42", "name": "\u96f7\u5141\u4e0a \u957f\u6625\u8def\u5e97", "id": 139100, "pageNo": 0, "pageCount": null, "pageSize": 10, "ids": null, "endTime": null, "startTime": null}, {"cardNumFive": null, "isSupportYj": null, "cityName": null, "districtName": null, "shopinfo": {"mid": "888888859120155", "good_flag": "1", "new_flag": "2", "short_name": "\u96f7\u5141\u4e0a", "short_name_pinyin": "leiyunshang", "status": null, "address": null, "name": null, "id": "32379"}, "mid": "888888859120155", "shopId": "32379", "netid": null, "province": 901, "district": 601, "zipcode": null, "telephone": "67832222", "posDate": "200908", "destineTel": null, "togoTel": null, "trafficWay": "\u516c\u4ea4\u4e5d\u4ead\u4e8c\u8def\u5916\u73af\u3001\u677e\u9f99\u7ebf", "signBuilding": null, "businessArea": null, "selfRoom": null, "businessTime": null, "stall": null, "consume": null, "serviceFei": null, "favourable": null, "shopMemo": null, "appraise": null, "website": null, "memo": null, "payTypes": "\u6749\u5fb7\u5361", "shopTypes": "\u836f\u5e97", "consumeTypes": null, "cookTypes": null, "orderNum": 1000, "card4no": null, "card4noAcc": null, "district2": 412, "searchScope": null, "status": 1, "address": "\u4e5d\u4ead\u9547\u540c\u5229\u8def171\u53f7", "name": "\u96f7\u5141\u4e0a \u8bda\u7136\u5e97", "id": 139101, "pageNo": 0, "pageCount": null, "pageSize": 10, "ids": null, "endTime": null, "startTime": null}, {"cardNumFive": null, "isSupportYj": null, "cityName": null, "districtName": null, "shopinfo": {"mid": "888888859120058", "good_flag": "1", "new_flag": "2", "short_name": "\u96f7\u5141\u4e0a", "short_name_pinyin": "leiyunshang", "status": null, "address": null, "name": null, "id": "32373"}, "mid": "888888859120058", "shopId": "32373", "netid": null, "province": 901, "district": 601, "zipcode": null, "telephone": "54221381", "posDate": "20080911", "destineTel": null, "togoTel": null, "trafficWay": "\u516c\u4ea4925 936 721", "signBuilding": null, "businessArea": null, "selfRoom": null, "businessTime": null, "stall": null, "consume": null, "serviceFei": null, "favourable": null, "shopMemo": null, "appraise": null, "website": null, "memo": null, "payTypes": "\u6749\u5fb7\u5361", "shopTypes": "\u836f\u5e97", "consumeTypes": null, "cookTypes": null, "orderNum": 1000, "card4no": null, "card4noAcc": null, "district2": 409, "searchScope": null, "status": 1, "address": "\u7a0b\u5bb6\u6865\u8def267-11\u53f7", "name": "\u96f7\u5141\u4e0a \u7a0b\u5bb6\u6865\u8def\u5e97", "id": 139102, "pageNo": 0, "pageCount": null, "pageSize": 10, "ids": null, "endTime": null, "startTime": null}, {"cardNumFive": null, "isSupportYj": null, "cityName": null, "districtName": null, "shopinfo": {"mid": "888888859120016", "good_flag": "1", "new_flag": "2", "short_name": "\u96f7\u5141\u4e0a", "short_name_pinyin": "leiyunshang", "status": null, "address": null, "name": null, "id": "32380"}, "mid": "888888859120016", "shopId": "32380", "netid": null, "province": 901, "district": 601, "zipcode": "200092", "telephone": "65558990", "posDate": "20061204", "destineTel": "65558990", "togoTel": "65558990", "trafficWay": "\u5730\u94c1", "signBuilding": null, "businessArea": "100~200\u5e73\u7c73", "selfRoom": "\u65e0", "businessTime": null, "stall": "\u65e0", "consume": null, "serviceFei": null, "favourable": null, "shopMemo": null, "appraise": null, "website": null, "memo": null, "payTypes": "\u6749\u5fb7\u5361", "shopTypes": "\u836f\u5e97", "consumeTypes": null, "cookTypes": null, "orderNum": 1000, "card4no": null, "card4noAcc": null, "district2": 408, "searchScope": null, "status": 1, "address": "\u8d64\u5cf0\u8def358\u53f7", "name": "\u96f7\u5141\u4e0a \u8d64\u5cf0\u8def\u5e97", "id": 139103, "pageNo": 0, "pageCount": null, "pageSize": 10, "ids": null, "endTime": null, "startTime": null}, {"cardNumFive": null, "isSupportYj": null, "cityName": null, "districtName": null, "shopinfo": {"mid": "888002159121205", "good_flag": "2", "new_flag": "1", "short_name": "\u96f7\u5141\u4e0a", "short_name_pinyin": "leiyunshang", "status": null, "address": null, "name": null, "id": "32383"}, "mid": "888002159121205", "shopId": "32383", "netid": null, "province": 901, "district": 601, "zipcode": null, "telephone": null, "posDate": "20100223", "destineTel": null, "togoTel": null, "trafficWay": null, "signBuilding": null, "businessArea": null, "selfRoom": null, "businessTime": null, "stall": null, "consume": null, "serviceFei": null, "favourable": null, "shopMemo": null, "appraise": null, "website": null, "memo": null, "payTypes": "\u6749\u5fb7\u5361", "shopTypes": "\u836f\u5e97", "consumeTypes": null, "cookTypes": null, "orderNum": 1000, "card4no": null, "card4noAcc": null, "district2": 418, "searchScope": null, "status": 1, "address": "\u6d66\u4e1c\u65b0\u533a\u6816\u5c71\u8def1913\u53f7\u4e00\u5c42", "name": "\u96f7\u5141\u4e0a \u6148\u5065\u5e97", "id": 139106, "pageNo": 0, "pageCount": null, "pageSize": 10, "ids": null, "endTime": null, "startTime": null}], "pageLimit": 5850, "size": 10}