{"pageCount": 1095, "count": 10942, "pageNo": 589, "subShopInfo": {"cardNumFive": "", "isSupportYj": "", "cityName": null, "districtName": null, "shopinfo": {"mid": null, "good_flag": null, "new_flag": null, "short_name": null, "short_name_pinyin": null, "status": null, "address": "", "name": "", "id": null}, "mid": null, "shopId": null, "netid": null, "province": 901, "district": null, "zipcode": null, "telephone": null, "posDate": null, "destineTel": null, "togoTel": null, "trafficWay": null, "signBuilding": null, "businessArea": null, "selfRoom": null, "businessTime": null, "stall": null, "consume": null, "serviceFei": null, "favourable": null, "shopMemo": "1", "appraise": null, "website": null, "memo": null, "payTypes": "", "shopTypes": "", "consumeTypes": null, "cookTypes": null, "orderNum": null, "card4no": null, "card4noAcc": null, "district2": null, "searchScope": null, "status": null, "address": "", "name": null, "id": null, "pageNo": 588, "pageCount": null, "pageSize": 10, "ids": null, "endTime": null, "startTime": null}, "list": [{"cardNumFive": null, "isSupportYj": null, "cityName": null, "districtName": null, "shopinfo": {"mid": "888888859120074", "good_flag": "1", "new_flag": "2", "short_name": "\u96f7\u5141\u4e0a", "short_name_pinyin": "leiyunshang", "status": null, "address": null, "name": null, "id": "32401"}, "mid": "888888859120074", "shopId": "32401", "netid": null, "province": 901, "district": 601, "zipcode": null, "telephone": "57969439", "posDate": "20071204", "destineTel": null, "togoTel": null, "trafficWay": "\u536b\u6885\u7ebf \u83b2\u77f3\u4e13\u7ebf", "signBuilding": null, "businessArea": "100\u5e73\u65b9\u7c73", "selfRoom": null, "businessTime": "8:00~22:00", "stall": null, "consume": "80\u5143", "serviceFei": null, "favourable": null, "shopMemo": null, "appraise": null, "website": null, "memo": null, "payTypes": "\u6749\u5fb7\u5361", "shopTypes": "\u836f\u5e97", "consumeTypes": null, "cookTypes": null, "orderNum": 1000, "card4no": null, "card4noAcc": null, "district2": 414, "searchScope": null, "status": 1, "address": "\u536b\u6e05\u897f\u8def1019\u53f7", "name": "\u96f7\u5141\u4e0a \u91d1\u9a6c\u836f\u623f", "id": 139133, "pageNo": 0, "pageCount": null, "pageSize": 10, "ids": null, "endTime": null, "startTime": null}, {"cardNumFive": null, "isSupportYj": null, "cityName": null, "districtName": null, "shopinfo": {"mid": "888888859120178", "good_flag": "1", "new_flag": "2", "short_name": "\u96f7\u5141\u4e0a", "short_name_pinyin": "leiyunshang", "status": null, "address": null, "name": null, "id": "32402"}, "mid": "888888859120178", "shopId": "32402", "netid": null, "province": 901, "district": 601, "zipcode": null, "telephone": "50753366", "posDate": null, "destineTel": null, "togoTel": null, "trafficWay": "977\u3001783\u3001630", "signBuilding": null, "businessArea": null, "selfRoom": null, "businessTime": null, "stall": null, "consume": null, "serviceFei": null, "favourable": null, "shopMemo": null, "appraise": null, "website": null, "memo": null, "payTypes": "\u6749\u5fb7\u5361", "shopTypes": "\u836f\u5e97", "consumeTypes": null, "cookTypes": null, "orderNum": 1000, "card4no": null, "card4noAcc": null, "district2": 418, "searchScope": null, "status": 1, "address": "\u67a3\u5e84\u8def644\u53f7", "name": "\u96f7\u5141\u4e0a \u91d1\u6768\u836f\u5e97", "id": 139134, "pageNo": 0, "pageCount": null, "pageSize": 10, "ids": null, "endTime": null, "startTime": null}, {"cardNumFive": null, "isSupportYj": null, "cityName": null, "districtName": null, "shopinfo": {"mid": "888888859120080", "good_flag": "1", "new_flag": "2", "short_name": "\u96f7\u5141\u4e0a", "short_name_pinyin": "leiyunshang", "status": null, "address": null, "name": null, "id": "32403"}, "mid": "888888859120080", "shopId": "32403", "netid": null, "province": 901, "district": 601, "zipcode": null, "telephone": "54294603", "posDate": "20080103", "destineTel": null, "togoTel": null, "trafficWay": "\u516c\u4ea4735 957 703B 152", "signBuilding": null, "businessArea": "80\u5e73\u65b9\u7c73", "selfRoom": null, "businessTime": "7:30~22:00", "stall": "\u65e0", "consume": null, "serviceFei": null, "favourable": null, "shopMemo": null, "appraise": null, "website": null, "memo": null, "payTypes": "\u6749\u5fb7\u5361", "shopTypes": "\u836f\u5e97", "consumeTypes": null, "cookTypes": null, "orderNum": 1000, "card4no": null, "card4noAcc": null, "district2": 409, "searchScope": null, "status": 1, "address": "\u7f57\u9633\u8def568\u5f0453\u53f7\u5e95\u5c42101\u5ba4", "name": "\u96f7\u5141\u4e0a \u9526\u798f\u836f\u5e97", "id": 139135, "pageNo": 0, "pageCount": null, "pageSize": 10, "ids": null, "endTime": null, "startTime": null}, {"cardNumFive": null, "isSupportYj": null, "cityName": null, "districtName": null, "shopinfo": {"mid": "888888859120063", "good_flag": "1", "new_flag": "2", "short_name": "\u96f7\u5141\u4e0a", "short_name_pinyin": "leiyunshang", "status": null, "address": null, "name": null, "id": "32404"}, "mid": "888888859120063", "shopId": "32404", "netid": null, "province": 901, "district": 601, "zipcode": null, "telephone": "68920799", "posDate": "20071009", "destineTel": null, "togoTel": null, "trafficWay": "\u516c\u4ea4715 992 \u5f90\u5ddd\u7ebf", "signBuilding": null, "businessArea": "55\u5e73\u65b9\u7c73", "selfRoom": null, "businessTime": "8:00~22:00", "stall": "\u6709", "consume": null, "serviceFei": null, "favourable": null, "shopMemo": null, "appraise": null, "website": null, "memo": null, "payTypes": "\u6749\u5fb7\u5361", "shopTypes": "\u836f\u5e97", "consumeTypes": null, "cookTypes": null, "orderNum": 1000, "card4no": null, "card4noAcc": null, "district2": 418, "searchScope": null, "status": 1, "address": "\u83b2\u56ed\u8def172-174\u53f7", "name": "\u96f7\u5141\u4e0a \u9526\u7ee3\u836f\u623f", "id": 139136, "pageNo": 0, "pageCount": null, "pageSize": 10, "ids": null, "endTime": null, "startTime": null}, {"cardNumFive": null, "isSupportYj": null, "cityName": null, "districtName": null, "shopinfo": {"mid": "888888859120022", "good_flag": "1", "new_flag": "2", "short_name": "\u96f7\u5141\u4e0a", "short_name_pinyin": "leiyunshang", "status": null, "address": null, "name": null, "id": "32377"}, "mid": "888888859120022", "shopId": "32377", "netid": null, "province": 901, "district": 601, "zipcode": null, "telephone": "34020587", "posDate": "20080115", "destineTel": null, "togoTel": null, "trafficWay": "\u4e1c\u576a\u7ebf \u5f90\u95f5\u7ebf", "signBuilding": null, "businessArea": null, "selfRoom": null, "businessTime": null, "stall": null, "consume": null, "serviceFei": null, "favourable": null, "shopMemo": null, "appraise": null, "website": null, "memo": null, "payTypes": "\u6749\u5fb7\u5361", "shopTypes": "\u836f\u5e97", "consumeTypes": null, "cookTypes": null, "orderNum": 1000, "card4no": null, "card4noAcc": null, "district2": 409, "searchScope": null, "status": 1, "address": "\u5170\u576a\u8def130\u53f7", "name": "\u96f7\u5141\u4e0a \u5170\u576a\u5e97", "id": 139138, "pageNo": 0, "pageCount": null, "pageSize": 10, "ids": null, "endTime": null, "startTime": null}, {"cardNumFive": null, "isSupportYj": null, "cityName": null, "districtName": null, "shopinfo": {"mid": "888888859120022", "good_flag": "1", "new_flag": "2", "short_name": "\u96f7\u5141\u4e0a", "short_name_pinyin": "leiyunshang", "status": null, "address": null, "name": null, "id": "32377"}, "mid": "888888859120022", "shopId": "32377", "netid": null, "province": 901, "district": 601, "zipcode": null, "telephone": "64805353", "posDate": "20070802", "destineTel": null, "togoTel": null, "trafficWay": "\u516c\u4ea4704 703 122", "signBuilding": null, "businessArea": null, "selfRoom": null, "businessTime": null, "stall": null, "consume": null, "serviceFei": null, "favourable": null, "shopMemo": null, "appraise": null, "website": null, "memo": null, "payTypes": "\u6749\u5fb7\u5361", "shopTypes": "\u836f\u5e97", "consumeTypes": null, "cookTypes": null, "orderNum": 1000, "card4no": null, "card4noAcc": null, "district2": 409, "searchScope": null, "status": 1, "address": "\u83b2\u82b1\u8def211\u53f7", "name": "\u96f7\u5141\u4e0a \u83b2\u82b1\u8def\u5e97", "id": 139139, "pageNo": 0, "pageCount": null, "pageSize": 10, "ids": null, "endTime": null, "startTime": null}, {"cardNumFive": null, "isSupportYj": null, "cityName": null, "districtName": null, "shopinfo": {"mid": "888888859120066", "good_flag": "1", "new_flag": "2", "short_name": "\u96f7\u5141\u4e0a", "short_name_pinyin": "leiyunshang", "status": null, "address": null, "name": null, "id": "32386"}, "mid": "888888859120066", "shopId": "32386", "netid": null, "province": 901, "district": 601, "zipcode": null, "telephone": "54432474", "posDate": "20071011", "destineTel": null, "togoTel": null, "trafficWay": "\u516c\u4ea4978", "signBuilding": null, "businessArea": "80\u5e73\u65b9\u7c73", "selfRoom": null, "businessTime": "7:00~21:00", "stall": null, "consume": null, "serviceFei": null, "favourable": null, "shopMemo": null, "appraise": null, "website": null, "memo": null, "payTypes": "\u6749\u5fb7\u5361", "shopTypes": "\u836f\u5e97", "consumeTypes": null, "cookTypes": null, "orderNum": 1000, "card4no": null, "card4noAcc": null, "district2": 418, "searchScope": null, "status": 1, "address": "\u6797\u6d66\u8def693\u53f7", "name": "\u96f7\u5141\u4e0a \u6797\u6d66\u8def\u5e97", "id": 139141, "pageNo": 0, "pageCount": null, "pageSize": 10, "ids": null, "endTime": null, "startTime": null}, {"cardNumFive": null, "isSupportYj": null, "cityName": null, "districtName": null, "shopinfo": {"mid": "888888859120072", "good_flag": "1", "new_flag": "2", "short_name": "\u96f7\u5141\u4e0a", "short_name_pinyin": "leiyunshang", "status": null, "address": null, "name": null, "id": "32385"}, "mid": "888888859120072", "shopId": "32385", "netid": null, "province": 901, "district": 601, "zipcode": null, "telephone": null, "posDate": "20080331", "destineTel": null, "togoTel": null, "trafficWay": "\u516c\u4ea4963 \u5317\u534e\u7ebf", "signBuilding": null, "businessArea": null, "selfRoom": null, "businessTime": null, "stall": null, "consume": null, "serviceFei": null, "favourable": null, "shopMemo": null, "appraise": null, "website": null, "memo": null, "payTypes": "\u6749\u5fb7\u5361", "shopTypes": "\u836f\u5e97", "consumeTypes": null, "cookTypes": null, "orderNum": 1000, "card4no": null, "card4noAcc": null, "district2": 416, "searchScope": null, "status": 1, "address": "\u5b9d\u5b89\u516c\u8def1459\u53f7", "name": "\u96f7\u5141\u4e0a \u5218\u884c\u5e97", "id": 139142, "pageNo": 0, "pageCount": null, "pageSize": 10, "ids": null, "endTime": null, "startTime": null}, {"cardNumFive": null, "isSupportYj": null, "cityName": null, "districtName": null, "shopinfo": {"mid": "888888859120200", "good_flag": "1", "new_flag": "2", "short_name": "\u96f7\u5141\u4e0a", "short_name_pinyin": "leiyunshang", "status": null, "address": null, "name": null, "id": "32409"}, "mid": "888888859120200", "shopId": "32409", "netid": null, "province": 901, "district": 601, "zipcode": null, "telephone": "13817764367\u300154303915", "posDate": "200909", "destineTel": null, "togoTel": null, "trafficWay": "\u516c\u4ea4\u5730\u94c1\u4e00\u53f7\u7ebf\u3001804", "signBuilding": null, "businessArea": null, "selfRoom": null, "businessTime": null, "stall": null, "consume": null, "serviceFei": null, "favourable": null, "shopMemo": null, "appraise": null, "website": null, "memo": null, "payTypes": "\u6749\u5fb7\u5361", "shopTypes": "\u836f\u5e97", "consumeTypes": null, "cookTypes": null, "orderNum": 1000, "card4no": null, "card4noAcc": null, "district2": 403, "searchScope": null, "status": 1, "address": "\u8679\u6885\u5357\u8def128\u53f71\u5e62\uff08A\uff0901-02\u5ba4", "name": "\u96f7\u5141\u4e0a \u5362\u8679\u5e97", "id": 139146, "pageNo": 0, "pageCount": null, "pageSize": 10, "ids": null, "endTime": null, "startTime": null}, {"cardNumFive": null, "isSupportYj": null, "cityName": null, "districtName": null, "shopinfo": {"mid": "888888859120048", "good_flag": "1", "new_flag": "2", "short_name": "\u96f7\u5141\u4e0a", "short_name_pinyin": "leiyunshang", "status": null, "address": null, "name": null, "id": "32410"}, "mid": "888888859120048", "shopId": "32410", "netid": null, "province": 901, "district": 601, "zipcode": null, "telephone": "61073351", "posDate": "20070723", "destineTel": null, "togoTel": null, "trafficWay": "\u516c\u4ea4921 20 18 451 \u96a7\u9053\u4e09\u7ebf", "signBuilding": "\u4e16\u8302\u56fd\u9645\u5e7f\u573a \u548c\u5e73\u5f71\u9662", "businessArea": "200\u5e73\u65b9\u7c73", "selfRoom": null, "businessTime": "24\u5c0f\u65f6", "stall": "\u65e0", "consume": "100\u5143", "serviceFei": null, "favourable": null, "shopMemo": null, "appraise": null, "website": null, "memo": null, "payTypes": "\u6749\u5fb7\u5361", "shopTypes": "\u836f\u5e97", "consumeTypes": null, "cookTypes": null, "orderNum": 1000, "card4no": null, "card4noAcc": null, "district2": 416, "searchScope": null, "status": 1, "address": "\u6db5\u9752\u8def91\u53f7", "name": "\u96f7\u5141\u4e0a \u6e0c\u6d32\u5927\u836f\u623f", "id": 139147, "pageNo": 0, "pageCount": null, "pageSize": 10, "ids": null, "endTime": null, "startTime": null}], "pageLimit": 5880, "size": 10}