{"pageCount": 1095, "count": 10942, "pageNo": 580, "subShopInfo": {"cardNumFive": "", "isSupportYj": "", "cityName": null, "districtName": null, "shopinfo": {"mid": null, "good_flag": null, "new_flag": null, "short_name": null, "short_name_pinyin": null, "status": null, "address": "", "name": "", "id": null}, "mid": null, "shopId": null, "netid": null, "province": 901, "district": null, "zipcode": null, "telephone": null, "posDate": null, "destineTel": null, "togoTel": null, "trafficWay": null, "signBuilding": null, "businessArea": null, "selfRoom": null, "businessTime": null, "stall": null, "consume": null, "serviceFei": null, "favourable": null, "shopMemo": "1", "appraise": null, "website": null, "memo": null, "payTypes": "", "shopTypes": "", "consumeTypes": null, "cookTypes": null, "orderNum": null, "card4no": null, "card4noAcc": null, "district2": null, "searchScope": null, "status": null, "address": "", "name": null, "id": null, "pageNo": 579, "pageCount": null, "pageSize": 10, "ids": null, "endTime": null, "startTime": null}, "list": [{"cardNumFive": null, "isSupportYj": null, "cityName": null, "districtName": null, "shopinfo": {"mid": "888002158122283", "good_flag": null, "new_flag": null, "short_name": "\u8001\u4e30\u9601\u54c1\u73cd\u8f69", "short_name_pinyin": "laofenggepinzhenxuan", "status": null, "address": null, "name": null, "id": "39688"}, "mid": "888002158122283", "shopId": "39688", "netid": null, "province": 901, "district": 601, "zipcode": null, "telephone": "63610877", "posDate": null, "destineTel": null, "togoTel": null, "trafficWay": null, "signBuilding": null, "businessArea": null, "selfRoom": null, "businessTime": null, "stall": null, "consume": null, "serviceFei": null, "favourable": null, "shopMemo": null, "appraise": null, "website": null, "memo": null, "payTypes": "\u6749\u5fb7\u5361", "shopTypes": "\u9910\u996e", "consumeTypes": null, "cookTypes": null, "orderNum": 1000, "card4no": null, "card4noAcc": null, "district2": 401, "searchScope": null, "status": 1, "address": "\u4e5d\u6c5f\u8def595\u53f72\u697c", "name": "\u8001\u4e30\u9601\u54c1\u73cd\u8f69 \u53e4\u8c61\u5e97", "id": 170128, "pageNo": 0, "pageCount": null, "pageSize": 10, "ids": null, "endTime": null, "startTime": null}, {"cardNumFive": null, "isSupportYj": null, "cityName": null, "districtName": null, "shopinfo": {"mid": "888002158120125", "good_flag": null, "new_flag": null, "short_name": "\u8001\u4e30\u9601\u54c1\u73cd\u8f69", "short_name_pinyin": "laofenggepinzhenxuan", "status": null, "address": null, "name": null, "id": "39689"}, "mid": "888002158120125", "shopId": "39689", "netid": null, "province": 901, "district": 601, "zipcode": null, "telephone": "66975688", "posDate": null, "destineTel": null, "togoTel": null, "trafficWay": null, "signBuilding": null, "businessArea": null, "selfRoom": null, "businessTime": null, "stall": null, "consume": null, "serviceFei": null, "favourable": null, "shopMemo": null, "appraise": null, "website": null, "memo": null, "payTypes": "\u6749\u5fb7\u5361", "shopTypes": "\u9910\u996e", "consumeTypes": null, "cookTypes": null, "orderNum": 1000, "card4no": null, "card4noAcc": null, "district2": 410, "searchScope": null, "status": 1, "address": "\u9633\u66f2\u8def456\u53f7", "name": "\u8001\u4e30\u9601\u54c1\u73cd\u8f69 \u9633\u66f2\u5e97", "id": 170129, "pageNo": 0, "pageCount": null, "pageSize": 10, "ids": null, "endTime": null, "startTime": null}, {"cardNumFive": null, "isSupportYj": null, "cityName": null, "districtName": null, "shopinfo": {"mid": "888002158120125", "good_flag": null, "new_flag": null, "short_name": "\u8001\u4e30\u9601\u54c1\u73cd\u8f69", "short_name_pinyin": "laofenggepinzhenxuan", "status": null, "address": null, "name": null, "id": "39689"}, "mid": "888002158120125", "shopId": "39689", "netid": null, "province": 901, "district": 601, "zipcode": null, "telephone": "63751266", "posDate": null, "destineTel": null, "togoTel": null, "trafficWay": null, "signBuilding": null, "businessArea": null, "selfRoom": null, "businessTime": null, "stall": null, "consume": null, "serviceFei": null, "favourable": null, "shopMemo": null, "appraise": null, "website": null, "memo": null, "payTypes": "\u6749\u5fb7\u5361", "shopTypes": "\u9910\u996e", "consumeTypes": null, "cookTypes": null, "orderNum": 1000, "card4no": null, "card4noAcc": null, "district2": 404, "searchScope": null, "status": 1, "address": "\u5357\u4eac\u897f\u8def388\u53f76-7\u697c", "name": "\u8001\u4e30\u9601\u54c1\u73cd\u8f69 \u4ed9\u4e50\u65af\u5e97", "id": 170130, "pageNo": 0, "pageCount": null, "pageSize": 10, "ids": null, "endTime": null, "startTime": null}, {"cardNumFive": null, "isSupportYj": null, "cityName": null, "districtName": null, "shopinfo": {"mid": "888888850940017", "good_flag": "1", "new_flag": "2", "short_name": "\u8001\u51e4\u7965", "short_name_pinyin": "laofengxiang", "status": null, "address": null, "name": null, "id": "32342"}, "mid": "888888850940017", "shopId": "32342", "netid": null, "province": 901, "district": 601, "zipcode": null, "telephone": "63670109*8001", "posDate": null, "destineTel": null, "togoTel": null, "trafficWay": "912 134 597", "signBuilding": null, "businessArea": "80~100\u5e73\u65b9\u7c73", "selfRoom": null, "businessTime": null, "stall": null, "consume": null, "serviceFei": null, "favourable": null, "shopMemo": null, "appraise": null, "website": null, "memo": null, "payTypes": "\u6749\u5fb7\u5361", "shopTypes": "\u4e13\u5356", "consumeTypes": null, "cookTypes": null, "orderNum": 1000, "card4no": null, "card4noAcc": null, "district2": 418, "searchScope": null, "status": 1, "address": "\u4fdd\u5fb7\u8def88\u53f7", "name": "\u8001\u51e4\u7965 \u4fdd\u5fb7\u5e97", "id": 139016, "pageNo": 0, "pageCount": null, "pageSize": 10, "ids": null, "endTime": null, "startTime": null}, {"cardNumFive": null, "isSupportYj": null, "cityName": null, "districtName": null, "shopinfo": {"mid": "888888850940017", "good_flag": "1", "new_flag": "2", "short_name": "\u8001\u51e4\u7965", "short_name_pinyin": "laofengxiang", "status": null, "address": null, "name": null, "id": "32342"}, "mid": "888888850940017", "shopId": "32342", "netid": null, "province": 901, "district": 601, "zipcode": null, "telephone": "33873859", "posDate": null, "destineTel": null, "togoTel": null, "trafficWay": "\u5730\u94c11\u53f7\u7ebf 916", "signBuilding": null, "businessArea": "80~100\u5e73\u65b9\u7c73", "selfRoom": null, "businessTime": null, "stall": null, "consume": null, "serviceFei": null, "favourable": null, "shopMemo": null, "appraise": null, "website": null, "memo": null, "payTypes": "\u6749\u5fb7\u5361", "shopTypes": "\u4e13\u5356", "consumeTypes": null, "cookTypes": null, "orderNum": 1000, "card4no": null, "card4noAcc": null, "district2": 416, "searchScope": null, "status": 1, "address": "\u957f\u6c5f\u897f\u8def2211\u53f7", "name": "\u8001\u51e4\u7965 \u957f\u6c5f\u5e97", "id": 139017, "pageNo": 0, "pageCount": null, "pageSize": 10, "ids": null, "endTime": null, "startTime": null}, {"cardNumFive": null, "isSupportYj": null, "cityName": null, "districtName": null, "shopinfo": {"mid": "888002150940077", "good_flag": "2", "new_flag": "1", "short_name": "\u8001\u51e4\u7965", "short_name_pinyin": "laofengxiang", "status": null, "address": null, "name": null, "id": "32343"}, "mid": "888002150940077", "shopId": "32343", "netid": null, "province": 901, "district": 601, "zipcode": null, "telephone": "63283157", "posDate": "20100223", "destineTel": null, "togoTel": null, "trafficWay": null, "signBuilding": null, "businessArea": null, "selfRoom": null, "businessTime": "10:00~22:00", "stall": null, "consume": null, "serviceFei": null, "favourable": null, "shopMemo": null, "appraise": null, "website": null, "memo": null, "payTypes": "\u6749\u5fb7\u5361", "shopTypes": "\u4e13\u5356", "consumeTypes": null, "cookTypes": null, "orderNum": 1000, "card4no": null, "card4noAcc": null, "district2": 401, "searchScope": null, "status": 1, "address": "\u798f\u4f51\u8def239\u53f7", "name": "\u8001\u51e4\u7965 \u57ce\u968d\u5e99\u5e97", "id": 139018, "pageNo": 0, "pageCount": null, "pageSize": 10, "ids": null, "endTime": null, "startTime": null}, {"cardNumFive": null, "isSupportYj": null, "cityName": null, "districtName": null, "shopinfo": {"mid": "888002150940078", "good_flag": "2", "new_flag": "1", "short_name": "\u8001\u51e4\u7965", "short_name_pinyin": "laofengxiang", "status": null, "address": null, "name": null, "id": "32347"}, "mid": "888002150940078", "shopId": "32347", "netid": null, "province": 901, "district": 601, "zipcode": null, "telephone": "66347860", "posDate": "20100223", "destineTel": null, "togoTel": null, "trafficWay": null, "signBuilding": null, "businessArea": null, "selfRoom": null, "businessTime": "10:00~14;00 17;00~22;00", "stall": null, "consume": null, "serviceFei": null, "favourable": null, "shopMemo": null, "appraise": null, "website": null, "memo": null, "payTypes": "\u6749\u5fb7\u5361", "shopTypes": "\u4e13\u5356", "consumeTypes": null, "cookTypes": null, "orderNum": 1000, "card4no": null, "card4noAcc": null, "district2": 410, "searchScope": null, "status": 1, "address": "\u6caa\u592a\u8def1600\u53f7", "name": "\u8001\u51e4\u7965 \u6caa\u592a\u8def\u5e97", "id": 139024, "pageNo": 0, "pageCount": null, "pageSize": 10, "ids": null, "endTime": null, "startTime": null}, {"cardNumFive": null, "isSupportYj": null, "cityName": null, "districtName": null, "shopinfo": {"mid": "888888850940017", "good_flag": "1", "new_flag": "2", "short_name": "\u8001\u51e4\u7965", "short_name_pinyin": "laofengxiang", "status": null, "address": null, "name": null, "id": "32342"}, "mid": "888888850940017", "shopId": "32342", "netid": null, "province": 901, "district": 601, "zipcode": null, "telephone": "63670109*8001", "posDate": null, "destineTel": null, "togoTel": null, "trafficWay": "783 843 \u6cf0\u9ad8\u7ebf", "signBuilding": null, "businessArea": "80~100\u5e73\u65b9\u7c73", "selfRoom": null, "businessTime": null, "stall": null, "consume": null, "serviceFei": null, "favourable": null, "shopMemo": null, "appraise": null, "website": null, "memo": null, "payTypes": "\u6749\u5fb7\u5361", "shopTypes": "\u4e13\u5356", "consumeTypes": null, "cookTypes": null, "orderNum": 1000, "card4no": null, "card4noAcc": null, "district2": 418, "searchScope": null, "status": 1, "address": "\u91d1\u9ad8\u8def1256\u53f7", "name": "\u8001\u51e4\u7965 \u91d1\u9ad8\u5e97", "id": 139025, "pageNo": 0, "pageCount": null, "pageSize": 10, "ids": null, "endTime": null, "startTime": null}, {"cardNumFive": null, "isSupportYj": null, "cityName": null, "districtName": null, "shopinfo": {"mid": "888888850940017", "good_flag": "1", "new_flag": "2", "short_name": "\u8001\u51e4\u7965", "short_name_pinyin": "laofengxiang", "status": null, "address": null, "name": null, "id": "32342"}, "mid": "888888850940017", "shopId": "32342", "netid": null, "province": 901, "district": 601, "zipcode": null, "telephone": "63670109*8001", "posDate": null, "destineTel": null, "togoTel": null, "trafficWay": "47 17 573", "signBuilding": null, "businessArea": "80~100\u5e73\u65b9\u7c73", "selfRoom": null, "businessTime": "8:30~21:30", "stall": null, "consume": null, "serviceFei": null, "favourable": null, "shopMemo": null, "appraise": null, "website": null, "memo": null, "payTypes": "\u6749\u5fb7\u5361", "shopTypes": "\u4e13\u5356", "consumeTypes": null, "cookTypes": null, "orderNum": 1000, "card4no": null, "card4noAcc": null, "district2": 408, "searchScope": null, "status": 1, "address": "\u66f2\u9633\u8def800\u53f7", "name": "\u8001\u51e4\u7965 \u66f2\u9633\u5e97", "id": 139028, "pageNo": 0, "pageCount": null, "pageSize": 10, "ids": null, "endTime": null, "startTime": null}, {"cardNumFive": null, "isSupportYj": null, "cityName": null, "districtName": null, "shopinfo": {"mid": "888888850940017", "good_flag": "1", "new_flag": "2", "short_name": "\u8001\u51e4\u7965", "short_name_pinyin": "laofengxiang", "status": null, "address": null, "name": null, "id": "32342"}, "mid": "888888850940017", "shopId": "32342", "netid": null, "province": 901, "district": 601, "zipcode": null, "telephone": "63670109*8001", "posDate": null, "destineTel": null, "togoTel": null, "trafficWay": "980 978 \u6caa\u71ce\u7ebf", "signBuilding": null, "businessArea": "80~100\u5e73\u65b9\u7c73", "selfRoom": null, "businessTime": "8:30~21:30", "stall": null, "consume": null, "serviceFei": null, "favourable": null, "shopMemo": null, "appraise": null, "website": null, "memo": null, "payTypes": "\u6749\u5fb7\u5361", "shopTypes": "\u4e13\u5356", "consumeTypes": null, "cookTypes": null, "orderNum": 1000, "card4no": null, "card4noAcc": null, "district2": 418, "searchScope": null, "status": 1, "address": "\u4e0a\u5357\u8def3521\u53f7", "name": "\u8001\u51e4\u7965 \u4e0a\u5357\u5e97", "id": 139029, "pageNo": 0, "pageCount": null, "pageSize": 10, "ids": null, "endTime": null, "startTime": null}], "pageLimit": 5790, "size": 10}