{"pageCount": 1095, "count": 10942, "pageNo": 581, "subShopInfo": {"cardNumFive": "", "isSupportYj": "", "cityName": null, "districtName": null, "shopinfo": {"mid": null, "good_flag": null, "new_flag": null, "short_name": null, "short_name_pinyin": null, "status": null, "address": "", "name": "", "id": null}, "mid": null, "shopId": null, "netid": null, "province": 901, "district": null, "zipcode": null, "telephone": null, "posDate": null, "destineTel": null, "togoTel": null, "trafficWay": null, "signBuilding": null, "businessArea": null, "selfRoom": null, "businessTime": null, "stall": null, "consume": null, "serviceFei": null, "favourable": null, "shopMemo": "1", "appraise": null, "website": null, "memo": null, "payTypes": "", "shopTypes": "", "consumeTypes": null, "cookTypes": null, "orderNum": null, "card4no": null, "card4noAcc": null, "district2": null, "searchScope": null, "status": null, "address": "", "name": null, "id": null, "pageNo": 580, "pageCount": null, "pageSize": 10, "ids": null, "endTime": null, "startTime": null}, "list": [{"cardNumFive": null, "isSupportYj": null, "cityName": null, "districtName": null, "shopinfo": {"mid": "T00000000000014", "good_flag": "1", "new_flag": "2", "short_name": "\u8001\u51e4\u7965", "short_name_pinyin": "laofengxiang", "status": null, "address": null, "name": null, "id": "32350"}, "mid": "T00000000000014", "shopId": "32350", "netid": null, "province": 901, "district": 601, "zipcode": null, "telephone": "55661012", "posDate": "20080107", "destineTel": null, "togoTel": null, "trafficWay": "\u516c\u4ea4937 910 817", "signBuilding": null, "businessArea": null, "selfRoom": null, "businessTime": null, "stall": null, "consume": null, "serviceFei": null, "favourable": null, "shopMemo": null, "appraise": null, "website": null, "memo": null, "payTypes": "\u6749\u5fb7\u5361", "shopTypes": "\u4e13\u5356", "consumeTypes": null, "cookTypes": null, "orderNum": 1000, "card4no": null, "card4noAcc": null, "district2": 407, "searchScope": null, "status": 1, "address": "\u6dde\u6caa\u8def111\u53f7C-1", "name": "\u8001\u51e4\u7965 \u6dde\u6caa\u8def\u5206\u53f7", "id": 139031, "pageNo": 0, "pageCount": null, "pageSize": 10, "ids": null, "endTime": null, "startTime": null}, {"cardNumFive": null, "isSupportYj": null, "cityName": null, "districtName": null, "shopinfo": {"mid": "888888850940017", "good_flag": "1", "new_flag": "2", "short_name": "\u8001\u51e4\u7965", "short_name_pinyin": "laofengxiang", "status": null, "address": null, "name": null, "id": "32342"}, "mid": "888888850940017", "shopId": "32342", "netid": null, "province": 901, "district": 601, "zipcode": null, "telephone": "63670109*8001", "posDate": null, "destineTel": null, "togoTel": null, "trafficWay": "537 123 959", "signBuilding": null, "businessArea": "80~100\u5e73\u65b9\u7c73", "selfRoom": null, "businessTime": "8:30~21:30", "stall": null, "consume": null, "serviceFei": null, "favourable": null, "shopMemo": null, "appraise": null, "website": null, "memo": null, "payTypes": "\u6749\u5fb7\u5361", "shopTypes": "\u4e13\u5356", "consumeTypes": null, "cookTypes": null, "orderNum": 1000, "card4no": null, "card4noAcc": null, "district2": 406, "searchScope": null, "status": 1, "address": "\u5929\u5c71\u897f\u8def541\u53f7", "name": "\u8001\u51e4\u7965 \u5929\u5c71\u5e97", "id": 139032, "pageNo": 0, "pageCount": null, "pageSize": 10, "ids": null, "endTime": null, "startTime": null}, {"cardNumFive": null, "isSupportYj": null, "cityName": null, "districtName": null, "shopinfo": {"mid": "T00000000000014", "good_flag": "1", "new_flag": "2", "short_name": "\u8001\u51e4\u7965", "short_name_pinyin": "laofengxiang", "status": null, "address": null, "name": null, "id": "32350"}, "mid": "T00000000000014", "shopId": "32350", "netid": null, "province": 901, "district": 601, "zipcode": null, "telephone": "64269164", "posDate": "20080103", "destineTel": null, "togoTel": null, "trafficWay": "\u516c\u4ea4927 50 43 \u65c5\u6e3810\u53f7\u7ebf", "signBuilding": null, "businessArea": null, "selfRoom": null, "businessTime": null, "stall": null, "consume": null, "serviceFei": null, "favourable": null, "shopMemo": null, "appraise": null, "website": null, "memo": null, "payTypes": "\u6749\u5fb7\u5361", "shopTypes": "\u4e13\u5356", "consumeTypes": null, "cookTypes": null, "orderNum": 1000, "card4no": null, "card4noAcc": null, "district2": 403, "searchScope": null, "status": 1, "address": "\u8087\u5609\u6d5c\u8def998\u53f7", "name": "\u8001\u51e4\u7965 \u5f90\u5bb6\u6c47\u5206\u53f7", "id": 139035, "pageNo": 0, "pageCount": null, "pageSize": 10, "ids": null, "endTime": null, "startTime": null}, {"cardNumFive": null, "isSupportYj": null, "cityName": null, "districtName": null, "shopinfo": {"mid": "888888854410171", "good_flag": "2", "new_flag": "2", "short_name": "\u8001\u540c\u76db", "short_name_pinyin": "laotongsheng", "status": null, "address": null, "name": null, "id": "32352"}, "mid": "888888854410171", "shopId": "32352", "netid": null, "province": 901, "district": 601, "zipcode": null, "telephone": "63667427", "posDate": "200908", "destineTel": null, "togoTel": null, "trafficWay": "\u516c\u4ea4929\u300166", "signBuilding": null, "businessArea": null, "selfRoom": null, "businessTime": null, "stall": null, "consume": null, "serviceFei": null, "favourable": null, "shopMemo": null, "appraise": null, "website": null, "memo": null, "payTypes": "\u6749\u5fb7\u5361", "shopTypes": "\u96f6\u552e", "consumeTypes": null, "cookTypes": null, "orderNum": 1000, "card4no": null, "card4noAcc": null, "district2": 401, "searchScope": null, "status": 1, "address": "\u4e3d\u56ed\u8def49\u53f7", "name": "\u8001\u540c\u76db \u4e30\u8302\u5e97", "id": 139040, "pageNo": 0, "pageCount": null, "pageSize": 10, "ids": null, "endTime": null, "startTime": null}, {"cardNumFive": null, "isSupportYj": null, "cityName": null, "districtName": null, "shopinfo": {"mid": "888888854410171", "good_flag": "2", "new_flag": "2", "short_name": "\u8001\u540c\u76db", "short_name_pinyin": "laotongsheng", "status": null, "address": null, "name": null, "id": "32352"}, "mid": "888888854410171", "shopId": "32352", "netid": null, "province": 901, "district": 601, "zipcode": null, "telephone": "64808606", "posDate": "200908", "destineTel": null, "togoTel": null, "trafficWay": "\u516c\u4ea4150\u3001122", "signBuilding": null, "businessArea": null, "selfRoom": null, "businessTime": null, "stall": null, "consume": null, "serviceFei": null, "favourable": null, "shopMemo": null, "appraise": null, "website": null, "memo": null, "payTypes": "\u6749\u5fb7\u5361", "shopTypes": "\u96f6\u552e", "consumeTypes": null, "cookTypes": null, "orderNum": 1000, "card4no": null, "card4noAcc": null, "district2": 409, "searchScope": null, "status": 1, "address": "\u53e4\u7f8e\u897f\u8def361\u5f047\u53f7", "name": "\u8001\u540c\u76db \u53e4\u7f8e\u5e97", "id": 139041, "pageNo": 0, "pageCount": null, "pageSize": 10, "ids": null, "endTime": null, "startTime": null}, {"cardNumFive": null, "isSupportYj": null, "cityName": null, "districtName": null, "shopinfo": {"mid": "888888854410171", "good_flag": "2", "new_flag": "2", "short_name": "\u8001\u540c\u76db", "short_name_pinyin": "laotongsheng", "status": null, "address": null, "name": null, "id": "32352"}, "mid": "888888854410171", "shopId": "32352", "netid": null, "province": 901, "district": 601, "zipcode": null, "telephone": "58474121", "posDate": "200908", "destineTel": null, "togoTel": null, "trafficWay": "\u516c\u4ea4572\u3001955", "signBuilding": null, "businessArea": null, "selfRoom": null, "businessTime": null, "stall": null, "consume": null, "serviceFei": null, "favourable": null, "shopMemo": null, "appraise": null, "website": null, "memo": null, "payTypes": "\u6749\u5fb7\u5361", "shopTypes": "\u96f6\u552e", "consumeTypes": null, "cookTypes": null, "orderNum": 1000, "card4no": null, "card4noAcc": null, "district2": 418, "searchScope": null, "status": 1, "address": "\u660c\u91cc\u8def137\u53f7", "name": "\u8001\u540c\u76db \u5357\u53f7\u5e97", "id": 139042, "pageNo": 0, "pageCount": null, "pageSize": 10, "ids": null, "endTime": null, "startTime": null}, {"cardNumFive": null, "isSupportYj": null, "cityName": null, "districtName": null, "shopinfo": {"mid": "888888854410171", "good_flag": "2", "new_flag": "2", "short_name": "\u8001\u540c\u76db", "short_name_pinyin": "laotongsheng", "status": null, "address": null, "name": null, "id": "32352"}, "mid": "888888854410171", "shopId": "32352", "netid": null, "province": 901, "district": 601, "zipcode": null, "telephone": "63124516", "posDate": "200908", "destineTel": null, "togoTel": null, "trafficWay": "\u516c\u4ea423\u300118", "signBuilding": null, "businessArea": null, "selfRoom": null, "businessTime": null, "stall": null, "consume": null, "serviceFei": null, "favourable": null, "shopMemo": null, "appraise": null, "website": null, "memo": null, "payTypes": "\u6749\u5fb7\u5361", "shopTypes": "\u96f6\u552e", "consumeTypes": null, "cookTypes": null, "orderNum": 1000, "card4no": null, "card4noAcc": null, "district2": 401, "searchScope": null, "status": 1, "address": "\u897f\u51cc\u5bb6\u5b85\u8def160\u53f7", "name": "\u8001\u540c\u76db \u897f\u51cc\u5e97", "id": 139044, "pageNo": 0, "pageCount": null, "pageSize": 10, "ids": null, "endTime": null, "startTime": null}, {"cardNumFive": null, "isSupportYj": null, "cityName": null, "districtName": null, "shopinfo": {"mid": "888888854410171", "good_flag": null, "new_flag": null, "short_name": "\u8001\u540c\u76db", "short_name_pinyin": "laotongsheng", "status": null, "address": null, "name": null, "id": "38242"}, "mid": "888888854410171", "shopId": "38242", "netid": null, "province": 901, "district": 601, "zipcode": null, "telephone": "58893513", "posDate": null, "destineTel": null, "togoTel": null, "trafficWay": null, "signBuilding": null, "businessArea": null, "selfRoom": null, "businessTime": null, "stall": null, "consume": null, "serviceFei": null, "favourable": null, "shopMemo": null, "appraise": null, "website": null, "memo": null, "payTypes": "\u6749\u5fb7\u5361", "shopTypes": "\u96f6\u552e", "consumeTypes": null, "cookTypes": null, "orderNum": 1000, "card4no": null, "card4noAcc": null, "district2": 418, "searchScope": null, "status": 1, "address": "\u5357\u7801\u5934\u8def272\u53f7", "name": "\u8001\u540c\u76db \u6d77\u5357\u5e97", "id": 163203, "pageNo": 0, "pageCount": null, "pageSize": 10, "ids": null, "endTime": null, "startTime": null}, {"cardNumFive": null, "isSupportYj": null, "cityName": null, "districtName": null, "shopinfo": {"mid": "888888854410171", "good_flag": null, "new_flag": null, "short_name": "\u8001\u540c\u76db", "short_name_pinyin": "laotongsheng", "status": null, "address": null, "name": null, "id": "38242"}, "mid": "888888854410171", "shopId": "38242", "netid": null, "province": 901, "district": 601, "zipcode": null, "telephone": "63457960", "posDate": null, "destineTel": null, "togoTel": null, "trafficWay": null, "signBuilding": null, "businessArea": null, "selfRoom": null, "businessTime": null, "stall": null, "consume": null, "serviceFei": null, "favourable": null, "shopMemo": null, "appraise": null, "website": null, "memo": null, "payTypes": "\u6749\u5fb7\u5361", "shopTypes": "\u96f6\u552e", "consumeTypes": null, "cookTypes": null, "orderNum": 1000, "card4no": null, "card4noAcc": null, "district2": 401, "searchScope": null, "status": 1, "address": "\u5927\u5174\u8857101\u53f7", "name": "\u8001\u540c\u76db \u7ea2\u58f0\u5e97", "id": 163204, "pageNo": 0, "pageCount": null, "pageSize": 10, "ids": null, "endTime": null, "startTime": null}, {"cardNumFive": null, "isSupportYj": null, "cityName": null, "districtName": null, "shopinfo": {"mid": "888888854410171", "good_flag": null, "new_flag": null, "short_name": "\u8001\u540c\u76db", "short_name_pinyin": "laotongsheng", "status": null, "address": null, "name": null, "id": "38242"}, "mid": "888888854410171", "shopId": "38242", "netid": null, "province": 901, "district": 601, "zipcode": null, "telephone": "63139937", "posDate": null, "destineTel": null, "togoTel": null, "trafficWay": null, "signBuilding": null, "businessArea": null, "selfRoom": null, "businessTime": null, "stall": null, "consume": null, "serviceFei": null, "favourable": null, "shopMemo": null, "appraise": null, "website": null, "memo": null, "payTypes": "\u6749\u5fb7\u5361", "shopTypes": "\u96f6\u552e", "consumeTypes": null, "cookTypes": null, "orderNum": 1000, "card4no": null, "card4noAcc": null, "district2": 401, "searchScope": null, "status": 1, "address": "\u5357\u8f66\u7ad9\u8def460\u53f7", "name": "\u8001\u540c\u76db \u77bf\u6eaa\u5e97", "id": 163206, "pageNo": 0, "pageCount": null, "pageSize": 10, "ids": null, "endTime": null, "startTime": null}], "pageLimit": 5800, "size": 10}