{"pageCount": 1095, "count": 10942, "pageNo": 582, "subShopInfo": {"cardNumFive": "", "isSupportYj": "", "cityName": null, "districtName": null, "shopinfo": {"mid": null, "good_flag": null, "new_flag": null, "short_name": null, "short_name_pinyin": null, "status": null, "address": "", "name": "", "id": null}, "mid": null, "shopId": null, "netid": null, "province": 901, "district": null, "zipcode": null, "telephone": null, "posDate": null, "destineTel": null, "togoTel": null, "trafficWay": null, "signBuilding": null, "businessArea": null, "selfRoom": null, "businessTime": null, "stall": null, "consume": null, "serviceFei": null, "favourable": null, "shopMemo": "1", "appraise": null, "website": null, "memo": null, "payTypes": "", "shopTypes": "", "consumeTypes": null, "cookTypes": null, "orderNum": null, "card4no": null, "card4noAcc": null, "district2": null, "searchScope": null, "status": null, "address": "", "name": null, "id": null, "pageNo": 581, "pageCount": null, "pageSize": 10, "ids": null, "endTime": null, "startTime": null}, "list": [{"cardNumFive": null, "isSupportYj": null, "cityName": null, "districtName": null, "shopinfo": {"mid": "888888854410171", "good_flag": null, "new_flag": null, "short_name": "\u8001\u540c\u76db", "short_name_pinyin": "laotongsheng", "status": null, "address": null, "name": null, "id": "38242"}, "mid": "888888854410171", "shopId": "38242", "netid": null, "province": 901, "district": 601, "zipcode": null, "telephone": null, "posDate": null, "destineTel": null, "togoTel": null, "trafficWay": null, "signBuilding": null, "businessArea": null, "selfRoom": null, "businessTime": null, "stall": null, "consume": null, "serviceFei": null, "favourable": null, "shopMemo": null, "appraise": null, "website": null, "memo": null, "payTypes": "\u6749\u5fb7\u5361", "shopTypes": "\u96f6\u552e", "consumeTypes": null, "cookTypes": null, "orderNum": 1000, "card4no": null, "card4noAcc": null, "district2": 418, "searchScope": null, "status": 1, "address": "\u5858\u6865\u8def251\u53f7", "name": "\u8001\u540c\u76db \u5c71\u6d77\u5e97", "id": 163208, "pageNo": 0, "pageCount": null, "pageSize": 10, "ids": null, "endTime": null, "startTime": null}, {"cardNumFive": null, "isSupportYj": null, "cityName": null, "districtName": null, "shopinfo": {"mid": "888002156911404", "good_flag": null, "new_flag": null, "short_name": "LARCHY", "short_name_pinyin": "larchy", "status": null, "address": null, "name": null, "id": "36225"}, "mid": "888002156911404", "shopId": "36225", "netid": null, "province": 901, "district": 601, "zipcode": null, "telephone": "67752690", "posDate": "20100816", "destineTel": null, "togoTel": null, "trafficWay": null, "signBuilding": null, "businessArea": null, "selfRoom": null, "businessTime": null, "stall": null, "consume": null, "serviceFei": null, "favourable": null, "shopMemo": null, "appraise": null, "website": null, "memo": null, "payTypes": "\u6749\u5fb7\u5361", "shopTypes": "\u96f6\u552e", "consumeTypes": null, "cookTypes": null, "orderNum": 1000, "card4no": null, "card4noAcc": null, "district2": 412, "searchScope": null, "status": 1, "address": "\u677e\u6c5f\u533a\u65b0\u677e\u6c5f\u8def927\u5f04\u5f00\u5143\u5730\u4e2d\u6d772\u5c4258\u53f7\u94fa", "name": "LARCHY \u677e\u6c5f\u8def\u5e97", "id": 150959, "pageNo": 0, "pageCount": null, "pageSize": 10, "ids": null, "endTime": null, "startTime": null}, {"cardNumFive": null, "isSupportYj": null, "cityName": null, "districtName": null, "shopinfo": {"mid": "T00000000000004", "good_flag": "2", "new_flag": "1", "short_name": "\u4e50\u8d2d", "short_name_pinyin": "legou", "status": null, "address": null, "name": null, "id": "32355"}, "mid": "T00000000000004", "shopId": "32355", "netid": null, "province": 901, "district": 601, "zipcode": "200074", "telephone": "021-66408000", "posDate": "20061214", "destineTel": "021-66408000", "togoTel": "021-66408000", "trafficWay": "\u516c\u4ea4112\u4e07\u91cc\u57ce 517 107", "signBuilding": null, "businessArea": "20000-25000\u5e73\u65b9\u7c73", "selfRoom": "\u65e0", "businessTime": "8:00~22:00", "stall": "\u6709", "consume": null, "serviceFei": null, "favourable": null, "shopMemo": null, "appraise": null, "website": null, "memo": null, "payTypes": "\u6749\u5fb7\u5361  \u4e50\u8d2d\u5361 \u5361\u62bc\u91d1\u6d88\u8d39", "shopTypes": "\u8d85\u5e02", "consumeTypes": null, "cookTypes": null, "orderNum": 1000, "card4no": null, "card4noAcc": null, "district2": 416, "searchScope": null, "status": 1, "address": "\u5927\u534e\u8def518\u53f7", "name": "\u4e50\u8d2d \u5927\u534e\u5e97", "id": 139049, "pageNo": 0, "pageCount": null, "pageSize": 10, "ids": null, "endTime": null, "startTime": null}, {"cardNumFive": null, "isSupportYj": null, "cityName": null, "districtName": null, "shopinfo": {"mid": "T00000000000004", "good_flag": "2", "new_flag": "1", "short_name": "\u4e50\u8d2d", "short_name_pinyin": "legou", "status": null, "address": null, "name": null, "id": "32355"}, "mid": "T00000000000004", "shopId": "32355", "netid": null, "province": 901, "district": 601, "zipcode": null, "telephone": "64580066", "posDate": null, "destineTel": null, "togoTel": null, "trafficWay": null, "signBuilding": null, "businessArea": null, "selfRoom": null, "businessTime": null, "stall": null, "consume": null, "serviceFei": null, "favourable": null, "shopMemo": null, "appraise": null, "website": null, "memo": null, "payTypes": "\u6749\u5fb7\u5361  \u4e50\u8d2d\u5361 \u5361\u62bc\u91d1\u6d88\u8d39", "shopTypes": "\u8d85\u5e02", "consumeTypes": null, "cookTypes": null, "orderNum": 1000, "card4no": null, "card4noAcc": null, "district2": 409, "searchScope": null, "status": 1, "address": "\u90fd\u5e02\u8def3366\u53f7", "name": "\u4e50\u8d2d \u90fd\u5e02\u5e97", "id": 139050, "pageNo": 0, "pageCount": null, "pageSize": 10, "ids": null, "endTime": null, "startTime": null}, {"cardNumFive": null, "isSupportYj": null, "cityName": null, "districtName": null, "shopinfo": {"mid": "T00000000000004", "good_flag": "2", "new_flag": "1", "short_name": "\u4e50\u8d2d", "short_name_pinyin": "legou", "status": null, "address": null, "name": null, "id": "32355"}, "mid": "T00000000000004", "shopId": "32355", "netid": null, "province": 901, "district": 601, "zipcode": "200065", "telephone": "021-52949488", "posDate": "20070201", "destineTel": "021-52949488", "togoTel": "021-52949488", "trafficWay": "\u516c\u4ea4830,\u5730\u94c1\u56db\u53f7\u7ebf", "signBuilding": null, "businessArea": "20000-25000\u5e73\u65b9\u7c73", "selfRoom": "\u65e0", "businessTime": "8:00~22:00", "stall": "\u65e0", "consume": null, "serviceFei": null, "favourable": null, "shopMemo": null, "appraise": null, "website": null, "memo": null, "payTypes": "\u6749\u5fb7\u5361  \u4e50\u8d2d\u5361 \u5361\u62bc\u91d1\u6d88\u8d39", "shopTypes": "\u8d85\u5e02", "consumeTypes": null, "cookTypes": null, "orderNum": 1000, "card4no": null, "card4noAcc": null, "district2": 405, "searchScope": null, "status": 1, "address": "\u4e2d\u5c71\u5317\u8def1855\u53f7", "name": "\u4e50\u8d2d \u5149\u65b0\u5e97", "id": 139051, "pageNo": 0, "pageCount": null, "pageSize": 10, "ids": null, "endTime": null, "startTime": null}, {"cardNumFive": null, "isSupportYj": null, "cityName": null, "districtName": null, "shopinfo": {"mid": "T00000000000004", "good_flag": "2", "new_flag": "1", "short_name": "\u4e50\u8d2d", "short_name_pinyin": "legou", "status": null, "address": null, "name": null, "id": "32355"}, "mid": "T00000000000004", "shopId": "32355", "netid": null, "province": 901, "district": 601, "zipcode": "201800", "telephone": "021-69523888", "posDate": "20061214", "destineTel": "021-69523888", "togoTel": "021-69523888", "trafficWay": "\u8398\u56e2\u7ebf \u4e0a\u90b5\u7ebf", "signBuilding": null, "businessArea": "20000-25000\u5e73\u65b9\u7c73", "selfRoom": "\u65e0", "businessTime": "8:00~22:00", "stall": "\u65e0", "consume": null, "serviceFei": null, "favourable": null, "shopMemo": null, "appraise": null, "website": null, "memo": null, "payTypes": "\u6749\u5fb7\u5361  \u4e50\u8d2d\u5361 \u5361\u62bc\u91d1\u6d88\u8d39", "shopTypes": "\u8d85\u5e02", "consumeTypes": null, "cookTypes": null, "orderNum": 1000, "card4no": null, "card4noAcc": null, "district2": 411, "searchScope": null, "status": 1, "address": "\u57ce\u4e2d\u8def2\u53f7\uff08\u8fd1\u6caa\u5b9c\u8def\u53e3\uff09", "name": "\u4e50\u8d2d \u5609\u5b9a\u5e97", "id": 139052, "pageNo": 0, "pageCount": null, "pageSize": 10, "ids": null, "endTime": null, "startTime": null}, {"cardNumFive": null, "isSupportYj": null, "cityName": null, "districtName": null, "shopinfo": {"mid": "T00000000000004", "good_flag": "2", "new_flag": "1", "short_name": "\u4e50\u8d2d", "short_name_pinyin": "legou", "status": null, "address": null, "name": null, "id": "32355"}, "mid": "T00000000000004", "shopId": "32355", "netid": null, "province": 901, "district": 601, "zipcode": "201512", "telephone": "021-57965228", "posDate": "20061214", "destineTel": "021-57965228", "togoTel": "021-57965228", "trafficWay": "\u6caa\u536b\u7ebf \u5858\u536b\u7ebf", "signBuilding": null, "businessArea": "20000-25000\u5e73\u65b9\u7c73", "selfRoom": "\u65e0", "businessTime": "8:00~22:00", "stall": "\u65e0", "consume": null, "serviceFei": null, "favourable": null, "shopMemo": null, "appraise": null, "website": null, "memo": null, "payTypes": "\u6749\u5fb7\u5361  \u4e50\u8d2d\u5361 \u5361\u62bc\u91d1\u6d88\u8d39", "shopTypes": "\u8d85\u5e02", "consumeTypes": null, "cookTypes": null, "orderNum": 1000, "card4no": null, "card4noAcc": null, "district2": 414, "searchScope": null, "status": 1, "address": "\u536b\u6e05\u897f\u8def477\u53f7", "name": "\u4e50\u8d2d \u91d1\u5c71\u5e97", "id": 139053, "pageNo": 0, "pageCount": null, "pageSize": 10, "ids": null, "endTime": null, "startTime": null}, {"cardNumFive": null, "isSupportYj": null, "cityName": null, "districtName": null, "shopinfo": {"mid": "T00000000000004", "good_flag": "2", "new_flag": "1", "short_name": "\u4e50\u8d2d", "short_name_pinyin": "legou", "status": null, "address": null, "name": null, "id": "32355"}, "mid": "T00000000000004", "shopId": "32355", "netid": null, "province": 901, "district": 601, "zipcode": "201400", "telephone": "021-67113088", "posDate": "20061215", "destineTel": "021-67113088", "togoTel": "021-67113088", "trafficWay": "\u8398\u56e2\u7ebf \u4e0a\u90b5\u7ebf", "signBuilding": null, "businessArea": "20000-25000\u5e73\u65b9\u7c73", "selfRoom": "\u65e0", "businessTime": "8:00~22:00", "stall": "\u65e0", "consume": null, "serviceFei": null, "favourable": null, "shopMemo": null, "appraise": null, "website": null, "memo": null, "payTypes": "\u6749\u5fb7\u5361  \u4e50\u8d2d\u5361 \u5361\u62bc\u91d1\u6d88\u8d39", "shopTypes": "\u8d85\u5e02", "consumeTypes": null, "cookTypes": null, "orderNum": 1000, "card4no": null, "card4noAcc": null, "district2": 413, "searchScope": null, "status": 1, "address": "\u5357\u6865\u9547\u73af\u57ce\u4e1c\u8def1468\u53f7", "name": "\u4e50\u8d2d \u91d1\u53f6\u5e97", "id": 139054, "pageNo": 0, "pageCount": null, "pageSize": 10, "ids": null, "endTime": null, "startTime": null}, {"cardNumFive": null, "isSupportYj": null, "cityName": null, "districtName": null, "shopinfo": {"mid": "T00000000000004", "good_flag": "2", "new_flag": "1", "short_name": "\u4e50\u8d2d", "short_name_pinyin": "legou", "status": null, "address": null, "name": null, "id": "32355"}, "mid": "T00000000000004", "shopId": "32355", "netid": null, "province": 901, "district": 601, "zipcode": "200135", "telephone": "021-58536123", "posDate": "20061212", "destineTel": "021-58536123", "togoTel": "021-58536123", "trafficWay": "\u516c\u4ea4782\u533a\u95f4", "signBuilding": null, "businessArea": "20000-25000\u5e73\u65b9\u7c73", "selfRoom": "\u65e0", "businessTime": "8:00~22:00", "stall": "\u65e0", "consume": null, "serviceFei": null, "favourable": null, "shopMemo": null, "appraise": null, "website": null, "memo": null, "payTypes": "\u6749\u5fb7\u5361  \u4e50\u8d2d\u5361 \u5361\u62bc\u91d1\u6d88\u8d39", "shopTypes": "\u8d85\u5e02", "consumeTypes": null, "cookTypes": null, "orderNum": 1000, "card4no": null, "card4noAcc": null, "district2": 418, "searchScope": null, "status": 1, "address": "\u9526\u7ee3\u8def3218\u53f7", "name": "\u4e50\u8d2d \u9526\u7ee3\u5e97", "id": 139055, "pageNo": 0, "pageCount": null, "pageSize": 10, "ids": null, "endTime": null, "startTime": null}, {"cardNumFive": null, "isSupportYj": null, "cityName": null, "districtName": null, "shopinfo": {"mid": "T00000000000004", "good_flag": "2", "new_flag": "1", "short_name": "\u4e50\u8d2d", "short_name_pinyin": "legou", "status": null, "address": null, "name": null, "id": "32355"}, "mid": "T00000000000004", "shopId": "32355", "netid": null, "province": 901, "district": 601, "zipcode": null, "telephone": "62341989", "posDate": null, "destineTel": null, "togoTel": null, "trafficWay": "\u65c5\u6e382\u53f7\u7ebf", "signBuilding": null, "businessArea": "20000-25000\u5e73\u65b9\u7c73", "selfRoom": null, "businessTime": "8:00~22:00", "stall": "\u6709", "consume": null, "serviceFei": null, "favourable": null, "shopMemo": null, "appraise": null, "website": null, "memo": null, "payTypes": "\u6749\u5fb7\u5361  \u4e50\u8d2d\u5361 \u5361\u62bc\u91d1\u6d88\u8d39", "shopTypes": "\u8d85\u5e02", "consumeTypes": null, "cookTypes": null, "orderNum": 1000, "card4no": null, "card4noAcc": null, "district2": 418, "searchScope": null, "status": 1, "address": "\u5357\u95e8\u5927\u885718\u53f7", "name": "\u4e50\u8d2d \u5357\u6c47\u5e97", "id": 139057, "pageNo": 0, "pageCount": null, "pageSize": 10, "ids": null, "endTime": null, "startTime": null}], "pageLimit": 5810, "size": 10}