{"pageCount": 1095, "count": 10942, "pageNo": 588, "subShopInfo": {"cardNumFive": "", "isSupportYj": "", "cityName": null, "districtName": null, "shopinfo": {"mid": null, "good_flag": null, "new_flag": null, "short_name": null, "short_name_pinyin": null, "status": null, "address": "", "name": "", "id": null}, "mid": null, "shopId": null, "netid": null, "province": 901, "district": null, "zipcode": null, "telephone": null, "posDate": null, "destineTel": null, "togoTel": null, "trafficWay": null, "signBuilding": null, "businessArea": null, "selfRoom": null, "businessTime": null, "stall": null, "consume": null, "serviceFei": null, "favourable": null, "shopMemo": "1", "appraise": null, "website": null, "memo": null, "payTypes": "", "shopTypes": "", "consumeTypes": null, "cookTypes": null, "orderNum": null, "card4no": null, "card4noAcc": null, "district2": null, "searchScope": null, "status": null, "address": "", "name": null, "id": null, "pageNo": 587, "pageCount": null, "pageSize": 10, "ids": null, "endTime": null, "startTime": null}, "list": [{"cardNumFive": null, "isSupportYj": null, "cityName": null, "districtName": null, "shopinfo": {"mid": "888888859120065", "good_flag": "1", "new_flag": "2", "short_name": "\u96f7\u5141\u4e0a", "short_name_pinyin": "leiyunshang", "status": null, "address": null, "name": null, "id": "32393"}, "mid": "888888859120065", "shopId": "32393", "netid": null, "province": 901, "district": 601, "zipcode": null, "telephone": "62640841", "posDate": "20071011", "destineTel": null, "togoTel": null, "trafficWay": "\u516c\u4ea4551", "signBuilding": "\u4e2d\u73af\u7ebf", "businessArea": "110\u5e73\u65b9\u7c73", "selfRoom": null, "businessTime": "7:00~22:30", "stall": "\u6709", "consume": null, "serviceFei": null, "favourable": null, "shopMemo": null, "appraise": null, "website": null, "memo": null, "payTypes": "\u6749\u5fb7\u5361", "shopTypes": "\u836f\u5e97", "consumeTypes": null, "cookTypes": null, "orderNum": 1000, "card4no": null, "card4noAcc": null, "district2": 405, "searchScope": null, "status": 1, "address": "\u8001\u771f\u5317\u8def160\u53f7", "name": "\u96f7\u5141\u4e0a \u7ea2\u7389\u836f\u623f", "id": 139119, "pageNo": 0, "pageCount": null, "pageSize": 10, "ids": null, "endTime": null, "startTime": null}, {"cardNumFive": null, "isSupportYj": null, "cityName": null, "districtName": null, "shopinfo": {"mid": "888888859120006", "good_flag": "1", "new_flag": "2", "short_name": "\u96f7\u5141\u4e0a", "short_name_pinyin": "leiyunshang", "status": null, "address": null, "name": null, "id": "32394"}, "mid": "888888859120006", "shopId": "32394", "netid": null, "province": 901, "district": 601, "zipcode": "200231", "telephone": "54822650", "posDate": "20061204", "destineTel": "54822650", "togoTel": null, "trafficWay": "\u516c\u4ea4718 814", "signBuilding": null, "businessArea": "100~200\u5e73\u7c73", "selfRoom": "\u65e0", "businessTime": null, "stall": "\u65e0", "consume": null, "serviceFei": null, "favourable": null, "shopMemo": null, "appraise": null, "website": null, "memo": null, "payTypes": "\u6749\u5fb7\u5361", "shopTypes": "\u836f\u5e97", "consumeTypes": null, "cookTypes": null, "orderNum": 1000, "card4no": null, "card4noAcc": null, "district2": 403, "searchScope": null, "status": 1, "address": "\u9f99\u5434\u8def2412\u53f7-3", "name": "\u96f7\u5141\u4e0a \u534e\u76db\u5927\u836f\u623f", "id": 139121, "pageNo": 0, "pageCount": null, "pageSize": 10, "ids": null, "endTime": null, "startTime": null}, {"cardNumFive": null, "isSupportYj": null, "cityName": null, "districtName": null, "shopinfo": {"mid": "888888859120055", "good_flag": "1", "new_flag": "2", "short_name": "\u96f7\u5141\u4e0a", "short_name_pinyin": "leiyunshang", "status": null, "address": null, "name": null, "id": "32395"}, "mid": "888888859120055", "shopId": "32395", "netid": null, "province": 901, "district": 601, "zipcode": null, "telephone": "59793339", "posDate": "20080221", "destineTel": null, "togoTel": null, "trafficWay": "\u516c\u4ea474 \u536b\u5609\u7ebf \u53e4\u534e\u7ebf", "signBuilding": null, "businessArea": null, "selfRoom": null, "businessTime": null, "stall": null, "consume": null, "serviceFei": null, "favourable": null, "shopMemo": null, "appraise": null, "website": null, "memo": null, "payTypes": "\u6749\u5fb7\u5361", "shopTypes": "\u836f\u5e97", "consumeTypes": null, "cookTypes": null, "orderNum": 1000, "card4no": null, "card4noAcc": null, "district2": 417, "searchScope": null, "status": 1, "address": "\u534e\u65b0\u9547\u65b0\u51e4\u5317\u8def", "name": "\u96f7\u5141\u4e0a \u534e\u65b0\u5927\u836f\u623f", "id": 139122, "pageNo": 0, "pageCount": null, "pageSize": 10, "ids": null, "endTime": null, "startTime": null}, {"cardNumFive": null, "isSupportYj": null, "cityName": null, "districtName": null, "shopinfo": {"mid": "888888859120017", "good_flag": "1", "new_flag": "2", "short_name": "\u96f7\u5141\u4e0a", "short_name_pinyin": "leiyunshang", "status": null, "address": null, "name": null, "id": "32396"}, "mid": "888888859120017", "shopId": "32396", "netid": null, "province": 901, "district": 601, "zipcode": "200437", "telephone": "55889059", "posDate": "20061204", "destineTel": "55889059", "togoTel": "55889059", "trafficWay": "123 933 \u65c5\u6e3810\u53f7\u7ebf", "signBuilding": null, "businessArea": "100~200\u5e73\u7c73", "selfRoom": "\u65e0", "businessTime": "8:00~21:00", "stall": "\u65e0", "consume": null, "serviceFei": null, "favourable": null, "shopMemo": null, "appraise": null, "website": null, "memo": null, "payTypes": "\u6749\u5fb7\u5361", "shopTypes": "\u836f\u5e97", "consumeTypes": null, "cookTypes": null, "orderNum": 1000, "card4no": null, "card4noAcc": null, "district2": 408, "searchScope": null, "status": 1, "address": "\u8f89\u6cb3\u8def56\u53f7", "name": "\u96f7\u5141\u4e0a \u8f89\u6cb3\u8def\u5e97", "id": 139123, "pageNo": 0, "pageCount": null, "pageSize": 10, "ids": null, "endTime": null, "startTime": null}, {"cardNumFive": null, "isSupportYj": null, "cityName": null, "districtName": null, "shopinfo": {"mid": "888888859120083", "good_flag": "1", "new_flag": "2", "short_name": "\u96f7\u5141\u4e0a", "short_name_pinyin": "leiyunshang", "status": null, "address": null, "name": null, "id": "32397"}, "mid": "888888859120083", "shopId": "32397", "netid": null, "province": 901, "district": 601, "zipcode": null, "telephone": "66821368", "posDate": "20080115", "destineTel": null, "togoTel": null, "trafficWay": "\u516c\u4ea4170 178", "signBuilding": null, "businessArea": "50\u5e73\u65b9\u7c73", "selfRoom": null, "businessTime": "9:00~21:00", "stall": null, "consume": null, "serviceFei": null, "favourable": null, "shopMemo": null, "appraise": null, "website": null, "memo": null, "payTypes": "\u6749\u5fb7\u5361", "shopTypes": "\u836f\u5e97", "consumeTypes": null, "cookTypes": null, "orderNum": 1000, "card4no": null, "card4noAcc": null, "district2": 416, "searchScope": null, "status": 1, "address": "\u4e00\u4e8c\u516b\u7eaa\u5ff5\u8def680\u53f7", "name": "\u96f7\u5141\u4e0a \u60e0\u4ec1\u836f\u623f", "id": 139124, "pageNo": 0, "pageCount": null, "pageSize": 10, "ids": null, "endTime": null, "startTime": null}, {"cardNumFive": null, "isSupportYj": null, "cityName": null, "districtName": null, "shopinfo": {"mid": "888888859120055", "good_flag": "1", "new_flag": "2", "short_name": "\u96f7\u5141\u4e0a", "short_name_pinyin": "leiyunshang", "status": null, "address": null, "name": null, "id": "32395"}, "mid": "888888859120055", "shopId": "32395", "netid": null, "province": 901, "district": 601, "zipcode": null, "telephone": "62965795", "posDate": "20070815", "destineTel": null, "togoTel": null, "trafficWay": null, "signBuilding": null, "businessArea": null, "selfRoom": null, "businessTime": "24\u5c0f\u65f6", "stall": "\u6709", "consume": null, "serviceFei": null, "favourable": null, "shopMemo": null, "appraise": null, "website": null, "memo": null, "payTypes": "\u6749\u5fb7\u5361", "shopTypes": "\u836f\u5e97", "consumeTypes": null, "cookTypes": null, "orderNum": 1000, "card4no": null, "card4noAcc": null, "district2": 409, "searchScope": null, "status": 1, "address": "\u8bb0\u9e64\u8def138\u53f7", "name": "\u96f7\u5141\u4e0a \u7eaa\u5317\u8bb0\u9e64\u5e97", "id": 139126, "pageNo": 0, "pageCount": null, "pageSize": 10, "ids": null, "endTime": null, "startTime": null}, {"cardNumFive": null, "isSupportYj": null, "cityName": null, "districtName": null, "shopinfo": {"mid": "888888859120055", "good_flag": "1", "new_flag": "2", "short_name": "\u96f7\u5141\u4e0a", "short_name_pinyin": "leiyunshang", "status": null, "address": null, "name": null, "id": "32395"}, "mid": "888888859120055", "shopId": "32395", "netid": null, "province": 901, "district": 601, "zipcode": null, "telephone": "52262476", "posDate": "20070815", "destineTel": null, "togoTel": null, "trafficWay": "\u516c\u4ea4803 74B", "signBuilding": null, "businessArea": null, "selfRoom": null, "businessTime": "24\u5c0f\u65f6", "stall": "\u6709", "consume": null, "serviceFei": null, "favourable": null, "shopMemo": null, "appraise": null, "website": null, "memo": null, "payTypes": "\u6749\u5fb7\u5361", "shopTypes": "\u836f\u5e97", "consumeTypes": null, "cookTypes": null, "orderNum": 1000, "card4no": null, "card4noAcc": null, "district2": 409, "searchScope": null, "status": 1, "address": "\u5434\u7fdf\u8def2702\u53f7", "name": "\u96f7\u5141\u4e0a \u7eaa\u5317\u7d2b\u5824\u836f\u623f", "id": 139129, "pageNo": 0, "pageCount": null, "pageSize": 10, "ids": null, "endTime": null, "startTime": null}, {"cardNumFive": null, "isSupportYj": null, "cityName": null, "districtName": null, "shopinfo": {"mid": "888888859120084", "good_flag": "1", "new_flag": "2", "short_name": "\u96f7\u5141\u4e0a", "short_name_pinyin": "leiyunshang", "status": null, "address": null, "name": null, "id": "32398"}, "mid": "888888859120084", "shopId": "32398", "netid": null, "province": 901, "district": 601, "zipcode": null, "telephone": "58560671", "posDate": "20080415", "destineTel": null, "togoTel": null, "trafficWay": "\u516c\u4ea4790 \u94a6\u4e1c\u4e13\u7ebf", "signBuilding": null, "businessArea": "100\u5e73\u65b9\u7c73", "selfRoom": null, "businessTime": "8:00~22:00", "stall": null, "consume": null, "serviceFei": null, "favourable": null, "shopMemo": null, "appraise": null, "website": null, "memo": null, "payTypes": "\u6749\u5fb7\u5361", "shopTypes": "\u836f\u5e97", "consumeTypes": null, "cookTypes": null, "orderNum": 1000, "card4no": null, "card4noAcc": null, "district2": 418, "searchScope": null, "status": 1, "address": "\u66f9\u8def\u9547\u9f9a\u8def\u65b0\u897f\u88571\u53f7", "name": "\u96f7\u5141\u4e0a \u4f73\u4e50\u836f\u623f", "id": 139130, "pageNo": 0, "pageCount": null, "pageSize": 10, "ids": null, "endTime": null, "startTime": null}, {"cardNumFive": null, "isSupportYj": null, "cityName": null, "districtName": null, "shopinfo": {"mid": "888888859120018", "good_flag": "1", "new_flag": "2", "short_name": "\u96f7\u5141\u4e0a", "short_name_pinyin": "leiyunshang", "status": null, "address": null, "name": null, "id": "32399"}, "mid": "888888859120018", "shopId": "32399", "netid": null, "province": 901, "district": 601, "zipcode": "200434", "telephone": "65618569", "posDate": "20070403", "destineTel": "65618569", "togoTel": "65618569", "trafficWay": "\u516c\u4ea4110", "signBuilding": null, "businessArea": "100~200\u5e73\u7c73", "selfRoom": "\u65e0", "businessTime": null, "stall": "\u65e0", "consume": null, "serviceFei": null, "favourable": null, "shopMemo": null, "appraise": null, "website": null, "memo": null, "payTypes": "\u6749\u5fb7\u5361", "shopTypes": "\u836f\u5e97", "consumeTypes": null, "cookTypes": null, "orderNum": 1000, "card4no": null, "card4noAcc": null, "district2": 410, "searchScope": null, "status": 1, "address": "\u573a\u4e2d\u8def16\u53f7", "name": "\u96f7\u5141\u4e0a \u6c5f\u6e7e\u5e97", "id": 139131, "pageNo": 0, "pageCount": null, "pageSize": 10, "ids": null, "endTime": null, "startTime": null}, {"cardNumFive": null, "isSupportYj": null, "cityName": null, "districtName": null, "shopinfo": {"mid": "888888859120086", "good_flag": "1", "new_flag": "2", "short_name": "\u96f7\u5141\u4e0a", "short_name_pinyin": "leiyunshang", "status": null, "address": null, "name": null, "id": "32400"}, "mid": "888888859120086", "shopId": "32400", "netid": null, "province": 901, "district": 601, "zipcode": null, "telephone": "50329300", "posDate": "20080229", "destineTel": null, "togoTel": null, "trafficWay": "\u516c\u4ea4984 \u4e0a\u5ddd\u7ebf \u65b0\u5ddd\u7ebf", "signBuilding": null, "businessArea": null, "selfRoom": null, "businessTime": "8:00~22:00", "stall": "\u65e0", "consume": null, "serviceFei": null, "favourable": null, "shopMemo": null, "appraise": null, "website": null, "memo": null, "payTypes": "\u6749\u5fb7\u5361", "shopTypes": "\u836f\u5e97", "consumeTypes": null, "cookTypes": null, "orderNum": 1000, "card4no": null, "card4noAcc": null, "district2": 418, "searchScope": null, "status": 1, "address": "\u80f6\u4e1c\u8def256\u53f7\u5e95\u5c42", "name": "\u96f7\u5141\u4e0a \u80f6\u4e1c\u836f\u623f", "id": 139132, "pageNo": 0, "pageCount": null, "pageSize": 10, "ids": null, "endTime": null, "startTime": null}], "pageLimit": 5870, "size": 10}