{"pageCount": 1095, "count": 10942, "pageNo": 598, "subShopInfo": {"cardNumFive": "", "isSupportYj": "", "cityName": null, "districtName": null, "shopinfo": {"mid": null, "good_flag": null, "new_flag": null, "short_name": null, "short_name_pinyin": null, "status": null, "address": "", "name": "", "id": null}, "mid": null, "shopId": null, "netid": null, "province": 901, "district": null, "zipcode": null, "telephone": null, "posDate": null, "destineTel": null, "togoTel": null, "trafficWay": null, "signBuilding": null, "businessArea": null, "selfRoom": null, "businessTime": null, "stall": null, "consume": null, "serviceFei": null, "favourable": null, "shopMemo": "1", "appraise": null, "website": null, "memo": null, "payTypes": "", "shopTypes": "", "consumeTypes": null, "cookTypes": null, "orderNum": null, "card4no": null, "card4noAcc": null, "district2": null, "searchScope": null, "status": null, "address": "", "name": null, "id": null, "pageNo": 597, "pageCount": null, "pageSize": 10, "ids": null, "endTime": null, "startTime": null}, "list": [{"cardNumFive": null, "isSupportYj": null, "cityName": null, "districtName": null, "shopinfo": {"mid": "888888854110292", "good_flag": null, "new_flag": null, "short_name": "\u826f\u53cb\u91d1\u4f34", "short_name_pinyin": "liangyoujinban", "status": null, "address": null, "name": null, "id": "32540"}, "mid": "888888854110292", "shopId": "32540", "netid": null, "province": 901, "district": 601, "zipcode": null, "telephone": "62810428", "posDate": "20090114", "destineTel": null, "togoTel": null, "trafficWay": "\u516c\u4ea4946 945 121", "signBuilding": null, "businessArea": null, "selfRoom": null, "businessTime": "24\u5c0f\u65f6", "stall": null, "consume": null, "serviceFei": null, "favourable": null, "shopMemo": null, "appraise": null, "website": null, "memo": null, "payTypes": "\u6749\u5fb7\u5361  \u5361\u62bc\u91d1\u6d88\u8d39", "shopTypes": "\u4fbf\u5229\u5e97", "consumeTypes": null, "cookTypes": null, "orderNum": 1000, "card4no": null, "card4noAcc": null, "district2": 406, "searchScope": null, "status": 1, "address": "\u6cd5\u534e\u9547\u8def507\u53f7", "name": "\u826f\u53cb\u91d1\u4f34 \u6cd5\u534e\u9547\u5e97", "id": 139394, "pageNo": 0, "pageCount": null, "pageSize": 10, "ids": null, "endTime": null, "startTime": null}, {"cardNumFive": null, "isSupportYj": null, "cityName": null, "districtName": null, "shopinfo": {"mid": "888888854110292", "good_flag": null, "new_flag": null, "short_name": "\u826f\u53cb\u91d1\u4f34", "short_name_pinyin": "liangyoujinban", "status": null, "address": null, "name": null, "id": "32540"}, "mid": "888888854110292", "shopId": "32540", "netid": null, "province": 901, "district": 601, "zipcode": null, "telephone": "62816287", "posDate": "20090114", "destineTel": null, "togoTel": null, "trafficWay": "\u516c\u4ea476 113 945", "signBuilding": null, "businessArea": null, "selfRoom": null, "businessTime": "24\u5c0f\u65f6", "stall": null, "consume": null, "serviceFei": null, "favourable": null, "shopMemo": null, "appraise": null, "website": null, "memo": null, "payTypes": "\u6749\u5fb7\u5361  \u5361\u62bc\u91d1\u6d88\u8d39", "shopTypes": "\u4fbf\u5229\u5e97", "consumeTypes": null, "cookTypes": null, "orderNum": 1000, "card4no": null, "card4noAcc": null, "district2": 406, "searchScope": null, "status": 1, "address": "\u756a\u79ba\u8def190\u53f7", "name": "\u826f\u53cb\u91d1\u4f34 \u756a\u79ba\u5e97", "id": 139395, "pageNo": 0, "pageCount": null, "pageSize": 10, "ids": null, "endTime": null, "startTime": null}, {"cardNumFive": null, "isSupportYj": null, "cityName": null, "districtName": null, "shopinfo": {"mid": "888888854110292", "good_flag": null, "new_flag": null, "short_name": "\u826f\u53cb\u91d1\u4f34", "short_name_pinyin": "liangyoujinban", "status": null, "address": null, "name": null, "id": "32540"}, "mid": "888888854110292", "shopId": "32540", "netid": null, "province": 901, "district": 601, "zipcode": null, "telephone": "63285443", "posDate": "20090115", "destineTel": null, "togoTel": null, "trafficWay": "\u516c\u4ea4\u65b9\u5ddd\u4e13\u7ebf22011\u5916\u5708", "signBuilding": null, "businessArea": null, "selfRoom": null, "businessTime": "24\u5c0f\u65f6", "stall": null, "consume": null, "serviceFei": null, "favourable": null, "shopMemo": null, "appraise": null, "website": null, "memo": null, "payTypes": "\u6749\u5fb7\u5361  \u5361\u62bc\u91d1\u6d88\u8d39", "shopTypes": "\u4fbf\u5229\u5e97", "consumeTypes": null, "cookTypes": null, "orderNum": 1000, "card4no": null, "card4noAcc": null, "district2": 401, "searchScope": null, "status": 1, "address": "\u65b9\u6d5c\u4e2d\u8def688\u53f7", "name": "\u826f\u53cb\u91d1\u4f34 \u65b9\u6d5c\u5e97", "id": 139396, "pageNo": 0, "pageCount": null, "pageSize": 10, "ids": null, "endTime": null, "startTime": null}, {"cardNumFive": null, "isSupportYj": null, "cityName": null, "districtName": null, "shopinfo": {"mid": "888888854110292", "good_flag": null, "new_flag": null, "short_name": "\u826f\u53cb\u91d1\u4f34", "short_name_pinyin": "liangyoujinban", "status": null, "address": null, "name": null, "id": "32540"}, "mid": "888888854110292", "shopId": "32540", "netid": null, "province": 901, "district": 601, "zipcode": null, "telephone": "56880707", "posDate": "20090115", "destineTel": null, "togoTel": null, "trafficWay": "\u516c\u4ea4\u5f6d\u7f57\u4e13\u7ebf52746", "signBuilding": null, "businessArea": null, "selfRoom": null, "businessTime": "24\u5c0f\u65f6", "stall": null, "consume": null, "serviceFei": null, "favourable": null, "shopMemo": null, "appraise": null, "website": null, "memo": null, "payTypes": "\u6749\u5fb7\u5361  \u5361\u62bc\u91d1\u6d88\u8d39", "shopTypes": "\u4fbf\u5229\u5e97", "consumeTypes": null, "cookTypes": null, "orderNum": 1000, "card4no": null, "card4noAcc": null, "district2": 410, "searchScope": null, "status": 1, "address": "\u6c7e\u897f\u8def430\u53f7", "name": "\u826f\u53cb\u91d1\u4f34 \u6c7e\u897f\u5e97", "id": 139397, "pageNo": 0, "pageCount": null, "pageSize": 10, "ids": null, "endTime": null, "startTime": null}, {"cardNumFive": null, "isSupportYj": null, "cityName": null, "districtName": null, "shopinfo": {"mid": "888888854110292", "good_flag": null, "new_flag": null, "short_name": "\u826f\u53cb\u91d1\u4f34", "short_name_pinyin": "liangyoujinban", "status": null, "address": null, "name": null, "id": "32540"}, "mid": "888888854110292", "shopId": "32540", "netid": null, "province": 901, "district": 601, "zipcode": null, "telephone": "59193353", "posDate": "20090115", "destineTel": null, "togoTel": null, "trafficWay": "\u516c\u4ea4\u6c5f\u68651717765", "signBuilding": null, "businessArea": null, "selfRoom": null, "businessTime": "24\u5c0f\u65f6", "stall": null, "consume": null, "serviceFei": null, "favourable": null, "shopMemo": null, "appraise": null, "website": null, "memo": null, "payTypes": "\u6749\u5fb7\u5361  \u5361\u62bc\u91d1\u6d88\u8d39", "shopTypes": "\u4fbf\u5229\u5e97", "consumeTypes": null, "cookTypes": null, "orderNum": 1000, "card4no": null, "card4noAcc": null, "district2": 411, "searchScope": null, "status": 1, "address": "\u4e30\u5e84\u8def326\u53f7", "name": "\u826f\u53cb\u91d1\u4f34 \u4e30\u5e84\u5e97", "id": 139398, "pageNo": 0, "pageCount": null, "pageSize": 10, "ids": null, "endTime": null, "startTime": null}, {"cardNumFive": null, "isSupportYj": null, "cityName": null, "districtName": null, "shopinfo": {"mid": "888888854110292", "good_flag": null, "new_flag": null, "short_name": "\u826f\u53cb\u91d1\u4f34", "short_name_pinyin": "liangyoujinban", "status": null, "address": null, "name": null, "id": "32540"}, "mid": "888888854110292", "shopId": "32540", "netid": null, "province": 901, "district": 601, "zipcode": null, "telephone": "64032079", "posDate": "20090114", "destineTel": null, "togoTel": null, "trafficWay": "\u516c\u4ea449 218 733", "signBuilding": null, "businessArea": null, "selfRoom": null, "businessTime": "24\u5c0f\u65f6", "stall": null, "consume": null, "serviceFei": null, "favourable": null, "shopMemo": null, "appraise": null, "website": null, "memo": null, "payTypes": "\u6749\u5fb7\u5361   \u5361\u62bc\u91d1\u6d88\u8d39", "shopTypes": "\u4fbf\u5229\u5e97", "consumeTypes": null, "cookTypes": null, "orderNum": 1000, "card4no": null, "card4noAcc": null, "district2": 403, "searchScope": null, "status": 1, "address": "\u67ab\u6797\u8def161\u53f7", "name": "\u826f\u53cb\u91d1\u4f34 \u67ab\u6797\u5e97", "id": 139399, "pageNo": 0, "pageCount": null, "pageSize": 10, "ids": null, "endTime": null, "startTime": null}, {"cardNumFive": null, "isSupportYj": null, "cityName": null, "districtName": null, "shopinfo": {"mid": "888888854110292", "good_flag": null, "new_flag": null, "short_name": "\u826f\u53cb\u91d1\u4f34", "short_name_pinyin": "liangyoujinban", "status": null, "address": null, "name": null, "id": "32540"}, "mid": "888888854110292", "shopId": "32540", "netid": null, "province": 901, "district": 601, "zipcode": null, "telephone": "65432439", "posDate": "20090115", "destineTel": null, "togoTel": null, "trafficWay": "\u516c\u4ea41692206", "signBuilding": null, "businessArea": null, "selfRoom": null, "businessTime": "24\u5c0f\u65f6", "stall": null, "consume": null, "serviceFei": null, "favourable": null, "shopMemo": null, "appraise": null, "website": null, "memo": null, "payTypes": "\u6749\u5fb7\u5361  \u5361\u62bc\u91d1\u6d88\u8d39", "shopTypes": "\u4fbf\u5229\u5e97", "consumeTypes": null, "cookTypes": null, "orderNum": 1000, "card4no": null, "card4noAcc": null, "district2": 407, "searchScope": null, "status": 1, "address": "\u51e4\u5357\u4e00\u675158\u53f7", "name": "\u826f\u53cb\u91d1\u4f34 \u51e4\u5357\u5e97", "id": 139400, "pageNo": 0, "pageCount": null, "pageSize": 10, "ids": null, "endTime": null, "startTime": null}, {"cardNumFive": null, "isSupportYj": null, "cityName": null, "districtName": null, "shopinfo": {"mid": "888888854110292", "good_flag": null, "new_flag": null, "short_name": "\u826f\u53cb\u91d1\u4f34", "short_name_pinyin": "liangyoujinban", "status": null, "address": null, "name": null, "id": "32540"}, "mid": "888888854110292", "shopId": "32540", "netid": null, "province": 901, "district": 601, "zipcode": null, "telephone": "63270687", "posDate": "20090115", "destineTel": null, "togoTel": null, "trafficWay": "\u516c\u4ea497410936", "signBuilding": null, "businessArea": null, "selfRoom": null, "businessTime": "24\u5c0f\u65f6", "stall": null, "consume": null, "serviceFei": null, "favourable": null, "shopMemo": null, "appraise": null, "website": null, "memo": null, "payTypes": "\u6749\u5fb7\u5361  \u5361\u62bc\u91d1\u6d88\u8d39", "shopTypes": "\u4fbf\u5229\u5e97", "consumeTypes": null, "cookTypes": null, "orderNum": 1000, "card4no": null, "card4noAcc": null, "district2": 401, "searchScope": null, "status": 1, "address": "\u51e4\u9633\u8def401\u53f7", "name": "\u826f\u53cb\u91d1\u4f34 \u51e4\u9633\u5e97", "id": 139401, "pageNo": 0, "pageCount": null, "pageSize": 10, "ids": null, "endTime": null, "startTime": null}, {"cardNumFive": null, "isSupportYj": null, "cityName": null, "districtName": null, "shopinfo": {"mid": "888888854110292", "good_flag": null, "new_flag": null, "short_name": "\u826f\u53cb\u91d1\u4f34", "short_name_pinyin": "liangyoujinban", "status": null, "address": null, "name": null, "id": "32540"}, "mid": "888888854110292", "shopId": "32540", "netid": null, "province": 901, "district": 601, "zipcode": null, "telephone": "33777408", "posDate": "20090115", "destineTel": null, "togoTel": null, "trafficWay": "\u516c\u4ea4115 554 515", "signBuilding": null, "businessArea": null, "selfRoom": null, "businessTime": "24\u5c0f\u65f6", "stall": null, "consume": null, "serviceFei": null, "favourable": null, "shopMemo": null, "appraise": null, "website": null, "memo": null, "payTypes": "\u6749\u5fb7\u5361  \u5361\u62bc\u91d1\u6d88\u8d39", "shopTypes": "\u4fbf\u5229\u5e97", "consumeTypes": null, "cookTypes": null, "orderNum": 1000, "card4no": null, "card4noAcc": null, "district2": 407, "searchScope": null, "status": 1, "address": "\u629a\u987a\u8def254\u53f7\uff0d1", "name": "\u826f\u53cb\u91d1\u4f34 \u629a\u987a\u8def\u4e8c\u5e97", "id": 139402, "pageNo": 0, "pageCount": null, "pageSize": 10, "ids": null, "endTime": null, "startTime": null}, {"cardNumFive": null, "isSupportYj": null, "cityName": null, "districtName": null, "shopinfo": {"mid": "888888854110292", "good_flag": null, "new_flag": null, "short_name": "\u826f\u53cb\u91d1\u4f34", "short_name_pinyin": "liangyoujinban", "status": null, "address": null, "name": null, "id": "32540"}, "mid": "888888854110292", "shopId": "32540", "netid": null, "province": 901, "district": 601, "zipcode": null, "telephone": "65144065", "posDate": "20090115", "destineTel": null, "togoTel": null, "trafficWay": "\u516c\u4ea4960 843 713", "signBuilding": null, "businessArea": null, "selfRoom": null, "businessTime": "24\u5c0f\u65f6", "stall": null, "consume": null, "serviceFei": null, "favourable": null, "shopMemo": null, "appraise": null, "website": null, "memo": null, "payTypes": "\u6749\u5fb7\u5361  \u5361\u62bc\u91d1\u6d88\u8d39", "shopTypes": "\u4fbf\u5229\u5e97", "consumeTypes": null, "cookTypes": null, "orderNum": 1000, "card4no": null, "card4noAcc": null, "district2": 407, "searchScope": null, "status": 1, "address": "\u629a\u987a\u8def374\u53f7", "name": "\u826f\u53cb\u91d1\u4f34 \u629a\u987a\u8def\u4e00\u5e97", "id": 139403, "pageNo": 0, "pageCount": null, "pageSize": 10, "ids": null, "endTime": null, "startTime": null}], "pageLimit": 5970, "size": 10}