{"pageCount": 1095, "count": 10942, "pageNo": 597, "subShopInfo": {"cardNumFive": "", "isSupportYj": "", "cityName": null, "districtName": null, "shopinfo": {"mid": null, "good_flag": null, "new_flag": null, "short_name": null, "short_name_pinyin": null, "status": null, "address": "", "name": "", "id": null}, "mid": null, "shopId": null, "netid": null, "province": 901, "district": null, "zipcode": null, "telephone": null, "posDate": null, "destineTel": null, "togoTel": null, "trafficWay": null, "signBuilding": null, "businessArea": null, "selfRoom": null, "businessTime": null, "stall": null, "consume": null, "serviceFei": null, "favourable": null, "shopMemo": "1", "appraise": null, "website": null, "memo": null, "payTypes": "", "shopTypes": "", "consumeTypes": null, "cookTypes": null, "orderNum": null, "card4no": null, "card4noAcc": null, "district2": null, "searchScope": null, "status": null, "address": "", "name": null, "id": null, "pageNo": 596, "pageCount": null, "pageSize": 10, "ids": null, "endTime": null, "startTime": null}, "list": [{"cardNumFive": null, "isSupportYj": null, "cityName": null, "districtName": null, "shopinfo": {"mid": "888888854110292", "good_flag": null, "new_flag": null, "short_name": "\u826f\u53cb\u91d1\u4f34", "short_name_pinyin": "liangyoujinban", "status": null, "address": null, "name": null, "id": "32540"}, "mid": "888888854110292", "shopId": "32540", "netid": null, "province": 901, "district": 601, "zipcode": null, "telephone": "63038976", "posDate": "20090114", "destineTel": null, "togoTel": null, "trafficWay": "\u516c\u4ea4146\u5185\u5708 814 96", "signBuilding": null, "businessArea": null, "selfRoom": null, "businessTime": "24\u5c0f\u65f6", "stall": null, "consume": null, "serviceFei": null, "favourable": null, "shopMemo": null, "appraise": null, "website": null, "memo": null, "payTypes": "\u6749\u5fb7\u5361  \u5361\u62bc\u91d1\u6d88\u8d39", "shopTypes": "\u4fbf\u5229\u5e97", "consumeTypes": null, "cookTypes": null, "orderNum": 1000, "card4no": null, "card4noAcc": null, "district2": 401, "searchScope": null, "status": 1, "address": "\u6253\u6d66\u8def474\u53f7", "name": "\u826f\u53cb\u91d1\u4f34 \u6253\u6d66\u4e00\u5e97", "id": 139378, "pageNo": 0, "pageCount": null, "pageSize": 10, "ids": null, "endTime": null, "startTime": null}, {"cardNumFive": null, "isSupportYj": null, "cityName": null, "districtName": null, "shopinfo": {"mid": "888888854110292", "good_flag": null, "new_flag": null, "short_name": "\u826f\u53cb\u91d1\u4f34", "short_name_pinyin": "liangyoujinban", "status": null, "address": null, "name": null, "id": "32540"}, "mid": "888888854110292", "shopId": "32540", "netid": null, "province": 901, "district": 601, "zipcode": null, "telephone": "65223869", "posDate": "20090115", "destineTel": null, "togoTel": null, "trafficWay": null, "signBuilding": null, "businessArea": null, "selfRoom": null, "businessTime": "24\u5c0f\u65f6", "stall": null, "consume": null, "serviceFei": null, "favourable": null, "shopMemo": null, "appraise": null, "website": null, "memo": null, "payTypes": "\u6749\u5fb7\u5361  \u5361\u62bc\u91d1\u6d88\u8d39", "shopTypes": "\u4fbf\u5229\u5e97", "consumeTypes": null, "cookTypes": null, "orderNum": 1000, "card4no": null, "card4noAcc": null, "district2": 408, "searchScope": null, "status": 1, "address": "\u5927\u8fde\u897f\u8def197\u53f7", "name": "\u826f\u53cb\u91d1\u4f34 \u5927\u8fde\u897f\u5e97", "id": 139380, "pageNo": 0, "pageCount": null, "pageSize": 10, "ids": null, "endTime": null, "startTime": null}, {"cardNumFive": null, "isSupportYj": null, "cityName": null, "districtName": null, "shopinfo": {"mid": "888888854110292", "good_flag": null, "new_flag": null, "short_name": "\u826f\u53cb\u91d1\u4f34", "short_name_pinyin": "liangyoujinban", "status": null, "address": null, "name": null, "id": "32540"}, "mid": "888888854110292", "shopId": "32540", "netid": null, "province": 901, "district": 601, "zipcode": null, "telephone": "66529859", "posDate": "20090115", "destineTel": null, "togoTel": null, "trafficWay": "\u516c\u4ea4547741944", "signBuilding": null, "businessArea": null, "selfRoom": null, "businessTime": "24\u5c0f\u65f6", "stall": null, "consume": null, "serviceFei": null, "favourable": null, "shopMemo": null, "appraise": null, "website": null, "memo": null, "payTypes": "\u6749\u5fb7\u5361  \u5361\u62bc\u91d1\u6d88\u8d39", "shopTypes": "\u4fbf\u5229\u5e97", "consumeTypes": null, "cookTypes": null, "orderNum": 1000, "card4no": null, "card4noAcc": null, "district2": 410, "searchScope": null, "status": 1, "address": "\u5927\u5b81\u8def247\u53f7", "name": "\u826f\u53cb\u91d1\u4f34 \u5927\u5b81\u5e97", "id": 139382, "pageNo": 0, "pageCount": null, "pageSize": 10, "ids": null, "endTime": null, "startTime": null}, {"cardNumFive": null, "isSupportYj": null, "cityName": null, "districtName": null, "shopinfo": {"mid": "888888854110292", "good_flag": null, "new_flag": null, "short_name": "\u826f\u53cb\u91d1\u4f34", "short_name_pinyin": "liangyoujinban", "status": null, "address": null, "name": null, "id": "32540"}, "mid": "888888854110292", "shopId": "32540", "netid": null, "province": 901, "district": 601, "zipcode": null, "telephone": "65459810", "posDate": "20090115", "destineTel": null, "togoTel": null, "trafficWay": "\u516c\u4ea437868921 \u7ec8\u70b9\u4ea4\u901a\u5206\u5e03", "signBuilding": null, "businessArea": null, "selfRoom": null, "businessTime": "24\u5c0f\u65f6", "stall": null, "consume": null, "serviceFei": null, "favourable": null, "shopMemo": null, "appraise": null, "website": null, "memo": null, "payTypes": "\u6749\u5fb7\u5361  \u5361\u62bc\u91d1\u6d88\u8d39", "shopTypes": "\u4fbf\u5229\u5e97", "consumeTypes": null, "cookTypes": null, "orderNum": 1000, "card4no": null, "card4noAcc": null, "district2": 408, "searchScope": null, "status": 1, "address": "\u4e39\u5f92\u8def153\u53f7", "name": "\u826f\u53cb\u91d1\u4f34 \u4e39\u5f92\u5e97", "id": 139384, "pageNo": 0, "pageCount": null, "pageSize": 10, "ids": null, "endTime": null, "startTime": null}, {"cardNumFive": null, "isSupportYj": null, "cityName": null, "districtName": null, "shopinfo": {"mid": "888888854110292", "good_flag": null, "new_flag": null, "short_name": "\u826f\u53cb\u91d1\u4f34", "short_name_pinyin": "liangyoujinban", "status": null, "address": null, "name": null, "id": "32540"}, "mid": "888888854110292", "shopId": "32540", "netid": null, "province": 901, "district": 601, "zipcode": null, "telephone": "65891838", "posDate": "20090115", "destineTel": null, "togoTel": null, "trafficWay": "\u516c\u4ea470 28 841", "signBuilding": null, "businessArea": null, "selfRoom": null, "businessTime": "24\u5c0f\u65f6", "stall": null, "consume": null, "serviceFei": null, "favourable": null, "shopMemo": null, "appraise": null, "website": null, "memo": null, "payTypes": "\u6749\u5fb7\u5361  \u5361\u62bc\u91d1\u6d88\u8d39", "shopTypes": "\u4fbf\u5229\u5e97", "consumeTypes": null, "cookTypes": null, "orderNum": 1000, "card4no": null, "card4noAcc": null, "district2": 407, "searchScope": null, "status": 1, "address": "\u4e39\u9633\u8def1\u53f7\u7532", "name": "\u826f\u53cb\u91d1\u4f34 \u4e39\u9633\u8def\u5e97", "id": 139385, "pageNo": 0, "pageCount": null, "pageSize": 10, "ids": null, "endTime": null, "startTime": null}, {"cardNumFive": null, "isSupportYj": null, "cityName": null, "districtName": null, "shopinfo": {"mid": "888888854110292", "good_flag": null, "new_flag": null, "short_name": "\u826f\u53cb\u91d1\u4f34", "short_name_pinyin": "liangyoujinban", "status": null, "address": null, "name": null, "id": "32540"}, "mid": "888888854110292", "shopId": "32540", "netid": null, "province": 901, "district": 601, "zipcode": null, "telephone": "63864335", "posDate": "20090114", "destineTel": null, "togoTel": null, "trafficWay": "\u516c\u4ea4146\u5185\u5708 986\u533a\u95f4 933", "signBuilding": null, "businessArea": null, "selfRoom": null, "businessTime": "24\u5c0f\u65f6", "stall": null, "consume": null, "serviceFei": null, "favourable": null, "shopMemo": null, "appraise": null, "website": null, "memo": null, "payTypes": "\u6749\u5fb7\u5361  \u5361\u62bc\u91d1\u6d88\u8d39", "shopTypes": "\u4fbf\u5229\u5e97", "consumeTypes": null, "cookTypes": null, "orderNum": 1000, "card4no": null, "card4noAcc": null, "district2": 401, "searchScope": null, "status": 1, "address": "\u6de1\u6c34\u8def182\u53f7", "name": "\u826f\u53cb\u91d1\u4f34 \u6de1\u6c34\u5e97", "id": 139386, "pageNo": 0, "pageCount": null, "pageSize": 10, "ids": null, "endTime": null, "startTime": null}, {"cardNumFive": null, "isSupportYj": null, "cityName": null, "districtName": null, "shopinfo": {"mid": "888888854110292", "good_flag": null, "new_flag": null, "short_name": "\u826f\u53cb\u91d1\u4f34", "short_name_pinyin": "liangyoujinban", "status": null, "address": null, "name": null, "id": "32540"}, "mid": "888888854110292", "shopId": "32540", "netid": null, "province": 901, "district": 601, "zipcode": null, "telephone": "58744637", "posDate": "20090115", "destineTel": null, "togoTel": null, "trafficWay": "\u516c\u4ea4627170818", "signBuilding": null, "businessArea": null, "selfRoom": null, "businessTime": "24\u5c0f\u65f6", "stall": null, "consume": null, "serviceFei": null, "favourable": null, "shopMemo": null, "appraise": null, "website": null, "memo": null, "payTypes": "\u6749\u5fb7\u5361  \u5361\u62bc\u91d1\u6d88\u8d39", "shopTypes": "\u4fbf\u5229\u5e97", "consumeTypes": null, "cookTypes": null, "orderNum": 1000, "card4no": null, "card4noAcc": null, "district2": 418, "searchScope": null, "status": 1, "address": "\u5fb7\u5dde\u8def424\u53f7", "name": "\u826f\u53cb\u91d1\u4f34 \u5fb7\u5dde\u5e97", "id": 139387, "pageNo": 0, "pageCount": null, "pageSize": 10, "ids": null, "endTime": null, "startTime": null}, {"cardNumFive": null, "isSupportYj": null, "cityName": null, "districtName": null, "shopinfo": {"mid": "888888854110292", "good_flag": null, "new_flag": null, "short_name": "\u826f\u53cb\u91d1\u4f34", "short_name_pinyin": "liangyoujinban", "status": null, "address": null, "name": null, "id": "32540"}, "mid": "888888854110292", "shopId": "32540", "netid": null, "province": 901, "district": 601, "zipcode": null, "telephone": "64162884", "posDate": "20090114", "destineTel": null, "togoTel": null, "trafficWay": "\u516c\u4ea449 50 \u5730\u94c1\u56db\u53f7\u7ebf", "signBuilding": null, "businessArea": null, "selfRoom": null, "businessTime": "24\u5c0f\u65f6", "stall": null, "consume": null, "serviceFei": null, "favourable": null, "shopMemo": null, "appraise": null, "website": null, "memo": null, "payTypes": "\u6749\u5fb7\u5361   \u5361\u62bc\u91d1\u6d88\u8d39", "shopTypes": "\u4fbf\u5229\u5e97", "consumeTypes": null, "cookTypes": null, "orderNum": 1000, "card4no": null, "card4noAcc": null, "district2": 403, "searchScope": null, "status": 1, "address": "\u4e1c\u5b89\u8def355\u53f7", "name": "\u826f\u53cb\u91d1\u4f34 \u4e1c\u5b89\u5e97", "id": 139389, "pageNo": 0, "pageCount": null, "pageSize": 10, "ids": null, "endTime": null, "startTime": null}, {"cardNumFive": null, "isSupportYj": null, "cityName": null, "districtName": null, "shopinfo": {"mid": "888888854110292", "good_flag": null, "new_flag": null, "short_name": "\u826f\u53cb\u91d1\u4f34", "short_name_pinyin": "liangyoujinban", "status": null, "address": null, "name": null, "id": "32540"}, "mid": "888888854110292", "shopId": "32540", "netid": null, "province": 901, "district": 601, "zipcode": null, "telephone": "65427185", "posDate": "20090115", "destineTel": null, "togoTel": null, "trafficWay": "\u516c\u4ea4975933723", "signBuilding": null, "businessArea": null, "selfRoom": null, "businessTime": "24\u5c0f\u65f6", "stall": null, "consume": null, "serviceFei": null, "favourable": null, "shopMemo": null, "appraise": null, "website": null, "memo": null, "payTypes": "\u6749\u5fb7\u5361  \u5361\u62bc\u91d1\u6d88\u8d39", "shopTypes": "\u4fbf\u5229\u5e97", "consumeTypes": null, "cookTypes": null, "orderNum": 1000, "card4no": null, "card4noAcc": null, "district2": 408, "searchScope": null, "status": 1, "address": "\u4e1c\u4f53\u80b2\u4f1a\u8def876\u53f7", "name": "\u826f\u53cb\u91d1\u4f34 \u4e1c\u4f53\u80b2\u4f1a\u5e97", "id": 139392, "pageNo": 0, "pageCount": null, "pageSize": 10, "ids": null, "endTime": null, "startTime": null}, {"cardNumFive": null, "isSupportYj": null, "cityName": null, "districtName": null, "shopinfo": {"mid": "888888854110292", "good_flag": null, "new_flag": null, "short_name": "\u826f\u53cb\u91d1\u4f34", "short_name_pinyin": "liangyoujinban", "status": null, "address": null, "name": null, "id": "32540"}, "mid": "888888854110292", "shopId": "32540", "netid": null, "province": 901, "district": 601, "zipcode": null, "telephone": "55824617", "posDate": "20090115", "destineTel": null, "togoTel": null, "trafficWay": "\u516c\u4ea4812226", "signBuilding": null, "businessArea": null, "selfRoom": null, "businessTime": "24\u5c0f\u65f6", "stall": null, "consume": null, "serviceFei": null, "favourable": null, "shopMemo": null, "appraise": null, "website": null, "memo": null, "payTypes": "\u6749\u5fb7\u5361  \u5361\u62bc\u91d1\u6d88\u8d39", "shopTypes": "\u4fbf\u5229\u5e97", "consumeTypes": null, "cookTypes": null, "orderNum": 1000, "card4no": null, "card4noAcc": null, "district2": 407, "searchScope": null, "status": 1, "address": "\u63a7\u6c5f\u8def506\u53f7", "name": "\u826f\u53cb\u91d1\u4f34 \u6566\u5316\u5e97", "id": 139393, "pageNo": 0, "pageCount": null, "pageSize": 10, "ids": null, "endTime": null, "startTime": null}], "pageLimit": 5960, "size": 10}