{"pageCount": 1095, "count": 10942, "pageNo": 592, "subShopInfo": {"cardNumFive": "", "isSupportYj": "", "cityName": null, "districtName": null, "shopinfo": {"mid": null, "good_flag": null, "new_flag": null, "short_name": null, "short_name_pinyin": null, "status": null, "address": "", "name": "", "id": null}, "mid": null, "shopId": null, "netid": null, "province": 901, "district": null, "zipcode": null, "telephone": null, "posDate": null, "destineTel": null, "togoTel": null, "trafficWay": null, "signBuilding": null, "businessArea": null, "selfRoom": null, "businessTime": null, "stall": null, "consume": null, "serviceFei": null, "favourable": null, "shopMemo": "1", "appraise": null, "website": null, "memo": null, "payTypes": "", "shopTypes": "", "consumeTypes": null, "cookTypes": null, "orderNum": null, "card4no": null, "card4noAcc": null, "district2": null, "searchScope": null, "status": null, "address": "", "name": null, "id": null, "pageNo": 591, "pageCount": null, "pageSize": 10, "ids": null, "endTime": null, "startTime": null}, "list": [{"cardNumFive": null, "isSupportYj": null, "cityName": null, "districtName": null, "shopinfo": {"mid": "888888859120067", "good_flag": "1", "new_flag": "2", "short_name": "\u96f7\u5141\u4e0a", "short_name_pinyin": "leiyunshang", "status": null, "address": null, "name": null, "id": "32429"}, "mid": "888888859120067", "shopId": "32429", "netid": null, "province": 901, "district": 601, "zipcode": null, "telephone": "62729326", "posDate": "20071018", "destineTel": null, "togoTel": null, "trafficWay": "\u516c\u4ea4830 40 76", "signBuilding": null, "businessArea": null, "selfRoom": null, "businessTime": null, "stall": null, "consume": null, "serviceFei": null, "favourable": null, "shopMemo": null, "appraise": null, "website": null, "memo": null, "payTypes": "\u6749\u5fb7\u5361", "shopTypes": "\u836f\u5e97", "consumeTypes": null, "cookTypes": null, "orderNum": 1000, "card4no": null, "card4noAcc": null, "district2": 404, "searchScope": null, "status": 1, "address": "\u534e\u5c71\u8def2\u53f7", "name": "\u96f7\u5141\u4e0a \u836f\u57ce\u5e97", "id": 139173, "pageNo": 0, "pageCount": null, "pageSize": 10, "ids": null, "endTime": null, "startTime": null}, {"cardNumFive": null, "isSupportYj": null, "cityName": null, "districtName": null, "shopinfo": {"mid": "888888859120132", "good_flag": "1", "new_flag": "2", "short_name": "\u96f7\u5141\u4e0a", "short_name_pinyin": "leiyunshang", "status": null, "address": null, "name": null, "id": "32431"}, "mid": "888888859120132", "shopId": "32431", "netid": null, "province": 901, "district": 601, "zipcode": null, "telephone": "51968362", "posDate": "20081023", "destineTel": null, "togoTel": null, "trafficWay": "\u516c\u4ea4640 785 815", "signBuilding": null, "businessArea": "100", "selfRoom": null, "businessTime": "7:30~21:00", "stall": "\u6709", "consume": null, "serviceFei": null, "favourable": null, "shopMemo": null, "appraise": null, "website": null, "memo": null, "payTypes": "\u6749\u5fb7\u5361", "shopTypes": "\u836f\u5e97", "consumeTypes": null, "cookTypes": null, "orderNum": 1000, "card4no": null, "card4noAcc": null, "district2": 418, "searchScope": null, "status": 1, "address": "\u94f6\u5c71\u8def250\u53f7", "name": "\u96f7\u5141\u4e0a \u94f6\u5c71\u836f\u5e97", "id": 139175, "pageNo": 0, "pageCount": null, "pageSize": 10, "ids": null, "endTime": null, "startTime": null}, {"cardNumFive": null, "isSupportYj": null, "cityName": null, "districtName": null, "shopinfo": {"mid": "888888859120058", "good_flag": "1", "new_flag": "2", "short_name": "\u96f7\u5141\u4e0a", "short_name_pinyin": "leiyunshang", "status": null, "address": null, "name": null, "id": "32373"}, "mid": "888888859120058", "shopId": "32373", "netid": null, "province": 901, "district": 601, "zipcode": null, "telephone": "34292088", "posDate": "20080910", "destineTel": null, "togoTel": null, "trafficWay": "\u516c\u4ea4816 \u95f5\u8398\u7ebf \u5f90\u95f5\u7ebf", "signBuilding": null, "businessArea": null, "selfRoom": null, "businessTime": null, "stall": null, "consume": null, "serviceFei": null, "favourable": null, "shopMemo": null, "appraise": null, "website": null, "memo": null, "payTypes": "\u6749\u5fb7\u5361", "shopTypes": "\u836f\u5e97", "consumeTypes": null, "cookTypes": null, "orderNum": 1000, "card4no": null, "card4noAcc": null, "district2": 409, "searchScope": null, "status": 1, "address": "\u6c38\u5e73\u8def166\u53f7", "name": "\u96f7\u5141\u4e0a \u6c38\u5e73\u5e97", "id": 139176, "pageNo": 0, "pageCount": null, "pageSize": 10, "ids": null, "endTime": null, "startTime": null}, {"cardNumFive": null, "isSupportYj": null, "cityName": null, "districtName": null, "shopinfo": {"mid": "888888859120008", "good_flag": "1", "new_flag": "2", "short_name": "\u96f7\u5141\u4e0a", "short_name_pinyin": "leiyunshang", "status": null, "address": null, "name": null, "id": "32432"}, "mid": "888888859120008", "shopId": "32432", "netid": null, "province": 901, "district": 601, "zipcode": "201102", "telephone": "54131946", "posDate": "20061204", "destineTel": "54131946", "togoTel": "54131946", "trafficWay": "\u4e1c\u576a\u7ebf 704B\u7ebf", "signBuilding": null, "businessArea": "100~200\u5e73\u7c73", "selfRoom": "\u65e0", "businessTime": null, "stall": "\u65e0", "consume": null, "serviceFei": null, "favourable": null, "shopMemo": null, "appraise": null, "website": null, "memo": null, "payTypes": "\u6749\u5fb7\u5361", "shopTypes": "\u836f\u5e97", "consumeTypes": null, "cookTypes": null, "orderNum": 1000, "card4no": null, "card4noAcc": null, "district2": 409, "searchScope": null, "status": 1, "address": "\u53e4\u7f8e\u897f\u8def94\u53f7", "name": "\u96f7\u5141\u4e0a \u6e90\u548c\u836f\u623f", "id": 139177, "pageNo": 0, "pageCount": null, "pageSize": 10, "ids": null, "endTime": null, "startTime": null}, {"cardNumFive": null, "isSupportYj": null, "cityName": null, "districtName": null, "shopinfo": {"mid": "888888859120069", "good_flag": "1", "new_flag": "2", "short_name": "\u96f7\u5141\u4e0a", "short_name_pinyin": "leiyunshang", "status": null, "address": null, "name": null, "id": "32433"}, "mid": "888888859120069", "shopId": "32433", "netid": null, "province": 901, "district": 601, "zipcode": null, "telephone": "64963637", "posDate": "20071114", "destineTel": null, "togoTel": null, "trafficWay": "\u516c\u4ea4718 770 731 804", "signBuilding": "\u4f4d\u80b2\u4e2d\u5b66", "businessArea": "73\u5e73\u65b9\u7c73", "selfRoom": "\u65e0", "businessTime": "24\u5c0f\u65f6", "stall": "\u6709", "consume": null, "serviceFei": null, "favourable": null, "shopMemo": null, "appraise": null, "website": null, "memo": null, "payTypes": "\u6749\u5fb7\u5361", "shopTypes": "\u836f\u5e97", "consumeTypes": null, "cookTypes": null, "orderNum": 1000, "card4no": null, "card4noAcc": null, "district2": 403, "searchScope": null, "status": 1, "address": "\u957f\u534e\u8def482-484\u53f7", "name": "\u96f7\u5141\u4e0a \u82b8\u8389\u836f\u623f", "id": 139179, "pageNo": 0, "pageCount": null, "pageSize": 10, "ids": null, "endTime": null, "startTime": null}, {"cardNumFive": null, "isSupportYj": null, "cityName": null, "districtName": null, "shopinfo": {"mid": "888888859120058", "good_flag": "1", "new_flag": "2", "short_name": "\u96f7\u5141\u4e0a", "short_name_pinyin": "leiyunshang", "status": null, "address": null, "name": null, "id": "32373"}, "mid": "888888859120058", "shopId": "32373", "netid": null, "province": 901, "district": 601, "zipcode": null, "telephone": "64426300", "posDate": "20070921", "destineTel": null, "togoTel": null, "trafficWay": "\u5f90\u95f5\u7ebf \u9a6c\u8398\u7ebf \u516c\u4ea4703", "signBuilding": null, "businessArea": "80\u5e73\u65b9\u7c73", "selfRoom": null, "businessTime": "9:00~18:00", "stall": "\u6709", "consume": null, "serviceFei": null, "favourable": null, "shopMemo": null, "appraise": null, "website": null, "memo": null, "payTypes": "\u6749\u5fb7\u5361", "shopTypes": "\u836f\u5e97", "consumeTypes": null, "cookTypes": null, "orderNum": 1000, "card4no": null, "card4noAcc": null, "district2": 409, "searchScope": null, "status": 1, "address": "\u989b\u76db\u8def419\u53f7", "name": "\u96f7\u5141\u4e0a \u989b\u76db\u5927\u836f\u623f", "id": 139180, "pageNo": 0, "pageCount": null, "pageSize": 10, "ids": null, "endTime": null, "startTime": null}, {"cardNumFive": null, "isSupportYj": null, "cityName": null, "districtName": null, "shopinfo": {"mid": "888888859120058", "good_flag": "1", "new_flag": "2", "short_name": "\u96f7\u5141\u4e0a", "short_name_pinyin": "leiyunshang", "status": null, "address": null, "name": null, "id": "32373"}, "mid": "888888859120058", "shopId": "32373", "netid": null, "province": 901, "district": 601, "zipcode": null, "telephone": "64426000", "posDate": "20070921", "destineTel": null, "togoTel": null, "trafficWay": "\u5f90\u95f5\u7ebf \u4e1c\u576a\u7ebf \u5730\u94c1\u4e94\u53f7\u7ebf", "signBuilding": null, "businessArea": "80\u5e73\u65b9\u7c73", "selfRoom": null, "businessTime": "9:00~18:00", "stall": "\u6709", "consume": null, "serviceFei": null, "favourable": null, "shopMemo": null, "appraise": null, "website": null, "memo": null, "payTypes": "\u6749\u5fb7\u5361", "shopTypes": "\u836f\u5e97", "consumeTypes": null, "cookTypes": null, "orderNum": 1000, "card4no": null, "card4noAcc": null, "district2": 409, "searchScope": null, "status": 1, "address": "\u989b\u5174\u8def184\u53f7", "name": "\u96f7\u5141\u4e0a \u989b\u65b0\u836f\u5e97", "id": 139181, "pageNo": 0, "pageCount": null, "pageSize": 10, "ids": null, "endTime": null, "startTime": null}, {"cardNumFive": null, "isSupportYj": null, "cityName": null, "districtName": null, "shopinfo": {"mid": "888888859120098", "good_flag": "1", "new_flag": "2", "short_name": "\u96f7\u5141\u4e0a", "short_name_pinyin": "leiyunshang", "status": null, "address": null, "name": null, "id": "32434"}, "mid": "888888859120098", "shopId": "32434", "netid": null, "province": 901, "district": 601, "zipcode": null, "telephone": "50797622", "posDate": "20080314", "destineTel": null, "togoTel": null, "trafficWay": "\u5730\u94c1\u4e8c\u53f7\u7ebf", "signBuilding": "\u6587\u5cf0\u7f8e\u5bb9\u7f8e\u53d1", "businessArea": "200\u5e73\u65b9\u7c73", "selfRoom": null, "businessTime": "24\u5c0f\u65f6", "stall": "\u6709", "consume": null, "serviceFei": null, "favourable": null, "shopMemo": null, "appraise": null, "website": null, "memo": null, "payTypes": "\u6749\u5fb7\u5361", "shopTypes": "\u836f\u5e97", "consumeTypes": null, "cookTypes": null, "orderNum": 1000, "card4no": null, "card4noAcc": null, "district2": 418, "searchScope": null, "status": 1, "address": "\u5f20\u6c5f\u9547\u9ad8\u65af\u8def1104\u53f7", "name": "\u96f7\u5141\u4e0a \u7d2b\u8587\u836f\u623f", "id": 139183, "pageNo": 0, "pageCount": null, "pageSize": 10, "ids": null, "endTime": null, "startTime": null}, {"cardNumFive": null, "isSupportYj": null, "cityName": null, "districtName": null, "shopinfo": {"mid": "888888859120007", "good_flag": "1", "new_flag": "2", "short_name": "\u96f7\u5141\u4e0a", "short_name_pinyin": "leiyunshang", "status": null, "address": null, "name": null, "id": "32435"}, "mid": "888888859120007", "shopId": "32435", "netid": null, "province": 901, "district": 601, "zipcode": "200231", "telephone": "54822650", "posDate": "20061204", "destineTel": "54822650", "togoTel": "54822650", "trafficWay": "\u9f99\u5434\u7ebf\u5927\u7ad9\u8f66 731", "signBuilding": null, "businessArea": "100~200\u5e73\u7c73", "selfRoom": "\u65e0", "businessTime": null, "stall": "\u65e0", "consume": null, "serviceFei": null, "favourable": null, "shopMemo": null, "appraise": null, "website": null, "memo": null, "payTypes": "\u6749\u5fb7\u5361", "shopTypes": "\u836f\u5e97", "consumeTypes": null, "cookTypes": null, "orderNum": 1000, "card4no": null, "card4noAcc": null, "district2": 403, "searchScope": null, "status": 1, "address": "\u9f99\u5434\u8def2587\u53f7", "name": "\u96f7\u5141\u4e0a \u7d2b\u9633\u836f\u623f", "id": 139184, "pageNo": 0, "pageCount": null, "pageSize": 10, "ids": null, "endTime": null, "startTime": null}, {"cardNumFive": null, "isSupportYj": null, "cityName": null, "districtName": null, "shopinfo": {"mid": "888002159121243", "good_flag": null, "new_flag": null, "short_name": "\u96f7\u5141\u4e0a", "short_name_pinyin": "leiyunshang", "status": null, "address": null, "name": null, "id": "36205"}, "mid": "888002159121243", "shopId": "36205", "netid": null, "province": 901, "district": 601, "zipcode": null, "telephone": "57661639", "posDate": "20100811", "destineTel": null, "togoTel": null, "trafficWay": null, "signBuilding": null, "businessArea": null, "selfRoom": null, "businessTime": null, "stall": null, "consume": null, "serviceFei": null, "favourable": null, "shopMemo": null, "appraise": null, "website": null, "memo": null, "payTypes": "\u6749\u5fb7\u5361", "shopTypes": "\u836f\u5e97", "consumeTypes": null, "cookTypes": null, "orderNum": 1000, "card4no": null, "card4noAcc": null, "district2": 412, "searchScope": null, "status": 1, "address": "\u677e\u6c5f\u533a\u4f58\u5c71\u5929\u9a6c\u5c71\u8857\u9053\u5929\u65b0\u8def160\u53f7", "name": "\u96f7\u5141\u4e0a \u821c\u5929\u5e97", "id": 150804, "pageNo": 0, "pageCount": null, "pageSize": 10, "ids": null, "endTime": null, "startTime": null}], "pageLimit": 5910, "size": 10}