{"pageCount": 1095, "count": 10942, "pageNo": 599, "subShopInfo": {"cardNumFive": "", "isSupportYj": "", "cityName": null, "districtName": null, "shopinfo": {"mid": null, "good_flag": null, "new_flag": null, "short_name": null, "short_name_pinyin": null, "status": null, "address": "", "name": "", "id": null}, "mid": null, "shopId": null, "netid": null, "province": 901, "district": null, "zipcode": null, "telephone": null, "posDate": null, "destineTel": null, "togoTel": null, "trafficWay": null, "signBuilding": null, "businessArea": null, "selfRoom": null, "businessTime": null, "stall": null, "consume": null, "serviceFei": null, "favourable": null, "shopMemo": "1", "appraise": null, "website": null, "memo": null, "payTypes": "", "shopTypes": "", "consumeTypes": null, "cookTypes": null, "orderNum": null, "card4no": null, "card4noAcc": null, "district2": null, "searchScope": null, "status": null, "address": "", "name": null, "id": null, "pageNo": 598, "pageCount": null, "pageSize": 10, "ids": null, "endTime": null, "startTime": null}, "list": [{"cardNumFive": null, "isSupportYj": null, "cityName": null, "districtName": null, "shopinfo": {"mid": "888888854110292", "good_flag": null, "new_flag": null, "short_name": "\u826f\u53cb\u91d1\u4f34", "short_name_pinyin": "liangyoujinban", "status": null, "address": null, "name": null, "id": "32540"}, "mid": "888888854110292", "shopId": "32540", "netid": null, "province": 901, "district": 601, "zipcode": null, "telephone": "65624271", "posDate": "20090115", "destineTel": null, "togoTel": null, "trafficWay": "\u516c\u4ea491055147", "signBuilding": null, "businessArea": null, "selfRoom": null, "businessTime": "24\u5c0f\u65f6", "stall": null, "consume": null, "serviceFei": null, "favourable": null, "shopMemo": null, "appraise": null, "website": null, "memo": null, "payTypes": "\u6749\u5fb7\u5361  \u5361\u62bc\u91d1\u6d88\u8d39", "shopTypes": "\u4fbf\u5229\u5e97", "consumeTypes": null, "cookTypes": null, "orderNum": 1000, "card4no": null, "card4noAcc": null, "district2": 407, "searchScope": null, "status": 1, "address": "\u961c\u65b0\u8def171\u53f7", "name": "\u826f\u53cb\u91d1\u4f34 \u961c\u65b0\u5e97", "id": 139404, "pageNo": 0, "pageCount": null, "pageSize": 10, "ids": null, "endTime": null, "startTime": null}, {"cardNumFive": null, "isSupportYj": null, "cityName": null, "districtName": null, "shopinfo": {"mid": "888888854110292", "good_flag": null, "new_flag": null, "short_name": "\u826f\u53cb\u91d1\u4f34", "short_name_pinyin": "liangyoujinban", "status": null, "address": null, "name": null, "id": "32540"}, "mid": "888888854110292", "shopId": "32540", "netid": null, "province": 901, "district": 601, "zipcode": null, "telephone": "63263749", "posDate": "20090114", "destineTel": null, "togoTel": null, "trafficWay": "\u516c\u4ea424 109 864", "signBuilding": null, "businessArea": null, "selfRoom": null, "businessTime": "24\u5c0f\u65f6", "stall": null, "consume": null, "serviceFei": null, "favourable": null, "shopMemo": null, "appraise": null, "website": null, "memo": null, "payTypes": "\u6749\u5fb7\u5361  \u5361\u62bc\u91d1\u6d88\u8d39", "shopTypes": "\u4fbf\u5229\u5e97", "consumeTypes": null, "cookTypes": null, "orderNum": 1000, "card4no": null, "card4noAcc": null, "district2": 401, "searchScope": null, "status": 1, "address": "\u590d\u5174\u4e2d\u8def65\u53f7", "name": "\u826f\u53cb\u91d1\u4f34 \u590d\u5174\u4e2d\u5e97", "id": 139406, "pageNo": 0, "pageCount": null, "pageSize": 10, "ids": null, "endTime": null, "startTime": null}, {"cardNumFive": null, "isSupportYj": null, "cityName": null, "districtName": null, "shopinfo": {"mid": "888888854110292", "good_flag": null, "new_flag": null, "short_name": "\u826f\u53cb\u91d1\u4f34", "short_name_pinyin": "liangyoujinban", "status": null, "address": null, "name": null, "id": "32540"}, "mid": "888888854110292", "shopId": "32540", "netid": null, "province": 901, "district": 601, "zipcode": null, "telephone": "56407241", "posDate": "20090115", "destineTel": null, "togoTel": null, "trafficWay": "\u516c\u4ea4741 850 760", "signBuilding": null, "businessArea": null, "selfRoom": null, "businessTime": "24\u5c0f\u65f6", "stall": null, "consume": null, "serviceFei": null, "favourable": null, "shopMemo": null, "appraise": null, "website": null, "memo": null, "payTypes": "\u6749\u5fb7\u5361  \u5361\u62bc\u91d1\u6d88\u8d39", "shopTypes": "\u4fbf\u5229\u5e97", "consumeTypes": null, "cookTypes": null, "orderNum": 1000, "card4no": null, "card4noAcc": null, "district2": 416, "searchScope": null, "status": 1, "address": "\u5171\u5eb7\u8def415\u53f7", "name": "\u826f\u53cb\u91d1\u4f34 \u5171\u5eb7\u5e97", "id": 139407, "pageNo": 0, "pageCount": null, "pageSize": 10, "ids": null, "endTime": null, "startTime": null}, {"cardNumFive": null, "isSupportYj": null, "cityName": null, "districtName": null, "shopinfo": {"mid": "888888854110292", "good_flag": null, "new_flag": null, "short_name": "\u826f\u53cb\u91d1\u4f34", "short_name_pinyin": "liangyoujinban", "status": null, "address": null, "name": null, "id": "32540"}, "mid": "888888854110292", "shopId": "32540", "netid": null, "province": 901, "district": 601, "zipcode": null, "telephone": "64827412", "posDate": "20090114", "destineTel": null, "togoTel": null, "trafficWay": "\u516c\u4ea4157 50 718", "signBuilding": null, "businessArea": null, "selfRoom": null, "businessTime": "24\u5c0f\u65f6", "stall": null, "consume": null, "serviceFei": null, "favourable": null, "shopMemo": null, "appraise": null, "website": null, "memo": null, "payTypes": "\u6749\u5fb7\u5361   \u5361\u62bc\u91d1\u6d88\u8d39", "shopTypes": "\u4fbf\u5229\u5e97", "consumeTypes": null, "cookTypes": null, "orderNum": 1000, "card4no": null, "card4noAcc": null, "district2": 403, "searchScope": null, "status": 1, "address": "\u51a0\u751f\u56ed\u8def\u79d1\u82d1\u65b0\u67513\u53f7", "name": "\u826f\u53cb\u91d1\u4f34 \u51a0\u751f\u56ed\u5e97", "id": 139410, "pageNo": 0, "pageCount": null, "pageSize": 10, "ids": null, "endTime": null, "startTime": null}, {"cardNumFive": null, "isSupportYj": null, "cityName": null, "districtName": null, "shopinfo": {"mid": "888888854110292", "good_flag": null, "new_flag": null, "short_name": "\u826f\u53cb\u91d1\u4f34", "short_name_pinyin": "liangyoujinban", "status": null, "address": null, "name": null, "id": "32540"}, "mid": "888888854110292", "shopId": "32540", "netid": null, "province": 901, "district": 601, "zipcode": null, "telephone": "34074194", "posDate": "20090115", "destineTel": null, "togoTel": null, "trafficWay": "\u516c\u4ea4703\u95f5\u884c2\u989b\u5143\u7ebf", "signBuilding": null, "businessArea": null, "selfRoom": null, "businessTime": "24\u5c0f\u65f6", "stall": null, "consume": null, "serviceFei": null, "favourable": null, "shopMemo": null, "appraise": null, "website": null, "memo": null, "payTypes": "\u6749\u5fb7\u5361  \u5361\u62bc\u91d1\u6d88\u8d39", "shopTypes": "\u4fbf\u5229\u5e97", "consumeTypes": null, "cookTypes": null, "orderNum": 1000, "card4no": null, "card4noAcc": null, "district2": 409, "searchScope": null, "status": 1, "address": "\u5149\u534e\u8def287\u53f7", "name": "\u826f\u53cb\u91d1\u4f34 \u5149\u534e\u5e97", "id": 139411, "pageNo": 0, "pageCount": null, "pageSize": 10, "ids": null, "endTime": null, "startTime": null}, {"cardNumFive": null, "isSupportYj": null, "cityName": null, "districtName": null, "shopinfo": {"mid": "888888854110292", "good_flag": null, "new_flag": null, "short_name": "\u826f\u53cb\u91d1\u4f34", "short_name_pinyin": "liangyoujinban", "status": null, "address": null, "name": null, "id": "32540"}, "mid": "888888854110292", "shopId": "32540", "netid": null, "province": 901, "district": 601, "zipcode": null, "telephone": "64582499", "posDate": "20090115", "destineTel": null, "togoTel": null, "trafficWay": "\u516c\u4ea4703\u9a6c\u8398\u7ebf\u8398\u5434\u7ebf", "signBuilding": null, "businessArea": null, "selfRoom": null, "businessTime": "24\u5c0f\u65f6", "stall": null, "consume": null, "serviceFei": null, "favourable": null, "shopMemo": null, "appraise": null, "website": null, "memo": null, "payTypes": "\u6749\u5fb7\u5361  \u5361\u62bc\u91d1\u6d88\u8d39", "shopTypes": "\u4fbf\u5229\u5e97", "consumeTypes": null, "cookTypes": null, "orderNum": 1000, "card4no": null, "card4noAcc": null, "district2": 409, "searchScope": null, "status": 1, "address": "\u8d35\u90fd\u8def345\u5f0441\u53f7\u5e95\u5c42", "name": "\u826f\u53cb\u91d1\u4f34 \u8d35\u90fd\u5e97", "id": 139412, "pageNo": 0, "pageCount": null, "pageSize": 10, "ids": null, "endTime": null, "startTime": null}, {"cardNumFive": null, "isSupportYj": null, "cityName": null, "districtName": null, "shopinfo": {"mid": "888888854110292", "good_flag": null, "new_flag": null, "short_name": "\u826f\u53cb\u91d1\u4f34", "short_name_pinyin": "liangyoujinban", "status": null, "address": null, "name": null, "id": "32540"}, "mid": "888888854110292", "shopId": "32540", "netid": null, "province": 901, "district": 601, "zipcode": null, "telephone": "55051461", "posDate": "20090115", "destineTel": null, "togoTel": null, "trafficWay": "\u516c\u4ea4118 80 147", "signBuilding": null, "businessArea": null, "selfRoom": null, "businessTime": "24\u5c0f\u65f6", "stall": null, "consume": null, "serviceFei": null, "favourable": null, "shopMemo": null, "appraise": null, "website": null, "memo": null, "payTypes": "\u6749\u5fb7\u5361  \u5361\u62bc\u91d1\u6d88\u8d39", "shopTypes": "\u4fbf\u5229\u5e97", "consumeTypes": null, "cookTypes": null, "orderNum": 1000, "card4no": null, "card4noAcc": null, "district2": 407, "searchScope": null, "status": 1, "address": "\u56fd\u987a\u8def121\u53f7", "name": "\u826f\u53cb\u91d1\u4f34 \u56fd\u987a\u5e97", "id": 139413, "pageNo": 0, "pageCount": null, "pageSize": 10, "ids": null, "endTime": null, "startTime": null}, {"cardNumFive": null, "isSupportYj": null, "cityName": null, "districtName": null, "shopinfo": {"mid": "888888854110292", "good_flag": null, "new_flag": null, "short_name": "\u826f\u53cb\u91d1\u4f34", "short_name_pinyin": "liangyoujinban", "status": null, "address": null, "name": null, "id": "32540"}, "mid": "888888854110292", "shopId": "32540", "netid": null, "province": 901, "district": 601, "zipcode": null, "telephone": "62427598", "posDate": "20090114", "destineTel": null, "togoTel": null, "trafficWay": "\u516c\u4ea4739 807 938", "signBuilding": null, "businessArea": null, "selfRoom": null, "businessTime": "24\u5c0f\u65f6", "stall": null, "consume": null, "serviceFei": null, "favourable": null, "shopMemo": null, "appraise": null, "website": null, "memo": null, "payTypes": "\u6749\u5fb7\u5361  \u5361\u62bc\u91d1\u6d88\u8d39", "shopTypes": "\u4fbf\u5229\u5e97", "consumeTypes": null, "cookTypes": null, "orderNum": 1000, "card4no": null, "card4noAcc": null, "district2": 406, "searchScope": null, "status": 1, "address": "\u54c8\u5bc6\u8def2042\u53f7", "name": "\u826f\u53cb\u91d1\u4f34 \u54c8\u5bc6\u5e97", "id": 139414, "pageNo": 0, "pageCount": null, "pageSize": 10, "ids": null, "endTime": null, "startTime": null}, {"cardNumFive": null, "isSupportYj": null, "cityName": null, "districtName": null, "shopinfo": {"mid": "888888854110292", "good_flag": null, "new_flag": null, "short_name": "\u826f\u53cb\u91d1\u4f34", "short_name_pinyin": "liangyoujinban", "status": null, "address": null, "name": null, "id": "32540"}, "mid": "888888854110292", "shopId": "32540", "netid": null, "province": 901, "district": 601, "zipcode": null, "telephone": "62900173", "posDate": "20090114", "destineTel": null, "togoTel": null, "trafficWay": "\u516c\u4ea4807 \u8398\u5317\u4e13\u7ebf 739", "signBuilding": null, "businessArea": null, "selfRoom": null, "businessTime": "24\u5c0f\u65f6", "stall": null, "consume": null, "serviceFei": null, "favourable": null, "shopMemo": null, "appraise": null, "website": null, "memo": null, "payTypes": "\u6749\u5fb7\u5361  \u5361\u62bc\u91d1\u6d88\u8d39", "shopTypes": "\u4fbf\u5229\u5e97", "consumeTypes": null, "cookTypes": null, "orderNum": 1000, "card4no": null, "card4noAcc": null, "district2": 406, "searchScope": null, "status": 1, "address": "\u54c8\u5bc6\u8def432\u53f7", "name": "\u826f\u53cb\u91d1\u4f34 \u54c8\u5bc6\u4e00\u5e97", "id": 139415, "pageNo": 0, "pageCount": null, "pageSize": 10, "ids": null, "endTime": null, "startTime": null}, {"cardNumFive": null, "isSupportYj": null, "cityName": null, "districtName": null, "shopinfo": {"mid": "888888854110292", "good_flag": null, "new_flag": null, "short_name": "\u826f\u53cb\u91d1\u4f34", "short_name_pinyin": "liangyoujinban", "status": null, "address": null, "name": null, "id": "32540"}, "mid": "888888854110292", "shopId": "32540", "netid": null, "province": 901, "district": 601, "zipcode": null, "telephone": "63211255", "posDate": "20090115", "destineTel": null, "togoTel": null, "trafficWay": "\u516c\u4ea4426417", "signBuilding": null, "businessArea": null, "selfRoom": null, "businessTime": "24\u5c0f\u65f6", "stall": null, "consume": null, "serviceFei": null, "favourable": null, "shopMemo": null, "appraise": null, "website": null, "memo": null, "payTypes": "\u6749\u5fb7\u5361  \u5361\u62bc\u91d1\u6d88\u8d39", "shopTypes": "\u4fbf\u5229\u5e97", "consumeTypes": null, "cookTypes": null, "orderNum": 1000, "card4no": null, "card4noAcc": null, "district2": 401, "searchScope": null, "status": 1, "address": "\u6c49\u53e3\u8def126\u53f7", "name": "\u826f\u53cb\u91d1\u4f34 \u6c49\u53e3\u8def\u4e8c\u5e97", "id": 139417, "pageNo": 0, "pageCount": null, "pageSize": 10, "ids": null, "endTime": null, "startTime": null}], "pageLimit": 5980, "size": 10}