{"pageCount": 1095, "count": 10942, "pageNo": 594, "subShopInfo": {"cardNumFive": "", "isSupportYj": "", "cityName": null, "districtName": null, "shopinfo": {"mid": null, "good_flag": null, "new_flag": null, "short_name": null, "short_name_pinyin": null, "status": null, "address": "", "name": "", "id": null}, "mid": null, "shopId": null, "netid": null, "province": 901, "district": null, "zipcode": null, "telephone": null, "posDate": null, "destineTel": null, "togoTel": null, "trafficWay": null, "signBuilding": null, "businessArea": null, "selfRoom": null, "businessTime": null, "stall": null, "consume": null, "serviceFei": null, "favourable": null, "shopMemo": "1", "appraise": null, "website": null, "memo": null, "payTypes": "", "shopTypes": "", "consumeTypes": null, "cookTypes": null, "orderNum": null, "card4no": null, "card4noAcc": null, "district2": null, "searchScope": null, "status": null, "address": "", "name": null, "id": null, "pageNo": 593, "pageCount": null, "pageSize": 10, "ids": null, "endTime": null, "startTime": null}, "list": [{"cardNumFive": null, "isSupportYj": null, "cityName": null, "districtName": null, "shopinfo": {"mid": "888888856410004", "good_flag": "2", "new_flag": "2", "short_name": "\u4e50\u53cb\u5b55\u5a74\u7ae5", "short_name_pinyin": "leyouyunyingtong", "status": null, "address": null, "name": null, "id": "33466"}, "mid": "888888856410004", "shopId": "33466", "netid": null, "province": 901, "district": 601, "zipcode": null, "telephone": "52856549", "posDate": "200910", "destineTel": null, "togoTel": null, "trafficWay": null, "signBuilding": null, "businessArea": null, "selfRoom": null, "businessTime": null, "stall": null, "consume": null, "serviceFei": null, "favourable": null, "shopMemo": null, "appraise": null, "website": null, "memo": null, "payTypes": "\u6749\u5fb7\u5361", "shopTypes": "\u96f6\u552e,\u4e13\u5356", "consumeTypes": null, "cookTypes": null, "orderNum": 1000, "card4no": null, "card4noAcc": null, "district2": 405, "searchScope": null, "status": 1, "address": "\u6843\u6d66\u8def328\u53f7\u5bb6\u4e50\u798f1\u697c117B", "name": "\u5929\u5929\u52a0\u5206 \u6843\u6d66\u5e97", "id": 142581, "pageNo": 0, "pageCount": null, "pageSize": 10, "ids": null, "endTime": null, "startTime": null}, {"cardNumFive": null, "isSupportYj": null, "cityName": null, "districtName": null, "shopinfo": {"mid": "888888856410004", "good_flag": "2", "new_flag": "2", "short_name": "\u4e50\u53cb\u5b55\u5a74\u7ae5", "short_name_pinyin": "leyouyunyingtong", "status": null, "address": null, "name": null, "id": "33466"}, "mid": "888888856410004", "shopId": "33466", "netid": null, "province": 901, "district": 601, "zipcode": null, "telephone": "59760126", "posDate": "200909", "destineTel": null, "togoTel": null, "trafficWay": "\u516c\u4ea4\u6caa\u9752\u4e13\u7ebf\u3001\u6caa\u9752\u76c8\u4e13\u7ebf", "signBuilding": null, "businessArea": null, "selfRoom": null, "businessTime": null, "stall": null, "consume": null, "serviceFei": null, "favourable": null, "shopMemo": null, "appraise": null, "website": null, "memo": null, "payTypes": "\u6749\u5fb7\u5361", "shopTypes": "\u96f6\u552e,\u4e13\u5356", "consumeTypes": null, "cookTypes": null, "orderNum": 1000, "card4no": null, "card4noAcc": null, "district2": 417, "searchScope": null, "status": 1, "address": "\u6caa\u9752\u5e73\u516c\u8def1829\u53f72\u697c", "name": "\u5929\u5929\u52a0\u5206 \u5f90\u6cfe\u5e97", "id": 142584, "pageNo": 0, "pageCount": null, "pageSize": 10, "ids": null, "endTime": null, "startTime": null}, {"cardNumFive": null, "isSupportYj": null, "cityName": null, "districtName": null, "shopinfo": {"mid": "888888856410004", "good_flag": "2", "new_flag": "2", "short_name": "\u4e50\u53cb\u5b55\u5a74\u7ae5", "short_name_pinyin": "leyouyunyingtong", "status": null, "address": null, "name": null, "id": "33466"}, "mid": "888888856410004", "shopId": "33466", "netid": null, "province": 901, "district": 601, "zipcode": null, "telephone": "65186851", "posDate": "20081209", "destineTel": null, "togoTel": null, "trafficWay": "\u516c\u4ea490 \u5730\u94c1\u516b\u53f7\u7ebf", "signBuilding": null, "businessArea": null, "selfRoom": null, "businessTime": null, "stall": null, "consume": null, "serviceFei": null, "favourable": null, "shopMemo": null, "appraise": null, "website": null, "memo": null, "payTypes": "\u6749\u5fb7\u5361", "shopTypes": "\u96f6\u552e,\u4e13\u5356", "consumeTypes": null, "cookTypes": null, "orderNum": 1000, "card4no": null, "card4noAcc": null, "district2": 407, "searchScope": null, "status": 1, "address": "\u5ef6\u5409\u4e2d\u8def435\u53f7", "name": "\u5929\u5929\u52a0\u5206 \u5ef6\u5409\u4e2d\u8def\u5e97", "id": 142585, "pageNo": 0, "pageCount": null, "pageSize": 10, "ids": null, "endTime": null, "startTime": null}, {"cardNumFive": null, "isSupportYj": null, "cityName": null, "districtName": null, "shopinfo": {"mid": "888888856410004", "good_flag": "2", "new_flag": "2", "short_name": "\u4e50\u53cb\u5b55\u5a74\u7ae5", "short_name_pinyin": "leyouyunyingtong", "status": null, "address": null, "name": null, "id": "33466"}, "mid": "888888856410004", "shopId": "33466", "netid": null, "province": 901, "district": 601, "zipcode": null, "telephone": "57336564", "posDate": "20081208", "destineTel": null, "togoTel": null, "trafficWay": "\u516c\u4ea4\u83b2\u6731\u4e13\u7ebf \u6731\u6cfe\u4e8c\u8def", "signBuilding": null, "businessArea": null, "selfRoom": null, "businessTime": null, "stall": null, "consume": null, "serviceFei": null, "favourable": null, "shopMemo": null, "appraise": null, "website": null, "memo": null, "payTypes": "\u6749\u5fb7\u5361", "shopTypes": "\u4e13\u5356,\u96f6\u552e", "consumeTypes": null, "cookTypes": null, "orderNum": 1000, "card4no": null, "card4noAcc": null, "district2": 414, "searchScope": null, "status": 1, "address": "\u6731\u6cfe\u9547\u7f57\u661f\u8def158\u53f7", "name": "\u5929\u5929\u52a0\u5206 \u6731\u6cfe\u5e97", "id": 142589, "pageNo": 0, "pageCount": null, "pageSize": 10, "ids": null, "endTime": null, "startTime": null}, {"cardNumFive": null, "isSupportYj": null, "cityName": null, "districtName": null, "shopinfo": {"mid": "888888854510009", "good_flag": "2", "new_flag": "2", "short_name": "\u8054\u5e2e\u6d66\u5174\u76db\u6865\u65e5\u7528\u6742\u8d27\uff08\u5feb\u76db\uff09", "short_name_pinyin": "lianbangpuxingshengqiaoriyongzahuo\uff08kuaisheng\uff09", "status": null, "address": null, "name": null, "id": "32455"}, "mid": "888888854510009", "shopId": "32455", "netid": null, "province": 901, "district": 601, "zipcode": null, "telephone": null, "posDate": "20080624", "destineTel": null, "togoTel": null, "trafficWay": "\u516c\u4ea4783 797", "signBuilding": null, "businessArea": null, "selfRoom": null, "businessTime": null, "stall": null, "consume": null, "serviceFei": null, "favourable": null, "shopMemo": null, "appraise": null, "website": null, "memo": null, "payTypes": "\u6749\u5fb7\u5361", "shopTypes": "\u767e\u8d27", "consumeTypes": null, "cookTypes": null, "orderNum": 1000, "card4no": null, "card4noAcc": null, "district2": 418, "searchScope": null, "status": 1, "address": "\u535a\u5174\u8def1369\u53f7", "name": "\u8054\u5e2e\u6d66\u5174\u76db\u6865\u65e5\u7528\u6742\u8d27\uff08\u5feb\u76db\uff09 \u535a\u5174\u8def\u5e97", "id": 139213, "pageNo": 0, "pageCount": null, "pageSize": 10, "ids": null, "endTime": null, "startTime": null}, {"cardNumFive": null, "isSupportYj": null, "cityName": null, "districtName": null, "shopinfo": {"mid": "888888854510009", "good_flag": "2", "new_flag": "2", "short_name": "\u8054\u5e2e\u6d66\u5174\u76db\u6865\u65e5\u7528\u6742\u8d27\uff08\u5feb\u76db\uff09", "short_name_pinyin": "lianbangpuxingshengqiaoriyongzahuo\uff08kuaisheng\uff09", "status": null, "address": null, "name": null, "id": "32455"}, "mid": "888888854510009", "shopId": "32455", "netid": null, "province": 901, "district": 601, "zipcode": null, "telephone": null, "posDate": "20080624", "destineTel": null, "togoTel": null, "trafficWay": "\u5730\u94c1\u516d\u53f7\u7ebf", "signBuilding": null, "businessArea": "200\u5e73\u65b9\u7c73", "selfRoom": null, "businessTime": "10:00~18:00", "stall": "\u6709", "consume": null, "serviceFei": null, "favourable": null, "shopMemo": null, "appraise": null, "website": null, "memo": null, "payTypes": "\u6749\u5fb7\u5361", "shopTypes": "\u767e\u8d27", "consumeTypes": null, "cookTypes": null, "orderNum": 1000, "card4no": null, "card4noAcc": null, "district2": 418, "searchScope": null, "status": 1, "address": "\u5f20\u6768\u5317\u8def535\u53f7", "name": "\u8054\u5e2e\u6d66\u5174\u76db\u6865\u65e5\u7528\u6742\u8d27\uff08\u5feb\u76db\uff09 \u5f20\u6768\u5317\u8def\u670d\u52a1\u793e", "id": 139214, "pageNo": 0, "pageCount": null, "pageSize": 10, "ids": null, "endTime": null, "startTime": null}, {"cardNumFive": null, "isSupportYj": null, "cityName": null, "districtName": null, "shopinfo": {"mid": "888888880430089", "good_flag": "1", "new_flag": "1", "short_name": "\u4eae\u89c6\u70b9", "short_name_pinyin": "liangshidian", "status": null, "address": null, "name": null, "id": "32549"}, "mid": "888888880430089", "shopId": "32549", "netid": null, "province": 901, "district": 601, "zipcode": null, "telephone": "64267624", "posDate": "20091228", "destineTel": null, "togoTel": null, "trafficWay": null, "signBuilding": null, "businessArea": null, "selfRoom": null, "businessTime": null, "stall": null, "consume": null, "serviceFei": null, "favourable": null, "shopMemo": null, "appraise": null, "website": null, "memo": null, "payTypes": "\u6749\u5fb7\u5361", "shopTypes": "\u96f6\u552e", "consumeTypes": null, "cookTypes": null, "orderNum": 1000, "card4no": null, "card4noAcc": null, "district2": 403, "searchScope": null, "status": 1, "address": "\u8087\u5609\u6d5c\u8def1111\u53f7\u4e00\u697cA\u533a1-2\u5355\u5143", "name": "\u4eae\u89c6\u70b9 \u8087\u5609\u6d5c\u8def\u5e97", "id": 139659, "pageNo": 0, "pageCount": null, "pageSize": 10, "ids": null, "endTime": null, "startTime": null}, {"cardNumFive": null, "isSupportYj": null, "cityName": null, "districtName": null, "shopinfo": {"mid": "888888856910055", "good_flag": "2", "new_flag": "2", "short_name": "\u826f\u5e78\u5185\u8863", "short_name_pinyin": "liangxingneiyi", "status": null, "address": null, "name": null, "id": "32538"}, "mid": "888888856910055", "shopId": "32538", "netid": null, "province": 901, "district": 601, "zipcode": null, "telephone": null, "posDate": "20070718", "destineTel": null, "togoTel": null, "trafficWay": "\u516c\u4ea4147 991", "signBuilding": null, "businessArea": null, "selfRoom": null, "businessTime": null, "stall": null, "consume": null, "serviceFei": null, "favourable": null, "shopMemo": null, "appraise": null, "website": null, "memo": null, "payTypes": "\u6749\u5fb7\u5361", "shopTypes": "\u96f6\u552e,\u4e13\u5356", "consumeTypes": null, "cookTypes": null, "orderNum": 1000, "card4no": null, "card4noAcc": null, "district2": 407, "searchScope": null, "status": 1, "address": "\u9ec4\u5174\u8def1618\u53f7", "name": "\u826f\u5e78\u5185\u8863 \u9ec4\u5174\u5e97", "id": 139342, "pageNo": 0, "pageCount": null, "pageSize": 10, "ids": null, "endTime": null, "startTime": null}, {"cardNumFive": null, "isSupportYj": null, "cityName": null, "districtName": null, "shopinfo": {"mid": "888888854110292", "good_flag": null, "new_flag": null, "short_name": "\u826f\u53cb\u91d1\u4f34", "short_name_pinyin": "liangyoujinban", "status": null, "address": null, "name": null, "id": "32540"}, "mid": "888888854110292", "shopId": "32540", "netid": null, "province": 901, "district": 601, "zipcode": null, "telephone": "62403149", "posDate": "20090114", "destineTel": null, "togoTel": null, "trafficWay": "\u516c\u4ea4\u673a\u573a\u516d\u7ebf 947 519", "signBuilding": null, "businessArea": null, "selfRoom": null, "businessTime": "24\u5c0f\u65f6", "stall": null, "consume": null, "serviceFei": null, "favourable": null, "shopMemo": null, "appraise": null, "website": null, "memo": null, "payTypes": "\u6749\u5fb7\u5361  \u5361\u62bc\u91d1\u6d88\u8d39", "shopTypes": "\u4fbf\u5229\u5e97", "consumeTypes": null, "cookTypes": null, "orderNum": 1000, "card4no": null, "card4noAcc": null, "district2": 406, "searchScope": null, "status": 1, "address": "\u5b89\u5316\u8def440\u53f7", "name": "\u826f\u53cb\u91d1\u4f34 \u5b89\u5316\u5e97", "id": 139348, "pageNo": 0, "pageCount": null, "pageSize": 10, "ids": null, "endTime": null, "startTime": null}, {"cardNumFive": null, "isSupportYj": null, "cityName": null, "districtName": null, "shopinfo": {"mid": "888888854110292", "good_flag": null, "new_flag": null, "short_name": "\u826f\u53cb\u91d1\u4f34", "short_name_pinyin": "liangyoujinban", "status": null, "address": null, "name": null, "id": "32540"}, "mid": "888888854110292", "shopId": "32540", "netid": null, "province": 901, "district": 601, "zipcode": null, "telephone": "62788856", "posDate": "20090114", "destineTel": null, "togoTel": null, "trafficWay": "\u516c\u4ea4748 48 141", "signBuilding": null, "businessArea": null, "selfRoom": null, "businessTime": "24\u5c0f\u65f6", "stall": null, "consume": null, "serviceFei": null, "favourable": null, "shopMemo": null, "appraise": null, "website": null, "memo": null, "payTypes": "\u6749\u5fb7\u5361  \u5361\u62bc\u91d1\u6d88\u8d39", "shopTypes": "\u4fbf\u5229\u5e97", "consumeTypes": null, "cookTypes": null, "orderNum": 1000, "card4no": null, "card4noAcc": null, "district2": 406, "searchScope": null, "status": 1, "address": "\u5b89\u987a\u8def241\u53f7", "name": "\u826f\u53cb\u91d1\u4f34 \u5b89\u987a\u4e00\u5e97", "id": 139350, "pageNo": 0, "pageCount": null, "pageSize": 10, "ids": null, "endTime": null, "startTime": null}], "pageLimit": 5930, "size": 10}