{"pageCount": 1095, "count": 10942, "pageNo": 593, "subShopInfo": {"cardNumFive": "", "isSupportYj": "", "cityName": null, "districtName": null, "shopinfo": {"mid": null, "good_flag": null, "new_flag": null, "short_name": null, "short_name_pinyin": null, "status": null, "address": "", "name": "", "id": null}, "mid": null, "shopId": null, "netid": null, "province": 901, "district": null, "zipcode": null, "telephone": null, "posDate": null, "destineTel": null, "togoTel": null, "trafficWay": null, "signBuilding": null, "businessArea": null, "selfRoom": null, "businessTime": null, "stall": null, "consume": null, "serviceFei": null, "favourable": null, "shopMemo": "1", "appraise": null, "website": null, "memo": null, "payTypes": "", "shopTypes": "", "consumeTypes": null, "cookTypes": null, "orderNum": null, "card4no": null, "card4noAcc": null, "district2": null, "searchScope": null, "status": null, "address": "", "name": null, "id": null, "pageNo": 592, "pageCount": null, "pageSize": 10, "ids": null, "endTime": null, "startTime": null}, "list": [{"cardNumFive": null, "isSupportYj": null, "cityName": null, "districtName": null, "shopinfo": {"mid": "888002159121242", "good_flag": null, "new_flag": null, "short_name": "\u96f7\u5141\u4e0a", "short_name_pinyin": "leiyunshang", "status": null, "address": null, "name": null, "id": "36322"}, "mid": "888002159121242", "shopId": "36322", "netid": null, "province": 901, "district": 601, "zipcode": null, "telephone": "64107320", "posDate": "20100819", "destineTel": null, "togoTel": null, "trafficWay": null, "signBuilding": null, "businessArea": null, "selfRoom": null, "businessTime": null, "stall": null, "consume": null, "serviceFei": null, "favourable": null, "shopMemo": null, "appraise": null, "website": null, "memo": null, "payTypes": "\u6749\u5fb7\u5361", "shopTypes": "\u836f\u5e97", "consumeTypes": null, "cookTypes": null, "orderNum": 1000, "card4no": null, "card4noAcc": null, "district2": 409, "searchScope": null, "status": 1, "address": "\u4e0a\u4e2d\u897f\u8def718\u53f7", "name": "\u96f7\u5141\u4e0a \u4e0a\u4e2d\u897f\u8def\u5e97", "id": 151221, "pageNo": 0, "pageCount": null, "pageSize": 10, "ids": null, "endTime": null, "startTime": null}, {"cardNumFive": null, "isSupportYj": null, "cityName": null, "districtName": null, "shopinfo": {"mid": "888888859120156", "good_flag": null, "new_flag": null, "short_name": "\u96f7\u5141\u4e0a", "short_name_pinyin": "leiyunshang", "status": null, "address": null, "name": null, "id": "38967"}, "mid": "888888859120156", "shopId": "38967", "netid": null, "province": 901, "district": 601, "zipcode": null, "telephone": null, "posDate": null, "destineTel": null, "togoTel": null, "trafficWay": null, "signBuilding": null, "businessArea": null, "selfRoom": null, "businessTime": null, "stall": null, "consume": null, "serviceFei": null, "favourable": null, "shopMemo": null, "appraise": null, "website": null, "memo": null, "payTypes": "\u6749\u5fb7\u5361", "shopTypes": "\u836f\u5e97", "consumeTypes": null, "cookTypes": null, "orderNum": 1000, "card4no": null, "card4noAcc": null, "district2": 409, "searchScope": null, "status": 1, "address": "\u5434\u4e2d\u8def1218\u53f71\u697c", "name": "\u96f7\u5141\u4e0a \u5065\u5eb7\u5434\u4e2d\u5e97", "id": 164918, "pageNo": 0, "pageCount": null, "pageSize": 10, "ids": null, "endTime": null, "startTime": null}, {"cardNumFive": null, "isSupportYj": null, "cityName": null, "districtName": null, "shopinfo": {"mid": "888888854110300", "good_flag": "2", "new_flag": "2", "short_name": "\u4e50\u5bb6\u8d85\u5e02", "short_name_pinyin": "lejiachaoshi", "status": null, "address": null, "name": null, "id": "32363"}, "mid": "888888854110300", "shopId": "32363", "netid": null, "province": 901, "district": 601, "zipcode": null, "telephone": "64508586", "posDate": null, "destineTel": null, "togoTel": null, "trafficWay": "729\u3001958", "signBuilding": null, "businessArea": null, "selfRoom": null, "businessTime": null, "stall": null, "consume": null, "serviceFei": null, "favourable": null, "shopMemo": null, "appraise": null, "website": null, "memo": null, "payTypes": "\u6749\u5fb7\u5361", "shopTypes": "\u8d85\u5e02", "consumeTypes": null, "cookTypes": null, "orderNum": 1000, "card4no": null, "card4noAcc": null, "district2": 409, "searchScope": null, "status": 1, "address": "\u5b9d\u79c0\u8def763\u53f7201\u5ba4", "name": "\u4e50\u5bb6\u8d85\u5e02 \u5b9d\u79c0\u8def\u5e97", "id": 139076, "pageNo": 0, "pageCount": null, "pageSize": 10, "ids": null, "endTime": null, "startTime": null}, {"cardNumFive": null, "isSupportYj": null, "cityName": null, "districtName": null, "shopinfo": {"mid": "888002154110670", "good_flag": null, "new_flag": null, "short_name": "\u4e50\u5ba2\u739b\u8d85\u5e02", "short_name_pinyin": "lekemachaoshi", "status": null, "address": null, "name": null, "id": "42819"}, "mid": "888002154110670", "shopId": "42819", "netid": null, "province": 901, "district": 601, "zipcode": null, "telephone": null, "posDate": null, "destineTel": null, "togoTel": null, "trafficWay": null, "signBuilding": null, "businessArea": null, "selfRoom": null, "businessTime": null, "stall": null, "consume": null, "serviceFei": null, "favourable": null, "shopMemo": null, "appraise": null, "website": null, "memo": null, "payTypes": "\u6749\u5fb7\u5361", "shopTypes": "\u8d85\u5e02", "consumeTypes": null, "cookTypes": null, "orderNum": 1000, "card4no": null, "card4noAcc": null, "district2": 409, "searchScope": null, "status": 1, "address": "\u9e64\u5e86\u8def900\u53f71\u53f7\u697c1-2\u697c", "name": "\u4e50\u5ba2\u739b\u8d85\u5e02 \u9e64\u5e86\u8def\u5e97", "id": 189590, "pageNo": 0, "pageCount": null, "pageSize": 10, "ids": null, "endTime": null, "startTime": null}, {"cardNumFive": null, "isSupportYj": null, "cityName": null, "districtName": null, "shopinfo": {"mid": "888888853990157", "good_flag": "2", "new_flag": "2", "short_name": "\u4e50\u4e50\u5ba0\u7269", "short_name_pinyin": "lelechongwu", "status": null, "address": null, "name": null, "id": "32364"}, "mid": "888888853990157", "shopId": "32364", "netid": null, "province": 901, "district": 601, "zipcode": null, "telephone": "29077171", "posDate": "20081203", "destineTel": null, "togoTel": null, "trafficWay": "\u516c\u4ea445 49 104", "signBuilding": null, "businessArea": null, "selfRoom": null, "businessTime": null, "stall": null, "consume": null, "serviceFei": null, "favourable": null, "shopMemo": null, "appraise": null, "website": null, "memo": null, "payTypes": "\u6749\u5fb7\u5361", "shopTypes": "\u5176\u4ed6", "consumeTypes": null, "cookTypes": null, "orderNum": 1000, "card4no": null, "card4noAcc": null, "district2": 403, "searchScope": null, "status": 1, "address": "\u6e05\u771f\u8def42\u53f7", "name": "\u4e50\u4e50\u5ba0\u7269 \u6e05\u771f\u8def\u5e97", "id": 139077, "pageNo": 0, "pageCount": null, "pageSize": 10, "ids": null, "endTime": null, "startTime": null}, {"cardNumFive": null, "isSupportYj": null, "cityName": null, "districtName": null, "shopinfo": {"mid": "888002159121177", "good_flag": "2", "new_flag": "2", "short_name": "\u4e50\u5b81\u836f\u623f", "short_name_pinyin": "leningyaofang", "status": null, "address": null, "name": null, "id": "32365"}, "mid": "888002159121177", "shopId": "32365", "netid": null, "province": 901, "district": 601, "zipcode": null, "telephone": "64517808", "posDate": "200910", "destineTel": null, "togoTel": null, "trafficWay": null, "signBuilding": null, "businessArea": null, "selfRoom": null, "businessTime": null, "stall": null, "consume": null, "serviceFei": null, "favourable": null, "shopMemo": null, "appraise": null, "website": null, "memo": null, "payTypes": "\u6749\u5fb7\u5361", "shopTypes": "\u836f\u5e97", "consumeTypes": null, "cookTypes": null, "orderNum": 1000, "card4no": null, "card4noAcc": null, "district2": 403, "searchScope": null, "status": 1, "address": "\u8679\u6f15\u8def217\u53f7", "name": "\u4e50\u5b81\u836f\u623f \u8679\u6f15\u8def\u5e97", "id": 139078, "pageNo": 0, "pageCount": null, "pageSize": 10, "ids": null, "endTime": null, "startTime": null}, {"cardNumFive": null, "isSupportYj": null, "cityName": null, "districtName": null, "shopinfo": {"mid": "888888856410004", "good_flag": "2", "new_flag": "2", "short_name": "\u4e50\u53cb\u5b55\u5a74\u7ae5", "short_name_pinyin": "leyouyunyingtong", "status": null, "address": null, "name": null, "id": "33466"}, "mid": "888888856410004", "shopId": "33466", "netid": null, "province": 901, "district": 601, "zipcode": null, "telephone": "66356325", "posDate": "20100111", "destineTel": null, "togoTel": null, "trafficWay": null, "signBuilding": null, "businessArea": null, "selfRoom": null, "businessTime": null, "stall": null, "consume": null, "serviceFei": null, "favourable": null, "shopMemo": null, "appraise": null, "website": null, "memo": null, "payTypes": "\u6749\u5fb7\u5361", "shopTypes": "\u96f6\u552e,\u4e13\u5356", "consumeTypes": null, "cookTypes": null, "orderNum": 1000, "card4no": null, "card4noAcc": null, "district2": 405, "searchScope": null, "status": 1, "address": "\u5927\u534e\u8def518\u53f7\u4e8c\u697cS43", "name": "\u5929\u5929\u52a0\u5206 \u5927\u534e\u8def\u5e97", "id": 142574, "pageNo": 0, "pageCount": null, "pageSize": 10, "ids": null, "endTime": null, "startTime": null}, {"cardNumFive": null, "isSupportYj": null, "cityName": null, "districtName": null, "shopinfo": {"mid": "888888856410004", "good_flag": "2", "new_flag": "2", "short_name": "\u4e50\u53cb\u5b55\u5a74\u7ae5", "short_name_pinyin": "leyouyunyingtong", "status": null, "address": null, "name": null, "id": "33466"}, "mid": "888888856410004", "shopId": "33466", "netid": null, "province": 901, "district": 601, "zipcode": null, "telephone": "67758316", "posDate": "20081210", "destineTel": null, "togoTel": null, "trafficWay": "\u516c\u4ea4\u6caa\u9648\u7ebf", "signBuilding": null, "businessArea": null, "selfRoom": null, "businessTime": null, "stall": null, "consume": null, "serviceFei": null, "favourable": null, "shopMemo": null, "appraise": null, "website": null, "memo": null, "payTypes": "\u6749\u5fb7\u5361", "shopTypes": "\u96f6\u552e,\u4e13\u5356", "consumeTypes": null, "cookTypes": null, "orderNum": 1000, "card4no": null, "card4noAcc": null, "district2": 412, "searchScope": null, "status": 1, "address": "\u6caa\u4ead\u5317\u8def780\u53f7", "name": "\u5929\u5929\u52a0\u5206 \u6caa\u4ead\u5317\u8def\u5e97", "id": 142576, "pageNo": 0, "pageCount": null, "pageSize": 10, "ids": null, "endTime": null, "startTime": null}, {"cardNumFive": null, "isSupportYj": null, "cityName": null, "districtName": null, "shopinfo": {"mid": "888888856410004", "good_flag": "2", "new_flag": "2", "short_name": "\u4e50\u53cb\u5b55\u5a74\u7ae5", "short_name_pinyin": "leyouyunyingtong", "status": null, "address": null, "name": null, "id": "33466"}, "mid": "888888856410004", "shopId": "33466", "netid": null, "province": 901, "district": 601, "zipcode": null, "telephone": "64021427", "posDate": "20081210", "destineTel": null, "togoTel": null, "trafficWay": "\u516c\u4ea4721 753 57", "signBuilding": null, "businessArea": null, "selfRoom": null, "businessTime": null, "stall": null, "consume": null, "serviceFei": null, "favourable": null, "shopMemo": null, "appraise": null, "website": null, "memo": null, "payTypes": "\u6749\u5fb7\u5361", "shopTypes": "\u96f6\u552e,\u4e13\u5356", "consumeTypes": null, "cookTypes": null, "orderNum": 1000, "card4no": null, "card4noAcc": null, "district2": 409, "searchScope": null, "status": 1, "address": "\u9ec4\u6866\u8def82\u53f7", "name": "\u5929\u5929\u52a0\u5206 \u9ec4\u6866\u8def\u5e97", "id": 142577, "pageNo": 0, "pageCount": null, "pageSize": 10, "ids": null, "endTime": null, "startTime": null}, {"cardNumFive": null, "isSupportYj": null, "cityName": null, "districtName": null, "shopinfo": {"mid": "888888856410004", "good_flag": "2", "new_flag": "2", "short_name": "\u4e50\u53cb\u5b55\u5a74\u7ae5", "short_name_pinyin": "leyouyunyingtong", "status": null, "address": null, "name": null, "id": "33466"}, "mid": "888888856410004", "shopId": "33466", "netid": null, "province": 901, "district": 601, "zipcode": null, "telephone": "56330621", "posDate": "20081209", "destineTel": null, "togoTel": null, "trafficWay": "\u516c\u4ea4108 518", "signBuilding": null, "businessArea": null, "selfRoom": null, "businessTime": null, "stall": null, "consume": null, "serviceFei": null, "favourable": null, "shopMemo": null, "appraise": null, "website": null, "memo": null, "payTypes": "\u6749\u5fb7\u5361", "shopTypes": "\u96f6\u552e,\u4e13\u5356", "consumeTypes": null, "cookTypes": null, "orderNum": 1000, "card4no": null, "card4noAcc": null, "district2": 410, "searchScope": null, "status": 1, "address": "\u5e73\u578b\u5173\u8def481\u53f7", "name": "\u5929\u5929\u52a0\u5206 \u5e73\u578b\u5173\u8def\u5e97", "id": 142580, "pageNo": 0, "pageCount": null, "pageSize": 10, "ids": null, "endTime": null, "startTime": null}], "pageLimit": 5920, "size": 10}