{"pageCount": 1095, "count": 10942, "pageNo": 603, "subShopInfo": {"cardNumFive": "", "isSupportYj": "", "cityName": null, "districtName": null, "shopinfo": {"mid": null, "good_flag": null, "new_flag": null, "short_name": null, "short_name_pinyin": null, "status": null, "address": "", "name": "", "id": null}, "mid": null, "shopId": null, "netid": null, "province": 901, "district": null, "zipcode": null, "telephone": null, "posDate": null, "destineTel": null, "togoTel": null, "trafficWay": null, "signBuilding": null, "businessArea": null, "selfRoom": null, "businessTime": null, "stall": null, "consume": null, "serviceFei": null, "favourable": null, "shopMemo": "1", "appraise": null, "website": null, "memo": null, "payTypes": "", "shopTypes": "", "consumeTypes": null, "cookTypes": null, "orderNum": null, "card4no": null, "card4noAcc": null, "district2": null, "searchScope": null, "status": null, "address": "", "name": null, "id": null, "pageNo": 602, "pageCount": null, "pageSize": 10, "ids": null, "endTime": null, "startTime": null}, "list": [{"cardNumFive": null, "isSupportYj": null, "cityName": null, "districtName": null, "shopinfo": {"mid": "888888854110292", "good_flag": null, "new_flag": null, "short_name": "\u826f\u53cb\u91d1\u4f34", "short_name_pinyin": "liangyoujinban", "status": null, "address": null, "name": null, "id": "32540"}, "mid": "888888854110292", "shopId": "32540", "netid": null, "province": 901, "district": 601, "zipcode": null, "telephone": "62033895", "posDate": "20090115", "destineTel": null, "togoTel": null, "trafficWay": "\u516c\u4ea422440846", "signBuilding": null, "businessArea": null, "selfRoom": null, "businessTime": "24\u5c0f\u65f6", "stall": null, "consume": null, "serviceFei": null, "favourable": null, "shopMemo": null, "appraise": null, "website": null, "memo": null, "payTypes": "\u6749\u5fb7\u5361  \u5361\u62bc\u91d1\u6d88\u8d39", "shopTypes": "\u4fbf\u5229\u5e97", "consumeTypes": null, "cookTypes": null, "orderNum": 1000, "card4no": null, "card4noAcc": null, "district2": 405, "searchScope": null, "status": 1, "address": "\u5c9a\u768b\u897f\u8def65\u53f7", "name": "\u826f\u53cb\u91d1\u4f34 \u5c9a\u768b\u897f\u5e97", "id": 139468, "pageNo": 0, "pageCount": null, "pageSize": 10, "ids": null, "endTime": null, "startTime": null}, {"cardNumFive": null, "isSupportYj": null, "cityName": null, "districtName": null, "shopinfo": {"mid": "888888854110292", "good_flag": null, "new_flag": null, "short_name": "\u826f\u53cb\u91d1\u4f34", "short_name_pinyin": "liangyoujinban", "status": null, "address": null, "name": null, "id": "32540"}, "mid": "888888854110292", "shopId": "32540", "netid": null, "province": 901, "district": 601, "zipcode": null, "telephone": "65035839", "posDate": "20090115", "destineTel": null, "togoTel": null, "trafficWay": "\u516c\u4ea414103\u533a\u95f4103", "signBuilding": null, "businessArea": null, "selfRoom": null, "businessTime": "24\u5c0f\u65f6", "stall": null, "consume": null, "serviceFei": null, "favourable": null, "shopMemo": null, "appraise": null, "website": null, "memo": null, "payTypes": "\u6749\u5fb7\u5361  \u5361\u62bc\u91d1\u6d88\u8d39", "shopTypes": "\u4fbf\u5229\u5e97", "consumeTypes": null, "cookTypes": null, "orderNum": 1000, "card4no": null, "card4noAcc": null, "district2": 407, "searchScope": null, "status": 1, "address": "\u8fbd\u6e90\u897f\u8def326\u53f7", "name": "\u826f\u53cb\u91d1\u4f34 \u8fbd\u6e90\u897f\u5e97", "id": 139473, "pageNo": 0, "pageCount": null, "pageSize": 10, "ids": null, "endTime": null, "startTime": null}, {"cardNumFive": null, "isSupportYj": null, "cityName": null, "districtName": null, "shopinfo": {"mid": "888888854110292", "good_flag": null, "new_flag": null, "short_name": "\u826f\u53cb\u91d1\u4f34", "short_name_pinyin": "liangyoujinban", "status": null, "address": null, "name": null, "id": "32540"}, "mid": "888888854110292", "shopId": "32540", "netid": null, "province": 901, "district": 601, "zipcode": null, "telephone": "56415100", "posDate": "20090115", "destineTel": null, "togoTel": null, "trafficWay": "\u516c\u4ea4745 722 741", "signBuilding": null, "businessArea": null, "selfRoom": null, "businessTime": "24\u5c0f\u65f6", "stall": null, "consume": null, "serviceFei": null, "favourable": null, "shopMemo": null, "appraise": null, "website": null, "memo": null, "payTypes": "\u6749\u5fb7\u5361  \u5361\u62bc\u91d1\u6d88\u8d39", "shopTypes": "\u4fbf\u5229\u5e97", "consumeTypes": null, "cookTypes": null, "orderNum": 1000, "card4no": null, "card4noAcc": null, "district2": 410, "searchScope": null, "status": 1, "address": "\u4e34\u6c7e\u8def1314-1316\u53f7", "name": "\u826f\u53cb\u91d1\u4f34 \u4e34\u6c7e\u5e97", "id": 139474, "pageNo": 0, "pageCount": null, "pageSize": 10, "ids": null, "endTime": null, "startTime": null}, {"cardNumFive": null, "isSupportYj": null, "cityName": null, "districtName": null, "shopinfo": {"mid": "888888854110292", "good_flag": null, "new_flag": null, "short_name": "\u826f\u53cb\u91d1\u4f34", "short_name_pinyin": "liangyoujinban", "status": null, "address": null, "name": null, "id": "32540"}, "mid": "888888854110292", "shopId": "32540", "netid": null, "province": 901, "district": 601, "zipcode": null, "telephone": "56793779", "posDate": "20090115", "destineTel": null, "togoTel": null, "trafficWay": "\u516c\u4ea4206 845 172", "signBuilding": null, "businessArea": null, "selfRoom": null, "businessTime": "24\u5c0f\u65f6", "stall": null, "consume": null, "serviceFei": null, "favourable": null, "shopMemo": null, "appraise": null, "website": null, "memo": null, "payTypes": "\u6749\u5fb7\u5361  \u5361\u62bc\u91d1\u6d88\u8d39", "shopTypes": "\u4fbf\u5229\u5e97", "consumeTypes": null, "cookTypes": null, "orderNum": 1000, "card4no": null, "card4noAcc": null, "district2": 410, "searchScope": null, "status": 1, "address": "\u4e34\u6c7e\u8def646\u53f7", "name": "\u826f\u53cb\u91d1\u4f34 \u4e34\u6c7e\u8def\u4e8c\u5e97", "id": 139475, "pageNo": 0, "pageCount": null, "pageSize": 10, "ids": null, "endTime": null, "startTime": null}, {"cardNumFive": null, "isSupportYj": null, "cityName": null, "districtName": null, "shopinfo": {"mid": "888888854110292", "good_flag": null, "new_flag": null, "short_name": "\u826f\u53cb\u91d1\u4f34", "short_name_pinyin": "liangyoujinban", "status": null, "address": null, "name": null, "id": "32540"}, "mid": "888888854110292", "shopId": "32540", "netid": null, "province": 901, "district": 601, "zipcode": null, "telephone": "56425567", "posDate": "20090115", "destineTel": null, "togoTel": null, "trafficWay": "\u516c\u4ea4206 845 172", "signBuilding": null, "businessArea": null, "selfRoom": null, "businessTime": "24\u5c0f\u65f6", "stall": null, "consume": null, "serviceFei": null, "favourable": null, "shopMemo": null, "appraise": null, "website": null, "memo": null, "payTypes": "\u6749\u5fb7\u5361  \u5361\u62bc\u91d1\u6d88\u8d39", "shopTypes": "\u4fbf\u5229\u5e97", "consumeTypes": null, "cookTypes": null, "orderNum": 1000, "card4no": null, "card4noAcc": null, "district2": 410, "searchScope": null, "status": 1, "address": "\u4e34\u6c7e\u8def971\u5f0438\u53f7", "name": "\u826f\u53cb\u91d1\u4f34 \u4e34\u6c7e\u4e00\u5e97", "id": 139476, "pageNo": 0, "pageCount": null, "pageSize": 10, "ids": null, "endTime": null, "startTime": null}, {"cardNumFive": null, "isSupportYj": null, "cityName": null, "districtName": null, "shopinfo": {"mid": "888888854110292", "good_flag": null, "new_flag": null, "short_name": "\u826f\u53cb\u91d1\u4f34", "short_name_pinyin": "liangyoujinban", "status": null, "address": null, "name": null, "id": "32540"}, "mid": "888888854110292", "shopId": "32540", "netid": null, "province": 901, "district": 601, "zipcode": null, "telephone": "65434550", "posDate": "20090115", "destineTel": null, "togoTel": null, "trafficWay": "\u516c\u4ea425155868", "signBuilding": null, "businessArea": null, "selfRoom": null, "businessTime": "24\u5c0f\u65f6", "stall": null, "consume": null, "serviceFei": null, "favourable": null, "shopMemo": null, "appraise": null, "website": null, "memo": null, "payTypes": "\u6749\u5fb7\u5361  \u5361\u62bc\u91d1\u6d88\u8d39", "shopTypes": "\u4fbf\u5229\u5e97", "consumeTypes": null, "cookTypes": null, "orderNum": 1000, "card4no": null, "card4noAcc": null, "district2": 407, "searchScope": null, "status": 1, "address": "\u4e34\u9752\u8def286\u53f7", "name": "\u826f\u53cb\u91d1\u4f34 \u4e34\u9752\u5e97", "id": 139477, "pageNo": 0, "pageCount": null, "pageSize": 10, "ids": null, "endTime": null, "startTime": null}, {"cardNumFive": null, "isSupportYj": null, "cityName": null, "districtName": null, "shopinfo": {"mid": "888888854110292", "good_flag": null, "new_flag": null, "short_name": "\u826f\u53cb\u91d1\u4f34", "short_name_pinyin": "liangyoujinban", "status": null, "address": null, "name": null, "id": "32540"}, "mid": "888888854110292", "shopId": "32540", "netid": null, "province": 901, "district": 601, "zipcode": null, "telephone": "50398692", "posDate": "20100707", "destineTel": null, "togoTel": null, "trafficWay": null, "signBuilding": null, "businessArea": null, "selfRoom": null, "businessTime": null, "stall": null, "consume": null, "serviceFei": null, "favourable": null, "shopMemo": null, "appraise": null, "website": null, "memo": null, "payTypes": "\u6749\u5fb7\u5361", "shopTypes": "\u4fbf\u5229\u5e97", "consumeTypes": null, "cookTypes": null, "orderNum": 1000, "card4no": null, "card4noAcc": null, "district2": 418, "searchScope": null, "status": 1, "address": "\u4e34\u6c82\u8def301\u5f0429-30\u53f7", "name": "\u826f\u53cb\u91d1\u4f34 \u4e34\u6c82\u5e97", "id": 139478, "pageNo": 0, "pageCount": null, "pageSize": 10, "ids": null, "endTime": null, "startTime": null}, {"cardNumFive": null, "isSupportYj": null, "cityName": null, "districtName": null, "shopinfo": {"mid": "888888854110292", "good_flag": null, "new_flag": null, "short_name": "\u826f\u53cb\u91d1\u4f34", "short_name_pinyin": "liangyoujinban", "status": null, "address": null, "name": null, "id": "32540"}, "mid": "888888854110292", "shopId": "32540", "netid": null, "province": 901, "district": 601, "zipcode": null, "telephone": "66528422", "posDate": "20090115", "destineTel": null, "togoTel": null, "trafficWay": "\u516c\u4ea479206758", "signBuilding": null, "businessArea": null, "selfRoom": null, "businessTime": "24\u5c0f\u65f6", "stall": null, "consume": null, "serviceFei": null, "favourable": null, "shopMemo": null, "appraise": null, "website": null, "memo": null, "payTypes": "\u6749\u5fb7\u5361  \u5361\u62bc\u91d1\u6d88\u8d39", "shopTypes": "\u4fbf\u5229\u5e97", "consumeTypes": null, "cookTypes": null, "orderNum": 1000, "card4no": null, "card4noAcc": null, "district2": 410, "searchScope": null, "status": 1, "address": "\u7075\u77f3\u8def737\u5f0457\u53f7", "name": "\u826f\u53cb\u91d1\u4f34 \u7075\u77f3\u5e97", "id": 139479, "pageNo": 0, "pageCount": null, "pageSize": 10, "ids": null, "endTime": null, "startTime": null}, {"cardNumFive": null, "isSupportYj": null, "cityName": null, "districtName": null, "shopinfo": {"mid": "888888854110292", "good_flag": null, "new_flag": null, "short_name": "\u826f\u53cb\u91d1\u4f34", "short_name_pinyin": "liangyoujinban", "status": null, "address": null, "name": null, "id": "32540"}, "mid": "888888854110292", "shopId": "32540", "netid": null, "province": 901, "district": 601, "zipcode": null, "telephone": "64083738", "posDate": "20090114", "destineTel": null, "togoTel": null, "trafficWay": "\u516c\u4ea4809 93 830", "signBuilding": null, "businessArea": null, "selfRoom": null, "businessTime": "24\u5c0f\u65f6", "stall": null, "consume": null, "serviceFei": null, "favourable": null, "shopMemo": null, "appraise": null, "website": null, "memo": null, "payTypes": "\u6749\u5fb7\u5361   \u5361\u62bc\u91d1\u6d88\u8d39", "shopTypes": "\u4fbf\u5229\u5e97", "consumeTypes": null, "cookTypes": null, "orderNum": 1000, "card4no": null, "card4noAcc": null, "district2": 403, "searchScope": null, "status": 1, "address": "\u67f3\u5dde\u8def580\u53f7", "name": "\u826f\u53cb\u91d1\u4f34 \u67f3\u5dde\u5e97", "id": 139482, "pageNo": 0, "pageCount": null, "pageSize": 10, "ids": null, "endTime": null, "startTime": null}, {"cardNumFive": null, "isSupportYj": null, "cityName": null, "districtName": null, "shopinfo": {"mid": "888888854110292", "good_flag": null, "new_flag": null, "short_name": "\u826f\u53cb\u91d1\u4f34", "short_name_pinyin": "liangyoujinban", "status": null, "address": null, "name": null, "id": "32540"}, "mid": "888888854110292", "shopId": "32540", "netid": null, "province": 901, "district": 601, "zipcode": null, "telephone": "64533278", "posDate": "20090114", "destineTel": null, "togoTel": null, "trafficWay": "\u516c\u4ea4\u8398\u9f99\u7ebf 824 857", "signBuilding": null, "businessArea": null, "selfRoom": null, "businessTime": "24\u5c0f\u65f6", "stall": null, "consume": null, "serviceFei": null, "favourable": null, "shopMemo": null, "appraise": null, "website": null, "memo": null, "payTypes": "\u6749\u5fb7\u5361   \u5361\u62bc\u91d1\u6d88\u8d39", "shopTypes": "\u4fbf\u5229\u5e97", "consumeTypes": null, "cookTypes": null, "orderNum": 1000, "card4no": null, "card4noAcc": null, "district2": 403, "searchScope": null, "status": 1, "address": "\u9f99\u5ddd\u5317\u8def153-155\u53f7", "name": "\u826f\u53cb\u91d1\u4f34 \u9f99\u5ddd\u5e97", "id": 139483, "pageNo": 0, "pageCount": null, "pageSize": 10, "ids": null, "endTime": null, "startTime": null}], "pageLimit": 6020, "size": 10}