{"pageCount": 1095, "count": 10942, "pageNo": 618, "subShopInfo": {"cardNumFive": "", "isSupportYj": "", "cityName": null, "districtName": null, "shopinfo": {"mid": null, "good_flag": null, "new_flag": null, "short_name": null, "short_name_pinyin": null, "status": null, "address": "", "name": "", "id": null}, "mid": null, "shopId": null, "netid": null, "province": 901, "district": null, "zipcode": null, "telephone": null, "posDate": null, "destineTel": null, "togoTel": null, "trafficWay": null, "signBuilding": null, "businessArea": null, "selfRoom": null, "businessTime": null, "stall": null, "consume": null, "serviceFei": null, "favourable": null, "shopMemo": "1", "appraise": null, "website": null, "memo": null, "payTypes": "", "shopTypes": "", "consumeTypes": null, "cookTypes": null, "orderNum": null, "card4no": null, "card4noAcc": null, "district2": null, "searchScope": null, "status": null, "address": "", "name": null, "id": null, "pageNo": 617, "pageCount": null, "pageSize": 10, "ids": null, "endTime": null, "startTime": null}, "list": [{"cardNumFive": null, "isSupportYj": null, "cityName": null, "districtName": null, "shopinfo": {"mid": "888002153310028", "good_flag": "2", "new_flag": "1", "short_name": "\u8054\u534e\u8d85\u5e02", "short_name_pinyin": "lianhuachaoshi", "status": null, "address": null, "name": null, "id": "32460"}, "mid": "888002153310028", "shopId": "32460", "netid": null, "province": 901, "district": 601, "zipcode": null, "telephone": "59948673", "posDate": "20100202", "destineTel": null, "togoTel": null, "trafficWay": null, "signBuilding": null, "businessArea": null, "selfRoom": null, "businessTime": null, "stall": null, "consume": null, "serviceFei": null, "favourable": null, "shopMemo": null, "appraise": null, "website": null, "memo": null, "payTypes": "\u6749\u5fb7\u5361", "shopTypes": "\u8d85\u5e02", "consumeTypes": null, "cookTypes": null, "orderNum": 1000, "card4no": null, "card4noAcc": null, "district2": 411, "searchScope": null, "status": 1, "address": "\u4e0a\u6d77\u5e02\u5609\u5b9a\u533a\u5f90\u884c\u9547\u66f9\u738b\u8def98\u53f7", "name": "\u8054\u534e\u8d85\u5e02 \u66f9\u738b\u8def\u5e97", "id": 139219, "pageNo": 0, "pageCount": null, "pageSize": 10, "ids": null, "endTime": null, "startTime": null}, {"cardNumFive": null, "isSupportYj": null, "cityName": null, "districtName": null, "shopinfo": {"mid": "888888854110159", "good_flag": "2", "new_flag": "2", "short_name": "\u8054\u534e\u8d85\u5e02", "short_name_pinyin": "lianhuachaoshi", "status": null, "address": null, "name": null, "id": "32461"}, "mid": "888888854110159", "shopId": "32461", "netid": null, "province": 901, "district": 601, "zipcode": null, "telephone": "50786508", "posDate": "20081015", "destineTel": null, "togoTel": null, "trafficWay": "\u516c\u4ea4572 \u96a7\u9053\u4e8c\u7ebf", "signBuilding": null, "businessArea": "200", "selfRoom": null, "businessTime": "7:00~22:00", "stall": null, "consume": null, "serviceFei": null, "favourable": null, "shopMemo": null, "appraise": null, "website": null, "memo": null, "payTypes": "\u6749\u5fb7\u5361", "shopTypes": "\u8d85\u5e02", "consumeTypes": null, "cookTypes": null, "orderNum": 1000, "card4no": null, "card4noAcc": null, "district2": 418, "searchScope": null, "status": 1, "address": "\u660c\u91cc\u4e1c\u8def326\u53f7", "name": "\u8054\u534e\u8d85\u5e02 \u660c\u91cc\u4e1c\u8def\u5e97", "id": 139220, "pageNo": 0, "pageCount": null, "pageSize": 10, "ids": null, "endTime": null, "startTime": null}, {"cardNumFive": null, "isSupportYj": null, "cityName": null, "districtName": null, "shopinfo": {"mid": "888002153310098", "good_flag": "2", "new_flag": "1", "short_name": "\u8054\u534e\u8d85\u5e02", "short_name_pinyin": "lianhuachaoshi", "status": null, "address": null, "name": null, "id": "32463"}, "mid": "888002153310098", "shopId": "32463", "netid": null, "province": 901, "district": 601, "zipcode": null, "telephone": null, "posDate": "20100603", "destineTel": null, "togoTel": null, "trafficWay": null, "signBuilding": null, "businessArea": null, "selfRoom": null, "businessTime": null, "stall": null, "consume": null, "serviceFei": null, "favourable": null, "shopMemo": null, "appraise": null, "website": null, "memo": null, "payTypes": "\u6749\u5fb7\u5361", "shopTypes": "\u8d85\u5e02", "consumeTypes": null, "cookTypes": null, "orderNum": 1000, "card4no": null, "card4noAcc": null, "district2": 418, "searchScope": null, "status": 1, "address": "\u5927\u9053\u7ad9\u8def260\u53f7", "name": "\u8054\u534e\u8d85\u5e02 \u5927\u9053\u7ad9\u8def\u5e97", "id": 139222, "pageNo": 0, "pageCount": null, "pageSize": 10, "ids": null, "endTime": null, "startTime": null}, {"cardNumFive": null, "isSupportYj": null, "cityName": null, "districtName": null, "shopinfo": {"mid": "888888854110336", "good_flag": "2", "new_flag": "1", "short_name": "\u8054\u534e\u8d85\u5e02", "short_name_pinyin": "lianhuachaoshi", "status": null, "address": null, "name": null, "id": "32465"}, "mid": "888888854110336", "shopId": "32465", "netid": null, "province": 901, "district": 601, "zipcode": null, "telephone": null, "posDate": "20100118", "destineTel": null, "togoTel": null, "trafficWay": null, "signBuilding": null, "businessArea": null, "selfRoom": null, "businessTime": null, "stall": null, "consume": null, "serviceFei": null, "favourable": null, "shopMemo": null, "appraise": null, "website": null, "memo": null, "payTypes": "\u6749\u5fb7\u5361", "shopTypes": "\u8d85\u5e02", "consumeTypes": null, "cookTypes": null, "orderNum": 1000, "card4no": null, "card4noAcc": null, "district2": 418, "searchScope": null, "status": 1, "address": "\u4e1c\u9756\u8def390\u53f7", "name": "\u8054\u534e\u8d85\u5e02 \u4e1c\u9756\u8def\u5e97", "id": 139224, "pageNo": 0, "pageCount": null, "pageSize": 10, "ids": null, "endTime": null, "startTime": null}, {"cardNumFive": null, "isSupportYj": null, "cityName": null, "districtName": null, "shopinfo": {"mid": "888888854110242", "good_flag": "2", "new_flag": "2", "short_name": "\u8054\u534e\u8d85\u5e02", "short_name_pinyin": "lianhuachaoshi", "status": null, "address": null, "name": null, "id": "32468"}, "mid": "888888854110242", "shopId": "32468", "netid": null, "province": 901, "district": 601, "zipcode": null, "telephone": "66770543", "posDate": "20090331", "destineTel": null, "togoTel": null, "trafficWay": null, "signBuilding": null, "businessArea": null, "selfRoom": null, "businessTime": null, "stall": null, "consume": null, "serviceFei": null, "favourable": null, "shopMemo": null, "appraise": null, "website": null, "memo": null, "payTypes": "\u6749\u5fb7\u5361", "shopTypes": "\u8d85\u5e02", "consumeTypes": null, "cookTypes": null, "orderNum": 1000, "card4no": null, "card4noAcc": null, "district2": 405, "searchScope": null, "status": 1, "address": "\u7518\u6cc9\u8def422\u53f7", "name": "\u8054\u534e\u8d85\u5e02 \u7518\u6cc9\u8def\u5e97", "id": 139227, "pageNo": 0, "pageCount": null, "pageSize": 10, "ids": null, "endTime": null, "startTime": null}, {"cardNumFive": null, "isSupportYj": null, "cityName": null, "districtName": null, "shopinfo": {"mid": "888002154119907", "good_flag": "2", "new_flag": "2", "short_name": "\u8054\u534e\u8d85\u5e02", "short_name_pinyin": "lianhuachaoshi", "status": null, "address": null, "name": null, "id": "32473"}, "mid": "888002154119907", "shopId": "32473", "netid": null, "province": 901, "district": 601, "zipcode": null, "telephone": "65898322", "posDate": "200910", "destineTel": null, "togoTel": null, "trafficWay": null, "signBuilding": null, "businessArea": null, "selfRoom": null, "businessTime": null, "stall": null, "consume": null, "serviceFei": null, "favourable": null, "shopMemo": null, "appraise": null, "website": null, "memo": null, "payTypes": "\u6749\u5fb7\u5361", "shopTypes": "\u8d85\u5e02", "consumeTypes": null, "cookTypes": null, "orderNum": 1000, "card4no": null, "card4noAcc": null, "district2": 407, "searchScope": null, "status": 1, "address": "\u7709\u5dde\u8def120\u53f7", "name": "\u8054\u534e\u8d85\u5e02 \u5e7f\u676d\u5e97", "id": 139232, "pageNo": 0, "pageCount": null, "pageSize": 10, "ids": null, "endTime": null, "startTime": null}, {"cardNumFive": null, "isSupportYj": null, "cityName": null, "districtName": null, "shopinfo": {"mid": "888002154119913", "good_flag": "2", "new_flag": "2", "short_name": "\u8054\u534e\u8d85\u5e02", "short_name_pinyin": "lianhuachaoshi", "status": null, "address": null, "name": null, "id": "32474"}, "mid": "888002154119913", "shopId": "32474", "netid": null, "province": 901, "district": 601, "zipcode": null, "telephone": "50796778", "posDate": "200911", "destineTel": null, "togoTel": null, "trafficWay": null, "signBuilding": null, "businessArea": null, "selfRoom": null, "businessTime": null, "stall": null, "consume": null, "serviceFei": null, "favourable": null, "shopMemo": null, "appraise": null, "website": null, "memo": null, "payTypes": "\u6749\u5fb7\u5361", "shopTypes": "\u8d85\u5e02", "consumeTypes": null, "cookTypes": null, "orderNum": 1000, "card4no": null, "card4noAcc": null, "district2": 418, "searchScope": null, "status": 1, "address": "\u5e7f\u5170\u8def1155\u5f047\u53f71-2\u5c42", "name": "\u8054\u534e\u8d85\u5e02 \u5e7f\u5170\u8def", "id": 139233, "pageNo": 0, "pageCount": null, "pageSize": 10, "ids": null, "endTime": null, "startTime": null}, {"cardNumFive": null, "isSupportYj": null, "cityName": null, "districtName": null, "shopinfo": {"mid": "888888854110053", "good_flag": "2", "new_flag": "2", "short_name": "\u8054\u534e\u8d85\u5e02", "short_name_pinyin": "lianhuachaoshi", "status": null, "address": null, "name": null, "id": "32476"}, "mid": "888888854110053", "shopId": "32476", "netid": null, "province": 901, "district": 601, "zipcode": null, "telephone": "64942421", "posDate": "20080527", "destineTel": null, "togoTel": null, "trafficWay": "\u516c\u4ea4548 927 931", "signBuilding": null, "businessArea": null, "selfRoom": null, "businessTime": null, "stall": null, "consume": null, "serviceFei": null, "favourable": null, "shopMemo": null, "appraise": null, "website": null, "memo": null, "payTypes": "\u6749\u5fb7\u5361", "shopTypes": "\u8d85\u5e02", "consumeTypes": null, "cookTypes": null, "orderNum": 1000, "card4no": null, "card4noAcc": null, "district2": 403, "searchScope": null, "status": 1, "address": "\u6842\u6797\u8def642\u53f7", "name": "\u8054\u534e\u8d85\u5e02 \u6842\u6797\u8def\u5e97", "id": 139235, "pageNo": 0, "pageCount": null, "pageSize": 10, "ids": null, "endTime": null, "startTime": null}, {"cardNumFive": null, "isSupportYj": null, "cityName": null, "districtName": null, "shopinfo": {"mid": "888888854110284", "good_flag": "2", "new_flag": "2", "short_name": "\u8054\u534e\u8d85\u5e02", "short_name_pinyin": "lianhuachaoshi", "status": null, "address": null, "name": null, "id": "32479"}, "mid": "888888854110284", "shopId": "32479", "netid": null, "province": 901, "district": 601, "zipcode": null, "telephone": "58581384", "posDate": null, "destineTel": null, "togoTel": null, "trafficWay": "636\u3001991", "signBuilding": null, "businessArea": null, "selfRoom": null, "businessTime": null, "stall": null, "consume": null, "serviceFei": null, "favourable": null, "shopMemo": null, "appraise": null, "website": null, "memo": null, "payTypes": "\u6749\u5fb7\u5361", "shopTypes": "\u8d85\u5e02", "consumeTypes": null, "cookTypes": null, "orderNum": 1000, "card4no": null, "card4noAcc": null, "district2": 418, "searchScope": null, "status": 1, "address": "\u5510\u9547\u8679\u661f\u8def195\u53f72\u5e62", "name": "\u8054\u534e\u8d85\u5e02 \u8679\u661f\u8def\u5e97", "id": 139238, "pageNo": 0, "pageCount": null, "pageSize": 10, "ids": null, "endTime": null, "startTime": null}, {"cardNumFive": null, "isSupportYj": null, "cityName": null, "districtName": null, "shopinfo": {"mid": "888888854110347", "good_flag": "2", "new_flag": "1", "short_name": "\u8054\u534e\u8d85\u5e02", "short_name_pinyin": "lianhuachaoshi", "status": null, "address": null, "name": null, "id": "32482"}, "mid": "888888854110347", "shopId": "32482", "netid": null, "province": 901, "district": 601, "zipcode": null, "telephone": null, "posDate": "20100118", "destineTel": null, "togoTel": null, "trafficWay": null, "signBuilding": null, "businessArea": null, "selfRoom": null, "businessTime": null, "stall": null, "consume": null, "serviceFei": null, "favourable": null, "shopMemo": null, "appraise": null, "website": null, "memo": null, "payTypes": "\u6749\u5fb7\u5361", "shopTypes": "\u8d85\u5e02", "consumeTypes": null, "cookTypes": null, "orderNum": 1000, "card4no": null, "card4noAcc": null, "district2": 418, "searchScope": null, "status": 1, "address": "\u6d66\u4e1c\u5f20\u6c5f\u9547\u5efa\u4e2d\u8def242\u5f04258\u53f7", "name": "\u8054\u534e\u8d85\u5e02 \u5efa\u4e2d\u8def\u5e97", "id": 139241, "pageNo": 0, "pageCount": null, "pageSize": 10, "ids": null, "endTime": null, "startTime": null}], "pageLimit": 6170, "size": 10}