{"pageCount": 1095, "count": 10942, "pageNo": 619, "subShopInfo": {"cardNumFive": "", "isSupportYj": "", "cityName": null, "districtName": null, "shopinfo": {"mid": null, "good_flag": null, "new_flag": null, "short_name": null, "short_name_pinyin": null, "status": null, "address": "", "name": "", "id": null}, "mid": null, "shopId": null, "netid": null, "province": 901, "district": null, "zipcode": null, "telephone": null, "posDate": null, "destineTel": null, "togoTel": null, "trafficWay": null, "signBuilding": null, "businessArea": null, "selfRoom": null, "businessTime": null, "stall": null, "consume": null, "serviceFei": null, "favourable": null, "shopMemo": "1", "appraise": null, "website": null, "memo": null, "payTypes": "", "shopTypes": "", "consumeTypes": null, "cookTypes": null, "orderNum": null, "card4no": null, "card4noAcc": null, "district2": null, "searchScope": null, "status": null, "address": "", "name": null, "id": null, "pageNo": 618, "pageCount": null, "pageSize": 10, "ids": null, "endTime": null, "startTime": null}, "list": [{"cardNumFive": null, "isSupportYj": null, "cityName": null, "districtName": null, "shopinfo": {"mid": "888002153310038", "good_flag": "2", "new_flag": "1", "short_name": "\u8054\u534e\u8d85\u5e02", "short_name_pinyin": "lianhuachaoshi", "status": null, "address": null, "name": null, "id": "32484"}, "mid": "888002153310038", "shopId": "32484", "netid": null, "province": 901, "district": 601, "zipcode": null, "telephone": null, "posDate": "20100223", "destineTel": null, "togoTel": null, "trafficWay": null, "signBuilding": null, "businessArea": null, "selfRoom": null, "businessTime": null, "stall": null, "consume": null, "serviceFei": null, "favourable": null, "shopMemo": null, "appraise": null, "website": null, "memo": null, "payTypes": "\u6749\u5fb7\u5361", "shopTypes": "\u8d85\u5e02", "consumeTypes": null, "cookTypes": null, "orderNum": 1000, "card4no": null, "card4noAcc": null, "district2": 409, "searchScope": null, "status": 1, "address": "\u95f5\u884c\u533a\u9e64\u5e86\u8def358\u5f04129\u53f7\u897f\u4fa7", "name": "\u8054\u534e\u8d85\u5e02 \u91d1\u5e73\u5e97", "id": 139243, "pageNo": 0, "pageCount": null, "pageSize": 10, "ids": null, "endTime": null, "startTime": null}, {"cardNumFive": null, "isSupportYj": null, "cityName": null, "districtName": null, "shopinfo": {"mid": "888888854110333", "good_flag": "1", "new_flag": "1", "short_name": "\u8054\u534e\u8d85\u5e02", "short_name_pinyin": "lianhuachaoshi", "status": null, "address": null, "name": null, "id": "32487"}, "mid": "888888854110333", "shopId": "32487", "netid": null, "province": 901, "district": 601, "zipcode": null, "telephone": null, "posDate": "20091228", "destineTel": null, "togoTel": null, "trafficWay": null, "signBuilding": null, "businessArea": null, "selfRoom": null, "businessTime": null, "stall": null, "consume": null, "serviceFei": null, "favourable": null, "shopMemo": null, "appraise": null, "website": null, "memo": null, "payTypes": "\u6749\u5fb7\u5361", "shopTypes": "\u8d85\u5e02", "consumeTypes": null, "cookTypes": null, "orderNum": 1000, "card4no": null, "card4noAcc": null, "district2": 409, "searchScope": null, "status": 1, "address": "\u6606\u9633\u8def416\u53f7", "name": "\u8054\u534e\u8d85\u5e02 \u6606\u9633\u8def\u5e97", "id": 139246, "pageNo": 0, "pageCount": null, "pageSize": 10, "ids": null, "endTime": null, "startTime": null}, {"cardNumFive": null, "isSupportYj": null, "cityName": null, "districtName": null, "shopinfo": {"mid": "888888854110029", "good_flag": "2", "new_flag": "2", "short_name": "\u8054\u534e\u8d85\u5e02", "short_name_pinyin": "lianhuachaoshi", "status": null, "address": null, "name": null, "id": "32488"}, "mid": "888888854110029", "shopId": "32488", "netid": null, "province": 901, "district": 601, "zipcode": "201804", "telephone": "69595520", "posDate": "20070302", "destineTel": "69595520", "togoTel": "69595520", "trafficWay": "\u5730\u94c13\u53f7\u7ebf \u5317\u5b89\u7ebf", "signBuilding": null, "businessArea": null, "selfRoom": "\u65e0", "businessTime": "07:30~21:30", "stall": "\u6709", "consume": null, "serviceFei": null, "favourable": null, "shopMemo": null, "appraise": null, "website": null, "memo": null, "payTypes": "\u6749\u5fb7\u5361", "shopTypes": "\u8d85\u5e02", "consumeTypes": null, "cookTypes": null, "orderNum": 1000, "card4no": null, "card4noAcc": null, "district2": 411, "searchScope": null, "status": 1, "address": "\u9ec4\u6e21\u9547\u8054\u897f\u8def55\u53f7", "name": "\u8054\u534e\u8d85\u5e02 \u8054\u897f\u5e97", "id": 139247, "pageNo": 0, "pageCount": null, "pageSize": 10, "ids": null, "endTime": null, "startTime": null}, {"cardNumFive": null, "isSupportYj": null, "cityName": null, "districtName": null, "shopinfo": {"mid": "888888854110334", "good_flag": "2", "new_flag": "1", "short_name": "\u8054\u534e\u8d85\u5e02", "short_name_pinyin": "lianhuachaoshi", "status": null, "address": null, "name": null, "id": "32491"}, "mid": "888888854110334", "shopId": "32491", "netid": null, "province": 901, "district": 601, "zipcode": null, "telephone": null, "posDate": null, "destineTel": null, "togoTel": null, "trafficWay": null, "signBuilding": null, "businessArea": null, "selfRoom": null, "businessTime": null, "stall": null, "consume": null, "serviceFei": null, "favourable": null, "shopMemo": null, "appraise": null, "website": null, "memo": null, "payTypes": "\u6749\u5fb7\u5361", "shopTypes": "\u8d85\u5e02", "consumeTypes": null, "cookTypes": null, "orderNum": 1000, "card4no": null, "card4noAcc": null, "district2": 403, "searchScope": null, "status": 1, "address": "\u5f90\u6c47\u533a\u957f\u6865\u8857\u9053\u9f99\u5434\u8def1715\u53f7", "name": "\u8054\u534e\u8d85\u5e02 \u9f99\u5434\u5e97", "id": 139250, "pageNo": 0, "pageCount": null, "pageSize": 10, "ids": null, "endTime": null, "startTime": null}, {"cardNumFive": null, "isSupportYj": null, "cityName": null, "districtName": null, "shopinfo": {"mid": "888888854110202", "good_flag": "2", "new_flag": "2", "short_name": "\u8054\u534e\u8d85\u5e02", "short_name_pinyin": "lianhuachaoshi", "status": null, "address": null, "name": null, "id": "32493"}, "mid": "888888854110202", "shopId": "32493", "netid": null, "province": 901, "district": 601, "zipcode": null, "telephone": null, "posDate": "20090113", "destineTel": null, "togoTel": null, "trafficWay": "\u516c\u4ea4910 90 866", "signBuilding": null, "businessArea": "200", "selfRoom": null, "businessTime": null, "stall": "\u6709", "consume": null, "serviceFei": null, "favourable": null, "shopMemo": null, "appraise": null, "website": null, "memo": null, "payTypes": "\u6749\u5fb7\u5361", "shopTypes": "\u8d85\u5e02", "consumeTypes": null, "cookTypes": null, "orderNum": 1000, "card4no": null, "card4noAcc": null, "district2": 407, "searchScope": null, "status": 1, "address": "\u6c11\u4eac\u8def805\u53f7", "name": "\u8054\u534e\u8d85\u5e02 \u6c11\u4eac\u5e97", "id": 139252, "pageNo": 0, "pageCount": null, "pageSize": 10, "ids": null, "endTime": null, "startTime": null}, {"cardNumFive": null, "isSupportYj": null, "cityName": null, "districtName": null, "shopinfo": {"mid": "888888854110156", "good_flag": "2", "new_flag": "2", "short_name": "\u8054\u534e\u8d85\u5e02", "short_name_pinyin": "lianhuachaoshi", "status": null, "address": null, "name": null, "id": "32494"}, "mid": "888888854110156", "shopId": "32494", "netid": null, "province": 901, "district": 601, "zipcode": null, "telephone": "64605875", "posDate": "20090420", "destineTel": null, "togoTel": null, "trafficWay": null, "signBuilding": null, "businessArea": null, "selfRoom": null, "businessTime": null, "stall": null, "consume": null, "serviceFei": null, "favourable": null, "shopMemo": null, "appraise": null, "website": null, "memo": null, "payTypes": "\u6749\u5fb7\u5361", "shopTypes": "\u8d85\u5e02", "consumeTypes": null, "cookTypes": null, "orderNum": 1000, "card4no": null, "card4noAcc": null, "district2": 409, "searchScope": null, "status": 1, "address": "\u540d\u90fd\u8def36\u5f0414\u53f7\u5e95\u697c", "name": "\u8054\u534e\u8d85\u5e02 \u540d\u90fd\u5e97", "id": 139253, "pageNo": 0, "pageCount": null, "pageSize": 10, "ids": null, "endTime": null, "startTime": null}, {"cardNumFive": null, "isSupportYj": null, "cityName": null, "districtName": null, "shopinfo": {"mid": "888888854110040", "good_flag": "2", "new_flag": "2", "short_name": "\u8054\u534e\u8d85\u5e02", "short_name_pinyin": "lianhuachaoshi", "status": null, "address": null, "name": null, "id": "32495"}, "mid": "888888854110040", "shopId": "32495", "netid": null, "province": 901, "district": 601, "zipcode": null, "telephone": "55152815", "posDate": "20070516", "destineTel": null, "togoTel": null, "trafficWay": "\u516c\u4ea4123 \u65c5\u6e3810\u53f7\u7ebf", "signBuilding": null, "businessArea": "1600\u5e73\u65b9\u7c73", "selfRoom": null, "businessTime": "7:30~21:30", "stall": "\u6709", "consume": null, "serviceFei": null, "favourable": null, "shopMemo": null, "appraise": null, "website": null, "memo": null, "payTypes": "\u6749\u5fb7\u5361", "shopTypes": "\u8d85\u5e02", "consumeTypes": null, "cookTypes": null, "orderNum": 1000, "card4no": null, "card4noAcc": null, "district2": 408, "searchScope": null, "status": 1, "address": "\u6b27\u9633\u8def299\u53f7", "name": "\u8054\u534e\u8d85\u5e02 \u6b27\u9633\u8def\u5e97", "id": 139254, "pageNo": 0, "pageCount": null, "pageSize": 10, "ids": null, "endTime": null, "startTime": null}, {"cardNumFive": null, "isSupportYj": null, "cityName": null, "districtName": null, "shopinfo": {"mid": "888002154119947", "good_flag": "1", "new_flag": "1", "short_name": "\u8054\u534e\u8d85\u5e02", "short_name_pinyin": "lianhuachaoshi", "status": null, "address": null, "name": null, "id": "32497"}, "mid": "888002154119947", "shopId": "32497", "netid": null, "province": 901, "district": 601, "zipcode": null, "telephone": null, "posDate": "20091214", "destineTel": null, "togoTel": null, "trafficWay": null, "signBuilding": null, "businessArea": null, "selfRoom": null, "businessTime": null, "stall": null, "consume": null, "serviceFei": null, "favourable": null, "shopMemo": null, "appraise": null, "website": null, "memo": null, "payTypes": "\u6749\u5fb7\u5361", "shopTypes": "\u8d85\u5e02", "consumeTypes": null, "cookTypes": null, "orderNum": 1000, "card4no": null, "card4noAcc": null, "district2": 409, "searchScope": null, "status": 1, "address": "\u9f99\u8317\u8def1420\u53f7", "name": "\u8054\u534e\u8d85\u5e02 \u5e73\u5409\u5e97", "id": 139256, "pageNo": 0, "pageCount": null, "pageSize": 10, "ids": null, "endTime": null, "startTime": null}, {"cardNumFive": null, "isSupportYj": null, "cityName": null, "districtName": null, "shopinfo": {"mid": "888888854110290", "good_flag": "2", "new_flag": "2", "short_name": "\u8054\u534e\u8d85\u5e02", "short_name_pinyin": "lianhuachaoshi", "status": null, "address": null, "name": null, "id": "32498"}, "mid": "888888854110290", "shopId": "32498", "netid": null, "province": 901, "district": 601, "zipcode": null, "telephone": "56387875", "posDate": "200911", "destineTel": null, "togoTel": null, "trafficWay": null, "signBuilding": null, "businessArea": null, "selfRoom": null, "businessTime": null, "stall": null, "consume": null, "serviceFei": null, "favourable": null, "shopMemo": null, "appraise": null, "website": null, "memo": null, "payTypes": "\u6749\u5fb7\u5361", "shopTypes": "\u8d85\u5e02", "consumeTypes": null, "cookTypes": null, "orderNum": 1000, "card4no": null, "card4noAcc": null, "district2": 410, "searchScope": null, "status": 1, "address": "\u5e73\u578b\u5173\u8def662\u53f7-672\u53f7", "name": "\u8054\u534e\u8d85\u5e02 \u5e73\u578b\u5173\u8def\u5e97", "id": 139257, "pageNo": 0, "pageCount": null, "pageSize": 10, "ids": null, "endTime": null, "startTime": null}, {"cardNumFive": null, "isSupportYj": null, "cityName": null, "districtName": null, "shopinfo": {"mid": "888002154119925", "good_flag": "2", "new_flag": "2", "short_name": "\u8054\u534e\u8d85\u5e02", "short_name_pinyin": "lianhuachaoshi", "status": null, "address": null, "name": null, "id": "32500"}, "mid": "888002154119925", "shopId": "32500", "netid": null, "province": 901, "district": 601, "zipcode": null, "telephone": null, "posDate": "200911", "destineTel": null, "togoTel": null, "trafficWay": null, "signBuilding": null, "businessArea": null, "selfRoom": null, "businessTime": null, "stall": null, "consume": null, "serviceFei": null, "favourable": null, "shopMemo": null, "appraise": null, "website": null, "memo": null, "payTypes": "\u6749\u5fb7\u5361", "shopTypes": "\u8d85\u5e02", "consumeTypes": null, "cookTypes": null, "orderNum": 1000, "card4no": null, "card4noAcc": null, "district2": 418, "searchScope": null, "status": 1, "address": "\u6d66\u4e1c\u5927\u90532690\u53f72\u5e62", "name": "\u8054\u534e\u8d85\u5e02 \u6d66\u4e1c\u5927\u9053\u5e97", "id": 139259, "pageNo": 0, "pageCount": null, "pageSize": 10, "ids": null, "endTime": null, "startTime": null}], "pageLimit": 6180, "size": 10}