{"pageCount": 1095, "count": 10942, "pageNo": 629, "subShopInfo": {"cardNumFive": "", "isSupportYj": "", "cityName": null, "districtName": null, "shopinfo": {"mid": null, "good_flag": null, "new_flag": null, "short_name": null, "short_name_pinyin": null, "status": null, "address": "", "name": "", "id": null}, "mid": null, "shopId": null, "netid": null, "province": 901, "district": null, "zipcode": null, "telephone": null, "posDate": null, "destineTel": null, "togoTel": null, "trafficWay": null, "signBuilding": null, "businessArea": null, "selfRoom": null, "businessTime": null, "stall": null, "consume": null, "serviceFei": null, "favourable": null, "shopMemo": "1", "appraise": null, "website": null, "memo": null, "payTypes": "", "shopTypes": "", "consumeTypes": null, "cookTypes": null, "orderNum": null, "card4no": null, "card4noAcc": null, "district2": null, "searchScope": null, "status": null, "address": "", "name": null, "id": null, "pageNo": 628, "pageCount": null, "pageSize": 10, "ids": null, "endTime": null, "startTime": null}, "list": [{"cardNumFive": null, "isSupportYj": null, "cityName": null, "districtName": null, "shopinfo": {"mid": "888002153310606", "good_flag": null, "new_flag": "2", "short_name": "\u8054\u534e\u8d85\u5e02", "short_name_pinyin": "lianhuachaoshi", "status": null, "address": null, "name": null, "id": "41238"}, "mid": "888002153310606", "shopId": "41238", "netid": null, "province": 901, "district": 601, "zipcode": null, "telephone": "59590927", "posDate": null, "destineTel": null, "togoTel": null, "trafficWay": null, "signBuilding": null, "businessArea": null, "selfRoom": null, "businessTime": null, "stall": null, "consume": null, "serviceFei": null, "favourable": null, "shopMemo": null, "appraise": null, "website": null, "memo": null, "payTypes": "\u6749\u5fb7\u5361", "shopTypes": "\u8d85\u5e02", "consumeTypes": null, "cookTypes": null, "orderNum": 1000, "card4no": null, "card4noAcc": null, "district2": 411, "searchScope": null, "status": 1, "address": "\u9ec4\u6e21\u9547\u7eff\u82d1\u8def5\u53f7", "name": "\u8054\u534e\u8d85\u5e02 \u9ec4\u6e21\u5e97", "id": 180971, "pageNo": 0, "pageCount": null, "pageSize": 10, "ids": null, "endTime": null, "startTime": null}, {"cardNumFive": null, "isSupportYj": null, "cityName": null, "districtName": null, "shopinfo": {"mid": "888002153310606", "good_flag": null, "new_flag": "2", "short_name": "\u8054\u534e\u8d85\u5e02", "short_name_pinyin": "lianhuachaoshi", "status": null, "address": null, "name": null, "id": "41238"}, "mid": "888002153310606", "shopId": "41238", "netid": null, "province": 901, "district": 601, "zipcode": null, "telephone": "39440133", "posDate": null, "destineTel": null, "togoTel": null, "trafficWay": null, "signBuilding": null, "businessArea": null, "selfRoom": null, "businessTime": null, "stall": null, "consume": null, "serviceFei": null, "favourable": null, "shopMemo": null, "appraise": null, "website": null, "memo": null, "payTypes": "\u6749\u5fb7\u5361", "shopTypes": "\u8d85\u5e02", "consumeTypes": null, "cookTypes": null, "orderNum": 1000, "card4no": null, "card4noAcc": null, "district2": 415, "searchScope": null, "status": 1, "address": "\u9648\u5bb6\u9547\u88d5\u5b89\u8def22\u53f7", "name": "\u8054\u534e\u8d85\u5e02 \u88d5\u5b89\u5e97", "id": 180972, "pageNo": 0, "pageCount": null, "pageSize": 10, "ids": null, "endTime": null, "startTime": null}, {"cardNumFive": null, "isSupportYj": null, "cityName": null, "districtName": null, "shopinfo": {"mid": "888002153310606", "good_flag": null, "new_flag": "2", "short_name": "\u8054\u534e\u8d85\u5e02", "short_name_pinyin": "lianhuachaoshi", "status": null, "address": null, "name": null, "id": "41238"}, "mid": "888002153310606", "shopId": "41238", "netid": null, "province": 901, "district": 601, "zipcode": null, "telephone": "37330068", "posDate": null, "destineTel": null, "togoTel": null, "trafficWay": null, "signBuilding": null, "businessArea": null, "selfRoom": null, "businessTime": null, "stall": null, "consume": null, "serviceFei": null, "favourable": null, "shopMemo": null, "appraise": null, "website": null, "memo": null, "payTypes": "\u6749\u5fb7\u5361", "shopTypes": "\u8d85\u5e02", "consumeTypes": null, "cookTypes": null, "orderNum": 1000, "card4no": null, "card4noAcc": null, "district2": 414, "searchScope": null, "status": 1, "address": "\u6731\u6cfe\u9547\u4e07\u5b89\u8857845\u53f7", "name": "\u8054\u534e\u8d85\u5e02 \u6731\u6cfe\u5e97", "id": 180973, "pageNo": 0, "pageCount": null, "pageSize": 10, "ids": null, "endTime": null, "startTime": null}, {"cardNumFive": null, "isSupportYj": null, "cityName": null, "districtName": null, "shopinfo": {"mid": "888002153310606", "good_flag": null, "new_flag": "2", "short_name": "\u8054\u534e\u8d85\u5e02", "short_name_pinyin": "lianhuachaoshi", "status": null, "address": null, "name": null, "id": "41238"}, "mid": "888002153310606", "shopId": "41238", "netid": null, "province": 901, "district": 601, "zipcode": null, "telephone": "38110656", "posDate": null, "destineTel": null, "togoTel": null, "trafficWay": null, "signBuilding": null, "businessArea": null, "selfRoom": null, "businessTime": null, "stall": null, "consume": null, "serviceFei": null, "favourable": null, "shopMemo": null, "appraise": null, "website": null, "memo": null, "payTypes": "\u6749\u5fb7\u5361", "shopTypes": "\u8d85\u5e02", "consumeTypes": null, "cookTypes": null, "orderNum": 1000, "card4no": null, "card4noAcc": null, "district2": 418, "searchScope": null, "status": 1, "address": "\u5eb7\u6c88\u8def1525\u53f7", "name": "\u8054\u534e\u8d85\u5e02 \u5468\u6d66\u5e97", "id": 180974, "pageNo": 0, "pageCount": null, "pageSize": 10, "ids": null, "endTime": null, "startTime": null}, {"cardNumFive": null, "isSupportYj": null, "cityName": null, "districtName": null, "shopinfo": {"mid": "888002153310606", "good_flag": null, "new_flag": "2", "short_name": "\u8054\u534e\u8d85\u5e02", "short_name_pinyin": "lianhuachaoshi", "status": null, "address": null, "name": null, "id": "41238"}, "mid": "888002153310606", "shopId": "41238", "netid": null, "province": 901, "district": 601, "zipcode": null, "telephone": "57675243", "posDate": null, "destineTel": null, "togoTel": null, "trafficWay": null, "signBuilding": null, "businessArea": null, "selfRoom": null, "businessTime": null, "stall": null, "consume": null, "serviceFei": null, "favourable": null, "shopMemo": null, "appraise": null, "website": null, "memo": null, "payTypes": "\u6749\u5fb7\u5361", "shopTypes": "\u8d85\u5e02", "consumeTypes": null, "cookTypes": null, "orderNum": 1000, "card4no": null, "card4noAcc": null, "district2": 412, "searchScope": null, "status": 1, "address": "\u6d1e\u6cfe\u957f\u5174\u8def495\u53f7", "name": "\u8054\u534e\u8d85\u5e02 \u6d1e\u6cfe\u5e97", "id": 180975, "pageNo": 0, "pageCount": null, "pageSize": 10, "ids": null, "endTime": null, "startTime": null}, {"cardNumFive": null, "isSupportYj": null, "cityName": null, "districtName": null, "shopinfo": {"mid": "888002153310606", "good_flag": null, "new_flag": "2", "short_name": "\u8054\u534e\u8d85\u5e02", "short_name_pinyin": "lianhuachaoshi", "status": null, "address": null, "name": null, "id": "41238"}, "mid": "888002153310606", "shopId": "41238", "netid": null, "province": 901, "district": 601, "zipcode": null, "telephone": "59121749", "posDate": null, "destineTel": null, "togoTel": null, "trafficWay": null, "signBuilding": null, "businessArea": null, "selfRoom": null, "businessTime": null, "stall": null, "consume": null, "serviceFei": null, "favourable": null, "shopMemo": null, "appraise": null, "website": null, "memo": null, "payTypes": "\u6749\u5fb7\u5361", "shopTypes": "\u8d85\u5e02", "consumeTypes": null, "cookTypes": null, "orderNum": 1000, "card4no": null, "card4noAcc": null, "district2": 411, "searchScope": null, "status": 1, "address": "\u5357\u7fd4\u9547\u6c11\u4e3b\u88571-11\u53f7", "name": "\u8054\u534e\u8d85\u5e02 \u5357\u7fd4\u5e97", "id": 180976, "pageNo": 0, "pageCount": null, "pageSize": 10, "ids": null, "endTime": null, "startTime": null}, {"cardNumFive": null, "isSupportYj": null, "cityName": null, "districtName": null, "shopinfo": {"mid": "888002153310606", "good_flag": null, "new_flag": "2", "short_name": "\u8054\u534e\u8d85\u5e02", "short_name_pinyin": "lianhuachaoshi", "status": null, "address": null, "name": null, "id": "41238"}, "mid": "888002153310606", "shopId": "41238", "netid": null, "province": 901, "district": 601, "zipcode": null, "telephone": null, "posDate": null, "destineTel": null, "togoTel": null, "trafficWay": null, "signBuilding": null, "businessArea": null, "selfRoom": null, "businessTime": null, "stall": null, "consume": null, "serviceFei": null, "favourable": null, "shopMemo": null, "appraise": null, "website": null, "memo": null, "payTypes": "\u6749\u5fb7\u5361", "shopTypes": "\u8d85\u5e02", "consumeTypes": null, "cookTypes": null, "orderNum": 1000, "card4no": null, "card4noAcc": null, "district2": 403, "searchScope": null, "status": 1, "address": "\u8336\u9675\u8def216\u53f7", "name": "\u8054\u534e\u8d85\u5e02 \u8336\u9675\u5e97", "id": 180977, "pageNo": 0, "pageCount": null, "pageSize": 10, "ids": null, "endTime": null, "startTime": null}, {"cardNumFive": null, "isSupportYj": null, "cityName": null, "districtName": null, "shopinfo": {"mid": "888002153310606", "good_flag": null, "new_flag": "2", "short_name": "\u8054\u534e\u8d85\u5e02", "short_name_pinyin": "lianhuachaoshi", "status": null, "address": null, "name": null, "id": "41238"}, "mid": "888002153310606", "shopId": "41238", "netid": null, "province": 901, "district": 601, "zipcode": null, "telephone": "59242866", "posDate": null, "destineTel": null, "togoTel": null, "trafficWay": null, "signBuilding": null, "businessArea": null, "selfRoom": null, "businessTime": null, "stall": null, "consume": null, "serviceFei": null, "favourable": null, "shopMemo": null, "appraise": null, "website": null, "memo": null, "payTypes": "\u6749\u5fb7\u5361", "shopTypes": "\u8d85\u5e02", "consumeTypes": null, "cookTypes": null, "orderNum": 1000, "card4no": null, "card4noAcc": null, "district2": 417, "searchScope": null, "status": 1, "address": "\u7965\u51dd\u6d5c\u8def424\u53f7", "name": "\u8054\u534e\u8d85\u5e02 \u7965\u4ec1\u5e97", "id": 180978, "pageNo": 0, "pageCount": null, "pageSize": 10, "ids": null, "endTime": null, "startTime": null}, {"cardNumFive": null, "isSupportYj": null, "cityName": null, "districtName": null, "shopinfo": {"mid": "888002153310606", "good_flag": null, "new_flag": "2", "short_name": "\u8054\u534e\u8d85\u5e02", "short_name_pinyin": "lianhuachaoshi", "status": null, "address": null, "name": null, "id": "41238"}, "mid": "888002153310606", "shopId": "41238", "netid": null, "province": 901, "district": 601, "zipcode": null, "telephone": "59114654", "posDate": null, "destineTel": null, "togoTel": null, "trafficWay": null, "signBuilding": null, "businessArea": null, "selfRoom": null, "businessTime": null, "stall": null, "consume": null, "serviceFei": null, "favourable": null, "shopMemo": null, "appraise": null, "website": null, "memo": null, "payTypes": "\u6749\u5fb7\u5361", "shopTypes": "\u8d85\u5e02", "consumeTypes": null, "cookTypes": null, "orderNum": 1000, "card4no": null, "card4noAcc": null, "district2": 411, "searchScope": null, "status": 1, "address": "\u534e\u6c5f\u8def39\u53f7", "name": "\u8054\u534e\u8d85\u5e02 \u6c5f\u6865\u5e97", "id": 180979, "pageNo": 0, "pageCount": null, "pageSize": 10, "ids": null, "endTime": null, "startTime": null}, {"cardNumFive": null, "isSupportYj": null, "cityName": null, "districtName": null, "shopinfo": {"mid": "888002153310606", "good_flag": null, "new_flag": "2", "short_name": "\u8054\u534e\u8d85\u5e02", "short_name_pinyin": "lianhuachaoshi", "status": null, "address": null, "name": null, "id": "41238"}, "mid": "888002153310606", "shopId": "41238", "netid": null, "province": 901, "district": 601, "zipcode": null, "telephone": null, "posDate": null, "destineTel": null, "togoTel": null, "trafficWay": null, "signBuilding": null, "businessArea": null, "selfRoom": null, "businessTime": null, "stall": null, "consume": null, "serviceFei": null, "favourable": null, "shopMemo": null, "appraise": null, "website": null, "memo": null, "payTypes": "\u6749\u5fb7\u5361", "shopTypes": "\u8d85\u5e02", "consumeTypes": null, "cookTypes": null, "orderNum": 1000, "card4no": null, "card4noAcc": null, "district2": 416, "searchScope": null, "status": 1, "address": "\u4e1c\u6797\u8def240\u53f7", "name": "\u8054\u534e\u8d85\u5e02 \u4e34\u6c5f\u5e97", "id": 180980, "pageNo": 0, "pageCount": null, "pageSize": 10, "ids": null, "endTime": null, "startTime": null}], "pageLimit": 6280, "size": 10}