{"pageCount": 1095, "count": 10942, "pageNo": 628, "subShopInfo": {"cardNumFive": "", "isSupportYj": "", "cityName": null, "districtName": null, "shopinfo": {"mid": null, "good_flag": null, "new_flag": null, "short_name": null, "short_name_pinyin": null, "status": null, "address": "", "name": "", "id": null}, "mid": null, "shopId": null, "netid": null, "province": 901, "district": null, "zipcode": null, "telephone": null, "posDate": null, "destineTel": null, "togoTel": null, "trafficWay": null, "signBuilding": null, "businessArea": null, "selfRoom": null, "businessTime": null, "stall": null, "consume": null, "serviceFei": null, "favourable": null, "shopMemo": "1", "appraise": null, "website": null, "memo": null, "payTypes": "", "shopTypes": "", "consumeTypes": null, "cookTypes": null, "orderNum": null, "card4no": null, "card4noAcc": null, "district2": null, "searchScope": null, "status": null, "address": "", "name": null, "id": null, "pageNo": 627, "pageCount": null, "pageSize": 10, "ids": null, "endTime": null, "startTime": null}, "list": [{"cardNumFive": null, "isSupportYj": null, "cityName": null, "districtName": null, "shopinfo": {"mid": "888002153310606", "good_flag": null, "new_flag": "2", "short_name": "\u8054\u534e\u8d85\u5e02", "short_name_pinyin": "lianhuachaoshi", "status": null, "address": null, "name": null, "id": "41238"}, "mid": "888002153310606", "shopId": "41238", "netid": null, "province": 901, "district": 601, "zipcode": null, "telephone": null, "posDate": null, "destineTel": null, "togoTel": null, "trafficWay": null, "signBuilding": null, "businessArea": null, "selfRoom": null, "businessTime": null, "stall": null, "consume": null, "serviceFei": null, "favourable": null, "shopMemo": null, "appraise": null, "website": null, "memo": null, "payTypes": "\u6749\u5fb7\u5361", "shopTypes": "\u8d85\u5e02", "consumeTypes": null, "cookTypes": null, "orderNum": 1000, "card4no": null, "card4noAcc": null, "district2": 416, "searchScope": null, "status": 1, "address": "\u864e\u6797\u8def279\u53f7", "name": "\u8054\u534e\u8d85\u5e02 \u864e\u6797\u5e97", "id": 180956, "pageNo": 0, "pageCount": null, "pageSize": 10, "ids": null, "endTime": null, "startTime": null}, {"cardNumFive": null, "isSupportYj": null, "cityName": null, "districtName": null, "shopinfo": {"mid": "888002153310606", "good_flag": null, "new_flag": "2", "short_name": "\u8054\u534e\u8d85\u5e02", "short_name_pinyin": "lianhuachaoshi", "status": null, "address": null, "name": null, "id": "41238"}, "mid": "888002153310606", "shopId": "41238", "netid": null, "province": 901, "district": 601, "zipcode": null, "telephone": "52501633", "posDate": null, "destineTel": null, "togoTel": null, "trafficWay": null, "signBuilding": null, "businessArea": null, "selfRoom": null, "businessTime": null, "stall": null, "consume": null, "serviceFei": null, "favourable": null, "shopMemo": null, "appraise": null, "website": null, "memo": null, "payTypes": "\u6749\u5fb7\u5361", "shopTypes": "\u8d85\u5e02", "consumeTypes": null, "cookTypes": null, "orderNum": 1000, "card4no": null, "card4noAcc": null, "district2": 405, "searchScope": null, "status": 1, "address": "\u6885\u5ddd\u8def788\u53f7", "name": "\u8054\u534e\u8d85\u5e02 \u6885\u5ddd\u5e97", "id": 180957, "pageNo": 0, "pageCount": null, "pageSize": 10, "ids": null, "endTime": null, "startTime": null}, {"cardNumFive": null, "isSupportYj": null, "cityName": null, "districtName": null, "shopinfo": {"mid": "888002153310606", "good_flag": null, "new_flag": "2", "short_name": "\u8054\u534e\u8d85\u5e02", "short_name_pinyin": "lianhuachaoshi", "status": null, "address": null, "name": null, "id": "41238"}, "mid": "888002153310606", "shopId": "41238", "netid": null, "province": 901, "district": 601, "zipcode": null, "telephone": null, "posDate": null, "destineTel": null, "togoTel": null, "trafficWay": null, "signBuilding": null, "businessArea": null, "selfRoom": null, "businessTime": null, "stall": null, "consume": null, "serviceFei": null, "favourable": null, "shopMemo": null, "appraise": null, "website": null, "memo": null, "payTypes": "\u6749\u5fb7\u5361", "shopTypes": "\u8d85\u5e02", "consumeTypes": null, "cookTypes": null, "orderNum": 1000, "card4no": null, "card4noAcc": null, "district2": 405, "searchScope": null, "status": 1, "address": "\u4e2d\u5c71\u5317\u8def3724\u53f7", "name": "\u8054\u534e\u8d85\u5e02 \u4e2d\u5c71\u5317\u8def\u5e97", "id": 180958, "pageNo": 0, "pageCount": null, "pageSize": 10, "ids": null, "endTime": null, "startTime": null}, {"cardNumFive": null, "isSupportYj": null, "cityName": null, "districtName": null, "shopinfo": {"mid": "888002153310606", "good_flag": null, "new_flag": "2", "short_name": "\u8054\u534e\u8d85\u5e02", "short_name_pinyin": "lianhuachaoshi", "status": null, "address": null, "name": null, "id": "41238"}, "mid": "888002153310606", "shopId": "41238", "netid": null, "province": 901, "district": 601, "zipcode": null, "telephone": null, "posDate": null, "destineTel": null, "togoTel": null, "trafficWay": null, "signBuilding": null, "businessArea": null, "selfRoom": null, "businessTime": null, "stall": null, "consume": null, "serviceFei": null, "favourable": null, "shopMemo": null, "appraise": null, "website": null, "memo": null, "payTypes": "\u6749\u5fb7\u5361", "shopTypes": "\u8d85\u5e02", "consumeTypes": null, "cookTypes": null, "orderNum": 1000, "card4no": null, "card4noAcc": null, "district2": 418, "searchScope": null, "status": 1, "address": "\u6d2a\u5c71\u8def190\u53f7", "name": "\u8054\u534e\u8d85\u5e02 \u6d2a\u5c71\u8def\u5e97", "id": 180959, "pageNo": 0, "pageCount": null, "pageSize": 10, "ids": null, "endTime": null, "startTime": null}, {"cardNumFive": null, "isSupportYj": null, "cityName": null, "districtName": null, "shopinfo": {"mid": "888002153310606", "good_flag": null, "new_flag": "2", "short_name": "\u8054\u534e\u8d85\u5e02", "short_name_pinyin": "lianhuachaoshi", "status": null, "address": null, "name": null, "id": "41238"}, "mid": "888002153310606", "shopId": "41238", "netid": null, "province": 901, "district": 601, "zipcode": null, "telephone": "52969588", "posDate": null, "destineTel": null, "togoTel": null, "trafficWay": null, "signBuilding": null, "businessArea": null, "selfRoom": null, "businessTime": null, "stall": null, "consume": null, "serviceFei": null, "favourable": null, "shopMemo": null, "appraise": null, "website": null, "memo": null, "payTypes": "\u6749\u5fb7\u5361", "shopTypes": "\u8d85\u5e02", "consumeTypes": null, "cookTypes": null, "orderNum": 1000, "card4no": null, "card4noAcc": null, "district2": 409, "searchScope": null, "status": 1, "address": "\u7eaa\u9ad8\u8def535-539\u53f7", "name": "\u8054\u534e\u8d85\u5e02 \u7eaa\u9ad8\u8def\u5e97", "id": 180960, "pageNo": 0, "pageCount": null, "pageSize": 10, "ids": null, "endTime": null, "startTime": null}, {"cardNumFive": null, "isSupportYj": null, "cityName": null, "districtName": null, "shopinfo": {"mid": "888002153310606", "good_flag": null, "new_flag": "2", "short_name": "\u8054\u534e\u8d85\u5e02", "short_name_pinyin": "lianhuachaoshi", "status": null, "address": null, "name": null, "id": "41238"}, "mid": "888002153310606", "shopId": "41238", "netid": null, "province": 901, "district": 601, "zipcode": null, "telephone": null, "posDate": null, "destineTel": null, "togoTel": null, "trafficWay": null, "signBuilding": null, "businessArea": null, "selfRoom": null, "businessTime": null, "stall": null, "consume": null, "serviceFei": null, "favourable": null, "shopMemo": null, "appraise": null, "website": null, "memo": null, "payTypes": "\u6749\u5fb7\u5361", "shopTypes": "\u8d85\u5e02", "consumeTypes": null, "cookTypes": null, "orderNum": 1000, "card4no": null, "card4noAcc": null, "district2": 403, "searchScope": null, "status": 1, "address": "\u5174\u56fd\u8def277\u53f7", "name": "\u8054\u534e\u8d85\u5e02 \u5174\u56fd\u8def\u5e97", "id": 180961, "pageNo": 0, "pageCount": null, "pageSize": 10, "ids": null, "endTime": null, "startTime": null}, {"cardNumFive": null, "isSupportYj": null, "cityName": null, "districtName": null, "shopinfo": {"mid": "888002153310606", "good_flag": null, "new_flag": "2", "short_name": "\u8054\u534e\u8d85\u5e02", "short_name_pinyin": "lianhuachaoshi", "status": null, "address": null, "name": null, "id": "41238"}, "mid": "888002153310606", "shopId": "41238", "netid": null, "province": 901, "district": 601, "zipcode": null, "telephone": "59619808", "posDate": null, "destineTel": null, "togoTel": null, "trafficWay": null, "signBuilding": null, "businessArea": null, "selfRoom": null, "businessTime": null, "stall": null, "consume": null, "serviceFei": null, "favourable": null, "shopMemo": null, "appraise": null, "website": null, "memo": null, "payTypes": "\u6749\u5fb7\u5361", "shopTypes": "\u8d85\u5e02", "consumeTypes": null, "cookTypes": null, "orderNum": 1000, "card4no": null, "card4noAcc": null, "district2": 415, "searchScope": null, "status": 1, "address": "\u516b\u4e00\u8def358\u53f7", "name": "\u8054\u534e\u8d85\u5e02 \u5357\u95e8\u5e97", "id": 180962, "pageNo": 0, "pageCount": null, "pageSize": 10, "ids": null, "endTime": null, "startTime": null}, {"cardNumFive": null, "isSupportYj": null, "cityName": null, "districtName": null, "shopinfo": {"mid": "888002153310606", "good_flag": null, "new_flag": "2", "short_name": "\u8054\u534e\u8d85\u5e02", "short_name_pinyin": "lianhuachaoshi", "status": null, "address": null, "name": null, "id": "41238"}, "mid": "888002153310606", "shopId": "41238", "netid": null, "province": 901, "district": 601, "zipcode": null, "telephone": null, "posDate": null, "destineTel": null, "togoTel": null, "trafficWay": null, "signBuilding": null, "businessArea": null, "selfRoom": null, "businessTime": null, "stall": null, "consume": null, "serviceFei": null, "favourable": null, "shopMemo": null, "appraise": null, "website": null, "memo": null, "payTypes": "\u6749\u5fb7\u5361", "shopTypes": "\u8d85\u5e02", "consumeTypes": null, "cookTypes": null, "orderNum": 1000, "card4no": null, "card4noAcc": null, "district2": 418, "searchScope": null, "status": 1, "address": "\u9f50\u6cb3\u8def815\u53f7", "name": "\u8054\u534e\u8d85\u5e02 \u9f50\u6cb3\u8def\u5e97", "id": 180964, "pageNo": 0, "pageCount": null, "pageSize": 10, "ids": null, "endTime": null, "startTime": null}, {"cardNumFive": null, "isSupportYj": null, "cityName": null, "districtName": null, "shopinfo": {"mid": "888002153310606", "good_flag": null, "new_flag": "2", "short_name": "\u8054\u534e\u8d85\u5e02", "short_name_pinyin": "lianhuachaoshi", "status": null, "address": null, "name": null, "id": "41238"}, "mid": "888002153310606", "shopId": "41238", "netid": null, "province": 901, "district": 601, "zipcode": null, "telephone": "66670754", "posDate": null, "destineTel": null, "togoTel": null, "trafficWay": null, "signBuilding": null, "businessArea": null, "selfRoom": null, "businessTime": null, "stall": null, "consume": null, "serviceFei": null, "favourable": null, "shopMemo": null, "appraise": null, "website": null, "memo": null, "payTypes": "\u6749\u5fb7\u5361", "shopTypes": "\u8d85\u5e02", "consumeTypes": null, "cookTypes": null, "orderNum": 1000, "card4no": null, "card4noAcc": null, "district2": 416, "searchScope": null, "status": 1, "address": "\u534e\u7075\u8def847\u53f7", "name": "\u8054\u534e\u8d85\u5e02 \u5927\u534e\u5e97", "id": 180965, "pageNo": 0, "pageCount": null, "pageSize": 10, "ids": null, "endTime": null, "startTime": null}, {"cardNumFive": null, "isSupportYj": null, "cityName": null, "districtName": null, "shopinfo": {"mid": "888002153310606", "good_flag": null, "new_flag": "2", "short_name": "\u8054\u534e\u8d85\u5e02", "short_name_pinyin": "lianhuachaoshi", "status": null, "address": null, "name": null, "id": "41238"}, "mid": "888002153310606", "shopId": "41238", "netid": null, "province": 901, "district": 601, "zipcode": null, "telephone": "59421095", "posDate": null, "destineTel": null, "togoTel": null, "trafficWay": null, "signBuilding": null, "businessArea": null, "selfRoom": null, "businessTime": null, "stall": null, "consume": null, "serviceFei": null, "favourable": null, "shopMemo": null, "appraise": null, "website": null, "memo": null, "payTypes": "\u6749\u5fb7\u5361", "shopTypes": "\u8d85\u5e02", "consumeTypes": null, "cookTypes": null, "orderNum": 1000, "card4no": null, "card4noAcc": null, "district2": 415, "searchScope": null, "status": 1, "address": "\u5821\u5174\u8def70\u53f7", "name": "\u8054\u534e\u8d85\u5e02 \u5821\u5174\u8def\u5e97", "id": 180969, "pageNo": 0, "pageCount": null, "pageSize": 10, "ids": null, "endTime": null, "startTime": null}], "pageLimit": 6270, "size": 10}