{"pageCount": 1095, "count": 10942, "pageNo": 626, "subShopInfo": {"cardNumFive": "", "isSupportYj": "", "cityName": null, "districtName": null, "shopinfo": {"mid": null, "good_flag": null, "new_flag": null, "short_name": null, "short_name_pinyin": null, "status": null, "address": "", "name": "", "id": null}, "mid": null, "shopId": null, "netid": null, "province": 901, "district": null, "zipcode": null, "telephone": null, "posDate": null, "destineTel": null, "togoTel": null, "trafficWay": null, "signBuilding": null, "businessArea": null, "selfRoom": null, "businessTime": null, "stall": null, "consume": null, "serviceFei": null, "favourable": null, "shopMemo": "1", "appraise": null, "website": null, "memo": null, "payTypes": "", "shopTypes": "", "consumeTypes": null, "cookTypes": null, "orderNum": null, "card4no": null, "card4noAcc": null, "district2": null, "searchScope": null, "status": null, "address": "", "name": null, "id": null, "pageNo": 625, "pageCount": null, "pageSize": 10, "ids": null, "endTime": null, "startTime": null}, "list": [{"cardNumFive": null, "isSupportYj": null, "cityName": null, "districtName": null, "shopinfo": {"mid": "888002153310606", "good_flag": null, "new_flag": "2", "short_name": "\u8054\u534e\u8d85\u5e02", "short_name_pinyin": "lianhuachaoshi", "status": null, "address": null, "name": null, "id": "41238"}, "mid": "888002153310606", "shopId": "41238", "netid": null, "province": 901, "district": 601, "zipcode": null, "telephone": "53530189", "posDate": null, "destineTel": null, "togoTel": null, "trafficWay": null, "signBuilding": null, "businessArea": null, "selfRoom": null, "businessTime": null, "stall": null, "consume": null, "serviceFei": null, "favourable": null, "shopMemo": null, "appraise": null, "website": null, "memo": null, "payTypes": "\u6749\u5fb7\u5361", "shopTypes": "\u8d85\u5e02", "consumeTypes": null, "cookTypes": null, "orderNum": 1000, "card4no": null, "card4noAcc": null, "district2": 401, "searchScope": null, "status": 1, "address": "\u6d59\u6c5f\u4e2d\u8def148\u53f7", "name": "\u8054\u534e\u8d85\u5e02 \u6d59\u6c5f\u4e2d\u8def\u5e97", "id": 180930, "pageNo": 0, "pageCount": null, "pageSize": 10, "ids": null, "endTime": null, "startTime": null}, {"cardNumFive": null, "isSupportYj": null, "cityName": null, "districtName": null, "shopinfo": {"mid": "888002153310606", "good_flag": null, "new_flag": "2", "short_name": "\u8054\u534e\u8d85\u5e02", "short_name_pinyin": "lianhuachaoshi", "status": null, "address": null, "name": null, "id": "41238"}, "mid": "888002153310606", "shopId": "41238", "netid": null, "province": 901, "district": 601, "zipcode": null, "telephone": null, "posDate": null, "destineTel": null, "togoTel": null, "trafficWay": null, "signBuilding": null, "businessArea": null, "selfRoom": null, "businessTime": null, "stall": null, "consume": null, "serviceFei": null, "favourable": null, "shopMemo": null, "appraise": null, "website": null, "memo": null, "payTypes": "\u6749\u5fb7\u5361", "shopTypes": "\u8d85\u5e02", "consumeTypes": null, "cookTypes": null, "orderNum": 1000, "card4no": null, "card4noAcc": null, "district2": 401, "searchScope": null, "status": 1, "address": "\u51e4\u9633\u8def369\u53f7", "name": "\u8054\u534e\u8d85\u5e02 \u51e4\u9633\u8def\u5e97", "id": 180931, "pageNo": 0, "pageCount": null, "pageSize": 10, "ids": null, "endTime": null, "startTime": null}, {"cardNumFive": null, "isSupportYj": null, "cityName": null, "districtName": null, "shopinfo": {"mid": "888002153310606", "good_flag": null, "new_flag": "2", "short_name": "\u8054\u534e\u8d85\u5e02", "short_name_pinyin": "lianhuachaoshi", "status": null, "address": null, "name": null, "id": "41238"}, "mid": "888002153310606", "shopId": "41238", "netid": null, "province": 901, "district": 601, "zipcode": null, "telephone": null, "posDate": null, "destineTel": null, "togoTel": null, "trafficWay": null, "signBuilding": null, "businessArea": null, "selfRoom": null, "businessTime": null, "stall": null, "consume": null, "serviceFei": null, "favourable": null, "shopMemo": null, "appraise": null, "website": null, "memo": null, "payTypes": "\u6749\u5fb7\u5361", "shopTypes": "\u8d85\u5e02", "consumeTypes": null, "cookTypes": null, "orderNum": 1000, "card4no": null, "card4noAcc": null, "district2": 406, "searchScope": null, "status": 1, "address": "\u534e\u5c71\u8def1520\u5f04121\u53f7", "name": "\u8054\u534e\u8d85\u5e02 \u534e\u5c71\u8def\u5e97", "id": 180935, "pageNo": 0, "pageCount": null, "pageSize": 10, "ids": null, "endTime": null, "startTime": null}, {"cardNumFive": null, "isSupportYj": null, "cityName": null, "districtName": null, "shopinfo": {"mid": "888002153310606", "good_flag": null, "new_flag": "2", "short_name": "\u8054\u534e\u8d85\u5e02", "short_name_pinyin": "lianhuachaoshi", "status": null, "address": null, "name": null, "id": "41238"}, "mid": "888002153310606", "shopId": "41238", "netid": null, "province": 901, "district": 601, "zipcode": null, "telephone": "56146230", "posDate": null, "destineTel": null, "togoTel": null, "trafficWay": null, "signBuilding": null, "businessArea": null, "selfRoom": null, "businessTime": null, "stall": null, "consume": null, "serviceFei": null, "favourable": null, "shopMemo": null, "appraise": null, "website": null, "memo": null, "payTypes": "\u6749\u5fb7\u5361", "shopTypes": "\u8d85\u5e02", "consumeTypes": null, "cookTypes": null, "orderNum": 1000, "card4no": null, "card4noAcc": null, "district2": 416, "searchScope": null, "status": 1, "address": "\u83ca\u76db\u8def882-868\u53f7", "name": "\u8054\u534e\u8d85\u5e02 \u83ca\u76db\u8def\u5e97", "id": 180936, "pageNo": 0, "pageCount": null, "pageSize": 10, "ids": null, "endTime": null, "startTime": null}, {"cardNumFive": null, "isSupportYj": null, "cityName": null, "districtName": null, "shopinfo": {"mid": "888002153310606", "good_flag": null, "new_flag": "2", "short_name": "\u8054\u534e\u8d85\u5e02", "short_name_pinyin": "lianhuachaoshi", "status": null, "address": null, "name": null, "id": "41238"}, "mid": "888002153310606", "shopId": "41238", "netid": null, "province": 901, "district": 601, "zipcode": null, "telephone": "68670289", "posDate": null, "destineTel": null, "togoTel": null, "trafficWay": null, "signBuilding": null, "businessArea": null, "selfRoom": null, "businessTime": null, "stall": null, "consume": null, "serviceFei": null, "favourable": null, "shopMemo": null, "appraise": null, "website": null, "memo": null, "payTypes": "\u6749\u5fb7\u5361", "shopTypes": "\u8d85\u5e02", "consumeTypes": null, "cookTypes": null, "orderNum": 1000, "card4no": null, "card4noAcc": null, "district2": 418, "searchScope": null, "status": 1, "address": "\u5f20\u6768\u8def1255\u53f7", "name": "\u8054\u534e\u8d85\u5e02 \u5f20\u6768\u8def\u5e97", "id": 180937, "pageNo": 0, "pageCount": null, "pageSize": 10, "ids": null, "endTime": null, "startTime": null}, {"cardNumFive": null, "isSupportYj": null, "cityName": null, "districtName": null, "shopinfo": {"mid": "888002153310606", "good_flag": null, "new_flag": "2", "short_name": "\u8054\u534e\u8d85\u5e02", "short_name_pinyin": "lianhuachaoshi", "status": null, "address": null, "name": null, "id": "41238"}, "mid": "888002153310606", "shopId": "41238", "netid": null, "province": 901, "district": 601, "zipcode": null, "telephone": null, "posDate": null, "destineTel": null, "togoTel": null, "trafficWay": null, "signBuilding": null, "businessArea": null, "selfRoom": null, "businessTime": null, "stall": null, "consume": null, "serviceFei": null, "favourable": null, "shopMemo": null, "appraise": null, "website": null, "memo": null, "payTypes": "\u6749\u5fb7\u5361", "shopTypes": "\u8d85\u5e02", "consumeTypes": null, "cookTypes": null, "orderNum": 1000, "card4no": null, "card4noAcc": null, "district2": 408, "searchScope": null, "status": 1, "address": "\u8f66\u7ad9\u5317\u8def518\u53f7", "name": "\u8054\u534e\u8d85\u5e02 \u8f66\u7ad9\u5317\u8def\u5e97", "id": 180939, "pageNo": 0, "pageCount": null, "pageSize": 10, "ids": null, "endTime": null, "startTime": null}, {"cardNumFive": null, "isSupportYj": null, "cityName": null, "districtName": null, "shopinfo": {"mid": "888002153310606", "good_flag": null, "new_flag": "2", "short_name": "\u8054\u534e\u8d85\u5e02", "short_name_pinyin": "lianhuachaoshi", "status": null, "address": null, "name": null, "id": "41238"}, "mid": "888002153310606", "shopId": "41238", "netid": null, "province": 901, "district": 601, "zipcode": null, "telephone": "65385420", "posDate": null, "destineTel": null, "togoTel": null, "trafficWay": null, "signBuilding": null, "businessArea": null, "selfRoom": null, "businessTime": null, "stall": null, "consume": null, "serviceFei": null, "favourable": null, "shopMemo": null, "appraise": null, "website": null, "memo": null, "payTypes": "\u6749\u5fb7\u5361", "shopTypes": "\u8d85\u5e02", "consumeTypes": null, "cookTypes": null, "orderNum": 1000, "card4no": null, "card4noAcc": null, "district2": 407, "searchScope": null, "status": 1, "address": "\u7fd4\u6bb7\u8def584\u53f7", "name": "\u8054\u534e\u8d85\u5e02 \u7fd4\u6bb7\u5e97", "id": 180940, "pageNo": 0, "pageCount": null, "pageSize": 10, "ids": null, "endTime": null, "startTime": null}, {"cardNumFive": null, "isSupportYj": null, "cityName": null, "districtName": null, "shopinfo": {"mid": "888002153310606", "good_flag": null, "new_flag": "2", "short_name": "\u8054\u534e\u8d85\u5e02", "short_name_pinyin": "lianhuachaoshi", "status": null, "address": null, "name": null, "id": "41238"}, "mid": "888002153310606", "shopId": "41238", "netid": null, "province": 901, "district": 601, "zipcode": null, "telephone": "55623333", "posDate": null, "destineTel": null, "togoTel": null, "trafficWay": null, "signBuilding": null, "businessArea": null, "selfRoom": null, "businessTime": null, "stall": null, "consume": null, "serviceFei": null, "favourable": null, "shopMemo": null, "appraise": null, "website": null, "memo": null, "payTypes": "\u6749\u5fb7\u5361", "shopTypes": "\u8d85\u5e02", "consumeTypes": null, "cookTypes": null, "orderNum": 1000, "card4no": null, "card4noAcc": null, "district2": 407, "searchScope": null, "status": 1, "address": "\u63a7\u6c5f\u8def18\u5f0413\u53f7", "name": "\u8054\u534e\u8d85\u5e02 \u56fe\u4eec\u5e97", "id": 180941, "pageNo": 0, "pageCount": null, "pageSize": 10, "ids": null, "endTime": null, "startTime": null}, {"cardNumFive": null, "isSupportYj": null, "cityName": null, "districtName": null, "shopinfo": {"mid": "888002153310606", "good_flag": null, "new_flag": "2", "short_name": "\u8054\u534e\u8d85\u5e02", "short_name_pinyin": "lianhuachaoshi", "status": null, "address": null, "name": null, "id": "41238"}, "mid": "888002153310606", "shopId": "41238", "netid": null, "province": 901, "district": 601, "zipcode": null, "telephone": "55520204", "posDate": null, "destineTel": null, "togoTel": null, "trafficWay": null, "signBuilding": null, "businessArea": null, "selfRoom": null, "businessTime": null, "stall": null, "consume": null, "serviceFei": null, "favourable": null, "shopMemo": null, "appraise": null, "website": null, "memo": null, "payTypes": "\u6749\u5fb7\u5361", "shopTypes": "\u8d85\u5e02", "consumeTypes": null, "cookTypes": null, "orderNum": 1000, "card4no": null, "card4noAcc": null, "district2": 407, "searchScope": null, "status": 1, "address": "\u56fd\u5b9a\u652f\u8def28\u53f7", "name": "\u8054\u534e\u8d85\u5e02 \u56fd\u5b9a\u5e97", "id": 180942, "pageNo": 0, "pageCount": null, "pageSize": 10, "ids": null, "endTime": null, "startTime": null}, {"cardNumFive": null, "isSupportYj": null, "cityName": null, "districtName": null, "shopinfo": {"mid": "888002153310606", "good_flag": null, "new_flag": "2", "short_name": "\u8054\u534e\u8d85\u5e02", "short_name_pinyin": "lianhuachaoshi", "status": null, "address": null, "name": null, "id": "41238"}, "mid": "888002153310606", "shopId": "41238", "netid": null, "province": 901, "district": 601, "zipcode": null, "telephone": "68670554", "posDate": null, "destineTel": null, "togoTel": null, "trafficWay": null, "signBuilding": null, "businessArea": null, "selfRoom": null, "businessTime": null, "stall": null, "consume": null, "serviceFei": null, "favourable": null, "shopMemo": null, "appraise": null, "website": null, "memo": null, "payTypes": "\u6749\u5fb7\u5361", "shopTypes": "\u8d85\u5e02", "consumeTypes": null, "cookTypes": null, "orderNum": 1000, "card4no": null, "card4noAcc": null, "district2": 418, "searchScope": null, "status": 1, "address": "\u6f4d\u574a\u8def357\u53f7", "name": "\u8054\u534e\u8d85\u5e02 \u7af9\u56ed\u5e97", "id": 180943, "pageNo": 0, "pageCount": null, "pageSize": 10, "ids": null, "endTime": null, "startTime": null}], "pageLimit": 6250, "size": 10}