{"pageCount": 1095, "count": 10942, "pageNo": 635, "subShopInfo": {"cardNumFive": "", "isSupportYj": "", "cityName": null, "districtName": null, "shopinfo": {"mid": null, "good_flag": null, "new_flag": null, "short_name": null, "short_name_pinyin": null, "status": null, "address": "", "name": "", "id": null}, "mid": null, "shopId": null, "netid": null, "province": 901, "district": null, "zipcode": null, "telephone": null, "posDate": null, "destineTel": null, "togoTel": null, "trafficWay": null, "signBuilding": null, "businessArea": null, "selfRoom": null, "businessTime": null, "stall": null, "consume": null, "serviceFei": null, "favourable": null, "shopMemo": "1", "appraise": null, "website": null, "memo": null, "payTypes": "", "shopTypes": "", "consumeTypes": null, "cookTypes": null, "orderNum": null, "card4no": null, "card4noAcc": null, "district2": null, "searchScope": null, "status": null, "address": "", "name": null, "id": null, "pageNo": 634, "pageCount": null, "pageSize": 10, "ids": null, "endTime": null, "startTime": null}, "list": [{"cardNumFive": null, "isSupportYj": null, "cityName": null, "districtName": null, "shopinfo": {"mid": "888002154410225", "good_flag": "2", "new_flag": "2", "short_name": "\u8054\u534e\u8d85\u5e02", "short_name_pinyin": "lianhuachaoshi", "status": null, "address": null, "name": null, "id": "565224392489959424"}, "mid": "888002154410225", "shopId": "565224392489959424", "netid": null, "province": 901, "district": 601, "zipcode": null, "telephone": null, "posDate": null, "destineTel": null, "togoTel": null, "trafficWay": null, "signBuilding": null, "businessArea": null, "selfRoom": null, "businessTime": null, "stall": null, "consume": null, "serviceFei": null, "favourable": null, "shopMemo": null, "appraise": null, "website": null, "memo": null, "payTypes": "\u6749\u5fb7\u5361,", "shopTypes": null, "consumeTypes": null, "cookTypes": null, "orderNum": null, "card4no": null, "card4noAcc": null, "district2": 418, "searchScope": null, "status": 1, "address": "\u9ad8\u8bbe\u8def171\u53f7", "name": "\u9ad8\u8bbe\u8def\u5e97", "id": 565224390547996672, "pageNo": 0, "pageCount": null, "pageSize": 10, "ids": null, "endTime": null, "startTime": null}, {"cardNumFive": null, "isSupportYj": null, "cityName": null, "districtName": null, "shopinfo": {"mid": "888002153311205", "good_flag": "2", "new_flag": "2", "short_name": "\u8054\u534e\u8d85\u5e02", "short_name_pinyin": "lianhuachaoshi", "status": null, "address": null, "name": null, "id": "565224394197041152"}, "mid": "888002153311205", "shopId": "565224394197041152", "netid": null, "province": 901, "district": 601, "zipcode": null, "telephone": null, "posDate": null, "destineTel": null, "togoTel": null, "trafficWay": null, "signBuilding": null, "businessArea": null, "selfRoom": null, "businessTime": null, "stall": null, "consume": null, "serviceFei": null, "favourable": null, "shopMemo": null, "appraise": null, "website": null, "memo": null, "payTypes": "\u6749\u5fb7\u5361,", "shopTypes": null, "consumeTypes": null, "cookTypes": null, "orderNum": null, "card4no": null, "card4noAcc": null, "district2": 408, "searchScope": null, "status": 1, "address": "\u56db\u5ddd\u5317\u8def888\u53f7103-1\u5ba4", "name": "\u946b\u4f73\u5e97", "id": 565224392255078400, "pageNo": 0, "pageCount": null, "pageSize": 10, "ids": null, "endTime": null, "startTime": null}, {"cardNumFive": null, "isSupportYj": null, "cityName": null, "districtName": null, "shopinfo": {"mid": "888888859120125", "good_flag": null, "new_flag": null, "short_name": "\u8054\u534e\u590d\u661f", "short_name_pinyin": "lianhuafuxing", "status": null, "address": null, "name": null, "id": "32536"}, "mid": "888888859120125", "shopId": "32536", "netid": null, "province": 901, "district": 601, "zipcode": null, "telephone": "39586339", "posDate": "20080814", "destineTel": null, "togoTel": null, "trafficWay": null, "signBuilding": null, "businessArea": null, "selfRoom": null, "businessTime": null, "stall": null, "consume": null, "serviceFei": null, "favourable": null, "shopMemo": null, "appraise": null, "website": null, "memo": null, "payTypes": "\u6749\u5fb7\u5361", "shopTypes": "\u836f\u5e97", "consumeTypes": null, "cookTypes": null, "orderNum": 1000, "card4no": null, "card4noAcc": null, "district2": 411, "searchScope": null, "status": 1, "address": "\u6c11\u4e30\u8def568\u53f7", "name": "\u8054\u534e\u590d\u661f \u5b89\u4ead\u5e97", "id": 139298, "pageNo": 0, "pageCount": null, "pageSize": 10, "ids": null, "endTime": null, "startTime": null}, {"cardNumFive": null, "isSupportYj": null, "cityName": null, "districtName": null, "shopinfo": {"mid": "888888859120125", "good_flag": null, "new_flag": null, "short_name": "\u8054\u534e\u590d\u661f", "short_name_pinyin": "lianhuafuxing", "status": null, "address": null, "name": null, "id": "32536"}, "mid": "888888859120125", "shopId": "32536", "netid": null, "province": 901, "district": 601, "zipcode": null, "telephone": null, "posDate": "20100302", "destineTel": null, "togoTel": null, "trafficWay": null, "signBuilding": null, "businessArea": null, "selfRoom": null, "businessTime": null, "stall": null, "consume": null, "serviceFei": null, "favourable": null, "shopMemo": null, "appraise": null, "website": null, "memo": null, "payTypes": "\u6749\u5fb7\u5361", "shopTypes": "\u836f\u5e97", "consumeTypes": null, "cookTypes": null, "orderNum": 1000, "card4no": null, "card4noAcc": null, "district2": 403, "searchScope": null, "status": 1, "address": "\u8336\u9675\u8def216\u53f7", "name": "\u8054\u534e\u590d\u661f \u8336\u9675\u8def\u5e97", "id": 139299, "pageNo": 0, "pageCount": null, "pageSize": 10, "ids": null, "endTime": null, "startTime": null}, {"cardNumFive": null, "isSupportYj": null, "cityName": null, "districtName": null, "shopinfo": {"mid": "888888859120125", "good_flag": null, "new_flag": null, "short_name": "\u8054\u534e\u590d\u661f", "short_name_pinyin": "lianhuafuxing", "status": null, "address": null, "name": null, "id": "32536"}, "mid": "888888859120125", "shopId": "32536", "netid": null, "province": 901, "district": 601, "zipcode": null, "telephone": "65190349", "posDate": "20080818", "destineTel": null, "togoTel": null, "trafficWay": "\u516c\u4ea4934 868", "signBuilding": null, "businessArea": null, "selfRoom": null, "businessTime": null, "stall": null, "consume": null, "serviceFei": null, "favourable": null, "shopMemo": null, "appraise": null, "website": null, "memo": null, "payTypes": "\u6749\u5fb7\u5361", "shopTypes": "\u836f\u5e97", "consumeTypes": null, "cookTypes": null, "orderNum": 1000, "card4no": null, "card4noAcc": null, "district2": 408, "searchScope": null, "status": 1, "address": "\u957f\u9633\u8def1750\u53f7", "name": "\u8054\u534e\u590d\u661f \u957f\u9633\u5e97", "id": 139300, "pageNo": 0, "pageCount": null, "pageSize": 10, "ids": null, "endTime": null, "startTime": null}, {"cardNumFive": null, "isSupportYj": null, "cityName": null, "districtName": null, "shopinfo": {"mid": "888888859120125", "good_flag": null, "new_flag": null, "short_name": "\u8054\u534e\u590d\u661f", "short_name_pinyin": "lianhuafuxing", "status": null, "address": null, "name": null, "id": "32536"}, "mid": "888888859120125", "shopId": "32536", "netid": null, "province": 901, "district": 601, "zipcode": null, "telephone": "51620907", "posDate": "20080814", "destineTel": null, "togoTel": null, "trafficWay": null, "signBuilding": null, "businessArea": null, "selfRoom": null, "businessTime": null, "stall": null, "consume": null, "serviceFei": null, "favourable": null, "shopMemo": null, "appraise": null, "website": null, "memo": null, "payTypes": "\u6749\u5fb7\u5361", "shopTypes": "\u836f\u5e97", "consumeTypes": null, "cookTypes": null, "orderNum": 1000, "card4no": null, "card4noAcc": null, "district2": 411, "searchScope": null, "status": 1, "address": "\u57ce\u4e2d\u8def138\u53f7", "name": "\u8054\u534e\u590d\u661f \u57ce\u4e2d\u8def\u5e97", "id": 139301, "pageNo": 0, "pageCount": null, "pageSize": 10, "ids": null, "endTime": null, "startTime": null}, {"cardNumFive": null, "isSupportYj": null, "cityName": null, "districtName": null, "shopinfo": {"mid": "888888859120125", "good_flag": null, "new_flag": null, "short_name": "\u8054\u534e\u590d\u661f", "short_name_pinyin": "lianhuafuxing", "status": null, "address": null, "name": null, "id": "32536"}, "mid": "888888859120125", "shopId": "32536", "netid": null, "province": 901, "district": 601, "zipcode": null, "telephone": "55968123", "posDate": "20080818", "destineTel": null, "togoTel": null, "trafficWay": "\u516c\u4ea4123 \u5730\u94c1\u516b\u53f7\u7ebf", "signBuilding": null, "businessArea": null, "selfRoom": null, "businessTime": null, "stall": null, "consume": null, "serviceFei": null, "favourable": null, "shopMemo": null, "appraise": null, "website": null, "memo": null, "payTypes": "\u6749\u5fb7\u5361", "shopTypes": "\u836f\u5e97", "consumeTypes": null, "cookTypes": null, "orderNum": 1000, "card4no": null, "card4noAcc": null, "district2": 408, "searchScope": null, "status": 1, "address": "\u56db\u5e73\u8def1230\u53f7", "name": "\u8054\u534e\u590d\u661f \u8d64\u5cf0\u8def\u5e97", "id": 139302, "pageNo": 0, "pageCount": null, "pageSize": 10, "ids": null, "endTime": null, "startTime": null}, {"cardNumFive": null, "isSupportYj": null, "cityName": null, "districtName": null, "shopinfo": {"mid": "888888859120125", "good_flag": null, "new_flag": null, "short_name": "\u8054\u534e\u590d\u661f", "short_name_pinyin": "lianhuafuxing", "status": null, "address": null, "name": null, "id": "32536"}, "mid": "888888859120125", "shopId": "32536", "netid": null, "province": 901, "district": 601, "zipcode": null, "telephone": "66298112", "posDate": "20080814", "destineTel": null, "togoTel": null, "trafficWay": "\u516c\u4ea447 829 \u5730\u94c1\u516b\u53f7\u7ebf", "signBuilding": null, "businessArea": null, "selfRoom": null, "businessTime": null, "stall": null, "consume": null, "serviceFei": null, "favourable": null, "shopMemo": null, "appraise": null, "website": null, "memo": null, "payTypes": "\u6749\u5fb7\u5361", "shopTypes": "\u836f\u5e97", "consumeTypes": null, "cookTypes": null, "orderNum": 1000, "card4no": null, "card4noAcc": null, "district2": 408, "searchScope": null, "status": 1, "address": "\u4e1c\u5b9d\u5174\u8def777\u53f7", "name": "\u8054\u534e\u590d\u661f \u4e1c\u5b9d\u5e97", "id": 139303, "pageNo": 0, "pageCount": null, "pageSize": 10, "ids": null, "endTime": null, "startTime": null}, {"cardNumFive": null, "isSupportYj": null, "cityName": null, "districtName": null, "shopinfo": {"mid": "888888859120125", "good_flag": null, "new_flag": null, "short_name": "\u8054\u534e\u590d\u661f", "short_name_pinyin": "lianhuafuxing", "status": null, "address": null, "name": null, "id": "32536"}, "mid": "888888859120125", "shopId": "32536", "netid": null, "province": 901, "district": 601, "zipcode": null, "telephone": "68465644", "posDate": "20080818", "destineTel": null, "togoTel": null, "trafficWay": "\u516c\u4ea4610 971 962", "signBuilding": null, "businessArea": null, "selfRoom": null, "businessTime": null, "stall": null, "consume": null, "serviceFei": null, "favourable": null, "shopMemo": null, "appraise": null, "website": null, "memo": null, "payTypes": "\u6749\u5fb7\u5361", "shopTypes": "\u836f\u5e97", "consumeTypes": null, "cookTypes": null, "orderNum": 1000, "card4no": null, "card4noAcc": null, "district2": 416, "searchScope": null, "status": 1, "address": "\u4e1c\u9756\u8def24\u53f7", "name": "\u8054\u534e\u590d\u661f \u4e1c\u6c9f\u5e97", "id": 139305, "pageNo": 0, "pageCount": null, "pageSize": 10, "ids": null, "endTime": null, "startTime": null}, {"cardNumFive": null, "isSupportYj": null, "cityName": null, "districtName": null, "shopinfo": {"mid": "888888859120125", "good_flag": null, "new_flag": null, "short_name": "\u8054\u534e\u590d\u661f", "short_name_pinyin": "lianhuafuxing", "status": null, "address": null, "name": null, "id": "32536"}, "mid": "888888859120125", "shopId": "32536", "netid": null, "province": 901, "district": 601, "zipcode": null, "telephone": "62050989", "posDate": "20080814", "destineTel": null, "togoTel": null, "trafficWay": "\u516c\u4ea444 923", "signBuilding": null, "businessArea": null, "selfRoom": null, "businessTime": null, "stall": null, "consume": null, "serviceFei": null, "favourable": null, "shopMemo": null, "appraise": null, "website": null, "memo": null, "payTypes": "\u6749\u5fb7\u5361", "shopTypes": "\u836f\u5e97", "consumeTypes": null, "cookTypes": null, "orderNum": 1000, "card4no": null, "card4noAcc": null, "district2": 405, "searchScope": null, "status": 1, "address": "\u4e1c\u65b0\u8def220\u53f7", "name": "\u8054\u534e\u590d\u661f \u4e1c\u65b0\u5e97", "id": 139306, "pageNo": 0, "pageCount": null, "pageSize": 10, "ids": null, "endTime": null, "startTime": null}], "pageLimit": 6340, "size": 10}