{"pageCount": 1095, "count": 10942, "pageNo": 637, "subShopInfo": {"cardNumFive": "", "isSupportYj": "", "cityName": null, "districtName": null, "shopinfo": {"mid": null, "good_flag": null, "new_flag": null, "short_name": null, "short_name_pinyin": null, "status": null, "address": "", "name": "", "id": null}, "mid": null, "shopId": null, "netid": null, "province": 901, "district": null, "zipcode": null, "telephone": null, "posDate": null, "destineTel": null, "togoTel": null, "trafficWay": null, "signBuilding": null, "businessArea": null, "selfRoom": null, "businessTime": null, "stall": null, "consume": null, "serviceFei": null, "favourable": null, "shopMemo": "1", "appraise": null, "website": null, "memo": null, "payTypes": "", "shopTypes": "", "consumeTypes": null, "cookTypes": null, "orderNum": null, "card4no": null, "card4noAcc": null, "district2": null, "searchScope": null, "status": null, "address": "", "name": null, "id": null, "pageNo": 636, "pageCount": null, "pageSize": 10, "ids": null, "endTime": null, "startTime": null}, "list": [{"cardNumFive": null, "isSupportYj": null, "cityName": null, "districtName": null, "shopinfo": {"mid": "888888859120125", "good_flag": null, "new_flag": null, "short_name": "\u8054\u534e\u590d\u661f", "short_name_pinyin": "lianhuafuxing", "status": null, "address": null, "name": null, "id": "32536"}, "mid": "888888859120125", "shopId": "32536", "netid": null, "province": 901, "district": 601, "zipcode": null, "telephone": "68005694", "posDate": "20080818", "destineTel": null, "togoTel": null, "trafficWay": "\u516c\u4ea4\u5468\u5357\u7ebf \u5357\u65b0\u7ebf", "signBuilding": null, "businessArea": null, "selfRoom": null, "businessTime": null, "stall": null, "consume": null, "serviceFei": null, "favourable": null, "shopMemo": null, "appraise": null, "website": null, "memo": null, "payTypes": "\u6749\u5fb7\u5361", "shopTypes": "\u836f\u5e97", "consumeTypes": null, "cookTypes": null, "orderNum": 1000, "card4no": null, "card4noAcc": null, "district2": 418, "searchScope": null, "status": 1, "address": "\u60e0\u5357\u9547\u57ce\u4e1c\u8def378-392\u53f7", "name": "\u8054\u534e\u590d\u661f \u5357\u6c47\u5e97", "id": 139322, "pageNo": 0, "pageCount": null, "pageSize": 10, "ids": null, "endTime": null, "startTime": null}, {"cardNumFive": null, "isSupportYj": null, "cityName": null, "districtName": null, "shopinfo": {"mid": "888888859120125", "good_flag": null, "new_flag": null, "short_name": "\u8054\u534e\u590d\u661f", "short_name_pinyin": "lianhuafuxing", "status": null, "address": null, "name": null, "id": "32536"}, "mid": "888888859120125", "shopId": "32536", "netid": null, "province": 901, "district": 601, "zipcode": null, "telephone": "67110312", "posDate": "20080818", "destineTel": null, "togoTel": null, "trafficWay": "\u516c\u4ea4\u8398\u5e84\u7ebf", "signBuilding": null, "businessArea": null, "selfRoom": null, "businessTime": null, "stall": null, "consume": null, "serviceFei": null, "favourable": null, "shopMemo": null, "appraise": null, "website": null, "memo": null, "payTypes": "\u6749\u5fb7\u5361", "shopTypes": "\u836f\u5e97", "consumeTypes": null, "cookTypes": null, "orderNum": 1000, "card4no": null, "card4noAcc": null, "district2": 409, "searchScope": null, "status": 1, "address": "\u73af\u57ce\u5357\u8def677\u53f7", "name": "\u8054\u534e\u590d\u661f \u5357\u6865\u5e97", "id": 139324, "pageNo": 0, "pageCount": null, "pageSize": 10, "ids": null, "endTime": null, "startTime": null}, {"cardNumFive": null, "isSupportYj": null, "cityName": null, "districtName": null, "shopinfo": {"mid": "888888859120125", "good_flag": null, "new_flag": null, "short_name": "\u8054\u534e\u590d\u661f", "short_name_pinyin": "lianhuafuxing", "status": null, "address": null, "name": null, "id": "32536"}, "mid": "888888859120125", "shopId": "32536", "netid": null, "province": 901, "district": 601, "zipcode": null, "telephone": "64196429", "posDate": "20080814", "destineTel": null, "togoTel": null, "trafficWay": "\u516c\u4ea492 \u5730\u94c1\u4e5d\u53f7\u7ebf", "signBuilding": null, "businessArea": null, "selfRoom": null, "businessTime": null, "stall": null, "consume": null, "serviceFei": null, "favourable": null, "shopMemo": null, "appraise": null, "website": null, "memo": null, "payTypes": "\u6749\u5fb7\u5361", "shopTypes": "\u836f\u5e97", "consumeTypes": null, "cookTypes": null, "orderNum": 1000, "card4no": null, "card4noAcc": null, "district2": 403, "searchScope": null, "status": 1, "address": "\u6f15\u5b9d\u8def1798\u53f7", "name": "\u8054\u534e\u590d\u661f \u4e03\u5b9d\u5e97", "id": 139325, "pageNo": 0, "pageCount": null, "pageSize": 10, "ids": null, "endTime": null, "startTime": null}, {"cardNumFive": null, "isSupportYj": null, "cityName": null, "districtName": null, "shopinfo": {"mid": "888888859120125", "good_flag": null, "new_flag": null, "short_name": "\u8054\u534e\u590d\u661f", "short_name_pinyin": "lianhuafuxing", "status": null, "address": null, "name": null, "id": "32536"}, "mid": "888888859120125", "shopId": "32536", "netid": null, "province": 901, "district": 601, "zipcode": null, "telephone": "52695189", "posDate": "20081204", "destineTel": null, "togoTel": null, "trafficWay": "\u516c\u4ea4765 158 765", "signBuilding": null, "businessArea": null, "selfRoom": null, "businessTime": null, "stall": null, "consume": null, "serviceFei": null, "favourable": null, "shopMemo": null, "appraise": null, "website": null, "memo": null, "payTypes": "\u6749\u5fb7\u5361", "shopTypes": "\u836f\u5e97", "consumeTypes": null, "cookTypes": null, "orderNum": 1000, "card4no": null, "card4noAcc": null, "district2": 405, "searchScope": null, "status": 1, "address": "\u6e05\u5cea\u8def378\u53f7", "name": "\u8054\u534e\u590d\u661f \u6e05\u5cea\u8def\u5e97", "id": 139326, "pageNo": 0, "pageCount": null, "pageSize": 10, "ids": null, "endTime": null, "startTime": null}, {"cardNumFive": null, "isSupportYj": null, "cityName": null, "districtName": null, "shopinfo": {"mid": "888888859120125", "good_flag": null, "new_flag": null, "short_name": "\u8054\u534e\u590d\u661f", "short_name_pinyin": "lianhuafuxing", "status": null, "address": null, "name": null, "id": "32536"}, "mid": "888888859120125", "shopId": "32536", "netid": null, "province": 901, "district": 601, "zipcode": null, "telephone": "50848454", "posDate": "20080818", "destineTel": null, "togoTel": null, "trafficWay": "\u516c\u4ea4976 955", "signBuilding": null, "businessArea": null, "selfRoom": null, "businessTime": null, "stall": null, "consume": null, "serviceFei": null, "favourable": null, "shopMemo": null, "appraise": null, "website": null, "memo": null, "payTypes": "\u6749\u5fb7\u5361", "shopTypes": "\u836f\u5e97", "consumeTypes": null, "cookTypes": null, "orderNum": 1000, "card4no": null, "card4noAcc": null, "district2": 418, "searchScope": null, "status": 1, "address": "\u6d4e\u9633\u8def1875\u53f7", "name": "\u8054\u534e\u590d\u661f \u4e09\u6797\u5e97", "id": 139327, "pageNo": 0, "pageCount": null, "pageSize": 10, "ids": null, "endTime": null, "startTime": null}, {"cardNumFive": null, "isSupportYj": null, "cityName": null, "districtName": null, "shopinfo": {"mid": "888888859120125", "good_flag": null, "new_flag": null, "short_name": "\u8054\u534e\u590d\u661f", "short_name_pinyin": "lianhuafuxing", "status": null, "address": null, "name": null, "id": "32536"}, "mid": "888888859120125", "shopId": "32536", "netid": null, "province": 901, "district": 601, "zipcode": null, "telephone": "65933239", "posDate": "20080814", "destineTel": null, "togoTel": null, "trafficWay": "\u516c\u4ea4874 875", "signBuilding": null, "businessArea": null, "selfRoom": null, "businessTime": null, "stall": null, "consume": null, "serviceFei": null, "favourable": null, "shopMemo": null, "appraise": null, "website": null, "memo": null, "payTypes": "\u6749\u5fb7\u5361", "shopTypes": "\u836f\u5e97", "consumeTypes": null, "cookTypes": null, "orderNum": 1000, "card4no": null, "card4noAcc": null, "district2": 408, "searchScope": null, "status": 1, "address": "\u8f66\u7ad9\u5357\u8def330\u5f042\u53f7\u30016\u53f7", "name": "\u8054\u534e\u590d\u661f \u6c34\u7535\u8def\u836f\u67dc", "id": 139328, "pageNo": 0, "pageCount": null, "pageSize": 10, "ids": null, "endTime": null, "startTime": null}, {"cardNumFive": null, "isSupportYj": null, "cityName": null, "districtName": null, "shopinfo": {"mid": "888888859120125", "good_flag": null, "new_flag": null, "short_name": "\u8054\u534e\u590d\u661f", "short_name_pinyin": "lianhuafuxing", "status": null, "address": null, "name": null, "id": "32536"}, "mid": "888888859120125", "shopId": "32536", "netid": null, "province": 901, "district": 601, "zipcode": null, "telephone": "65221422", "posDate": "20080814", "destineTel": null, "togoTel": null, "trafficWay": "\u516c\u4ea4910 \u5730\u94c1\u56db\u53f7\u7ebf", "signBuilding": null, "businessArea": null, "selfRoom": null, "businessTime": null, "stall": null, "consume": null, "serviceFei": null, "favourable": null, "shopMemo": null, "appraise": null, "website": null, "memo": null, "payTypes": "\u6749\u5fb7\u5361", "shopTypes": "\u836f\u5e97", "consumeTypes": null, "cookTypes": null, "orderNum": 1000, "card4no": null, "card4noAcc": null, "district2": 408, "searchScope": null, "status": 1, "address": "\u4e34\u5e73\u5317\u8def8\u53f7", "name": "\u8054\u534e\u590d\u661f \u56db\u5e73\u8def\u5e97", "id": 139329, "pageNo": 0, "pageCount": null, "pageSize": 10, "ids": null, "endTime": null, "startTime": null}, {"cardNumFive": null, "isSupportYj": null, "cityName": null, "districtName": null, "shopinfo": {"mid": "888888859120125", "good_flag": null, "new_flag": null, "short_name": "\u8054\u534e\u590d\u661f", "short_name_pinyin": "lianhuafuxing", "status": null, "address": null, "name": null, "id": "32536"}, "mid": "888888859120125", "shopId": "32536", "netid": null, "province": 901, "district": 601, "zipcode": null, "telephone": "54971752", "posDate": "20080814", "destineTel": null, "togoTel": null, "trafficWay": "\u516c\u4ea4927 712 830", "signBuilding": null, "businessArea": null, "selfRoom": null, "businessTime": null, "stall": null, "consume": null, "serviceFei": null, "favourable": null, "shopMemo": null, "appraise": null, "website": null, "memo": null, "payTypes": "\u6749\u5fb7\u5361", "shopTypes": "\u836f\u5e97", "consumeTypes": null, "cookTypes": null, "orderNum": 1000, "card4no": null, "card4noAcc": null, "district2": 403, "searchScope": null, "status": 1, "address": "\u7530\u6797\u4e1c\u8def388-2\u53f7", "name": "\u8054\u534e\u590d\u661f \u7530\u6797\u4e1c\u8def\u5e97", "id": 139330, "pageNo": 0, "pageCount": null, "pageSize": 10, "ids": null, "endTime": null, "startTime": null}, {"cardNumFive": null, "isSupportYj": null, "cityName": null, "districtName": null, "shopinfo": {"mid": "888888859120125", "good_flag": null, "new_flag": null, "short_name": "\u8054\u534e\u590d\u661f", "short_name_pinyin": "lianhuafuxing", "status": null, "address": null, "name": null, "id": "32536"}, "mid": "888888859120125", "shopId": "32536", "netid": null, "province": 901, "district": 601, "zipcode": null, "telephone": null, "posDate": "200911", "destineTel": null, "togoTel": null, "trafficWay": null, "signBuilding": null, "businessArea": null, "selfRoom": null, "businessTime": null, "stall": null, "consume": null, "serviceFei": null, "favourable": null, "shopMemo": null, "appraise": null, "website": null, "memo": null, "payTypes": "\u6749\u5fb7\u5361", "shopTypes": "\u836f\u5e97", "consumeTypes": null, "cookTypes": null, "orderNum": 1000, "card4no": null, "card4noAcc": null, "district2": 401, "searchScope": null, "status": 1, "address": "\u897f\u85cf\u5357\u8def1130\u53f7", "name": "\u8054\u534e\u590d\u661f \u897f\u85cf\u5357\u8def\u5e97", "id": 139331, "pageNo": 0, "pageCount": null, "pageSize": 10, "ids": null, "endTime": null, "startTime": null}, {"cardNumFive": null, "isSupportYj": null, "cityName": null, "districtName": null, "shopinfo": {"mid": "888888859120125", "good_flag": null, "new_flag": null, "short_name": "\u8054\u534e\u590d\u661f", "short_name_pinyin": "lianhuafuxing", "status": null, "address": null, "name": null, "id": "32536"}, "mid": "888888859120125", "shopId": "32536", "netid": null, "province": 901, "district": 601, "zipcode": null, "telephone": "52198783", "posDate": "20080814", "destineTel": null, "togoTel": null, "trafficWay": "\u516c\u4ea4836 54", "signBuilding": null, "businessArea": null, "selfRoom": null, "businessTime": null, "stall": null, "consume": null, "serviceFei": null, "favourable": null, "shopMemo": null, "appraise": null, "website": null, "memo": null, "payTypes": "\u6749\u5fb7\u5361", "shopTypes": "\u836f\u5e97", "consumeTypes": null, "cookTypes": null, "orderNum": 1000, "card4no": null, "card4noAcc": null, "district2": 406, "searchScope": null, "status": 1, "address": "\u4ed9\u971e\u897f\u8def88\u53f7", "name": "\u8054\u534e\u590d\u661f \u4ed9\u971e\u897f\u8def\u836f\u67dc", "id": 139332, "pageNo": 0, "pageCount": null, "pageSize": 10, "ids": null, "endTime": null, "startTime": null}], "pageLimit": 6360, "size": 10}