{"pageCount": 1095, "count": 10942, "pageNo": 636, "subShopInfo": {"cardNumFive": "", "isSupportYj": "", "cityName": null, "districtName": null, "shopinfo": {"mid": null, "good_flag": null, "new_flag": null, "short_name": null, "short_name_pinyin": null, "status": null, "address": "", "name": "", "id": null}, "mid": null, "shopId": null, "netid": null, "province": 901, "district": null, "zipcode": null, "telephone": null, "posDate": null, "destineTel": null, "togoTel": null, "trafficWay": null, "signBuilding": null, "businessArea": null, "selfRoom": null, "businessTime": null, "stall": null, "consume": null, "serviceFei": null, "favourable": null, "shopMemo": "1", "appraise": null, "website": null, "memo": null, "payTypes": "", "shopTypes": "", "consumeTypes": null, "cookTypes": null, "orderNum": null, "card4no": null, "card4noAcc": null, "district2": null, "searchScope": null, "status": null, "address": "", "name": null, "id": null, "pageNo": 635, "pageCount": null, "pageSize": 10, "ids": null, "endTime": null, "startTime": null}, "list": [{"cardNumFive": null, "isSupportYj": null, "cityName": null, "districtName": null, "shopinfo": {"mid": "888888859120125", "good_flag": null, "new_flag": null, "short_name": "\u8054\u534e\u590d\u661f", "short_name_pinyin": "lianhuafuxing", "status": null, "address": null, "name": null, "id": "32536"}, "mid": "888888859120125", "shopId": "32536", "netid": null, "province": 901, "district": 601, "zipcode": null, "telephone": "63085091", "posDate": "20080818", "destineTel": null, "togoTel": null, "trafficWay": "\u516c\u4ea443 931", "signBuilding": null, "businessArea": null, "selfRoom": null, "businessTime": null, "stall": null, "consume": null, "serviceFei": null, "favourable": null, "shopMemo": null, "appraise": null, "website": null, "memo": null, "payTypes": "\u6749\u5fb7\u5361", "shopTypes": "\u836f\u5e97", "consumeTypes": null, "cookTypes": null, "orderNum": 1000, "card4no": null, "card4noAcc": null, "district2": 401, "searchScope": null, "status": 1, "address": "\u9646\u5bb6\u6d5c\u8def436\u53f7", "name": "\u8054\u534e\u590d\u661f \u6d77\u6f6e\u8def\u836f\u67dc", "id": 139308, "pageNo": 0, "pageCount": null, "pageSize": 10, "ids": null, "endTime": null, "startTime": null}, {"cardNumFive": null, "isSupportYj": null, "cityName": null, "districtName": null, "shopinfo": {"mid": "888888859120125", "good_flag": null, "new_flag": null, "short_name": "\u8054\u534e\u590d\u661f", "short_name_pinyin": "lianhuafuxing", "status": null, "address": null, "name": null, "id": "32536"}, "mid": "888888859120125", "shopId": "32536", "netid": null, "province": 901, "district": 601, "zipcode": null, "telephone": "68930855", "posDate": "20080814", "destineTel": null, "togoTel": null, "trafficWay": "\u516c\u4ea4451 581", "signBuilding": null, "businessArea": null, "selfRoom": null, "businessTime": null, "stall": null, "consume": null, "serviceFei": null, "favourable": null, "shopMemo": null, "appraise": null, "website": null, "memo": null, "payTypes": "\u6749\u5fb7\u5361", "shopTypes": "\u836f\u5e97", "consumeTypes": null, "cookTypes": null, "orderNum": 1000, "card4no": null, "card4noAcc": null, "district2": 418, "searchScope": null, "status": 1, "address": "\u6caa\u5357\u8def2420\u53f7", "name": "\u8054\u534e\u590d\u661f \u6caa\u5357\u8def\u5e97", "id": 139310, "pageNo": 0, "pageCount": null, "pageSize": 10, "ids": null, "endTime": null, "startTime": null}, {"cardNumFive": null, "isSupportYj": null, "cityName": null, "districtName": null, "shopinfo": {"mid": "888888859120125", "good_flag": null, "new_flag": null, "short_name": "\u8054\u534e\u590d\u661f", "short_name_pinyin": "lianhuafuxing", "status": null, "address": null, "name": null, "id": "32536"}, "mid": "888888859120125", "shopId": "32536", "netid": null, "province": 901, "district": 601, "zipcode": null, "telephone": "59169773", "posDate": "20080818", "destineTel": null, "togoTel": null, "trafficWay": "\u516c\u4ea4\u6caa\u5609\u7ebf", "signBuilding": null, "businessArea": null, "selfRoom": null, "businessTime": null, "stall": null, "consume": null, "serviceFei": null, "favourable": null, "shopMemo": null, "appraise": null, "website": null, "memo": null, "payTypes": "\u6749\u5fb7\u5361", "shopTypes": "\u836f\u5e97", "consumeTypes": null, "cookTypes": null, "orderNum": 1000, "card4no": null, "card4noAcc": null, "district2": 411, "searchScope": null, "status": 1, "address": "\u6caa\u5b9c\u516c\u8def3163-3199\u53f7", "name": "\u8054\u534e\u590d\u661f \u5609\u5b9a\u5e97", "id": 139311, "pageNo": 0, "pageCount": null, "pageSize": 10, "ids": null, "endTime": null, "startTime": null}, {"cardNumFive": null, "isSupportYj": null, "cityName": null, "districtName": null, "shopinfo": {"mid": "888888859120125", "good_flag": null, "new_flag": null, "short_name": "\u8054\u534e\u590d\u661f", "short_name_pinyin": "lianhuafuxing", "status": null, "address": null, "name": null, "id": "32536"}, "mid": "888888859120125", "shopId": "32536", "netid": null, "province": 901, "district": 601, "zipcode": null, "telephone": "50313321", "posDate": "20080814", "destineTel": null, "togoTel": null, "trafficWay": "\u516c\u4ea4783 \u65b0\u5ddd\u7ebf", "signBuilding": null, "businessArea": null, "selfRoom": null, "businessTime": null, "stall": null, "consume": null, "serviceFei": null, "favourable": null, "shopMemo": null, "appraise": null, "website": null, "memo": null, "payTypes": "\u6749\u5fb7\u5361", "shopTypes": "\u836f\u5e97", "consumeTypes": null, "cookTypes": null, "orderNum": 1000, "card4no": null, "card4noAcc": null, "district2": 418, "searchScope": null, "status": 1, "address": "\u91d1\u5de5\u8def139\u53f7", "name": "\u8054\u534e\u590d\u661f \u91d1\u5de5\u8def\u5e97", "id": 139312, "pageNo": 0, "pageCount": null, "pageSize": 10, "ids": null, "endTime": null, "startTime": null}, {"cardNumFive": null, "isSupportYj": null, "cityName": null, "districtName": null, "shopinfo": {"mid": "888888859120125", "good_flag": null, "new_flag": null, "short_name": "\u8054\u534e\u590d\u661f", "short_name_pinyin": "lianhuafuxing", "status": null, "address": null, "name": null, "id": "32536"}, "mid": "888888859120125", "shopId": "32536", "netid": null, "province": 901, "district": 601, "zipcode": null, "telephone": "65030768", "posDate": "20080819", "destineTel": null, "togoTel": null, "trafficWay": "\u516c\u4ea417 145", "signBuilding": null, "businessArea": null, "selfRoom": null, "businessTime": null, "stall": null, "consume": null, "serviceFei": null, "favourable": null, "shopMemo": null, "appraise": null, "website": null, "memo": null, "payTypes": "\u6749\u5fb7\u5361", "shopTypes": "\u836f\u5e97", "consumeTypes": null, "cookTypes": null, "orderNum": 1000, "card4no": null, "card4noAcc": null, "district2": 408, "searchScope": null, "status": 1, "address": "\u5927\u8fde\u8def923\u53f7", "name": "\u8054\u534e\u590d\u661f \u5eb7\u4e4b\u821f\u5e97", "id": 139314, "pageNo": 0, "pageCount": null, "pageSize": 10, "ids": null, "endTime": null, "startTime": null}, {"cardNumFive": null, "isSupportYj": null, "cityName": null, "districtName": null, "shopinfo": {"mid": "888888859120125", "good_flag": null, "new_flag": null, "short_name": "\u8054\u534e\u590d\u661f", "short_name_pinyin": "lianhuafuxing", "status": null, "address": null, "name": null, "id": "32536"}, "mid": "888888859120125", "shopId": "32536", "netid": null, "province": 901, "district": 601, "zipcode": null, "telephone": "68315419", "posDate": "20080815", "destineTel": null, "togoTel": null, "trafficWay": "\u516c\u4ea4576 796", "signBuilding": null, "businessArea": null, "selfRoom": null, "businessTime": null, "stall": null, "consume": null, "serviceFei": null, "favourable": null, "shopMemo": null, "appraise": null, "website": null, "memo": null, "payTypes": "\u6749\u5fb7\u5361", "shopTypes": "\u836f\u5e97", "consumeTypes": null, "cookTypes": null, "orderNum": 1000, "card4no": null, "card4noAcc": null, "district2": 418, "searchScope": null, "status": 1, "address": "\u6768\u65b0\u8def278\u53f7", "name": "\u8054\u534e\u590d\u661f \u5eb7\u4e4b\u821f\u4e09\u5e97", "id": 139315, "pageNo": 0, "pageCount": null, "pageSize": 10, "ids": null, "endTime": null, "startTime": null}, {"cardNumFive": null, "isSupportYj": null, "cityName": null, "districtName": null, "shopinfo": {"mid": "888888859120125", "good_flag": null, "new_flag": null, "short_name": "\u8054\u534e\u590d\u661f", "short_name_pinyin": "lianhuafuxing", "status": null, "address": null, "name": null, "id": "32536"}, "mid": "888888859120125", "shopId": "32536", "netid": null, "province": 901, "district": 601, "zipcode": null, "telephone": "54133190", "posDate": "20080818", "destineTel": null, "togoTel": null, "trafficWay": "\u516c\u4ea4712 \u5f90\u95f5\u7ebf \u5730\u94c1\u4e00\u53f7\u7ebf", "signBuilding": null, "businessArea": null, "selfRoom": null, "businessTime": null, "stall": null, "consume": null, "serviceFei": null, "favourable": null, "shopMemo": null, "appraise": null, "website": null, "memo": null, "payTypes": "\u6749\u5fb7\u5361", "shopTypes": "\u836f\u5e97", "consumeTypes": null, "cookTypes": null, "orderNum": 1000, "card4no": null, "card4noAcc": null, "district2": 409, "searchScope": null, "status": 1, "address": "\u6caa\u95f5\u8def6988\u5f047\u53f7", "name": "\u8054\u534e\u590d\u661f \u83b2\u84b2\u5e97", "id": 139316, "pageNo": 0, "pageCount": null, "pageSize": 10, "ids": null, "endTime": null, "startTime": null}, {"cardNumFive": null, "isSupportYj": null, "cityName": null, "districtName": null, "shopinfo": {"mid": "888888859120125", "good_flag": null, "new_flag": null, "short_name": "\u8054\u534e\u590d\u661f", "short_name_pinyin": "lianhuafuxing", "status": null, "address": null, "name": null, "id": "32536"}, "mid": "888888859120125", "shopId": "32536", "netid": null, "province": 901, "district": 601, "zipcode": null, "telephone": "65284494", "posDate": "20080818", "destineTel": null, "togoTel": null, "trafficWay": "\u516c\u4ea4758 66 876", "signBuilding": null, "businessArea": null, "selfRoom": null, "businessTime": null, "stall": null, "consume": null, "serviceFei": null, "favourable": null, "shopMemo": null, "appraise": null, "website": null, "memo": null, "payTypes": "\u6749\u5fb7\u5361", "shopTypes": "\u836f\u5e97", "consumeTypes": null, "cookTypes": null, "orderNum": 1000, "card4no": null, "card4noAcc": null, "district2": 408, "searchScope": null, "status": 1, "address": "\u8f66\u7ad9\u5317\u8def518\u53f7", "name": "\u8054\u534e\u590d\u661f \u51c9\u57ce\u5e97", "id": 139317, "pageNo": 0, "pageCount": null, "pageSize": 10, "ids": null, "endTime": null, "startTime": null}, {"cardNumFive": null, "isSupportYj": null, "cityName": null, "districtName": null, "shopinfo": {"mid": "888888859120125", "good_flag": null, "new_flag": null, "short_name": "\u8054\u534e\u590d\u661f", "short_name_pinyin": "lianhuafuxing", "status": null, "address": null, "name": null, "id": "32536"}, "mid": "888888859120125", "shopId": "32536", "netid": null, "province": 901, "district": 601, "zipcode": null, "telephone": "65075138", "posDate": "20080818", "destineTel": null, "togoTel": null, "trafficWay": "\u516c\u4ea4910 167 123", "signBuilding": null, "businessArea": null, "selfRoom": null, "businessTime": null, "stall": null, "consume": null, "serviceFei": null, "favourable": null, "shopMemo": null, "appraise": null, "website": null, "memo": null, "payTypes": "\u6749\u5fb7\u5361", "shopTypes": "\u836f\u5e97", "consumeTypes": null, "cookTypes": null, "orderNum": 1000, "card4no": null, "card4noAcc": null, "district2": 408, "searchScope": null, "status": 1, "address": "\u56db\u5e73\u8def287\u53f7", "name": "\u8054\u534e\u590d\u661f \u4e34\u5e73\u5e97", "id": 139318, "pageNo": 0, "pageCount": null, "pageSize": 10, "ids": null, "endTime": null, "startTime": null}, {"cardNumFive": null, "isSupportYj": null, "cityName": null, "districtName": null, "shopinfo": {"mid": "888888859120125", "good_flag": null, "new_flag": null, "short_name": "\u8054\u534e\u590d\u661f", "short_name_pinyin": "lianhuafuxing", "status": null, "address": null, "name": null, "id": "32536"}, "mid": "888888859120125", "shopId": "32536", "netid": null, "province": 901, "district": 601, "zipcode": null, "telephone": "64265076", "posDate": "20080911", "destineTel": null, "togoTel": null, "trafficWay": "\u516c\u4ea4167 49 \u5730\u94c1\u56db\u53f7\u7ebf", "signBuilding": null, "businessArea": null, "selfRoom": null, "businessTime": null, "stall": null, "consume": null, "serviceFei": null, "favourable": null, "shopMemo": null, "appraise": null, "website": null, "memo": null, "payTypes": "\u6749\u5fb7\u5361", "shopTypes": "\u836f\u5e97", "consumeTypes": null, "cookTypes": null, "orderNum": 1000, "card4no": null, "card4noAcc": null, "district2": 403, "searchScope": null, "status": 1, "address": "\u5929\u94a5\u6865\u8def666\u53f7", "name": "\u8054\u534e\u590d\u661f \u96f6\u9675\u8def\u5e97", "id": 139319, "pageNo": 0, "pageCount": null, "pageSize": 10, "ids": null, "endTime": null, "startTime": null}], "pageLimit": 6350, "size": 10}