{"pageCount": 1095, "count": 10942, "pageNo": 639, "subShopInfo": {"cardNumFive": "", "isSupportYj": "", "cityName": null, "districtName": null, "shopinfo": {"mid": null, "good_flag": null, "new_flag": null, "short_name": null, "short_name_pinyin": null, "status": null, "address": "", "name": "", "id": null}, "mid": null, "shopId": null, "netid": null, "province": 901, "district": null, "zipcode": null, "telephone": null, "posDate": null, "destineTel": null, "togoTel": null, "trafficWay": null, "signBuilding": null, "businessArea": null, "selfRoom": null, "businessTime": null, "stall": null, "consume": null, "serviceFei": null, "favourable": null, "shopMemo": "1", "appraise": null, "website": null, "memo": null, "payTypes": "", "shopTypes": "", "consumeTypes": null, "cookTypes": null, "orderNum": null, "card4no": null, "card4noAcc": null, "district2": null, "searchScope": null, "status": null, "address": "", "name": null, "id": null, "pageNo": 638, "pageCount": null, "pageSize": 10, "ids": null, "endTime": null, "startTime": null}, "list": [{"cardNumFive": null, "isSupportYj": null, "cityName": null, "districtName": null, "shopinfo": {"mid": "888888859120125", "good_flag": null, "new_flag": null, "short_name": "\u8054\u534e\u590d\u661f", "short_name_pinyin": "lianhuafuxing", "status": null, "address": null, "name": null, "id": "35691"}, "mid": "888888859120125", "shopId": "35691", "netid": null, "province": 901, "district": 601, "zipcode": null, "telephone": "68315419", "posDate": "20100719", "destineTel": null, "togoTel": null, "trafficWay": null, "signBuilding": null, "businessArea": null, "selfRoom": null, "businessTime": null, "stall": null, "consume": null, "serviceFei": null, "favourable": null, "shopMemo": null, "appraise": null, "website": null, "memo": null, "payTypes": "\u6749\u5fb7\u5361", "shopTypes": "\u836f\u5e97", "consumeTypes": null, "cookTypes": null, "orderNum": 1000, "card4no": null, "card4noAcc": null, "district2": 418, "searchScope": null, "status": 1, "address": "\u6768\u65b0\u8def278\u53f7", "name": "\u8054\u534e\u590d\u661f \u5eb7\u4e4b\u821f\u2162", "id": 149276, "pageNo": 0, "pageCount": null, "pageSize": 10, "ids": null, "endTime": null, "startTime": null}, {"cardNumFive": null, "isSupportYj": null, "cityName": null, "districtName": null, "shopinfo": {"mid": "888888859120125", "good_flag": null, "new_flag": null, "short_name": "\u8054\u534e\u590d\u661f", "short_name_pinyin": "lianhuafuxing", "status": null, "address": null, "name": null, "id": "35691"}, "mid": "888888859120125", "shopId": "35691", "netid": null, "province": 901, "district": 601, "zipcode": null, "telephone": "54133190", "posDate": "20100719", "destineTel": null, "togoTel": null, "trafficWay": null, "signBuilding": null, "businessArea": null, "selfRoom": null, "businessTime": null, "stall": null, "consume": null, "serviceFei": null, "favourable": null, "shopMemo": null, "appraise": null, "website": null, "memo": null, "payTypes": "\u6749\u5fb7\u5361", "shopTypes": "\u836f\u5e97", "consumeTypes": null, "cookTypes": null, "orderNum": 1000, "card4no": null, "card4noAcc": null, "district2": 409, "searchScope": null, "status": 1, "address": "\u62a5\u6625\u8def52\u53f7", "name": "\u8054\u534e\u590d\u661f \u62a5\u6625\u8def\u5e97", "id": 149278, "pageNo": 0, "pageCount": null, "pageSize": 10, "ids": null, "endTime": null, "startTime": null}, {"cardNumFive": null, "isSupportYj": null, "cityName": null, "districtName": null, "shopinfo": {"mid": "888888859120125", "good_flag": null, "new_flag": null, "short_name": "\u8054\u534e\u590d\u661f", "short_name_pinyin": "lianhuafuxing", "status": null, "address": null, "name": null, "id": "36324"}, "mid": "888888859120125", "shopId": "36324", "netid": null, "province": 901, "district": 601, "zipcode": null, "telephone": "36060307", "posDate": "20100818", "destineTel": null, "togoTel": null, "trafficWay": null, "signBuilding": null, "businessArea": null, "selfRoom": null, "businessTime": null, "stall": null, "consume": null, "serviceFei": null, "favourable": null, "shopMemo": null, "appraise": null, "website": null, "memo": null, "payTypes": "\u6749\u5fb7\u5361", "shopTypes": "\u836f\u5e97", "consumeTypes": null, "cookTypes": null, "orderNum": 1000, "card4no": null, "card4noAcc": null, "district2": 405, "searchScope": null, "status": 1, "address": "\u53cc\u5c71\u8def147-1\u53f7", "name": "\u8054\u534e\u590d\u661f \u53cc\u5c71\u5e97", "id": 151223, "pageNo": 0, "pageCount": null, "pageSize": 10, "ids": null, "endTime": null, "startTime": null}, {"cardNumFive": null, "isSupportYj": null, "cityName": null, "districtName": null, "shopinfo": {"mid": "888888859120125", "good_flag": null, "new_flag": null, "short_name": "\u8054\u534e\u590d\u661f", "short_name_pinyin": "lianhuafuxing", "status": null, "address": null, "name": null, "id": "36324"}, "mid": "888888859120125", "shopId": "36324", "netid": null, "province": 901, "district": 601, "zipcode": null, "telephone": null, "posDate": "20100915", "destineTel": null, "togoTel": null, "trafficWay": null, "signBuilding": null, "businessArea": null, "selfRoom": null, "businessTime": null, "stall": null, "consume": null, "serviceFei": null, "favourable": null, "shopMemo": null, "appraise": null, "website": null, "memo": null, "payTypes": "\u6749\u5fb7\u5361", "shopTypes": "\u836f\u5e97", "consumeTypes": null, "cookTypes": null, "orderNum": 1000, "card4no": null, "card4noAcc": null, "district2": 403, "searchScope": null, "status": 1, "address": "\u8944\u9633\u5357\u8def110\u53f7", "name": "\u8054\u534e\u590d\u661f \u8944\u9633\u5357\u8def\u5e97", "id": 151435, "pageNo": 0, "pageCount": null, "pageSize": 10, "ids": null, "endTime": null, "startTime": null}, {"cardNumFive": null, "isSupportYj": null, "cityName": null, "districtName": null, "shopinfo": {"mid": "888002153310224", "good_flag": null, "new_flag": null, "short_name": "\u8054\u9526\u8d85\u5e02", "short_name_pinyin": "lianjinchaoshi", "status": null, "address": null, "name": null, "id": "38099"}, "mid": "888002153310224", "shopId": "38099", "netid": null, "province": 901, "district": 601, "zipcode": null, "telephone": "34097363", "posDate": null, "destineTel": null, "togoTel": null, "trafficWay": null, "signBuilding": null, "businessArea": null, "selfRoom": null, "businessTime": null, "stall": null, "consume": null, "serviceFei": null, "favourable": null, "shopMemo": null, "appraise": null, "website": null, "memo": null, "payTypes": "\u6749\u5fb7\u5361", "shopTypes": "\u8d85\u5e02", "consumeTypes": null, "cookTypes": null, "orderNum": 1000, "card4no": null, "card4noAcc": null, "district2": 409, "searchScope": null, "status": 1, "address": "\u65b0\u9547\u8def924\u53f71\u697c", "name": "\u8054\u9526\u8d85\u5e02 \u65b0\u9547\u8def\u5e97", "id": 162096, "pageNo": 0, "pageCount": null, "pageSize": 10, "ids": null, "endTime": null, "startTime": null}, {"cardNumFive": null, "isSupportYj": null, "cityName": null, "districtName": null, "shopinfo": {"mid": "888002153110311", "good_flag": null, "new_flag": null, "short_name": "\u8fde\u5361\u4f5b", "short_name_pinyin": "liankafo", "status": null, "address": null, "name": null, "id": "43887"}, "mid": "888002153110311", "shopId": "43887", "netid": null, "province": 901, "district": 601, "zipcode": null, "telephone": null, "posDate": null, "destineTel": null, "togoTel": null, "trafficWay": null, "signBuilding": null, "businessArea": null, "selfRoom": null, "businessTime": null, "stall": null, "consume": null, "serviceFei": null, "favourable": null, "shopMemo": null, "appraise": null, "website": null, "memo": null, "payTypes": "\u6749\u5fb7\u5361", "shopTypes": "\u767e\u8d27", "consumeTypes": null, "cookTypes": null, "orderNum": 1000, "card4no": null, "card4noAcc": null, "district2": 401, "searchScope": null, "status": 1, "address": "\u6dee\u6d77\u4e2d\u8def99\u53f7", "name": "\u8fde\u5361\u4f5b \u8fde\u5361\u4f5b", "id": 202087, "pageNo": 0, "pageCount": null, "pageSize": 10, "ids": null, "endTime": null, "startTime": null}, {"cardNumFive": null, "isSupportYj": null, "cityName": null, "districtName": null, "shopinfo": {"mid": "888888854410102", "good_flag": "2", "new_flag": "2", "short_name": "\u8389\u83b2\u86cb\u631e", "short_name_pinyin": "liliandanta", "status": null, "address": null, "name": null, "id": "32436"}, "mid": "888888854410102", "shopId": "32436", "netid": null, "province": 901, "district": 601, "zipcode": null, "telephone": null, "posDate": "20080710", "destineTel": null, "togoTel": null, "trafficWay": "\u516c\u4ea4719 \u7941\u5b9d\u7ebf", "signBuilding": null, "businessArea": null, "selfRoom": null, "businessTime": "9:30~21:00", "stall": "\u6709", "consume": null, "serviceFei": null, "favourable": null, "shopMemo": null, "appraise": null, "website": null, "memo": null, "payTypes": "\u6749\u5fb7\u5361", "shopTypes": "\u9762\u5305\u897f\u997c", "consumeTypes": null, "cookTypes": null, "orderNum": 1000, "card4no": null, "card4noAcc": null, "district2": 416, "searchScope": null, "status": 1, "address": "\u6c38\u4e50\u8def426\u53f7", "name": "\u8389\u83b2\u86cb\u631e \u6c38\u4e50\u8def\u5e97", "id": 139185, "pageNo": 0, "pageCount": null, "pageSize": 10, "ids": null, "endTime": null, "startTime": null}, {"cardNumFive": null, "isSupportYj": null, "cityName": null, "districtName": null, "shopinfo": {"mid": "888888859700038", "good_flag": "2", "new_flag": "2", "short_name": "\u9ece\u660e\u7fe1\u7fe0", "short_name_pinyin": "limingfeicui", "status": null, "address": null, "name": null, "id": "32438"}, "mid": "888888859700038", "shopId": "32438", "netid": null, "province": 901, "district": 601, "zipcode": null, "telephone": "50675055*801\u300113761950950", "posDate": "200910", "destineTel": null, "togoTel": null, "trafficWay": null, "signBuilding": null, "businessArea": null, "selfRoom": null, "businessTime": "7:30~20:00", "stall": null, "consume": null, "serviceFei": null, "favourable": null, "shopMemo": null, "appraise": null, "website": null, "memo": null, "payTypes": "\u6749\u5fb7\u5361", "shopTypes": "\u4e13\u5356", "consumeTypes": null, "cookTypes": null, "orderNum": 1000, "card4no": null, "card4noAcc": null, "district2": 418, "searchScope": null, "status": 1, "address": "\u9ad8\u83cf\u8def462\u53f7", "name": "\u9ece\u660e\u7fe1\u7fe0 \u9ad8\u83cf\u8def\u5e97", "id": 139188, "pageNo": 0, "pageCount": null, "pageSize": 10, "ids": null, "endTime": null, "startTime": null}, {"cardNumFive": null, "isSupportYj": null, "cityName": null, "districtName": null, "shopinfo": {"mid": "888002154410183", "good_flag": null, "new_flag": null, "short_name": "\u96f6\u98df\u591a", "short_name_pinyin": "lingshiduo", "status": null, "address": null, "name": null, "id": "38950"}, "mid": "888002154410183", "shopId": "38950", "netid": null, "province": 901, "district": 601, "zipcode": null, "telephone": null, "posDate": null, "destineTel": null, "togoTel": null, "trafficWay": null, "signBuilding": null, "businessArea": null, "selfRoom": null, "businessTime": null, "stall": null, "consume": null, "serviceFei": null, "favourable": null, "shopMemo": null, "appraise": null, "website": null, "memo": null, "payTypes": "\u6749\u5fb7\u5361", "shopTypes": "\u96f6\u552e", "consumeTypes": null, "cookTypes": null, "orderNum": 1000, "card4no": null, "card4noAcc": null, "district2": 418, "searchScope": null, "status": 1, "address": "\u5317\u4e2d\u8def361\u53f7", "name": "\u96f6\u98df\u591a \u5317\u4e2d\u8def\u5e97", "id": 164868, "pageNo": 0, "pageCount": null, "pageSize": 10, "ids": null, "endTime": null, "startTime": null}, {"cardNumFive": null, "isSupportYj": null, "cityName": null, "districtName": null, "shopinfo": {"mid": "888002154410183", "good_flag": null, "new_flag": null, "short_name": "\u96f6\u98df\u591a", "short_name_pinyin": "lingshiduo", "status": null, "address": null, "name": null, "id": "38950"}, "mid": "888002154410183", "shopId": "38950", "netid": null, "province": 901, "district": 601, "zipcode": null, "telephone": null, "posDate": null, "destineTel": null, "togoTel": null, "trafficWay": null, "signBuilding": null, "businessArea": null, "selfRoom": null, "businessTime": null, "stall": null, "consume": null, "serviceFei": null, "favourable": null, "shopMemo": null, "appraise": null, "website": null, "memo": null, "payTypes": "\u6749\u5fb7\u5361", "shopTypes": "\u96f6\u552e", "consumeTypes": null, "cookTypes": null, "orderNum": 1000, "card4no": null, "card4noAcc": null, "district2": 405, "searchScope": null, "status": 1, "address": "\u66f9\u5b89\u516c\u8def1538\u53f7", "name": "\u96f6\u98df\u591a \u535c\u8702\u83b2\u82b1\u66f9\u5b89\u5e97", "id": 164869, "pageNo": 0, "pageCount": null, "pageSize": 10, "ids": null, "endTime": null, "startTime": null}], "pageLimit": 6380, "size": 10}