{"pageCount": 1095, "count": 10942, "pageNo": 638, "subShopInfo": {"cardNumFive": "", "isSupportYj": "", "cityName": null, "districtName": null, "shopinfo": {"mid": null, "good_flag": null, "new_flag": null, "short_name": null, "short_name_pinyin": null, "status": null, "address": "", "name": "", "id": null}, "mid": null, "shopId": null, "netid": null, "province": 901, "district": null, "zipcode": null, "telephone": null, "posDate": null, "destineTel": null, "togoTel": null, "trafficWay": null, "signBuilding": null, "businessArea": null, "selfRoom": null, "businessTime": null, "stall": null, "consume": null, "serviceFei": null, "favourable": null, "shopMemo": "1", "appraise": null, "website": null, "memo": null, "payTypes": "", "shopTypes": "", "consumeTypes": null, "cookTypes": null, "orderNum": null, "card4no": null, "card4noAcc": null, "district2": null, "searchScope": null, "status": null, "address": "", "name": null, "id": null, "pageNo": 637, "pageCount": null, "pageSize": 10, "ids": null, "endTime": null, "startTime": null}, "list": [{"cardNumFive": null, "isSupportYj": null, "cityName": null, "districtName": null, "shopinfo": {"mid": "888888859120125", "good_flag": null, "new_flag": null, "short_name": "\u8054\u534e\u590d\u661f", "short_name_pinyin": "lianhuafuxing", "status": null, "address": null, "name": null, "id": "32536"}, "mid": "888888859120125", "shopId": "32536", "netid": null, "province": 901, "district": 601, "zipcode": null, "telephone": "64282767", "posDate": "20080826", "destineTel": null, "togoTel": null, "trafficWay": "\u516c\u4ea487 548 776", "signBuilding": null, "businessArea": null, "selfRoom": null, "businessTime": null, "stall": null, "consume": null, "serviceFei": null, "favourable": null, "shopMemo": null, "appraise": null, "website": null, "memo": null, "payTypes": "\u6749\u5fb7\u5361", "shopTypes": "\u836f\u5e97", "consumeTypes": null, "cookTypes": null, "orderNum": 1000, "card4no": null, "card4noAcc": null, "district2": 409, "searchScope": null, "status": 1, "address": "\u5f20\u8679\u8def129\u53f7", "name": "\u8054\u534e\u590d\u661f \u5f20\u8679\u8def\u5e97", "id": 139336, "pageNo": 0, "pageCount": null, "pageSize": 10, "ids": null, "endTime": null, "startTime": null}, {"cardNumFive": null, "isSupportYj": null, "cityName": null, "districtName": null, "shopinfo": {"mid": "888888859120125", "good_flag": null, "new_flag": null, "short_name": "\u8054\u534e\u590d\u661f", "short_name_pinyin": "lianhuafuxing", "status": null, "address": null, "name": null, "id": "32536"}, "mid": "888888859120125", "shopId": "32536", "netid": null, "province": 901, "district": 601, "zipcode": null, "telephone": "65910491", "posDate": "20080814", "destineTel": null, "togoTel": null, "trafficWay": "\u516c\u4ea4100 758", "signBuilding": null, "businessArea": null, "selfRoom": null, "businessTime": null, "stall": null, "consume": null, "serviceFei": null, "favourable": null, "shopMemo": null, "appraise": null, "website": null, "memo": null, "payTypes": "\u6749\u5fb7\u5361", "shopTypes": "\u836f\u5e97", "consumeTypes": null, "cookTypes": null, "orderNum": 1000, "card4no": null, "card4noAcc": null, "district2": 407, "searchScope": null, "status": 1, "address": "\u653f\u7acb\u8def801\u53f7", "name": "\u8054\u534e\u590d\u661f \u653f\u7acb\u8def\u5e97", "id": 139337, "pageNo": 0, "pageCount": null, "pageSize": 10, "ids": null, "endTime": null, "startTime": null}, {"cardNumFive": null, "isSupportYj": null, "cityName": null, "districtName": null, "shopinfo": {"mid": "888888859120125", "good_flag": null, "new_flag": null, "short_name": "\u8054\u534e\u590d\u661f", "short_name_pinyin": "lianhuafuxing", "status": null, "address": null, "name": null, "id": "32536"}, "mid": "888888859120125", "shopId": "32536", "netid": null, "province": 901, "district": 601, "zipcode": null, "telephone": "56776217", "posDate": "20080814", "destineTel": null, "togoTel": null, "trafficWay": "\u516c\u4ea4108 767 823", "signBuilding": null, "businessArea": null, "selfRoom": null, "businessTime": null, "stall": null, "consume": null, "serviceFei": null, "favourable": null, "shopMemo": null, "appraise": null, "website": null, "memo": null, "payTypes": "\u6749\u5fb7\u5361", "shopTypes": "\u836f\u5e97", "consumeTypes": null, "cookTypes": null, "orderNum": 1000, "card4no": null, "card4noAcc": null, "district2": 408, "searchScope": null, "status": 1, "address": "\u682a\u6d32\u8def262\u53f7", "name": "\u8054\u534e\u590d\u661f \u682a\u6d32\u5e97", "id": 139339, "pageNo": 0, "pageCount": null, "pageSize": 10, "ids": null, "endTime": null, "startTime": null}, {"cardNumFive": null, "isSupportYj": null, "cityName": null, "districtName": null, "shopinfo": {"mid": "888888859120125", "good_flag": null, "new_flag": null, "short_name": "\u8054\u534e\u590d\u661f", "short_name_pinyin": "lianhuafuxing", "status": null, "address": null, "name": null, "id": "35691"}, "mid": "888888859120125", "shopId": "35691", "netid": null, "province": 901, "district": 601, "zipcode": null, "telephone": "66149752", "posDate": "20100719", "destineTel": null, "togoTel": null, "trafficWay": null, "signBuilding": null, "businessArea": null, "selfRoom": null, "businessTime": null, "stall": null, "consume": null, "serviceFei": null, "favourable": null, "shopMemo": null, "appraise": null, "website": null, "memo": null, "payTypes": "\u6749\u5fb7\u5361", "shopTypes": "\u836f\u5e97", "consumeTypes": null, "cookTypes": null, "orderNum": 1000, "card4no": null, "card4noAcc": null, "district2": 416, "searchScope": null, "status": 1, "address": "\u957f\u6c5f\u5357\u8def651\u53f7", "name": "\u8054\u534e\u590d\u661f \u901a\u5357\u8def\u5e97", "id": 149269, "pageNo": 0, "pageCount": null, "pageSize": 10, "ids": null, "endTime": null, "startTime": null}, {"cardNumFive": null, "isSupportYj": null, "cityName": null, "districtName": null, "shopinfo": {"mid": "888888859120125", "good_flag": null, "new_flag": null, "short_name": "\u8054\u534e\u590d\u661f", "short_name_pinyin": "lianhuafuxing", "status": null, "address": null, "name": null, "id": "35691"}, "mid": "888888859120125", "shopId": "35691", "netid": null, "province": 901, "district": 601, "zipcode": null, "telephone": "56842054", "posDate": "20100719", "destineTel": null, "togoTel": null, "trafficWay": null, "signBuilding": null, "businessArea": null, "selfRoom": null, "businessTime": null, "stall": null, "consume": null, "serviceFei": null, "favourable": null, "shopMemo": null, "appraise": null, "website": null, "memo": null, "payTypes": "\u6749\u5fb7\u5361", "shopTypes": "\u836f\u5e97", "consumeTypes": null, "cookTypes": null, "orderNum": 1000, "card4no": null, "card4noAcc": null, "district2": 416, "searchScope": null, "status": 1, "address": "\u5b9d\u5c71\u533a\u6c34\u4ea7\u8def1234\u53f7", "name": "\u8054\u534e\u590d\u661f \u6c34\u4ea7\u8def\u5e97", "id": 149270, "pageNo": 0, "pageCount": null, "pageSize": 10, "ids": null, "endTime": null, "startTime": null}, {"cardNumFive": null, "isSupportYj": null, "cityName": null, "districtName": null, "shopinfo": {"mid": "888888859120125", "good_flag": null, "new_flag": null, "short_name": "\u8054\u534e\u590d\u661f", "short_name_pinyin": "lianhuafuxing", "status": null, "address": null, "name": null, "id": "35691"}, "mid": "888888859120125", "shopId": "35691", "netid": null, "province": 901, "district": 601, "zipcode": null, "telephone": "65030768", "posDate": "20100719", "destineTel": null, "togoTel": null, "trafficWay": null, "signBuilding": null, "businessArea": null, "selfRoom": null, "businessTime": null, "stall": null, "consume": null, "serviceFei": null, "favourable": null, "shopMemo": null, "appraise": null, "website": null, "memo": null, "payTypes": "\u6749\u5fb7\u5361", "shopTypes": "\u836f\u5e97", "consumeTypes": null, "cookTypes": null, "orderNum": 1000, "card4no": null, "card4noAcc": null, "district2": 407, "searchScope": null, "status": 1, "address": "\u5927\u8fde\u8def923\u53f7", "name": "\u8054\u534e\u590d\u661f \u5eb7\u4e4b\u821f\u2160", "id": 149271, "pageNo": 0, "pageCount": null, "pageSize": 10, "ids": null, "endTime": null, "startTime": null}, {"cardNumFive": null, "isSupportYj": null, "cityName": null, "districtName": null, "shopinfo": {"mid": "888888859120125", "good_flag": null, "new_flag": null, "short_name": "\u8054\u534e\u590d\u661f", "short_name_pinyin": "lianhuafuxing", "status": null, "address": null, "name": null, "id": "35691"}, "mid": "888888859120125", "shopId": "35691", "netid": null, "province": 901, "district": 601, "zipcode": null, "telephone": null, "posDate": "20100719", "destineTel": null, "togoTel": null, "trafficWay": null, "signBuilding": null, "businessArea": null, "selfRoom": null, "businessTime": null, "stall": null, "consume": null, "serviceFei": null, "favourable": null, "shopMemo": null, "appraise": null, "website": null, "memo": null, "payTypes": "\u6749\u5fb7\u5361", "shopTypes": "\u836f\u5e97", "consumeTypes": null, "cookTypes": null, "orderNum": 1000, "card4no": null, "card4noAcc": null, "district2": 413, "searchScope": null, "status": 1, "address": "\u4eba\u6c11\u5357\u8def15\u53f7", "name": "\u8054\u534e\u590d\u661f \u4eba\u6c11\u5357\u8def\u5e97", "id": 149272, "pageNo": 0, "pageCount": null, "pageSize": 10, "ids": null, "endTime": null, "startTime": null}, {"cardNumFive": null, "isSupportYj": null, "cityName": null, "districtName": null, "shopinfo": {"mid": "888888859120125", "good_flag": null, "new_flag": null, "short_name": "\u8054\u534e\u590d\u661f", "short_name_pinyin": "lianhuafuxing", "status": null, "address": null, "name": null, "id": "35691"}, "mid": "888888859120125", "shopId": "35691", "netid": null, "province": 901, "district": 601, "zipcode": null, "telephone": null, "posDate": "20100719", "destineTel": null, "togoTel": null, "trafficWay": null, "signBuilding": null, "businessArea": null, "selfRoom": null, "businessTime": null, "stall": null, "consume": null, "serviceFei": null, "favourable": null, "shopMemo": null, "appraise": null, "website": null, "memo": null, "payTypes": "\u6749\u5fb7\u5361", "shopTypes": "\u836f\u5e97", "consumeTypes": null, "cookTypes": null, "orderNum": 1000, "card4no": null, "card4noAcc": null, "district2": 418, "searchScope": null, "status": 1, "address": "\u6caa\u5357\u8def3449\u5f041\u652f\u5f041-8\u53f7", "name": "\u8054\u534e\u590d\u661f \u5468\u6d66\u5e97", "id": 149273, "pageNo": 0, "pageCount": null, "pageSize": 10, "ids": null, "endTime": null, "startTime": null}, {"cardNumFive": null, "isSupportYj": null, "cityName": null, "districtName": null, "shopinfo": {"mid": "888888859120125", "good_flag": null, "new_flag": null, "short_name": "\u8054\u534e\u590d\u661f", "short_name_pinyin": "lianhuafuxing", "status": null, "address": null, "name": null, "id": "35691"}, "mid": "888888859120125", "shopId": "35691", "netid": null, "province": 901, "district": 601, "zipcode": null, "telephone": "63085091", "posDate": "20100719", "destineTel": null, "togoTel": null, "trafficWay": null, "signBuilding": null, "businessArea": null, "selfRoom": null, "businessTime": null, "stall": null, "consume": null, "serviceFei": null, "favourable": null, "shopMemo": null, "appraise": null, "website": null, "memo": null, "payTypes": "\u6749\u5fb7\u5361", "shopTypes": "\u836f\u5e97", "consumeTypes": null, "cookTypes": null, "orderNum": 1000, "card4no": null, "card4noAcc": null, "district2": 401, "searchScope": null, "status": 1, "address": "\u9646\u5bb6\u6d5c\u8def436\u53f7", "name": "\u8054\u534e\u590d\u661f \u6d77\u6f6e\u8def\u5e97", "id": 149274, "pageNo": 0, "pageCount": null, "pageSize": 10, "ids": null, "endTime": null, "startTime": null}, {"cardNumFive": null, "isSupportYj": null, "cityName": null, "districtName": null, "shopinfo": {"mid": "888888859120125", "good_flag": null, "new_flag": null, "short_name": "\u8054\u534e\u590d\u661f", "short_name_pinyin": "lianhuafuxing", "status": null, "address": null, "name": null, "id": "35691"}, "mid": "888888859120125", "shopId": "35691", "netid": null, "province": 901, "district": 601, "zipcode": null, "telephone": "68090718", "posDate": "20100719", "destineTel": null, "togoTel": null, "trafficWay": null, "signBuilding": null, "businessArea": null, "selfRoom": null, "businessTime": null, "stall": null, "consume": null, "serviceFei": null, "favourable": null, "shopMemo": null, "appraise": null, "website": null, "memo": null, "payTypes": "\u6749\u5fb7\u5361", "shopTypes": "\u836f\u5e97", "consumeTypes": null, "cookTypes": null, "orderNum": 1000, "card4no": null, "card4noAcc": null, "district2": 418, "searchScope": null, "status": 1, "address": "\u60e0\u5357\u9547\u4eba\u6c11\u897f\u8def955\u53f7", "name": "\u8054\u534e\u590d\u661f \u4eba\u6c11\u897f\u8def\u5e97", "id": 149275, "pageNo": 0, "pageCount": null, "pageSize": 10, "ids": null, "endTime": null, "startTime": null}], "pageLimit": 6370, "size": 10}