{"pageCount": 1095, "count": 10942, "pageNo": 648, "subShopInfo": {"cardNumFive": "", "isSupportYj": "", "cityName": null, "districtName": null, "shopinfo": {"mid": null, "good_flag": null, "new_flag": null, "short_name": null, "short_name_pinyin": null, "status": null, "address": "", "name": "", "id": null}, "mid": null, "shopId": null, "netid": null, "province": 901, "district": null, "zipcode": null, "telephone": null, "posDate": null, "destineTel": null, "togoTel": null, "trafficWay": null, "signBuilding": null, "businessArea": null, "selfRoom": null, "businessTime": null, "stall": null, "consume": null, "serviceFei": null, "favourable": null, "shopMemo": "1", "appraise": null, "website": null, "memo": null, "payTypes": "", "shopTypes": "", "consumeTypes": null, "cookTypes": null, "orderNum": null, "card4no": null, "card4noAcc": null, "district2": null, "searchScope": null, "status": null, "address": "", "name": null, "id": null, "pageNo": 647, "pageCount": null, "pageSize": 10, "ids": null, "endTime": null, "startTime": null}, "list": [{"cardNumFive": null, "isSupportYj": null, "cityName": null, "districtName": null, "shopinfo": {"mid": "888002154410186", "good_flag": "2", "new_flag": "2", "short_name": "\u7effA\u87ba\u65cb\u85fb", "short_name_pinyin": "lvaluoxuanzao", "status": null, "address": null, "name": null, "id": "39282"}, "mid": "888002154410186", "shopId": "39282", "netid": null, "province": 901, "district": 601, "zipcode": null, "telephone": "13391316095", "posDate": null, "destineTel": null, "togoTel": null, "trafficWay": null, "signBuilding": null, "businessArea": null, "selfRoom": null, "businessTime": null, "stall": null, "consume": null, "serviceFei": null, "favourable": null, "shopMemo": null, "appraise": null, "website": null, "memo": null, "payTypes": "\u6749\u5fb7\u5361", "shopTypes": "\u96f6\u552e", "consumeTypes": null, "cookTypes": null, "orderNum": 1000, "card4no": null, "card4noAcc": null, "district2": 406, "searchScope": null, "status": 1, "address": "\u957f\u5b81\u8def1018\u53f7\u5730\u4e0b\u4e8c\u5c422010\u5ba4", "name": "\u7effA\u87ba\u65cb\u85fb \u957f\u5b81\u9f99\u4e4b\u68a6\u5e97", "id": 168512, "pageNo": 0, "pageCount": null, "pageSize": 10, "ids": null, "endTime": null, "startTime": null}, {"cardNumFive": null, "isSupportYj": null, "cityName": null, "districtName": null, "shopinfo": {"mid": "888002154110697", "good_flag": null, "new_flag": null, "short_name": "\u7eff\u5730\u5168\u7403\u5546\u54c1\u76f4\u9500\u4e2d\u5fc3", "short_name_pinyin": "lvdiquanqiushangpinzhixiaozhongxin", "status": null, "address": null, "name": null, "id": "43443"}, "mid": "888002154110697", "shopId": "43443", "netid": null, "province": 901, "district": 601, "zipcode": null, "telephone": null, "posDate": null, "destineTel": null, "togoTel": null, "trafficWay": null, "signBuilding": null, "businessArea": null, "selfRoom": null, "businessTime": null, "stall": null, "consume": null, "serviceFei": null, "favourable": null, "shopMemo": null, "appraise": null, "website": null, "memo": null, "payTypes": "\u6749\u5fb7\u5361", "shopTypes": "\u8d85\u5e02", "consumeTypes": null, "cookTypes": null, "orderNum": 1000, "card4no": null, "card4noAcc": null, "district2": 407, "searchScope": null, "status": 1, "address": "\u63a7\u6c5f\u8def1628\u53f7B110\u5355\u5143", "name": "\u7eff\u5730\u5168\u7403\u5546\u54c1\u76f4\u9500\u4e2d\u5fc3 \u63a7\u6c5f\u8def\u5e97", "id": 196296, "pageNo": 0, "pageCount": null, "pageSize": 10, "ids": null, "endTime": null, "startTime": null}, {"cardNumFive": null, "isSupportYj": null, "cityName": null, "districtName": null, "shopinfo": {"mid": "888002154110701", "good_flag": null, "new_flag": null, "short_name": "\u7eff\u5730\u5168\u7403\u5546\u54c1\u76f4\u9500\u4e2d\u5fc3", "short_name_pinyin": "lvdiquanqiushangpinzhixiaozhongxin", "status": null, "address": null, "name": null, "id": "43444"}, "mid": "888002154110701", "shopId": "43444", "netid": null, "province": 901, "district": 601, "zipcode": null, "telephone": null, "posDate": null, "destineTel": null, "togoTel": null, "trafficWay": null, "signBuilding": null, "businessArea": null, "selfRoom": null, "businessTime": null, "stall": null, "consume": null, "serviceFei": null, "favourable": null, "shopMemo": null, "appraise": null, "website": null, "memo": null, "payTypes": "\u6749\u5fb7\u5361", "shopTypes": "\u8d85\u5e02", "consumeTypes": null, "cookTypes": null, "orderNum": 1000, "card4no": null, "card4noAcc": null, "district2": 418, "searchScope": null, "status": 1, "address": "\u9526\u5c0a\u8def455\u53f7", "name": "\u7eff\u5730\u5168\u7403\u5546\u54c1\u76f4\u9500\u4e2d\u5fc3 \u9526\u5c0a\u8def\u5e97", "id": 196302, "pageNo": 0, "pageCount": null, "pageSize": 10, "ids": null, "endTime": null, "startTime": null}, {"cardNumFive": null, "isSupportYj": null, "cityName": null, "districtName": null, "shopinfo": {"mid": "888002154110711", "good_flag": null, "new_flag": null, "short_name": "\u7eff\u5730\u4f18\u9c9c", "short_name_pinyin": "lvdiyouxian", "status": null, "address": null, "name": null, "id": "43496"}, "mid": "888002154110711", "shopId": "43496", "netid": null, "province": 901, "district": 601, "zipcode": null, "telephone": null, "posDate": null, "destineTel": null, "togoTel": null, "trafficWay": null, "signBuilding": null, "businessArea": null, "selfRoom": null, "businessTime": null, "stall": null, "consume": null, "serviceFei": null, "favourable": null, "shopMemo": null, "appraise": null, "website": null, "memo": null, "payTypes": "\u6749\u5fb7\u5361", "shopTypes": "\u8d85\u5e02", "consumeTypes": null, "cookTypes": null, "orderNum": 1000, "card4no": null, "card4noAcc": null, "district2": 412, "searchScope": null, "status": 1, "address": "\u6587\u8bda\u8def500\u5f041\u53f71\u5c42L114", "name": "\u7eff\u5730\u4f18\u9c9c \u677e\u6c5f\u5e97", "id": 196854, "pageNo": 0, "pageCount": null, "pageSize": 10, "ids": null, "endTime": null, "startTime": null}, {"cardNumFive": null, "isSupportYj": null, "cityName": null, "districtName": null, "shopinfo": {"mid": "888002154110750", "good_flag": null, "new_flag": null, "short_name": "\u7eff\u5730\u4f18\u9c9c", "short_name_pinyin": "lvdiyouxian", "status": null, "address": null, "name": null, "id": "43573"}, "mid": "888002154110750", "shopId": "43573", "netid": null, "province": 901, "district": 601, "zipcode": null, "telephone": null, "posDate": null, "destineTel": null, "togoTel": null, "trafficWay": null, "signBuilding": null, "businessArea": null, "selfRoom": null, "businessTime": null, "stall": null, "consume": null, "serviceFei": null, "favourable": null, "shopMemo": null, "appraise": null, "website": null, "memo": null, "payTypes": "\u6749\u5fb7\u5361", "shopTypes": "\u8d85\u5e02", "consumeTypes": null, "cookTypes": null, "orderNum": 1000, "card4no": null, "card4noAcc": null, "district2": 411, "searchScope": null, "status": 1, "address": "\u66f9\u5b89\u516c\u8def1688\u53f71\u697c14\u300115\u300119B20\u81f325\u5ba4", "name": "\u7eff\u5730\u4f18\u9c9c \u66f9\u5b89\u8def\u5e97", "id": 198119, "pageNo": 0, "pageCount": null, "pageSize": 10, "ids": null, "endTime": null, "startTime": null}, {"cardNumFive": null, "isSupportYj": null, "cityName": null, "districtName": null, "shopinfo": {"mid": "888002154110769", "good_flag": null, "new_flag": null, "short_name": "\u7eff\u5730\u4f18\u9c9c", "short_name_pinyin": "lvdiyouxian", "status": null, "address": null, "name": null, "id": "43611"}, "mid": "888002154110769", "shopId": "43611", "netid": null, "province": 901, "district": 601, "zipcode": null, "telephone": null, "posDate": null, "destineTel": null, "togoTel": null, "trafficWay": null, "signBuilding": null, "businessArea": null, "selfRoom": null, "businessTime": null, "stall": null, "consume": null, "serviceFei": null, "favourable": null, "shopMemo": null, "appraise": null, "website": null, "memo": null, "payTypes": "\u6749\u5fb7\u5361", "shopTypes": "\u8d85\u5e02", "consumeTypes": null, "cookTypes": null, "orderNum": 1000, "card4no": null, "card4noAcc": null, "district2": 408, "searchScope": null, "status": 1, "address": "\u4e1c\u6c5f\u6e7e\u8def151\u3001157\u3001167\u53f71\u5c42F105\u5546\u94fa", "name": "\u7eff\u5730\u4f18\u9c9c \u540c\u5fc3\u8def\u5e97", "id": 199058, "pageNo": 0, "pageCount": null, "pageSize": 10, "ids": null, "endTime": null, "startTime": null}, {"cardNumFive": null, "isSupportYj": null, "cityName": null, "districtName": null, "shopinfo": {"mid": "888002154110771", "good_flag": null, "new_flag": null, "short_name": "\u7eff\u5730\u4f18\u9c9c", "short_name_pinyin": "lvdiyouxian", "status": null, "address": null, "name": null, "id": "43612"}, "mid": "888002154110771", "shopId": "43612", "netid": null, "province": 901, "district": 601, "zipcode": null, "telephone": null, "posDate": null, "destineTel": null, "togoTel": null, "trafficWay": null, "signBuilding": null, "businessArea": null, "selfRoom": null, "businessTime": null, "stall": null, "consume": null, "serviceFei": null, "favourable": null, "shopMemo": null, "appraise": null, "website": null, "memo": null, "payTypes": "\u6749\u5fb7\u5361", "shopTypes": "\u8d85\u5e02", "consumeTypes": null, "cookTypes": null, "orderNum": 1000, "card4no": null, "card4noAcc": null, "district2": 416, "searchScope": null, "status": 1, "address": "\u7261\u4e39\u6c5f\u8def1569\u53f7\u5730\u4e0b\u4e00\u5c42B118-B120", "name": "\u7eff\u5730\u4f18\u9c9c \u7261\u4e39\u6c5f\u8def\u5e97", "id": 199097, "pageNo": 0, "pageCount": null, "pageSize": 10, "ids": null, "endTime": null, "startTime": null}, {"cardNumFive": null, "isSupportYj": null, "cityName": null, "districtName": null, "shopinfo": {"mid": "888002156910588", "good_flag": "2", "new_flag": "2", "short_name": "\u7eff\u5730\u4f18\u9c9c", "short_name_pinyin": "lvdiyouxian", "status": null, "address": null, "name": null, "id": "565224385665826816"}, "mid": "888002156910588", "shopId": "565224385665826816", "netid": null, "province": 901, "district": 601, "zipcode": null, "telephone": null, "posDate": null, "destineTel": null, "togoTel": null, "trafficWay": null, "signBuilding": null, "businessArea": null, "selfRoom": null, "businessTime": null, "stall": null, "consume": null, "serviceFei": null, "favourable": null, "shopMemo": null, "appraise": null, "website": null, "memo": null, "payTypes": "\u6749\u5fb7\u5361,", "shopTypes": null, "consumeTypes": null, "cookTypes": null, "orderNum": null, "card4no": null, "card4noAcc": null, "district2": 416, "searchScope": null, "status": 1, "address": "\u4e00\u4e8c\u516b\u7eaa\u5ff5\u8def988\u5f042\u53f7\u5730\u4e0b\u4e00\u5c4201\u8d85-B1F-A", "name": "\u7eff\u5730\u4f18\u9c9c", "id": 565224383728058368, "pageNo": 0, "pageCount": null, "pageSize": 10, "ids": null, "endTime": null, "startTime": null}, {"cardNumFive": null, "isSupportYj": null, "cityName": null, "districtName": null, "shopinfo": {"mid": "888002154110849", "good_flag": "2", "new_flag": "2", "short_name": "\u7eff\u5730\u4f18\u9c9c\u8d85\u5e02", "short_name_pinyin": "lvdiyouxianchaoshi", "status": null, "address": null, "name": null, "id": "552801296969629696"}, "mid": "888002154110849", "shopId": "552801296969629696", "netid": null, "province": 901, "district": 601, "zipcode": null, "telephone": null, "posDate": null, "destineTel": null, "togoTel": null, "trafficWay": null, "signBuilding": null, "businessArea": null, "selfRoom": null, "businessTime": null, "stall": null, "consume": null, "serviceFei": null, "favourable": null, "shopMemo": null, "appraise": null, "website": null, "memo": null, "payTypes": "", "shopTypes": null, "consumeTypes": null, "cookTypes": null, "orderNum": null, "card4no": null, "card4noAcc": null, "district2": 412, "searchScope": null, "status": 1, "address": "\u8c37\u9633\u5317\u8def2533\u5f04\u5fa1\u4e0a\u6d77\u751f\u6d3b\u5e7f\u573a", "name": "\u5fa1\u4e0a\u6d77\u751f\u6d3b\u5e7f\u573a\u5e97", "id": 552801296239820800, "pageNo": 0, "pageCount": null, "pageSize": 10, "ids": null, "endTime": null, "startTime": null}, {"cardNumFive": null, "isSupportYj": null, "cityName": null, "districtName": null, "shopinfo": {"mid": "888002154110855", "good_flag": "2", "new_flag": "2", "short_name": "\u7eff\u5730\u4f18\u9c9c\u8d85\u5e02", "short_name_pinyin": "lvdiyouxianchaoshi", "status": null, "address": null, "name": null, "id": "552801297548443648"}, "mid": "888002154110855", "shopId": "552801297548443648", "netid": null, "province": 901, "district": 601, "zipcode": null, "telephone": null, "posDate": null, "destineTel": null, "togoTel": null, "trafficWay": null, "signBuilding": null, "businessArea": null, "selfRoom": null, "businessTime": null, "stall": null, "consume": null, "serviceFei": null, "favourable": null, "shopMemo": null, "appraise": null, "website": null, "memo": null, "payTypes": "", "shopTypes": null, "consumeTypes": null, "cookTypes": null, "orderNum": null, "card4no": null, "card4noAcc": null, "district2": 411, "searchScope": null, "status": 1, "address": "\u9a6c\u9646\u9547\u5d07\u6559\u8def19\u53f7A212 A213 A216 A217 A218  C201", "name": "\u5d07\u6559\u8def\u5e97", "id": 552801296814440448, "pageNo": 0, "pageCount": null, "pageSize": 10, "ids": null, "endTime": null, "startTime": null}], "pageLimit": 6470, "size": 10}