{"pageCount": 1095, "count": 10942, "pageNo": 646, "subShopInfo": {"cardNumFive": "", "isSupportYj": "", "cityName": null, "districtName": null, "shopinfo": {"mid": null, "good_flag": null, "new_flag": null, "short_name": null, "short_name_pinyin": null, "status": null, "address": "", "name": "", "id": null}, "mid": null, "shopId": null, "netid": null, "province": 901, "district": null, "zipcode": null, "telephone": null, "posDate": null, "destineTel": null, "togoTel": null, "trafficWay": null, "signBuilding": null, "businessArea": null, "selfRoom": null, "businessTime": null, "stall": null, "consume": null, "serviceFei": null, "favourable": null, "shopMemo": "1", "appraise": null, "website": null, "memo": null, "payTypes": "", "shopTypes": "", "consumeTypes": null, "cookTypes": null, "orderNum": null, "card4no": null, "card4noAcc": null, "district2": null, "searchScope": null, "status": null, "address": "", "name": null, "id": null, "pageNo": 645, "pageCount": null, "pageSize": 10, "ids": null, "endTime": null, "startTime": null}, "list": [{"cardNumFive": null, "isSupportYj": null, "cityName": null, "districtName": null, "shopinfo": {"mid": "888002158122935", "good_flag": "2", "new_flag": "2", "short_name": "LINKI", "short_name_pinyin": "LINKI", "status": null, "address": null, "name": null, "id": "552801284768399360"}, "mid": "888002158122935", "shopId": "552801284768399360", "netid": null, "province": 901, "district": 601, "zipcode": null, "telephone": null, "posDate": null, "destineTel": null, "togoTel": null, "trafficWay": null, "signBuilding": null, "businessArea": null, "selfRoom": null, "businessTime": null, "stall": null, "consume": null, "serviceFei": null, "favourable": null, "shopMemo": null, "appraise": null, "website": null, "memo": null, "payTypes": "", "shopTypes": null, "consumeTypes": null, "cookTypes": null, "orderNum": null, "card4no": null, "card4noAcc": null, "district2": 417, "searchScope": null, "status": 1, "address": "\u8bf8\u5149\u8def1588\u5f04355\u53f7", "name": "LINKI", "id": 552801284038590464, "pageNo": 0, "pageCount": null, "pageSize": 10, "ids": null, "endTime": null, "startTime": null}, {"cardNumFive": null, "isSupportYj": null, "cityName": null, "districtName": null, "shopinfo": {"mid": "888002159771051", "good_flag": "2", "new_flag": "1", "short_name": "\u4e3d\u4eba\u5316\u5986\u54c1", "short_name_pinyin": "lirenhuazhuangpin", "status": null, "address": null, "name": null, "id": "32449"}, "mid": "888002159771051", "shopId": "32449", "netid": null, "province": 901, "district": 601, "zipcode": null, "telephone": null, "posDate": null, "destineTel": null, "togoTel": null, "trafficWay": null, "signBuilding": null, "businessArea": null, "selfRoom": null, "businessTime": null, "stall": null, "consume": null, "serviceFei": null, "favourable": null, "shopMemo": null, "appraise": null, "website": null, "memo": null, "payTypes": "\u6749\u5fb7\u5361", "shopTypes": "\u96f6\u552e", "consumeTypes": null, "cookTypes": null, "orderNum": 1000, "card4no": null, "card4noAcc": null, "district2": 413, "searchScope": null, "status": 1, "address": "\u5357\u6865\u9547\u4eba\u6c11\u5357\u8def246\u53f7", "name": "\u4e3d\u4eba\u5316\u5986\u54c1 \u4eba\u6c11\u5357\u8def\u5e97", "id": 139200, "pageNo": 0, "pageCount": null, "pageSize": 10, "ids": null, "endTime": null, "startTime": null}, {"cardNumFive": null, "isSupportYj": null, "cityName": null, "districtName": null, "shopinfo": {"mid": "888888853990248", "good_flag": "2", "new_flag": "1", "short_name": "\u5229\u7ae5\u53cd\u6597\u57ce", "short_name_pinyin": "litongfandoucheng", "status": null, "address": null, "name": null, "id": "32451"}, "mid": "888888853990248", "shopId": "32451", "netid": null, "province": 901, "district": 601, "zipcode": null, "telephone": "33870066", "posDate": "200911", "destineTel": null, "togoTel": null, "trafficWay": null, "signBuilding": null, "businessArea": null, "selfRoom": null, "businessTime": null, "stall": null, "consume": null, "serviceFei": null, "favourable": null, "shopMemo": null, "appraise": null, "website": null, "memo": null, "payTypes": "\u6749\u5fb7\u5361", "shopTypes": "\u96f6\u552e", "consumeTypes": null, "cookTypes": null, "orderNum": 1000, "card4no": null, "card4noAcc": null, "district2": 410, "searchScope": null, "status": 1, "address": "\u5171\u548c\u65b0\u8def2008\u53f7\u5927\u5b81\u56fd\u9645\u5546\u4e1a\u5e7f\u573a12\u5ea74\u697c", "name": "\u73a9\u5177\u53cd\u6597\u57ce \u5927\u5b81\u5e97", "id": 139203, "pageNo": 0, "pageCount": null, "pageSize": 10, "ids": null, "endTime": null, "startTime": null}, {"cardNumFive": null, "isSupportYj": null, "cityName": null, "districtName": null, "shopinfo": {"mid": "888888853990248", "good_flag": "2", "new_flag": "1", "short_name": "\u5229\u7ae5\u53cd\u6597\u57ce", "short_name_pinyin": "litongfandoucheng", "status": null, "address": null, "name": null, "id": "32451"}, "mid": "888888853990248", "shopId": "32451", "netid": null, "province": 901, "district": 601, "zipcode": null, "telephone": "33728588", "posDate": "200911", "destineTel": null, "togoTel": null, "trafficWay": null, "signBuilding": null, "businessArea": null, "selfRoom": null, "businessTime": null, "stall": null, "consume": null, "serviceFei": null, "favourable": null, "shopMemo": null, "appraise": null, "website": null, "memo": null, "payTypes": "\u6749\u5fb7\u5361", "shopTypes": "\u96f6\u552e", "consumeTypes": null, "cookTypes": null, "orderNum": 1000, "card4no": null, "card4noAcc": null, "district2": 406, "searchScope": null, "status": 1, "address": "\u957f\u5b81\u8def1018\u53f7\u9f99\u4e4b\u68a6\u8d2d\u7269\u4e2d\u5fc36\u697c", "name": "\u73a9\u5177\u53cd\u6597\u57ce \u9f99\u4e4b\u68a6\u5e97", "id": 139205, "pageNo": 0, "pageCount": null, "pageSize": 10, "ids": null, "endTime": null, "startTime": null}, {"cardNumFive": null, "isSupportYj": null, "cityName": null, "districtName": null, "shopinfo": {"mid": "888888853990248", "good_flag": "2", "new_flag": "1", "short_name": "\u5229\u7ae5\u53cd\u6597\u57ce", "short_name_pinyin": "litongfandoucheng", "status": null, "address": null, "name": null, "id": "32451"}, "mid": "888888853990248", "shopId": "32451", "netid": null, "province": 901, "district": 601, "zipcode": null, "telephone": "33621862", "posDate": null, "destineTel": null, "togoTel": null, "trafficWay": null, "signBuilding": null, "businessArea": null, "selfRoom": null, "businessTime": null, "stall": null, "consume": null, "serviceFei": null, "favourable": null, "shopMemo": null, "appraise": null, "website": null, "memo": null, "payTypes": "\u6749\u5fb7\u5361", "shopTypes": "\u96f6\u552e", "consumeTypes": null, "cookTypes": null, "orderNum": 1000, "card4no": null, "card4noAcc": null, "district2": 407, "searchScope": null, "status": 1, "address": "\u90af\u90f8\u8def600\u53f7\u5730\u4e0b\u4e00\u5c42A-18-2", "name": "\u73a9\u5177\u53cd\u6597\u57ce \u4e07\u8fbe\u5e7f\u573a\u5e97", "id": 139206, "pageNo": 0, "pageCount": null, "pageSize": 10, "ids": null, "endTime": null, "startTime": null}, {"cardNumFive": null, "isSupportYj": null, "cityName": null, "districtName": null, "shopinfo": {"mid": "888888853990248", "good_flag": "2", "new_flag": "1", "short_name": "\u5229\u7ae5\u53cd\u6597\u57ce", "short_name_pinyin": "litongfandoucheng", "status": null, "address": null, "name": null, "id": "32451"}, "mid": "888888853990248", "shopId": "32451", "netid": null, "province": 901, "district": 601, "zipcode": null, "telephone": "50471472", "posDate": "200911", "destineTel": null, "togoTel": null, "trafficWay": null, "signBuilding": null, "businessArea": null, "selfRoom": null, "businessTime": null, "stall": null, "consume": null, "serviceFei": null, "favourable": null, "shopMemo": null, "appraise": null, "website": null, "memo": null, "payTypes": "\u6749\u5fb7\u5361", "shopTypes": "\u96f6\u552e", "consumeTypes": null, "cookTypes": null, "orderNum": 1000, "card4no": null, "card4noAcc": null, "district2": 418, "searchScope": null, "status": 1, "address": "\u9646\u5bb6\u5634\u897f\u8def168\u53f7\u6b63\u5927\u5e7f\u573a\u56db\u697c", "name": "\u73a9\u5177\u53cd\u6597\u57ce \u6b63\u5927\u5e97", "id": 139208, "pageNo": 0, "pageCount": null, "pageSize": 10, "ids": null, "endTime": null, "startTime": null}, {"cardNumFive": null, "isSupportYj": null, "cityName": null, "districtName": null, "shopinfo": {"mid": "888888856910123", "good_flag": "2", "new_flag": "2", "short_name": "\u9f99*\u751f\u6d3b\u9986", "short_name_pinyin": "long*shenghuoguan", "status": null, "address": null, "name": null, "id": "32568"}, "mid": "888888856910123", "shopId": "32568", "netid": null, "province": 901, "district": 601, "zipcode": null, "telephone": "34061116", "posDate": "20080129", "destineTel": null, "togoTel": null, "trafficWay": "\u516c\u4ea4837 561 827", "signBuilding": null, "businessArea": null, "selfRoom": null, "businessTime": null, "stall": null, "consume": null, "serviceFei": null, "favourable": null, "shopMemo": null, "appraise": null, "website": null, "memo": null, "payTypes": "\u6749\u5fb7\u5361", "shopTypes": "\u4e13\u5356", "consumeTypes": null, "cookTypes": null, "orderNum": 1000, "card4no": null, "card4noAcc": null, "district2": 405, "searchScope": null, "status": 1, "address": "\u771f\u5149\u8def1288\u53f72F-08", "name": "\u9f99*\u751f\u6d3b\u9986 \u771f\u5149\u8def\u5e97", "id": 139690, "pageNo": 0, "pageCount": null, "pageSize": 10, "ids": null, "endTime": null, "startTime": null}, {"cardNumFive": null, "isSupportYj": null, "cityName": null, "districtName": null, "shopinfo": {"mid": "888002159121230", "good_flag": null, "new_flag": null, "short_name": "\u9f99\u5a01\u5927\u836f\u623f", "short_name_pinyin": "longweidayaofang", "status": null, "address": null, "name": null, "id": "32571"}, "mid": "888002159121230", "shopId": "32571", "netid": null, "province": 901, "district": 601, "zipcode": null, "telephone": null, "posDate": null, "destineTel": null, "togoTel": null, "trafficWay": null, "signBuilding": null, "businessArea": null, "selfRoom": null, "businessTime": null, "stall": null, "consume": null, "serviceFei": null, "favourable": null, "shopMemo": null, "appraise": null, "website": null, "memo": null, "payTypes": "\u6749\u5fb7\u5361", "shopTypes": "\u836f\u5e97", "consumeTypes": null, "cookTypes": null, "orderNum": 1000, "card4no": null, "card4noAcc": null, "district2": 418, "searchScope": null, "status": 1, "address": "\u822a\u9e64\u8def1858\u5f0419\u53f7", "name": "\u9f99\u5a01\u5927\u836f\u623f \u822a\u9e64\u8def\u5e97", "id": 139693, "pageNo": 0, "pageCount": null, "pageSize": 10, "ids": null, "endTime": null, "startTime": null}, {"cardNumFive": null, "isSupportYj": null, "cityName": null, "districtName": null, "shopinfo": {"mid": "888888856910266", "good_flag": "2", "new_flag": "2", "short_name": "love&love", "short_name_pinyin": "love&love", "status": null, "address": null, "name": null, "id": "31046"}, "mid": "888888856910266", "shopId": "31046", "netid": null, "province": 901, "district": 601, "zipcode": null, "telephone": "63582581\uff08\u95e8\u5e97\uff09", "posDate": "20090331", "destineTel": null, "togoTel": null, "trafficWay": null, "signBuilding": null, "businessArea": null, "selfRoom": null, "businessTime": null, "stall": null, "consume": null, "serviceFei": null, "favourable": null, "shopMemo": null, "appraise": null, "website": null, "memo": null, "payTypes": "\u6749\u5fb7\u5361", "shopTypes": "\u670d\u9970\u5bb6\u7eba", "consumeTypes": null, "cookTypes": null, "orderNum": 1000, "card4no": null, "card4noAcc": null, "district2": 401, "searchScope": null, "status": 1, "address": "\u4eba\u6c11\u5e7f\u573a\u9999\u6e2f\u540d\u5e97\u88571B4\u53f7\u94fa", "name": "love&love \u9999\u6e2f\u540d\u5e97\u8857\u5e97", "id": 132057, "pageNo": 0, "pageCount": null, "pageSize": 10, "ids": null, "endTime": null, "startTime": null}, {"cardNumFive": null, "isSupportYj": null, "cityName": null, "districtName": null, "shopinfo": {"mid": "888888857190040", "good_flag": "2", "new_flag": "2", "short_name": "\u7f57\u83b1\u5bb6\u7eba", "short_name_pinyin": "luolaijiafang", "status": null, "address": null, "name": null, "id": "32586"}, "mid": "888888857190040", "shopId": "32586", "netid": null, "province": 901, "district": 601, "zipcode": null, "telephone": "65030259", "posDate": "20090414", "destineTel": null, "togoTel": null, "trafficWay": null, "signBuilding": null, "businessArea": null, "selfRoom": null, "businessTime": null, "stall": null, "consume": null, "serviceFei": null, "favourable": null, "shopMemo": null, "appraise": null, "website": null, "memo": null, "payTypes": "\u6749\u5fb7\u5361", "shopTypes": "\u670d\u9970\u5bb6\u7eba", "consumeTypes": null, "cookTypes": null, "orderNum": 1000, "card4no": null, "card4noAcc": null, "district2": 407, "searchScope": null, "status": 1, "address": "\u672c\u6eaa\u8def312-314\u53f7", "name": "\u7f57\u83b1\u5bb6\u7eba \u672c\u6eaa\u8def\u5e97", "id": 139731, "pageNo": 0, "pageCount": null, "pageSize": 10, "ids": null, "endTime": null, "startTime": null}], "pageLimit": 6450, "size": 10}