{"pageCount": 1095, "count": 10942, "pageNo": 644, "subShopInfo": {"cardNumFive": "", "isSupportYj": "", "cityName": null, "districtName": null, "shopinfo": {"mid": null, "good_flag": null, "new_flag": null, "short_name": null, "short_name_pinyin": null, "status": null, "address": "", "name": "", "id": null}, "mid": null, "shopId": null, "netid": null, "province": 901, "district": null, "zipcode": null, "telephone": null, "posDate": null, "destineTel": null, "togoTel": null, "trafficWay": null, "signBuilding": null, "businessArea": null, "selfRoom": null, "businessTime": null, "stall": null, "consume": null, "serviceFei": null, "favourable": null, "shopMemo": "1", "appraise": null, "website": null, "memo": null, "payTypes": "", "shopTypes": "", "consumeTypes": null, "cookTypes": null, "orderNum": null, "card4no": null, "card4noAcc": null, "district2": null, "searchScope": null, "status": null, "address": "", "name": null, "id": null, "pageNo": 643, "pageCount": null, "pageSize": 10, "ids": null, "endTime": null, "startTime": null}, "list": [{"cardNumFive": null, "isSupportYj": null, "cityName": null, "districtName": null, "shopinfo": {"mid": "888002153310936", "good_flag": null, "new_flag": null, "short_name": "\u90bb\u5bb6\u8d85\u5e02", "short_name_pinyin": "linjiachaoshi", "status": null, "address": null, "name": null, "id": "43594"}, "mid": "888002153310936", "shopId": "43594", "netid": null, "province": 901, "district": 601, "zipcode": null, "telephone": null, "posDate": null, "destineTel": null, "togoTel": null, "trafficWay": null, "signBuilding": null, "businessArea": null, "selfRoom": null, "businessTime": null, "stall": null, "consume": null, "serviceFei": null, "favourable": null, "shopMemo": null, "appraise": null, "website": null, "memo": null, "payTypes": "\u6749\u5fb7\u65af\u739b\u7279\u5361", "shopTypes": "\u8d85\u5e02", "consumeTypes": null, "cookTypes": null, "orderNum": 1000, "card4no": null, "card4noAcc": null, "district2": 410, "searchScope": null, "status": 1, "address": "\u65b0\u95f8\u8def393\u53f7", "name": "\u90bb\u5bb6\u8d85\u5e02 \u65b0\u95f8\u8def\u5e97", "id": 198584, "pageNo": 0, "pageCount": null, "pageSize": 10, "ids": null, "endTime": null, "startTime": null}, {"cardNumFive": null, "isSupportYj": null, "cityName": null, "districtName": null, "shopinfo": {"mid": "888002153310863", "good_flag": null, "new_flag": null, "short_name": "\u90bb\u5bb6\u8d85\u5e02", "short_name_pinyin": "linjiachaoshi", "status": null, "address": null, "name": null, "id": "43492"}, "mid": "888002153310863", "shopId": "43492", "netid": null, "province": 901, "district": 601, "zipcode": null, "telephone": null, "posDate": null, "destineTel": null, "togoTel": null, "trafficWay": null, "signBuilding": null, "businessArea": null, "selfRoom": null, "businessTime": null, "stall": null, "consume": null, "serviceFei": null, "favourable": null, "shopMemo": null, "appraise": null, "website": null, "memo": null, "payTypes": "\u6749\u5fb7\u65af\u739b\u7279\u5361", "shopTypes": "\u8d85\u5e02", "consumeTypes": null, "cookTypes": null, "orderNum": 1000, "card4no": null, "card4noAcc": null, "district2": 409, "searchScope": null, "status": 1, "address": "\u9ec4\u6866\u8def76-80\u53f7", "name": "\u90bb\u5bb6\u8d85\u5e02 \u4e0a\u6d77\u9ec4\u6866\u5e97", "id": 202463, "pageNo": 0, "pageCount": null, "pageSize": 10, "ids": null, "endTime": null, "startTime": null}, {"cardNumFive": null, "isSupportYj": null, "cityName": null, "districtName": null, "shopinfo": {"mid": "888002153310921", "good_flag": null, "new_flag": null, "short_name": "\u90bb\u5bb6\u8d85\u5e02", "short_name_pinyin": "linjiachaoshi", "status": null, "address": null, "name": null, "id": "44097"}, "mid": "888002153310921", "shopId": "44097", "netid": null, "province": 901, "district": 601, "zipcode": null, "telephone": null, "posDate": null, "destineTel": null, "togoTel": null, "trafficWay": null, "signBuilding": null, "businessArea": null, "selfRoom": null, "businessTime": null, "stall": null, "consume": null, "serviceFei": null, "favourable": null, "shopMemo": null, "appraise": null, "website": null, "memo": null, "payTypes": "\u6749\u5fb7\u65af\u739b\u7279\u5361", "shopTypes": "\u8d85\u5e02", "consumeTypes": null, "cookTypes": null, "orderNum": 1000, "card4no": null, "card4noAcc": null, "district2": 403, "searchScope": null, "status": 1, "address": "\u8336\u9675\u5317\u8def20\u53f7", "name": "\u90bb\u5bb6\u8d85\u5e02 \u90bb\u5bb6\u8d85\u5e02\u8336\u9675\u5317\u8def", "id": 202520, "pageNo": 0, "pageCount": null, "pageSize": 10, "ids": null, "endTime": null, "startTime": null}, {"cardNumFive": null, "isSupportYj": null, "cityName": null, "districtName": null, "shopinfo": {"mid": "888002153310922", "good_flag": null, "new_flag": null, "short_name": "\u90bb\u5bb6\u8d85\u5e02", "short_name_pinyin": "linjiachaoshi", "status": null, "address": null, "name": null, "id": "44098"}, "mid": "888002153310922", "shopId": "44098", "netid": null, "province": 901, "district": 601, "zipcode": null, "telephone": null, "posDate": null, "destineTel": null, "togoTel": null, "trafficWay": null, "signBuilding": null, "businessArea": null, "selfRoom": null, "businessTime": null, "stall": null, "consume": null, "serviceFei": null, "favourable": null, "shopMemo": null, "appraise": null, "website": null, "memo": null, "payTypes": "\u6749\u5fb7\u65af\u739b\u7279\u5361", "shopTypes": "\u8d85\u5e02", "consumeTypes": null, "cookTypes": null, "orderNum": 1000, "card4no": null, "card4noAcc": null, "district2": 401, "searchScope": null, "status": 1, "address": "\u5c40\u95e8\u8def427\u53f7", "name": "\u90bb\u5bb6\u8d85\u5e02 \u90bb\u5bb6\u8d85\u5e02\u5c40\u95e8\u8def", "id": 202521, "pageNo": 0, "pageCount": null, "pageSize": 10, "ids": null, "endTime": null, "startTime": null}, {"cardNumFive": null, "isSupportYj": null, "cityName": null, "districtName": null, "shopinfo": {"mid": "888002153310923", "good_flag": null, "new_flag": null, "short_name": "\u90bb\u5bb6\u8d85\u5e02", "short_name_pinyin": "linjiachaoshi", "status": null, "address": null, "name": null, "id": "44099"}, "mid": "888002153310923", "shopId": "44099", "netid": null, "province": 901, "district": 601, "zipcode": null, "telephone": null, "posDate": null, "destineTel": null, "togoTel": null, "trafficWay": null, "signBuilding": null, "businessArea": null, "selfRoom": null, "businessTime": null, "stall": null, "consume": null, "serviceFei": null, "favourable": null, "shopMemo": null, "appraise": null, "website": null, "memo": null, "payTypes": "\u6749\u5fb7\u65af\u739b\u7279\u5361", "shopTypes": "\u8d85\u5e02", "consumeTypes": null, "cookTypes": null, "orderNum": 1000, "card4no": null, "card4noAcc": null, "district2": 403, "searchScope": null, "status": 1, "address": "\u5929\u94a5\u6865\u8def580\u53f7", "name": "\u90bb\u5bb6\u8d85\u5e02 \u90bb\u5bb6\u8d85\u5e02\u5929\u94a5\u6865\u8def", "id": 202522, "pageNo": 0, "pageCount": null, "pageSize": 10, "ids": null, "endTime": null, "startTime": null}, {"cardNumFive": null, "isSupportYj": null, "cityName": null, "districtName": null, "shopinfo": {"mid": "888002153310924", "good_flag": null, "new_flag": null, "short_name": "\u90bb\u5bb6\u8d85\u5e02", "short_name_pinyin": "linjiachaoshi", "status": null, "address": null, "name": null, "id": "44100"}, "mid": "888002153310924", "shopId": "44100", "netid": null, "province": 901, "district": 601, "zipcode": null, "telephone": null, "posDate": null, "destineTel": null, "togoTel": null, "trafficWay": null, "signBuilding": null, "businessArea": null, "selfRoom": null, "businessTime": null, "stall": null, "consume": null, "serviceFei": null, "favourable": null, "shopMemo": null, "appraise": null, "website": null, "memo": null, "payTypes": "\u6749\u5fb7\u65af\u739b\u7279\u5361", "shopTypes": "\u8d85\u5e02", "consumeTypes": null, "cookTypes": null, "orderNum": 1000, "card4no": null, "card4noAcc": null, "district2": 405, "searchScope": null, "status": 1, "address": "\u8fdc\u666f\u8def662\u53f71\u5c42103-105", "name": "\u90bb\u5bb6\u8d85\u5e02 \u90bb\u5bb6\u8d85\u5e02\u8fdc\u666f\u8def", "id": 202523, "pageNo": 0, "pageCount": null, "pageSize": 10, "ids": null, "endTime": null, "startTime": null}, {"cardNumFive": null, "isSupportYj": null, "cityName": null, "districtName": null, "shopinfo": {"mid": "888002153310925", "good_flag": null, "new_flag": null, "short_name": "\u90bb\u5bb6\u8d85\u5e02", "short_name_pinyin": "linjiachaoshi", "status": null, "address": null, "name": null, "id": "44101"}, "mid": "888002153310925", "shopId": "44101", "netid": null, "province": 901, "district": 601, "zipcode": null, "telephone": null, "posDate": null, "destineTel": null, "togoTel": null, "trafficWay": null, "signBuilding": null, "businessArea": null, "selfRoom": null, "businessTime": null, "stall": null, "consume": null, "serviceFei": null, "favourable": null, "shopMemo": null, "appraise": null, "website": null, "memo": null, "payTypes": "\u6749\u5fb7\u65af\u739b\u7279\u5361", "shopTypes": "\u8d85\u5e02", "consumeTypes": null, "cookTypes": null, "orderNum": 1000, "card4no": null, "card4noAcc": null, "district2": 406, "searchScope": null, "status": 1, "address": "\u5a01\u5b81\u8def398\u53f71\u5c42101\u5355\u5143", "name": "\u90bb\u5bb6\u8d85\u5e02 \u90bb\u5bb6\u8d85\u5e02\u5a01\u5b81\u8def", "id": 202524, "pageNo": 0, "pageCount": null, "pageSize": 10, "ids": null, "endTime": null, "startTime": null}, {"cardNumFive": null, "isSupportYj": null, "cityName": null, "districtName": null, "shopinfo": {"mid": "888002153310926", "good_flag": null, "new_flag": null, "short_name": "\u90bb\u5bb6\u8d85\u5e02", "short_name_pinyin": "linjiachaoshi", "status": null, "address": null, "name": null, "id": "44102"}, "mid": "888002153310926", "shopId": "44102", "netid": null, "province": 901, "district": 601, "zipcode": null, "telephone": null, "posDate": null, "destineTel": null, "togoTel": null, "trafficWay": null, "signBuilding": null, "businessArea": null, "selfRoom": null, "businessTime": null, "stall": null, "consume": null, "serviceFei": null, "favourable": null, "shopMemo": null, "appraise": null, "website": null, "memo": null, "payTypes": "\u6749\u5fb7\u65af\u739b\u7279\u5361", "shopTypes": "\u8d85\u5e02", "consumeTypes": null, "cookTypes": null, "orderNum": 1000, "card4no": null, "card4noAcc": null, "district2": 406, "searchScope": null, "status": 1, "address": "\u9ec4\u91d1\u57ce\u9053776\u53f7", "name": "\u90bb\u5bb6\u8d85\u5e02 \u90bb\u5bb6\u8d85\u5e02\u9ec4\u91d1\u57ce\u9053", "id": 202525, "pageNo": 0, "pageCount": null, "pageSize": 10, "ids": null, "endTime": null, "startTime": null}, {"cardNumFive": null, "isSupportYj": null, "cityName": null, "districtName": null, "shopinfo": {"mid": "888002153310928", "good_flag": null, "new_flag": null, "short_name": "\u90bb\u5bb6\u8d85\u5e02", "short_name_pinyin": "linjiachaoshi", "status": null, "address": null, "name": null, "id": "43535"}, "mid": "888002153310928", "shopId": "43535", "netid": null, "province": 901, "district": 601, "zipcode": null, "telephone": null, "posDate": null, "destineTel": null, "togoTel": null, "trafficWay": null, "signBuilding": null, "businessArea": null, "selfRoom": null, "businessTime": null, "stall": null, "consume": null, "serviceFei": null, "favourable": null, "shopMemo": null, "appraise": null, "website": null, "memo": null, "payTypes": "\u6749\u5fb7\u65af\u739b\u7279\u5361", "shopTypes": "\u8d85\u5e02", "consumeTypes": null, "cookTypes": null, "orderNum": 1000, "card4no": null, "card4noAcc": null, "district2": 405, "searchScope": null, "status": 1, "address": "\u767d\u7389\u8def101\u53f71\u5c42", "name": "\u90bb\u5bb6\u8d85\u5e02 \u90bb\u5bb6\u8d85\u5e02\u767d\u7389\u8def", "id": 202526, "pageNo": 0, "pageCount": null, "pageSize": 10, "ids": null, "endTime": null, "startTime": null}, {"cardNumFive": null, "isSupportYj": null, "cityName": null, "districtName": null, "shopinfo": {"mid": "888002153310930", "good_flag": null, "new_flag": null, "short_name": "\u90bb\u5bb6\u8d85\u5e02", "short_name_pinyin": "linjiachaoshi", "status": null, "address": null, "name": null, "id": "43562"}, "mid": "888002153310930", "shopId": "43562", "netid": null, "province": 901, "district": 601, "zipcode": null, "telephone": null, "posDate": null, "destineTel": null, "togoTel": null, "trafficWay": null, "signBuilding": null, "businessArea": null, "selfRoom": null, "businessTime": null, "stall": null, "consume": null, "serviceFei": null, "favourable": null, "shopMemo": null, "appraise": null, "website": null, "memo": null, "payTypes": "\u6749\u5fb7\u65af\u739b\u7279\u5361", "shopTypes": "\u8d85\u5e02", "consumeTypes": null, "cookTypes": null, "orderNum": 1000, "card4no": null, "card4noAcc": null, "district2": 401, "searchScope": null, "status": 1, "address": "\u6253\u6d66\u8def628\u53f75101-5102", "name": "\u90bb\u5bb6\u8d85\u5e02 \u90bb\u5bb6\u8d85\u5e02\u6253\u6d66\u8def", "id": 202527, "pageNo": 0, "pageCount": null, "pageSize": 10, "ids": null, "endTime": null, "startTime": null}], "pageLimit": 6430, "size": 10}