{"pageCount": 1095, "count": 10942, "pageNo": 643, "subShopInfo": {"cardNumFive": "", "isSupportYj": "", "cityName": null, "districtName": null, "shopinfo": {"mid": null, "good_flag": null, "new_flag": null, "short_name": null, "short_name_pinyin": null, "status": null, "address": "", "name": "", "id": null}, "mid": null, "shopId": null, "netid": null, "province": 901, "district": null, "zipcode": null, "telephone": null, "posDate": null, "destineTel": null, "togoTel": null, "trafficWay": null, "signBuilding": null, "businessArea": null, "selfRoom": null, "businessTime": null, "stall": null, "consume": null, "serviceFei": null, "favourable": null, "shopMemo": "1", "appraise": null, "website": null, "memo": null, "payTypes": "", "shopTypes": "", "consumeTypes": null, "cookTypes": null, "orderNum": null, "card4no": null, "card4noAcc": null, "district2": null, "searchScope": null, "status": null, "address": "", "name": null, "id": null, "pageNo": 642, "pageCount": null, "pageSize": 10, "ids": null, "endTime": null, "startTime": null}, "list": [{"cardNumFive": null, "isSupportYj": null, "cityName": null, "districtName": null, "shopinfo": {"mid": "888002153310863", "good_flag": null, "new_flag": null, "short_name": "\u90bb\u5bb6\u8d85\u5e02", "short_name_pinyin": "linjiachaoshi", "status": null, "address": null, "name": null, "id": "43492"}, "mid": "888002153310863", "shopId": "43492", "netid": null, "province": 901, "district": 601, "zipcode": null, "telephone": null, "posDate": null, "destineTel": null, "togoTel": null, "trafficWay": null, "signBuilding": null, "businessArea": null, "selfRoom": null, "businessTime": null, "stall": null, "consume": null, "serviceFei": null, "favourable": null, "shopMemo": null, "appraise": null, "website": null, "memo": null, "payTypes": "\u6749\u5fb7\u65af\u739b\u7279\u5361", "shopTypes": "\u8d85\u5e02", "consumeTypes": null, "cookTypes": null, "orderNum": 1000, "card4no": null, "card4noAcc": null, "district2": 403, "searchScope": null, "status": 1, "address": "\u8336\u9675\u5317\u8def20\u53f7", "name": "\u90bb\u5bb6\u8d85\u5e02 \u8336\u9675\u5317\u8def\u5e97", "id": 196976, "pageNo": 0, "pageCount": null, "pageSize": 10, "ids": null, "endTime": null, "startTime": null}, {"cardNumFive": null, "isSupportYj": null, "cityName": null, "districtName": null, "shopinfo": {"mid": "888002153310863", "good_flag": null, "new_flag": null, "short_name": "\u90bb\u5bb6\u8d85\u5e02", "short_name_pinyin": "linjiachaoshi", "status": null, "address": null, "name": null, "id": "43492"}, "mid": "888002153310863", "shopId": "43492", "netid": null, "province": 901, "district": 601, "zipcode": null, "telephone": null, "posDate": null, "destineTel": null, "togoTel": null, "trafficWay": null, "signBuilding": null, "businessArea": null, "selfRoom": null, "businessTime": null, "stall": null, "consume": null, "serviceFei": null, "favourable": null, "shopMemo": null, "appraise": null, "website": null, "memo": null, "payTypes": "\u6749\u5fb7\u65af\u739b\u7279\u5361", "shopTypes": "\u8d85\u5e02", "consumeTypes": null, "cookTypes": null, "orderNum": 1000, "card4no": null, "card4noAcc": null, "district2": 405, "searchScope": null, "status": 1, "address": "\u8fdc\u666f\u8def662\u53f71\u5c42103-105", "name": "\u90bb\u5bb6\u8d85\u5e02 \u8fdc\u666f\u8def\u5e97", "id": 196977, "pageNo": 0, "pageCount": null, "pageSize": 10, "ids": null, "endTime": null, "startTime": null}, {"cardNumFive": null, "isSupportYj": null, "cityName": null, "districtName": null, "shopinfo": {"mid": "888002153310863", "good_flag": null, "new_flag": null, "short_name": "\u90bb\u5bb6\u8d85\u5e02", "short_name_pinyin": "linjiachaoshi", "status": null, "address": null, "name": null, "id": "43492"}, "mid": "888002153310863", "shopId": "43492", "netid": null, "province": 901, "district": 601, "zipcode": null, "telephone": null, "posDate": null, "destineTel": null, "togoTel": null, "trafficWay": null, "signBuilding": null, "businessArea": null, "selfRoom": null, "businessTime": null, "stall": null, "consume": null, "serviceFei": null, "favourable": null, "shopMemo": null, "appraise": null, "website": null, "memo": null, "payTypes": "\u6749\u5fb7\u65af\u739b\u7279\u5361", "shopTypes": "\u8d85\u5e02", "consumeTypes": null, "cookTypes": null, "orderNum": 1000, "card4no": null, "card4noAcc": null, "district2": 403, "searchScope": null, "status": 1, "address": "\u5929\u94a5\u6865\u8def580\u53f7", "name": "\u90bb\u5bb6\u8d85\u5e02 \u5929\u94a5\u6865\u8def\u5e97", "id": 196978, "pageNo": 0, "pageCount": null, "pageSize": 10, "ids": null, "endTime": null, "startTime": null}, {"cardNumFive": null, "isSupportYj": null, "cityName": null, "districtName": null, "shopinfo": {"mid": "888002153310863", "good_flag": null, "new_flag": null, "short_name": "\u90bb\u5bb6\u8d85\u5e02", "short_name_pinyin": "linjiachaoshi", "status": null, "address": null, "name": null, "id": "43492"}, "mid": "888002153310863", "shopId": "43492", "netid": null, "province": 901, "district": 601, "zipcode": null, "telephone": null, "posDate": null, "destineTel": null, "togoTel": null, "trafficWay": null, "signBuilding": null, "businessArea": null, "selfRoom": null, "businessTime": null, "stall": null, "consume": null, "serviceFei": null, "favourable": null, "shopMemo": null, "appraise": null, "website": null, "memo": null, "payTypes": "\u6749\u5fb7\u65af\u739b\u7279\u5361", "shopTypes": "\u8d85\u5e02", "consumeTypes": null, "cookTypes": null, "orderNum": 1000, "card4no": null, "card4noAcc": null, "district2": 406, "searchScope": null, "status": 1, "address": "\u5a01\u5b81\u8def398\u53f71\u5c42101\u5355\u5143", "name": "\u90bb\u5bb6\u8d85\u5e02 \u5a01\u5b81\u8def\u5e97", "id": 196979, "pageNo": 0, "pageCount": null, "pageSize": 10, "ids": null, "endTime": null, "startTime": null}, {"cardNumFive": null, "isSupportYj": null, "cityName": null, "districtName": null, "shopinfo": {"mid": "888002153310863", "good_flag": null, "new_flag": null, "short_name": "\u90bb\u5bb6\u8d85\u5e02", "short_name_pinyin": "linjiachaoshi", "status": null, "address": null, "name": null, "id": "43492"}, "mid": "888002153310863", "shopId": "43492", "netid": null, "province": 901, "district": 601, "zipcode": null, "telephone": null, "posDate": null, "destineTel": null, "togoTel": null, "trafficWay": null, "signBuilding": null, "businessArea": null, "selfRoom": null, "businessTime": null, "stall": null, "consume": null, "serviceFei": null, "favourable": null, "shopMemo": null, "appraise": null, "website": null, "memo": null, "payTypes": "\u6749\u5fb7\u65af\u739b\u7279\u5361", "shopTypes": "\u8d85\u5e02", "consumeTypes": null, "cookTypes": null, "orderNum": 1000, "card4no": null, "card4noAcc": null, "district2": 406, "searchScope": null, "status": 1, "address": "\u9ec4\u91d1\u57ce\u9053776\u53f7", "name": "\u90bb\u5bb6\u8d85\u5e02 \u9ec4\u91d1\u57ce\u9053\u5e97", "id": 196980, "pageNo": 0, "pageCount": null, "pageSize": 10, "ids": null, "endTime": null, "startTime": null}, {"cardNumFive": null, "isSupportYj": null, "cityName": null, "districtName": null, "shopinfo": {"mid": "888002153310928", "good_flag": null, "new_flag": null, "short_name": "\u90bb\u5bb6\u8d85\u5e02", "short_name_pinyin": "linjiachaoshi", "status": null, "address": null, "name": null, "id": "43535"}, "mid": "888002153310928", "shopId": "43535", "netid": null, "province": 901, "district": 601, "zipcode": null, "telephone": null, "posDate": null, "destineTel": null, "togoTel": null, "trafficWay": null, "signBuilding": null, "businessArea": null, "selfRoom": null, "businessTime": null, "stall": null, "consume": null, "serviceFei": null, "favourable": null, "shopMemo": null, "appraise": null, "website": null, "memo": null, "payTypes": "\u6749\u5fb7\u65af\u739b\u7279\u5361", "shopTypes": "\u8d85\u5e02", "consumeTypes": null, "cookTypes": null, "orderNum": 1000, "card4no": null, "card4noAcc": null, "district2": 405, "searchScope": null, "status": 1, "address": "\u767d\u7389\u8def101\u53f71\u5c42", "name": "\u90bb\u5bb6\u8d85\u5e02 \u767d\u7389\u8def\u5e97", "id": 197305, "pageNo": 0, "pageCount": null, "pageSize": 10, "ids": null, "endTime": null, "startTime": null}, {"cardNumFive": null, "isSupportYj": null, "cityName": null, "districtName": null, "shopinfo": {"mid": "888002153310930", "good_flag": null, "new_flag": null, "short_name": "\u90bb\u5bb6\u8d85\u5e02", "short_name_pinyin": "linjiachaoshi", "status": null, "address": null, "name": null, "id": "43562"}, "mid": "888002153310930", "shopId": "43562", "netid": null, "province": 901, "district": 601, "zipcode": null, "telephone": null, "posDate": null, "destineTel": null, "togoTel": null, "trafficWay": null, "signBuilding": null, "businessArea": null, "selfRoom": null, "businessTime": null, "stall": null, "consume": null, "serviceFei": null, "favourable": null, "shopMemo": null, "appraise": null, "website": null, "memo": null, "payTypes": "\u6749\u5fb7\u65af\u739b\u7279\u5361", "shopTypes": "\u8d85\u5e02", "consumeTypes": null, "cookTypes": null, "orderNum": 1000, "card4no": null, "card4noAcc": null, "district2": 401, "searchScope": null, "status": 1, "address": "\u6253\u6d66\u8def628\u53f75101\u548c5102", "name": "\u90bb\u5bb6\u8d85\u5e02 \u6253\u6d66\u8def\u5e97", "id": 197775, "pageNo": 0, "pageCount": null, "pageSize": 10, "ids": null, "endTime": null, "startTime": null}, {"cardNumFive": null, "isSupportYj": null, "cityName": null, "districtName": null, "shopinfo": {"mid": "888002153310931", "good_flag": null, "new_flag": null, "short_name": "\u90bb\u5bb6\u8d85\u5e02", "short_name_pinyin": "linjiachaoshi", "status": null, "address": null, "name": null, "id": "43564"}, "mid": "888002153310931", "shopId": "43564", "netid": null, "province": 901, "district": 601, "zipcode": null, "telephone": null, "posDate": null, "destineTel": null, "togoTel": null, "trafficWay": null, "signBuilding": null, "businessArea": null, "selfRoom": null, "businessTime": null, "stall": null, "consume": null, "serviceFei": null, "favourable": null, "shopMemo": null, "appraise": null, "website": null, "memo": null, "payTypes": "\u6749\u5fb7\u65af\u739b\u7279\u5361", "shopTypes": "\u8d85\u5e02", "consumeTypes": null, "cookTypes": null, "orderNum": 1000, "card4no": null, "card4noAcc": null, "district2": 410, "searchScope": null, "status": 1, "address": "\u5171\u548c\u8def219\u53f71\u5c42104\u5355\u5143", "name": "\u90bb\u5bb6\u8d85\u5e02 \u5171\u548c\u8def\u5e97", "id": 197827, "pageNo": 0, "pageCount": null, "pageSize": 10, "ids": null, "endTime": null, "startTime": null}, {"cardNumFive": null, "isSupportYj": null, "cityName": null, "districtName": null, "shopinfo": {"mid": "888002153310934", "good_flag": null, "new_flag": null, "short_name": "\u90bb\u5bb6\u8d85\u5e02", "short_name_pinyin": "linjiachaoshi", "status": null, "address": null, "name": null, "id": "43574"}, "mid": "888002153310934", "shopId": "43574", "netid": null, "province": 901, "district": 601, "zipcode": null, "telephone": null, "posDate": null, "destineTel": null, "togoTel": null, "trafficWay": null, "signBuilding": null, "businessArea": null, "selfRoom": null, "businessTime": null, "stall": null, "consume": null, "serviceFei": null, "favourable": null, "shopMemo": null, "appraise": null, "website": null, "memo": null, "payTypes": "\u6749\u5fb7\u65af\u739b\u7279\u5361", "shopTypes": "\u8d85\u5e02", "consumeTypes": null, "cookTypes": null, "orderNum": 1000, "card4no": null, "card4noAcc": null, "district2": 418, "searchScope": null, "status": 1, "address": "\u6a31\u82b1\u8def80\u5f041\u5c425\u53f7", "name": "\u90bb\u5bb6\u8d85\u5e02 \u6a31\u82b1\u8def\u5e97", "id": 198137, "pageNo": 0, "pageCount": null, "pageSize": 10, "ids": null, "endTime": null, "startTime": null}, {"cardNumFive": null, "isSupportYj": null, "cityName": null, "districtName": null, "shopinfo": {"mid": "888002153310935", "good_flag": null, "new_flag": null, "short_name": "\u90bb\u5bb6\u8d85\u5e02", "short_name_pinyin": "linjiachaoshi", "status": null, "address": null, "name": null, "id": "43575"}, "mid": "888002153310935", "shopId": "43575", "netid": null, "province": 901, "district": 601, "zipcode": null, "telephone": null, "posDate": null, "destineTel": null, "togoTel": null, "trafficWay": null, "signBuilding": null, "businessArea": null, "selfRoom": null, "businessTime": null, "stall": null, "consume": null, "serviceFei": null, "favourable": null, "shopMemo": null, "appraise": null, "website": null, "memo": null, "payTypes": "\u6749\u5fb7\u65af\u739b\u7279\u5361", "shopTypes": "\u8d85\u5e02", "consumeTypes": null, "cookTypes": null, "orderNum": 1000, "card4no": null, "card4noAcc": null, "district2": 408, "searchScope": null, "status": 1, "address": "\u4e1c\u5927\u540d\u8def988\u53f71\u5c42F108.F109\u5546\u94fa", "name": "\u90bb\u5bb6\u8d85\u5e02 \u4e1c\u5927\u540d\u8def\u5e97", "id": 198161, "pageNo": 0, "pageCount": null, "pageSize": 10, "ids": null, "endTime": null, "startTime": null}], "pageLimit": 6420, "size": 10}