{"pageCount": 1095, "count": 10942, "pageNo": 642, "subShopInfo": {"cardNumFive": "", "isSupportYj": "", "cityName": null, "districtName": null, "shopinfo": {"mid": null, "good_flag": null, "new_flag": null, "short_name": null, "short_name_pinyin": null, "status": null, "address": "", "name": "", "id": null}, "mid": null, "shopId": null, "netid": null, "province": 901, "district": null, "zipcode": null, "telephone": null, "posDate": null, "destineTel": null, "togoTel": null, "trafficWay": null, "signBuilding": null, "businessArea": null, "selfRoom": null, "businessTime": null, "stall": null, "consume": null, "serviceFei": null, "favourable": null, "shopMemo": "1", "appraise": null, "website": null, "memo": null, "payTypes": "", "shopTypes": "", "consumeTypes": null, "cookTypes": null, "orderNum": null, "card4no": null, "card4noAcc": null, "district2": null, "searchScope": null, "status": null, "address": "", "name": null, "id": null, "pageNo": 641, "pageCount": null, "pageSize": 10, "ids": null, "endTime": null, "startTime": null}, "list": [{"cardNumFive": null, "isSupportYj": null, "cityName": null, "districtName": null, "shopinfo": {"mid": "888002154410183", "good_flag": null, "new_flag": null, "short_name": "\u96f6\u98df\u591a", "short_name_pinyin": "lingshiduo", "status": null, "address": null, "name": null, "id": "38950"}, "mid": "888002154410183", "shopId": "38950", "netid": null, "province": 901, "district": 601, "zipcode": null, "telephone": null, "posDate": null, "destineTel": null, "togoTel": null, "trafficWay": null, "signBuilding": null, "businessArea": null, "selfRoom": null, "businessTime": null, "stall": null, "consume": null, "serviceFei": null, "favourable": null, "shopMemo": null, "appraise": null, "website": null, "memo": null, "payTypes": "\u6749\u5fb7\u5361", "shopTypes": "\u96f6\u552e", "consumeTypes": null, "cookTypes": null, "orderNum": 1000, "card4no": null, "card4noAcc": null, "district2": 406, "searchScope": null, "status": 1, "address": "\u5b89\u987a\u8def58\u53f7", "name": "\u96f6\u98df\u591a \u5b89\u987a\u8def\u5e97", "id": 170022, "pageNo": 0, "pageCount": null, "pageSize": 10, "ids": null, "endTime": null, "startTime": null}, {"cardNumFive": null, "isSupportYj": null, "cityName": null, "districtName": null, "shopinfo": {"mid": "888002154410183", "good_flag": null, "new_flag": null, "short_name": "\u96f6\u98df\u591a", "short_name_pinyin": "lingshiduo", "status": null, "address": null, "name": null, "id": "38950"}, "mid": "888002154410183", "shopId": "38950", "netid": null, "province": 901, "district": 601, "zipcode": null, "telephone": null, "posDate": null, "destineTel": null, "togoTel": null, "trafficWay": null, "signBuilding": null, "businessArea": null, "selfRoom": null, "businessTime": null, "stall": null, "consume": null, "serviceFei": null, "favourable": null, "shopMemo": null, "appraise": null, "website": null, "memo": null, "payTypes": "\u6749\u5fb7\u5361", "shopTypes": "\u96f6\u552e", "consumeTypes": null, "cookTypes": null, "orderNum": 1000, "card4no": null, "card4noAcc": null, "district2": 418, "searchScope": null, "status": 1, "address": "\u6768\u9ad8\u5357\u8def1126-1128\u53f7", "name": "\u96f6\u98df\u591a \u535c\u8702\u83b2\u82b1\u6768\u9ad8\u5357\u8def\u5e97", "id": 170023, "pageNo": 0, "pageCount": null, "pageSize": 10, "ids": null, "endTime": null, "startTime": null}, {"cardNumFive": null, "isSupportYj": null, "cityName": null, "districtName": null, "shopinfo": {"mid": "888002154410183", "good_flag": null, "new_flag": null, "short_name": "\u96f6\u98df\u591a", "short_name_pinyin": "lingshiduo", "status": null, "address": null, "name": null, "id": "38950"}, "mid": "888002154410183", "shopId": "38950", "netid": null, "province": 901, "district": 601, "zipcode": null, "telephone": null, "posDate": null, "destineTel": null, "togoTel": null, "trafficWay": null, "signBuilding": null, "businessArea": null, "selfRoom": null, "businessTime": null, "stall": null, "consume": null, "serviceFei": null, "favourable": null, "shopMemo": null, "appraise": null, "website": null, "memo": null, "payTypes": "\u6749\u5fb7\u5361", "shopTypes": "\u96f6\u552e", "consumeTypes": null, "cookTypes": null, "orderNum": 1000, "card4no": null, "card4noAcc": null, "district2": 411, "searchScope": null, "status": 1, "address": "\u798f\u6d77\u8def234\u53f7", "name": "\u96f6\u98df\u591a \u798f\u6d77\u8def\u5e97", "id": 170024, "pageNo": 0, "pageCount": null, "pageSize": 10, "ids": null, "endTime": null, "startTime": null}, {"cardNumFive": null, "isSupportYj": null, "cityName": null, "districtName": null, "shopinfo": {"mid": "888002154410183", "good_flag": null, "new_flag": null, "short_name": "\u96f6\u98df\u591a", "short_name_pinyin": "lingshiduo", "status": null, "address": null, "name": null, "id": "38950"}, "mid": "888002154410183", "shopId": "38950", "netid": null, "province": 901, "district": 601, "zipcode": null, "telephone": null, "posDate": null, "destineTel": null, "togoTel": null, "trafficWay": null, "signBuilding": null, "businessArea": null, "selfRoom": null, "businessTime": null, "stall": null, "consume": null, "serviceFei": null, "favourable": null, "shopMemo": null, "appraise": null, "website": null, "memo": null, "payTypes": "\u6749\u5fb7\u5361", "shopTypes": "\u96f6\u552e", "consumeTypes": null, "cookTypes": null, "orderNum": 1000, "card4no": null, "card4noAcc": null, "district2": 411, "searchScope": null, "status": 1, "address": "\u5854\u57ce\u8def780\u5f0427\u53f7", "name": "\u96f6\u98df\u591a \u5854\u57ce\u8def\u5e97", "id": 170025, "pageNo": 0, "pageCount": null, "pageSize": 10, "ids": null, "endTime": null, "startTime": null}, {"cardNumFive": null, "isSupportYj": null, "cityName": null, "districtName": null, "shopinfo": {"mid": "888002154410183", "good_flag": null, "new_flag": null, "short_name": "\u96f6\u98df\u591a", "short_name_pinyin": "lingshiduo", "status": null, "address": null, "name": null, "id": "38950"}, "mid": "888002154410183", "shopId": "38950", "netid": null, "province": 901, "district": 601, "zipcode": null, "telephone": null, "posDate": null, "destineTel": null, "togoTel": null, "trafficWay": null, "signBuilding": null, "businessArea": null, "selfRoom": null, "businessTime": null, "stall": null, "consume": null, "serviceFei": null, "favourable": null, "shopMemo": null, "appraise": null, "website": null, "memo": null, "payTypes": "\u6749\u5fb7\u5361", "shopTypes": "\u96f6\u552e", "consumeTypes": null, "cookTypes": null, "orderNum": 1000, "card4no": null, "card4noAcc": null, "district2": 418, "searchScope": null, "status": 1, "address": "\u78a7\u6ce2\u8def71\u53f7", "name": "\u96f6\u98df\u591a \u78a7\u6ce2\u8def\u5e97", "id": 170026, "pageNo": 0, "pageCount": null, "pageSize": 10, "ids": null, "endTime": null, "startTime": null}, {"cardNumFive": null, "isSupportYj": null, "cityName": null, "districtName": null, "shopinfo": {"mid": "888002154410183", "good_flag": null, "new_flag": null, "short_name": "\u96f6\u98df\u591a", "short_name_pinyin": "lingshiduo", "status": null, "address": null, "name": null, "id": "38950"}, "mid": "888002154410183", "shopId": "38950", "netid": null, "province": 901, "district": 601, "zipcode": null, "telephone": null, "posDate": null, "destineTel": null, "togoTel": null, "trafficWay": null, "signBuilding": null, "businessArea": null, "selfRoom": null, "businessTime": null, "stall": null, "consume": null, "serviceFei": null, "favourable": null, "shopMemo": null, "appraise": null, "website": null, "memo": null, "payTypes": "\u6749\u5fb7\u5361", "shopTypes": "\u96f6\u552e", "consumeTypes": null, "cookTypes": null, "orderNum": 1000, "card4no": null, "card4noAcc": null, "district2": 407, "searchScope": null, "status": 1, "address": "\u56fd\u548c\u8def1022\u53f7\u4e1c\u9762\u4e8c\u95f4", "name": "\u96f6\u98df\u591a \u56fd\u548c\u8def\u5e97", "id": 193600, "pageNo": 0, "pageCount": null, "pageSize": 10, "ids": null, "endTime": null, "startTime": null}, {"cardNumFive": null, "isSupportYj": null, "cityName": null, "districtName": null, "shopinfo": {"mid": "888002154410183", "good_flag": null, "new_flag": null, "short_name": "\u96f6\u98df\u591a", "short_name_pinyin": "lingshiduo", "status": null, "address": null, "name": null, "id": "38950"}, "mid": "888002154410183", "shopId": "38950", "netid": null, "province": 901, "district": 601, "zipcode": null, "telephone": null, "posDate": null, "destineTel": null, "togoTel": null, "trafficWay": null, "signBuilding": null, "businessArea": null, "selfRoom": null, "businessTime": null, "stall": null, "consume": null, "serviceFei": null, "favourable": null, "shopMemo": null, "appraise": null, "website": null, "memo": null, "payTypes": "\u6749\u5fb7\u5361", "shopTypes": "\u96f6\u552e", "consumeTypes": null, "cookTypes": null, "orderNum": 1000, "card4no": null, "card4noAcc": null, "district2": 414, "searchScope": null, "status": 1, "address": "\u6731\u6cfe\u9547\u4e07\u5b89\u8857450\u53f7\u5e95\u5c42\u5de6\u4fa7-1\u4f4d\u7f6e", "name": "\u96f6\u98df\u591a \u4e07\u5b89\u8857\u5e97", "id": 194498, "pageNo": 0, "pageCount": null, "pageSize": 10, "ids": null, "endTime": null, "startTime": null}, {"cardNumFive": null, "isSupportYj": null, "cityName": null, "districtName": null, "shopinfo": {"mid": "888002154410183", "good_flag": null, "new_flag": null, "short_name": "\u96f6\u98df\u591a", "short_name_pinyin": "lingshiduo", "status": null, "address": null, "name": null, "id": "38950"}, "mid": "888002154410183", "shopId": "38950", "netid": null, "province": 901, "district": 601, "zipcode": null, "telephone": null, "posDate": null, "destineTel": null, "togoTel": null, "trafficWay": null, "signBuilding": null, "businessArea": null, "selfRoom": null, "businessTime": null, "stall": null, "consume": null, "serviceFei": null, "favourable": null, "shopMemo": null, "appraise": null, "website": null, "memo": null, "payTypes": "\u6749\u5fb7\u5361", "shopTypes": "\u96f6\u552e", "consumeTypes": null, "cookTypes": null, "orderNum": 1000, "card4no": null, "card4noAcc": null, "district2": 418, "searchScope": null, "status": 1, "address": "\u82b3\u534e\u8def455\u5f041\u53f7\u81f33\u53f7-1\u90e8\u4f4d", "name": "\u96f6\u98df\u591a \u82b3\u534e\u8def\u5e97", "id": 194502, "pageNo": 0, "pageCount": null, "pageSize": 10, "ids": null, "endTime": null, "startTime": null}, {"cardNumFive": null, "isSupportYj": null, "cityName": null, "districtName": null, "shopinfo": {"mid": "888002154410183", "good_flag": null, "new_flag": null, "short_name": "\u96f6\u98df\u591a", "short_name_pinyin": "lingshiduo", "status": null, "address": null, "name": null, "id": "38950"}, "mid": "888002154410183", "shopId": "38950", "netid": null, "province": 901, "district": 601, "zipcode": null, "telephone": null, "posDate": null, "destineTel": null, "togoTel": null, "trafficWay": null, "signBuilding": null, "businessArea": null, "selfRoom": null, "businessTime": null, "stall": null, "consume": null, "serviceFei": null, "favourable": null, "shopMemo": null, "appraise": null, "website": null, "memo": null, "payTypes": "\u6749\u5fb7\u5361", "shopTypes": "\u96f6\u552e", "consumeTypes": null, "cookTypes": null, "orderNum": 1000, "card4no": null, "card4noAcc": null, "district2": 407, "searchScope": null, "status": 1, "address": "\u5185\u6c5f\u8def488\u53f7\u5de6\u4e00\u90e8\u5206", "name": "\u96f6\u98df\u591a \u5185\u6c5f\u8def\u5e97", "id": 194503, "pageNo": 0, "pageCount": null, "pageSize": 10, "ids": null, "endTime": null, "startTime": null}, {"cardNumFive": null, "isSupportYj": null, "cityName": null, "districtName": null, "shopinfo": {"mid": "888002153310863", "good_flag": null, "new_flag": null, "short_name": "\u90bb\u5bb6\u8d85\u5e02", "short_name_pinyin": "linjiachaoshi", "status": null, "address": null, "name": null, "id": "43492"}, "mid": "888002153310863", "shopId": "43492", "netid": null, "province": 901, "district": 601, "zipcode": null, "telephone": null, "posDate": null, "destineTel": null, "togoTel": null, "trafficWay": null, "signBuilding": null, "businessArea": null, "selfRoom": null, "businessTime": null, "stall": null, "consume": null, "serviceFei": null, "favourable": null, "shopMemo": null, "appraise": null, "website": null, "memo": null, "payTypes": "\u6749\u5fb7\u65af\u739b\u7279\u5361", "shopTypes": "\u8d85\u5e02", "consumeTypes": null, "cookTypes": null, "orderNum": 1000, "card4no": null, "card4noAcc": null, "district2": 401, "searchScope": null, "status": 1, "address": "\u5c40\u95e8\u8def427\u53f7", "name": "\u90bb\u5bb6\u8d85\u5e02 \u5c40\u95e8\u8def\u5e97", "id": 196974, "pageNo": 0, "pageCount": null, "pageSize": 10, "ids": null, "endTime": null, "startTime": null}], "pageLimit": 6410, "size": 10}