{"pageCount": 1095, "count": 10942, "pageNo": 645, "subShopInfo": {"cardNumFive": "", "isSupportYj": "", "cityName": null, "districtName": null, "shopinfo": {"mid": null, "good_flag": null, "new_flag": null, "short_name": null, "short_name_pinyin": null, "status": null, "address": "", "name": "", "id": null}, "mid": null, "shopId": null, "netid": null, "province": 901, "district": null, "zipcode": null, "telephone": null, "posDate": null, "destineTel": null, "togoTel": null, "trafficWay": null, "signBuilding": null, "businessArea": null, "selfRoom": null, "businessTime": null, "stall": null, "consume": null, "serviceFei": null, "favourable": null, "shopMemo": "1", "appraise": null, "website": null, "memo": null, "payTypes": "", "shopTypes": "", "consumeTypes": null, "cookTypes": null, "orderNum": null, "card4no": null, "card4noAcc": null, "district2": null, "searchScope": null, "status": null, "address": "", "name": null, "id": null, "pageNo": 644, "pageCount": null, "pageSize": 10, "ids": null, "endTime": null, "startTime": null}, "list": [{"cardNumFive": null, "isSupportYj": null, "cityName": null, "districtName": null, "shopinfo": {"mid": "888002153310931", "good_flag": null, "new_flag": null, "short_name": "\u90bb\u5bb6\u8d85\u5e02", "short_name_pinyin": "linjiachaoshi", "status": null, "address": null, "name": null, "id": "43564"}, "mid": "888002153310931", "shopId": "43564", "netid": null, "province": 901, "district": 601, "zipcode": null, "telephone": null, "posDate": null, "destineTel": null, "togoTel": null, "trafficWay": null, "signBuilding": null, "businessArea": null, "selfRoom": null, "businessTime": null, "stall": null, "consume": null, "serviceFei": null, "favourable": null, "shopMemo": null, "appraise": null, "website": null, "memo": null, "payTypes": "\u6749\u5fb7\u65af\u739b\u7279\u5361", "shopTypes": "\u8d85\u5e02", "consumeTypes": null, "cookTypes": null, "orderNum": 1000, "card4no": null, "card4noAcc": null, "district2": 410, "searchScope": null, "status": 1, "address": "\u5171\u548c\u8def219\u53f71\u5c42104\u53f7\u5355\u5143", "name": "\u90bb\u5bb6\u8d85\u5e02 \u90bb\u5bb6\u8d85\u5e02\u5171\u548c\u8def", "id": 202528, "pageNo": 0, "pageCount": null, "pageSize": 10, "ids": null, "endTime": null, "startTime": null}, {"cardNumFive": null, "isSupportYj": null, "cityName": null, "districtName": null, "shopinfo": {"mid": "888002153310932", "good_flag": null, "new_flag": null, "short_name": "\u90bb\u5bb6\u8d85\u5e02", "short_name_pinyin": "linjiachaoshi", "status": null, "address": null, "name": null, "id": "44103"}, "mid": "888002153310932", "shopId": "44103", "netid": null, "province": 901, "district": 601, "zipcode": null, "telephone": null, "posDate": null, "destineTel": null, "togoTel": null, "trafficWay": null, "signBuilding": null, "businessArea": null, "selfRoom": null, "businessTime": null, "stall": null, "consume": null, "serviceFei": null, "favourable": null, "shopMemo": null, "appraise": null, "website": null, "memo": null, "payTypes": "\u6749\u5fb7\u65af\u739b\u7279\u5361", "shopTypes": "\u8d85\u5e02", "consumeTypes": null, "cookTypes": null, "orderNum": 1000, "card4no": null, "card4noAcc": null, "district2": 407, "searchScope": null, "status": 1, "address": "\u5b89\u6ce2\u8def589\u53f71\u5c42", "name": "\u90bb\u5bb6\u8d85\u5e02 \u90bb\u5bb6\u8d85\u5e02\u5b89\u6ce2\u8def", "id": 202529, "pageNo": 0, "pageCount": null, "pageSize": 10, "ids": null, "endTime": null, "startTime": null}, {"cardNumFive": null, "isSupportYj": null, "cityName": null, "districtName": null, "shopinfo": {"mid": "888002153310934", "good_flag": null, "new_flag": null, "short_name": "\u90bb\u5bb6\u8d85\u5e02", "short_name_pinyin": "linjiachaoshi", "status": null, "address": null, "name": null, "id": "43574"}, "mid": "888002153310934", "shopId": "43574", "netid": null, "province": 901, "district": 601, "zipcode": null, "telephone": null, "posDate": null, "destineTel": null, "togoTel": null, "trafficWay": null, "signBuilding": null, "businessArea": null, "selfRoom": null, "businessTime": null, "stall": null, "consume": null, "serviceFei": null, "favourable": null, "shopMemo": null, "appraise": null, "website": null, "memo": null, "payTypes": "\u6749\u5fb7\u65af\u739b\u7279\u5361", "shopTypes": "\u8d85\u5e02", "consumeTypes": null, "cookTypes": null, "orderNum": 1000, "card4no": null, "card4noAcc": null, "district2": 418, "searchScope": null, "status": 1, "address": "\u6d66\u4e1c\u6a31\u82b1\u8def80\u5f041\u5c425\u53f7", "name": "\u90bb\u5bb6\u8d85\u5e02 \u90bb\u5bb6\u8d85\u5e02\u6a31\u82b1\u8def", "id": 202530, "pageNo": 0, "pageCount": null, "pageSize": 10, "ids": null, "endTime": null, "startTime": null}, {"cardNumFive": null, "isSupportYj": null, "cityName": null, "districtName": null, "shopinfo": {"mid": "888002153310935", "good_flag": null, "new_flag": null, "short_name": "\u90bb\u5bb6\u8d85\u5e02", "short_name_pinyin": "linjiachaoshi", "status": null, "address": null, "name": null, "id": "43575"}, "mid": "888002153310935", "shopId": "43575", "netid": null, "province": 901, "district": 601, "zipcode": null, "telephone": null, "posDate": null, "destineTel": null, "togoTel": null, "trafficWay": null, "signBuilding": null, "businessArea": null, "selfRoom": null, "businessTime": null, "stall": null, "consume": null, "serviceFei": null, "favourable": null, "shopMemo": null, "appraise": null, "website": null, "memo": null, "payTypes": "\u6749\u5fb7\u65af\u739b\u7279\u5361", "shopTypes": "\u8d85\u5e02", "consumeTypes": null, "cookTypes": null, "orderNum": 1000, "card4no": null, "card4noAcc": null, "district2": 408, "searchScope": null, "status": 1, "address": "\u4e1c\u5927\u540d\u8def988\u53f71\u5c42F108.F109\u5546\u94fa", "name": "\u90bb\u5bb6\u8d85\u5e02 \u90bb\u5bb6\u8d85\u5e02\u4e1c\u5927\u540d\u8def", "id": 202531, "pageNo": 0, "pageCount": null, "pageSize": 10, "ids": null, "endTime": null, "startTime": null}, {"cardNumFive": null, "isSupportYj": null, "cityName": null, "districtName": null, "shopinfo": {"mid": "888002153310936", "good_flag": null, "new_flag": null, "short_name": "\u90bb\u5bb6\u8d85\u5e02", "short_name_pinyin": "linjiachaoshi", "status": null, "address": null, "name": null, "id": "43594"}, "mid": "888002153310936", "shopId": "43594", "netid": null, "province": 901, "district": 601, "zipcode": null, "telephone": null, "posDate": null, "destineTel": null, "togoTel": null, "trafficWay": null, "signBuilding": null, "businessArea": null, "selfRoom": null, "businessTime": null, "stall": null, "consume": null, "serviceFei": null, "favourable": null, "shopMemo": null, "appraise": null, "website": null, "memo": null, "payTypes": "\u6749\u5fb7\u65af\u739b\u7279\u5361", "shopTypes": "\u8d85\u5e02", "consumeTypes": null, "cookTypes": null, "orderNum": 1000, "card4no": null, "card4noAcc": null, "district2": 401, "searchScope": null, "status": 1, "address": "\u65b0\u95f8\u8def393\u53f7", "name": "\u90bb\u5bb6\u8d85\u5e02 \u90bb\u5bb6\u8d85\u5e02\u65b0\u95f8\u8def\u5e97", "id": 202532, "pageNo": 0, "pageCount": null, "pageSize": 10, "ids": null, "endTime": null, "startTime": null}, {"cardNumFive": null, "isSupportYj": null, "cityName": null, "districtName": null, "shopinfo": {"mid": "888002153310948", "good_flag": null, "new_flag": null, "short_name": "\u90bb\u5bb6\u8d85\u5e02", "short_name_pinyin": "linjiachaoshi", "status": null, "address": null, "name": null, "id": "44104"}, "mid": "888002153310948", "shopId": "44104", "netid": null, "province": 901, "district": 601, "zipcode": null, "telephone": null, "posDate": null, "destineTel": null, "togoTel": null, "trafficWay": null, "signBuilding": null, "businessArea": null, "selfRoom": null, "businessTime": null, "stall": null, "consume": null, "serviceFei": null, "favourable": null, "shopMemo": null, "appraise": null, "website": null, "memo": null, "payTypes": "\u6749\u5fb7\u65af\u739b\u7279\u5361", "shopTypes": "\u8d85\u5e02", "consumeTypes": null, "cookTypes": null, "orderNum": 1000, "card4no": null, "card4noAcc": null, "district2": 410, "searchScope": null, "status": 1, "address": "\u957f\u5174\u8def41-47\u53f7", "name": "\u90bb\u5bb6\u8d85\u5e02 \u90bb\u5bb6\u8d85\u5e02\u957f\u5174\u8def\u5e97", "id": 202533, "pageNo": 0, "pageCount": null, "pageSize": 10, "ids": null, "endTime": null, "startTime": null}, {"cardNumFive": null, "isSupportYj": null, "cityName": null, "districtName": null, "shopinfo": {"mid": "888002153310949", "good_flag": null, "new_flag": null, "short_name": "\u90bb\u5bb6\u8d85\u5e02", "short_name_pinyin": "linjiachaoshi", "status": null, "address": null, "name": null, "id": "44105"}, "mid": "888002153310949", "shopId": "44105", "netid": null, "province": 901, "district": 601, "zipcode": null, "telephone": null, "posDate": null, "destineTel": null, "togoTel": null, "trafficWay": null, "signBuilding": null, "businessArea": null, "selfRoom": null, "businessTime": null, "stall": null, "consume": null, "serviceFei": null, "favourable": null, "shopMemo": null, "appraise": null, "website": null, "memo": null, "payTypes": "\u6749\u5fb7\u65af\u739b\u7279\u5361", "shopTypes": "\u8d85\u5e02", "consumeTypes": null, "cookTypes": null, "orderNum": 1000, "card4no": null, "card4noAcc": null, "district2": 407, "searchScope": null, "status": 1, "address": "\u63a7\u6c5f\u8def2066\u53f71\u5c421F-25\u5355\u5143", "name": "\u90bb\u5bb6\u8d85\u5e02 \u90bb\u5bb6\u8d85\u5e02\u63a7\u6c5f\u8def\u5e97", "id": 202534, "pageNo": 0, "pageCount": null, "pageSize": 10, "ids": null, "endTime": null, "startTime": null}, {"cardNumFive": null, "isSupportYj": null, "cityName": null, "districtName": null, "shopinfo": {"mid": "888002153310950", "good_flag": null, "new_flag": null, "short_name": "\u90bb\u5bb6\u8d85\u5e02", "short_name_pinyin": "linjiachaoshi", "status": null, "address": null, "name": null, "id": "44106"}, "mid": "888002153310950", "shopId": "44106", "netid": null, "province": 901, "district": 601, "zipcode": null, "telephone": null, "posDate": null, "destineTel": null, "togoTel": null, "trafficWay": null, "signBuilding": null, "businessArea": null, "selfRoom": null, "businessTime": null, "stall": null, "consume": null, "serviceFei": null, "favourable": null, "shopMemo": null, "appraise": null, "website": null, "memo": null, "payTypes": "\u6749\u5fb7\u65af\u739b\u7279\u5361", "shopTypes": "\u8d85\u5e02", "consumeTypes": null, "cookTypes": null, "orderNum": 1000, "card4no": null, "card4noAcc": null, "district2": 408, "searchScope": null, "status": 1, "address": "\u56db\u5ddd\u5317\u8def1350\u53f7104-105\u5355\u5143", "name": "\u90bb\u5bb6\u8d85\u5e02 \u90bb\u5bb6\u8d85\u5e02\u56db\u5ddd\u5317\u8def\u5e97", "id": 202535, "pageNo": 0, "pageCount": null, "pageSize": 10, "ids": null, "endTime": null, "startTime": null}, {"cardNumFive": null, "isSupportYj": null, "cityName": null, "districtName": null, "shopinfo": {"mid": "888002153310951", "good_flag": null, "new_flag": null, "short_name": "\u90bb\u5bb6\u8d85\u5e02", "short_name_pinyin": "linjiachaoshi", "status": null, "address": null, "name": null, "id": "44107"}, "mid": "888002153310951", "shopId": "44107", "netid": null, "province": 901, "district": 601, "zipcode": null, "telephone": null, "posDate": null, "destineTel": null, "togoTel": null, "trafficWay": null, "signBuilding": null, "businessArea": null, "selfRoom": null, "businessTime": null, "stall": null, "consume": null, "serviceFei": null, "favourable": null, "shopMemo": null, "appraise": null, "website": null, "memo": null, "payTypes": "\u6749\u5fb7\u65af\u739b\u7279\u5361", "shopTypes": "\u8d85\u5e02", "consumeTypes": null, "cookTypes": null, "orderNum": 1000, "card4no": null, "card4noAcc": null, "district2": 403, "searchScope": null, "status": 1, "address": "\u745e\u5e73\u8def76\u53f7W-131\u5ba4", "name": "\u90bb\u5bb6\u8d85\u5e02 \u90bb\u5bb6\u8d85\u5e02\u745e\u5e73\u8def\u5e97", "id": 202536, "pageNo": 0, "pageCount": null, "pageSize": 10, "ids": null, "endTime": null, "startTime": null}, {"cardNumFive": null, "isSupportYj": null, "cityName": null, "districtName": null, "shopinfo": {"mid": "888002154119927", "good_flag": "2", "new_flag": "2", "short_name": "\u90bb\u5c45\u4e50", "short_name_pinyin": "linjule", "status": null, "address": null, "name": null, "id": "32552"}, "mid": "888002154119927", "shopId": "32552", "netid": null, "province": 901, "district": 601, "zipcode": null, "telephone": "65198708", "posDate": "200911", "destineTel": null, "togoTel": null, "trafficWay": null, "signBuilding": null, "businessArea": null, "selfRoom": null, "businessTime": null, "stall": null, "consume": null, "serviceFei": null, "favourable": null, "shopMemo": null, "appraise": null, "website": null, "memo": null, "payTypes": "\u6749\u5fb7\u5361", "shopTypes": "\u8d85\u5e02", "consumeTypes": null, "cookTypes": null, "orderNum": 1000, "card4no": null, "card4noAcc": null, "district2": 407, "searchScope": null, "status": 1, "address": "\u9686\u660c\u8def211\u53f7", "name": "\u90bb\u5c45\u4e50 \u9686\u660c\u8def\u5e97", "id": 139662, "pageNo": 0, "pageCount": null, "pageSize": 10, "ids": null, "endTime": null, "startTime": null}], "pageLimit": 6440, "size": 10}