{"pageCount": 1095, "count": 10942, "pageNo": 647, "subShopInfo": {"cardNumFive": "", "isSupportYj": "", "cityName": null, "districtName": null, "shopinfo": {"mid": null, "good_flag": null, "new_flag": null, "short_name": null, "short_name_pinyin": null, "status": null, "address": "", "name": "", "id": null}, "mid": null, "shopId": null, "netid": null, "province": 901, "district": null, "zipcode": null, "telephone": null, "posDate": null, "destineTel": null, "togoTel": null, "trafficWay": null, "signBuilding": null, "businessArea": null, "selfRoom": null, "businessTime": null, "stall": null, "consume": null, "serviceFei": null, "favourable": null, "shopMemo": "1", "appraise": null, "website": null, "memo": null, "payTypes": "", "shopTypes": "", "consumeTypes": null, "cookTypes": null, "orderNum": null, "card4no": null, "card4noAcc": null, "district2": null, "searchScope": null, "status": null, "address": "", "name": null, "id": null, "pageNo": 646, "pageCount": null, "pageSize": 10, "ids": null, "endTime": null, "startTime": null}, "list": [{"cardNumFive": null, "isSupportYj": null, "cityName": null, "districtName": null, "shopinfo": {"mid": "888888857190040", "good_flag": "2", "new_flag": "2", "short_name": "\u7f57\u83b1\u5bb6\u7eba", "short_name_pinyin": "luolaijiafang", "status": null, "address": null, "name": null, "id": "32586"}, "mid": "888888857190040", "shopId": "32586", "netid": null, "province": 901, "district": 601, "zipcode": null, "telephone": "52040271", "posDate": "20090414", "destineTel": null, "togoTel": null, "trafficWay": null, "signBuilding": null, "businessArea": null, "selfRoom": null, "businessTime": null, "stall": null, "consume": null, "serviceFei": null, "favourable": null, "shopMemo": null, "appraise": null, "website": null, "memo": null, "payTypes": "\u6749\u5fb7\u5361", "shopTypes": "\u670d\u9970\u5bb6\u7eba", "consumeTypes": null, "cookTypes": null, "orderNum": 1000, "card4no": null, "card4noAcc": null, "district2": 405, "searchScope": null, "status": 1, "address": "\u5149\u65b0\u8def211\u53f7", "name": "\u7f57\u83b1\u5bb6\u7eba \u5149\u65b0\u8def\u5e97", "id": 139732, "pageNo": 0, "pageCount": null, "pageSize": 10, "ids": null, "endTime": null, "startTime": null}, {"cardNumFive": null, "isSupportYj": null, "cityName": null, "districtName": null, "shopinfo": {"mid": "888888857190040", "good_flag": "2", "new_flag": "2", "short_name": "\u7f57\u83b1\u5bb6\u7eba", "short_name_pinyin": "luolaijiafang", "status": null, "address": null, "name": null, "id": "32586"}, "mid": "888888857190040", "shopId": "32586", "netid": null, "province": 901, "district": 601, "zipcode": null, "telephone": "63665743", "posDate": "20090414", "destineTel": null, "togoTel": null, "trafficWay": null, "signBuilding": null, "businessArea": null, "selfRoom": null, "businessTime": null, "stall": null, "consume": null, "serviceFei": null, "favourable": null, "shopMemo": null, "appraise": null, "website": null, "memo": null, "payTypes": "\u6749\u5fb7\u5361", "shopTypes": "\u670d\u9970\u5bb6\u7eba", "consumeTypes": null, "cookTypes": null, "orderNum": 1000, "card4no": null, "card4noAcc": null, "district2": 401, "searchScope": null, "status": 1, "address": "\u4e2d\u534e\u8def1407\u53f7", "name": "\u7f57\u83b1\u5bb6\u7eba \u8001\u897f\u95e8\u5e97", "id": 139733, "pageNo": 0, "pageCount": null, "pageSize": 10, "ids": null, "endTime": null, "startTime": null}, {"cardNumFive": null, "isSupportYj": null, "cityName": null, "districtName": null, "shopinfo": {"mid": "888888857190040", "good_flag": "2", "new_flag": "2", "short_name": "\u7f57\u83b1\u5bb6\u7eba", "short_name_pinyin": "luolaijiafang", "status": null, "address": null, "name": null, "id": "32586"}, "mid": "888888857190040", "shopId": "32586", "netid": null, "province": 901, "district": 601, "zipcode": null, "telephone": "65211489", "posDate": "20090414", "destineTel": null, "togoTel": null, "trafficWay": null, "signBuilding": null, "businessArea": null, "selfRoom": null, "businessTime": null, "stall": null, "consume": null, "serviceFei": null, "favourable": null, "shopMemo": null, "appraise": null, "website": null, "memo": null, "payTypes": "\u6749\u5fb7\u5361", "shopTypes": "\u670d\u9970\u5bb6\u7eba", "consumeTypes": null, "cookTypes": null, "orderNum": 1000, "card4no": null, "card4noAcc": null, "district2": 408, "searchScope": null, "status": 1, "address": "\u4e34\u5e73\u5317\u8def5\u5f042\u53f7\u5e95\u5c42", "name": "\u7f57\u83b1\u5bb6\u7eba \u4e34\u5e73\u5317\u8def\u5e97", "id": 139734, "pageNo": 0, "pageCount": null, "pageSize": 10, "ids": null, "endTime": null, "startTime": null}, {"cardNumFive": null, "isSupportYj": null, "cityName": null, "districtName": null, "shopinfo": {"mid": "888888857190040", "good_flag": "2", "new_flag": "2", "short_name": "\u7f57\u83b1\u5bb6\u7eba", "short_name_pinyin": "luolaijiafang", "status": null, "address": null, "name": null, "id": "32586"}, "mid": "888888857190040", "shopId": "32586", "netid": null, "province": 901, "district": 601, "zipcode": null, "telephone": "64982129", "posDate": "20090414", "destineTel": null, "togoTel": null, "trafficWay": null, "signBuilding": null, "businessArea": null, "selfRoom": null, "businessTime": null, "stall": null, "consume": null, "serviceFei": null, "favourable": null, "shopMemo": null, "appraise": null, "website": null, "memo": null, "payTypes": "\u6749\u5fb7\u5361", "shopTypes": "\u670d\u9970\u5bb6\u7eba", "consumeTypes": null, "cookTypes": null, "orderNum": 1000, "card4no": null, "card4noAcc": null, "district2": 409, "searchScope": null, "status": 1, "address": "\u8398\u5efa\u8def146\u53f7,148\u53f7\u5e95\u5c42", "name": "\u7f57\u83b1\u5bb6\u7eba \u8398\u5e84\u5e97", "id": 139737, "pageNo": 0, "pageCount": null, "pageSize": 10, "ids": null, "endTime": null, "startTime": null}, {"cardNumFive": null, "isSupportYj": null, "cityName": null, "districtName": null, "shopinfo": {"mid": "888888857190040", "good_flag": "2", "new_flag": "2", "short_name": "\u7f57\u83b1\u5bb6\u7eba", "short_name_pinyin": "luolaijiafang", "status": null, "address": null, "name": null, "id": "32586"}, "mid": "888888857190040", "shopId": "32586", "netid": null, "province": 901, "district": 601, "zipcode": null, "telephone": "66341009", "posDate": "20090427", "destineTel": null, "togoTel": null, "trafficWay": null, "signBuilding": null, "businessArea": null, "selfRoom": null, "businessTime": null, "stall": null, "consume": null, "serviceFei": null, "favourable": null, "shopMemo": null, "appraise": null, "website": null, "memo": null, "payTypes": "\u6749\u5fb7\u5361", "shopTypes": "\u670d\u9970\u5bb6\u7eba", "consumeTypes": null, "cookTypes": null, "orderNum": 1000, "card4no": null, "card4noAcc": null, "district2": 416, "searchScope": null, "status": 1, "address": "\u884c\u77e5\u8def331\u53f7", "name": "\u7f57\u83b1\u5bb6\u7eba \u884c\u77e5\u8def\u5e97", "id": 139738, "pageNo": 0, "pageCount": null, "pageSize": 10, "ids": null, "endTime": null, "startTime": null}, {"cardNumFive": null, "isSupportYj": null, "cityName": null, "districtName": null, "shopinfo": {"mid": "888888857190040", "good_flag": "2", "new_flag": "2", "short_name": "\u7f57\u83b1\u5bb6\u7eba", "short_name_pinyin": "luolaijiafang", "status": null, "address": null, "name": null, "id": "32586"}, "mid": "888888857190040", "shopId": "32586", "netid": null, "province": 901, "district": 601, "zipcode": null, "telephone": "51305465", "posDate": "20090414", "destineTel": null, "togoTel": null, "trafficWay": null, "signBuilding": null, "businessArea": null, "selfRoom": null, "businessTime": null, "stall": null, "consume": null, "serviceFei": null, "favourable": null, "shopMemo": null, "appraise": null, "website": null, "memo": null, "payTypes": "\u6749\u5fb7\u5361", "shopTypes": "\u670d\u9970\u5bb6\u7eba", "consumeTypes": null, "cookTypes": null, "orderNum": 1000, "card4no": null, "card4noAcc": null, "district2": 418, "searchScope": null, "status": 1, "address": "\u7fbd\u5c71\u8def126\u53f7", "name": "\u7f57\u83b1\u5bb6\u7eba \u7fbd\u5c71\u8def\u5e97", "id": 139741, "pageNo": 0, "pageCount": null, "pageSize": 10, "ids": null, "endTime": null, "startTime": null}, {"cardNumFive": null, "isSupportYj": null, "cityName": null, "districtName": null, "shopinfo": {"mid": "888888859120088", "good_flag": "2", "new_flag": "2", "short_name": "\u7eff\u6e90\u5927\u836f\u623f", "short_name_pinyin": "luyuandayaofang", "status": null, "address": null, "name": null, "id": "32584"}, "mid": "888888859120088", "shopId": "32584", "netid": null, "province": 901, "district": 601, "zipcode": null, "telephone": "54196662", "posDate": "20080124", "destineTel": null, "togoTel": null, "trafficWay": "\u516c\u4ea4803 755 43", "signBuilding": null, "businessArea": "150\u5e73\u65b9\u7c73", "selfRoom": null, "businessTime": "7:30~21:00", "stall": "\u6709", "consume": null, "serviceFei": null, "favourable": null, "shopMemo": null, "appraise": null, "website": null, "memo": null, "payTypes": "\u6749\u5fb7\u5361", "shopTypes": "\u836f\u5e97", "consumeTypes": null, "cookTypes": null, "orderNum": 1000, "card4no": null, "card4noAcc": null, "district2": 403, "searchScope": null, "status": 1, "address": "\u6842\u6797\u897f\u885766\u53f7", "name": "\u7eff\u6e90\u5927\u836f\u623f \u6842\u6797\u897f\u8857\u5e97", "id": 139729, "pageNo": 0, "pageCount": null, "pageSize": 10, "ids": null, "endTime": null, "startTime": null}, {"cardNumFive": null, "isSupportYj": null, "cityName": null, "districtName": null, "shopinfo": {"mid": "888888854410093", "good_flag": "2", "new_flag": "2", "short_name": "\u9646\u7fbd\u8336\u5e84", "short_name_pinyin": "luyuchazhuang", "status": null, "address": null, "name": null, "id": "32579"}, "mid": "888888854410093", "shopId": "32579", "netid": null, "province": 901, "district": 601, "zipcode": null, "telephone": "64454827", "posDate": "20080530", "destineTel": null, "togoTel": null, "trafficWay": "\u516c\u4ea4128 167 864", "signBuilding": null, "businessArea": "50\u5e73\u65b9\u7c73", "selfRoom": null, "businessTime": "8:00~22:00", "stall": null, "consume": "100\u5143", "serviceFei": null, "favourable": null, "shopMemo": null, "appraise": null, "website": null, "memo": null, "payTypes": "\u6749\u5fb7\u5361", "shopTypes": "\u96f6\u552e", "consumeTypes": null, "cookTypes": null, "orderNum": 1000, "card4no": null, "card4noAcc": null, "district2": 403, "searchScope": null, "status": 1, "address": "\u9655\u897f\u5357\u8def508\u53f7", "name": "\u9646\u7fbd\u8336\u5e84 \u9655\u897f\u5357\u8def\u5e97", "id": 139701, "pageNo": 0, "pageCount": null, "pageSize": 10, "ids": null, "endTime": null, "startTime": null}, {"cardNumFive": null, "isSupportYj": null, "cityName": null, "districtName": null, "shopinfo": {"mid": "888888859120183", "good_flag": "2", "new_flag": "2", "short_name": "\u9646\u821f\u836f\u5e97", "short_name_pinyin": "luzhouyaodian", "status": null, "address": null, "name": null, "id": "32580"}, "mid": "888888859120183", "shopId": "32580", "netid": null, "province": 901, "district": 601, "zipcode": null, "telephone": "50450868", "posDate": null, "destineTel": null, "togoTel": null, "trafficWay": "607\u3001792", "signBuilding": null, "businessArea": null, "selfRoom": null, "businessTime": null, "stall": null, "consume": null, "serviceFei": null, "favourable": null, "shopMemo": null, "appraise": null, "website": null, "memo": null, "payTypes": "\u6749\u5fb7\u5361", "shopTypes": "\u836f\u5e97", "consumeTypes": null, "cookTypes": null, "orderNum": 1000, "card4no": null, "card4noAcc": null, "district2": 418, "searchScope": null, "status": 1, "address": "\u9526\u5b89\u897f\u8def54\u53f7", "name": "\u9646\u821f\u836f\u5e97 \u9526\u5b89\u897f\u8def\u5e97", "id": 139702, "pageNo": 0, "pageCount": null, "pageSize": 10, "ids": null, "endTime": null, "startTime": null}, {"cardNumFive": null, "isSupportYj": null, "cityName": null, "districtName": null, "shopinfo": {"mid": "888002159121189", "good_flag": "2", "new_flag": "2", "short_name": "\u9646\u821f\u533b\u836f", "short_name_pinyin": "luzhouyiyao", "status": null, "address": null, "name": null, "id": "32581"}, "mid": "888002159121189", "shopId": "32581", "netid": null, "province": 901, "district": 601, "zipcode": null, "telephone": "50182007", "posDate": "200911", "destineTel": null, "togoTel": null, "trafficWay": null, "signBuilding": null, "businessArea": null, "selfRoom": null, "businessTime": "9:00~20:00", "stall": null, "consume": null, "serviceFei": null, "favourable": null, "shopMemo": null, "appraise": null, "website": null, "memo": null, "payTypes": "\u6749\u5fb7\u5361", "shopTypes": "\u836f\u5e97", "consumeTypes": null, "cookTypes": null, "orderNum": 1000, "card4no": null, "card4noAcc": null, "district2": 418, "searchScope": null, "status": 1, "address": "\u91d1\u8c6b\u8def50\u5f0467\u300171\u53f7", "name": "\u9646\u821f\u533b\u836f \u91d1\u8c6b\u8def\u5e97", "id": 139703, "pageNo": 0, "pageCount": null, "pageSize": 10, "ids": null, "endTime": null, "startTime": null}], "pageLimit": 6460, "size": 10}