{"pageCount": 1095, "count": 10942, "pageNo": 654, "subShopInfo": {"cardNumFive": "", "isSupportYj": "", "cityName": null, "districtName": null, "shopinfo": {"mid": null, "good_flag": null, "new_flag": null, "short_name": null, "short_name_pinyin": null, "status": null, "address": "", "name": "", "id": null}, "mid": null, "shopId": null, "netid": null, "province": 901, "district": null, "zipcode": null, "telephone": null, "posDate": null, "destineTel": null, "togoTel": null, "trafficWay": null, "signBuilding": null, "businessArea": null, "selfRoom": null, "businessTime": null, "stall": null, "consume": null, "serviceFei": null, "favourable": null, "shopMemo": "1", "appraise": null, "website": null, "memo": null, "payTypes": "", "shopTypes": "", "consumeTypes": null, "cookTypes": null, "orderNum": null, "card4no": null, "card4noAcc": null, "district2": null, "searchScope": null, "status": null, "address": "", "name": null, "id": null, "pageNo": 653, "pageCount": null, "pageSize": 10, "ids": null, "endTime": null, "startTime": null}, "list": [{"cardNumFive": null, "isSupportYj": null, "cityName": null, "districtName": null, "shopinfo": {"mid": "888002158140001", "good_flag": null, "new_flag": "2", "short_name": "\u9ea6\u5f53\u52b3", "short_name_pinyin": "maidanglao", "status": null, "address": null, "name": null, "id": "32599"}, "mid": "888002158140001", "shopId": "32599", "netid": null, "province": 901, "district": 601, "zipcode": null, "telephone": "63074654", "posDate": null, "destineTel": null, "togoTel": null, "trafficWay": null, "signBuilding": null, "businessArea": null, "selfRoom": null, "businessTime": null, "stall": null, "consume": null, "serviceFei": null, "favourable": null, "shopMemo": null, "appraise": null, "website": null, "memo": null, "payTypes": "\u6749\u5fb7\u5361", "shopTypes": "\u9910\u996e", "consumeTypes": null, "cookTypes": null, "orderNum": 1000, "card4no": null, "card4noAcc": null, "district2": 410, "searchScope": null, "status": 1, "address": "\u6cb3\u5357\u5317\u8def79?81\u53f7\u8054\u5bcc\u5546\u573a\u4e8c\u697c", "name": "\u9ea6\u5f53\u52b3 \u4e03\u6d66\u8def\u5e97", "id": 139840, "pageNo": 0, "pageCount": null, "pageSize": 10, "ids": null, "endTime": null, "startTime": null}, {"cardNumFive": null, "isSupportYj": null, "cityName": null, "districtName": null, "shopinfo": {"mid": "888002158140001", "good_flag": null, "new_flag": "2", "short_name": "\u9ea6\u5f53\u52b3", "short_name_pinyin": "maidanglao", "status": null, "address": null, "name": null, "id": "32599"}, "mid": "888002158140001", "shopId": "32599", "netid": null, "province": 901, "district": 601, "zipcode": null, "telephone": "51590071", "posDate": null, "destineTel": null, "togoTel": null, "trafficWay": null, "signBuilding": null, "businessArea": null, "selfRoom": null, "businessTime": null, "stall": null, "consume": null, "serviceFei": null, "favourable": null, "shopMemo": null, "appraise": null, "website": null, "memo": null, "payTypes": "\u6749\u5fb7\u5361", "shopTypes": "\u9910\u996e", "consumeTypes": null, "cookTypes": null, "orderNum": 1000, "card4no": null, "card4noAcc": null, "district2": 409, "searchScope": null, "status": 1, "address": "\u4e03\u8398\u8def3755\u53f7", "name": "\u9ea6\u5f53\u52b3 \u4e03\u8398\u8def\u5e97", "id": 139841, "pageNo": 0, "pageCount": null, "pageSize": 10, "ids": null, "endTime": null, "startTime": null}, {"cardNumFive": null, "isSupportYj": null, "cityName": null, "districtName": null, "shopinfo": {"mid": "888002158140001", "good_flag": null, "new_flag": "2", "short_name": "\u9ea6\u5f53\u52b3", "short_name_pinyin": "maidanglao", "status": null, "address": null, "name": null, "id": "32599"}, "mid": "888002158140001", "shopId": "32599", "netid": null, "province": 901, "district": 601, "zipcode": null, "telephone": "56130270", "posDate": null, "destineTel": null, "togoTel": null, "trafficWay": null, "signBuilding": null, "businessArea": null, "selfRoom": null, "businessTime": null, "stall": null, "consume": null, "serviceFei": null, "favourable": null, "shopMemo": null, "appraise": null, "website": null, "memo": null, "payTypes": "\u6749\u5fb7\u5361", "shopTypes": "\u9910\u996e", "consumeTypes": null, "cookTypes": null, "orderNum": 1000, "card4no": null, "card4noAcc": null, "district2": 416, "searchScope": null, "status": 1, "address": "\u805a\u4e30\u56ed\u8def205\u53f7", "name": "\u9ea6\u5f53\u52b3 \u7941\u8fde\u5c71\u8def\u5e97", "id": 139842, "pageNo": 0, "pageCount": null, "pageSize": 10, "ids": null, "endTime": null, "startTime": null}, {"cardNumFive": null, "isSupportYj": null, "cityName": null, "districtName": null, "shopinfo": {"mid": "888002158140001", "good_flag": null, "new_flag": "2", "short_name": "\u9ea6\u5f53\u52b3", "short_name_pinyin": "maidanglao", "status": null, "address": null, "name": null, "id": "32599"}, "mid": "888002158140001", "shopId": "32599", "netid": null, "province": 901, "district": 601, "zipcode": null, "telephone": "59727697", "posDate": null, "destineTel": null, "togoTel": null, "trafficWay": null, "signBuilding": null, "businessArea": null, "selfRoom": null, "businessTime": null, "stall": null, "consume": null, "serviceFei": null, "favourable": null, "shopMemo": null, "appraise": null, "website": null, "memo": null, "payTypes": "\u6749\u5fb7\u5361", "shopTypes": "\u9910\u996e", "consumeTypes": null, "cookTypes": null, "orderNum": 1000, "card4no": null, "card4noAcc": null, "district2": 417, "searchScope": null, "status": 1, "address": "\u9752\u5b89\u8def55-59\u53f7", "name": "\u9ea6\u5f53\u52b3 \u9752\u6d66\u5e97", "id": 139843, "pageNo": 0, "pageCount": null, "pageSize": 10, "ids": null, "endTime": null, "startTime": null}, {"cardNumFive": null, "isSupportYj": null, "cityName": null, "districtName": null, "shopinfo": {"mid": "888002158140001", "good_flag": null, "new_flag": "2", "short_name": "\u9ea6\u5f53\u52b3", "short_name_pinyin": "maidanglao", "status": null, "address": null, "name": null, "id": "32599"}, "mid": "888002158140001", "shopId": "32599", "netid": null, "province": 901, "district": 601, "zipcode": null, "telephone": "65537641", "posDate": null, "destineTel": null, "togoTel": null, "trafficWay": null, "signBuilding": null, "businessArea": null, "selfRoom": null, "businessTime": null, "stall": null, "consume": null, "serviceFei": null, "favourable": null, "shopMemo": null, "appraise": null, "website": null, "memo": null, "payTypes": "\u6749\u5fb7\u5361", "shopTypes": "\u9910\u996e", "consumeTypes": null, "cookTypes": null, "orderNum": 1000, "card4no": null, "card4noAcc": null, "district2": 408, "searchScope": null, "status": 1, "address": "\u66f2\u9633\u8def570\u53f7", "name": "\u9ea6\u5f53\u52b3 \u66f2\u9633\u5e97", "id": 139844, "pageNo": 0, "pageCount": null, "pageSize": 10, "ids": null, "endTime": null, "startTime": null}, {"cardNumFive": null, "isSupportYj": null, "cityName": null, "districtName": null, "shopinfo": {"mid": "888002158140001", "good_flag": null, "new_flag": "2", "short_name": "\u9ea6\u5f53\u52b3", "short_name_pinyin": "maidanglao", "status": null, "address": null, "name": null, "id": "32599"}, "mid": "888002158140001", "shopId": "32599", "netid": null, "province": 901, "district": 601, "zipcode": null, "telephone": "58794907", "posDate": null, "destineTel": null, "togoTel": null, "trafficWay": null, "signBuilding": null, "businessArea": null, "selfRoom": null, "businessTime": null, "stall": null, "consume": null, "serviceFei": null, "favourable": null, "shopMemo": null, "appraise": null, "website": null, "memo": null, "payTypes": "\u6749\u5fb7\u5361", "shopTypes": "\u9910\u996e", "consumeTypes": null, "cookTypes": null, "orderNum": 1000, "card4no": null, "card4noAcc": null, "district2": 418, "searchScope": null, "status": 1, "address": "\u4e73\u5c71\u8def135\u53f7", "name": "\u9ea6\u5f53\u52b3 \u4e73\u5c71\u8def\u5e97", "id": 139845, "pageNo": 0, "pageCount": null, "pageSize": 10, "ids": null, "endTime": null, "startTime": null}, {"cardNumFive": null, "isSupportYj": null, "cityName": null, "districtName": null, "shopinfo": {"mid": "888002158140001", "good_flag": null, "new_flag": "2", "short_name": "\u9ea6\u5f53\u52b3", "short_name_pinyin": "maidanglao", "status": null, "address": null, "name": null, "id": "32599"}, "mid": "888002158140001", "shopId": "32599", "netid": null, "province": 901, "district": 601, "zipcode": null, "telephone": "62370249", "posDate": null, "destineTel": null, "togoTel": null, "trafficWay": null, "signBuilding": null, "businessArea": null, "selfRoom": null, "businessTime": null, "stall": null, "consume": null, "serviceFei": null, "favourable": null, "shopMemo": null, "appraise": null, "website": null, "memo": null, "payTypes": "\u6749\u5fb7\u5361", "shopTypes": "\u9910\u996e", "consumeTypes": null, "cookTypes": null, "orderNum": 1000, "card4no": null, "card4noAcc": null, "district2": 406, "searchScope": null, "status": 1, "address": "\u9075\u4e49\u8def100\u53f7", "name": "\u9ea6\u5f53\u52b3 \u4e0a\u6d77\u57ce\u5e97", "id": 139846, "pageNo": 0, "pageCount": null, "pageSize": 10, "ids": null, "endTime": null, "startTime": null}, {"cardNumFive": null, "isSupportYj": null, "cityName": null, "districtName": null, "shopinfo": {"mid": "888002158140001", "good_flag": null, "new_flag": "2", "short_name": "\u9ea6\u5f53\u52b3", "short_name_pinyin": "maidanglao", "status": null, "address": null, "name": null, "id": "32599"}, "mid": "888002158140001", "shopId": "32599", "netid": null, "province": 901, "district": 601, "zipcode": null, "telephone": "63756028", "posDate": null, "destineTel": null, "togoTel": null, "trafficWay": null, "signBuilding": null, "businessArea": null, "selfRoom": null, "businessTime": null, "stall": null, "consume": null, "serviceFei": null, "favourable": null, "shopMemo": null, "appraise": null, "website": null, "memo": null, "payTypes": "\u6749\u5fb7\u5361", "shopTypes": "\u9910\u996e", "consumeTypes": null, "cookTypes": null, "orderNum": 1000, "card4no": null, "card4noAcc": null, "district2": 401, "searchScope": null, "status": 1, "address": "\u6dee\u6d77\u4e2d\u8def138\u53f7", "name": "\u9ea6\u5f53\u52b3 \u4e0a\u6d77\u5e7f\u573a\u5e97", "id": 139847, "pageNo": 0, "pageCount": null, "pageSize": 10, "ids": null, "endTime": null, "startTime": null}, {"cardNumFive": null, "isSupportYj": null, "cityName": null, "districtName": null, "shopinfo": {"mid": "888002158140001", "good_flag": null, "new_flag": "2", "short_name": "\u9ea6\u5f53\u52b3", "short_name_pinyin": "maidanglao", "status": null, "address": null, "name": null, "id": "32599"}, "mid": "888002158140001", "shopId": "32599", "netid": null, "province": 901, "district": 601, "zipcode": null, "telephone": "63514590", "posDate": null, "destineTel": null, "togoTel": null, "trafficWay": null, "signBuilding": null, "businessArea": null, "selfRoom": null, "businessTime": null, "stall": null, "consume": null, "serviceFei": null, "favourable": null, "shopMemo": null, "appraise": null, "website": null, "memo": null, "payTypes": "\u6749\u5fb7\u5361", "shopTypes": "\u9910\u996e", "consumeTypes": null, "cookTypes": null, "orderNum": 1000, "card4no": null, "card4noAcc": null, "district2": 401, "searchScope": null, "status": 1, "address": "\u5357\u4eac\u4e1c\u8def720\u53f7", "name": "\u9ea6\u5f53\u52b3 \u98df\u54c1\u4e00\u5e97", "id": 139848, "pageNo": 0, "pageCount": null, "pageSize": 10, "ids": null, "endTime": null, "startTime": null}, {"cardNumFive": null, "isSupportYj": null, "cityName": null, "districtName": null, "shopinfo": {"mid": "888002158140001", "good_flag": null, "new_flag": "2", "short_name": "\u9ea6\u5f53\u52b3", "short_name_pinyin": "maidanglao", "status": null, "address": null, "name": null, "id": "32599"}, "mid": "888002158140001", "shopId": "32599", "netid": null, "province": 901, "district": 601, "zipcode": null, "telephone": "63571035", "posDate": null, "destineTel": null, "togoTel": null, "trafficWay": null, "signBuilding": null, "businessArea": null, "selfRoom": null, "businessTime": null, "stall": null, "consume": null, "serviceFei": null, "favourable": null, "shopMemo": null, "appraise": null, "website": null, "memo": null, "payTypes": "\u6749\u5fb7\u5361", "shopTypes": "\u9910\u996e", "consumeTypes": null, "cookTypes": null, "orderNum": 1000, "card4no": null, "card4noAcc": null, "district2": 408, "searchScope": null, "status": 1, "address": "\u56db\u5ddd\u5317\u8def1500\u53f7", "name": "\u9ea6\u5f53\u52b3 \u56db\u5ddd\u5317\u8def\u5e97", "id": 139849, "pageNo": 0, "pageCount": null, "pageSize": 10, "ids": null, "endTime": null, "startTime": null}], "pageLimit": 6530, "size": 10}