{"pageCount": 1095, "count": 10942, "pageNo": 656, "subShopInfo": {"cardNumFive": "", "isSupportYj": "", "cityName": null, "districtName": null, "shopinfo": {"mid": null, "good_flag": null, "new_flag": null, "short_name": null, "short_name_pinyin": null, "status": null, "address": "", "name": "", "id": null}, "mid": null, "shopId": null, "netid": null, "province": 901, "district": null, "zipcode": null, "telephone": null, "posDate": null, "destineTel": null, "togoTel": null, "trafficWay": null, "signBuilding": null, "businessArea": null, "selfRoom": null, "businessTime": null, "stall": null, "consume": null, "serviceFei": null, "favourable": null, "shopMemo": "1", "appraise": null, "website": null, "memo": null, "payTypes": "", "shopTypes": "", "consumeTypes": null, "cookTypes": null, "orderNum": null, "card4no": null, "card4noAcc": null, "district2": null, "searchScope": null, "status": null, "address": "", "name": null, "id": null, "pageNo": 655, "pageCount": null, "pageSize": 10, "ids": null, "endTime": null, "startTime": null}, "list": [{"cardNumFive": null, "isSupportYj": null, "cityName": null, "districtName": null, "shopinfo": {"mid": "888002158140001", "good_flag": null, "new_flag": "2", "short_name": "\u9ea6\u5f53\u52b3", "short_name_pinyin": "maidanglao", "status": null, "address": null, "name": null, "id": "32599"}, "mid": "888002158140001", "shopId": "32599", "netid": null, "province": 901, "district": 601, "zipcode": null, "telephone": "65103773", "posDate": null, "destineTel": null, "togoTel": null, "trafficWay": null, "signBuilding": null, "businessArea": null, "selfRoom": null, "businessTime": null, "stall": null, "consume": null, "serviceFei": null, "favourable": null, "shopMemo": null, "appraise": null, "website": null, "memo": null, "payTypes": "\u6749\u5fb7\u5361", "shopTypes": "\u9910\u996e", "consumeTypes": null, "cookTypes": null, "orderNum": 1000, "card4no": null, "card4noAcc": null, "district2": 407, "searchScope": null, "status": 1, "address": "\u6dde\u6caa\u8def161\u53f7", "name": "\u9ea6\u5f53\u52b3 \u4e94\u89d2\u573a\u5e97", "id": 139860, "pageNo": 0, "pageCount": null, "pageSize": 10, "ids": null, "endTime": null, "startTime": null}, {"cardNumFive": null, "isSupportYj": null, "cityName": null, "districtName": null, "shopinfo": {"mid": "888002158140001", "good_flag": null, "new_flag": "2", "short_name": "\u9ea6\u5f53\u52b3", "short_name_pinyin": "maidanglao", "status": null, "address": null, "name": null, "id": "32599"}, "mid": "888002158140001", "shopId": "32599", "netid": null, "province": 901, "district": 601, "zipcode": null, "telephone": "62164389", "posDate": null, "destineTel": null, "togoTel": null, "trafficWay": null, "signBuilding": null, "businessArea": null, "selfRoom": null, "businessTime": null, "stall": null, "consume": null, "serviceFei": null, "favourable": null, "shopMemo": null, "appraise": null, "website": null, "memo": null, "payTypes": "\u6749\u5fb7\u5361", "shopTypes": "\u9910\u996e", "consumeTypes": null, "cookTypes": null, "orderNum": 1000, "card4no": null, "card4noAcc": null, "district2": 405, "searchScope": null, "status": 1, "address": "\u6b66\u5b81\u8def231\u53f7", "name": "\u9ea6\u5f53\u52b3 \u6b66\u5b81\u8def\u5e97", "id": 139861, "pageNo": 0, "pageCount": null, "pageSize": 10, "ids": null, "endTime": null, "startTime": null}, {"cardNumFive": null, "isSupportYj": null, "cityName": null, "districtName": null, "shopinfo": {"mid": "888002158140001", "good_flag": null, "new_flag": "2", "short_name": "\u9ea6\u5f53\u52b3", "short_name_pinyin": "maidanglao", "status": null, "address": null, "name": null, "id": "32599"}, "mid": "888002158140001", "shopId": "32599", "netid": null, "province": 901, "district": 601, "zipcode": null, "telephone": "62970081", "posDate": null, "destineTel": null, "togoTel": null, "trafficWay": null, "signBuilding": null, "businessArea": null, "selfRoom": null, "businessTime": null, "stall": null, "consume": null, "serviceFei": null, "favourable": null, "shopMemo": null, "appraise": null, "website": null, "memo": null, "payTypes": "\u6749\u5fb7\u5361", "shopTypes": "\u9910\u996e", "consumeTypes": null, "cookTypes": null, "orderNum": 1000, "card4no": null, "card4noAcc": null, "district2": 405, "searchScope": null, "status": 1, "address": "\u5170\u6eaa\u8def\u66f9\u6768\u4e00\u6751181\u53f7", "name": "\u9ea6\u5f53\u52b3 \u897f\u90e8\u5e7f\u573a\u5e97", "id": 139862, "pageNo": 0, "pageCount": null, "pageSize": 10, "ids": null, "endTime": null, "startTime": null}, {"cardNumFive": null, "isSupportYj": null, "cityName": null, "districtName": null, "shopinfo": {"mid": "888002158140001", "good_flag": null, "new_flag": "2", "short_name": "\u9ea6\u5f53\u52b3", "short_name_pinyin": "maidanglao", "status": null, "address": null, "name": null, "id": "32599"}, "mid": "888002158140001", "shopId": "32599", "netid": null, "province": 901, "district": 601, "zipcode": null, "telephone": "63346416", "posDate": null, "destineTel": null, "togoTel": null, "trafficWay": null, "signBuilding": null, "businessArea": null, "selfRoom": null, "businessTime": null, "stall": null, "consume": null, "serviceFei": null, "favourable": null, "shopMemo": null, "appraise": null, "website": null, "memo": null, "payTypes": "\u6749\u5fb7\u5361", "shopTypes": "\u9910\u996e", "consumeTypes": null, "cookTypes": null, "orderNum": 1000, "card4no": null, "card4noAcc": null, "district2": 404, "searchScope": null, "status": 1, "address": "\u5357\u4eac\u897f\u8def388\u53f7", "name": "\u9ea6\u5f53\u52b3 \u4ed9\u4e50\u65af\u5e97", "id": 139863, "pageNo": 0, "pageCount": null, "pageSize": 10, "ids": null, "endTime": null, "startTime": null}, {"cardNumFive": null, "isSupportYj": null, "cityName": null, "districtName": null, "shopinfo": {"mid": "888002158140001", "good_flag": null, "new_flag": "2", "short_name": "\u9ea6\u5f53\u52b3", "short_name_pinyin": "maidanglao", "status": null, "address": null, "name": null, "id": "32599"}, "mid": "888002158140001", "shopId": "32599", "netid": null, "province": 901, "district": 601, "zipcode": null, "telephone": "52197931", "posDate": null, "destineTel": null, "togoTel": null, "trafficWay": null, "signBuilding": null, "businessArea": null, "selfRoom": null, "businessTime": null, "stall": null, "consume": null, "serviceFei": null, "favourable": null, "shopMemo": null, "appraise": null, "website": null, "memo": null, "payTypes": "\u6749\u5fb7\u5361", "shopTypes": "\u9910\u996e", "consumeTypes": null, "cookTypes": null, "orderNum": 1000, "card4no": null, "card4noAcc": null, "district2": 406, "searchScope": null, "status": 1, "address": "\u4ed9\u971e\u897f\u8def88\u53f7", "name": "\u9ea6\u5f53\u52b3 \u4ed9\u971e\u8def\u5e97", "id": 139864, "pageNo": 0, "pageCount": null, "pageSize": 10, "ids": null, "endTime": null, "startTime": null}, {"cardNumFive": null, "isSupportYj": null, "cityName": null, "districtName": null, "shopinfo": {"mid": "888002158140001", "good_flag": null, "new_flag": "2", "short_name": "\u9ea6\u5f53\u52b3", "short_name_pinyin": "maidanglao", "status": null, "address": null, "name": null, "id": "32599"}, "mid": "888002158140001", "shopId": "32599", "netid": null, "province": 901, "district": 601, "zipcode": null, "telephone": "58775277", "posDate": null, "destineTel": null, "togoTel": null, "trafficWay": null, "signBuilding": null, "businessArea": null, "selfRoom": null, "businessTime": null, "stall": null, "consume": null, "serviceFei": null, "favourable": null, "shopMemo": null, "appraise": null, "website": null, "memo": null, "payTypes": "\u6749\u5fb7\u5361", "shopTypes": "\u9910\u996e", "consumeTypes": null, "cookTypes": null, "orderNum": 1000, "card4no": null, "card4noAcc": null, "district2": 418, "searchScope": null, "status": 1, "address": "\u6d66\u4e1c\u5357\u8def500\u53f7", "name": "\u9ea6\u5f53\u52b3 \u5c0f\u9646\u5bb6\u5634\u5e97", "id": 139865, "pageNo": 0, "pageCount": null, "pageSize": 10, "ids": null, "endTime": null, "startTime": null}, {"cardNumFive": null, "isSupportYj": null, "cityName": null, "districtName": null, "shopinfo": {"mid": "888002158140001", "good_flag": null, "new_flag": "2", "short_name": "\u9ea6\u5f53\u52b3", "short_name_pinyin": "maidanglao", "status": null, "address": null, "name": null, "id": "32599"}, "mid": "888002158140001", "shopId": "32599", "netid": null, "province": 901, "district": 601, "zipcode": null, "telephone": "57688967", "posDate": null, "destineTel": null, "togoTel": null, "trafficWay": null, "signBuilding": null, "businessArea": null, "selfRoom": null, "businessTime": null, "stall": null, "consume": null, "serviceFei": null, "favourable": null, "shopMemo": null, "appraise": null, "website": null, "memo": null, "payTypes": "\u6749\u5fb7\u5361", "shopTypes": "\u9910\u996e", "consumeTypes": null, "cookTypes": null, "orderNum": 1000, "card4no": null, "card4noAcc": null, "district2": 409, "searchScope": null, "status": 1, "address": "\u8398\u677e\u8def1028\u53f7", "name": "\u9ea6\u5f53\u52b3 \u8398\u677eDT\u5e97", "id": 139867, "pageNo": 0, "pageCount": null, "pageSize": 10, "ids": null, "endTime": null, "startTime": null}, {"cardNumFive": null, "isSupportYj": null, "cityName": null, "districtName": null, "shopinfo": {"mid": "888002158140001", "good_flag": null, "new_flag": "2", "short_name": "\u9ea6\u5f53\u52b3", "short_name_pinyin": "maidanglao", "status": null, "address": null, "name": null, "id": "32599"}, "mid": "888002158140001", "shopId": "32599", "netid": null, "province": 901, "district": 601, "zipcode": null, "telephone": "64152818", "posDate": null, "destineTel": null, "togoTel": null, "trafficWay": null, "signBuilding": null, "businessArea": null, "selfRoom": null, "businessTime": null, "stall": null, "consume": null, "serviceFei": null, "favourable": null, "shopMemo": null, "appraise": null, "website": null, "memo": null, "payTypes": "\u6749\u5fb7\u5361", "shopTypes": "\u9910\u996e", "consumeTypes": null, "cookTypes": null, "orderNum": 1000, "card4no": null, "card4noAcc": null, "district2": 401, "searchScope": null, "status": 1, "address": "\u6dee\u6d77\u4e2d\u8def777\u53f7", "name": "\u9ea6\u5f53\u52b3 \u65b0\u534e\u8054\u5e97", "id": 139869, "pageNo": 0, "pageCount": null, "pageSize": 10, "ids": null, "endTime": null, "startTime": null}, {"cardNumFive": null, "isSupportYj": null, "cityName": null, "districtName": null, "shopinfo": {"mid": "888002158140001", "good_flag": null, "new_flag": "2", "short_name": "\u9ea6\u5f53\u52b3", "short_name_pinyin": "maidanglao", "status": null, "address": null, "name": null, "id": "32599"}, "mid": "888002158140001", "shopId": "32599", "netid": null, "province": 901, "district": 601, "zipcode": null, "telephone": "56972916", "posDate": null, "destineTel": null, "togoTel": null, "trafficWay": null, "signBuilding": null, "businessArea": null, "selfRoom": null, "businessTime": null, "stall": null, "consume": null, "serviceFei": null, "favourable": null, "shopMemo": null, "appraise": null, "website": null, "memo": null, "payTypes": "\u6749\u5fb7\u5361", "shopTypes": "\u9910\u996e", "consumeTypes": null, "cookTypes": null, "orderNum": 1000, "card4no": null, "card4noAcc": null, "district2": 410, "searchScope": null, "status": 1, "address": "\u4e2d\u5174\u8def1666\u53f7\u957f\u9014\u6c7d\u8f66\u5ba2\u8fd0\u603b\u7ad9\u524d", "name": "\u9ea6\u5f53\u52b3 \u65b0\u5ba2\u7ad93\u5e97", "id": 139871, "pageNo": 0, "pageCount": null, "pageSize": 10, "ids": null, "endTime": null, "startTime": null}, {"cardNumFive": null, "isSupportYj": null, "cityName": null, "districtName": null, "shopinfo": {"mid": "888002158140001", "good_flag": null, "new_flag": "2", "short_name": "\u9ea6\u5f53\u52b3", "short_name_pinyin": "maidanglao", "status": null, "address": null, "name": null, "id": "32599"}, "mid": "888002158140001", "shopId": "32599", "netid": null, "province": 901, "district": 601, "zipcode": null, "telephone": "63591770", "posDate": null, "destineTel": null, "togoTel": null, "trafficWay": null, "signBuilding": null, "businessArea": null, "selfRoom": null, "businessTime": null, "stall": null, "consume": null, "serviceFei": null, "favourable": null, "shopMemo": null, "appraise": null, "website": null, "memo": null, "payTypes": "\u6749\u5fb7\u5361", "shopTypes": "\u9910\u996e", "consumeTypes": null, "cookTypes": null, "orderNum": 1000, "card4no": null, "card4noAcc": null, "district2": 401, "searchScope": null, "status": 1, "address": "\u5357\u4eac\u897f\u8def2-68\u53f7\u5730\u4e0b\u4e00\u5c42", "name": "\u9ea6\u5f53\u52b3 \u65b0\u4e16\u754c\u5e97", "id": 139872, "pageNo": 0, "pageCount": null, "pageSize": 10, "ids": null, "endTime": null, "startTime": null}], "pageLimit": 6550, "size": 10}