{"pageCount": 1095, "count": 10942, "pageNo": 665, "subShopInfo": {"cardNumFive": "", "isSupportYj": "", "cityName": null, "districtName": null, "shopinfo": {"mid": null, "good_flag": null, "new_flag": null, "short_name": null, "short_name_pinyin": null, "status": null, "address": "", "name": "", "id": null}, "mid": null, "shopId": null, "netid": null, "province": 901, "district": null, "zipcode": null, "telephone": null, "posDate": null, "destineTel": null, "togoTel": null, "trafficWay": null, "signBuilding": null, "businessArea": null, "selfRoom": null, "businessTime": null, "stall": null, "consume": null, "serviceFei": null, "favourable": null, "shopMemo": "1", "appraise": null, "website": null, "memo": null, "payTypes": "", "shopTypes": "", "consumeTypes": null, "cookTypes": null, "orderNum": null, "card4no": null, "card4noAcc": null, "district2": null, "searchScope": null, "status": null, "address": "", "name": null, "id": null, "pageNo": 664, "pageCount": null, "pageSize": 10, "ids": null, "endTime": null, "startTime": null}, "list": [{"cardNumFive": null, "isSupportYj": null, "cityName": null, "districtName": null, "shopinfo": {"mid": "888002158140001", "good_flag": null, "new_flag": "2", "short_name": "\u9ea6\u5f53\u52b3", "short_name_pinyin": "maidanglao", "status": null, "address": null, "name": null, "id": "32599"}, "mid": "888002158140001", "shopId": "32599", "netid": null, "province": 901, "district": 601, "zipcode": null, "telephone": null, "posDate": null, "destineTel": null, "togoTel": null, "trafficWay": null, "signBuilding": null, "businessArea": null, "selfRoom": null, "businessTime": null, "stall": null, "consume": null, "serviceFei": null, "favourable": null, "shopMemo": null, "appraise": null, "website": null, "memo": null, "payTypes": "\u6749\u5fb7\u5361", "shopTypes": "\u9910\u996e", "consumeTypes": null, "cookTypes": null, "orderNum": 1000, "card4no": null, "card4noAcc": null, "district2": 409, "searchScope": null, "status": 1, "address": "\u6d66\u6c5f\u9547\u9648\u884c\u8def2688\u53f7", "name": "\u9ea6\u5f53\u52b3 \u6d66\u6c5f\u9648\u884c\u9910\u5385", "id": 196878, "pageNo": 0, "pageCount": null, "pageSize": 10, "ids": null, "endTime": null, "startTime": null}, {"cardNumFive": null, "isSupportYj": null, "cityName": null, "districtName": null, "shopinfo": {"mid": "888002158140001", "good_flag": null, "new_flag": "2", "short_name": "\u9ea6\u5f53\u52b3", "short_name_pinyin": "maidanglao", "status": null, "address": null, "name": null, "id": "32599"}, "mid": "888002158140001", "shopId": "32599", "netid": null, "province": 901, "district": 601, "zipcode": null, "telephone": null, "posDate": null, "destineTel": null, "togoTel": null, "trafficWay": null, "signBuilding": null, "businessArea": null, "selfRoom": null, "businessTime": null, "stall": null, "consume": null, "serviceFei": null, "favourable": null, "shopMemo": null, "appraise": null, "website": null, "memo": null, "payTypes": "\u6749\u5fb7\u5361", "shopTypes": "\u9910\u996e", "consumeTypes": null, "cookTypes": null, "orderNum": 1000, "card4no": null, "card4noAcc": null, "district2": 418, "searchScope": null, "status": 1, "address": "\u79c0\u6cbf\u8def2552\u53f7", "name": "\u9ea6\u5f53\u52b3 \u79c0\u6cbf\u8defDT\u9910\u5385", "id": 196879, "pageNo": 0, "pageCount": null, "pageSize": 10, "ids": null, "endTime": null, "startTime": null}, {"cardNumFive": null, "isSupportYj": null, "cityName": null, "districtName": null, "shopinfo": {"mid": "888002158140001", "good_flag": null, "new_flag": "2", "short_name": "\u9ea6\u5f53\u52b3", "short_name_pinyin": "maidanglao", "status": null, "address": null, "name": null, "id": "32599"}, "mid": "888002158140001", "shopId": "32599", "netid": null, "province": 901, "district": 601, "zipcode": null, "telephone": null, "posDate": null, "destineTel": null, "togoTel": null, "trafficWay": null, "signBuilding": null, "businessArea": null, "selfRoom": null, "businessTime": null, "stall": null, "consume": null, "serviceFei": null, "favourable": null, "shopMemo": null, "appraise": null, "website": null, "memo": null, "payTypes": "\u6749\u5fb7\u5361", "shopTypes": "\u9910\u996e", "consumeTypes": null, "cookTypes": null, "orderNum": 1000, "card4no": null, "card4noAcc": null, "district2": 405, "searchScope": null, "status": 1, "address": "\u91d1\u9f0e\u8def2218\u53f71F119", "name": "\u9ea6\u5f53\u52b3 \u91d1\u9f0e\u8def\u9910\u5385", "id": 196885, "pageNo": 0, "pageCount": null, "pageSize": 10, "ids": null, "endTime": null, "startTime": null}, {"cardNumFive": null, "isSupportYj": null, "cityName": null, "districtName": null, "shopinfo": {"mid": "888002158140001", "good_flag": null, "new_flag": "2", "short_name": "\u9ea6\u5f53\u52b3", "short_name_pinyin": "maidanglao", "status": null, "address": null, "name": null, "id": "32599"}, "mid": "888002158140001", "shopId": "32599", "netid": null, "province": 901, "district": 601, "zipcode": null, "telephone": null, "posDate": null, "destineTel": null, "togoTel": null, "trafficWay": null, "signBuilding": null, "businessArea": null, "selfRoom": null, "businessTime": null, "stall": null, "consume": null, "serviceFei": null, "favourable": null, "shopMemo": null, "appraise": null, "website": null, "memo": null, "payTypes": "\u6749\u5fb7\u5361", "shopTypes": "\u9910\u996e", "consumeTypes": null, "cookTypes": null, "orderNum": 1000, "card4no": null, "card4noAcc": null, "district2": 406, "searchScope": null, "status": 1, "address": "\u7533\u6606\u8def1500\u53f7\u7533\u8679\u56fd\u9645\u5927\u53a6CF321", "name": "\u9ea6\u5f53\u52b3 \u8679\u6865\u4e8c\u5e97", "id": 196983, "pageNo": 0, "pageCount": null, "pageSize": 10, "ids": null, "endTime": null, "startTime": null}, {"cardNumFive": null, "isSupportYj": null, "cityName": null, "districtName": null, "shopinfo": {"mid": "888002158140001", "good_flag": null, "new_flag": "2", "short_name": "\u9ea6\u5f53\u52b3", "short_name_pinyin": "maidanglao", "status": null, "address": null, "name": null, "id": "32599"}, "mid": "888002158140001", "shopId": "32599", "netid": null, "province": 901, "district": 601, "zipcode": null, "telephone": null, "posDate": null, "destineTel": null, "togoTel": null, "trafficWay": null, "signBuilding": null, "businessArea": null, "selfRoom": null, "businessTime": null, "stall": null, "consume": null, "serviceFei": null, "favourable": null, "shopMemo": null, "appraise": null, "website": null, "memo": null, "payTypes": "\u6749\u5fb7\u5361", "shopTypes": "\u9910\u996e", "consumeTypes": null, "cookTypes": null, "orderNum": 1000, "card4no": null, "card4noAcc": null, "district2": 410, "searchScope": null, "status": 1, "address": "\u4e07\u8363\u8def699\u5f04B131\u5546\u94fa\uff08\u5927\u5b81\u97f3\u4e50\u5e7f\u573a\uff09", "name": "\u9ea6\u5f53\u52b3 \u5927\u5b81\u97f3\u4e50\u5e7f\u573a\u9910\u5385", "id": 198160, "pageNo": 0, "pageCount": null, "pageSize": 10, "ids": null, "endTime": null, "startTime": null}, {"cardNumFive": null, "isSupportYj": null, "cityName": null, "districtName": null, "shopinfo": {"mid": "888002158140001", "good_flag": null, "new_flag": "2", "short_name": "\u9ea6\u5f53\u52b3", "short_name_pinyin": "maidanglao", "status": null, "address": null, "name": null, "id": "32599"}, "mid": "888002158140001", "shopId": "32599", "netid": null, "province": 901, "district": 601, "zipcode": null, "telephone": null, "posDate": null, "destineTel": null, "togoTel": null, "trafficWay": null, "signBuilding": null, "businessArea": null, "selfRoom": null, "businessTime": null, "stall": null, "consume": null, "serviceFei": null, "favourable": null, "shopMemo": null, "appraise": null, "website": null, "memo": null, "payTypes": "\u6749\u5fb7\u5361", "shopTypes": "\u9910\u996e", "consumeTypes": null, "cookTypes": null, "orderNum": 1000, "card4no": null, "card4noAcc": null, "district2": 409, "searchScope": null, "status": 1, "address": "\u8679\u6865\u8def1438\u53f7B1\u5c42200-204", "name": "\u9ea6\u5f53\u52b3 \u9ad8\u5c9b\u5c4b\u9910\u5385", "id": 198163, "pageNo": 0, "pageCount": null, "pageSize": 10, "ids": null, "endTime": null, "startTime": null}, {"cardNumFive": null, "isSupportYj": null, "cityName": null, "districtName": null, "shopinfo": {"mid": "888002158140001", "good_flag": null, "new_flag": "2", "short_name": "\u9ea6\u5f53\u52b3", "short_name_pinyin": "maidanglao", "status": null, "address": null, "name": null, "id": "32599"}, "mid": "888002158140001", "shopId": "32599", "netid": null, "province": 901, "district": 601, "zipcode": null, "telephone": null, "posDate": null, "destineTel": null, "togoTel": null, "trafficWay": null, "signBuilding": null, "businessArea": null, "selfRoom": null, "businessTime": null, "stall": null, "consume": null, "serviceFei": null, "favourable": null, "shopMemo": null, "appraise": null, "website": null, "memo": null, "payTypes": "\u6749\u5fb7\u5361", "shopTypes": "\u9910\u996e", "consumeTypes": null, "cookTypes": null, "orderNum": 1000, "card4no": null, "card4noAcc": null, "district2": 404, "searchScope": null, "status": 1, "address": "\u5357\u4eac\u897f\u8def1788\u53f7", "name": "\u9ea6\u5f53\u52b3 \u5357\u4eac\u897f\u8def1788", "id": 202054, "pageNo": 0, "pageCount": null, "pageSize": 10, "ids": null, "endTime": null, "startTime": null}, {"cardNumFive": null, "isSupportYj": null, "cityName": null, "districtName": null, "shopinfo": {"mid": "888002158140001", "good_flag": null, "new_flag": "2", "short_name": "\u9ea6\u5f53\u52b3", "short_name_pinyin": "maidanglao", "status": null, "address": null, "name": null, "id": "32599"}, "mid": "888002158140001", "shopId": "32599", "netid": null, "province": 901, "district": 601, "zipcode": null, "telephone": null, "posDate": null, "destineTel": null, "togoTel": null, "trafficWay": null, "signBuilding": null, "businessArea": null, "selfRoom": null, "businessTime": null, "stall": null, "consume": null, "serviceFei": null, "favourable": null, "shopMemo": null, "appraise": null, "website": null, "memo": null, "payTypes": "\u6749\u5fb7\u5361", "shopTypes": "\u9910\u996e", "consumeTypes": null, "cookTypes": null, "orderNum": 1000, "card4no": null, "card4noAcc": null, "district2": 406, "searchScope": null, "status": 1, "address": "\u91d1\u949f\u8def968\u53f77\u53f7\u697cB19-21\u5546\u94fa", "name": "\u9ea6\u5f53\u52b3 \u51cc\u7a7a\u9910\u5385", "id": 202072, "pageNo": 0, "pageCount": null, "pageSize": 10, "ids": null, "endTime": null, "startTime": null}, {"cardNumFive": null, "isSupportYj": null, "cityName": null, "districtName": null, "shopinfo": {"mid": "888002158140001", "good_flag": null, "new_flag": "2", "short_name": "\u9ea6\u5f53\u52b3", "short_name_pinyin": "maidanglao", "status": null, "address": null, "name": null, "id": "32599"}, "mid": "888002158140001", "shopId": "32599", "netid": null, "province": 901, "district": 601, "zipcode": null, "telephone": null, "posDate": null, "destineTel": null, "togoTel": null, "trafficWay": null, "signBuilding": null, "businessArea": null, "selfRoom": null, "businessTime": null, "stall": null, "consume": null, "serviceFei": null, "favourable": null, "shopMemo": null, "appraise": null, "website": null, "memo": null, "payTypes": "\u6749\u5fb7\u5361", "shopTypes": "\u9910\u996e", "consumeTypes": null, "cookTypes": null, "orderNum": 1000, "card4no": null, "card4noAcc": null, "district2": 418, "searchScope": null, "status": 1, "address": "S1\u8fce\u5bbe\u9ad8\u901f\u6d66\u4e1c\u673a\u573a\u8fce\u5bbe\u5927\u90536001\u53f7", "name": "\u9ea6\u5f53\u52b3 \u6d66\u4e1c\u673a\u573a\u5927\u6d0b\u6d32\u8857", "id": 202073, "pageNo": 0, "pageCount": null, "pageSize": 10, "ids": null, "endTime": null, "startTime": null}, {"cardNumFive": null, "isSupportYj": null, "cityName": null, "districtName": null, "shopinfo": {"mid": "888002158140001", "good_flag": null, "new_flag": "2", "short_name": "\u9ea6\u5f53\u52b3", "short_name_pinyin": "maidanglao", "status": null, "address": null, "name": null, "id": "32599"}, "mid": "888002158140001", "shopId": "32599", "netid": null, "province": 901, "district": 601, "zipcode": null, "telephone": null, "posDate": null, "destineTel": null, "togoTel": null, "trafficWay": null, "signBuilding": null, "businessArea": null, "selfRoom": null, "businessTime": null, "stall": null, "consume": null, "serviceFei": null, "favourable": null, "shopMemo": null, "appraise": null, "website": null, "memo": null, "payTypes": "\u6749\u5fb7\u5361", "shopTypes": "\u9910\u996e", "consumeTypes": null, "cookTypes": null, "orderNum": 1000, "card4no": null, "card4noAcc": null, "district2": 411, "searchScope": null, "status": 1, "address": "\u88d5\u6c11\u5357\u8def68\u5f041\u53f72\u53f7\u697c1\u5c42", "name": "\u9ea6\u5f53\u52b3 \u5927\u878d\u57ce\u9910\u5385", "id": 202127, "pageNo": 0, "pageCount": null, "pageSize": 10, "ids": null, "endTime": null, "startTime": null}], "pageLimit": 6640, "size": 10}