{"pageCount": 1095, "count": 10942, "pageNo": 660, "subShopInfo": {"cardNumFive": "", "isSupportYj": "", "cityName": null, "districtName": null, "shopinfo": {"mid": null, "good_flag": null, "new_flag": null, "short_name": null, "short_name_pinyin": null, "status": null, "address": "", "name": "", "id": null}, "mid": null, "shopId": null, "netid": null, "province": 901, "district": null, "zipcode": null, "telephone": null, "posDate": null, "destineTel": null, "togoTel": null, "trafficWay": null, "signBuilding": null, "businessArea": null, "selfRoom": null, "businessTime": null, "stall": null, "consume": null, "serviceFei": null, "favourable": null, "shopMemo": "1", "appraise": null, "website": null, "memo": null, "payTypes": "", "shopTypes": "", "consumeTypes": null, "cookTypes": null, "orderNum": null, "card4no": null, "card4noAcc": null, "district2": null, "searchScope": null, "status": null, "address": "", "name": null, "id": null, "pageNo": 659, "pageCount": null, "pageSize": 10, "ids": null, "endTime": null, "startTime": null}, "list": [{"cardNumFive": null, "isSupportYj": null, "cityName": null, "districtName": null, "shopinfo": {"mid": "888002158140001", "good_flag": null, "new_flag": null, "short_name": "\u9ea6\u5f53\u52b3", "short_name_pinyin": "maidanglao", "status": null, "address": null, "name": null, "id": "38970"}, "mid": "888002158140001", "shopId": "38970", "netid": null, "province": 901, "district": 601, "zipcode": null, "telephone": null, "posDate": null, "destineTel": null, "togoTel": null, "trafficWay": null, "signBuilding": null, "businessArea": null, "selfRoom": null, "businessTime": null, "stall": null, "consume": null, "serviceFei": null, "favourable": null, "shopMemo": null, "appraise": null, "website": null, "memo": null, "payTypes": "\u6749\u5fb7\u5361", "shopTypes": "\u9910\u996e", "consumeTypes": null, "cookTypes": null, "orderNum": 1000, "card4no": null, "card4noAcc": null, "district2": 416, "searchScope": null, "status": 1, "address": "\u4e00\u4e8c\u516b\u7eaa\u5ff5\u8def988\u5f041\u53f7", "name": "\u9ea6\u5f53\u52b3 \u5b9d\u5c71\u4e07\u8fbe\u9910\u5385", "id": 164926, "pageNo": 0, "pageCount": null, "pageSize": 10, "ids": null, "endTime": null, "startTime": null}, {"cardNumFive": null, "isSupportYj": null, "cityName": null, "districtName": null, "shopinfo": {"mid": "888002158140001", "good_flag": null, "new_flag": null, "short_name": "\u9ea6\u5f53\u52b3", "short_name_pinyin": "maidanglao", "status": null, "address": null, "name": null, "id": "38970"}, "mid": "888002158140001", "shopId": "38970", "netid": null, "province": 901, "district": 601, "zipcode": null, "telephone": null, "posDate": null, "destineTel": null, "togoTel": null, "trafficWay": null, "signBuilding": null, "businessArea": null, "selfRoom": null, "businessTime": null, "stall": null, "consume": null, "serviceFei": null, "favourable": null, "shopMemo": null, "appraise": null, "website": null, "memo": null, "payTypes": "\u6749\u5fb7\u5361", "shopTypes": "\u9910\u996e", "consumeTypes": null, "cookTypes": null, "orderNum": 1000, "card4no": null, "card4noAcc": null, "district2": 417, "searchScope": null, "status": 1, "address": "\u5609\u677e\u516c\u8def5555\u53f7", "name": "\u9ea6\u5f53\u52b3 \u9752\u6d66\u5965\u7279\u83b1\u65af\u9910\u5385", "id": 164927, "pageNo": 0, "pageCount": null, "pageSize": 10, "ids": null, "endTime": null, "startTime": null}, {"cardNumFive": null, "isSupportYj": null, "cityName": null, "districtName": null, "shopinfo": {"mid": "888002158140001", "good_flag": null, "new_flag": "2", "short_name": "\u9ea6\u5f53\u52b3", "short_name_pinyin": "maidanglao", "status": null, "address": null, "name": null, "id": "32599"}, "mid": "888002158140001", "shopId": "32599", "netid": null, "province": 901, "district": 601, "zipcode": null, "telephone": null, "posDate": null, "destineTel": null, "togoTel": null, "trafficWay": null, "signBuilding": null, "businessArea": null, "selfRoom": null, "businessTime": null, "stall": null, "consume": null, "serviceFei": null, "favourable": null, "shopMemo": null, "appraise": null, "website": null, "memo": null, "payTypes": "\u6749\u5fb7\u5361", "shopTypes": "\u9910\u996e", "consumeTypes": null, "cookTypes": null, "orderNum": 1000, "card4no": null, "card4noAcc": null, "district2": 405, "searchScope": null, "status": 1, "address": "\u94dc\u5ddd\u8def26\u53f7", "name": "\u9ea6\u5f53\u52b3 \u54c1\u5c0a\u56fd\u9645\u9910\u5385", "id": 168458, "pageNo": 0, "pageCount": null, "pageSize": 10, "ids": null, "endTime": null, "startTime": null}, {"cardNumFive": null, "isSupportYj": null, "cityName": null, "districtName": null, "shopinfo": {"mid": "888002158140001", "good_flag": null, "new_flag": "2", "short_name": "\u9ea6\u5f53\u52b3", "short_name_pinyin": "maidanglao", "status": null, "address": null, "name": null, "id": "32599"}, "mid": "888002158140001", "shopId": "32599", "netid": null, "province": 901, "district": 601, "zipcode": null, "telephone": null, "posDate": null, "destineTel": null, "togoTel": null, "trafficWay": null, "signBuilding": null, "businessArea": null, "selfRoom": null, "businessTime": null, "stall": null, "consume": null, "serviceFei": null, "favourable": null, "shopMemo": null, "appraise": null, "website": null, "memo": null, "payTypes": "\u6749\u5fb7\u5361", "shopTypes": "\u9910\u996e", "consumeTypes": null, "cookTypes": null, "orderNum": 1000, "card4no": null, "card4noAcc": null, "district2": 404, "searchScope": null, "status": 1, "address": "\u51ef\u65cb\u8def1586\u53f7", "name": "\u9ea6\u5f53\u52b3 \u65b0\u6dee\u6d77\u574a\u9910\u5385", "id": 168459, "pageNo": 0, "pageCount": null, "pageSize": 10, "ids": null, "endTime": null, "startTime": null}, {"cardNumFive": null, "isSupportYj": null, "cityName": null, "districtName": null, "shopinfo": {"mid": "888002158140001", "good_flag": null, "new_flag": "2", "short_name": "\u9ea6\u5f53\u52b3", "short_name_pinyin": "maidanglao", "status": null, "address": null, "name": null, "id": "32599"}, "mid": "888002158140001", "shopId": "32599", "netid": null, "province": 901, "district": 601, "zipcode": null, "telephone": null, "posDate": null, "destineTel": null, "togoTel": null, "trafficWay": null, "signBuilding": null, "businessArea": null, "selfRoom": null, "businessTime": null, "stall": null, "consume": null, "serviceFei": null, "favourable": null, "shopMemo": null, "appraise": null, "website": null, "memo": null, "payTypes": "\u6749\u5fb7\u5361", "shopTypes": "\u9910\u996e", "consumeTypes": null, "cookTypes": null, "orderNum": 1000, "card4no": null, "card4noAcc": null, "district2": 418, "searchScope": null, "status": 1, "address": "\u5ddd\u6c99\u8def5558\u53f7", "name": "\u9ea6\u5f53\u52b3 \u7eff\u5730\u4e1c\u6d77\u5cb8\u5e97", "id": 168460, "pageNo": 0, "pageCount": null, "pageSize": 10, "ids": null, "endTime": null, "startTime": null}, {"cardNumFive": null, "isSupportYj": null, "cityName": null, "districtName": null, "shopinfo": {"mid": "888002158140001", "good_flag": null, "new_flag": "2", "short_name": "\u9ea6\u5f53\u52b3", "short_name_pinyin": "maidanglao", "status": null, "address": null, "name": null, "id": "32599"}, "mid": "888002158140001", "shopId": "32599", "netid": null, "province": 901, "district": 601, "zipcode": null, "telephone": null, "posDate": null, "destineTel": null, "togoTel": null, "trafficWay": null, "signBuilding": null, "businessArea": null, "selfRoom": null, "businessTime": null, "stall": null, "consume": null, "serviceFei": null, "favourable": null, "shopMemo": null, "appraise": null, "website": null, "memo": null, "payTypes": "\u6749\u5fb7\u5361", "shopTypes": "\u9910\u996e", "consumeTypes": null, "cookTypes": null, "orderNum": 1000, "card4no": null, "card4noAcc": null, "district2": 412, "searchScope": null, "status": 1, "address": "\u65b0\u677e\u6c5f\u8def927\u5f042001A\u5546\u94fa", "name": "\u9ea6\u5f53\u52b3 \u5f00\u5143\u5730\u4e2d\u6d77\u9910\u5385", "id": 171343, "pageNo": 0, "pageCount": null, "pageSize": 10, "ids": null, "endTime": null, "startTime": null}, {"cardNumFive": null, "isSupportYj": null, "cityName": null, "districtName": null, "shopinfo": {"mid": "888002158140001", "good_flag": null, "new_flag": "2", "short_name": "\u9ea6\u5f53\u52b3", "short_name_pinyin": "maidanglao", "status": null, "address": null, "name": null, "id": "32599"}, "mid": "888002158140001", "shopId": "32599", "netid": null, "province": 901, "district": 601, "zipcode": null, "telephone": null, "posDate": null, "destineTel": null, "togoTel": null, "trafficWay": null, "signBuilding": null, "businessArea": null, "selfRoom": null, "businessTime": null, "stall": null, "consume": null, "serviceFei": null, "favourable": null, "shopMemo": null, "appraise": null, "website": null, "memo": null, "payTypes": "\u6749\u5fb7\u5361", "shopTypes": "\u9910\u996e", "consumeTypes": null, "cookTypes": null, "orderNum": 1000, "card4no": null, "card4noAcc": null, "district2": 401, "searchScope": null, "status": 1, "address": "\u9c81\u73ed\u8def615\u53f76\u53f7\u697c2\u697c", "name": "\u9ea6\u5f53\u52b3 \u6c47\u66bb\u751f\u6d3b\u5e7f\u573a\u5e97", "id": 171344, "pageNo": 0, "pageCount": null, "pageSize": 10, "ids": null, "endTime": null, "startTime": null}, {"cardNumFive": null, "isSupportYj": null, "cityName": null, "districtName": null, "shopinfo": {"mid": "888002158140001", "good_flag": null, "new_flag": "2", "short_name": "\u9ea6\u5f53\u52b3", "short_name_pinyin": "maidanglao", "status": null, "address": null, "name": null, "id": "32599"}, "mid": "888002158140001", "shopId": "32599", "netid": null, "province": 901, "district": 601, "zipcode": null, "telephone": null, "posDate": null, "destineTel": null, "togoTel": null, "trafficWay": null, "signBuilding": null, "businessArea": null, "selfRoom": null, "businessTime": null, "stall": null, "consume": null, "serviceFei": null, "favourable": null, "shopMemo": null, "appraise": null, "website": null, "memo": null, "payTypes": "\u6749\u5fb7\u5361", "shopTypes": "\u9910\u996e", "consumeTypes": null, "cookTypes": null, "orderNum": 1000, "card4no": null, "card4noAcc": null, "district2": 411, "searchScope": null, "status": 1, "address": "\u66f9\u5b89\u516c\u8def2370-2376\u53f7", "name": "\u9ea6\u5f53\u52b3 \u66f9\u5b89\u8def\u5e97", "id": 171345, "pageNo": 0, "pageCount": null, "pageSize": 10, "ids": null, "endTime": null, "startTime": null}, {"cardNumFive": null, "isSupportYj": null, "cityName": null, "districtName": null, "shopinfo": {"mid": "888002158140001", "good_flag": null, "new_flag": "2", "short_name": "\u9ea6\u5f53\u52b3", "short_name_pinyin": "maidanglao", "status": null, "address": null, "name": null, "id": "32599"}, "mid": "888002158140001", "shopId": "32599", "netid": null, "province": 901, "district": 601, "zipcode": null, "telephone": null, "posDate": null, "destineTel": null, "togoTel": null, "trafficWay": null, "signBuilding": null, "businessArea": null, "selfRoom": null, "businessTime": null, "stall": null, "consume": null, "serviceFei": null, "favourable": null, "shopMemo": null, "appraise": null, "website": null, "memo": null, "payTypes": "\u6749\u5fb7\u5361", "shopTypes": "\u9910\u996e", "consumeTypes": null, "cookTypes": null, "orderNum": 1000, "card4no": null, "card4noAcc": null, "district2": 416, "searchScope": null, "status": 1, "address": "\u955c\u6cca\u6e56\u8def559\u53f7", "name": "\u9ea6\u5f53\u52b3 \u987e\u6751\u516c\u56ed\u5e97", "id": 171346, "pageNo": 0, "pageCount": null, "pageSize": 10, "ids": null, "endTime": null, "startTime": null}, {"cardNumFive": null, "isSupportYj": null, "cityName": null, "districtName": null, "shopinfo": {"mid": "888002158140001", "good_flag": null, "new_flag": "2", "short_name": "\u9ea6\u5f53\u52b3", "short_name_pinyin": "maidanglao", "status": null, "address": null, "name": null, "id": "32599"}, "mid": "888002158140001", "shopId": "32599", "netid": null, "province": 901, "district": 601, "zipcode": null, "telephone": null, "posDate": null, "destineTel": null, "togoTel": null, "trafficWay": null, "signBuilding": null, "businessArea": null, "selfRoom": null, "businessTime": null, "stall": null, "consume": null, "serviceFei": null, "favourable": null, "shopMemo": null, "appraise": null, "website": null, "memo": null, "payTypes": "\u6749\u5fb7\u5361", "shopTypes": "\u9910\u996e", "consumeTypes": null, "cookTypes": null, "orderNum": 1000, "card4no": null, "card4noAcc": null, "district2": 409, "searchScope": null, "status": 1, "address": "\u4e1c\u5ddd\u8def2376\u53f7104\u5ba4", "name": "\u9ea6\u5f53\u52b3 \u91d1\u5e73\u8def\u7ad9\u9910\u5385", "id": 171347, "pageNo": 0, "pageCount": null, "pageSize": 10, "ids": null, "endTime": null, "startTime": null}], "pageLimit": 6590, "size": 10}