{"pageCount": 1095, "count": 10942, "pageNo": 673, "subShopInfo": {"cardNumFive": "", "isSupportYj": "", "cityName": null, "districtName": null, "shopinfo": {"mid": null, "good_flag": null, "new_flag": null, "short_name": null, "short_name_pinyin": null, "status": null, "address": "", "name": "", "id": null}, "mid": null, "shopId": null, "netid": null, "province": 901, "district": null, "zipcode": null, "telephone": null, "posDate": null, "destineTel": null, "togoTel": null, "trafficWay": null, "signBuilding": null, "businessArea": null, "selfRoom": null, "businessTime": null, "stall": null, "consume": null, "serviceFei": null, "favourable": null, "shopMemo": "1", "appraise": null, "website": null, "memo": null, "payTypes": "", "shopTypes": "", "consumeTypes": null, "cookTypes": null, "orderNum": null, "card4no": null, "card4noAcc": null, "district2": null, "searchScope": null, "status": null, "address": "", "name": null, "id": null, "pageNo": 672, "pageCount": null, "pageSize": 10, "ids": null, "endTime": null, "startTime": null}, "list": [{"cardNumFive": null, "isSupportYj": null, "cityName": null, "districtName": null, "shopinfo": {"mid": "888888880430009", "good_flag": "2", "new_flag": "2", "short_name": "\u8302\u660c\u773c\u955c", "short_name_pinyin": "maochangyanjing", "status": null, "address": null, "name": null, "id": "32609"}, "mid": "888888880430009", "shopId": "32609", "netid": null, "province": 901, "district": 601, "zipcode": null, "telephone": null, "posDate": "20070724", "destineTel": null, "togoTel": null, "trafficWay": "\u77f3\u9752\u7ebf \u5357\u9752\u7ebf", "signBuilding": null, "businessArea": null, "selfRoom": null, "businessTime": null, "stall": null, "consume": null, "serviceFei": null, "favourable": null, "shopMemo": null, "appraise": null, "website": null, "memo": null, "payTypes": "\u6749\u5fb7\u5361", "shopTypes": "\u96f6\u552e,\u4e13\u5356", "consumeTypes": null, "cookTypes": null, "orderNum": 1000, "card4no": null, "card4noAcc": null, "district2": 417, "searchScope": null, "status": 1, "address": "\u57ce\u4e2d\u4e1c\u8def669\u53f7", "name": "\u8302\u660c\u773c\u955c \u9752\u6d66\u5e97", "id": 139935, "pageNo": 0, "pageCount": null, "pageSize": 10, "ids": null, "endTime": null, "startTime": null}, {"cardNumFive": null, "isSupportYj": null, "cityName": null, "districtName": null, "shopinfo": {"mid": "888888880430009", "good_flag": "2", "new_flag": "2", "short_name": "\u8302\u660c\u773c\u955c", "short_name_pinyin": "maochangyanjing", "status": null, "address": null, "name": null, "id": "32609"}, "mid": "888888880430009", "shopId": "32609", "netid": null, "province": 901, "district": 601, "zipcode": null, "telephone": "63222239", "posDate": "20080620", "destineTel": null, "togoTel": null, "trafficWay": "\u516c\u4ea420 37 \u5730\u94c1\u4e8c\u53f7\u7ebf", "signBuilding": null, "businessArea": null, "selfRoom": null, "businessTime": null, "stall": null, "consume": null, "serviceFei": null, "favourable": null, "shopMemo": null, "appraise": null, "website": null, "memo": null, "payTypes": "\u6749\u5fb7\u5361", "shopTypes": "\u96f6\u552e,\u4e13\u5356", "consumeTypes": null, "cookTypes": null, "orderNum": 1000, "card4no": null, "card4noAcc": null, "district2": 401, "searchScope": null, "status": 1, "address": "\u5357\u4eac\u4e1c\u8def518\u53f7", "name": "\u8302\u660c\u773c\u955c \u4e16\u7eaa\u5e97", "id": 139936, "pageNo": 0, "pageCount": null, "pageSize": 10, "ids": null, "endTime": null, "startTime": null}, {"cardNumFive": null, "isSupportYj": null, "cityName": null, "districtName": null, "shopinfo": {"mid": "888888880430009", "good_flag": "2", "new_flag": "2", "short_name": "\u8302\u660c\u773c\u955c", "short_name_pinyin": "maochangyanjing", "status": null, "address": null, "name": null, "id": "32609"}, "mid": "888888880430009", "shopId": "32609", "netid": null, "province": 901, "district": 601, "zipcode": null, "telephone": null, "posDate": "20070724", "destineTel": null, "togoTel": null, "trafficWay": "\u516c\u4ea4537 \u65c5\u6e3810\u53f7\u7ebf", "signBuilding": null, "businessArea": null, "selfRoom": null, "businessTime": null, "stall": null, "consume": null, "serviceFei": null, "favourable": null, "shopMemo": null, "appraise": null, "website": null, "memo": null, "payTypes": "\u6749\u5fb7\u5361", "shopTypes": "\u96f6\u552e,\u4e13\u5356", "consumeTypes": null, "cookTypes": null, "orderNum": 1000, "card4no": null, "card4noAcc": null, "district2": 408, "searchScope": null, "status": 1, "address": "\u56db\u5ddd\u5317\u8def2135\u53f7", "name": "\u8302\u660c\u773c\u955c \u56db\u5ddd\u4e8c\u5e97", "id": 139937, "pageNo": 0, "pageCount": null, "pageSize": 10, "ids": null, "endTime": null, "startTime": null}, {"cardNumFive": null, "isSupportYj": null, "cityName": null, "districtName": null, "shopinfo": {"mid": "888888880430009", "good_flag": "2", "new_flag": "2", "short_name": "\u8302\u660c\u773c\u955c", "short_name_pinyin": "maochangyanjing", "status": null, "address": null, "name": null, "id": "32609"}, "mid": "888888880430009", "shopId": "32609", "netid": null, "province": 901, "district": 601, "zipcode": null, "telephone": null, "posDate": "20070724", "destineTel": null, "togoTel": null, "trafficWay": "\u677e\u6c5f7\u8def", "signBuilding": null, "businessArea": null, "selfRoom": null, "businessTime": null, "stall": null, "consume": null, "serviceFei": null, "favourable": null, "shopMemo": null, "appraise": null, "website": null, "memo": null, "payTypes": "\u6749\u5fb7\u5361", "shopTypes": "\u96f6\u552e,\u4e13\u5356", "consumeTypes": null, "cookTypes": null, "orderNum": 1000, "card4no": null, "card4noAcc": null, "district2": 412, "searchScope": null, "status": 1, "address": "\u4e2d\u5c71\u4e2d\u8def188\u53f7", "name": "\u8302\u660c\u773c\u955c \u677e\u6c5f\u4e00\u5e97", "id": 139939, "pageNo": 0, "pageCount": null, "pageSize": 10, "ids": null, "endTime": null, "startTime": null}, {"cardNumFive": null, "isSupportYj": null, "cityName": null, "districtName": null, "shopinfo": {"mid": "888888880430009", "good_flag": "2", "new_flag": "2", "short_name": "\u8302\u660c\u773c\u955c", "short_name_pinyin": "maochangyanjing", "status": null, "address": null, "name": null, "id": "32609"}, "mid": "888888880430009", "shopId": "32609", "netid": null, "province": 901, "district": 601, "zipcode": null, "telephone": "33686775", "posDate": "20090427", "destineTel": null, "togoTel": null, "trafficWay": null, "signBuilding": null, "businessArea": null, "selfRoom": null, "businessTime": null, "stall": null, "consume": null, "serviceFei": null, "favourable": null, "shopMemo": null, "appraise": null, "website": null, "memo": null, "payTypes": "\u6749\u5fb7\u5361", "shopTypes": "\u96f6\u552e,\u4e13\u5356", "consumeTypes": null, "cookTypes": null, "orderNum": 1000, "card4no": null, "card4noAcc": null, "district2": 403, "searchScope": null, "status": 1, "address": "\u5929\u94a5\u6865\u8def133\u53f7\u4e00\u4e8c\u94fa", "name": "\u8302\u660c\u773c\u955c \u5929\u94a5\u6865\u8def\u5e97", "id": 139940, "pageNo": 0, "pageCount": null, "pageSize": 10, "ids": null, "endTime": null, "startTime": null}, {"cardNumFive": null, "isSupportYj": null, "cityName": null, "districtName": null, "shopinfo": {"mid": "888888880430009", "good_flag": "2", "new_flag": "2", "short_name": "\u8302\u660c\u773c\u955c", "short_name_pinyin": "maochangyanjing", "status": null, "address": null, "name": null, "id": "32609"}, "mid": "888888880430009", "shopId": "32609", "netid": null, "province": 901, "district": 601, "zipcode": null, "telephone": "64753984", "posDate": "20070724", "destineTel": null, "togoTel": null, "trafficWay": "\u6caa\u8398\u7ebf \u516c\u4ea4120", "signBuilding": null, "businessArea": null, "selfRoom": null, "businessTime": null, "stall": null, "consume": null, "serviceFei": null, "favourable": null, "shopMemo": null, "appraise": null, "website": null, "memo": null, "payTypes": "\u6749\u5fb7\u5361", "shopTypes": "\u96f6\u552e,\u4e13\u5356", "consumeTypes": null, "cookTypes": null, "orderNum": 1000, "card4no": null, "card4noAcc": null, "district2": 403, "searchScope": null, "status": 1, "address": "\u7530\u6797\u8def10\u53f7", "name": "\u8302\u660c\u773c\u955c \u7530\u6797\u5e97", "id": 139941, "pageNo": 0, "pageCount": null, "pageSize": 10, "ids": null, "endTime": null, "startTime": null}, {"cardNumFive": null, "isSupportYj": null, "cityName": null, "districtName": null, "shopinfo": {"mid": "888888880430009", "good_flag": "2", "new_flag": "2", "short_name": "\u8302\u660c\u773c\u955c", "short_name_pinyin": "maochangyanjing", "status": null, "address": null, "name": null, "id": "32609"}, "mid": "888888880430009", "shopId": "32609", "netid": null, "province": 901, "district": 601, "zipcode": null, "telephone": null, "posDate": "20070724", "destineTel": null, "togoTel": null, "trafficWay": "\u516c\u4ea4828 937", "signBuilding": null, "businessArea": null, "selfRoom": null, "businessTime": null, "stall": null, "consume": null, "serviceFei": null, "favourable": null, "shopMemo": null, "appraise": null, "website": null, "memo": null, "payTypes": "\u6749\u5fb7\u5361", "shopTypes": "\u96f6\u552e,\u4e13\u5356", "consumeTypes": null, "cookTypes": null, "orderNum": 1000, "card4no": null, "card4noAcc": null, "district2": 407, "searchScope": null, "status": 1, "address": "\u6dde\u6caa\u8def111\u53f7", "name": "\u8302\u660c\u773c\u955c \u4e07\u8fbe\u5e97", "id": 139942, "pageNo": 0, "pageCount": null, "pageSize": 10, "ids": null, "endTime": null, "startTime": null}, {"cardNumFive": null, "isSupportYj": null, "cityName": null, "districtName": null, "shopinfo": {"mid": "888888880430009", "good_flag": "2", "new_flag": "2", "short_name": "\u8302\u660c\u773c\u955c", "short_name_pinyin": "maochangyanjing", "status": null, "address": null, "name": null, "id": "32609"}, "mid": "888888880430009", "shopId": "32609", "netid": null, "province": 901, "district": 601, "zipcode": null, "telephone": null, "posDate": "20070724", "destineTel": null, "togoTel": null, "trafficWay": "\u516c\u4ea4836", "signBuilding": null, "businessArea": null, "selfRoom": null, "businessTime": null, "stall": null, "consume": null, "serviceFei": null, "favourable": null, "shopMemo": null, "appraise": null, "website": null, "memo": null, "payTypes": "\u6749\u5fb7\u5361", "shopTypes": "\u96f6\u552e,\u4e13\u5356", "consumeTypes": null, "cookTypes": null, "orderNum": 1000, "card4no": null, "card4noAcc": null, "district2": 406, "searchScope": null, "status": 1, "address": "\u4ed9\u971e\u8def459\u53f7", "name": "\u8302\u660c\u773c\u955c \u4ed9\u971e\u5e97", "id": 139945, "pageNo": 0, "pageCount": null, "pageSize": 10, "ids": null, "endTime": null, "startTime": null}, {"cardNumFive": null, "isSupportYj": null, "cityName": null, "districtName": null, "shopinfo": {"mid": "888888880430009", "good_flag": "2", "new_flag": "2", "short_name": "\u8302\u660c\u773c\u955c", "short_name_pinyin": "maochangyanjing", "status": null, "address": null, "name": null, "id": "32609"}, "mid": "888888880430009", "shopId": "32609", "netid": null, "province": 901, "district": 601, "zipcode": null, "telephone": null, "posDate": "20070724", "destineTel": null, "togoTel": null, "trafficWay": "\u516c\u4ea4945 911 02", "signBuilding": null, "businessArea": null, "selfRoom": null, "businessTime": null, "stall": null, "consume": null, "serviceFei": null, "favourable": null, "shopMemo": null, "appraise": null, "website": null, "memo": null, "payTypes": "\u6749\u5fb7\u5361", "shopTypes": "\u96f6\u552e,\u4e13\u5356", "consumeTypes": null, "cookTypes": null, "orderNum": 1000, "card4no": null, "card4noAcc": null, "district2": 401, "searchScope": null, "status": 1, "address": "\u6dee\u6d77\u4e2d\u8def640-642\u597d\u5e95\u5357\u7edf", "name": "\u8302\u660c\u773c\u955c \u65b0\u6dee\u6d77\u5e97", "id": 139946, "pageNo": 0, "pageCount": null, "pageSize": 10, "ids": null, "endTime": null, "startTime": null}, {"cardNumFive": null, "isSupportYj": null, "cityName": null, "districtName": null, "shopinfo": {"mid": "888888880430009", "good_flag": "2", "new_flag": "2", "short_name": "\u8302\u660c\u773c\u955c", "short_name_pinyin": "maochangyanjing", "status": null, "address": null, "name": null, "id": "32609"}, "mid": "888888880430009", "shopId": "32609", "netid": null, "province": 901, "district": 601, "zipcode": null, "telephone": null, "posDate": "20070724", "destineTel": null, "togoTel": null, "trafficWay": "\u516c\u4ea4224 808", "signBuilding": null, "businessArea": null, "selfRoom": null, "businessTime": null, "stall": null, "consume": null, "serviceFei": null, "favourable": null, "shopMemo": null, "appraise": null, "website": null, "memo": null, "payTypes": "\u6749\u5fb7\u5361", "shopTypes": "\u96f6\u552e,\u4e13\u5356", "consumeTypes": null, "cookTypes": null, "orderNum": 1000, "card4no": null, "card4noAcc": null, "district2": 406, "searchScope": null, "status": 1, "address": "\u5929\u5c71\u8def956\u53f7", "name": "\u8302\u660c\u773c\u955c \u65b0\u5929\u5c71\u5e97", "id": 139947, "pageNo": 0, "pageCount": null, "pageSize": 10, "ids": null, "endTime": null, "startTime": null}], "pageLimit": 6720, "size": 10}