{"pageCount": 1095, "count": 10942, "pageNo": 672, "subShopInfo": {"cardNumFive": "", "isSupportYj": "", "cityName": null, "districtName": null, "shopinfo": {"mid": null, "good_flag": null, "new_flag": null, "short_name": null, "short_name_pinyin": null, "status": null, "address": "", "name": "", "id": null}, "mid": null, "shopId": null, "netid": null, "province": 901, "district": null, "zipcode": null, "telephone": null, "posDate": null, "destineTel": null, "togoTel": null, "trafficWay": null, "signBuilding": null, "businessArea": null, "selfRoom": null, "businessTime": null, "stall": null, "consume": null, "serviceFei": null, "favourable": null, "shopMemo": "1", "appraise": null, "website": null, "memo": null, "payTypes": "", "shopTypes": "", "consumeTypes": null, "cookTypes": null, "orderNum": null, "card4no": null, "card4noAcc": null, "district2": null, "searchScope": null, "status": null, "address": "", "name": null, "id": null, "pageNo": 671, "pageCount": null, "pageSize": 10, "ids": null, "endTime": null, "startTime": null}, "list": [{"cardNumFive": null, "isSupportYj": null, "cityName": null, "districtName": null, "shopinfo": {"mid": "888888880430009", "good_flag": "2", "new_flag": "2", "short_name": "\u8302\u660c\u773c\u955c", "short_name_pinyin": "maochangyanjing", "status": null, "address": null, "name": null, "id": "32609"}, "mid": "888888880430009", "shopId": "32609", "netid": null, "province": 901, "district": 601, "zipcode": null, "telephone": null, "posDate": "20070724", "destineTel": null, "togoTel": null, "trafficWay": "\u516c\u4ea4145 962", "signBuilding": null, "businessArea": null, "selfRoom": null, "businessTime": null, "stall": null, "consume": null, "serviceFei": null, "favourable": null, "shopMemo": null, "appraise": null, "website": null, "memo": null, "payTypes": "\u6749\u5fb7\u5361", "shopTypes": "\u96f6\u552e,\u4e13\u5356", "consumeTypes": null, "cookTypes": null, "orderNum": 1000, "card4no": null, "card4noAcc": null, "district2": 407, "searchScope": null, "status": 1, "address": "\u53cc\u8fbd\u8def789\u53f7", "name": "\u8302\u660c\u773c\u955c \u63a7\u6c5f\u5e97", "id": 139923, "pageNo": 0, "pageCount": null, "pageSize": 10, "ids": null, "endTime": null, "startTime": null}, {"cardNumFive": null, "isSupportYj": null, "cityName": null, "districtName": null, "shopinfo": {"mid": "888888880430009", "good_flag": "2", "new_flag": "2", "short_name": "\u8302\u660c\u773c\u955c", "short_name_pinyin": "maochangyanjing", "status": null, "address": null, "name": null, "id": "32609"}, "mid": "888888880430009", "shopId": "32609", "netid": null, "province": 901, "district": 601, "zipcode": null, "telephone": "33775652", "posDate": "20071115", "destineTel": null, "togoTel": null, "trafficWay": "\u516c\u4ea4220 746", "signBuilding": null, "businessArea": null, "selfRoom": null, "businessTime": null, "stall": null, "consume": null, "serviceFei": null, "favourable": null, "shopMemo": null, "appraise": null, "website": null, "memo": null, "payTypes": "\u6749\u5fb7\u5361", "shopTypes": "\u96f6\u552e,\u4e13\u5356", "consumeTypes": null, "cookTypes": null, "orderNum": 1000, "card4no": null, "card4noAcc": null, "district2": 407, "searchScope": null, "status": 1, "address": "\u8bb8\u660c\u8def1600\u53f7", "name": "\u8302\u660c\u773c\u955c \u63a7\u6c5f\u4e8c\u5e97", "id": 139924, "pageNo": 0, "pageCount": null, "pageSize": 10, "ids": null, "endTime": null, "startTime": null}, {"cardNumFive": null, "isSupportYj": null, "cityName": null, "districtName": null, "shopinfo": {"mid": "888888880430009", "good_flag": "2", "new_flag": "2", "short_name": "\u8302\u660c\u773c\u955c", "short_name_pinyin": "maochangyanjing", "status": null, "address": null, "name": null, "id": "32609"}, "mid": "888888880430009", "shopId": "32609", "netid": null, "province": 901, "district": 601, "zipcode": null, "telephone": "61155250", "posDate": "20071011", "destineTel": null, "togoTel": null, "trafficWay": "\u516c\u4ea4946 754 \u5730\u94c1\u56db\u53f7\u7ebf", "signBuilding": null, "businessArea": null, "selfRoom": null, "businessTime": null, "stall": null, "consume": null, "serviceFei": null, "favourable": null, "shopMemo": null, "appraise": null, "website": null, "memo": null, "payTypes": "\u6749\u5fb7\u5361", "shopTypes": "\u96f6\u552e,\u4e13\u5356", "consumeTypes": null, "cookTypes": null, "orderNum": 1000, "card4no": null, "card4noAcc": null, "district2": 406, "searchScope": null, "status": 1, "address": "\u957f\u5b81\u8def1018\u53f72F", "name": "\u8302\u660c\u773c\u955c \u9f99\u4e4b\u68a6\u5e97", "id": 139927, "pageNo": 0, "pageCount": null, "pageSize": 10, "ids": null, "endTime": null, "startTime": null}, {"cardNumFive": null, "isSupportYj": null, "cityName": null, "districtName": null, "shopinfo": {"mid": "888888880430009", "good_flag": "2", "new_flag": "2", "short_name": "\u8302\u660c\u773c\u955c", "short_name_pinyin": "maochangyanjing", "status": null, "address": null, "name": null, "id": "32609"}, "mid": "888888880430009", "shopId": "32609", "netid": null, "province": 901, "district": 601, "zipcode": null, "telephone": "64267120", "posDate": null, "destineTel": null, "togoTel": null, "trafficWay": null, "signBuilding": null, "businessArea": null, "selfRoom": null, "businessTime": null, "stall": null, "consume": null, "serviceFei": null, "favourable": null, "shopMemo": null, "appraise": null, "website": null, "memo": null, "payTypes": "\u6749\u5fb7\u5361", "shopTypes": "\u96f6\u552e,\u4e13\u5356", "consumeTypes": null, "cookTypes": null, "orderNum": 1000, "card4no": null, "card4noAcc": null, "district2": 403, "searchScope": null, "status": 1, "address": "\u8087\u5609\u6d5c\u8def1111\u53f71-11\u5355\u5143", "name": "\u8302\u660c\u773c\u955c \u7f8e\u7f57\u5e97", "id": 139928, "pageNo": 0, "pageCount": null, "pageSize": 10, "ids": null, "endTime": null, "startTime": null}, {"cardNumFive": null, "isSupportYj": null, "cityName": null, "districtName": null, "shopinfo": {"mid": "888888880430009", "good_flag": "2", "new_flag": "2", "short_name": "\u8302\u660c\u773c\u955c", "short_name_pinyin": "maochangyanjing", "status": null, "address": null, "name": null, "id": "32609"}, "mid": "888888880430009", "shopId": "32609", "netid": null, "province": 901, "district": 601, "zipcode": null, "telephone": null, "posDate": "20070724", "destineTel": null, "togoTel": null, "trafficWay": null, "signBuilding": null, "businessArea": null, "selfRoom": null, "businessTime": null, "stall": null, "consume": null, "serviceFei": null, "favourable": null, "shopMemo": null, "appraise": null, "website": null, "memo": null, "payTypes": "\u6749\u5fb7\u5361", "shopTypes": "\u96f6\u552e,\u4e13\u5356", "consumeTypes": null, "cookTypes": null, "orderNum": 1000, "card4no": null, "card4noAcc": null, "district2": 409, "searchScope": null, "status": 1, "address": "\u6c5f\u6c99\u8def245\u53f7", "name": "\u8302\u660c\u773c\u955c \u95f5\u884c\u5e97", "id": 139929, "pageNo": 0, "pageCount": null, "pageSize": 10, "ids": null, "endTime": null, "startTime": null}, {"cardNumFive": null, "isSupportYj": null, "cityName": null, "districtName": null, "shopinfo": {"mid": "888888880430009", "good_flag": "2", "new_flag": "2", "short_name": "\u8302\u660c\u773c\u955c", "short_name_pinyin": "maochangyanjing", "status": null, "address": null, "name": null, "id": "32609"}, "mid": "888888880430009", "shopId": "32609", "netid": null, "province": 901, "district": 601, "zipcode": null, "telephone": null, "posDate": "20070724", "destineTel": null, "togoTel": null, "trafficWay": "\u516c\u4ea449 20 \u5730\u94c1\u4e8c\u53f7\u7ebf", "signBuilding": null, "businessArea": null, "selfRoom": null, "businessTime": null, "stall": null, "consume": null, "serviceFei": null, "favourable": null, "shopMemo": null, "appraise": null, "website": null, "memo": null, "payTypes": "\u6749\u5fb7\u5361", "shopTypes": "\u96f6\u552e,\u4e13\u5356", "consumeTypes": null, "cookTypes": null, "orderNum": 1000, "card4no": null, "card4noAcc": null, "district2": 401, "searchScope": null, "status": 1, "address": "\u5357\u4eac\u4e1c\u8def373\u53f7", "name": "\u8302\u660c\u773c\u955c \u5357\u4e1c\u5e97", "id": 139930, "pageNo": 0, "pageCount": null, "pageSize": 10, "ids": null, "endTime": null, "startTime": null}, {"cardNumFive": null, "isSupportYj": null, "cityName": null, "districtName": null, "shopinfo": {"mid": "888888880430009", "good_flag": "2", "new_flag": "2", "short_name": "\u8302\u660c\u773c\u955c", "short_name_pinyin": "maochangyanjing", "status": null, "address": null, "name": null, "id": "32609"}, "mid": "888888880430009", "shopId": "32609", "netid": null, "province": 901, "district": 601, "zipcode": null, "telephone": null, "posDate": "20070724", "destineTel": null, "togoTel": null, "trafficWay": "\u5357\u4e09\u652f\u7ebf", "signBuilding": null, "businessArea": null, "selfRoom": null, "businessTime": null, "stall": null, "consume": null, "serviceFei": null, "favourable": null, "shopMemo": null, "appraise": null, "website": null, "memo": null, "payTypes": "\u6749\u5fb7\u5361", "shopTypes": "\u96f6\u552e,\u4e13\u5356", "consumeTypes": null, "cookTypes": null, "orderNum": 1000, "card4no": null, "card4noAcc": null, "district2": 418, "searchScope": null, "status": 1, "address": "\u5357\u95e8\u5927\u885777\u53f7", "name": "\u8302\u660c\u773c\u955c \u5357\u6c47\u5e97", "id": 139931, "pageNo": 0, "pageCount": null, "pageSize": 10, "ids": null, "endTime": null, "startTime": null}, {"cardNumFive": null, "isSupportYj": null, "cityName": null, "districtName": null, "shopinfo": {"mid": "888888880430009", "good_flag": "2", "new_flag": "2", "short_name": "\u8302\u660c\u773c\u955c", "short_name_pinyin": "maochangyanjing", "status": null, "address": null, "name": null, "id": "32609"}, "mid": "888888880430009", "shopId": "32609", "netid": null, "province": 901, "district": 601, "zipcode": null, "telephone": "63223839", "posDate": "20070724", "destineTel": null, "togoTel": null, "trafficWay": "\u5730\u94c1\u4e00\u53f7\u7ebf", "signBuilding": null, "businessArea": null, "selfRoom": null, "businessTime": null, "stall": null, "consume": null, "serviceFei": null, "favourable": null, "shopMemo": null, "appraise": null, "website": null, "memo": null, "payTypes": ",,\u6749\u5fb7\u5361", "shopTypes": "\u4e13\u5356,\u96f6\u552e", "consumeTypes": null, "cookTypes": null, "orderNum": 1000, "card4no": null, "card4noAcc": null, "district2": 401, "searchScope": null, "status": 1, "address": "\u5357\u4eac\u4e1c\u8def762\u53f7", "name": "\u8302\u660c\u773c\u955c \u5357\u4eac\u4e1c\u8def\u603b\u5e97", "id": 139932, "pageNo": 0, "pageCount": null, "pageSize": 10, "ids": null, "endTime": null, "startTime": null}, {"cardNumFive": null, "isSupportYj": null, "cityName": null, "districtName": null, "shopinfo": {"mid": "888888880430009", "good_flag": "2", "new_flag": "2", "short_name": "\u8302\u660c\u773c\u955c", "short_name_pinyin": "maochangyanjing", "status": null, "address": null, "name": null, "id": "32609"}, "mid": "888888880430009", "shopId": "32609", "netid": null, "province": 901, "district": 601, "zipcode": null, "telephone": null, "posDate": "20070724", "destineTel": null, "togoTel": null, "trafficWay": "\u516c\u4ea4927 15", "signBuilding": null, "businessArea": null, "selfRoom": null, "businessTime": null, "stall": null, "consume": null, "serviceFei": null, "favourable": null, "shopMemo": null, "appraise": null, "website": null, "memo": null, "payTypes": "\u6749\u5fb7\u5361", "shopTypes": "\u96f6\u552e,\u4e13\u5356", "consumeTypes": null, "cookTypes": null, "orderNum": 1000, "card4no": null, "card4noAcc": null, "district2": 404, "searchScope": null, "status": 1, "address": "\u5357\u4eac\u897f\u8def1010\u53f7", "name": "\u8302\u660c\u773c\u955c \u5357\u897f\u5e97", "id": 139933, "pageNo": 0, "pageCount": null, "pageSize": 10, "ids": null, "endTime": null, "startTime": null}, {"cardNumFive": null, "isSupportYj": null, "cityName": null, "districtName": null, "shopinfo": {"mid": "888888880430009", "good_flag": "2", "new_flag": "2", "short_name": "\u8302\u660c\u773c\u955c", "short_name_pinyin": "maochangyanjing", "status": null, "address": null, "name": null, "id": "32609"}, "mid": "888888880430009", "shopId": "32609", "netid": null, "province": 901, "district": 601, "zipcode": null, "telephone": null, "posDate": "20070724", "destineTel": null, "togoTel": null, "trafficWay": "\u516c\u4ea491 748", "signBuilding": null, "businessArea": null, "selfRoom": null, "businessTime": null, "stall": null, "consume": null, "serviceFei": null, "favourable": null, "shopMemo": null, "appraise": null, "website": null, "memo": null, "payTypes": "\u6749\u5fb7\u5361", "shopTypes": "\u96f6\u552e,\u4e13\u5356", "consumeTypes": null, "cookTypes": null, "orderNum": 1000, "card4no": null, "card4noAcc": null, "district2": 409, "searchScope": null, "status": 1, "address": "\u4e03\u8398\u8def3655\u53f7", "name": "\u8302\u660c\u773c\u955c \u4e03\u5b9d\u5e97", "id": 139934, "pageNo": 0, "pageCount": null, "pageSize": 10, "ids": null, "endTime": null, "startTime": null}], "pageLimit": 6710, "size": 10}