{"pageCount": 1095, "count": 10942, "pageNo": 675, "subShopInfo": {"cardNumFive": "", "isSupportYj": "", "cityName": null, "districtName": null, "shopinfo": {"mid": null, "good_flag": null, "new_flag": null, "short_name": null, "short_name_pinyin": null, "status": null, "address": "", "name": "", "id": null}, "mid": null, "shopId": null, "netid": null, "province": 901, "district": null, "zipcode": null, "telephone": null, "posDate": null, "destineTel": null, "togoTel": null, "trafficWay": null, "signBuilding": null, "businessArea": null, "selfRoom": null, "businessTime": null, "stall": null, "consume": null, "serviceFei": null, "favourable": null, "shopMemo": "1", "appraise": null, "website": null, "memo": null, "payTypes": "", "shopTypes": "", "consumeTypes": null, "cookTypes": null, "orderNum": null, "card4no": null, "card4noAcc": null, "district2": null, "searchScope": null, "status": null, "address": "", "name": null, "id": null, "pageNo": 674, "pageCount": null, "pageSize": 10, "ids": null, "endTime": null, "startTime": null}, "list": [{"cardNumFive": null, "isSupportYj": null, "cityName": null, "districtName": null, "shopinfo": {"mid": "888002153311209", "good_flag": "2", "new_flag": "2", "short_name": "\u7f8e\u6e21\u540d\u8f66\u574a", "short_name_pinyin": "meidumingchefang", "status": null, "address": null, "name": null, "id": "565224383610617856"}, "mid": "888002153311209", "shopId": "565224383610617856", "netid": null, "province": 901, "district": 601, "zipcode": null, "telephone": null, "posDate": null, "destineTel": null, "togoTel": null, "trafficWay": null, "signBuilding": null, "businessArea": null, "selfRoom": null, "businessTime": null, "stall": null, "consume": null, "serviceFei": null, "favourable": null, "shopMemo": null, "appraise": null, "website": null, "memo": null, "payTypes": "\u6749\u5fb7\u5361,", "shopTypes": null, "consumeTypes": null, "cookTypes": null, "orderNum": null, "card4no": null, "card4noAcc": null, "district2": 418, "searchScope": null, "status": 1, "address": "\u5170\u82b1\u8def187.191\u53f71\u5c42", "name": "\u7f8e\u6e21\u540d\u8f66\u574a", "id": 565224381668655104, "pageNo": 0, "pageCount": null, "pageSize": 10, "ids": null, "endTime": null, "startTime": null}, {"cardNumFive": null, "isSupportYj": null, "cityName": null, "districtName": null, "shopinfo": {"mid": "888002153310587", "good_flag": null, "new_flag": null, "short_name": "\u7f8e\u60e0\u5168\u8d85\u5e02", "short_name_pinyin": "meihuiquanchaoshi", "status": null, "address": null, "name": null, "id": "41408"}, "mid": "888002153310587", "shopId": "41408", "netid": null, "province": 901, "district": 601, "zipcode": null, "telephone": null, "posDate": null, "destineTel": null, "togoTel": null, "trafficWay": null, "signBuilding": null, "businessArea": null, "selfRoom": null, "businessTime": null, "stall": null, "consume": null, "serviceFei": null, "favourable": null, "shopMemo": "1", "appraise": null, "website": null, "memo": null, "payTypes": "\u6749\u5fb7\u5361", "shopTypes": "\u8d85\u5e02", "consumeTypes": null, "cookTypes": null, "orderNum": 1000, "card4no": null, "card4noAcc": null, "district2": 409, "searchScope": null, "status": 1, "address": "\u6c5f\u5ddd\u8def1551\u5f0489\u5e62", "name": "\u7f8e\u60e0\u5168\u8d85\u5e02 \u6c5f\u5ddd\u5e97", "id": 182378, "pageNo": 0, "pageCount": null, "pageSize": 10, "ids": null, "endTime": null, "startTime": null}, {"cardNumFive": null, "isSupportYj": null, "cityName": null, "districtName": null, "shopinfo": {"mid": "888002158122959", "good_flag": "1", "new_flag": "1", "short_name": "\u7f8e\u4e34\u8f69", "short_name_pinyin": "meilinxuan", "status": null, "address": null, "name": null, "id": "577540838465208320"}, "mid": "888002158122959", "shopId": "577540838465208320", "netid": null, "province": 901, "district": 601, "zipcode": null, "telephone": null, "posDate": null, "destineTel": null, "togoTel": null, "trafficWay": null, "signBuilding": null, "businessArea": null, "selfRoom": null, "businessTime": null, "stall": null, "consume": null, "serviceFei": null, "favourable": null, "shopMemo": null, "appraise": null, "website": null, "memo": null, "payTypes": "\u6749\u5fb7\u5361,", "shopTypes": "\u9910\u996e", "consumeTypes": null, "cookTypes": null, "orderNum": null, "card4no": null, "card4noAcc": null, "district2": 401, "searchScope": null, "status": 1, "address": "\u4e0a\u6d77\u5e02\u9ec4\u6d66\u533a\u5706\u660e\u56ed\u8def133\u53f76\u697c", "name": "\u5706\u660e\u56ed\u5e97", "id": 577540836602937344, "pageNo": 0, "pageCount": null, "pageSize": 10, "ids": null, "endTime": null, "startTime": null}, {"cardNumFive": null, "isSupportYj": null, "cityName": null, "districtName": null, "shopinfo": {"mid": "888888853110016", "good_flag": "1", "new_flag": "2", "short_name": "\u6885\u9647\u9547\u5e7f\u573a", "short_name_pinyin": "meilongzhenguangchang", "status": null, "address": null, "name": null, "id": "32615"}, "mid": "888888853110016", "shopId": "32615", "netid": null, "province": 901, "district": 601, "zipcode": "200041", "telephone": "62187878", "posDate": "20070131", "destineTel": "62187878", "togoTel": "62187878", "trafficWay": "\u5730\u94c1\u4e00\u53f7\u7ebf", "signBuilding": "\u6052\u9686\u5e7f\u573a", "businessArea": null, "selfRoom": "\u65e0", "businessTime": "10:00~22:00", "stall": "\u6709", "consume": null, "serviceFei": null, "favourable": null, "shopMemo": null, "appraise": null, "website": null, "memo": null, "payTypes": "\u6749\u5fb7\u5361   \u5361\u62bc\u91d1\u6d88\u8d39", "shopTypes": "\u767e\u8d27", "consumeTypes": null, "cookTypes": null, "orderNum": 1000, "card4no": null, "card4noAcc": null, "district2": 401, "searchScope": null, "status": 1, "address": "\u5357\u4eac\u897f\u8def1038\u53f7", "name": "\u6885\u9647\u9547\u5e7f\u573a \u5357\u4eac\u897f\u8def", "id": 139956, "pageNo": 0, "pageCount": null, "pageSize": 10, "ids": null, "endTime": null, "startTime": null}, {"cardNumFive": null, "isSupportYj": null, "cityName": null, "districtName": null, "shopinfo": {"mid": "888888853110102", "good_flag": "2", "new_flag": "2", "short_name": "\u7f8e\u7f57\u57ce", "short_name_pinyin": "meiluocheng", "status": null, "address": null, "name": null, "id": "32627"}, "mid": "888888853110102", "shopId": "32627", "netid": null, "province": 901, "district": 601, "zipcode": null, "telephone": null, "posDate": null, "destineTel": null, "togoTel": null, "trafficWay": null, "signBuilding": null, "businessArea": null, "selfRoom": null, "businessTime": null, "stall": null, "consume": null, "serviceFei": null, "favourable": null, "shopMemo": null, "appraise": null, "website": null, "memo": null, "payTypes": ",\u6749\u5fb7\u5361", "shopTypes": "\u4f11\u95f2", "consumeTypes": null, "cookTypes": null, "orderNum": 1000, "card4no": null, "card4noAcc": null, "district2": 403, "searchScope": null, "status": 1, "address": "\u8087\u5609\u6d5c\u8def1111\u53f7", "name": "\u7f8e\u7f57\u57ce \u5929\u94a5\u6865\u8def\u5e97", "id": 139971, "pageNo": 0, "pageCount": null, "pageSize": 10, "ids": null, "endTime": null, "startTime": null}, {"cardNumFive": null, "isSupportYj": null, "cityName": null, "districtName": null, "shopinfo": {"mid": "888002180990022", "good_flag": null, "new_flag": null, "short_name": "\u7f8e\u5e74\u4f53\u68c0", "short_name_pinyin": "meiniantijian", "status": null, "address": null, "name": null, "id": "36326"}, "mid": "888002180990022", "shopId": "36326", "netid": null, "province": 901, "district": 601, "zipcode": null, "telephone": null, "posDate": "20100818", "destineTel": null, "togoTel": null, "trafficWay": null, "signBuilding": null, "businessArea": null, "selfRoom": null, "businessTime": null, "stall": null, "consume": null, "serviceFei": null, "favourable": null, "shopMemo": null, "appraise": null, "website": null, "memo": null, "payTypes": "\u6749\u5fb7\u5361", "shopTypes": "\u5176\u4ed6", "consumeTypes": null, "cookTypes": null, "orderNum": 1000, "card4no": null, "card4noAcc": null, "district2": 403, "searchScope": null, "status": 1, "address": "\u5c0f\u6728\u6865\u8def251\u53f7", "name": "\u7f8e\u5e74\u4f53\u68c0 \u5c0f\u6728\u6865\u8def\u5e97", "id": 151225, "pageNo": 0, "pageCount": null, "pageSize": 10, "ids": null, "endTime": null, "startTime": null}, {"cardNumFive": null, "isSupportYj": null, "cityName": null, "districtName": null, "shopinfo": {"mid": "888888859930006", "good_flag": "2", "new_flag": "2", "short_name": "\u7f8e\u670b\u9152\u4e1a", "short_name_pinyin": "meipengjiuye", "status": null, "address": null, "name": null, "id": "32631"}, "mid": "888888859930006", "shopId": "32631", "netid": null, "province": 901, "district": 601, "zipcode": null, "telephone": "63735633", "posDate": "20070529", "destineTel": null, "togoTel": null, "trafficWay": "\u516c\u4ea4911 864 932 43 18", "signBuilding": "\u5362\u6e7e\u5c04\u51fb\u9986", "businessArea": "80\u5e73\u65b9\u7c73", "selfRoom": "\u6709", "businessTime": "8:30~22:00", "stall": "\u65e0", "consume": "200\u5143", "serviceFei": null, "favourable": null, "shopMemo": "\u7ecf\u5178\u8fdb\u53e3\u8461\u8404\u9152,\u54c1\u79cd\u9f50\u5168,\u4ef7\u683c\u9002\u4e2d,\u6279\u53d1\u517c\u96f6\u552e,\u4f9b\u5e94\u4e0e\u5404\u5927\u4f1a\u6240\u53ca\u65b0\u5929\u5730\u9152\u5427", "appraise": null, "website": null, "memo": null, "payTypes": "\u6749\u5fb7\u5361", "shopTypes": "\u4e13\u5356", "consumeTypes": null, "cookTypes": null, "orderNum": 1000, "card4no": null, "card4noAcc": null, "district2": 401, "searchScope": null, "status": 1, "address": "\u8087\u5468\u8def76\u53f7", "name": "\u7f8e\u670b\u9152\u4e1a \u8087\u5468\u8def\u5e97", "id": 139983, "pageNo": 0, "pageCount": null, "pageSize": 10, "ids": null, "endTime": null, "startTime": null}, {"cardNumFive": null, "isSupportYj": null, "cityName": null, "districtName": null, "shopinfo": {"mid": "888888880430072", "good_flag": "1", "new_flag": "1", "short_name": "\u7f8e\u5f0f\u773c\u955c", "short_name_pinyin": "meishiyanjing", "status": null, "address": null, "name": null, "id": "32635"}, "mid": "888888880430072", "shopId": "32635", "netid": null, "province": 901, "district": 601, "zipcode": null, "telephone": "58452435", "posDate": "20090124", "destineTel": null, "togoTel": null, "trafficWay": null, "signBuilding": null, "businessArea": "300~600\u5e73\u65b9\u7c73", "selfRoom": null, "businessTime": "9:00~21:00", "stall": null, "consume": null, "serviceFei": null, "favourable": null, "shopMemo": null, "appraise": null, "website": null, "memo": null, "payTypes": "\u6749\u5fb7\u5361", "shopTypes": "\u96f6\u552e,\u4e13\u5356", "consumeTypes": null, "cookTypes": null, "orderNum": 1000, "card4no": null, "card4noAcc": null, "district2": 418, "searchScope": null, "status": 1, "address": "\u660c\u91cc\u8def305\u53f7", "name": "\u7f8e\u5f0f\u773c\u955c \u660c\u91cc\u5e97", "id": 139990, "pageNo": 0, "pageCount": null, "pageSize": 10, "ids": null, "endTime": null, "startTime": null}, {"cardNumFive": null, "isSupportYj": null, "cityName": null, "districtName": null, "shopinfo": {"mid": "888888880430066", "good_flag": "2", "new_flag": "2", "short_name": "\u7f8e\u5f0f\u773c\u955c", "short_name_pinyin": "meishiyanjing", "status": null, "address": null, "name": null, "id": "32636"}, "mid": "888888880430066", "shopId": "32636", "netid": null, "province": 901, "district": 601, "zipcode": null, "telephone": "68390680", "posDate": "20081125", "destineTel": null, "togoTel": null, "trafficWay": "\u516c\u4ea4\u65b0\u5ddd\u4e13\u7ebf \u6768\u795d\u7ebf", "signBuilding": null, "businessArea": null, "selfRoom": null, "businessTime": "10:00~22:00", "stall": null, "consume": null, "serviceFei": null, "favourable": null, "shopMemo": null, "appraise": null, "website": null, "memo": null, "payTypes": "\u6749\u5fb7\u5361", "shopTypes": "\u96f6\u552e,\u4e13\u5356", "consumeTypes": null, "cookTypes": null, "orderNum": 1000, "card4no": null, "card4noAcc": null, "district2": 418, "searchScope": null, "status": 1, "address": "\u5ddd\u6c99\u8def4620\u53f7", "name": "\u7f8e\u5f0f\u773c\u955c \u5ddd\u6c99\u8def\u5e97", "id": 139991, "pageNo": 0, "pageCount": null, "pageSize": 10, "ids": null, "endTime": null, "startTime": null}, {"cardNumFive": null, "isSupportYj": null, "cityName": null, "districtName": null, "shopinfo": {"mid": "888888880430066", "good_flag": "2", "new_flag": "2", "short_name": "\u7f8e\u5f0f\u773c\u955c", "short_name_pinyin": "meishiyanjing", "status": null, "address": null, "name": null, "id": "32636"}, "mid": "888888880430066", "shopId": "32636", "netid": null, "province": 901, "district": 601, "zipcode": null, "telephone": "68390680", "posDate": "20081125", "destineTel": null, "togoTel": null, "trafficWay": "\u516c\u4ea4\u65b0\u5ddd\u4e13\u7ebf \u6768\u795d\u7ebf", "signBuilding": null, "businessArea": null, "selfRoom": null, "businessTime": null, "stall": null, "consume": null, "serviceFei": null, "favourable": null, "shopMemo": null, "appraise": null, "website": null, "memo": null, "payTypes": "\u6749\u5fb7\u5361", "shopTypes": "\u96f6\u552e,\u4e13\u5356", "consumeTypes": null, "cookTypes": null, "orderNum": 1000, "card4no": null, "card4noAcc": null, "district2": 418, "searchScope": null, "status": 1, "address": "\u5ddd\u9ec4\u8def135\u53f7", "name": "\u7f8e\u5f0f\u773c\u955c \u5ddd\u6c99\u773c\u955c\u5de5\u5382", "id": 139992, "pageNo": 0, "pageCount": null, "pageSize": 10, "ids": null, "endTime": null, "startTime": null}], "pageLimit": 6740, "size": 10}