{"pageCount": 1095, "count": 10942, "pageNo": 671, "subShopInfo": {"cardNumFive": "", "isSupportYj": "", "cityName": null, "districtName": null, "shopinfo": {"mid": null, "good_flag": null, "new_flag": null, "short_name": null, "short_name_pinyin": null, "status": null, "address": "", "name": "", "id": null}, "mid": null, "shopId": null, "netid": null, "province": 901, "district": null, "zipcode": null, "telephone": null, "posDate": null, "destineTel": null, "togoTel": null, "trafficWay": null, "signBuilding": null, "businessArea": null, "selfRoom": null, "businessTime": null, "stall": null, "consume": null, "serviceFei": null, "favourable": null, "shopMemo": "1", "appraise": null, "website": null, "memo": null, "payTypes": "", "shopTypes": "", "consumeTypes": null, "cookTypes": null, "orderNum": null, "card4no": null, "card4noAcc": null, "district2": null, "searchScope": null, "status": null, "address": "", "name": null, "id": null, "pageNo": 670, "pageCount": null, "pageSize": 10, "ids": null, "endTime": null, "startTime": null}, "list": [{"cardNumFive": null, "isSupportYj": null, "cityName": null, "districtName": null, "shopinfo": {"mid": "888002158130155", "good_flag": null, "new_flag": null, "short_name": "MangoSix", "short_name_pinyin": "MangoSix", "status": null, "address": null, "name": null, "id": "43230"}, "mid": "888002158130155", "shopId": "43230", "netid": null, "province": 901, "district": 601, "zipcode": null, "telephone": null, "posDate": null, "destineTel": null, "togoTel": null, "trafficWay": null, "signBuilding": null, "businessArea": null, "selfRoom": null, "businessTime": null, "stall": null, "consume": null, "serviceFei": null, "favourable": null, "shopMemo": null, "appraise": null, "website": null, "memo": null, "payTypes": "\u6749\u5fb7\u5361", "shopTypes": "\u9910\u996e", "consumeTypes": null, "cookTypes": null, "orderNum": 1000, "card4no": null, "card4noAcc": null, "district2": 403, "searchScope": null, "status": 1, "address": "\u6842\u6797\u8def402\u53f776\u5e62102\u5ba4", "name": "MangoSix \u6842\u6797\u8def\u5e97", "id": 197966, "pageNo": 0, "pageCount": null, "pageSize": 10, "ids": null, "endTime": null, "startTime": null}, {"cardNumFive": null, "isSupportYj": null, "cityName": null, "districtName": null, "shopinfo": {"mid": "888888880430009", "good_flag": "2", "new_flag": "2", "short_name": "\u8302\u660c\u773c\u955c", "short_name_pinyin": "maochangyanjing", "status": null, "address": null, "name": null, "id": "32609"}, "mid": "888888880430009", "shopId": "32609", "netid": null, "province": 901, "district": 601, "zipcode": null, "telephone": "66595132", "posDate": "20071011", "destineTel": null, "togoTel": null, "trafficWay": "\u5b9d\u5c711\u7ebf \u5730\u94c1\u4e09\u53f7\u7ebf", "signBuilding": null, "businessArea": null, "selfRoom": null, "businessTime": null, "stall": null, "consume": null, "serviceFei": null, "favourable": null, "shopMemo": null, "appraise": null, "website": null, "memo": null, "payTypes": "\u6749\u5fb7\u5361", "shopTypes": "\u96f6\u552e,\u4e13\u5356", "consumeTypes": null, "cookTypes": null, "orderNum": 1000, "card4no": null, "card4noAcc": null, "district2": 416, "searchScope": null, "status": 1, "address": "\u7261\u4e39\u6c5f\u8def1238\u53f7", "name": "\u8302\u660c\u773c\u955c \u5b9d\u5c71\u4e8c\u5e97", "id": 139911, "pageNo": 0, "pageCount": null, "pageSize": 10, "ids": null, "endTime": null, "startTime": null}, {"cardNumFive": null, "isSupportYj": null, "cityName": null, "districtName": null, "shopinfo": {"mid": "888888880430009", "good_flag": "2", "new_flag": "2", "short_name": "\u8302\u660c\u773c\u955c", "short_name_pinyin": "maochangyanjing", "status": null, "address": null, "name": null, "id": "32609"}, "mid": "888888880430009", "shopId": "32609", "netid": null, "province": 901, "district": 601, "zipcode": null, "telephone": null, "posDate": "20070723", "destineTel": null, "togoTel": null, "trafficWay": "\u5b9d\u5c712\u8def \u5730\u94c1\u4e09\u53f7\u7ebf", "signBuilding": null, "businessArea": null, "selfRoom": null, "businessTime": null, "stall": null, "consume": null, "serviceFei": null, "favourable": null, "shopMemo": null, "appraise": null, "website": null, "memo": null, "payTypes": "\u6749\u5fb7\u5361", "shopTypes": "\u96f6\u552e,\u4e13\u5356", "consumeTypes": null, "cookTypes": null, "orderNum": 1000, "card4no": null, "card4noAcc": null, "district2": 416, "searchScope": null, "status": 1, "address": "\u7261\u4e39\u6c5f\u8def1769\u53f7", "name": "\u8302\u660c\u773c\u955c \u5b9d\u5c71\u4e00\u5e97", "id": 139912, "pageNo": 0, "pageCount": null, "pageSize": 10, "ids": null, "endTime": null, "startTime": null}, {"cardNumFive": null, "isSupportYj": null, "cityName": null, "districtName": null, "shopinfo": {"mid": "888888880430009", "good_flag": "2", "new_flag": "2", "short_name": "\u8302\u660c\u773c\u955c", "short_name_pinyin": "maochangyanjing", "status": null, "address": null, "name": null, "id": "32609"}, "mid": "888888880430009", "shopId": "32609", "netid": null, "province": 901, "district": 601, "zipcode": null, "telephone": "58836673", "posDate": "20070723", "destineTel": null, "togoTel": null, "trafficWay": "\u516c\u4ea4572 \u96a7\u9053\u4e8c\u7ebf", "signBuilding": null, "businessArea": null, "selfRoom": null, "businessTime": null, "stall": null, "consume": null, "serviceFei": null, "favourable": null, "shopMemo": null, "appraise": null, "website": null, "memo": null, "payTypes": ",,\u6749\u5fb7\u5361", "shopTypes": "\u4e13\u5356,\u96f6\u552e", "consumeTypes": null, "cookTypes": null, "orderNum": 1000, "card4no": null, "card4noAcc": null, "district2": 418, "searchScope": null, "status": 1, "address": "\u660c\u91cc\u8def345\u53f7", "name": "\u8302\u660c\u773c\u955c \u660c\u91cc\u5e97", "id": 139913, "pageNo": 0, "pageCount": null, "pageSize": 10, "ids": null, "endTime": null, "startTime": null}, {"cardNumFive": null, "isSupportYj": null, "cityName": null, "districtName": null, "shopinfo": {"mid": "888888880430009", "good_flag": "2", "new_flag": "2", "short_name": "\u8302\u660c\u773c\u955c", "short_name_pinyin": "maochangyanjing", "status": null, "address": null, "name": null, "id": "32609"}, "mid": "888888880430009", "shopId": "32609", "netid": null, "province": 901, "district": 601, "zipcode": null, "telephone": null, "posDate": "20070724", "destineTel": null, "togoTel": null, "trafficWay": "\u5f90\u5ddd\u4e13\u7ebf", "signBuilding": null, "businessArea": null, "selfRoom": null, "businessTime": null, "stall": null, "consume": null, "serviceFei": null, "favourable": null, "shopMemo": null, "appraise": null, "website": null, "memo": null, "payTypes": "\u6749\u5fb7\u5361", "shopTypes": "\u96f6\u552e,\u4e13\u5356", "consumeTypes": null, "cookTypes": null, "orderNum": 1000, "card4no": null, "card4noAcc": null, "district2": 418, "searchScope": null, "status": 1, "address": "\u5ddd\u6c99\u8def4600\u53f7", "name": "\u8302\u660c\u773c\u955c \u5ddd\u6c99\u5e97", "id": 139914, "pageNo": 0, "pageCount": null, "pageSize": 10, "ids": null, "endTime": null, "startTime": null}, {"cardNumFive": null, "isSupportYj": null, "cityName": null, "districtName": null, "shopinfo": {"mid": "888888880430009", "good_flag": "2", "new_flag": "2", "short_name": "\u8302\u660c\u773c\u955c", "short_name_pinyin": "maochangyanjing", "status": null, "address": null, "name": null, "id": "32609"}, "mid": "888888880430009", "shopId": "32609", "netid": null, "province": 901, "district": 601, "zipcode": null, "telephone": null, "posDate": "20070724", "destineTel": null, "togoTel": null, "trafficWay": "\u6caa\u661f\u7ebf \u7533\u5357\u7ebf", "signBuilding": null, "businessArea": null, "selfRoom": null, "businessTime": null, "stall": null, "consume": null, "serviceFei": null, "favourable": null, "shopMemo": null, "appraise": null, "website": null, "memo": null, "payTypes": "\u6749\u5fb7\u5361", "shopTypes": "\u96f6\u552e,\u4e13\u5356", "consumeTypes": null, "cookTypes": null, "orderNum": 1000, "card4no": null, "card4noAcc": null, "district2": 413, "searchScope": null, "status": 1, "address": "\u5357\u5949\u516c\u8def9649-33\u53f7", "name": "\u8302\u660c\u773c\u955c \u5949\u8d24\u5e97", "id": 139917, "pageNo": 0, "pageCount": null, "pageSize": 10, "ids": null, "endTime": null, "startTime": null}, {"cardNumFive": null, "isSupportYj": null, "cityName": null, "districtName": null, "shopinfo": {"mid": "888888880430009", "good_flag": "2", "new_flag": "2", "short_name": "\u8302\u660c\u773c\u955c", "short_name_pinyin": "maochangyanjing", "status": null, "address": null, "name": null, "id": "32609"}, "mid": "888888880430009", "shopId": "32609", "netid": null, "province": 901, "district": 601, "zipcode": null, "telephone": "57428236", "posDate": "20071011", "destineTel": null, "togoTel": null, "trafficWay": null, "signBuilding": null, "businessArea": null, "selfRoom": null, "businessTime": null, "stall": null, "consume": null, "serviceFei": null, "favourable": null, "shopMemo": null, "appraise": null, "website": null, "memo": null, "payTypes": "\u6749\u5fb7\u5361", "shopTypes": "\u96f6\u552e,\u4e13\u5356", "consumeTypes": null, "cookTypes": null, "orderNum": 1000, "card4no": null, "card4noAcc": null, "district2": 413, "searchScope": null, "status": 1, "address": "\u4eba\u6c11\u8def181\u53f7", "name": "\u8302\u660c\u773c\u955c \u5949\u8d24\u4e8c\u5e97", "id": 139918, "pageNo": 0, "pageCount": null, "pageSize": 10, "ids": null, "endTime": null, "startTime": null}, {"cardNumFive": null, "isSupportYj": null, "cityName": null, "districtName": null, "shopinfo": {"mid": "888888880430009", "good_flag": "2", "new_flag": "2", "short_name": "\u8302\u660c\u773c\u955c", "short_name_pinyin": "maochangyanjing", "status": null, "address": null, "name": null, "id": "32609"}, "mid": "888888880430009", "shopId": "32609", "netid": null, "province": 901, "district": 601, "zipcode": null, "telephone": "63503537", "posDate": "20070724", "destineTel": null, "togoTel": null, "trafficWay": "\u516c\u4ea420 49 \u5730\u94c1\u4e8c\u53f7\u7ebf", "signBuilding": null, "businessArea": null, "selfRoom": null, "businessTime": null, "stall": null, "consume": null, "serviceFei": null, "favourable": null, "shopMemo": null, "appraise": null, "website": null, "memo": null, "payTypes": "\u6749\u5fb7\u5361", "shopTypes": "\u4e13\u5356,\u96f6\u552e", "consumeTypes": null, "cookTypes": null, "orderNum": 1000, "card4no": null, "card4noAcc": null, "district2": 401, "searchScope": null, "status": 1, "address": "\u5357\u4eac\u4e1c\u8def340-372\u53f7\u4e00\u697c", "name": "\u8302\u660c\u773c\u955c \u534e\u8054\u5e97", "id": 139919, "pageNo": 0, "pageCount": null, "pageSize": 10, "ids": null, "endTime": null, "startTime": null}, {"cardNumFive": null, "isSupportYj": null, "cityName": null, "districtName": null, "shopinfo": {"mid": "888888880430009", "good_flag": "2", "new_flag": "2", "short_name": "\u8302\u660c\u773c\u955c", "short_name_pinyin": "maochangyanjing", "status": null, "address": null, "name": null, "id": "32609"}, "mid": "888888880430009", "shopId": "32609", "netid": null, "province": 901, "district": 601, "zipcode": null, "telephone": null, "posDate": "20070724", "destineTel": null, "togoTel": null, "trafficWay": null, "signBuilding": null, "businessArea": null, "selfRoom": null, "businessTime": null, "stall": null, "consume": null, "serviceFei": null, "favourable": null, "shopMemo": null, "appraise": null, "website": null, "memo": null, "payTypes": "\u6749\u5fb7\u5361", "shopTypes": "\u96f6\u552e,\u4e13\u5356", "consumeTypes": null, "cookTypes": null, "orderNum": 1000, "card4no": null, "card4noAcc": null, "district2": 411, "searchScope": null, "status": 1, "address": "\u5609\u5b9a\u9547\u5854\u57ce\u8def347\u53f73\u5ba4", "name": "\u8302\u660c\u773c\u955c \u5609\u5b9a\u4e8c\u5e97", "id": 139921, "pageNo": 0, "pageCount": null, "pageSize": 10, "ids": null, "endTime": null, "startTime": null}, {"cardNumFive": null, "isSupportYj": null, "cityName": null, "districtName": null, "shopinfo": {"mid": "888888880430009", "good_flag": "2", "new_flag": "2", "short_name": "\u8302\u660c\u773c\u955c", "short_name_pinyin": "maochangyanjing", "status": null, "address": null, "name": null, "id": "32609"}, "mid": "888888880430009", "shopId": "32609", "netid": null, "province": 901, "district": 601, "zipcode": null, "telephone": null, "posDate": "20070723", "destineTel": null, "togoTel": null, "trafficWay": "\u6caa\u5510\u7ebf \u5317\u5609\u7ebf", "signBuilding": null, "businessArea": null, "selfRoom": null, "businessTime": null, "stall": null, "consume": null, "serviceFei": null, "favourable": null, "shopMemo": null, "appraise": null, "website": null, "memo": null, "payTypes": "\u6749\u5fb7\u5361", "shopTypes": "\u96f6\u552e,\u4e13\u5356", "consumeTypes": null, "cookTypes": null, "orderNum": 1000, "card4no": null, "card4noAcc": null, "district2": 411, "searchScope": null, "status": 1, "address": "\u6e05\u6cb3\u8def21\u53f7", "name": "\u8302\u660c\u773c\u955c \u5609\u5b9a\u4e00\u5e97", "id": 139922, "pageNo": 0, "pageCount": null, "pageSize": 10, "ids": null, "endTime": null, "startTime": null}], "pageLimit": 6700, "size": 10}