{"pageCount": 1095, "count": 10942, "pageNo": 676, "subShopInfo": {"cardNumFive": "", "isSupportYj": "", "cityName": null, "districtName": null, "shopinfo": {"mid": null, "good_flag": null, "new_flag": null, "short_name": null, "short_name_pinyin": null, "status": null, "address": "", "name": "", "id": null}, "mid": null, "shopId": null, "netid": null, "province": 901, "district": null, "zipcode": null, "telephone": null, "posDate": null, "destineTel": null, "togoTel": null, "trafficWay": null, "signBuilding": null, "businessArea": null, "selfRoom": null, "businessTime": null, "stall": null, "consume": null, "serviceFei": null, "favourable": null, "shopMemo": "1", "appraise": null, "website": null, "memo": null, "payTypes": "", "shopTypes": "", "consumeTypes": null, "cookTypes": null, "orderNum": null, "card4no": null, "card4noAcc": null, "district2": null, "searchScope": null, "status": null, "address": "", "name": null, "id": null, "pageNo": 675, "pageCount": null, "pageSize": 10, "ids": null, "endTime": null, "startTime": null}, "list": [{"cardNumFive": null, "isSupportYj": null, "cityName": null, "districtName": null, "shopinfo": {"mid": "888888880430072", "good_flag": "1", "new_flag": "1", "short_name": "\u7f8e\u5f0f\u773c\u955c", "short_name_pinyin": "meishiyanjing", "status": null, "address": null, "name": null, "id": "32635"}, "mid": "888888880430072", "shopId": "32635", "netid": null, "province": 901, "district": 601, "zipcode": null, "telephone": "63582423", "posDate": "20090124", "destineTel": null, "togoTel": null, "trafficWay": "\u516c\u4ea4\u5730\u94c1\u4e00\u53f7\u7ebf\u5927\u6865\u4e00\u7ebf146\u5185\u5708\u8def", "signBuilding": null, "businessArea": "300~600\u5e73\u65b9\u7c73", "selfRoom": null, "businessTime": "9:00~21:00", "stall": null, "consume": null, "serviceFei": null, "favourable": null, "shopMemo": null, "appraise": null, "website": null, "memo": null, "payTypes": "\u6749\u5fb7\u5361", "shopTypes": "\u96f6\u552e,\u4e13\u5356", "consumeTypes": null, "cookTypes": null, "orderNum": 1000, "card4no": null, "card4noAcc": null, "district2": 401, "searchScope": null, "status": 1, "address": "\u4eba\u6c11\u5e7f\u573a\u8fea\u7f8e\u8d2d\u7269\u91cd\u70b9137\u53f7\u5546\u94fa", "name": "\u7f8e\u5f0f\u773c\u955c \u8fea\u7f8e\u5e97", "id": 139993, "pageNo": 0, "pageCount": null, "pageSize": 10, "ids": null, "endTime": null, "startTime": null}, {"cardNumFive": null, "isSupportYj": null, "cityName": null, "districtName": null, "shopinfo": {"mid": "888888880430072", "good_flag": "1", "new_flag": "1", "short_name": "\u7f8e\u5f0f\u773c\u955c", "short_name_pinyin": "meishiyanjing", "status": null, "address": null, "name": null, "id": "32635"}, "mid": "888888880430072", "shopId": "32635", "netid": null, "province": 901, "district": 601, "zipcode": null, "telephone": null, "posDate": "20091207", "destineTel": null, "togoTel": null, "trafficWay": null, "signBuilding": null, "businessArea": null, "selfRoom": null, "businessTime": null, "stall": null, "consume": null, "serviceFei": null, "favourable": null, "shopMemo": null, "appraise": null, "website": null, "memo": null, "payTypes": "\u6749\u5fb7\u5361", "shopTypes": "\u96f6\u552e,\u4e13\u5356", "consumeTypes": null, "cookTypes": null, "orderNum": 1000, "card4no": null, "card4noAcc": null, "district2": 418, "searchScope": null, "status": 1, "address": "\u5f20\u6768\u8def3611\u5f04\u91d1\u6865\u56fd\u9645\u5546\u4e1a\u5e7f\u573a1\u53f7137\u5ba4", "name": "\u7f8e\u5f0f\u773c\u955c \u91d1\u6865\u5e97", "id": 139996, "pageNo": 0, "pageCount": null, "pageSize": 10, "ids": null, "endTime": null, "startTime": null}, {"cardNumFive": null, "isSupportYj": null, "cityName": null, "districtName": null, "shopinfo": {"mid": "888888880430072", "good_flag": "1", "new_flag": "1", "short_name": "\u7f8e\u5f0f\u773c\u955c", "short_name_pinyin": "meishiyanjing", "status": null, "address": null, "name": null, "id": "32635"}, "mid": "888888880430072", "shopId": "32635", "netid": null, "province": 901, "district": 601, "zipcode": null, "telephone": "62458941", "posDate": "20090124", "destineTel": null, "togoTel": null, "trafficWay": "\u516c\u4ea4858\u8def948\u8def63\u8def", "signBuilding": null, "businessArea": "300~600\u5e73\u65b9\u7c73", "selfRoom": null, "businessTime": "9:00~21:00", "stall": null, "consume": null, "serviceFei": null, "favourable": null, "shopMemo": null, "appraise": null, "website": null, "memo": null, "payTypes": "\u6749\u5fb7\u5361", "shopTypes": "\u96f6\u552e,\u4e13\u5356", "consumeTypes": null, "cookTypes": null, "orderNum": 1000, "card4no": null, "card4noAcc": null, "district2": 405, "searchScope": null, "status": 1, "address": "\u5170\u6eaa\u8def147\u53f7", "name": "\u7f8e\u5f0f\u773c\u955c \u5170\u6eaa\u5e97", "id": 139997, "pageNo": 0, "pageCount": null, "pageSize": 10, "ids": null, "endTime": null, "startTime": null}, {"cardNumFive": null, "isSupportYj": null, "cityName": null, "districtName": null, "shopinfo": {"mid": "888888880430072", "good_flag": "1", "new_flag": "1", "short_name": "\u7f8e\u5f0f\u773c\u955c", "short_name_pinyin": "meishiyanjing", "status": null, "address": null, "name": null, "id": "32635"}, "mid": "888888880430072", "shopId": "32635", "netid": null, "province": 901, "district": 601, "zipcode": null, "telephone": "64267511", "posDate": "20090124", "destineTel": null, "togoTel": null, "trafficWay": "\u516c\u4ea4712\u8def836\u8def44\u533a\u95f4", "signBuilding": null, "businessArea": "300~600\u5e73\u65b9\u7c73", "selfRoom": null, "businessTime": "9:00~21:00", "stall": null, "consume": null, "serviceFei": null, "favourable": null, "shopMemo": null, "appraise": null, "website": null, "memo": null, "payTypes": "\u6749\u5fb7\u5361", "shopTypes": "\u96f6\u552e,\u4e13\u5356", "consumeTypes": null, "cookTypes": null, "orderNum": 1000, "card4no": null, "card4noAcc": null, "district2": 403, "searchScope": null, "status": 1, "address": "\u8087\u5609\u6d5c\u8def1111\u53f7\u7f8e\u7f57\u57ce\u5e95\u5c42", "name": "\u7f8e\u5f0f\u773c\u955c \u7f8e\u7f57\u5e97", "id": 140002, "pageNo": 0, "pageCount": null, "pageSize": 10, "ids": null, "endTime": null, "startTime": null}, {"cardNumFive": null, "isSupportYj": null, "cityName": null, "districtName": null, "shopinfo": {"mid": "888888880430072", "good_flag": "1", "new_flag": "1", "short_name": "\u7f8e\u5f0f\u773c\u955c", "short_name_pinyin": "meishiyanjing", "status": null, "address": null, "name": null, "id": "32635"}, "mid": "888888880430072", "shopId": "32635", "netid": null, "province": 901, "district": 601, "zipcode": null, "telephone": "62534126", "posDate": "20090124", "destineTel": null, "togoTel": null, "trafficWay": "\u516c\u4ea420\u8def37\u8def921\u8def", "signBuilding": null, "businessArea": "300~600\u5e73\u65b9\u7c73", "selfRoom": null, "businessTime": "9:00~21:00", "stall": null, "consume": null, "serviceFei": null, "favourable": null, "shopMemo": null, "appraise": null, "website": null, "memo": null, "payTypes": "\u6749\u5fb7\u5361", "shopTypes": "\u96f6\u552e,\u4e13\u5356", "consumeTypes": null, "cookTypes": null, "orderNum": 1000, "card4no": null, "card4noAcc": null, "district2": 401, "searchScope": null, "status": 1, "address": "\u5357\u4eac\u897f\u8def842\u53f7", "name": "\u7f8e\u5f0f\u773c\u955c \u65f6\u4ee3\u5e97", "id": 140004, "pageNo": 0, "pageCount": null, "pageSize": 10, "ids": null, "endTime": null, "startTime": null}, {"cardNumFive": null, "isSupportYj": null, "cityName": null, "districtName": null, "shopinfo": {"mid": "888888880430072", "good_flag": "1", "new_flag": "1", "short_name": "\u7f8e\u5f0f\u773c\u955c", "short_name_pinyin": "meishiyanjing", "status": null, "address": null, "name": null, "id": "32635"}, "mid": "888888880430072", "shopId": "32635", "netid": null, "province": 901, "district": 601, "zipcode": null, "telephone": "50348267", "posDate": "20090124", "destineTel": null, "togoTel": null, "trafficWay": null, "signBuilding": null, "businessArea": "300~600\u5e73\u65b9\u7c73", "selfRoom": null, "businessTime": "9:00~21:00", "stall": null, "consume": null, "serviceFei": null, "favourable": null, "shopMemo": null, "appraise": null, "website": null, "memo": null, "payTypes": "\u6749\u5fb7\u5361", "shopTypes": "\u4e13\u5356,\u96f6\u552e", "consumeTypes": null, "cookTypes": null, "orderNum": 1000, "card4no": null, "card4noAcc": null, "district2": 418, "searchScope": null, "status": 1, "address": "\u5f20\u6768\u5317\u8def801\u5965", "name": "\u7f8e\u5f0f\u773c\u955c \u6587\u5cf0\u5e97", "id": 140006, "pageNo": 0, "pageCount": null, "pageSize": 10, "ids": null, "endTime": null, "startTime": null}, {"cardNumFive": null, "isSupportYj": null, "cityName": null, "districtName": null, "shopinfo": {"mid": "888002159490004", "good_flag": "1", "new_flag": "1", "short_name": "\u68a6\u5bd0\u5bb6\u7eba", "short_name_pinyin": "mengmeijiafang", "status": null, "address": null, "name": null, "id": "32651"}, "mid": "888002159490004", "shopId": "32651", "netid": null, "province": 901, "district": 601, "zipcode": null, "telephone": null, "posDate": "20091221", "destineTel": null, "togoTel": null, "trafficWay": null, "signBuilding": null, "businessArea": null, "selfRoom": null, "businessTime": null, "stall": null, "consume": null, "serviceFei": null, "favourable": null, "shopMemo": null, "appraise": null, "website": null, "memo": null, "payTypes": "\u6749\u5fb7\u5361", "shopTypes": "\u670d\u9970\u5bb6\u7eba", "consumeTypes": null, "cookTypes": null, "orderNum": 1000, "card4no": null, "card4noAcc": null, "district2": 405, "searchScope": null, "status": 1, "address": "\u957f\u5bff\u8def946\u53f7102\u5ba4", "name": "\u68a6\u5bd0\u5bb6\u7eba \u957f\u5bff\u8def\u5e97", "id": 140052, "pageNo": 0, "pageCount": null, "pageSize": 10, "ids": null, "endTime": null, "startTime": null}, {"cardNumFive": null, "isSupportYj": null, "cityName": null, "districtName": null, "shopinfo": {"mid": "888888854410088", "good_flag": "2", "new_flag": "2", "short_name": "\u8499\u725b\u4e73\u4e1a", "short_name_pinyin": "mengniuruye", "status": null, "address": null, "name": null, "id": "32650"}, "mid": "888888854410088", "shopId": "32650", "netid": null, "province": 901, "district": 601, "zipcode": null, "telephone": "62669468", "posDate": "20080505", "destineTel": null, "togoTel": null, "trafficWay": "\u516c\u4ea4112", "signBuilding": null, "businessArea": null, "selfRoom": null, "businessTime": "08:30~20:30", "stall": null, "consume": null, "serviceFei": null, "favourable": null, "shopMemo": null, "appraise": null, "website": null, "memo": null, "payTypes": "\u6749\u5fb7\u5361", "shopTypes": "\u4e13\u5356", "consumeTypes": null, "cookTypes": null, "orderNum": 1000, "card4no": null, "card4noAcc": null, "district2": 405, "searchScope": null, "status": 1, "address": "\u6fb3\u95e8\u8def446\u53f7", "name": "\u8499\u725b\u4e73\u4e1a \u6fb3\u95e8\u8def\u5e97", "id": 140035, "pageNo": 0, "pageCount": null, "pageSize": 10, "ids": null, "endTime": null, "startTime": null}, {"cardNumFive": null, "isSupportYj": null, "cityName": null, "districtName": null, "shopinfo": {"mid": "888888854410088", "good_flag": "2", "new_flag": "2", "short_name": "\u8499\u725b\u4e73\u4e1a", "short_name_pinyin": "mengniuruye", "status": null, "address": null, "name": null, "id": "32650"}, "mid": "888888854410088", "shopId": "32650", "netid": null, "province": 901, "district": 601, "zipcode": null, "telephone": "28861462", "posDate": "20080505", "destineTel": null, "togoTel": null, "trafficWay": "\u516c\u4ea4981 \u5730\u94c1\u516d\u53f7\u7ebf", "signBuilding": null, "businessArea": null, "selfRoom": null, "businessTime": "08:30~20:30", "stall": null, "consume": null, "serviceFei": null, "favourable": null, "shopMemo": null, "appraise": null, "website": null, "memo": null, "payTypes": "\u6749\u5fb7\u5361", "shopTypes": "\u4e13\u5356", "consumeTypes": null, "cookTypes": null, "orderNum": 1000, "card4no": null, "card4noAcc": null, "district2": 418, "searchScope": null, "status": 1, "address": "\u957f\u6e05\u8def1678\u53f7", "name": "\u8499\u725b\u4e73\u4e1a \u957f\u6e05\u8def\u5e97", "id": 140036, "pageNo": 0, "pageCount": null, "pageSize": 10, "ids": null, "endTime": null, "startTime": null}, {"cardNumFive": null, "isSupportYj": null, "cityName": null, "districtName": null, "shopinfo": {"mid": "888888854410088", "good_flag": "2", "new_flag": "2", "short_name": "\u8499\u725b\u4e73\u4e1a", "short_name_pinyin": "mengniuruye", "status": null, "address": null, "name": null, "id": "32650"}, "mid": "888888854410088", "shopId": "32650", "netid": null, "province": 901, "district": 601, "zipcode": null, "telephone": "27426327", "posDate": "20080505", "destineTel": null, "togoTel": null, "trafficWay": "\u516c\u4ea4\u864e\u5357\u7ebf", "signBuilding": null, "businessArea": null, "selfRoom": null, "businessTime": "08:30~20:30", "stall": null, "consume": null, "serviceFei": null, "favourable": null, "shopMemo": null, "appraise": null, "website": null, "memo": null, "payTypes": "\u6749\u5fb7\u5361", "shopTypes": "\u4e13\u5356", "consumeTypes": null, "cookTypes": null, "orderNum": 1000, "card4no": null, "card4noAcc": null, "district2": 416, "searchScope": null, "status": 1, "address": "\u5bcc\u8054\u8def128\u5f0475\u53f7101\u5ba4", "name": "\u8499\u725b\u4e73\u4e1a \u5bcc\u8054\u8def\u5e97", "id": 140037, "pageNo": 0, "pageCount": null, "pageSize": 10, "ids": null, "endTime": null, "startTime": null}], "pageLimit": 6750, "size": 10}