{"pageCount": 1095, "count": 10942, "pageNo": 678, "subShopInfo": {"cardNumFive": "", "isSupportYj": "", "cityName": null, "districtName": null, "shopinfo": {"mid": null, "good_flag": null, "new_flag": null, "short_name": null, "short_name_pinyin": null, "status": null, "address": "", "name": "", "id": null}, "mid": null, "shopId": null, "netid": null, "province": 901, "district": null, "zipcode": null, "telephone": null, "posDate": null, "destineTel": null, "togoTel": null, "trafficWay": null, "signBuilding": null, "businessArea": null, "selfRoom": null, "businessTime": null, "stall": null, "consume": null, "serviceFei": null, "favourable": null, "shopMemo": "1", "appraise": null, "website": null, "memo": null, "payTypes": "", "shopTypes": "", "consumeTypes": null, "cookTypes": null, "orderNum": null, "card4no": null, "card4noAcc": null, "district2": null, "searchScope": null, "status": null, "address": "", "name": null, "id": null, "pageNo": 677, "pageCount": null, "pageSize": 10, "ids": null, "endTime": null, "startTime": null}, "list": [{"cardNumFive": null, "isSupportYj": null, "cityName": null, "districtName": null, "shopinfo": {"mid": "888888854410088", "good_flag": "2", "new_flag": "2", "short_name": "\u8499\u725b\u4e73\u4e1a", "short_name_pinyin": "mengniuruye", "status": null, "address": null, "name": null, "id": "32650"}, "mid": "888888854410088", "shopId": "32650", "netid": null, "province": 901, "district": 601, "zipcode": null, "telephone": "56310689", "posDate": "20080505", "destineTel": null, "togoTel": null, "trafficWay": "\u516c\u4ea4108 518 \u5730\u94c1\u516b\u53f7\u7ebf", "signBuilding": null, "businessArea": null, "selfRoom": null, "businessTime": "08:30~20:30", "stall": null, "consume": null, "serviceFei": null, "favourable": null, "shopMemo": null, "appraise": null, "website": null, "memo": null, "payTypes": "\u6749\u5fb7\u5361", "shopTypes": "\u4e13\u5356", "consumeTypes": null, "cookTypes": null, "orderNum": 1000, "card4no": null, "card4noAcc": null, "district2": 410, "searchScope": null, "status": 1, "address": "\u82b7\u6c5f\u897f\u8def50\u53f78\u53f7\u67dc\u53f0", "name": "\u8499\u725b\u4e73\u4e1a \u82b7\u6c5f\u897f\u8def\u5e97", "id": 140051, "pageNo": 0, "pageCount": null, "pageSize": 10, "ids": null, "endTime": null, "startTime": null}, {"cardNumFive": null, "isSupportYj": null, "cityName": null, "districtName": null, "shopinfo": {"mid": "888888854410062", "good_flag": "2", "new_flag": "1", "short_name": "\u9762\u5305\u65b0\u8bed", "short_name_pinyin": "mianbaoxinyu", "status": null, "address": null, "name": null, "id": "32660"}, "mid": "888888854410062", "shopId": "32660", "netid": null, "province": 901, "district": 601, "zipcode": null, "telephone": "56763702", "posDate": "20071130", "destineTel": null, "togoTel": null, "trafficWay": "\u5730\u94c1\u4e00\u53f7\u7ebf \u516c\u4ea4916", "signBuilding": "\u8fd1\u5171\u548c\u65b0\u8def\u53e3", "businessArea": null, "selfRoom": null, "businessTime": "10:00~22:00", "stall": null, "consume": null, "serviceFei": null, "favourable": null, "shopMemo": null, "appraise": null, "website": null, "memo": null, "payTypes": "\u6749\u5fb7\u5361", "shopTypes": "\u9762\u5305\u897f\u997c", "consumeTypes": null, "cookTypes": null, "orderNum": 1000, "card4no": null, "card4noAcc": null, "district2": 416, "searchScope": null, "status": 1, "address": "\u5171\u6c5f\u8def1208\u53f7\u5b9d\u5c71\u5bb6\u4e50\u798f8-12\u5e97\u94fa", "name": "\u9762\u5305\u65b0\u8bed \u5b9d\u5c71\u5e97", "id": 140065, "pageNo": 0, "pageCount": null, "pageSize": 10, "ids": null, "endTime": null, "startTime": null}, {"cardNumFive": null, "isSupportYj": null, "cityName": null, "districtName": null, "shopinfo": {"mid": "888888854410062", "good_flag": "2", "new_flag": "1", "short_name": "\u9762\u5305\u65b0\u8bed", "short_name_pinyin": "mianbaoxinyu", "status": null, "address": null, "name": null, "id": "32660"}, "mid": "888888854410062", "shopId": "32660", "netid": null, "province": 901, "district": 601, "zipcode": null, "telephone": "51613650", "posDate": "20071130", "destineTel": null, "togoTel": null, "trafficWay": null, "signBuilding": null, "businessArea": null, "selfRoom": null, "businessTime": "10:00~22:00", "stall": null, "consume": null, "serviceFei": null, "favourable": null, "shopMemo": null, "appraise": null, "website": null, "memo": null, "payTypes": "\u6749\u5fb7\u5361", "shopTypes": "\u9762\u5305\u897f\u997c", "consumeTypes": null, "cookTypes": null, "orderNum": 1000, "card4no": null, "card4noAcc": null, "district2": 407, "searchScope": null, "status": 1, "address": "\u51c7\u6caa\u8def1\u53f7", "name": "\u9762\u5305\u65b0\u8bed \u6625\u5929\u5e97", "id": 140066, "pageNo": 0, "pageCount": null, "pageSize": 10, "ids": null, "endTime": null, "startTime": null}, {"cardNumFive": null, "isSupportYj": null, "cityName": null, "districtName": null, "shopinfo": {"mid": "888888854410062", "good_flag": "2", "new_flag": "1", "short_name": "\u9762\u5305\u65b0\u8bed", "short_name_pinyin": "mianbaoxinyu", "status": null, "address": null, "name": null, "id": "32660"}, "mid": "888888854410062", "shopId": "32660", "netid": null, "province": 901, "district": 601, "zipcode": null, "telephone": "62097644", "posDate": "20071130", "destineTel": null, "togoTel": null, "trafficWay": "\u516c\u4ea4 836 911 938", "signBuilding": "\u5ef6\u5b89\u897f\u8def\u53e3", "businessArea": null, "selfRoom": null, "businessTime": "10:00~22:00", "stall": null, "consume": null, "serviceFei": null, "favourable": null, "shopMemo": null, "appraise": null, "website": null, "memo": null, "payTypes": "\u6749\u5fb7\u5361", "shopTypes": "\u9762\u5305\u897f\u997c", "consumeTypes": null, "cookTypes": null, "orderNum": 1000, "card4no": null, "card4noAcc": null, "district2": 406, "searchScope": null, "status": 1, "address": "\u6c34\u57ce\u5357\u8def268\u53f7\u5bb6\u4e50\u798f\u53e4\u5317\u8d2d\u7269\u4e2d\u5fc31\u697c", "name": "\u9762\u5305\u65b0\u8bed \u53e4\u5317\u5e97", "id": 140069, "pageNo": 0, "pageCount": null, "pageSize": 10, "ids": null, "endTime": null, "startTime": null}, {"cardNumFive": null, "isSupportYj": null, "cityName": null, "districtName": null, "shopinfo": {"mid": "888888854410062", "good_flag": "2", "new_flag": "1", "short_name": "\u9762\u5305\u65b0\u8bed", "short_name_pinyin": "mianbaoxinyu", "status": null, "address": null, "name": null, "id": "32660"}, "mid": "888888854410062", "shopId": "32660", "netid": null, "province": 901, "district": 601, "zipcode": null, "telephone": null, "posDate": "20071107", "destineTel": null, "togoTel": null, "trafficWay": "\u5730\u94c1\u4e00,\u4e8c\u53f7\u7ebf \u516c\u4ea4123 73", "signBuilding": null, "businessArea": null, "selfRoom": null, "businessTime": "10:00~22:00", "stall": null, "consume": null, "serviceFei": null, "favourable": null, "shopMemo": null, "appraise": null, "website": null, "memo": null, "payTypes": "\u6749\u5fb7\u5361", "shopTypes": "\u9762\u5305\u897f\u997c", "consumeTypes": null, "cookTypes": null, "orderNum": 1000, "card4no": null, "card4noAcc": null, "district2": 401, "searchScope": null, "status": 1, "address": "\u9ec4\u9642\u5317\u8def\u6b66\u80dc\u8def218\u53f7\u8fea\u7f8e\u8d2d\u7269\u4e2d\u5fc3", "name": "\u9762\u5305\u65b0\u8bed \u8679\u6865\u4eba\u6c11\u5e7f\u573a\u8fea\u7f8e\u5e97", "id": 140070, "pageNo": 0, "pageCount": null, "pageSize": 10, "ids": null, "endTime": null, "startTime": null}, {"cardNumFive": null, "isSupportYj": null, "cityName": null, "districtName": null, "shopinfo": {"mid": "888888854410062", "good_flag": "2", "new_flag": "1", "short_name": "\u9762\u5305\u65b0\u8bed", "short_name_pinyin": "mianbaoxinyu", "status": null, "address": null, "name": null, "id": "32660"}, "mid": "888888854410062", "shopId": "32660", "netid": null, "province": 901, "district": 601, "zipcode": null, "telephone": "50306317", "posDate": "20071130", "destineTel": null, "togoTel": null, "trafficWay": "\u516c\u4ea4984 936 995", "signBuilding": "\u91d1\u6865", "businessArea": null, "selfRoom": null, "businessTime": "10:00~22:00", "stall": null, "consume": null, "serviceFei": null, "favourable": null, "shopMemo": null, "appraise": null, "website": null, "memo": null, "payTypes": "\u6749\u5fb7\u5361", "shopTypes": "\u9762\u5305\u897f\u997c", "consumeTypes": null, "cookTypes": null, "orderNum": 1000, "card4no": null, "card4noAcc": null, "district2": 418, "searchScope": null, "status": 1, "address": "\u78a7\u4e91\u8def279\u53f7\u5bb6\u4e50\u798f\u91d1\u6865\u8d2d\u7269\u4e2d\u5fc3\u4e00\u697c", "name": "\u9762\u5305\u65b0\u8bed \u91d1\u6865\u5e97", "id": 140072, "pageNo": 0, "pageCount": null, "pageSize": 10, "ids": null, "endTime": null, "startTime": null}, {"cardNumFive": null, "isSupportYj": null, "cityName": null, "districtName": null, "shopinfo": {"mid": "888888854410062", "good_flag": "2", "new_flag": "1", "short_name": "\u9762\u5305\u65b0\u8bed", "short_name_pinyin": "mianbaoxinyu", "status": null, "address": null, "name": null, "id": "32660"}, "mid": "888888854410062", "shopId": "32660", "netid": null, "province": 901, "district": 601, "zipcode": null, "telephone": "63403017", "posDate": "20071130", "destineTel": null, "togoTel": null, "trafficWay": "\u516c\u4ea4123 49 \u5730\u94c1\u4e00,\u4e8c\u53f7\u7ebf", "signBuilding": null, "businessArea": null, "selfRoom": null, "businessTime": "10:00~22:00", "stall": null, "consume": null, "serviceFei": null, "favourable": null, "shopMemo": null, "appraise": null, "website": null, "memo": null, "payTypes": "\u6749\u5fb7\u5361", "shopTypes": "\u9762\u5305\u897f\u997c", "consumeTypes": null, "cookTypes": null, "orderNum": 1000, "card4no": null, "card4noAcc": null, "district2": 401, "searchScope": null, "status": 1, "address": "\u897f\u85cf\u4e2d\u8def268\u53f7\u6765\u798f\u58eb\u5e7f\u573a01-18\u5e97\u94fa", "name": "\u9762\u5305\u65b0\u8bed \u6765\u798f\u58eb\u5e97", "id": 140073, "pageNo": 0, "pageCount": null, "pageSize": 10, "ids": null, "endTime": null, "startTime": null}, {"cardNumFive": null, "isSupportYj": null, "cityName": null, "districtName": null, "shopinfo": {"mid": "888888854410062", "good_flag": "2", "new_flag": "1", "short_name": "\u9762\u5305\u65b0\u8bed", "short_name_pinyin": "mianbaoxinyu", "status": null, "address": null, "name": null, "id": "32660"}, "mid": "888888854410062", "shopId": "32660", "netid": null, "province": 901, "district": 601, "zipcode": null, "telephone": "50336647", "posDate": "20071130", "destineTel": null, "togoTel": null, "trafficWay": "\u516c\u4ea4814 984", "signBuilding": "\u5927\u62c7\u6307\u5e7f\u573a", "businessArea": null, "selfRoom": null, "businessTime": "10:00~22:00", "stall": null, "consume": null, "serviceFei": null, "favourable": null, "shopMemo": null, "appraise": null, "website": null, "memo": null, "payTypes": "\u6749\u5fb7\u5361", "shopTypes": "\u9762\u5305\u897f\u997c", "consumeTypes": null, "cookTypes": null, "orderNum": 1000, "card4no": null, "card4noAcc": null, "district2": 418, "searchScope": null, "status": 1, "address": "\u82b3\u7538\u8def185\u53f7\u8054\u6d0b\u5bb6\u4e50\u798fB1", "name": "\u9762\u5305\u65b0\u8bed \u8054\u6d0b\u5e97", "id": 140074, "pageNo": 0, "pageCount": null, "pageSize": 10, "ids": null, "endTime": null, "startTime": null}, {"cardNumFive": null, "isSupportYj": null, "cityName": null, "districtName": null, "shopinfo": {"mid": "888888854410062", "good_flag": "2", "new_flag": "1", "short_name": "\u9762\u5305\u65b0\u8bed", "short_name_pinyin": "mianbaoxinyu", "status": null, "address": null, "name": null, "id": "32660"}, "mid": "888888854410062", "shopId": "32660", "netid": null, "province": 901, "district": 601, "zipcode": null, "telephone": "64267307", "posDate": "20071107", "destineTel": null, "togoTel": null, "trafficWay": "\u5730\u94c1\u4e00\u53f7\u7ebf \u516c\u4ea4572 93 830 50 43", "signBuilding": null, "businessArea": null, "selfRoom": null, "businessTime": "10:00~22:00", "stall": null, "consume": null, "serviceFei": null, "favourable": null, "shopMemo": null, "appraise": null, "website": null, "memo": null, "payTypes": "\u6749\u5fb7\u5361", "shopTypes": "\u9762\u5305\u897f\u997c", "consumeTypes": null, "cookTypes": null, "orderNum": 1000, "card4no": null, "card4noAcc": null, "district2": 403, "searchScope": null, "status": 1, "address": "\u8087\u5609\u6ee8\u8def1111\u53f7\u7f8e\u7f57\u57ce1-27\u5e97\u94fa", "name": "\u9762\u5305\u65b0\u8bed \u7f8e\u7f57\u5e97", "id": 140077, "pageNo": 0, "pageCount": null, "pageSize": 10, "ids": null, "endTime": null, "startTime": null}, {"cardNumFive": null, "isSupportYj": null, "cityName": null, "districtName": null, "shopinfo": {"mid": "888888854410062", "good_flag": "2", "new_flag": "1", "short_name": "\u9762\u5305\u65b0\u8bed", "short_name_pinyin": "mianbaoxinyu", "status": null, "address": null, "name": null, "id": "32660"}, "mid": "888888854410062", "shopId": "32660", "netid": null, "province": 901, "district": 601, "zipcode": null, "telephone": null, "posDate": "20091207", "destineTel": null, "togoTel": null, "trafficWay": null, "signBuilding": null, "businessArea": null, "selfRoom": null, "businessTime": null, "stall": null, "consume": null, "serviceFei": null, "favourable": null, "shopMemo": null, "appraise": null, "website": null, "memo": null, "payTypes": "\u6749\u5fb7\u5361", "shopTypes": "\u9762\u5305\u897f\u997c", "consumeTypes": null, "cookTypes": null, "orderNum": 1000, "card4no": null, "card4noAcc": null, "district2": 408, "searchScope": null, "status": 1, "address": "\u56db\u5ddd\u5317\u8def1689\u53f7B06", "name": "\u9762\u5305\u65b0\u8bed \u56db\u5ddd\u5317\u8def\u5e97", "id": 140078, "pageNo": 0, "pageCount": null, "pageSize": 10, "ids": null, "endTime": null, "startTime": null}], "pageLimit": 6770, "size": 10}