{"pageCount": 1095, "count": 10942, "pageNo": 674, "subShopInfo": {"cardNumFive": "", "isSupportYj": "", "cityName": null, "districtName": null, "shopinfo": {"mid": null, "good_flag": null, "new_flag": null, "short_name": null, "short_name_pinyin": null, "status": null, "address": "", "name": "", "id": null}, "mid": null, "shopId": null, "netid": null, "province": 901, "district": null, "zipcode": null, "telephone": null, "posDate": null, "destineTel": null, "togoTel": null, "trafficWay": null, "signBuilding": null, "businessArea": null, "selfRoom": null, "businessTime": null, "stall": null, "consume": null, "serviceFei": null, "favourable": null, "shopMemo": "1", "appraise": null, "website": null, "memo": null, "payTypes": "", "shopTypes": "", "consumeTypes": null, "cookTypes": null, "orderNum": null, "card4no": null, "card4noAcc": null, "district2": null, "searchScope": null, "status": null, "address": "", "name": null, "id": null, "pageNo": 673, "pageCount": null, "pageSize": 10, "ids": null, "endTime": null, "startTime": null}, "list": [{"cardNumFive": null, "isSupportYj": null, "cityName": null, "districtName": null, "shopinfo": {"mid": "888888880430009", "good_flag": "2", "new_flag": "2", "short_name": "\u8302\u660c\u773c\u955c", "short_name_pinyin": "maochangyanjing", "status": null, "address": null, "name": null, "id": "32609"}, "mid": "888888880430009", "shopId": "32609", "netid": null, "province": 901, "district": 601, "zipcode": null, "telephone": null, "posDate": "20070724", "destineTel": null, "togoTel": null, "trafficWay": "\u5730\u94c1\u4e8c\u53f7\u7ebf \u516c\u4ea4795", "signBuilding": null, "businessArea": null, "selfRoom": null, "businessTime": null, "stall": null, "consume": null, "serviceFei": null, "favourable": null, "shopMemo": null, "appraise": null, "website": null, "memo": null, "payTypes": "\u6749\u5fb7\u5361", "shopTypes": "\u96f6\u552e,\u4e13\u5356", "consumeTypes": null, "cookTypes": null, "orderNum": 1000, "card4no": null, "card4noAcc": null, "district2": 418, "searchScope": null, "status": 1, "address": "\u9646\u5bb6\u5634\u8def168\u53f7\u6b63\u5927\u5e7f\u573a4F09-10\u5355\u5143", "name": "\u8302\u660c\u773c\u955c \u6b63\u5927\u5e97", "id": 139949, "pageNo": 0, "pageCount": null, "pageSize": 10, "ids": null, "endTime": null, "startTime": null}, {"cardNumFive": null, "isSupportYj": null, "cityName": null, "districtName": null, "shopinfo": {"mid": "888888880430009", "good_flag": "2", "new_flag": "2", "short_name": "\u8302\u660c\u773c\u955c", "short_name_pinyin": "maochangyanjing", "status": null, "address": null, "name": null, "id": "32609"}, "mid": "888888880430009", "shopId": "32609", "netid": null, "province": 901, "district": 601, "zipcode": null, "telephone": null, "posDate": "20070724", "destineTel": null, "togoTel": null, "trafficWay": "\u516c\u4ea4537 139", "signBuilding": null, "businessArea": null, "selfRoom": null, "businessTime": null, "stall": null, "consume": null, "serviceFei": null, "favourable": null, "shopMemo": null, "appraise": null, "website": null, "memo": null, "payTypes": "\u6749\u5fb7\u5361", "shopTypes": "\u96f6\u552e,\u4e13\u5356", "consumeTypes": null, "cookTypes": null, "orderNum": 1000, "card4no": null, "card4noAcc": null, "district2": 407, "searchScope": null, "status": 1, "address": "\u5ae9\u6c5f\u8def1252\u53f7", "name": "\u8302\u660c\u773c\u955c \u4e2d\u539f\u5e97", "id": 139950, "pageNo": 0, "pageCount": null, "pageSize": 10, "ids": null, "endTime": null, "startTime": null}, {"cardNumFive": null, "isSupportYj": null, "cityName": null, "districtName": null, "shopinfo": {"mid": "888888880430009", "good_flag": null, "new_flag": null, "short_name": "\u8302\u660c\u773c\u955c", "short_name_pinyin": "maochangyanjing", "status": null, "address": null, "name": null, "id": "36222"}, "mid": "888888880430009", "shopId": "36222", "netid": null, "province": 901, "district": 601, "zipcode": null, "telephone": null, "posDate": "20100816", "destineTel": null, "togoTel": null, "trafficWay": null, "signBuilding": null, "businessArea": null, "selfRoom": null, "businessTime": null, "stall": null, "consume": null, "serviceFei": null, "favourable": null, "shopMemo": null, "appraise": null, "website": null, "memo": null, "payTypes": "\u6749\u5fb7\u5361", "shopTypes": "\u4e13\u5356", "consumeTypes": null, "cookTypes": null, "orderNum": 1000, "card4no": null, "card4noAcc": null, "district2": 401, "searchScope": null, "status": 1, "address": "\u5357\u4eac\u4e1c\u8def409-459\u53f7\u7f6e\u5730\u5e7f\u573a\u4e00\u697c\u8302\u660c\u773c\u955c", "name": "\u8302\u660c\u773c\u955c \u7f6e\u5730\u5e97", "id": 150948, "pageNo": 0, "pageCount": null, "pageSize": 10, "ids": null, "endTime": null, "startTime": null}, {"cardNumFive": null, "isSupportYj": null, "cityName": null, "districtName": null, "shopinfo": {"mid": "888888880430009", "good_flag": null, "new_flag": null, "short_name": "\u8302\u660c\u773c\u955c", "short_name_pinyin": "maochangyanjing", "status": null, "address": null, "name": null, "id": "36222"}, "mid": "888888880430009", "shopId": "36222", "netid": null, "province": 901, "district": 601, "zipcode": null, "telephone": null, "posDate": "20100816", "destineTel": null, "togoTel": null, "trafficWay": null, "signBuilding": null, "businessArea": null, "selfRoom": null, "businessTime": null, "stall": null, "consume": null, "serviceFei": null, "favourable": null, "shopMemo": null, "appraise": null, "website": null, "memo": null, "payTypes": "\u6749\u5fb7\u5361", "shopTypes": "\u4e13\u5356", "consumeTypes": null, "cookTypes": null, "orderNum": 1000, "card4no": null, "card4noAcc": null, "district2": 418, "searchScope": null, "status": 1, "address": "\u5ddd\u6c99\u8def5555\u5f049\u53f7A\u94fa", "name": "\u8302\u660c\u773c\u955c \u5ddd\u6c99\u4e1c\u6d77\u5cb8\u5e97", "id": 150949, "pageNo": 0, "pageCount": null, "pageSize": 10, "ids": null, "endTime": null, "startTime": null}, {"cardNumFive": null, "isSupportYj": null, "cityName": null, "districtName": null, "shopinfo": {"mid": "888888880430009", "good_flag": "2", "new_flag": "2", "short_name": "\u8302\u660c\u773c\u955c", "short_name_pinyin": "maochangyanjing", "status": null, "address": null, "name": null, "id": "32609"}, "mid": "888888880430009", "shopId": "32609", "netid": null, "province": 901, "district": 601, "zipcode": null, "telephone": null, "posDate": null, "destineTel": null, "togoTel": null, "trafficWay": null, "signBuilding": null, "businessArea": null, "selfRoom": null, "businessTime": null, "stall": null, "consume": null, "serviceFei": null, "favourable": null, "shopMemo": null, "appraise": null, "website": null, "memo": null, "payTypes": "\u6749\u5fb7\u5361", "shopTypes": "\u4e13\u5356", "consumeTypes": null, "cookTypes": null, "orderNum": 1000, "card4no": null, "card4noAcc": null, "district2": 406, "searchScope": null, "status": 1, "address": "\u5b9a\u897f\u8def1313\u53f7\u5e95\u697c", "name": "\u8302\u660c\u773c\u955c \u5b9a\u897f\u5e97", "id": 170085, "pageNo": 0, "pageCount": null, "pageSize": 10, "ids": null, "endTime": null, "startTime": null}, {"cardNumFive": null, "isSupportYj": null, "cityName": null, "districtName": null, "shopinfo": {"mid": "888002180430013", "good_flag": null, "new_flag": null, "short_name": "\u8302\u660c\u773c\u955c", "short_name_pinyin": "maochangyanjing", "status": null, "address": null, "name": null, "id": "43577"}, "mid": "888002180430013", "shopId": "43577", "netid": null, "province": 901, "district": 601, "zipcode": null, "telephone": null, "posDate": null, "destineTel": null, "togoTel": null, "trafficWay": null, "signBuilding": null, "businessArea": null, "selfRoom": null, "businessTime": null, "stall": null, "consume": null, "serviceFei": null, "favourable": null, "shopMemo": null, "appraise": null, "website": null, "memo": null, "payTypes": "\u6749\u5fb7\u5361", "shopTypes": "\u4e13\u5356", "consumeTypes": null, "cookTypes": null, "orderNum": 1000, "card4no": null, "card4noAcc": null, "district2": 403, "searchScope": null, "status": 1, "address": "\u8087\u5609\u6d5c\u8def1111\u53f7\u7f8e\u7f57\u57ce2\u697c2-8", "name": "\u8302\u660c\u773c\u955c \u7f8e\u7f57\u57ce\u5e97", "id": 198172, "pageNo": 0, "pageCount": null, "pageSize": 10, "ids": null, "endTime": null, "startTime": null}, {"cardNumFive": null, "isSupportYj": null, "cityName": null, "districtName": null, "shopinfo": {"mid": "888002154620038", "good_flag": null, "new_flag": null, "short_name": "Mcake", "short_name_pinyin": "mcake", "status": null, "address": null, "name": null, "id": "41232"}, "mid": "888002154620038", "shopId": "41232", "netid": null, "province": 901, "district": 601, "zipcode": null, "telephone": "4006678678", "posDate": null, "destineTel": null, "togoTel": null, "trafficWay": null, "signBuilding": null, "businessArea": null, "selfRoom": null, "businessTime": null, "stall": null, "consume": null, "serviceFei": null, "favourable": null, "shopMemo": null, "appraise": null, "website": "www.mcake.com", "memo": null, "payTypes": "\u6749\u5fb7\u5361", "shopTypes": "\u7f51\u4e0a\u8d2d\u7269", "consumeTypes": null, "cookTypes": null, "orderNum": 1000, "card4no": null, "card4noAcc": null, "district2": 405, "searchScope": null, "status": 1, "address": "\u4e2d\u5c71\u5317\u8def2020\u53f715\u697cAB\u5ea7", "name": "Mcake \u914d\u9001\u70b9", "id": 180642, "pageNo": 0, "pageCount": null, "pageSize": 10, "ids": null, "endTime": null, "startTime": null}, {"cardNumFive": null, "isSupportYj": null, "cityName": null, "districtName": null, "shopinfo": {"mid": "888002156910353", "good_flag": null, "new_flag": null, "short_name": "Me & city", "short_name_pinyin": "meandcity", "status": null, "address": null, "name": null, "id": "37700"}, "mid": "888002156910353", "shopId": "37700", "netid": null, "province": 901, "district": 601, "zipcode": null, "telephone": null, "posDate": null, "destineTel": null, "togoTel": null, "trafficWay": null, "signBuilding": null, "businessArea": null, "selfRoom": null, "businessTime": null, "stall": null, "consume": null, "serviceFei": null, "favourable": null, "shopMemo": null, "appraise": null, "website": null, "memo": null, "payTypes": "\u6749\u5fb7\u5361", "shopTypes": "\u96f6\u552e", "consumeTypes": null, "cookTypes": null, "orderNum": 1000, "card4no": null, "card4noAcc": null, "district2": 418, "searchScope": null, "status": 1, "address": "\u82b3\u7538\u8def258\u5f0413-27\u53f7\u8054\u6d0b\u5e7f\u573a3F-305", "name": "Me & city \u8054\u6d0b\u5e7f\u573a\u5e97", "id": 159863, "pageNo": 0, "pageCount": null, "pageSize": 10, "ids": null, "endTime": null, "startTime": null}, {"cardNumFive": null, "isSupportYj": null, "cityName": null, "districtName": null, "shopinfo": {"mid": "888002156910353", "good_flag": null, "new_flag": null, "short_name": "Me & city", "short_name_pinyin": "meandcity", "status": null, "address": null, "name": null, "id": "38108"}, "mid": "888002156910353", "shopId": "38108", "netid": null, "province": 901, "district": 601, "zipcode": null, "telephone": null, "posDate": null, "destineTel": null, "togoTel": null, "trafficWay": null, "signBuilding": null, "businessArea": null, "selfRoom": null, "businessTime": null, "stall": null, "consume": null, "serviceFei": null, "favourable": null, "shopMemo": null, "appraise": null, "website": null, "memo": null, "payTypes": "\u6749\u5fb7\u5361", "shopTypes": "\u670d\u9970\u5bb6\u7eba", "consumeTypes": null, "cookTypes": null, "orderNum": 1000, "card4no": null, "card4noAcc": null, "district2": 416, "searchScope": null, "status": 1, "address": "\u7261\u4e39\u6c5f\u8def1626\u53f7", "name": "Me & city \u7261\u4e39\u6c5f\u5e97", "id": 162175, "pageNo": 0, "pageCount": null, "pageSize": 10, "ids": null, "endTime": null, "startTime": null}, {"cardNumFive": null, "isSupportYj": null, "cityName": null, "districtName": null, "shopinfo": {"mid": "888002156910353", "good_flag": null, "new_flag": null, "short_name": "Me & city", "short_name_pinyin": "meandcity", "status": null, "address": null, "name": null, "id": "38108"}, "mid": "888002156910353", "shopId": "38108", "netid": null, "province": 901, "district": 601, "zipcode": null, "telephone": null, "posDate": null, "destineTel": null, "togoTel": null, "trafficWay": null, "signBuilding": null, "businessArea": null, "selfRoom": null, "businessTime": null, "stall": null, "consume": null, "serviceFei": null, "favourable": null, "shopMemo": null, "appraise": null, "website": null, "memo": null, "payTypes": "\u6749\u5fb7\u5361", "shopTypes": "\u670d\u9970\u5bb6\u7eba", "consumeTypes": null, "cookTypes": null, "orderNum": 1000, "card4no": null, "card4noAcc": null, "district2": 403, "searchScope": null, "status": 1, "address": "\u6842\u6797\u8def402\u53f71\u697c1102\u5546\u94fa", "name": "Me & city \u7530\u6797\u597d\u53c8\u591a\u5e97", "id": 162177, "pageNo": 0, "pageCount": null, "pageSize": 10, "ids": null, "endTime": null, "startTime": null}], "pageLimit": 6730, "size": 10}