{"pageCount": 1095, "count": 10942, "pageNo": 683, "subShopInfo": {"cardNumFive": "", "isSupportYj": "", "cityName": null, "districtName": null, "shopinfo": {"mid": null, "good_flag": null, "new_flag": null, "short_name": null, "short_name_pinyin": null, "status": null, "address": "", "name": "", "id": null}, "mid": null, "shopId": null, "netid": null, "province": 901, "district": null, "zipcode": null, "telephone": null, "posDate": null, "destineTel": null, "togoTel": null, "trafficWay": null, "signBuilding": null, "businessArea": null, "selfRoom": null, "businessTime": null, "stall": null, "consume": null, "serviceFei": null, "favourable": null, "shopMemo": "1", "appraise": null, "website": null, "memo": null, "payTypes": "", "shopTypes": "", "consumeTypes": null, "cookTypes": null, "orderNum": null, "card4no": null, "card4noAcc": null, "district2": null, "searchScope": null, "status": null, "address": "", "name": null, "id": null, "pageNo": 682, "pageCount": null, "pageSize": 10, "ids": null, "endTime": null, "startTime": null}, "list": [{"cardNumFive": null, "isSupportYj": null, "cityName": null, "districtName": null, "shopinfo": {"mid": "888002154410069", "good_flag": null, "new_flag": "2", "short_name": "\u9762\u5305\u65b0\u8bed", "short_name_pinyin": "mianbaoxinyu", "status": null, "address": null, "name": null, "id": "43100"}, "mid": "888002154410069", "shopId": "43100", "netid": null, "province": 901, "district": 601, "zipcode": null, "telephone": null, "posDate": null, "destineTel": null, "togoTel": null, "trafficWay": null, "signBuilding": null, "businessArea": null, "selfRoom": null, "businessTime": null, "stall": null, "consume": null, "serviceFei": null, "favourable": null, "shopMemo": null, "appraise": null, "website": null, "memo": null, "payTypes": "\u6749\u5fb7\u5361", "shopTypes": "\u9762\u5305\u897f\u997c", "consumeTypes": null, "cookTypes": null, "orderNum": 1000, "card4no": null, "card4noAcc": null, "district2": 403, "searchScope": null, "status": 1, "address": "\u6f15\u5b9d\u8def3366\u53f7\u4e0a\u6d77\u4e03\u5b9d\u4e07\u79d1\u5e7f\u573aL122A\u5355\u5143", "name": "\u9762\u5305\u65b0\u8bed TB\u4e03\u5b9d\u4e07\u79d1\u5e97", "id": 202210, "pageNo": 0, "pageCount": null, "pageSize": 10, "ids": null, "endTime": null, "startTime": null}, {"cardNumFive": null, "isSupportYj": null, "cityName": null, "districtName": null, "shopinfo": {"mid": "888002154410069", "good_flag": null, "new_flag": "2", "short_name": "\u9762\u5305\u65b0\u8bed", "short_name_pinyin": "mianbaoxinyu", "status": null, "address": null, "name": null, "id": "43100"}, "mid": "888002154410069", "shopId": "43100", "netid": null, "province": 901, "district": 601, "zipcode": null, "telephone": null, "posDate": null, "destineTel": null, "togoTel": null, "trafficWay": null, "signBuilding": null, "businessArea": null, "selfRoom": null, "businessTime": null, "stall": null, "consume": null, "serviceFei": null, "favourable": null, "shopMemo": null, "appraise": null, "website": null, "memo": null, "payTypes": "\u6749\u5fb7\u5361", "shopTypes": "\u9762\u5305\u897f\u997c", "consumeTypes": null, "cookTypes": null, "orderNum": 1000, "card4no": null, "card4noAcc": null, "district2": 406, "searchScope": null, "status": 1, "address": "\u9075\u4e49\u8def100\u53f71L106\u30012-L111", "name": "\u9762\u5305\u65b0\u8bed TB\u5357\u4e30\u57ce\u5e97", "id": 202214, "pageNo": 0, "pageCount": null, "pageSize": 10, "ids": null, "endTime": null, "startTime": null}, {"cardNumFive": null, "isSupportYj": null, "cityName": null, "districtName": null, "shopinfo": {"mid": "888002154410069", "good_flag": null, "new_flag": "2", "short_name": "\u9762\u5305\u65b0\u8bed", "short_name_pinyin": "mianbaoxinyu", "status": null, "address": null, "name": null, "id": "43100"}, "mid": "888002154410069", "shopId": "43100", "netid": null, "province": 901, "district": 601, "zipcode": null, "telephone": null, "posDate": null, "destineTel": null, "togoTel": null, "trafficWay": null, "signBuilding": null, "businessArea": null, "selfRoom": null, "businessTime": null, "stall": null, "consume": null, "serviceFei": null, "favourable": null, "shopMemo": null, "appraise": null, "website": null, "memo": null, "payTypes": "\u6749\u5fb7\u5361,", "shopTypes": "\u9762\u5305\u897f\u997c", "consumeTypes": null, "cookTypes": null, "orderNum": null, "card4no": null, "card4noAcc": null, "district2": 418, "searchScope": null, "status": 1, "address": "\u4e16\u535a\u5927\u90531368\u53f7\u7b2cB\u5c423\u533a3B17\u5ba4\u9762\u5305\u65b0\u8bed", "name": "\u4e16\u535a\u5927\u9053\u5e97", "id": 418057343826132992, "pageNo": 0, "pageCount": null, "pageSize": 10, "ids": null, "endTime": null, "startTime": null}, {"cardNumFive": null, "isSupportYj": null, "cityName": null, "districtName": null, "shopinfo": {"mid": "888002154410069", "good_flag": null, "new_flag": "2", "short_name": "\u9762\u5305\u65b0\u8bed", "short_name_pinyin": "mianbaoxinyu", "status": null, "address": null, "name": null, "id": "43100"}, "mid": "888002154410069", "shopId": "43100", "netid": null, "province": 901, "district": 601, "zipcode": null, "telephone": null, "posDate": null, "destineTel": null, "togoTel": null, "trafficWay": null, "signBuilding": null, "businessArea": null, "selfRoom": null, "businessTime": null, "stall": null, "consume": null, "serviceFei": null, "favourable": null, "shopMemo": null, "appraise": null, "website": null, "memo": null, "payTypes": "\u6749\u5fb7\u5361,", "shopTypes": "\u9762\u5305\u897f\u997c", "consumeTypes": null, "cookTypes": null, "orderNum": null, "card4no": null, "card4noAcc": null, "district2": 408, "searchScope": null, "status": 1, "address": "\u897f\u6c5f\u6e7e\u8def388\u53f7\uff08B\uff0901-14", "name": "\u897f\u6c5f\u6e7e\u8def\u5e97", "id": 418057364755709952, "pageNo": 0, "pageCount": null, "pageSize": 10, "ids": null, "endTime": null, "startTime": null}, {"cardNumFive": null, "isSupportYj": null, "cityName": null, "districtName": null, "shopinfo": {"mid": "888002154410069", "good_flag": null, "new_flag": "2", "short_name": "\u9762\u5305\u65b0\u8bed", "short_name_pinyin": "mianbaoxinyu", "status": null, "address": null, "name": null, "id": "43100"}, "mid": "888002154410069", "shopId": "43100", "netid": null, "province": 901, "district": 601, "zipcode": null, "telephone": null, "posDate": null, "destineTel": null, "togoTel": null, "trafficWay": null, "signBuilding": null, "businessArea": null, "selfRoom": null, "businessTime": null, "stall": null, "consume": null, "serviceFei": null, "favourable": null, "shopMemo": null, "appraise": null, "website": null, "memo": null, "payTypes": "\u6749\u5fb7\u5361,", "shopTypes": "\u9762\u5305\u897f\u997c", "consumeTypes": null, "cookTypes": null, "orderNum": null, "card4no": null, "card4noAcc": null, "district2": 418, "searchScope": null, "status": 1, "address": "\u82b3\u7538\u8def199\u5f04\u5927\u62c7\u6307\u5e7f\u573a1\u5c4285\u53f7\u552e\u8d27\u5385", "name": "\u82b3\u7538\u8def\u5e97", "id": 418057379687432192, "pageNo": 0, "pageCount": null, "pageSize": 10, "ids": null, "endTime": null, "startTime": null}, {"cardNumFive": null, "isSupportYj": null, "cityName": null, "districtName": null, "shopinfo": {"mid": "888002154410069", "good_flag": null, "new_flag": "2", "short_name": "\u9762\u5305\u65b0\u8bed", "short_name_pinyin": "mianbaoxinyu", "status": null, "address": null, "name": null, "id": "43100"}, "mid": "888002154410069", "shopId": "43100", "netid": null, "province": 901, "district": 601, "zipcode": null, "telephone": null, "posDate": null, "destineTel": null, "togoTel": null, "trafficWay": null, "signBuilding": null, "businessArea": null, "selfRoom": null, "businessTime": null, "stall": null, "consume": null, "serviceFei": null, "favourable": null, "shopMemo": null, "appraise": null, "website": null, "memo": null, "payTypes": "\u6749\u5fb7\u5361,", "shopTypes": "\u9762\u5305\u897f\u997c", "consumeTypes": null, "cookTypes": null, "orderNum": null, "card4no": null, "card4noAcc": null, "district2": 409, "searchScope": null, "status": 1, "address": "\u5174\u6885\u8def1204\u53f7\u8fd1\u83b2\u82b1\u5357\u8def", "name": "\u5174\u6885\u8def\u5e97", "id": 454317290041638912, "pageNo": 0, "pageCount": null, "pageSize": 10, "ids": null, "endTime": null, "startTime": null}, {"cardNumFive": null, "isSupportYj": null, "cityName": null, "districtName": null, "shopinfo": {"mid": "888002153110260", "good_flag": null, "new_flag": null, "short_name": "\u7c73\u683c\u5929\u5730", "short_name_pinyin": "migetiandi", "status": null, "address": null, "name": null, "id": "41875"}, "mid": "888002153110260", "shopId": "41875", "netid": null, "province": 901, "district": 601, "zipcode": null, "telephone": null, "posDate": null, "destineTel": null, "togoTel": null, "trafficWay": null, "signBuilding": null, "businessArea": null, "selfRoom": null, "businessTime": null, "stall": null, "consume": null, "serviceFei": null, "favourable": null, "shopMemo": null, "appraise": null, "website": null, "memo": null, "payTypes": "\u6749\u5fb7\u5361", "shopTypes": "\u767e\u8d27", "consumeTypes": null, "cookTypes": null, "orderNum": 1000, "card4no": null, "card4noAcc": null, "district2": 417, "searchScope": null, "status": 1, "address": "\u5609\u677e\u4e2d\u8def5999\u5f04", "name": "\u7c73\u683c\u5929\u5730 \u9752\u6d66\u5e97", "id": 186176, "pageNo": 0, "pageCount": null, "pageSize": 10, "ids": null, "endTime": null, "startTime": null}, {"cardNumFive": null, "isSupportYj": null, "cityName": null, "districtName": null, "shopinfo": {"mid": "888888859120130", "good_flag": "2", "new_flag": "2", "short_name": "\u6c11\u9a8b\u5927\u836f\u623f", "short_name_pinyin": "minchengdayaofang", "status": null, "address": null, "name": null, "id": "32661"}, "mid": "888888859120130", "shopId": "32661", "netid": null, "province": 901, "district": 601, "zipcode": null, "telephone": null, "posDate": "20080910", "destineTel": null, "togoTel": null, "trafficWay": "\u516c\u4ea4609 989 \u65b9\u5ddd\u4e13\u7ebf", "signBuilding": null, "businessArea": null, "selfRoom": null, "businessTime": "9:00~18:00", "stall": null, "consume": null, "serviceFei": null, "favourable": null, "shopMemo": null, "appraise": null, "website": null, "memo": null, "payTypes": "\u6749\u5fb7\u5361", "shopTypes": "\u836f\u5e97", "consumeTypes": null, "cookTypes": null, "orderNum": 1000, "card4no": null, "card4noAcc": null, "district2": 418, "searchScope": null, "status": 1, "address": "\u91d1\u6865\u8def3307\u53f7", "name": "\u6c11\u9a8b\u5927\u836f\u623f \u91d1\u6865\u5e97", "id": 140084, "pageNo": 0, "pageCount": null, "pageSize": 10, "ids": null, "endTime": null, "startTime": null}, {"cardNumFive": null, "isSupportYj": null, "cityName": null, "districtName": null, "shopinfo": {"mid": "888888870110047", "good_flag": "2", "new_flag": "2", "short_name": "\u660e\u57ce\u5927\u9152\u5e97", "short_name_pinyin": "mingchengdajiudian", "status": null, "address": null, "name": null, "id": "32674"}, "mid": "888888870110047", "shopId": "32674", "netid": null, "province": 901, "district": 601, "zipcode": null, "telephone": "58311118-3031", "posDate": "20080429", "destineTel": "58311118", "togoTel": null, "trafficWay": "\u516c\u4ea4980 451 \u5730\u94c1\u4e8c\u53f7\u7ebf", "signBuilding": null, "businessArea": "4.2\u4e07\u5e73\u65b9\u7c73", "selfRoom": null, "businessTime": "24\u5c0f\u65f6", "stall": "\u6709", "consume": null, "serviceFei": null, "favourable": null, "shopMemo": null, "appraise": null, "website": null, "memo": null, "payTypes": "\u6749\u5fb7\u5361", "shopTypes": "\u65c5\u6e38\u5f71\u9662", "consumeTypes": null, "cookTypes": null, "orderNum": 1000, "card4no": null, "card4noAcc": null, "district2": 418, "searchScope": null, "status": 1, "address": "\u5d02\u5c71\u8def600\u53f7", "name": "\u660e\u57ce\u5927\u9152\u5e97 \u5d02\u5c71\u8def\u5e97", "id": 140106, "pageNo": 0, "pageCount": null, "pageSize": 10, "ids": null, "endTime": null, "startTime": null}, {"cardNumFive": null, "isSupportYj": null, "cityName": null, "districtName": null, "shopinfo": {"mid": "888888850940016", "good_flag": "2", "new_flag": "2", "short_name": "\u8317\u94bb\u574a", "short_name_pinyin": "mingzuanfang", "status": null, "address": null, "name": null, "id": "32683"}, "mid": "888888850940016", "shopId": "32683", "netid": null, "province": 901, "district": 601, "zipcode": null, "telephone": "57812227", "posDate": null, "destineTel": null, "togoTel": null, "trafficWay": "\u6caa\u677e\u4e13\u7ebf \u6caa\u6885\u4e13\u7ebf", "signBuilding": null, "businessArea": null, "selfRoom": null, "businessTime": null, "stall": null, "consume": null, "serviceFei": null, "favourable": null, "shopMemo": null, "appraise": null, "website": null, "memo": null, "payTypes": "\u6749\u5fb7\u5361", "shopTypes": "\u96f6\u552e", "consumeTypes": null, "cookTypes": null, "orderNum": 1000, "card4no": null, "card4noAcc": null, "district2": 412, "searchScope": null, "status": 1, "address": "\u4e2d\u5c71\u4e2d\u8def177\u53f7", "name": "\u8317\u94bb\u574a \u4e2d\u5c71\u4e2d\u8def\u5e97", "id": 140130, "pageNo": 0, "pageCount": null, "pageSize": 10, "ids": null, "endTime": null, "startTime": null}], "pageLimit": 6820, "size": 10}