{"pageCount": 1095, "count": 10942, "pageNo": 684, "subShopInfo": {"cardNumFive": "", "isSupportYj": "", "cityName": null, "districtName": null, "shopinfo": {"mid": null, "good_flag": null, "new_flag": null, "short_name": null, "short_name_pinyin": null, "status": null, "address": "", "name": "", "id": null}, "mid": null, "shopId": null, "netid": null, "province": 901, "district": null, "zipcode": null, "telephone": null, "posDate": null, "destineTel": null, "togoTel": null, "trafficWay": null, "signBuilding": null, "businessArea": null, "selfRoom": null, "businessTime": null, "stall": null, "consume": null, "serviceFei": null, "favourable": null, "shopMemo": "1", "appraise": null, "website": null, "memo": null, "payTypes": "", "shopTypes": "", "consumeTypes": null, "cookTypes": null, "orderNum": null, "card4no": null, "card4noAcc": null, "district2": null, "searchScope": null, "status": null, "address": "", "name": null, "id": null, "pageNo": 683, "pageCount": null, "pageSize": 10, "ids": null, "endTime": null, "startTime": null}, "list": [{"cardNumFive": null, "isSupportYj": null, "cityName": null, "districtName": null, "shopinfo": {"mid": "888888853990239", "good_flag": "2", "new_flag": "1", "short_name": "\u8611\u83c7\u5b9d\u8d1d", "short_name_pinyin": "mogubaobei", "status": null, "address": null, "name": null, "id": "32687"}, "mid": "888888853990239", "shopId": "32687", "netid": null, "province": 901, "district": 601, "zipcode": null, "telephone": "36527003", "posDate": "20100610", "destineTel": null, "togoTel": null, "trafficWay": null, "signBuilding": null, "businessArea": null, "selfRoom": null, "businessTime": null, "stall": null, "consume": null, "serviceFei": null, "favourable": null, "shopMemo": null, "appraise": null, "website": null, "memo": null, "payTypes": "\u6749\u5fb7\u5361", "shopTypes": "\u96f6\u552e", "consumeTypes": null, "cookTypes": null, "orderNum": 1000, "card4no": null, "card4noAcc": null, "district2": 416, "searchScope": null, "status": 1, "address": "\u5927\u534e\u8def538\u53f7\u6fb3\u6d32\u5e7f\u573a208\u5ba4", "name": "\u8611\u83c7\u5b9d\u8d1d \u5927\u534e\u5e97", "id": 140138, "pageNo": 0, "pageCount": null, "pageSize": 10, "ids": null, "endTime": null, "startTime": null}, {"cardNumFive": null, "isSupportYj": null, "cityName": null, "districtName": null, "shopinfo": {"mid": "888002156411023", "good_flag": "2", "new_flag": "1", "short_name": "\u8611\u83c7\u5b9d\u8d1d", "short_name_pinyin": "mogubaobei", "status": null, "address": null, "name": null, "id": "32688"}, "mid": "888002156411023", "shopId": "32688", "netid": null, "province": 901, "district": 601, "zipcode": null, "telephone": "64024709", "posDate": "20100607", "destineTel": null, "togoTel": null, "trafficWay": null, "signBuilding": null, "businessArea": null, "selfRoom": null, "businessTime": null, "stall": null, "consume": null, "serviceFei": null, "favourable": null, "shopMemo": null, "appraise": null, "website": null, "memo": null, "payTypes": "\u6749\u5fb7\u5361", "shopTypes": "\u4e13\u5356", "consumeTypes": null, "cookTypes": null, "orderNum": 1000, "card4no": null, "card4noAcc": null, "district2": 409, "searchScope": null, "status": 1, "address": "\u8679\u4e95\u8def608\u53f7", "name": "\u8611\u83c7\u5b9d\u8d1d \u8679\u4e95\u8def\u5e97", "id": 140139, "pageNo": 0, "pageCount": null, "pageSize": 10, "ids": null, "endTime": null, "startTime": null}, {"cardNumFive": null, "isSupportYj": null, "cityName": null, "districtName": null, "shopinfo": {"mid": "888002156411023", "good_flag": "2", "new_flag": "1", "short_name": "\u8611\u83c7\u5b9d\u8d1d", "short_name_pinyin": "mogubaobei", "status": null, "address": null, "name": null, "id": "32688"}, "mid": "888002156411023", "shopId": "32688", "netid": null, "province": 901, "district": 601, "zipcode": null, "telephone": "37821630", "posDate": "20100607", "destineTel": null, "togoTel": null, "trafficWay": null, "signBuilding": null, "businessArea": null, "selfRoom": null, "businessTime": null, "stall": null, "consume": null, "serviceFei": null, "favourable": null, "shopMemo": null, "appraise": null, "website": null, "memo": null, "payTypes": "\u6749\u5fb7\u5361", "shopTypes": "\u4e13\u5356", "consumeTypes": null, "cookTypes": null, "orderNum": 1000, "card4no": null, "card4noAcc": null, "district2": 412, "searchScope": null, "status": 1, "address": "\u6caa\u4ead\u5317\u8def350\u5f046-8\u53f7", "name": "\u8611\u83c7\u5b9d\u8d1d \u6caa\u4ead\u5317\u8def\u5e97", "id": 140140, "pageNo": 0, "pageCount": null, "pageSize": 10, "ids": null, "endTime": null, "startTime": null}, {"cardNumFive": null, "isSupportYj": null, "cityName": null, "districtName": null, "shopinfo": {"mid": "888002156411023", "good_flag": "2", "new_flag": "1", "short_name": "\u8611\u83c7\u5b9d\u8d1d", "short_name_pinyin": "mogubaobei", "status": null, "address": null, "name": null, "id": "32688"}, "mid": "888002156411023", "shopId": "32688", "netid": null, "province": 901, "district": 601, "zipcode": null, "telephone": null, "posDate": "20100607", "destineTel": null, "togoTel": null, "trafficWay": null, "signBuilding": null, "businessArea": null, "selfRoom": null, "businessTime": null, "stall": null, "consume": null, "serviceFei": null, "favourable": null, "shopMemo": null, "appraise": null, "website": null, "memo": null, "payTypes": "\u6749\u5fb7\u5361", "shopTypes": "\u4e13\u5356", "consumeTypes": null, "cookTypes": null, "orderNum": 1000, "card4no": null, "card4noAcc": null, "district2": 418, "searchScope": null, "status": 1, "address": "\u6d66\u4e1c\u5357\u8def2250\u53f7", "name": "\u8611\u83c7\u5b9d\u8d1d \u6d66\u4e1c\u5357\u8def\u5e97", "id": 140141, "pageNo": 0, "pageCount": null, "pageSize": 10, "ids": null, "endTime": null, "startTime": null}, {"cardNumFive": null, "isSupportYj": null, "cityName": null, "districtName": null, "shopinfo": {"mid": "888888880430079", "good_flag": "2", "new_flag": "2", "short_name": "MOSCOT", "short_name_pinyin": "moscot", "status": null, "address": null, "name": null, "id": "31053"}, "mid": "888888880430079", "shopId": "31053", "netid": null, "province": 901, "district": 601, "zipcode": null, "telephone": "54072121-15/63756385/62993338*16", "posDate": "20090401", "destineTel": null, "togoTel": null, "trafficWay": null, "signBuilding": null, "businessArea": null, "selfRoom": null, "businessTime": "8:30~22:00", "stall": null, "consume": null, "serviceFei": null, "favourable": null, "shopMemo": null, "appraise": null, "website": null, "memo": null, "payTypes": "\u6749\u5fb7\u5361", "shopTypes": "\u4e13\u5356", "consumeTypes": null, "cookTypes": null, "orderNum": 1000, "card4no": null, "card4noAcc": null, "district2": 401, "searchScope": null, "status": 1, "address": "\u6dee\u6d77\u4e2d\u8def138\u53f72\u697c15-16", "name": "MOSCOT \u65e0\u9650\u5ea6\u5e97", "id": 132069, "pageNo": 0, "pageCount": null, "pageSize": 10, "ids": null, "endTime": null, "startTime": null}, {"cardNumFive": null, "isSupportYj": null, "cityName": null, "districtName": null, "shopinfo": {"mid": "888888880430079", "good_flag": "2", "new_flag": "2", "short_name": "MOSCOT", "short_name_pinyin": "moscot", "status": null, "address": null, "name": null, "id": "31053"}, "mid": "888888880430079", "shopId": "31053", "netid": null, "province": 901, "district": 601, "zipcode": null, "telephone": "62993338*16/58777793\uff08\u95e8\u5e97\uff09", "posDate": "20090401", "destineTel": null, "togoTel": null, "trafficWay": null, "signBuilding": null, "businessArea": null, "selfRoom": null, "businessTime": "10:00~22:00", "stall": null, "consume": null, "serviceFei": null, "favourable": null, "shopMemo": null, "appraise": null, "website": null, "memo": null, "payTypes": "\u6749\u5fb7\u5361", "shopTypes": "\u4e13\u5356", "consumeTypes": null, "cookTypes": null, "orderNum": 1000, "card4no": null, "card4noAcc": null, "district2": 418, "searchScope": null, "status": 1, "address": "\u6d66\u4e1c\u5357\u8def999\u53f7\u65b0\u6885\u8054\u5408\u5e7f\u573a111\u5355\u5143", "name": "MOSCOT \u65b0\u6885\u5e97", "id": 132070, "pageNo": 0, "pageCount": null, "pageSize": 10, "ids": null, "endTime": null, "startTime": null}, {"cardNumFive": null, "isSupportYj": null, "cityName": null, "districtName": null, "shopinfo": {"mid": "888888880430079", "good_flag": "2", "new_flag": "2", "short_name": "MOSCOT", "short_name_pinyin": "moscot", "status": null, "address": null, "name": null, "id": "31053"}, "mid": "888888880430079", "shopId": "31053", "netid": null, "province": 901, "district": 601, "zipcode": null, "telephone": "63842038/62993338*16", "posDate": "20090401", "destineTel": null, "togoTel": null, "trafficWay": null, "signBuilding": null, "businessArea": null, "selfRoom": null, "businessTime": "10:00~22:00", "stall": null, "consume": null, "serviceFei": null, "favourable": null, "shopMemo": null, "appraise": null, "website": null, "memo": null, "payTypes": "\u6749\u5fb7\u5361", "shopTypes": "\u4e13\u5356", "consumeTypes": null, "cookTypes": null, "orderNum": 1000, "card4no": null, "card4noAcc": null, "district2": 401, "searchScope": null, "status": 1, "address": "\u5174\u4e1a\u8def123/24-6/\u5174\u4e1a\u8def12\u5f046\u53f72\u697c24-6", "name": "MOSCOT \u65b0\u5929\u5730\u5e97", "id": 132071, "pageNo": 0, "pageCount": null, "pageSize": 10, "ids": null, "endTime": null, "startTime": null}, {"cardNumFive": null, "isSupportYj": null, "cityName": null, "districtName": null, "shopinfo": {"mid": "888888858120805", "good_flag": null, "new_flag": null, "short_name": "\u964c\u751f\u4eba\u706b\u9505", "short_name_pinyin": "moshengrenhuoguo", "status": null, "address": null, "name": null, "id": "32691"}, "mid": "888888858120805", "shopId": "32691", "netid": null, "province": 901, "district": 601, "zipcode": null, "telephone": "58522380", "posDate": null, "destineTel": null, "togoTel": null, "trafficWay": null, "signBuilding": null, "businessArea": null, "selfRoom": null, "businessTime": null, "stall": null, "consume": null, "serviceFei": null, "favourable": null, "shopMemo": null, "appraise": null, "website": null, "memo": null, "payTypes": ",\u6749\u5fb7\u5361", "shopTypes": "\u9910\u996e", "consumeTypes": null, "cookTypes": null, "orderNum": 1000, "card4no": null, "card4noAcc": null, "district2": 418, "searchScope": null, "status": 1, "address": "\u535a\u5c71\u4e1c\u8def21-2\u53f7", "name": "\u964c\u751f\u4eba\u706b\u9505 \u535a\u5c71\u8def\u5e97", "id": 140145, "pageNo": 0, "pageCount": null, "pageSize": 10, "ids": null, "endTime": null, "startTime": null}, {"cardNumFive": null, "isSupportYj": null, "cityName": null, "districtName": null, "shopinfo": {"mid": "888888858120805", "good_flag": null, "new_flag": null, "short_name": "\u964c\u751f\u4eba\u706b\u9505", "short_name_pinyin": "moshengrenhuoguo", "status": null, "address": null, "name": null, "id": "32691"}, "mid": "888888858120805", "shopId": "32691", "netid": null, "province": 901, "district": 601, "zipcode": null, "telephone": "58866868", "posDate": null, "destineTel": null, "togoTel": null, "trafficWay": null, "signBuilding": null, "businessArea": null, "selfRoom": null, "businessTime": null, "stall": null, "consume": null, "serviceFei": null, "favourable": null, "shopMemo": null, "appraise": null, "website": null, "memo": null, "payTypes": ",\u6749\u5fb7\u5361", "shopTypes": "\u9910\u996e", "consumeTypes": null, "cookTypes": null, "orderNum": 1000, "card4no": null, "card4noAcc": null, "district2": 418, "searchScope": null, "status": 1, "address": "\u660c\u91cc\u8def113\u53f7", "name": "\u964c\u751f\u4eba\u706b\u9505 \u660c\u91cc\u8def\u5e97", "id": 140146, "pageNo": 0, "pageCount": null, "pageSize": 10, "ids": null, "endTime": null, "startTime": null}, {"cardNumFive": null, "isSupportYj": null, "cityName": null, "districtName": null, "shopinfo": {"mid": "888888858120805", "good_flag": null, "new_flag": null, "short_name": "\u964c\u751f\u4eba\u706b\u9505", "short_name_pinyin": "moshengrenhuoguo", "status": null, "address": null, "name": null, "id": "32691"}, "mid": "888888858120805", "shopId": "32691", "netid": null, "province": 901, "district": 601, "zipcode": null, "telephone": "58602471", "posDate": null, "destineTel": null, "togoTel": null, "trafficWay": null, "signBuilding": null, "businessArea": null, "selfRoom": null, "businessTime": null, "stall": null, "consume": null, "serviceFei": null, "favourable": null, "shopMemo": null, "appraise": null, "website": null, "memo": null, "payTypes": ",\u6749\u5fb7\u5361", "shopTypes": "\u9910\u996e", "consumeTypes": null, "cookTypes": null, "orderNum": 1000, "card4no": null, "card4noAcc": null, "district2": 418, "searchScope": null, "status": 1, "address": "\u5d2e\u5c71\u8def375\u53f7", "name": "\u964c\u751f\u4eba\u706b\u9505 \u5d2e\u5c71\u8def\u5e97", "id": 140149, "pageNo": 0, "pageCount": null, "pageSize": 10, "ids": null, "endTime": null, "startTime": null}], "pageLimit": 6830, "size": 10}