{"pageCount": 1095, "count": 10942, "pageNo": 680, "subShopInfo": {"cardNumFive": "", "isSupportYj": "", "cityName": null, "districtName": null, "shopinfo": {"mid": null, "good_flag": null, "new_flag": null, "short_name": null, "short_name_pinyin": null, "status": null, "address": "", "name": "", "id": null}, "mid": null, "shopId": null, "netid": null, "province": 901, "district": null, "zipcode": null, "telephone": null, "posDate": null, "destineTel": null, "togoTel": null, "trafficWay": null, "signBuilding": null, "businessArea": null, "selfRoom": null, "businessTime": null, "stall": null, "consume": null, "serviceFei": null, "favourable": null, "shopMemo": "1", "appraise": null, "website": null, "memo": null, "payTypes": "", "shopTypes": "", "consumeTypes": null, "cookTypes": null, "orderNum": null, "card4no": null, "card4noAcc": null, "district2": null, "searchScope": null, "status": null, "address": "", "name": null, "id": null, "pageNo": 679, "pageCount": null, "pageSize": 10, "ids": null, "endTime": null, "startTime": null}, "list": [{"cardNumFive": null, "isSupportYj": null, "cityName": null, "districtName": null, "shopinfo": {"mid": "888888854410062", "good_flag": "2", "new_flag": "1", "short_name": "\u9762\u5305\u65b0\u8bed", "short_name_pinyin": "mianbaoxinyu", "status": null, "address": null, "name": null, "id": "32660"}, "mid": "888888854410062", "shopId": "32660", "netid": null, "province": 901, "district": 601, "zipcode": null, "telephone": "31315236", "posDate": null, "destineTel": null, "togoTel": null, "trafficWay": null, "signBuilding": null, "businessArea": null, "selfRoom": null, "businessTime": null, "stall": null, "consume": null, "serviceFei": null, "favourable": null, "shopMemo": null, "appraise": null, "website": null, "memo": null, "payTypes": "\u6749\u5fb7\u5361", "shopTypes": "\u9762\u5305\u897f\u997c", "consumeTypes": null, "cookTypes": null, "orderNum": 1000, "card4no": null, "card4noAcc": null, "district2": 405, "searchScope": null, "status": 1, "address": "\u957f\u5bff\u8def155\u53f7", "name": "\u9762\u5305\u65b0\u8bed \u666e\u9640\u5df4\u6625\u5e97", "id": 168472, "pageNo": 0, "pageCount": null, "pageSize": 10, "ids": null, "endTime": null, "startTime": null}, {"cardNumFive": null, "isSupportYj": null, "cityName": null, "districtName": null, "shopinfo": {"mid": "888888854410062", "good_flag": "2", "new_flag": "1", "short_name": "\u9762\u5305\u65b0\u8bed", "short_name_pinyin": "mianbaoxinyu", "status": null, "address": null, "name": null, "id": "32660"}, "mid": "888888854410062", "shopId": "32660", "netid": null, "province": 901, "district": 601, "zipcode": null, "telephone": null, "posDate": null, "destineTel": null, "togoTel": null, "trafficWay": null, "signBuilding": null, "businessArea": null, "selfRoom": null, "businessTime": null, "stall": null, "consume": null, "serviceFei": null, "favourable": null, "shopMemo": null, "appraise": null, "website": null, "memo": null, "payTypes": "\u6749\u5fb7\u5361", "shopTypes": "\u9762\u5305\u897f\u997c", "consumeTypes": null, "cookTypes": null, "orderNum": 1000, "card4no": null, "card4noAcc": null, "district2": 413, "searchScope": null, "status": 1, "address": "\u767e\u9f50\u8def228-288\u53f71\u697c", "name": "\u9762\u5305\u65b0\u8bed \u5949\u8d24\u5e97", "id": 168473, "pageNo": 0, "pageCount": null, "pageSize": 10, "ids": null, "endTime": null, "startTime": null}, {"cardNumFive": null, "isSupportYj": null, "cityName": null, "districtName": null, "shopinfo": {"mid": "888888854410062", "good_flag": "2", "new_flag": "1", "short_name": "\u9762\u5305\u65b0\u8bed", "short_name_pinyin": "mianbaoxinyu", "status": null, "address": null, "name": null, "id": "32660"}, "mid": "888888854410062", "shopId": "32660", "netid": null, "province": 901, "district": 601, "zipcode": null, "telephone": null, "posDate": null, "destineTel": null, "togoTel": null, "trafficWay": null, "signBuilding": null, "businessArea": null, "selfRoom": null, "businessTime": null, "stall": null, "consume": null, "serviceFei": null, "favourable": null, "shopMemo": null, "appraise": null, "website": null, "memo": null, "payTypes": "\u6749\u5fb7\u5361", "shopTypes": "\u9762\u5305\u897f\u997c", "consumeTypes": null, "cookTypes": null, "orderNum": 1000, "card4no": null, "card4noAcc": null, "district2": 406, "searchScope": null, "status": 1, "address": "\u4ed9\u971e\u897f\u8def88\u53f7", "name": "\u9762\u5305\u65b0\u8bed \u897f\u90ca\u767e\u8054\u5e97", "id": 168474, "pageNo": 0, "pageCount": null, "pageSize": 10, "ids": null, "endTime": null, "startTime": null}, {"cardNumFive": null, "isSupportYj": null, "cityName": null, "districtName": null, "shopinfo": {"mid": "888888854410062", "good_flag": "2", "new_flag": "1", "short_name": "\u9762\u5305\u65b0\u8bed", "short_name_pinyin": "mianbaoxinyu", "status": null, "address": null, "name": null, "id": "32660"}, "mid": "888888854410062", "shopId": "32660", "netid": null, "province": 901, "district": 601, "zipcode": null, "telephone": "50382577", "posDate": null, "destineTel": null, "togoTel": null, "trafficWay": null, "signBuilding": null, "businessArea": null, "selfRoom": null, "businessTime": null, "stall": null, "consume": null, "serviceFei": null, "favourable": null, "shopMemo": null, "appraise": null, "website": null, "memo": null, "payTypes": "\u6749\u5fb7\u5361", "shopTypes": "\u9762\u5305\u897f\u997c", "consumeTypes": null, "cookTypes": null, "orderNum": 1000, "card4no": null, "card4noAcc": null, "district2": 418, "searchScope": null, "status": 1, "address": "\u5f20\u6768\u5317\u8def801\u53f71\u697c", "name": "\u9762\u5305\u65b0\u8bed \u5f20\u6768\u5e97", "id": 168476, "pageNo": 0, "pageCount": null, "pageSize": 10, "ids": null, "endTime": null, "startTime": null}, {"cardNumFive": null, "isSupportYj": null, "cityName": null, "districtName": null, "shopinfo": {"mid": "888888854410062", "good_flag": "2", "new_flag": "1", "short_name": "\u9762\u5305\u65b0\u8bed", "short_name_pinyin": "mianbaoxinyu", "status": null, "address": null, "name": null, "id": "32660"}, "mid": "888888854410062", "shopId": "32660", "netid": null, "province": 901, "district": 601, "zipcode": null, "telephone": null, "posDate": null, "destineTel": null, "togoTel": null, "trafficWay": null, "signBuilding": null, "businessArea": null, "selfRoom": null, "businessTime": null, "stall": null, "consume": null, "serviceFei": null, "favourable": null, "shopMemo": null, "appraise": null, "website": null, "memo": null, "payTypes": "\u6749\u5fb7\u5361", "shopTypes": "\u9762\u5305\u897f\u997c", "consumeTypes": null, "cookTypes": null, "orderNum": 1000, "card4no": null, "card4noAcc": null, "district2": 418, "searchScope": null, "status": 1, "address": "\u6d66\u4e1c\u5357\u8def1085\u53f71\u697c", "name": "\u9762\u5305\u65b0\u8bed \u534e\u7533\u5e97", "id": 168477, "pageNo": 0, "pageCount": null, "pageSize": 10, "ids": null, "endTime": null, "startTime": null}, {"cardNumFive": null, "isSupportYj": null, "cityName": null, "districtName": null, "shopinfo": {"mid": "888888854410062", "good_flag": "2", "new_flag": "1", "short_name": "\u9762\u5305\u65b0\u8bed", "short_name_pinyin": "mianbaoxinyu", "status": null, "address": null, "name": null, "id": "32660"}, "mid": "888888854410062", "shopId": "32660", "netid": null, "province": 901, "district": 601, "zipcode": null, "telephone": null, "posDate": null, "destineTel": null, "togoTel": null, "trafficWay": null, "signBuilding": null, "businessArea": null, "selfRoom": null, "businessTime": null, "stall": null, "consume": null, "serviceFei": null, "favourable": null, "shopMemo": null, "appraise": null, "website": null, "memo": null, "payTypes": "\u6749\u5fb7\u5361", "shopTypes": "\u9762\u5305\u897f\u997c", "consumeTypes": null, "cookTypes": null, "orderNum": 1000, "card4no": null, "card4noAcc": null, "district2": 418, "searchScope": null, "status": 1, "address": "\u82b1\u6728\u8def1378\u53f7", "name": "\u9762\u5305\u65b0\u8bed \u5609\u91cc\u57ce\u5e97", "id": 168478, "pageNo": 0, "pageCount": null, "pageSize": 10, "ids": null, "endTime": null, "startTime": null}, {"cardNumFive": null, "isSupportYj": null, "cityName": null, "districtName": null, "shopinfo": {"mid": "888888854410062", "good_flag": "2", "new_flag": "1", "short_name": "\u9762\u5305\u65b0\u8bed", "short_name_pinyin": "mianbaoxinyu", "status": null, "address": null, "name": null, "id": "32660"}, "mid": "888888854410062", "shopId": "32660", "netid": null, "province": 901, "district": 601, "zipcode": null, "telephone": "32567383", "posDate": null, "destineTel": null, "togoTel": null, "trafficWay": null, "signBuilding": null, "businessArea": null, "selfRoom": null, "businessTime": null, "stall": null, "consume": null, "serviceFei": null, "favourable": null, "shopMemo": null, "appraise": null, "website": null, "memo": null, "payTypes": "\u6749\u5fb7\u5361", "shopTypes": "\u9762\u5305\u897f\u997c", "consumeTypes": null, "cookTypes": null, "orderNum": 1000, "card4no": null, "card4noAcc": null, "district2": 406, "searchScope": null, "status": 1, "address": "\u957f\u5b81\u8def1018\u53f7\u5730\u4e0b\u4e8c\u697c", "name": "\u9762\u5305\u65b0\u8bed \u957f\u5b81\u9f99\u4e4b\u68a6\u5e97", "id": 168479, "pageNo": 0, "pageCount": null, "pageSize": 10, "ids": null, "endTime": null, "startTime": null}, {"cardNumFive": null, "isSupportYj": null, "cityName": null, "districtName": null, "shopinfo": {"mid": "888888854410062", "good_flag": "2", "new_flag": "1", "short_name": "\u9762\u5305\u65b0\u8bed", "short_name_pinyin": "mianbaoxinyu", "status": null, "address": null, "name": null, "id": "32660"}, "mid": "888888854410062", "shopId": "32660", "netid": null, "province": 901, "district": 601, "zipcode": null, "telephone": "36396816", "posDate": null, "destineTel": null, "togoTel": null, "trafficWay": null, "signBuilding": null, "businessArea": null, "selfRoom": null, "businessTime": null, "stall": null, "consume": null, "serviceFei": null, "favourable": null, "shopMemo": null, "appraise": null, "website": null, "memo": null, "payTypes": "\u6749\u5fb7\u5361", "shopTypes": "\u9762\u5305\u897f\u997c", "consumeTypes": null, "cookTypes": null, "orderNum": 1000, "card4no": null, "card4noAcc": null, "district2": 416, "searchScope": null, "status": 1, "address": "\u5927\u534e\u8def518\u53f71\u697c", "name": "\u9762\u5305\u65b0\u8bed \u5927\u534e\u4e50\u8d2d\u5e97", "id": 168480, "pageNo": 0, "pageCount": null, "pageSize": 10, "ids": null, "endTime": null, "startTime": null}, {"cardNumFive": null, "isSupportYj": null, "cityName": null, "districtName": null, "shopinfo": {"mid": "888888854410062", "good_flag": "2", "new_flag": "1", "short_name": "\u9762\u5305\u65b0\u8bed", "short_name_pinyin": "mianbaoxinyu", "status": null, "address": null, "name": null, "id": "32660"}, "mid": "888888854410062", "shopId": "32660", "netid": null, "province": 901, "district": 601, "zipcode": null, "telephone": null, "posDate": null, "destineTel": null, "togoTel": null, "trafficWay": null, "signBuilding": null, "businessArea": null, "selfRoom": null, "businessTime": null, "stall": null, "consume": null, "serviceFei": null, "favourable": null, "shopMemo": null, "appraise": null, "website": null, "memo": null, "payTypes": "\u6749\u5fb7\u5361", "shopTypes": "\u9762\u5305\u897f\u997c", "consumeTypes": null, "cookTypes": null, "orderNum": 1000, "card4no": null, "card4noAcc": null, "district2": 403, "searchScope": null, "status": 1, "address": "\u8087\u5609\u6d5c\u8def1000\u53f7B1\u697c", "name": "\u9762\u5305\u65b0\u8bed \u6c47\u91d1\u767e\u8d27\u5e97", "id": 171277, "pageNo": 0, "pageCount": null, "pageSize": 10, "ids": null, "endTime": null, "startTime": null}, {"cardNumFive": null, "isSupportYj": null, "cityName": null, "districtName": null, "shopinfo": {"mid": "888888854410062", "good_flag": "2", "new_flag": "1", "short_name": "\u9762\u5305\u65b0\u8bed", "short_name_pinyin": "mianbaoxinyu", "status": null, "address": null, "name": null, "id": "32660"}, "mid": "888888854410062", "shopId": "32660", "netid": null, "province": 901, "district": 601, "zipcode": null, "telephone": null, "posDate": null, "destineTel": null, "togoTel": null, "trafficWay": null, "signBuilding": null, "businessArea": null, "selfRoom": null, "businessTime": null, "stall": null, "consume": null, "serviceFei": null, "favourable": null, "shopMemo": null, "appraise": null, "website": null, "memo": null, "payTypes": "\u6749\u5fb7\u5361", "shopTypes": "\u9762\u5305\u65b0\u8bed", "consumeTypes": null, "cookTypes": null, "orderNum": 1000, "card4no": null, "card4noAcc": null, "district2": 411, "searchScope": null, "status": 1, "address": "\u5730\u94c111\u53f7\u7ebf\u5b89\u4ead\u7ad91\u53f7\u51fa\u53e3", "name": "\u9762\u5305\u65b0\u8bed \u5b89\u4ead\u5e97", "id": 171486, "pageNo": 0, "pageCount": null, "pageSize": 10, "ids": null, "endTime": null, "startTime": null}], "pageLimit": 6790, "size": 10}