{"pageCount": 1095, "count": 10942, "pageNo": 681, "subShopInfo": {"cardNumFive": "", "isSupportYj": "", "cityName": null, "districtName": null, "shopinfo": {"mid": null, "good_flag": null, "new_flag": null, "short_name": null, "short_name_pinyin": null, "status": null, "address": "", "name": "", "id": null}, "mid": null, "shopId": null, "netid": null, "province": 901, "district": null, "zipcode": null, "telephone": null, "posDate": null, "destineTel": null, "togoTel": null, "trafficWay": null, "signBuilding": null, "businessArea": null, "selfRoom": null, "businessTime": null, "stall": null, "consume": null, "serviceFei": null, "favourable": null, "shopMemo": "1", "appraise": null, "website": null, "memo": null, "payTypes": "", "shopTypes": "", "consumeTypes": null, "cookTypes": null, "orderNum": null, "card4no": null, "card4noAcc": null, "district2": null, "searchScope": null, "status": null, "address": "", "name": null, "id": null, "pageNo": 680, "pageCount": null, "pageSize": 10, "ids": null, "endTime": null, "startTime": null}, "list": [{"cardNumFive": null, "isSupportYj": null, "cityName": null, "districtName": null, "shopinfo": {"mid": "888888854410062", "good_flag": "2", "new_flag": "1", "short_name": "\u9762\u5305\u65b0\u8bed", "short_name_pinyin": "mianbaoxinyu", "status": null, "address": null, "name": null, "id": "32660"}, "mid": "888888854410062", "shopId": "32660", "netid": null, "province": 901, "district": 601, "zipcode": null, "telephone": null, "posDate": null, "destineTel": null, "togoTel": null, "trafficWay": null, "signBuilding": null, "businessArea": null, "selfRoom": null, "businessTime": null, "stall": null, "consume": null, "serviceFei": null, "favourable": null, "shopMemo": null, "appraise": null, "website": null, "memo": null, "payTypes": "\u6749\u5fb7\u5361", "shopTypes": "\u9762\u5305\u897f\u997c", "consumeTypes": null, "cookTypes": null, "orderNum": 1000, "card4no": null, "card4noAcc": null, "district2": 418, "searchScope": null, "status": 1, "address": "\u5730\u94c12\u53f7\u7ebf\u79d1\u6280\u9986\u7ad93\u53f7\u51fa\u53e3", "name": "\u9762\u5305\u65b0\u8bed \u79d1\u6280\u9986\u5e97", "id": 172403, "pageNo": 0, "pageCount": null, "pageSize": 10, "ids": null, "endTime": null, "startTime": null}, {"cardNumFive": null, "isSupportYj": null, "cityName": null, "districtName": null, "shopinfo": {"mid": "888888854410062", "good_flag": "2", "new_flag": "1", "short_name": "\u9762\u5305\u65b0\u8bed", "short_name_pinyin": "mianbaoxinyu", "status": null, "address": null, "name": null, "id": "32660"}, "mid": "888888854410062", "shopId": "32660", "netid": null, "province": 901, "district": 601, "zipcode": null, "telephone": "39947257", "posDate": null, "destineTel": null, "togoTel": null, "trafficWay": null, "signBuilding": null, "businessArea": null, "selfRoom": null, "businessTime": null, "stall": null, "consume": null, "serviceFei": null, "favourable": null, "shopMemo": null, "appraise": null, "website": null, "memo": null, "payTypes": "\u6749\u5fb7\u5361", "shopTypes": "\u9762\u5305\u897f\u997c", "consumeTypes": null, "cookTypes": null, "orderNum": 1000, "card4no": null, "card4noAcc": null, "district2": 411, "searchScope": null, "status": 1, "address": "\u535a\u4e50\u8def99\u53f71\u697c", "name": "\u9762\u5305\u65b0\u8bed \u5609\u5b9a\u6b27\u5c1a\u5e97", "id": 181457, "pageNo": 0, "pageCount": null, "pageSize": 10, "ids": null, "endTime": null, "startTime": null}, {"cardNumFive": null, "isSupportYj": null, "cityName": null, "districtName": null, "shopinfo": {"mid": "888888854410062", "good_flag": "2", "new_flag": "1", "short_name": "\u9762\u5305\u65b0\u8bed", "short_name_pinyin": "mianbaoxinyu", "status": null, "address": null, "name": null, "id": "32660"}, "mid": "888888854410062", "shopId": "32660", "netid": null, "province": 901, "district": 601, "zipcode": null, "telephone": "66795817", "posDate": null, "destineTel": null, "togoTel": null, "trafficWay": null, "signBuilding": null, "businessArea": null, "selfRoom": null, "businessTime": null, "stall": null, "consume": null, "serviceFei": null, "favourable": null, "shopMemo": null, "appraise": null, "website": null, "memo": null, "payTypes": "\u6749\u5fb7\u5361", "shopTypes": "\u9762\u5305\u897f\u997c", "consumeTypes": null, "cookTypes": null, "orderNum": 1000, "card4no": null, "card4noAcc": null, "district2": 416, "searchScope": null, "status": 1, "address": "\u7261\u4e39\u6c5f\u8def1711\u53f7", "name": "\u9762\u5305\u65b0\u8bed \u7261\u4e39\u6c5f\u8def\u5e97", "id": 181458, "pageNo": 0, "pageCount": null, "pageSize": 10, "ids": null, "endTime": null, "startTime": null}, {"cardNumFive": null, "isSupportYj": null, "cityName": null, "districtName": null, "shopinfo": {"mid": "888888854410062", "good_flag": "2", "new_flag": "1", "short_name": "\u9762\u5305\u65b0\u8bed", "short_name_pinyin": "mianbaoxinyu", "status": null, "address": null, "name": null, "id": "32660"}, "mid": "888888854410062", "shopId": "32660", "netid": null, "province": 901, "district": 601, "zipcode": null, "telephone": null, "posDate": null, "destineTel": null, "togoTel": null, "trafficWay": null, "signBuilding": null, "businessArea": null, "selfRoom": null, "businessTime": null, "stall": null, "consume": null, "serviceFei": null, "favourable": null, "shopMemo": null, "appraise": null, "website": null, "memo": null, "payTypes": "\u6749\u5fb7\u5361", "shopTypes": "\u9762\u5305\u897f\u997c", "consumeTypes": null, "cookTypes": null, "orderNum": 1000, "card4no": null, "card4noAcc": null, "district2": 405, "searchScope": null, "status": 1, "address": "\u4e2d\u5c71\u5317\u8def3300\u53f7", "name": "\u9762\u5305\u65b0\u8bed \u6708\u661f\u73af\u7403\u6e2f\u5e97", "id": 181459, "pageNo": 0, "pageCount": null, "pageSize": 10, "ids": null, "endTime": null, "startTime": null}, {"cardNumFive": null, "isSupportYj": null, "cityName": null, "districtName": null, "shopinfo": {"mid": "888888854410062", "good_flag": "2", "new_flag": "1", "short_name": "\u9762\u5305\u65b0\u8bed", "short_name_pinyin": "mianbaoxinyu", "status": null, "address": null, "name": null, "id": "32660"}, "mid": "888888854410062", "shopId": "32660", "netid": null, "province": 901, "district": 601, "zipcode": null, "telephone": null, "posDate": null, "destineTel": null, "togoTel": null, "trafficWay": null, "signBuilding": null, "businessArea": null, "selfRoom": null, "businessTime": null, "stall": null, "consume": null, "serviceFei": null, "favourable": null, "shopMemo": null, "appraise": null, "website": null, "memo": null, "payTypes": "\u6749\u5fb7\u5361", "shopTypes": "\u9762\u5305\u897f\u997c", "consumeTypes": null, "cookTypes": null, "orderNum": 1000, "card4no": null, "card4noAcc": null, "district2": 412, "searchScope": null, "status": 1, "address": "\u6587\u8bda\u8def238\u5f041\u53f71\u697c", "name": "\u9762\u5305\u65b0\u8bed \u6587\u8bda\u8def\u5e97", "id": 181460, "pageNo": 0, "pageCount": null, "pageSize": 10, "ids": null, "endTime": null, "startTime": null}, {"cardNumFive": null, "isSupportYj": null, "cityName": null, "districtName": null, "shopinfo": {"mid": "888888854410062", "good_flag": "2", "new_flag": "1", "short_name": "\u9762\u5305\u65b0\u8bed", "short_name_pinyin": "mianbaoxinyu", "status": null, "address": null, "name": null, "id": "32660"}, "mid": "888888854410062", "shopId": "32660", "netid": null, "province": 901, "district": 601, "zipcode": null, "telephone": "66287817", "posDate": null, "destineTel": null, "togoTel": null, "trafficWay": null, "signBuilding": null, "businessArea": null, "selfRoom": null, "businessTime": null, "stall": null, "consume": null, "serviceFei": null, "favourable": null, "shopMemo": null, "appraise": null, "website": null, "memo": null, "payTypes": "\u6749\u5fb7\u5361", "shopTypes": "\u9762\u5305\u897f\u997c", "consumeTypes": null, "cookTypes": null, "orderNum": 1000, "card4no": null, "card4noAcc": null, "district2": 405, "searchScope": null, "status": 1, "address": "\u65b0\u6751\u8def1500\u53f71\u697c", "name": "\u9762\u5305\u65b0\u8bed \u4e07\u91cc\u5e97", "id": 181461, "pageNo": 0, "pageCount": null, "pageSize": 10, "ids": null, "endTime": null, "startTime": null}, {"cardNumFive": null, "isSupportYj": null, "cityName": null, "districtName": null, "shopinfo": {"mid": "888888854410062", "good_flag": "2", "new_flag": "1", "short_name": "\u9762\u5305\u65b0\u8bed", "short_name_pinyin": "mianbaoxinyu", "status": null, "address": null, "name": null, "id": "32660"}, "mid": "888888854410062", "shopId": "32660", "netid": null, "province": 901, "district": 601, "zipcode": null, "telephone": "26064102", "posDate": null, "destineTel": null, "togoTel": null, "trafficWay": null, "signBuilding": null, "businessArea": null, "selfRoom": null, "businessTime": null, "stall": null, "consume": null, "serviceFei": null, "favourable": null, "shopMemo": null, "appraise": null, "website": null, "memo": null, "payTypes": "\u6749\u5fb7\u5361", "shopTypes": "\u9762\u5305\u897f\u997c", "consumeTypes": null, "cookTypes": null, "orderNum": 1000, "card4no": null, "card4noAcc": null, "district2": 405, "searchScope": null, "status": 1, "address": "\u8f68\u9053\u4ea4\u901a7\u53f7\u7ebf\u957f\u5bff\u8def\u7ad9", "name": "\u9762\u5305\u65b0\u8bed \u957f\u5bff\u8def\u7ad9\u5e97", "id": 181462, "pageNo": 0, "pageCount": null, "pageSize": 10, "ids": null, "endTime": null, "startTime": null}, {"cardNumFive": null, "isSupportYj": null, "cityName": null, "districtName": null, "shopinfo": {"mid": "888888854410062", "good_flag": "2", "new_flag": "1", "short_name": "\u9762\u5305\u65b0\u8bed", "short_name_pinyin": "mianbaoxinyu", "status": null, "address": null, "name": null, "id": "32660"}, "mid": "888888854410062", "shopId": "32660", "netid": null, "province": 901, "district": 601, "zipcode": null, "telephone": "51511023", "posDate": null, "destineTel": null, "togoTel": null, "trafficWay": null, "signBuilding": null, "businessArea": null, "selfRoom": null, "businessTime": null, "stall": null, "consume": null, "serviceFei": null, "favourable": null, "shopMemo": null, "appraise": null, "website": null, "memo": null, "payTypes": "\u6749\u5fb7\u5361", "shopTypes": "\u9762\u5305\u897f\u997c", "consumeTypes": null, "cookTypes": null, "orderNum": 1000, "card4no": null, "card4noAcc": null, "district2": 406, "searchScope": null, "status": 1, "address": "\u4e0a\u6d77\u8679\u6865\u706b\u8f66\u7ad93\u697c\u51fa\u53d1\u5c42", "name": "\u9762\u5305\u65b0\u8bed \u8679\u6865\u9ad8\u94c1\u5e97", "id": 181463, "pageNo": 0, "pageCount": null, "pageSize": 10, "ids": null, "endTime": null, "startTime": null}, {"cardNumFive": null, "isSupportYj": null, "cityName": null, "districtName": null, "shopinfo": {"mid": "888888854410062", "good_flag": "2", "new_flag": "1", "short_name": "\u9762\u5305\u65b0\u8bed", "short_name_pinyin": "mianbaoxinyu", "status": null, "address": null, "name": null, "id": "32660"}, "mid": "888888854410062", "shopId": "32660", "netid": null, "province": 901, "district": 601, "zipcode": null, "telephone": null, "posDate": null, "destineTel": null, "togoTel": null, "trafficWay": null, "signBuilding": null, "businessArea": null, "selfRoom": null, "businessTime": null, "stall": null, "consume": null, "serviceFei": null, "favourable": null, "shopMemo": null, "appraise": null, "website": null, "memo": null, "payTypes": "\u6749\u5fb7\u5361", "shopTypes": "\u9762\u5305\u897f\u997c", "consumeTypes": null, "cookTypes": null, "orderNum": 1000, "card4no": null, "card4noAcc": null, "district2": 403, "searchScope": null, "status": 1, "address": "\u8088\u5609\u6d5c\u8def1111\u53f71-27\u5e97\u94fa", "name": "\u9762\u5305\u65b0\u8bed \u7f8e\u7f57\u57ce\u5e97", "id": 181464, "pageNo": 0, "pageCount": null, "pageSize": 10, "ids": null, "endTime": null, "startTime": null}, {"cardNumFive": null, "isSupportYj": null, "cityName": null, "districtName": null, "shopinfo": {"mid": "888888854410062", "good_flag": "2", "new_flag": "1", "short_name": "\u9762\u5305\u65b0\u8bed", "short_name_pinyin": "mianbaoxinyu", "status": null, "address": null, "name": null, "id": "32660"}, "mid": "888888854410062", "shopId": "32660", "netid": null, "province": 901, "district": 601, "zipcode": null, "telephone": "50475277", "posDate": null, "destineTel": null, "togoTel": null, "trafficWay": null, "signBuilding": null, "businessArea": null, "selfRoom": null, "businessTime": null, "stall": null, "consume": null, "serviceFei": null, "favourable": null, "shopMemo": null, "appraise": null, "website": null, "memo": null, "payTypes": "\u6749\u5fb7\u5361", "shopTypes": "\u9762\u5305\u897f\u997c", "consumeTypes": null, "cookTypes": null, "orderNum": 1000, "card4no": null, "card4noAcc": null, "district2": 418, "searchScope": null, "status": 1, "address": "\u9646\u5bb6\u5634\u897f\u8def168\u53f7", "name": "\u9762\u5305\u65b0\u8bed \u6b63\u5927\u5e7f\u573a\u5e97", "id": 181465, "pageNo": 0, "pageCount": null, "pageSize": 10, "ids": null, "endTime": null, "startTime": null}], "pageLimit": 6800, "size": 10}