{"pageCount": 1095, "count": 10942, "pageNo": 685, "subShopInfo": {"cardNumFive": "", "isSupportYj": "", "cityName": null, "districtName": null, "shopinfo": {"mid": null, "good_flag": null, "new_flag": null, "short_name": null, "short_name_pinyin": null, "status": null, "address": "", "name": "", "id": null}, "mid": null, "shopId": null, "netid": null, "province": 901, "district": null, "zipcode": null, "telephone": null, "posDate": null, "destineTel": null, "togoTel": null, "trafficWay": null, "signBuilding": null, "businessArea": null, "selfRoom": null, "businessTime": null, "stall": null, "consume": null, "serviceFei": null, "favourable": null, "shopMemo": "1", "appraise": null, "website": null, "memo": null, "payTypes": "", "shopTypes": "", "consumeTypes": null, "cookTypes": null, "orderNum": null, "card4no": null, "card4noAcc": null, "district2": null, "searchScope": null, "status": null, "address": "", "name": null, "id": null, "pageNo": 684, "pageCount": null, "pageSize": 10, "ids": null, "endTime": null, "startTime": null}, "list": [{"cardNumFive": null, "isSupportYj": null, "cityName": null, "districtName": null, "shopinfo": {"mid": "888888858120805", "good_flag": null, "new_flag": null, "short_name": "\u964c\u751f\u4eba\u706b\u9505", "short_name_pinyin": "moshengrenhuoguo", "status": null, "address": null, "name": null, "id": "32691"}, "mid": "888888858120805", "shopId": "32691", "netid": null, "province": 901, "district": 601, "zipcode": null, "telephone": "51263577", "posDate": null, "destineTel": null, "togoTel": null, "trafficWay": null, "signBuilding": null, "businessArea": null, "selfRoom": null, "businessTime": null, "stall": null, "consume": null, "serviceFei": null, "favourable": null, "shopMemo": null, "appraise": null, "website": null, "memo": null, "payTypes": ",\u6749\u5fb7\u5361", "shopTypes": "\u9910\u996e", "consumeTypes": null, "cookTypes": null, "orderNum": 1000, "card4no": null, "card4noAcc": null, "district2": 407, "searchScope": null, "status": 1, "address": "\u56fd\u5b9a\u8def333\u53f7", "name": "\u964c\u751f\u4eba\u706b\u9505 \u4e94\u89d2\u573a\u5e97", "id": 140153, "pageNo": 0, "pageCount": null, "pageSize": 10, "ids": null, "endTime": null, "startTime": null}, {"cardNumFive": null, "isSupportYj": null, "cityName": null, "districtName": null, "shopinfo": {"mid": "888888858120805", "good_flag": null, "new_flag": null, "short_name": "\u964c\u751f\u4eba\u706b\u9505", "short_name_pinyin": "moshengrenhuoguo", "status": null, "address": null, "name": null, "id": "32691"}, "mid": "888888858120805", "shopId": "32691", "netid": null, "province": 901, "district": 601, "zipcode": null, "telephone": "56818636", "posDate": null, "destineTel": null, "togoTel": null, "trafficWay": null, "signBuilding": null, "businessArea": null, "selfRoom": null, "businessTime": null, "stall": null, "consume": null, "serviceFei": null, "favourable": null, "shopMemo": null, "appraise": null, "website": null, "memo": null, "payTypes": ",\u6749\u5fb7\u5361", "shopTypes": "\u9910\u996e", "consumeTypes": null, "cookTypes": null, "orderNum": 1000, "card4no": null, "card4noAcc": null, "district2": 410, "searchScope": null, "status": 1, "address": "\u6c7e\u897f\u8def377\u53f7", "name": "\u964c\u751f\u4eba\u706b\u9505 \u9633\u66f2\u5e97", "id": 140154, "pageNo": 0, "pageCount": null, "pageSize": 10, "ids": null, "endTime": null, "startTime": null}, {"cardNumFive": null, "isSupportYj": null, "cityName": null, "districtName": null, "shopinfo": {"mid": "888888858120805", "good_flag": null, "new_flag": null, "short_name": "\u964c\u751f\u4eba\u706b\u9505", "short_name_pinyin": "moshengrenhuoguo", "status": null, "address": null, "name": null, "id": "36499"}, "mid": "888888858120805", "shopId": "36499", "netid": null, "province": 901, "district": 601, "zipcode": null, "telephone": "37569521", "posDate": "20100926", "destineTel": null, "togoTel": null, "trafficWay": null, "signBuilding": null, "businessArea": null, "selfRoom": null, "businessTime": null, "stall": null, "consume": null, "serviceFei": null, "favourable": null, "shopMemo": null, "appraise": null, "website": null, "memo": null, "payTypes": "\u6749\u5fb7\u5361", "shopTypes": "\u9910\u996e", "consumeTypes": null, "cookTypes": null, "orderNum": 1000, "card4no": null, "card4noAcc": null, "district2": 413, "searchScope": null, "status": 1, "address": "\u5357\u6865\u9547\u767e\u9f50\u8def288\u53f7", "name": "\u964c\u751f\u4eba\u706b\u9505 \u767e\u8054\u5357\u6865\u5e97", "id": 151766, "pageNo": 0, "pageCount": null, "pageSize": 10, "ids": null, "endTime": null, "startTime": null}, {"cardNumFive": null, "isSupportYj": null, "cityName": null, "districtName": null, "shopinfo": {"mid": "888888858120805", "good_flag": null, "new_flag": null, "short_name": "\u964c\u751f\u4eba\u706b\u9505", "short_name_pinyin": "moshengrenhuoguo", "status": null, "address": null, "name": null, "id": "32691"}, "mid": "888888858120805", "shopId": "32691", "netid": null, "province": 901, "district": 601, "zipcode": null, "telephone": "60891385", "posDate": null, "destineTel": null, "togoTel": null, "trafficWay": null, "signBuilding": null, "businessArea": null, "selfRoom": null, "businessTime": null, "stall": null, "consume": null, "serviceFei": null, "favourable": null, "shopMemo": null, "appraise": null, "website": null, "memo": null, "payTypes": "\u6749\u5fb7\u5361", "shopTypes": "\u9910\u996e", "consumeTypes": null, "cookTypes": null, "orderNum": 1000, "card4no": null, "card4noAcc": null, "district2": 418, "searchScope": null, "status": 1, "address": "\u6210\u5c71\u8def1993\u53f7", "name": "\u964c\u751f\u4eba\u706b\u9505 \u6210\u5c71\u8def\u5e97", "id": 170710, "pageNo": 0, "pageCount": null, "pageSize": 10, "ids": null, "endTime": null, "startTime": null}, {"cardNumFive": null, "isSupportYj": null, "cityName": null, "districtName": null, "shopinfo": {"mid": "888888854410085", "good_flag": "2", "new_flag": "2", "short_name": "\u964c\u751f\u7f18\u679c\u54c1", "short_name_pinyin": "moshengyuanguopin", "status": null, "address": null, "name": null, "id": "32692"}, "mid": "888888854410085", "shopId": "32692", "netid": null, "province": 901, "district": 601, "zipcode": null, "telephone": "58929497", "posDate": "20080423", "destineTel": null, "togoTel": null, "trafficWay": "\u516c\u4ea4\u5468\u5357\u7ebf \u6caa\u5357\u7ebf", "signBuilding": null, "businessArea": null, "selfRoom": null, "businessTime": null, "stall": null, "consume": null, "serviceFei": null, "favourable": null, "shopMemo": null, "appraise": null, "website": null, "memo": null, "payTypes": "\u6749\u5fb7\u5361", "shopTypes": "\u96f6\u552e", "consumeTypes": null, "cookTypes": null, "orderNum": 1000, "card4no": null, "card4noAcc": null, "district2": 418, "searchScope": null, "status": 1, "address": "\u57ce\u5357\u8def690-700\u53f7", "name": "\u964c\u751f\u7f18\u679c\u54c1 \u57ce\u5357\u5e97", "id": 140157, "pageNo": 0, "pageCount": null, "pageSize": 10, "ids": null, "endTime": null, "startTime": null}, {"cardNumFive": null, "isSupportYj": null, "cityName": null, "districtName": null, "shopinfo": {"mid": "888888854410085", "good_flag": "2", "new_flag": "2", "short_name": "\u964c\u751f\u7f18\u679c\u54c1", "short_name_pinyin": "moshengyuanguopin", "status": null, "address": null, "name": null, "id": "32692"}, "mid": "888888854410085", "shopId": "32692", "netid": null, "province": 901, "district": 601, "zipcode": null, "telephone": "68515186", "posDate": "20080423", "destineTel": null, "togoTel": null, "trafficWay": "\u516c\u4ea4455 783 \u5730\u94c1\u516d\u53f7\u7ebf", "signBuilding": null, "businessArea": null, "selfRoom": null, "businessTime": null, "stall": null, "consume": null, "serviceFei": null, "favourable": null, "shopMemo": null, "appraise": null, "website": null, "memo": null, "payTypes": "\u6749\u5fb7\u5361", "shopTypes": "\u96f6\u552e", "consumeTypes": null, "cookTypes": null, "orderNum": 1000, "card4no": null, "card4noAcc": null, "district2": 418, "searchScope": null, "status": 1, "address": "\u4e94\u83b2\u8def747\u53f7", "name": "\u964c\u751f\u7f18\u679c\u54c1 \u4e94\u83b2\u5e97", "id": 140160, "pageNo": 0, "pageCount": null, "pageSize": 10, "ids": null, "endTime": null, "startTime": null}, {"cardNumFive": null, "isSupportYj": null, "cityName": null, "districtName": null, "shopinfo": {"mid": "888888856910126", "good_flag": "2", "new_flag": "2", "short_name": "NAVIGARE", "short_name_pinyin": "navigare", "status": null, "address": null, "name": null, "id": "31062"}, "mid": "888888856910126", "shopId": "31062", "netid": null, "province": 901, "district": 601, "zipcode": null, "telephone": "64310653", "posDate": "20080311", "destineTel": null, "togoTel": null, "trafficWay": "\u5730\u94c1\u4e00\u53f7\u7ebf \u65c5\u6e3810\u53f7\u7ebf \u516c\u4ea4926", "signBuilding": null, "businessArea": null, "selfRoom": null, "businessTime": null, "stall": null, "consume": null, "serviceFei": null, "favourable": null, "shopMemo": null, "appraise": null, "website": null, "memo": null, "payTypes": "\u6749\u5fb7\u5361", "shopTypes": "\u4e13\u5356", "consumeTypes": null, "cookTypes": null, "orderNum": 1000, "card4no": null, "card4noAcc": null, "district2": 401, "searchScope": null, "status": 1, "address": "\u6dee\u6d77\u4e2d\u8def99\u53f7316\u5ba4", "name": "NAVIGARE \u5927\u65f6\u4ee3\u5e7f\u573a\u5e97", "id": 132083, "pageNo": 0, "pageCount": null, "pageSize": 10, "ids": null, "endTime": null, "startTime": null}, {"cardNumFive": null, "isSupportYj": null, "cityName": null, "districtName": null, "shopinfo": {"mid": "888002156911379", "good_flag": null, "new_flag": null, "short_name": "\u80fd\u732b\u5546\u5e97", "short_name_pinyin": "nengmaoshangdian", "status": null, "address": null, "name": null, "id": "36194"}, "mid": "888002156911379", "shopId": "36194", "netid": null, "province": 901, "district": 601, "zipcode": null, "telephone": null, "posDate": "20100809", "destineTel": null, "togoTel": null, "trafficWay": null, "signBuilding": null, "businessArea": null, "selfRoom": null, "businessTime": null, "stall": null, "consume": null, "serviceFei": null, "favourable": null, "shopMemo": null, "appraise": null, "website": null, "memo": null, "payTypes": "\u6749\u5fb7\u5361", "shopTypes": "\u96f6\u552e", "consumeTypes": null, "cookTypes": null, "orderNum": 1000, "card4no": null, "card4noAcc": null, "district2": 406, "searchScope": null, "status": 1, "address": "\u957f\u4e50\u8def67\u53f7", "name": "\u80fd\u732b\u5546\u5e97 \u957f\u4e50\u5e97", "id": 150776, "pageNo": 0, "pageCount": null, "pageSize": 10, "ids": null, "endTime": null, "startTime": null}, {"cardNumFive": null, "isSupportYj": null, "cityName": null, "districtName": null, "shopinfo": {"mid": "888002173720004", "good_flag": "2", "new_flag": "2", "short_name": "next city", "short_name_pinyin": "nextcity", "status": null, "address": null, "name": null, "id": "31063"}, "mid": "888002173720004", "shopId": "31063", "netid": null, "province": 901, "district": 601, "zipcode": null, "telephone": null, "posDate": null, "destineTel": null, "togoTel": null, "trafficWay": null, "signBuilding": null, "businessArea": null, "selfRoom": null, "businessTime": null, "stall": null, "consume": null, "serviceFei": null, "favourable": null, "shopMemo": null, "appraise": null, "website": null, "memo": null, "payTypes": "", "shopTypes": "\u4e13\u5356", "consumeTypes": null, "cookTypes": null, "orderNum": 1000, "card4no": null, "card4noAcc": null, "district2": 403, "searchScope": null, "status": 1, "address": "\u8087\u5609\u6d5c\u8def1111\u53f7\u7f8e\u7f57\u57ce3\u697c", "name": "next city \u7f8e\u7f57\u5e97", "id": 132085, "pageNo": 0, "pageCount": null, "pageSize": 10, "ids": null, "endTime": null, "startTime": null}, {"cardNumFive": null, "isSupportYj": null, "cityName": null, "districtName": null, "shopinfo": {"mid": "888888854410163", "good_flag": "2", "new_flag": "1", "short_name": "\u725b\u5976\u68da", "short_name_pinyin": "niunaipeng", "status": null, "address": null, "name": null, "id": "32708"}, "mid": "888888854410163", "shopId": "32708", "netid": null, "province": 901, "district": 601, "zipcode": null, "telephone": "65458838", "posDate": null, "destineTel": null, "togoTel": null, "trafficWay": "22\u300133\u300147\u3001\u5730\u94c1\u56db\u53f7\u7ebf", "signBuilding": null, "businessArea": null, "selfRoom": null, "businessTime": null, "stall": null, "consume": null, "serviceFei": null, "favourable": null, "shopMemo": null, "appraise": null, "website": null, "memo": null, "payTypes": "\u6749\u5fb7\u5361", "shopTypes": "\u96f6\u552e", "consumeTypes": null, "cookTypes": null, "orderNum": 1000, "card4no": null, "card4noAcc": null, "district2": 408, "searchScope": null, "status": 1, "address": "\u957f\u9633\u8def274\u53f7", "name": "\u725b\u5976\u68da \u957f\u9633\u5e97", "id": 140179, "pageNo": 0, "pageCount": null, "pageSize": 10, "ids": null, "endTime": null, "startTime": null}], "pageLimit": 6840, "size": 10}