{"pageCount": 1095, "count": 10942, "pageNo": 689, "subShopInfo": {"cardNumFive": "", "isSupportYj": "", "cityName": null, "districtName": null, "shopinfo": {"mid": null, "good_flag": null, "new_flag": null, "short_name": null, "short_name_pinyin": null, "status": null, "address": "", "name": "", "id": null}, "mid": null, "shopId": null, "netid": null, "province": 901, "district": null, "zipcode": null, "telephone": null, "posDate": null, "destineTel": null, "togoTel": null, "trafficWay": null, "signBuilding": null, "businessArea": null, "selfRoom": null, "businessTime": null, "stall": null, "consume": null, "serviceFei": null, "favourable": null, "shopMemo": "1", "appraise": null, "website": null, "memo": null, "payTypes": "", "shopTypes": "", "consumeTypes": null, "cookTypes": null, "orderNum": null, "card4no": null, "card4noAcc": null, "district2": null, "searchScope": null, "status": null, "address": "", "name": null, "id": null, "pageNo": 688, "pageCount": null, "pageSize": 10, "ids": null, "endTime": null, "startTime": null}, "list": [{"cardNumFive": null, "isSupportYj": null, "cityName": null, "districtName": null, "shopinfo": {"mid": "888888854410163", "good_flag": "2", "new_flag": "1", "short_name": "\u725b\u5976\u68da", "short_name_pinyin": "niunaipeng", "status": null, "address": null, "name": null, "id": "32708"}, "mid": "888888854410163", "shopId": "32708", "netid": null, "province": 901, "district": 601, "zipcode": null, "telephone": "65019585", "posDate": null, "destineTel": null, "togoTel": null, "trafficWay": null, "signBuilding": null, "businessArea": null, "selfRoom": null, "businessTime": null, "stall": null, "consume": null, "serviceFei": null, "favourable": null, "shopMemo": null, "appraise": null, "website": null, "memo": null, "payTypes": "\u6749\u5fb7\u5361", "shopTypes": "\u9762\u5305\u897f\u997c", "consumeTypes": null, "cookTypes": null, "orderNum": 1000, "card4no": null, "card4noAcc": null, "district2": 407, "searchScope": null, "status": 1, "address": "\u56fd\u987a\u4e1c\u8def144\u53f7", "name": "\u725b\u5976\u68da \u56fd\u987a\u4e1c\u5e97", "id": 170703, "pageNo": 0, "pageCount": null, "pageSize": 10, "ids": null, "endTime": null, "startTime": null}, {"cardNumFive": null, "isSupportYj": null, "cityName": null, "districtName": null, "shopinfo": {"mid": "888888854410163", "good_flag": "2", "new_flag": "1", "short_name": "\u725b\u5976\u68da", "short_name_pinyin": "niunaipeng", "status": null, "address": null, "name": null, "id": "32708"}, "mid": "888888854410163", "shopId": "32708", "netid": null, "province": 901, "district": 601, "zipcode": null, "telephone": null, "posDate": null, "destineTel": null, "togoTel": null, "trafficWay": null, "signBuilding": null, "businessArea": null, "selfRoom": null, "businessTime": null, "stall": null, "consume": null, "serviceFei": null, "favourable": null, "shopMemo": null, "appraise": null, "website": null, "memo": null, "payTypes": "\u6749\u5fb7\u5361", "shopTypes": "\u9762\u5305\u897f\u997c", "consumeTypes": null, "cookTypes": null, "orderNum": 1000, "card4no": null, "card4noAcc": null, "district2": 418, "searchScope": null, "status": 1, "address": "\u5efa\u4e2d\u8def242\u5f0432\u53f7", "name": "\u725b\u5976\u68da \u5efa\u4e2d\u5e97", "id": 170704, "pageNo": 0, "pageCount": null, "pageSize": 10, "ids": null, "endTime": null, "startTime": null}, {"cardNumFive": null, "isSupportYj": null, "cityName": null, "districtName": null, "shopinfo": {"mid": "888888854410163", "good_flag": "2", "new_flag": "1", "short_name": "\u725b\u5976\u68da", "short_name_pinyin": "niunaipeng", "status": null, "address": null, "name": null, "id": "32708"}, "mid": "888888854410163", "shopId": "32708", "netid": null, "province": 901, "district": 601, "zipcode": null, "telephone": "65016515", "posDate": null, "destineTel": null, "togoTel": null, "trafficWay": null, "signBuilding": null, "businessArea": null, "selfRoom": null, "businessTime": null, "stall": null, "consume": null, "serviceFei": null, "favourable": null, "shopMemo": null, "appraise": null, "website": null, "memo": null, "payTypes": "\u6749\u5fb7\u5361", "shopTypes": "\u9762\u5305\u897f\u997c", "consumeTypes": null, "cookTypes": null, "orderNum": 1000, "card4no": null, "card4noAcc": null, "district2": 407, "searchScope": null, "status": 1, "address": "\u6bb7\u884c\u8def303\u53f7", "name": "\u725b\u5976\u68da \u6bb7\u884c\u5e97", "id": 170705, "pageNo": 0, "pageCount": null, "pageSize": 10, "ids": null, "endTime": null, "startTime": null}, {"cardNumFive": null, "isSupportYj": null, "cityName": null, "districtName": null, "shopinfo": {"mid": "888888854410163", "good_flag": "2", "new_flag": "1", "short_name": "\u725b\u5976\u68da", "short_name_pinyin": "niunaipeng", "status": null, "address": null, "name": null, "id": "32708"}, "mid": "888888854410163", "shopId": "32708", "netid": null, "province": 901, "district": 601, "zipcode": null, "telephone": "62506291", "posDate": null, "destineTel": null, "togoTel": null, "trafficWay": null, "signBuilding": null, "businessArea": null, "selfRoom": null, "businessTime": null, "stall": null, "consume": null, "serviceFei": null, "favourable": null, "shopMemo": null, "appraise": null, "website": null, "memo": null, "payTypes": "\u6749\u5fb7\u5361", "shopTypes": "\u9762\u5305\u897f\u997c", "consumeTypes": null, "cookTypes": null, "orderNum": 1000, "card4no": null, "card4noAcc": null, "district2": 416, "searchScope": null, "status": 1, "address": "\u4e09\u6cc9\u8def1921\u53f7", "name": "\u725b\u5976\u68da \u4e09\u6cc9\u5e97", "id": 170706, "pageNo": 0, "pageCount": null, "pageSize": 10, "ids": null, "endTime": null, "startTime": null}, {"cardNumFive": null, "isSupportYj": null, "cityName": null, "districtName": null, "shopinfo": {"mid": "888888854410163", "good_flag": "2", "new_flag": "1", "short_name": "\u725b\u5976\u68da", "short_name_pinyin": "niunaipeng", "status": null, "address": null, "name": null, "id": "32708"}, "mid": "888888854410163", "shopId": "32708", "netid": null, "province": 901, "district": 601, "zipcode": null, "telephone": "67221876", "posDate": null, "destineTel": null, "togoTel": null, "trafficWay": null, "signBuilding": null, "businessArea": null, "selfRoom": null, "businessTime": null, "stall": null, "consume": null, "serviceFei": null, "favourable": null, "shopMemo": null, "appraise": null, "website": null, "memo": null, "payTypes": "\u6749\u5fb7\u5361", "shopTypes": "\u9762\u5305\u897f\u997c", "consumeTypes": null, "cookTypes": null, "orderNum": 1000, "card4no": null, "card4noAcc": null, "district2": 414, "searchScope": null, "status": 1, "address": "\u536b\u6e05\u897f\u8def999\u5f041003\u53f7", "name": "\u725b\u5976\u68da \u536b\u6e05\u897f\u8def\u5e97", "id": 171299, "pageNo": 0, "pageCount": null, "pageSize": 10, "ids": null, "endTime": null, "startTime": null}, {"cardNumFive": null, "isSupportYj": null, "cityName": null, "districtName": null, "shopinfo": {"mid": "888888854410163", "good_flag": "2", "new_flag": "1", "short_name": "\u725b\u5976\u68da", "short_name_pinyin": "niunaipeng", "status": null, "address": null, "name": null, "id": "32708"}, "mid": "888888854410163", "shopId": "32708", "netid": null, "province": 901, "district": 601, "zipcode": null, "telephone": "65011150", "posDate": null, "destineTel": null, "togoTel": null, "trafficWay": null, "signBuilding": null, "businessArea": null, "selfRoom": null, "businessTime": null, "stall": null, "consume": null, "serviceFei": null, "favourable": null, "shopMemo": null, "appraise": null, "website": null, "memo": null, "payTypes": "\u6749\u5fb7\u5361", "shopTypes": "\u9762\u5305\u897f\u997c", "consumeTypes": null, "cookTypes": null, "orderNum": 1000, "card4no": null, "card4noAcc": null, "district2": 407, "searchScope": null, "status": 1, "address": "\u5e73\u51c9\u8def1674\u53f7", "name": "\u725b\u5976\u68da \u4e34\u9752\u5e97", "id": 171300, "pageNo": 0, "pageCount": null, "pageSize": 10, "ids": null, "endTime": null, "startTime": null}, {"cardNumFive": null, "isSupportYj": null, "cityName": null, "districtName": null, "shopinfo": {"mid": "888888854410163", "good_flag": "2", "new_flag": "1", "short_name": "\u725b\u5976\u68da", "short_name_pinyin": "niunaipeng", "status": null, "address": null, "name": null, "id": "32708"}, "mid": "888888854410163", "shopId": "32708", "netid": null, "province": 901, "district": 601, "zipcode": null, "telephone": "67221877", "posDate": null, "destineTel": null, "togoTel": null, "trafficWay": null, "signBuilding": null, "businessArea": null, "selfRoom": null, "businessTime": null, "stall": null, "consume": null, "serviceFei": null, "favourable": null, "shopMemo": null, "appraise": null, "website": null, "memo": null, "payTypes": "\u6749\u5fb7\u5361", "shopTypes": "\u9762\u5305\u897f\u997c", "consumeTypes": null, "cookTypes": null, "orderNum": 1000, "card4no": null, "card4noAcc": null, "district2": 407, "searchScope": null, "status": 1, "address": "\u677f\u6865\u897f\u8def466\u53f71\u697c", "name": "\u725b\u5976\u68da \u677f\u6865\u897f\u5e97", "id": 171301, "pageNo": 0, "pageCount": null, "pageSize": 10, "ids": null, "endTime": null, "startTime": null}, {"cardNumFive": null, "isSupportYj": null, "cityName": null, "districtName": null, "shopinfo": {"mid": "888888854410163", "good_flag": "2", "new_flag": "1", "short_name": "\u725b\u5976\u68da", "short_name_pinyin": "niunaipeng", "status": null, "address": null, "name": null, "id": "32708"}, "mid": "888888854410163", "shopId": "32708", "netid": null, "province": 901, "district": 601, "zipcode": null, "telephone": "67221878", "posDate": null, "destineTel": null, "togoTel": null, "trafficWay": null, "signBuilding": null, "businessArea": null, "selfRoom": null, "businessTime": null, "stall": null, "consume": null, "serviceFei": null, "favourable": null, "shopMemo": null, "appraise": null, "website": null, "memo": null, "payTypes": "\u6749\u5fb7\u5361", "shopTypes": "\u9762\u5305\u897f\u997c", "consumeTypes": null, "cookTypes": null, "orderNum": 1000, "card4no": null, "card4noAcc": null, "district2": 414, "searchScope": null, "status": 1, "address": "\u6731\u6cfe\u9547\u79c0\u5dde\u8857840\u53f71\u697c", "name": "\u725b\u5976\u68da \u79c0\u5dde\u8857\u5e97", "id": 171302, "pageNo": 0, "pageCount": null, "pageSize": 10, "ids": null, "endTime": null, "startTime": null}, {"cardNumFive": null, "isSupportYj": null, "cityName": null, "districtName": null, "shopinfo": {"mid": "888888854410163", "good_flag": "2", "new_flag": "1", "short_name": "\u725b\u5976\u68da", "short_name_pinyin": "niunaipeng", "status": null, "address": null, "name": null, "id": "32708"}, "mid": "888888854410163", "shopId": "32708", "netid": null, "province": 901, "district": 601, "zipcode": null, "telephone": null, "posDate": null, "destineTel": null, "togoTel": null, "trafficWay": null, "signBuilding": null, "businessArea": null, "selfRoom": null, "businessTime": null, "stall": null, "consume": null, "serviceFei": null, "favourable": null, "shopMemo": null, "appraise": null, "website": null, "memo": null, "payTypes": "\u6749\u5fb7\u5361", "shopTypes": "\u9762\u5305\u897f\u997c", "consumeTypes": null, "cookTypes": null, "orderNum": 1000, "card4no": null, "card4noAcc": null, "district2": 409, "searchScope": null, "status": 1, "address": "\u91d1\u5e73\u8def427\u53f7", "name": "\u725b\u5976\u68da \u91d1\u5e73\u5e97", "id": 172423, "pageNo": 0, "pageCount": null, "pageSize": 10, "ids": null, "endTime": null, "startTime": null}, {"cardNumFive": null, "isSupportYj": null, "cityName": null, "districtName": null, "shopinfo": {"mid": "888888854410163", "good_flag": "2", "new_flag": "1", "short_name": "\u725b\u5976\u68da", "short_name_pinyin": "niunaipeng", "status": null, "address": null, "name": null, "id": "32708"}, "mid": "888888854410163", "shopId": "32708", "netid": null, "province": 901, "district": 601, "zipcode": null, "telephone": "67102866", "posDate": null, "destineTel": null, "togoTel": null, "trafficWay": null, "signBuilding": null, "businessArea": null, "selfRoom": null, "businessTime": null, "stall": null, "consume": null, "serviceFei": null, "favourable": null, "shopMemo": null, "appraise": null, "website": null, "memo": null, "payTypes": "\u6749\u5fb7\u5361", "shopTypes": "\u9762\u5305\u897f\u997c", "consumeTypes": null, "cookTypes": null, "orderNum": 1000, "card4no": null, "card4noAcc": null, "district2": 413, "searchScope": null, "status": 1, "address": "\u5357\u4ead\u516c\u8def2080\u53f7", "name": "\u725b\u5976\u68da \u5de5\u4f1a\u5b66\u9662\u5e97", "id": 172424, "pageNo": 0, "pageCount": null, "pageSize": 10, "ids": null, "endTime": null, "startTime": null}], "pageLimit": 6880, "size": 10}