{"pageCount": 1095, "count": 10942, "pageNo": 682, "subShopInfo": {"cardNumFive": "", "isSupportYj": "", "cityName": null, "districtName": null, "shopinfo": {"mid": null, "good_flag": null, "new_flag": null, "short_name": null, "short_name_pinyin": null, "status": null, "address": "", "name": "", "id": null}, "mid": null, "shopId": null, "netid": null, "province": 901, "district": null, "zipcode": null, "telephone": null, "posDate": null, "destineTel": null, "togoTel": null, "trafficWay": null, "signBuilding": null, "businessArea": null, "selfRoom": null, "businessTime": null, "stall": null, "consume": null, "serviceFei": null, "favourable": null, "shopMemo": "1", "appraise": null, "website": null, "memo": null, "payTypes": "", "shopTypes": "", "consumeTypes": null, "cookTypes": null, "orderNum": null, "card4no": null, "card4noAcc": null, "district2": null, "searchScope": null, "status": null, "address": "", "name": null, "id": null, "pageNo": 681, "pageCount": null, "pageSize": 10, "ids": null, "endTime": null, "startTime": null}, "list": [{"cardNumFive": null, "isSupportYj": null, "cityName": null, "districtName": null, "shopinfo": {"mid": "888888854410062", "good_flag": "2", "new_flag": "1", "short_name": "\u9762\u5305\u65b0\u8bed", "short_name_pinyin": "mianbaoxinyu", "status": null, "address": null, "name": null, "id": "32660"}, "mid": "888888854410062", "shopId": "32660", "netid": null, "province": 901, "district": 601, "zipcode": null, "telephone": null, "posDate": null, "destineTel": null, "togoTel": null, "trafficWay": null, "signBuilding": null, "businessArea": null, "selfRoom": null, "businessTime": null, "stall": null, "consume": null, "serviceFei": null, "favourable": null, "shopMemo": null, "appraise": null, "website": null, "memo": null, "payTypes": "\u6749\u5fb7\u5361", "shopTypes": "\u9762\u5305\u897f\u997c", "consumeTypes": null, "cookTypes": null, "orderNum": 1000, "card4no": null, "card4noAcc": null, "district2": 403, "searchScope": null, "status": 1, "address": "\u6dee\u6d77\u4e2d\u8def999\u53f7\u5730\u4e0b1\u697c", "name": "\u9762\u5305\u65b0\u8bed iapm\u5e97", "id": 181466, "pageNo": 0, "pageCount": null, "pageSize": 10, "ids": null, "endTime": null, "startTime": null}, {"cardNumFive": null, "isSupportYj": null, "cityName": null, "districtName": null, "shopinfo": {"mid": "888888854410062", "good_flag": "2", "new_flag": "1", "short_name": "\u9762\u5305\u65b0\u8bed", "short_name_pinyin": "mianbaoxinyu", "status": null, "address": null, "name": null, "id": "32660"}, "mid": "888888854410062", "shopId": "32660", "netid": null, "province": 901, "district": 601, "zipcode": null, "telephone": null, "posDate": null, "destineTel": null, "togoTel": null, "trafficWay": null, "signBuilding": null, "businessArea": null, "selfRoom": null, "businessTime": null, "stall": null, "consume": null, "serviceFei": null, "favourable": null, "shopMemo": null, "appraise": null, "website": null, "memo": null, "payTypes": "\u6749\u5fb7\u5361", "shopTypes": "\u9762\u5305\u897f\u997c", "consumeTypes": null, "cookTypes": null, "orderNum": 1000, "card4no": null, "card4noAcc": null, "district2": 418, "searchScope": null, "status": 1, "address": "\u4e16\u535a\u5927\u90531368\u53f7", "name": "\u9762\u5305\u65b0\u8bed \u4e16\u535a\u6e90\u5e97", "id": 183244, "pageNo": 0, "pageCount": null, "pageSize": 10, "ids": null, "endTime": null, "startTime": null}, {"cardNumFive": null, "isSupportYj": null, "cityName": null, "districtName": null, "shopinfo": {"mid": "888888854410062", "good_flag": "2", "new_flag": "1", "short_name": "\u9762\u5305\u65b0\u8bed", "short_name_pinyin": "mianbaoxinyu", "status": null, "address": null, "name": null, "id": "32660"}, "mid": "888888854410062", "shopId": "32660", "netid": null, "province": 901, "district": 601, "zipcode": null, "telephone": null, "posDate": null, "destineTel": null, "togoTel": null, "trafficWay": null, "signBuilding": null, "businessArea": null, "selfRoom": null, "businessTime": null, "stall": null, "consume": null, "serviceFei": null, "favourable": null, "shopMemo": null, "appraise": null, "website": null, "memo": null, "payTypes": "\u6749\u5fb7\u5361", "shopTypes": "\u9762\u5305\u897f\u997c", "consumeTypes": null, "cookTypes": null, "orderNum": 1000, "card4no": null, "card4noAcc": null, "district2": 412, "searchScope": null, "status": 1, "address": "\u677e\u6c5f\u4e2d\u8def568\u53f7A\u5ea71\u697c195\u53f7", "name": "\u9762\u5305\u65b0\u8bed \u677e\u6c5f\u9e7f\u90fd\u5e97", "id": 183245, "pageNo": 0, "pageCount": null, "pageSize": 10, "ids": null, "endTime": null, "startTime": null}, {"cardNumFive": null, "isSupportYj": null, "cityName": null, "districtName": null, "shopinfo": {"mid": "888888854410062", "good_flag": "2", "new_flag": "1", "short_name": "\u9762\u5305\u65b0\u8bed", "short_name_pinyin": "mianbaoxinyu", "status": null, "address": null, "name": null, "id": "32660"}, "mid": "888888854410062", "shopId": "32660", "netid": null, "province": 901, "district": 601, "zipcode": null, "telephone": "55233217", "posDate": null, "destineTel": null, "togoTel": null, "trafficWay": null, "signBuilding": null, "businessArea": null, "selfRoom": null, "businessTime": null, "stall": null, "consume": null, "serviceFei": null, "favourable": null, "shopMemo": null, "appraise": null, "website": null, "memo": null, "payTypes": "\u6749\u5fb7\u5361", "shopTypes": "\u9762\u5305\u897f\u997c", "consumeTypes": null, "cookTypes": null, "orderNum": 1000, "card4no": null, "card4noAcc": null, "district2": 407, "searchScope": null, "status": 1, "address": "\u90af\u90f8\u8def608\u5f0441\u53f7", "name": "\u9762\u5305\u65b0\u8bed \u4e94\u89d2\u573a\u5e97", "id": 183246, "pageNo": 0, "pageCount": null, "pageSize": 10, "ids": null, "endTime": null, "startTime": null}, {"cardNumFive": null, "isSupportYj": null, "cityName": null, "districtName": null, "shopinfo": {"mid": "888002154410069", "good_flag": null, "new_flag": "2", "short_name": "\u9762\u5305\u65b0\u8bed", "short_name_pinyin": "mianbaoxinyu", "status": null, "address": null, "name": null, "id": "43100"}, "mid": "888002154410069", "shopId": "43100", "netid": null, "province": 901, "district": 601, "zipcode": null, "telephone": null, "posDate": null, "destineTel": null, "togoTel": null, "trafficWay": null, "signBuilding": null, "businessArea": null, "selfRoom": null, "businessTime": null, "stall": null, "consume": null, "serviceFei": null, "favourable": null, "shopMemo": null, "appraise": null, "website": null, "memo": null, "payTypes": "\u6749\u5fb7\u5361", "shopTypes": "\u4fbf\u5229\u5e97", "consumeTypes": null, "cookTypes": null, "orderNum": 1000, "card4no": null, "card4noAcc": null, "district2": 418, "searchScope": null, "status": 1, "address": "\u91d1\u79d1\u8def\u7956\u51b2\u4e4b\u8def\u5546\u4e1a\u4e2d\u5fc3\u5185\u4e00\u680b\u4e00\u5c42SHZJ-1003+1004", "name": "\u9762\u5305\u65b0\u8bed \u91d1\u79d1\u8def\u5e97", "id": 190991, "pageNo": 0, "pageCount": null, "pageSize": 10, "ids": null, "endTime": null, "startTime": null}, {"cardNumFive": null, "isSupportYj": null, "cityName": null, "districtName": null, "shopinfo": {"mid": "888002154410069", "good_flag": null, "new_flag": "2", "short_name": "\u9762\u5305\u65b0\u8bed", "short_name_pinyin": "mianbaoxinyu", "status": null, "address": null, "name": null, "id": "43100"}, "mid": "888002154410069", "shopId": "43100", "netid": null, "province": 901, "district": 601, "zipcode": null, "telephone": null, "posDate": null, "destineTel": null, "togoTel": null, "trafficWay": null, "signBuilding": null, "businessArea": null, "selfRoom": null, "businessTime": null, "stall": null, "consume": null, "serviceFei": null, "favourable": null, "shopMemo": null, "appraise": null, "website": null, "memo": null, "payTypes": "\u6749\u5fb7\u5361", "shopTypes": "\u9762\u5305\u897f\u997c", "consumeTypes": null, "cookTypes": null, "orderNum": 1000, "card4no": null, "card4noAcc": null, "district2": 401, "searchScope": null, "status": 1, "address": "\u9ec4\u5174\u8def2228\u53f7\u5730\u4e0b2\u5c4242B", "name": "\u9762\u5305\u65b0\u8bed \u5408\u751f\u56fd\u9645BTC", "id": 197306, "pageNo": 0, "pageCount": null, "pageSize": 10, "ids": null, "endTime": null, "startTime": null}, {"cardNumFive": null, "isSupportYj": null, "cityName": null, "districtName": null, "shopinfo": {"mid": "888002154410069", "good_flag": null, "new_flag": "2", "short_name": "\u9762\u5305\u65b0\u8bed", "short_name_pinyin": "mianbaoxinyu", "status": null, "address": null, "name": null, "id": "43100"}, "mid": "888002154410069", "shopId": "43100", "netid": null, "province": 901, "district": 601, "zipcode": null, "telephone": null, "posDate": null, "destineTel": null, "togoTel": null, "trafficWay": null, "signBuilding": null, "businessArea": null, "selfRoom": null, "businessTime": null, "stall": null, "consume": null, "serviceFei": null, "favourable": null, "shopMemo": null, "appraise": null, "website": null, "memo": null, "payTypes": "\u6749\u5fb7\u5361", "shopTypes": "\u9762\u5305\u897f\u997c", "consumeTypes": null, "cookTypes": null, "orderNum": 1000, "card4no": null, "card4noAcc": null, "district2": 418, "searchScope": null, "status": 1, "address": "\u4e0a\u5357\u8def1150\u53f7\u4e09\u94a2\u91cc\u7f8e\u98df\u8857", "name": "\u9762\u5305\u65b0\u8bed \u4e09\u94a2\u91cc\u5e97", "id": 199075, "pageNo": 0, "pageCount": null, "pageSize": 10, "ids": null, "endTime": null, "startTime": null}, {"cardNumFive": null, "isSupportYj": null, "cityName": null, "districtName": null, "shopinfo": {"mid": "888002154410069", "good_flag": null, "new_flag": "2", "short_name": "\u9762\u5305\u65b0\u8bed", "short_name_pinyin": "mianbaoxinyu", "status": null, "address": null, "name": null, "id": "43100"}, "mid": "888002154410069", "shopId": "43100", "netid": null, "province": 901, "district": 601, "zipcode": null, "telephone": null, "posDate": null, "destineTel": null, "togoTel": null, "trafficWay": null, "signBuilding": null, "businessArea": null, "selfRoom": null, "businessTime": null, "stall": null, "consume": null, "serviceFei": null, "favourable": null, "shopMemo": null, "appraise": null, "website": null, "memo": null, "payTypes": "\u6749\u5fb7\u5361", "shopTypes": "\u9762\u5305\u897f\u997c", "consumeTypes": null, "cookTypes": null, "orderNum": 1000, "card4no": null, "card4noAcc": null, "district2": 418, "searchScope": null, "status": 1, "address": "\u5f20\u6768\u8def982\u53f7\u5730\u4e0b1\u5c4222\u5ba4\u4e4b\u90e8\u95e8\u533a\u57dfG59-B01-1-010\u53f7", "name": "\u9762\u5305\u65b0\u8bed BS\u5927\u90fd\u4f1a", "id": 202059, "pageNo": 0, "pageCount": null, "pageSize": 10, "ids": null, "endTime": null, "startTime": null}, {"cardNumFive": null, "isSupportYj": null, "cityName": null, "districtName": null, "shopinfo": {"mid": "888002154410069", "good_flag": null, "new_flag": "2", "short_name": "\u9762\u5305\u65b0\u8bed", "short_name_pinyin": "mianbaoxinyu", "status": null, "address": null, "name": null, "id": "43100"}, "mid": "888002154410069", "shopId": "43100", "netid": null, "province": 901, "district": 601, "zipcode": null, "telephone": null, "posDate": null, "destineTel": null, "togoTel": null, "trafficWay": null, "signBuilding": null, "businessArea": null, "selfRoom": null, "businessTime": null, "stall": null, "consume": null, "serviceFei": null, "favourable": null, "shopMemo": null, "appraise": null, "website": null, "memo": null, "payTypes": "\u6749\u5fb7\u5361", "shopTypes": "\u9762\u5305\u897f\u997c", "consumeTypes": null, "cookTypes": null, "orderNum": 1000, "card4no": null, "card4noAcc": null, "district2": 403, "searchScope": null, "status": 1, "address": "\u8087\u5609\u6d5c\u8def1111\u7f8e\u7f57\u57ceB1\u4e94\u756a\u8857", "name": "\u9762\u5305\u65b0\u8bed TIR\u7f8e\u7f57\u5e97", "id": 202071, "pageNo": 0, "pageCount": null, "pageSize": 10, "ids": null, "endTime": null, "startTime": null}, {"cardNumFive": null, "isSupportYj": null, "cityName": null, "districtName": null, "shopinfo": {"mid": "888002154410069", "good_flag": null, "new_flag": "2", "short_name": "\u9762\u5305\u65b0\u8bed", "short_name_pinyin": "mianbaoxinyu", "status": null, "address": null, "name": null, "id": "43100"}, "mid": "888002154410069", "shopId": "43100", "netid": null, "province": 901, "district": 601, "zipcode": null, "telephone": null, "posDate": null, "destineTel": null, "togoTel": null, "trafficWay": null, "signBuilding": null, "businessArea": null, "selfRoom": null, "businessTime": null, "stall": null, "consume": null, "serviceFei": null, "favourable": null, "shopMemo": null, "appraise": null, "website": null, "memo": null, "payTypes": "\u6749\u5fb7\u5361", "shopTypes": "\u9762\u5305\u897f\u997c", "consumeTypes": null, "cookTypes": null, "orderNum": 1000, "card4no": null, "card4noAcc": null, "district2": 406, "searchScope": null, "status": 1, "address": "\u4ed9\u971e\u897f\u8def88\u53f7\u767e\u8054\u897f\u90ca\u8d2d\u7269\u4e2d\u5fc31\u697cG05-F01-1-304\u5ba4", "name": "\u9762\u5305\u65b0\u8bed TB\u897f\u90ca\u767e\u8054", "id": 202096, "pageNo": 0, "pageCount": null, "pageSize": 10, "ids": null, "endTime": null, "startTime": null}], "pageLimit": 6810, "size": 10}