{"pageCount": 1095, "count": 10942, "pageNo": 686, "subShopInfo": {"cardNumFive": "", "isSupportYj": "", "cityName": null, "districtName": null, "shopinfo": {"mid": null, "good_flag": null, "new_flag": null, "short_name": null, "short_name_pinyin": null, "status": null, "address": "", "name": "", "id": null}, "mid": null, "shopId": null, "netid": null, "province": 901, "district": null, "zipcode": null, "telephone": null, "posDate": null, "destineTel": null, "togoTel": null, "trafficWay": null, "signBuilding": null, "businessArea": null, "selfRoom": null, "businessTime": null, "stall": null, "consume": null, "serviceFei": null, "favourable": null, "shopMemo": "1", "appraise": null, "website": null, "memo": null, "payTypes": "", "shopTypes": "", "consumeTypes": null, "cookTypes": null, "orderNum": null, "card4no": null, "card4noAcc": null, "district2": null, "searchScope": null, "status": null, "address": "", "name": null, "id": null, "pageNo": 685, "pageCount": null, "pageSize": 10, "ids": null, "endTime": null, "startTime": null}, "list": [{"cardNumFive": null, "isSupportYj": null, "cityName": null, "districtName": null, "shopinfo": {"mid": "888888854410163", "good_flag": "2", "new_flag": "1", "short_name": "\u725b\u5976\u68da", "short_name_pinyin": "niunaipeng", "status": null, "address": null, "name": null, "id": "32708"}, "mid": "888888854410163", "shopId": "32708", "netid": null, "province": 901, "district": 601, "zipcode": null, "telephone": "63500100", "posDate": null, "destineTel": null, "togoTel": null, "trafficWay": "20\u300137\u300149", "signBuilding": null, "businessArea": null, "selfRoom": null, "businessTime": null, "stall": null, "consume": null, "serviceFei": null, "favourable": null, "shopMemo": null, "appraise": null, "website": null, "memo": null, "payTypes": "\u6749\u5fb7\u5361", "shopTypes": "\u96f6\u552e", "consumeTypes": null, "cookTypes": null, "orderNum": 1000, "card4no": null, "card4noAcc": null, "district2": 401, "searchScope": null, "status": 1, "address": "\u6c49\u53e3\u8def433\u53f7", "name": "\u725b\u5976\u68da \u6c49\u53e3\u5e97", "id": 140180, "pageNo": 0, "pageCount": null, "pageSize": 10, "ids": null, "endTime": null, "startTime": null}, {"cardNumFive": null, "isSupportYj": null, "cityName": null, "districtName": null, "shopinfo": {"mid": "888888854410163", "good_flag": "2", "new_flag": "1", "short_name": "\u725b\u5976\u68da", "short_name_pinyin": "niunaipeng", "status": null, "address": null, "name": null, "id": "32708"}, "mid": "888888854410163", "shopId": "32708", "netid": null, "province": 901, "district": 601, "zipcode": null, "telephone": "64496513", "posDate": null, "destineTel": null, "togoTel": null, "trafficWay": "721\u3001936\u300157", "signBuilding": null, "businessArea": null, "selfRoom": null, "businessTime": null, "stall": null, "consume": null, "serviceFei": null, "favourable": null, "shopMemo": null, "appraise": null, "website": null, "memo": null, "payTypes": "\u6749\u5fb7\u5361", "shopTypes": "\u96f6\u552e", "consumeTypes": null, "cookTypes": null, "orderNum": 1000, "card4no": null, "card4noAcc": null, "district2": 409, "searchScope": null, "status": 1, "address": "\u9ec4\u6866\u8def266\u53f7", "name": "\u725b\u5976\u68da \u9ec4\u6866\u5e97", "id": 140181, "pageNo": 0, "pageCount": null, "pageSize": 10, "ids": null, "endTime": null, "startTime": null}, {"cardNumFive": null, "isSupportYj": null, "cityName": null, "districtName": null, "shopinfo": {"mid": "888888854410163", "good_flag": "2", "new_flag": "1", "short_name": "\u725b\u5976\u68da", "short_name_pinyin": "niunaipeng", "status": null, "address": null, "name": null, "id": "32708"}, "mid": "888888854410163", "shopId": "32708", "netid": null, "province": 901, "district": 601, "zipcode": null, "telephone": "62771031", "posDate": null, "destineTel": null, "togoTel": null, "trafficWay": "68\u3001506\u3001206", "signBuilding": null, "businessArea": null, "selfRoom": null, "businessTime": null, "stall": null, "consume": null, "serviceFei": null, "favourable": null, "shopMemo": null, "appraise": null, "website": null, "memo": null, "payTypes": "\u6749\u5fb7\u5361", "shopTypes": "\u96f6\u552e", "consumeTypes": null, "cookTypes": null, "orderNum": 1000, "card4no": null, "card4noAcc": null, "district2": 404, "searchScope": null, "status": 1, "address": "\u660c\u5e73\u8def318\u53f7", "name": "\u725b\u5976\u68da \u6c5f\u5b81\u5e97", "id": 140182, "pageNo": 0, "pageCount": null, "pageSize": 10, "ids": null, "endTime": null, "startTime": null}, {"cardNumFive": null, "isSupportYj": null, "cityName": null, "districtName": null, "shopinfo": {"mid": "888888854410163", "good_flag": "2", "new_flag": "1", "short_name": "\u725b\u5976\u68da", "short_name_pinyin": "niunaipeng", "status": null, "address": null, "name": null, "id": "32708"}, "mid": "888888854410163", "shopId": "32708", "netid": null, "province": 901, "district": 601, "zipcode": null, "telephone": null, "posDate": null, "destineTel": null, "togoTel": null, "trafficWay": null, "signBuilding": null, "businessArea": null, "selfRoom": null, "businessTime": null, "stall": null, "consume": null, "serviceFei": null, "favourable": null, "shopMemo": null, "appraise": null, "website": null, "memo": null, "payTypes": "\u6749\u5fb7\u5361", "shopTypes": "\u96f6\u552e", "consumeTypes": null, "cookTypes": null, "orderNum": 1000, "card4no": null, "card4noAcc": null, "district2": 409, "searchScope": null, "status": 1, "address": "\u5730\u94c11\u53f7\u7ebf\u9526\u6c5f\u4e50\u56ed\u7ad91-207", "name": "\u725b\u5976\u68da \u9526\u6c5f\u4e50\u56ed\u5e97", "id": 140183, "pageNo": 0, "pageCount": null, "pageSize": 10, "ids": null, "endTime": null, "startTime": null}, {"cardNumFive": null, "isSupportYj": null, "cityName": null, "districtName": null, "shopinfo": {"mid": "888888854410163", "good_flag": "2", "new_flag": "1", "short_name": "\u725b\u5976\u68da", "short_name_pinyin": "niunaipeng", "status": null, "address": null, "name": null, "id": "32708"}, "mid": "888888854410163", "shopId": "32708", "netid": null, "province": 901, "district": 601, "zipcode": null, "telephone": "56690950", "posDate": null, "destineTel": null, "togoTel": null, "trafficWay": "159\u3001172\u3001711", "signBuilding": null, "businessArea": null, "selfRoom": null, "businessTime": null, "stall": null, "consume": null, "serviceFei": null, "favourable": null, "shopMemo": null, "appraise": null, "website": null, "memo": null, "payTypes": "\u6749\u5fb7\u5361", "shopTypes": "\u96f6\u552e", "consumeTypes": null, "cookTypes": null, "orderNum": 1000, "card4no": null, "card4noAcc": null, "district2": 416, "searchScope": null, "status": 1, "address": "\u7261\u4e39\u6c5f\u8def1801\u53f7", "name": "\u725b\u5976\u68da \u7261\u4e39\u6c5f\u5e97", "id": 140184, "pageNo": 0, "pageCount": null, "pageSize": 10, "ids": null, "endTime": null, "startTime": null}, {"cardNumFive": null, "isSupportYj": null, "cityName": null, "districtName": null, "shopinfo": {"mid": "888888854410172", "good_flag": "2", "new_flag": "2", "short_name": "\u725b\u5976\u68da", "short_name_pinyin": "niunaipeng", "status": null, "address": null, "name": null, "id": "32709"}, "mid": "888888854410172", "shopId": "32709", "netid": null, "province": 901, "district": 601, "zipcode": null, "telephone": "56716598", "posDate": "200908", "destineTel": null, "togoTel": null, "trafficWay": "\u516c\u4ea4848\u3001100", "signBuilding": null, "businessArea": null, "selfRoom": null, "businessTime": null, "stall": null, "consume": null, "serviceFei": null, "favourable": null, "shopMemo": null, "appraise": null, "website": null, "memo": null, "payTypes": "\u6749\u5fb7\u5361", "shopTypes": "\u96f6\u552e", "consumeTypes": null, "cookTypes": null, "orderNum": 1000, "card4no": null, "card4noAcc": null, "district2": 408, "searchScope": null, "status": 1, "address": "\u6b27\u9633\u8def440\u53f7", "name": "\u725b\u5976\u68da \u6b27\u9633\u8def\u5e97", "id": 140185, "pageNo": 0, "pageCount": null, "pageSize": 10, "ids": null, "endTime": null, "startTime": null}, {"cardNumFive": null, "isSupportYj": null, "cityName": null, "districtName": null, "shopinfo": {"mid": "888888854410182", "good_flag": "2", "new_flag": "1", "short_name": "\u725b\u5976\u68da", "short_name_pinyin": "niunaipeng", "status": null, "address": null, "name": null, "id": "32710"}, "mid": "888888854410182", "shopId": "32710", "netid": null, "province": 901, "district": 601, "zipcode": null, "telephone": null, "posDate": "20100202", "destineTel": null, "togoTel": null, "trafficWay": null, "signBuilding": null, "businessArea": null, "selfRoom": null, "businessTime": null, "stall": null, "consume": null, "serviceFei": null, "favourable": null, "shopMemo": null, "appraise": null, "website": null, "memo": null, "payTypes": "\u6749\u5fb7\u5361", "shopTypes": "\u96f6\u552e", "consumeTypes": null, "cookTypes": null, "orderNum": 1000, "card4no": null, "card4noAcc": null, "district2": 407, "searchScope": null, "status": 1, "address": "\u5e73\u51c9\u8def1177\u53f7", "name": "\u725b\u5976\u68da \u5e73\u51c9\u8def\u5e97", "id": 140186, "pageNo": 0, "pageCount": null, "pageSize": 10, "ids": null, "endTime": null, "startTime": null}, {"cardNumFive": null, "isSupportYj": null, "cityName": null, "districtName": null, "shopinfo": {"mid": "888888854410163", "good_flag": "2", "new_flag": "1", "short_name": "\u725b\u5976\u68da", "short_name_pinyin": "niunaipeng", "status": null, "address": null, "name": null, "id": "32708"}, "mid": "888888854410163", "shopId": "32708", "netid": null, "province": 901, "district": 601, "zipcode": null, "telephone": "58829359", "posDate": null, "destineTel": null, "togoTel": null, "trafficWay": "\u96a7\u90533\u30016\u7ebf", "signBuilding": null, "businessArea": null, "selfRoom": null, "businessTime": null, "stall": null, "consume": null, "serviceFei": null, "favourable": null, "shopMemo": null, "appraise": null, "website": null, "memo": null, "payTypes": "\u6749\u5fb7\u5361", "shopTypes": "\u96f6\u552e", "consumeTypes": null, "cookTypes": null, "orderNum": 1000, "card4no": null, "card4noAcc": null, "district2": 418, "searchScope": null, "status": 1, "address": "\u4e73\u5c71\u8def165\u53f7", "name": "\u725b\u5976\u68da \u4e73\u5c71\u5e97", "id": 140187, "pageNo": 0, "pageCount": null, "pageSize": 10, "ids": null, "endTime": null, "startTime": null}, {"cardNumFive": null, "isSupportYj": null, "cityName": null, "districtName": null, "shopinfo": {"mid": "888888854410163", "good_flag": "2", "new_flag": "1", "short_name": "\u725b\u5976\u68da", "short_name_pinyin": "niunaipeng", "status": null, "address": null, "name": null, "id": "32708"}, "mid": "888888854410163", "shopId": "32708", "netid": null, "province": 901, "district": 601, "zipcode": null, "telephone": "64706410", "posDate": null, "destineTel": null, "togoTel": null, "trafficWay": "92\u300143", "signBuilding": null, "businessArea": null, "selfRoom": null, "businessTime": null, "stall": null, "consume": null, "serviceFei": null, "favourable": null, "shopMemo": null, "appraise": null, "website": null, "memo": null, "payTypes": "\u6749\u5fb7\u5361", "shopTypes": "\u96f6\u552e", "consumeTypes": null, "cookTypes": null, "orderNum": 1000, "card4no": null, "card4noAcc": null, "district2": 403, "searchScope": null, "status": 1, "address": "\u4e60\u52e4\u8def20\u53f7", "name": "\u725b\u5976\u68da \u4e60\u52e4\u5e97", "id": 140189, "pageNo": 0, "pageCount": null, "pageSize": 10, "ids": null, "endTime": null, "startTime": null}, {"cardNumFive": null, "isSupportYj": null, "cityName": null, "districtName": null, "shopinfo": {"mid": "888888854410182", "good_flag": "2", "new_flag": "1", "short_name": "\u725b\u5976\u68da", "short_name_pinyin": "niunaipeng", "status": null, "address": null, "name": null, "id": "32710"}, "mid": "888888854410182", "shopId": "32710", "netid": null, "province": 901, "district": 601, "zipcode": null, "telephone": null, "posDate": "20100202", "destineTel": null, "togoTel": null, "trafficWay": null, "signBuilding": null, "businessArea": null, "selfRoom": null, "businessTime": null, "stall": null, "consume": null, "serviceFei": null, "favourable": null, "shopMemo": null, "appraise": null, "website": null, "memo": null, "payTypes": "\u6749\u5fb7\u5361", "shopTypes": "\u96f6\u552e", "consumeTypes": null, "cookTypes": null, "orderNum": 1000, "card4no": null, "card4noAcc": null, "district2": 407, "searchScope": null, "status": 1, "address": "\u8bb8\u660c\u8def801\u53f7\uff08\u7532\uff09", "name": "\u725b\u5976\u68da \u8bb8\u660c\u8def\u5e97", "id": 140191, "pageNo": 0, "pageCount": null, "pageSize": 10, "ids": null, "endTime": null, "startTime": null}], "pageLimit": 6850, "size": 10}