{"pageCount": 1095, "count": 10942, "pageNo": 697, "subShopInfo": {"cardNumFive": "", "isSupportYj": "", "cityName": null, "districtName": null, "shopinfo": {"mid": null, "good_flag": null, "new_flag": null, "short_name": null, "short_name_pinyin": null, "status": null, "address": "", "name": "", "id": null}, "mid": null, "shopId": null, "netid": null, "province": 901, "district": null, "zipcode": null, "telephone": null, "posDate": null, "destineTel": null, "togoTel": null, "trafficWay": null, "signBuilding": null, "businessArea": null, "selfRoom": null, "businessTime": null, "stall": null, "consume": null, "serviceFei": null, "favourable": null, "shopMemo": "1", "appraise": null, "website": null, "memo": null, "payTypes": "", "shopTypes": "", "consumeTypes": null, "cookTypes": null, "orderNum": null, "card4no": null, "card4noAcc": null, "district2": null, "searchScope": null, "status": null, "address": "", "name": null, "id": null, "pageNo": 696, "pageCount": null, "pageSize": 10, "ids": null, "endTime": null, "startTime": null}, "list": [{"cardNumFive": null, "isSupportYj": null, "cityName": null, "districtName": null, "shopinfo": {"mid": "888002154119944", "good_flag": null, "new_flag": null, "short_name": "\u519c\u5de5\u5546", "short_name_pinyin": "nonggongshang", "status": null, "address": null, "name": null, "id": "36508"}, "mid": "888002154119944", "shopId": "36508", "netid": null, "province": 901, "district": 601, "zipcode": null, "telephone": "64249303", "posDate": "20100826", "destineTel": null, "togoTel": null, "trafficWay": null, "signBuilding": null, "businessArea": null, "selfRoom": null, "businessTime": null, "stall": null, "consume": null, "serviceFei": null, "favourable": null, "shopMemo": null, "appraise": null, "website": null, "memo": null, "payTypes": "\u6749\u5fb7\u5361", "shopTypes": "\u8d85\u5e02", "consumeTypes": null, "cookTypes": null, "orderNum": 1000, "card4no": null, "card4noAcc": null, "district2": 403, "searchScope": null, "status": 1, "address": "\u767e\u8272\u8def1150-1172\u53f7", "name": "\u519c\u5de5\u5546 \u767e\u8272\u5e97", "id": 151816, "pageNo": 0, "pageCount": null, "pageSize": 10, "ids": null, "endTime": null, "startTime": null}, {"cardNumFive": null, "isSupportYj": null, "cityName": null, "districtName": null, "shopinfo": {"mid": "888002154119944", "good_flag": null, "new_flag": null, "short_name": "\u519c\u5de5\u5546", "short_name_pinyin": "nonggongshang", "status": null, "address": null, "name": null, "id": "36508"}, "mid": "888002154119944", "shopId": "36508", "netid": null, "province": 901, "district": 601, "zipcode": null, "telephone": "56439149", "posDate": "20100826", "destineTel": null, "togoTel": null, "trafficWay": null, "signBuilding": null, "businessArea": null, "selfRoom": null, "businessTime": null, "stall": null, "consume": null, "serviceFei": null, "favourable": null, "shopMemo": null, "appraise": null, "website": null, "memo": null, "payTypes": "\u6749\u5fb7\u5361", "shopTypes": "\u8d85\u5e02", "consumeTypes": null, "cookTypes": null, "orderNum": 1000, "card4no": null, "card4noAcc": null, "district2": 410, "searchScope": null, "status": 1, "address": "\u4fdd\u5fb7\u8def1316-1318\u53f7", "name": "\u519c\u5de5\u5546 \u4fdd\u5fb7\u5e97", "id": 151817, "pageNo": 0, "pageCount": null, "pageSize": 10, "ids": null, "endTime": null, "startTime": null}, {"cardNumFive": null, "isSupportYj": null, "cityName": null, "districtName": null, "shopinfo": {"mid": "888002154119944", "good_flag": null, "new_flag": null, "short_name": "\u519c\u5de5\u5546", "short_name_pinyin": "nonggongshang", "status": null, "address": null, "name": null, "id": "36508"}, "mid": "888002154119944", "shopId": "36508", "netid": null, "province": 901, "district": 601, "zipcode": null, "telephone": "65953616", "posDate": "20100825", "destineTel": null, "togoTel": null, "trafficWay": null, "signBuilding": null, "businessArea": null, "selfRoom": null, "businessTime": null, "stall": null, "consume": null, "serviceFei": null, "favourable": null, "shopMemo": null, "appraise": null, "website": null, "memo": null, "payTypes": "\u6749\u5fb7\u5361", "shopTypes": "\u8d85\u5e02", "consumeTypes": null, "cookTypes": null, "orderNum": 1000, "card4no": null, "card4noAcc": null, "district2": 408, "searchScope": null, "status": 1, "address": "\u4fdd\u5b9a\u8def419\u53f7", "name": "\u519c\u5de5\u5546 \u4fdd\u5b9a\u5e97", "id": 151818, "pageNo": 0, "pageCount": null, "pageSize": 10, "ids": null, "endTime": null, "startTime": null}, {"cardNumFive": null, "isSupportYj": null, "cityName": null, "districtName": null, "shopinfo": {"mid": "888002154119944", "good_flag": null, "new_flag": null, "short_name": "\u519c\u5de5\u5546", "short_name_pinyin": "nonggongshang", "status": null, "address": null, "name": null, "id": "36508"}, "mid": "888002154119944", "shopId": "36508", "netid": null, "province": 901, "district": 601, "zipcode": null, "telephone": "64900298", "posDate": "20100827", "destineTel": null, "togoTel": null, "trafficWay": null, "signBuilding": null, "businessArea": null, "selfRoom": null, "businessTime": null, "stall": null, "consume": null, "serviceFei": null, "favourable": null, "shopMemo": null, "appraise": null, "website": null, "memo": null, "payTypes": "\u6749\u5fb7\u5361", "shopTypes": "\u8d85\u5e02", "consumeTypes": null, "cookTypes": null, "orderNum": 1000, "card4no": null, "card4noAcc": null, "district2": 409, "searchScope": null, "status": 1, "address": "\u5317\u6865\u9547\u6caa\u95f5\u8def2282\u5f0471-93\u53f7", "name": "\u519c\u5de5\u5546 \u5317\u6865\u5e97", "id": 151819, "pageNo": 0, "pageCount": null, "pageSize": 10, "ids": null, "endTime": null, "startTime": null}, {"cardNumFive": null, "isSupportYj": null, "cityName": null, "districtName": null, "shopinfo": {"mid": "888002154119944", "good_flag": null, "new_flag": null, "short_name": "\u519c\u5de5\u5546", "short_name_pinyin": "nonggongshang", "status": null, "address": null, "name": null, "id": "36508"}, "mid": "888002154119944", "shopId": "36508", "netid": null, "province": 901, "district": 601, "zipcode": null, "telephone": "65431764", "posDate": "20100825", "destineTel": null, "togoTel": null, "trafficWay": null, "signBuilding": null, "businessArea": null, "selfRoom": null, "businessTime": null, "stall": null, "consume": null, "serviceFei": null, "favourable": null, "shopMemo": null, "appraise": null, "website": null, "memo": null, "payTypes": "\u6749\u5fb7\u5361", "shopTypes": "\u8d85\u5e02", "consumeTypes": null, "cookTypes": null, "orderNum": 1000, "card4no": null, "card4noAcc": null, "district2": 408, "searchScope": null, "status": 1, "address": "\u957f\u9633\u8def1830\u53f7", "name": "\u519c\u5de5\u5546 \u957f\u9633\u5e97", "id": 151821, "pageNo": 0, "pageCount": null, "pageSize": 10, "ids": null, "endTime": null, "startTime": null}, {"cardNumFive": null, "isSupportYj": null, "cityName": null, "districtName": null, "shopinfo": {"mid": "888002154119944", "good_flag": null, "new_flag": null, "short_name": "\u519c\u5de5\u5546", "short_name_pinyin": "nonggongshang", "status": null, "address": null, "name": null, "id": "36508"}, "mid": "888002154119944", "shopId": "36508", "netid": null, "province": 901, "district": 601, "zipcode": null, "telephone": "65028889", "posDate": "20100825", "destineTel": null, "togoTel": null, "trafficWay": null, "signBuilding": null, "businessArea": null, "selfRoom": null, "businessTime": null, "stall": null, "consume": null, "serviceFei": null, "favourable": null, "shopMemo": null, "appraise": null, "website": null, "memo": null, "payTypes": "\u6749\u5fb7\u5361", "shopTypes": "\u8d85\u5e02", "consumeTypes": null, "cookTypes": null, "orderNum": 1000, "card4no": null, "card4noAcc": null, "district2": 407, "searchScope": null, "status": 1, "address": "\u6253\u864e\u5c71\u8def24\u53f7", "name": "\u519c\u5de5\u5546 \u6253\u864e\u5c71\u5e97", "id": 151822, "pageNo": 0, "pageCount": null, "pageSize": 10, "ids": null, "endTime": null, "startTime": null}, {"cardNumFive": null, "isSupportYj": null, "cityName": null, "districtName": null, "shopinfo": {"mid": "888002154119944", "good_flag": null, "new_flag": null, "short_name": "\u519c\u5de5\u5546", "short_name_pinyin": "nonggongshang", "status": null, "address": null, "name": null, "id": "36508"}, "mid": "888002154119944", "shopId": "36508", "netid": null, "province": 901, "district": 601, "zipcode": null, "telephone": "65950806", "posDate": "20100825", "destineTel": null, "togoTel": null, "trafficWay": null, "signBuilding": null, "businessArea": null, "selfRoom": null, "businessTime": null, "stall": null, "consume": null, "serviceFei": null, "favourable": null, "shopMemo": null, "appraise": null, "website": null, "memo": null, "payTypes": "\u6749\u5fb7\u5361", "shopTypes": "\u8d85\u5e02", "consumeTypes": null, "cookTypes": null, "orderNum": 1000, "card4no": null, "card4noAcc": null, "district2": 408, "searchScope": null, "status": 1, "address": "\u4e1c\u5927\u540d\u8def817\u53f7", "name": "\u519c\u5de5\u5546 \u5927\u540d\u5e97", "id": 151823, "pageNo": 0, "pageCount": null, "pageSize": 10, "ids": null, "endTime": null, "startTime": null}, {"cardNumFive": null, "isSupportYj": null, "cityName": null, "districtName": null, "shopinfo": {"mid": "888002154119944", "good_flag": null, "new_flag": null, "short_name": "\u519c\u5de5\u5546", "short_name_pinyin": "nonggongshang", "status": null, "address": null, "name": null, "id": "36508"}, "mid": "888002154119944", "shopId": "36508", "netid": null, "province": 901, "district": 601, "zipcode": null, "telephone": "62109616", "posDate": "20100826", "destineTel": null, "togoTel": null, "trafficWay": null, "signBuilding": null, "businessArea": null, "selfRoom": null, "businessTime": null, "stall": null, "consume": null, "serviceFei": null, "favourable": null, "shopMemo": null, "appraise": null, "website": null, "memo": null, "payTypes": "\u6749\u5fb7\u5361", "shopTypes": "\u8d85\u5e02", "consumeTypes": null, "cookTypes": null, "orderNum": 1000, "card4no": null, "card4noAcc": null, "district2": 406, "searchScope": null, "status": 1, "address": "\u4e1c\u8bf8\u5b89\u6d5c\u8def189-195\u53f7", "name": "\u519c\u5de5\u5546 \u4e1c\u8bf8\u5b89\u5e97", "id": 151825, "pageNo": 0, "pageCount": null, "pageSize": 10, "ids": null, "endTime": null, "startTime": null}, {"cardNumFive": null, "isSupportYj": null, "cityName": null, "districtName": null, "shopinfo": {"mid": "888002154119944", "good_flag": null, "new_flag": null, "short_name": "\u519c\u5de5\u5546", "short_name_pinyin": "nonggongshang", "status": null, "address": null, "name": null, "id": "36508"}, "mid": "888002154119944", "shopId": "36508", "netid": null, "province": 901, "district": 601, "zipcode": null, "telephone": "62830419", "posDate": "20100826", "destineTel": null, "togoTel": null, "trafficWay": null, "signBuilding": null, "businessArea": null, "selfRoom": null, "businessTime": null, "stall": null, "consume": null, "serviceFei": null, "favourable": null, "shopMemo": null, "appraise": null, "website": null, "memo": null, "payTypes": "\u6749\u5fb7\u5361", "shopTypes": "\u8d85\u5e02", "consumeTypes": null, "cookTypes": null, "orderNum": 1000, "card4no": null, "card4noAcc": null, "district2": 406, "searchScope": null, "status": 1, "address": "\u6cd5\u534e\u9547\u8def681-687\u53f7", "name": "\u519c\u5de5\u5546 \u6cd5\u534e\u5e97", "id": 151826, "pageNo": 0, "pageCount": null, "pageSize": 10, "ids": null, "endTime": null, "startTime": null}, {"cardNumFive": null, "isSupportYj": null, "cityName": null, "districtName": null, "shopinfo": {"mid": "888002154119944", "good_flag": null, "new_flag": null, "short_name": "\u519c\u5de5\u5546", "short_name_pinyin": "nonggongshang", "status": null, "address": null, "name": null, "id": "36508"}, "mid": "888002154119944", "shopId": "36508", "netid": null, "province": 901, "district": 601, "zipcode": null, "telephone": "64473295", "posDate": "20100826", "destineTel": null, "togoTel": null, "trafficWay": null, "signBuilding": null, "businessArea": null, "selfRoom": null, "businessTime": null, "stall": null, "consume": null, "serviceFei": null, "favourable": null, "shopMemo": null, "appraise": null, "website": null, "memo": null, "payTypes": "\u6749\u5fb7\u5361", "shopTypes": "\u8d85\u5e02", "consumeTypes": null, "cookTypes": null, "orderNum": 1000, "card4no": null, "card4noAcc": null, "district2": 406, "searchScope": null, "status": 1, "address": "\u756a\u79ba\u8def882\u53f7", "name": "\u519c\u5de5\u5546 \u756a\u79ba\u5e97", "id": 151827, "pageNo": 0, "pageCount": null, "pageSize": 10, "ids": null, "endTime": null, "startTime": null}], "pageLimit": 6960, "size": 10}