{"pageCount": 1095, "count": 10942, "pageNo": 695, "subShopInfo": {"cardNumFive": "", "isSupportYj": "", "cityName": null, "districtName": null, "shopinfo": {"mid": null, "good_flag": null, "new_flag": null, "short_name": null, "short_name_pinyin": null, "status": null, "address": "", "name": "", "id": null}, "mid": null, "shopId": null, "netid": null, "province": 901, "district": null, "zipcode": null, "telephone": null, "posDate": null, "destineTel": null, "togoTel": null, "trafficWay": null, "signBuilding": null, "businessArea": null, "selfRoom": null, "businessTime": null, "stall": null, "consume": null, "serviceFei": null, "favourable": null, "shopMemo": "1", "appraise": null, "website": null, "memo": null, "payTypes": "", "shopTypes": "", "consumeTypes": null, "cookTypes": null, "orderNum": null, "card4no": null, "card4noAcc": null, "district2": null, "searchScope": null, "status": null, "address": "", "name": null, "id": null, "pageNo": 694, "pageCount": null, "pageSize": 10, "ids": null, "endTime": null, "startTime": null}, "list": [{"cardNumFive": null, "isSupportYj": null, "cityName": null, "districtName": null, "shopinfo": {"mid": "888002153311206", "good_flag": "2", "new_flag": "2", "short_name": "\u725b\u5976\u68da", "short_name_pinyin": "niunaipeng", "status": null, "address": null, "name": null, "id": "565224381748346880"}, "mid": "888002153311206", "shopId": "565224381748346880", "netid": null, "province": 901, "district": 601, "zipcode": null, "telephone": null, "posDate": null, "destineTel": null, "togoTel": null, "trafficWay": null, "signBuilding": null, "businessArea": null, "selfRoom": null, "businessTime": null, "stall": null, "consume": null, "serviceFei": null, "favourable": null, "shopMemo": null, "appraise": null, "website": null, "memo": null, "payTypes": "\u6749\u5fb7\u5361,", "shopTypes": null, "consumeTypes": null, "cookTypes": null, "orderNum": null, "card4no": null, "card4noAcc": null, "district2": 403, "searchScope": null, "status": 1, "address": "\u9f99\u745e\u8def62\u53f71\u5c42", "name": "\u9f99\u745e\u8def\u5e97", "id": 565224379810578432, "pageNo": 0, "pageCount": null, "pageSize": 10, "ids": null, "endTime": null, "startTime": null}, {"cardNumFive": null, "isSupportYj": null, "cityName": null, "districtName": null, "shopinfo": {"mid": "888002175380125", "good_flag": "2", "new_flag": "2", "short_name": "\u725b\u5976\u68da", "short_name_pinyin": "niunaipeng", "status": null, "address": null, "name": null, "id": "565224382335549440"}, "mid": "888002175380125", "shopId": "565224382335549440", "netid": null, "province": 901, "district": 601, "zipcode": null, "telephone": null, "posDate": null, "destineTel": null, "togoTel": null, "trafficWay": null, "signBuilding": null, "businessArea": null, "selfRoom": null, "businessTime": null, "stall": null, "consume": null, "serviceFei": null, "favourable": null, "shopMemo": null, "appraise": null, "website": null, "memo": null, "payTypes": "\u6749\u5fb7\u5361,", "shopTypes": null, "consumeTypes": null, "cookTypes": null, "orderNum": null, "card4no": null, "card4noAcc": null, "district2": 409, "searchScope": null, "status": 1, "address": "\u822a\u4e1c\u8def528\u5f0415\u53f7", "name": "\u822a\u4e1c\u8def\u5e97", "id": 565224380397780992, "pageNo": 0, "pageCount": null, "pageSize": 10, "ids": null, "endTime": null, "startTime": null}, {"cardNumFive": null, "isSupportYj": null, "cityName": null, "districtName": null, "shopinfo": {"mid": "888002154410156", "good_flag": "2", "new_flag": "2", "short_name": "\u725b\u5976\u68da", "short_name_pinyin": "niunaipeng", "status": null, "address": null, "name": null, "id": "43238"}, "mid": "888002154410156", "shopId": "43238", "netid": null, "province": 901, "district": 601, "zipcode": null, "telephone": null, "posDate": null, "destineTel": null, "togoTel": null, "trafficWay": null, "signBuilding": null, "businessArea": null, "selfRoom": null, "businessTime": null, "stall": null, "consume": null, "serviceFei": null, "favourable": null, "shopMemo": null, "appraise": null, "website": null, "memo": null, "payTypes": "\u6749\u5fb7\u5361,", "shopTypes": null, "consumeTypes": null, "cookTypes": null, "orderNum": null, "card4no": null, "card4noAcc": null, "district2": 403, "searchScope": null, "status": 1, "address": "\u9f99\u5dde\u8def995\u53f7", "name": "\u9f99\u5dde\u8def\u5e97", "id": 565224387888807936, "pageNo": 0, "pageCount": null, "pageSize": 10, "ids": null, "endTime": null, "startTime": null}, {"cardNumFive": null, "isSupportYj": null, "cityName": null, "districtName": null, "shopinfo": {"mid": "888002154410156", "good_flag": "2", "new_flag": "2", "short_name": "\u725b\u5976\u68da", "short_name_pinyin": "niunaipeng", "status": null, "address": null, "name": null, "id": "43238"}, "mid": "888002154410156", "shopId": "43238", "netid": null, "province": 901, "district": 601, "zipcode": null, "telephone": null, "posDate": null, "destineTel": null, "togoTel": null, "trafficWay": null, "signBuilding": null, "businessArea": null, "selfRoom": null, "businessTime": null, "stall": null, "consume": null, "serviceFei": null, "favourable": null, "shopMemo": null, "appraise": null, "website": null, "memo": null, "payTypes": "\u6749\u5fb7\u5361,", "shopTypes": null, "consumeTypes": null, "cookTypes": null, "orderNum": null, "card4no": null, "card4noAcc": null, "district2": 417, "searchScope": null, "status": 1, "address": "\u76c8\u6e2f\u4e1c\u8def158\u53f7\u5546\u4e1a\u5e7f\u573aR-L110", "name": "JZ\u76d2\u9a6c\u4e0a\u6d77\u56fd\u5c55\u4e2d\u5fc3\u5e97", "id": 565224388249518080, "pageNo": 0, "pageCount": null, "pageSize": 10, "ids": null, "endTime": null, "startTime": null}, {"cardNumFive": null, "isSupportYj": null, "cityName": null, "districtName": null, "shopinfo": {"mid": "888002154990044", "good_flag": null, "new_flag": null, "short_name": "\u519c\u526f\u4ea7\u54c1\u5927\u5356\u573a", "short_name_pinyin": "nongfuchanpindamaichang", "status": null, "address": null, "name": null, "id": "42349"}, "mid": "888002154990044", "shopId": "42349", "netid": null, "province": 901, "district": 601, "zipcode": null, "telephone": null, "posDate": null, "destineTel": null, "togoTel": null, "trafficWay": null, "signBuilding": null, "businessArea": null, "selfRoom": null, "businessTime": null, "stall": null, "consume": null, "serviceFei": null, "favourable": null, "shopMemo": null, "appraise": null, "website": null, "memo": null, "payTypes": "\u6749\u5fb7\u5361", "shopTypes": "\u9910\u996e", "consumeTypes": null, "cookTypes": null, "orderNum": 1000, "card4no": null, "card4noAcc": null, "district2": 401, "searchScope": null, "status": 1, "address": "\u65b9\u6d5c\u897f\u8def64-66\u53f71\u5c42", "name": "\u519c\u526f\u4ea7\u54c1\u5927\u5356\u573a \u65b9\u6d5c\u897f\u8def\u5e97", "id": 188893, "pageNo": 0, "pageCount": null, "pageSize": 10, "ids": null, "endTime": null, "startTime": null}, {"cardNumFive": null, "isSupportYj": null, "cityName": null, "districtName": null, "shopinfo": {"mid": "888002154990044", "good_flag": null, "new_flag": null, "short_name": "\u519c\u526f\u4ea7\u54c1\u5927\u5356\u573a", "short_name_pinyin": "nongfuchanpindamaichang", "status": null, "address": null, "name": null, "id": "42349"}, "mid": "888002154990044", "shopId": "42349", "netid": null, "province": 901, "district": 601, "zipcode": null, "telephone": null, "posDate": null, "destineTel": null, "togoTel": null, "trafficWay": null, "signBuilding": null, "businessArea": null, "selfRoom": null, "businessTime": null, "stall": null, "consume": null, "serviceFei": null, "favourable": null, "shopMemo": null, "appraise": null, "website": null, "memo": null, "payTypes": "\u6749\u5fb7\u5361", "shopTypes": "\u9910\u996e", "consumeTypes": null, "cookTypes": null, "orderNum": 1000, "card4no": null, "card4noAcc": null, "district2": 403, "searchScope": null, "status": 1, "address": "\u51cc\u4e91\u8def361\u53f7", "name": "\u519c\u526f\u4ea7\u54c1\u5927\u5356\u573a \u51cc\u4e91\u8def\u5e97", "id": 188900, "pageNo": 0, "pageCount": null, "pageSize": 10, "ids": null, "endTime": null, "startTime": null}, {"cardNumFive": null, "isSupportYj": null, "cityName": null, "districtName": null, "shopinfo": {"mid": "888002154990044", "good_flag": null, "new_flag": null, "short_name": "\u519c\u526f\u4ea7\u54c1\u5927\u5356\u573a", "short_name_pinyin": "nongfuchanpindamaichang", "status": null, "address": null, "name": null, "id": "42349"}, "mid": "888002154990044", "shopId": "42349", "netid": null, "province": 901, "district": 601, "zipcode": null, "telephone": null, "posDate": null, "destineTel": null, "togoTel": null, "trafficWay": null, "signBuilding": null, "businessArea": null, "selfRoom": null, "businessTime": null, "stall": null, "consume": null, "serviceFei": null, "favourable": null, "shopMemo": null, "appraise": null, "website": null, "memo": null, "payTypes": "\u6749\u5fb7\u5361", "shopTypes": "\u9910\u996e", "consumeTypes": null, "cookTypes": null, "orderNum": 1000, "card4no": null, "card4noAcc": null, "district2": 418, "searchScope": null, "status": 1, "address": "\u535a\u5c71\u8def21-23\u53f7", "name": "\u519c\u526f\u4ea7\u54c1\u5927\u5356\u573a \u535a\u5c71\u8def\u5e97", "id": 188901, "pageNo": 0, "pageCount": null, "pageSize": 10, "ids": null, "endTime": null, "startTime": null}, {"cardNumFive": null, "isSupportYj": null, "cityName": null, "districtName": null, "shopinfo": {"mid": "888002154990044", "good_flag": null, "new_flag": null, "short_name": "\u519c\u526f\u4ea7\u54c1\u5927\u5356\u573a", "short_name_pinyin": "nongfuchanpindamaichang", "status": null, "address": null, "name": null, "id": "42349"}, "mid": "888002154990044", "shopId": "42349", "netid": null, "province": 901, "district": 601, "zipcode": null, "telephone": null, "posDate": null, "destineTel": null, "togoTel": null, "trafficWay": null, "signBuilding": null, "businessArea": null, "selfRoom": null, "businessTime": null, "stall": null, "consume": null, "serviceFei": null, "favourable": null, "shopMemo": null, "appraise": null, "website": null, "memo": null, "payTypes": "\u6749\u5fb7\u5361", "shopTypes": "\u9910\u996e", "consumeTypes": null, "cookTypes": null, "orderNum": 1000, "card4no": null, "card4noAcc": null, "district2": 418, "searchScope": null, "status": 1, "address": "\u660c\u91cc\u8def157\u53f7", "name": "\u519c\u526f\u4ea7\u54c1\u5927\u5356\u573a \u660c\u91cc\u4e8c\u5e97", "id": 188902, "pageNo": 0, "pageCount": null, "pageSize": 10, "ids": null, "endTime": null, "startTime": null}, {"cardNumFive": null, "isSupportYj": null, "cityName": null, "districtName": null, "shopinfo": {"mid": "888002154119944", "good_flag": null, "new_flag": null, "short_name": "\u519c\u5de5\u5546", "short_name_pinyin": "nonggongshang", "status": null, "address": null, "name": null, "id": "32712"}, "mid": "888002154119944", "shopId": "32712", "netid": null, "province": 901, "district": 601, "zipcode": null, "telephone": null, "posDate": "20100125", "destineTel": null, "togoTel": null, "trafficWay": null, "signBuilding": null, "businessArea": null, "selfRoom": null, "businessTime": null, "stall": null, "consume": null, "serviceFei": null, "favourable": null, "shopMemo": null, "appraise": null, "website": null, "memo": null, "payTypes": "\u6749\u5fb7\u5361", "shopTypes": "\u8d85\u5e02", "consumeTypes": null, "cookTypes": null, "orderNum": 1000, "card4no": null, "card4noAcc": null, "district2": 409, "searchScope": null, "status": 1, "address": "\u4ed3\u6e90\u8def595\u53f7", "name": "\u519c\u5de5\u5546 \u4ed3\u6e90\u5e97", "id": 140195, "pageNo": 0, "pageCount": null, "pageSize": 10, "ids": null, "endTime": null, "startTime": null}, {"cardNumFive": null, "isSupportYj": null, "cityName": null, "districtName": null, "shopinfo": {"mid": "888002154119944", "good_flag": null, "new_flag": null, "short_name": "\u519c\u5de5\u5546", "short_name_pinyin": "nonggongshang", "status": null, "address": null, "name": null, "id": "32712"}, "mid": "888002154119944", "shopId": "32712", "netid": null, "province": 901, "district": 601, "zipcode": null, "telephone": null, "posDate": "20100125", "destineTel": null, "togoTel": null, "trafficWay": null, "signBuilding": null, "businessArea": null, "selfRoom": null, "businessTime": null, "stall": null, "consume": null, "serviceFei": null, "favourable": null, "shopMemo": null, "appraise": null, "website": null, "memo": null, "payTypes": "\u6749\u5fb7\u5361", "shopTypes": "\u8d85\u5e02", "consumeTypes": null, "cookTypes": null, "orderNum": 1000, "card4no": null, "card4noAcc": null, "district2": 415, "searchScope": null, "status": 1, "address": "\u5d07\u660e\u4eba\u6c11\u8def169\u53f7", "name": "\u519c\u5de5\u5546 \u5d07\u660e\u5e97", "id": 140196, "pageNo": 0, "pageCount": null, "pageSize": 10, "ids": null, "endTime": null, "startTime": null}], "pageLimit": 6940, "size": 10}