{"pageCount": 1095, "count": 10942, "pageNo": 703, "subShopInfo": {"cardNumFive": "", "isSupportYj": "", "cityName": null, "districtName": null, "shopinfo": {"mid": null, "good_flag": null, "new_flag": null, "short_name": null, "short_name_pinyin": null, "status": null, "address": "", "name": "", "id": null}, "mid": null, "shopId": null, "netid": null, "province": 901, "district": null, "zipcode": null, "telephone": null, "posDate": null, "destineTel": null, "togoTel": null, "trafficWay": null, "signBuilding": null, "businessArea": null, "selfRoom": null, "businessTime": null, "stall": null, "consume": null, "serviceFei": null, "favourable": null, "shopMemo": "1", "appraise": null, "website": null, "memo": null, "payTypes": "", "shopTypes": "", "consumeTypes": null, "cookTypes": null, "orderNum": null, "card4no": null, "card4noAcc": null, "district2": null, "searchScope": null, "status": null, "address": "", "name": null, "id": null, "pageNo": 702, "pageCount": null, "pageSize": 10, "ids": null, "endTime": null, "startTime": null}, "list": [{"cardNumFive": null, "isSupportYj": null, "cityName": null, "districtName": null, "shopinfo": {"mid": "888002154119944", "good_flag": null, "new_flag": null, "short_name": "\u519c\u5de5\u5546", "short_name_pinyin": "nonggongshang", "status": null, "address": null, "name": null, "id": "36508"}, "mid": "888002154119944", "shopId": "36508", "netid": null, "province": 901, "district": 601, "zipcode": null, "telephone": "63285071", "posDate": "20100903", "destineTel": null, "togoTel": null, "trafficWay": null, "signBuilding": null, "businessArea": null, "selfRoom": null, "businessTime": null, "stall": null, "consume": null, "serviceFei": null, "favourable": null, "shopMemo": null, "appraise": null, "website": null, "memo": null, "payTypes": "\u6749\u5fb7\u5361", "shopTypes": "\u8d85\u5e02", "consumeTypes": null, "cookTypes": null, "orderNum": 1000, "card4no": null, "card4noAcc": null, "district2": 401, "searchScope": null, "status": 1, "address": "\u6c38\u5bff\u8def91\u53f7", "name": "\u519c\u5de5\u5546 \u91d1\u9675\u5e97", "id": 151882, "pageNo": 0, "pageCount": null, "pageSize": 10, "ids": null, "endTime": null, "startTime": null}, {"cardNumFive": null, "isSupportYj": null, "cityName": null, "districtName": null, "shopinfo": {"mid": "888002154119944", "good_flag": null, "new_flag": null, "short_name": "\u519c\u5de5\u5546", "short_name_pinyin": "nonggongshang", "status": null, "address": null, "name": null, "id": "36508"}, "mid": "888002154119944", "shopId": "36508", "netid": null, "province": 901, "district": 601, "zipcode": null, "telephone": "57630111", "posDate": "20100902", "destineTel": null, "togoTel": null, "trafficWay": null, "signBuilding": null, "businessArea": null, "selfRoom": null, "businessTime": null, "stall": null, "consume": null, "serviceFei": null, "favourable": null, "shopMemo": null, "appraise": null, "website": null, "memo": null, "payTypes": "\u6749\u5fb7\u5361", "shopTypes": "\u8d85\u5e02", "consumeTypes": null, "cookTypes": null, "orderNum": 1000, "card4no": null, "card4noAcc": null, "district2": 412, "searchScope": null, "status": 1, "address": "\u4e5d\u4ead\u9547\u6caa\u4ead\u5357\u8def48\u53f7", "name": "\u519c\u5de5\u5546 \u4e5d\u4ead\u5e97", "id": 151883, "pageNo": 0, "pageCount": null, "pageSize": 10, "ids": null, "endTime": null, "startTime": null}, {"cardNumFive": null, "isSupportYj": null, "cityName": null, "districtName": null, "shopinfo": {"mid": "888002154119944", "good_flag": null, "new_flag": null, "short_name": "\u519c\u5de5\u5546", "short_name_pinyin": "nonggongshang", "status": null, "address": null, "name": null, "id": "36508"}, "mid": "888002154119944", "shopId": "36508", "netid": null, "province": 901, "district": 601, "zipcode": null, "telephone": "56830602", "posDate": "20100831", "destineTel": null, "togoTel": null, "trafficWay": null, "signBuilding": null, "businessArea": null, "selfRoom": null, "businessTime": null, "stall": null, "consume": null, "serviceFei": null, "favourable": null, "shopMemo": null, "appraise": null, "website": null, "memo": null, "payTypes": "\u6749\u5fb7\u5361", "shopTypes": "\u8d85\u5e02", "consumeTypes": null, "cookTypes": null, "orderNum": 1000, "card4no": null, "card4noAcc": null, "district2": 410, "searchScope": null, "status": 1, "address": "\u4e34\u6c7e\u8def328\u53f7", "name": "\u519c\u5de5\u5546 \u4e34\u6c7e\u5e97", "id": 151884, "pageNo": 0, "pageCount": null, "pageSize": 10, "ids": null, "endTime": null, "startTime": null}, {"cardNumFive": null, "isSupportYj": null, "cityName": null, "districtName": null, "shopinfo": {"mid": "888002154119944", "good_flag": null, "new_flag": null, "short_name": "\u519c\u5de5\u5546", "short_name_pinyin": "nonggongshang", "status": null, "address": null, "name": null, "id": "36508"}, "mid": "888002154119944", "shopId": "36508", "netid": null, "province": 901, "district": 601, "zipcode": null, "telephone": "66012447", "posDate": "20100831", "destineTel": null, "togoTel": null, "trafficWay": null, "signBuilding": null, "businessArea": null, "selfRoom": null, "businessTime": null, "stall": null, "consume": null, "serviceFei": null, "favourable": null, "shopMemo": null, "appraise": null, "website": null, "memo": null, "payTypes": "\u6749\u5fb7\u5361", "shopTypes": "\u8d85\u5e02", "consumeTypes": null, "cookTypes": null, "orderNum": 1000, "card4no": null, "card4noAcc": null, "district2": 416, "searchScope": null, "status": 1, "address": "\u7f57\u5e97\u9547\u7f57\u5357\u4e1c\u592a\u8def318\u53f7", "name": "\u519c\u5de5\u5546 \u7f57\u5357\u5e97", "id": 151886, "pageNo": 0, "pageCount": null, "pageSize": 10, "ids": null, "endTime": null, "startTime": null}, {"cardNumFive": null, "isSupportYj": null, "cityName": null, "districtName": null, "shopinfo": {"mid": "888002154119944", "good_flag": null, "new_flag": null, "short_name": "\u519c\u5de5\u5546", "short_name_pinyin": "nonggongshang", "status": null, "address": null, "name": null, "id": "36508"}, "mid": "888002154119944", "shopId": "36508", "netid": null, "province": 901, "district": 601, "zipcode": null, "telephone": "63013998", "posDate": "20100903", "destineTel": null, "togoTel": null, "trafficWay": null, "signBuilding": null, "businessArea": null, "selfRoom": null, "businessTime": null, "stall": null, "consume": null, "serviceFei": null, "favourable": null, "shopMemo": null, "appraise": null, "website": null, "memo": null, "payTypes": "\u6749\u5fb7\u5361", "shopTypes": "\u8d85\u5e02", "consumeTypes": null, "cookTypes": null, "orderNum": 1000, "card4no": null, "card4noAcc": null, "district2": 401, "searchScope": null, "status": 1, "address": "\u8499\u81ea\u8def477\u53f7", "name": "\u519c\u5de5\u5546 \u8499\u81ea\u5e97", "id": 151887, "pageNo": 0, "pageCount": null, "pageSize": 10, "ids": null, "endTime": null, "startTime": null}, {"cardNumFive": null, "isSupportYj": null, "cityName": null, "districtName": null, "shopinfo": {"mid": "888002154119944", "good_flag": null, "new_flag": null, "short_name": "\u519c\u5de5\u5546", "short_name_pinyin": "nonggongshang", "status": null, "address": null, "name": null, "id": "36508"}, "mid": "888002154119944", "shopId": "36508", "netid": null, "province": 901, "district": 601, "zipcode": null, "telephone": "53832788", "posDate": "20100903", "destineTel": null, "togoTel": null, "trafficWay": null, "signBuilding": null, "businessArea": null, "selfRoom": null, "businessTime": null, "stall": null, "consume": null, "serviceFei": null, "favourable": null, "shopMemo": null, "appraise": null, "website": null, "memo": null, "payTypes": "\u6749\u5fb7\u5361", "shopTypes": "\u8d85\u5e02", "consumeTypes": null, "cookTypes": null, "orderNum": 1000, "card4no": null, "card4noAcc": null, "district2": 401, "searchScope": null, "status": 1, "address": "\u5357\u660c\u8def44\u53f7", "name": "\u519c\u5de5\u5546 \u5357\u660c\u8def\u5e97", "id": 151888, "pageNo": 0, "pageCount": null, "pageSize": 10, "ids": null, "endTime": null, "startTime": null}, {"cardNumFive": null, "isSupportYj": null, "cityName": null, "districtName": null, "shopinfo": {"mid": "888002154119944", "good_flag": null, "new_flag": null, "short_name": "\u519c\u5de5\u5546", "short_name_pinyin": "nonggongshang", "status": null, "address": null, "name": null, "id": "36508"}, "mid": "888002154119944", "shopId": "36508", "netid": null, "province": 901, "district": 601, "zipcode": null, "telephone": "58305589", "posDate": "20100903", "destineTel": null, "togoTel": null, "trafficWay": null, "signBuilding": null, "businessArea": null, "selfRoom": null, "businessTime": null, "stall": null, "consume": null, "serviceFei": null, "favourable": null, "shopMemo": null, "appraise": null, "website": null, "memo": null, "payTypes": "\u6749\u5fb7\u5361", "shopTypes": "\u8d85\u5e02", "consumeTypes": null, "cookTypes": null, "orderNum": 1000, "card4no": null, "card4noAcc": null, "district2": 418, "searchScope": null, "status": 1, "address": "\u5357\u6cc9\u8def26\u53f7", "name": "\u519c\u5de5\u5546 \u5357\u6cc9\u5e97", "id": 151889, "pageNo": 0, "pageCount": null, "pageSize": 10, "ids": null, "endTime": null, "startTime": null}, {"cardNumFive": null, "isSupportYj": null, "cityName": null, "districtName": null, "shopinfo": {"mid": "888002154119944", "good_flag": null, "new_flag": null, "short_name": "\u519c\u5de5\u5546", "short_name_pinyin": "nonggongshang", "status": null, "address": null, "name": null, "id": "36508"}, "mid": "888002154119944", "shopId": "36508", "netid": null, "province": 901, "district": 601, "zipcode": null, "telephone": "57540296", "posDate": "20100831", "destineTel": null, "togoTel": null, "trafficWay": null, "signBuilding": null, "businessArea": null, "selfRoom": null, "businessTime": null, "stall": null, "consume": null, "serviceFei": null, "favourable": null, "shopMemo": null, "appraise": null, "website": null, "memo": null, "payTypes": "\u6749\u5fb7\u5361", "shopTypes": "\u8d85\u5e02", "consumeTypes": null, "cookTypes": null, "orderNum": 1000, "card4no": null, "card4noAcc": null, "district2": 413, "searchScope": null, "status": 1, "address": "\u56db\u56e2\u9547\u5e73\u798f\u8def1152-1156\u53f7", "name": "\u519c\u5de5\u5546 \u5e73\u798f\u5e97", "id": 151890, "pageNo": 0, "pageCount": null, "pageSize": 10, "ids": null, "endTime": null, "startTime": null}, {"cardNumFive": null, "isSupportYj": null, "cityName": null, "districtName": null, "shopinfo": {"mid": "888002154119944", "good_flag": null, "new_flag": null, "short_name": "\u519c\u5de5\u5546", "short_name_pinyin": "nonggongshang", "status": null, "address": null, "name": null, "id": "36508"}, "mid": "888002154119944", "shopId": "36508", "netid": null, "province": 901, "district": 601, "zipcode": null, "telephone": "66397080", "posDate": "20100901", "destineTel": null, "togoTel": null, "trafficWay": null, "signBuilding": null, "businessArea": null, "selfRoom": null, "businessTime": null, "stall": null, "consume": null, "serviceFei": null, "favourable": null, "shopMemo": null, "appraise": null, "website": null, "memo": null, "payTypes": "\u6749\u5fb7\u5361", "shopTypes": "\u8d85\u5e02", "consumeTypes": null, "cookTypes": null, "orderNum": 1000, "card4no": null, "card4noAcc": null, "district2": 416, "searchScope": null, "status": 1, "address": "\u884c\u77e5\u8def318\u53f7", "name": "\u519c\u5de5\u5546 \u5e73\u5229\u5e97", "id": 151891, "pageNo": 0, "pageCount": null, "pageSize": 10, "ids": null, "endTime": null, "startTime": null}, {"cardNumFive": null, "isSupportYj": null, "cityName": null, "districtName": null, "shopinfo": {"mid": "888002154119944", "good_flag": null, "new_flag": null, "short_name": "\u519c\u5de5\u5546", "short_name_pinyin": "nonggongshang", "status": null, "address": null, "name": null, "id": "36508"}, "mid": "888002154119944", "shopId": "36508", "netid": null, "province": 901, "district": 601, "zipcode": null, "telephone": "33761390", "posDate": "20100903", "destineTel": null, "togoTel": null, "trafficWay": null, "signBuilding": null, "businessArea": null, "selfRoom": null, "businessTime": null, "stall": null, "consume": null, "serviceFei": null, "favourable": null, "shopMemo": null, "appraise": null, "website": null, "memo": null, "payTypes": "\u6749\u5fb7\u5361", "shopTypes": "\u8d85\u5e02", "consumeTypes": null, "cookTypes": null, "orderNum": 1000, "card4no": null, "card4noAcc": null, "district2": 401, "searchScope": null, "status": 1, "address": "\u666e\u80b2\u4e1c\u8def227\u53f7", "name": "\u519c\u5de5\u5546 \u666e\u80b2\u5e97", "id": 151892, "pageNo": 0, "pageCount": null, "pageSize": 10, "ids": null, "endTime": null, "startTime": null}], "pageLimit": 7020, "size": 10}