{"pageCount": 1095, "count": 10942, "pageNo": 709, "subShopInfo": {"cardNumFive": "", "isSupportYj": "", "cityName": null, "districtName": null, "shopinfo": {"mid": null, "good_flag": null, "new_flag": null, "short_name": null, "short_name_pinyin": null, "status": null, "address": "", "name": "", "id": null}, "mid": null, "shopId": null, "netid": null, "province": 901, "district": null, "zipcode": null, "telephone": null, "posDate": null, "destineTel": null, "togoTel": null, "trafficWay": null, "signBuilding": null, "businessArea": null, "selfRoom": null, "businessTime": null, "stall": null, "consume": null, "serviceFei": null, "favourable": null, "shopMemo": "1", "appraise": null, "website": null, "memo": null, "payTypes": "", "shopTypes": "", "consumeTypes": null, "cookTypes": null, "orderNum": null, "card4no": null, "card4noAcc": null, "district2": null, "searchScope": null, "status": null, "address": "", "name": null, "id": null, "pageNo": 708, "pageCount": null, "pageSize": 10, "ids": null, "endTime": null, "startTime": null}, "list": [{"cardNumFive": null, "isSupportYj": null, "cityName": null, "districtName": null, "shopinfo": {"mid": "888002154119944", "good_flag": null, "new_flag": null, "short_name": "\u519c\u5de5\u5546", "short_name_pinyin": "nonggongshang", "status": null, "address": null, "name": null, "id": "32712"}, "mid": "888002154119944", "shopId": "32712", "netid": null, "province": 901, "district": 601, "zipcode": null, "telephone": null, "posDate": null, "destineTel": null, "togoTel": null, "trafficWay": null, "signBuilding": null, "businessArea": null, "selfRoom": null, "businessTime": null, "stall": null, "consume": null, "serviceFei": null, "favourable": null, "shopMemo": null, "appraise": null, "website": null, "memo": null, "payTypes": "\u6749\u5fb7\u5361", "shopTypes": "\u8d85\u5e02", "consumeTypes": null, "cookTypes": null, "orderNum": 1000, "card4no": null, "card4noAcc": null, "district2": 414, "searchScope": null, "status": 1, "address": "\u5317\u6cf0\u8def383-389\u53f71\u697c", "name": "\u519c\u5de5\u5546 \u7b2c239\u5206\u5e97", "id": 178646, "pageNo": 0, "pageCount": null, "pageSize": 10, "ids": null, "endTime": null, "startTime": null}, {"cardNumFive": null, "isSupportYj": null, "cityName": null, "districtName": null, "shopinfo": {"mid": "888002154119944", "good_flag": null, "new_flag": null, "short_name": "\u519c\u5de5\u5546", "short_name_pinyin": "nonggongshang", "status": null, "address": null, "name": null, "id": "32712"}, "mid": "888002154119944", "shopId": "32712", "netid": null, "province": 901, "district": 601, "zipcode": null, "telephone": null, "posDate": null, "destineTel": null, "togoTel": null, "trafficWay": null, "signBuilding": null, "businessArea": null, "selfRoom": null, "businessTime": null, "stall": null, "consume": null, "serviceFei": null, "favourable": null, "shopMemo": null, "appraise": null, "website": null, "memo": null, "payTypes": "\u6749\u5fb7\u5361", "shopTypes": "\u8d85\u5e02", "consumeTypes": null, "cookTypes": null, "orderNum": 1000, "card4no": null, "card4noAcc": null, "district2": 412, "searchScope": null, "status": 1, "address": "\u6587\u6db5\u8def1000\u53f7", "name": "\u519c\u5de5\u5546 \u7b2c242\u5206\u5e97", "id": 178647, "pageNo": 0, "pageCount": null, "pageSize": 10, "ids": null, "endTime": null, "startTime": null}, {"cardNumFive": null, "isSupportYj": null, "cityName": null, "districtName": null, "shopinfo": {"mid": "888002154119944", "good_flag": null, "new_flag": null, "short_name": "\u519c\u5de5\u5546", "short_name_pinyin": "nonggongshang", "status": null, "address": null, "name": null, "id": "32712"}, "mid": "888002154119944", "shopId": "32712", "netid": null, "province": 901, "district": 601, "zipcode": null, "telephone": "39282697", "posDate": null, "destineTel": null, "togoTel": null, "trafficWay": null, "signBuilding": null, "businessArea": null, "selfRoom": null, "businessTime": null, "stall": null, "consume": null, "serviceFei": null, "favourable": null, "shopMemo": null, "appraise": null, "website": null, "memo": null, "payTypes": "\u6749\u5fb7\u5361", "shopTypes": "\u8d85\u5e02", "consumeTypes": null, "cookTypes": null, "orderNum": 1000, "card4no": null, "card4noAcc": null, "district2": 417, "searchScope": null, "status": 1, "address": "\u534e\u79d1\u4e1c\u8def172\u53f71-2\u697c", "name": "\u519c\u5de5\u5546 \u7b2c261\u5206\u5e97", "id": 178648, "pageNo": 0, "pageCount": null, "pageSize": 10, "ids": null, "endTime": null, "startTime": null}, {"cardNumFive": null, "isSupportYj": null, "cityName": null, "districtName": null, "shopinfo": {"mid": "888002154119944", "good_flag": null, "new_flag": null, "short_name": "\u519c\u5de5\u5546", "short_name_pinyin": "nonggongshang", "status": null, "address": null, "name": null, "id": "32712"}, "mid": "888002154119944", "shopId": "32712", "netid": null, "province": 901, "district": 601, "zipcode": null, "telephone": "68903943", "posDate": null, "destineTel": null, "togoTel": null, "trafficWay": null, "signBuilding": null, "businessArea": null, "selfRoom": null, "businessTime": null, "stall": null, "consume": null, "serviceFei": null, "favourable": null, "shopMemo": null, "appraise": null, "website": null, "memo": null, "payTypes": "\u6749\u5fb7\u5361", "shopTypes": "\u8d85\u5e02", "consumeTypes": null, "cookTypes": null, "orderNum": 1000, "card4no": null, "card4noAcc": null, "district2": 418, "searchScope": null, "status": 1, "address": "\u4e1c\u5ddd\u516c\u8def7858\u53f7", "name": "\u519c\u5de5\u5546 \u8521\u8def\u5e97", "id": 178649, "pageNo": 0, "pageCount": null, "pageSize": 10, "ids": null, "endTime": null, "startTime": null}, {"cardNumFive": null, "isSupportYj": null, "cityName": null, "districtName": null, "shopinfo": {"mid": "888002154119944", "good_flag": null, "new_flag": null, "short_name": "\u519c\u5de5\u5546", "short_name_pinyin": "nonggongshang", "status": null, "address": null, "name": null, "id": "32712"}, "mid": "888002154119944", "shopId": "32712", "netid": null, "province": 901, "district": 601, "zipcode": null, "telephone": null, "posDate": null, "destineTel": null, "togoTel": null, "trafficWay": null, "signBuilding": null, "businessArea": null, "selfRoom": null, "businessTime": null, "stall": null, "consume": null, "serviceFei": null, "favourable": null, "shopMemo": null, "appraise": null, "website": null, "memo": null, "payTypes": "\u6749\u5fb7\u5361", "shopTypes": "\u8d85\u5e02", "consumeTypes": null, "cookTypes": null, "orderNum": 1000, "card4no": null, "card4noAcc": null, "district2": 406, "searchScope": null, "status": 1, "address": "\u8305\u53f0\u8def870-876\u53f71\u697c", "name": "\u519c\u5de5\u5546 \u7b2c52\u5206\u5e97", "id": 178650, "pageNo": 0, "pageCount": null, "pageSize": 10, "ids": null, "endTime": null, "startTime": null}, {"cardNumFive": null, "isSupportYj": null, "cityName": null, "districtName": null, "shopinfo": {"mid": "888002154119944", "good_flag": null, "new_flag": null, "short_name": "\u519c\u5de5\u5546", "short_name_pinyin": "nonggongshang", "status": null, "address": null, "name": null, "id": "32712"}, "mid": "888002154119944", "shopId": "32712", "netid": null, "province": 901, "district": 601, "zipcode": null, "telephone": null, "posDate": null, "destineTel": null, "togoTel": null, "trafficWay": null, "signBuilding": null, "businessArea": null, "selfRoom": null, "businessTime": null, "stall": null, "consume": null, "serviceFei": null, "favourable": null, "shopMemo": null, "appraise": null, "website": null, "memo": null, "payTypes": "\u6749\u5fb7\u5361", "shopTypes": "\u8d85\u5e02", "consumeTypes": null, "cookTypes": null, "orderNum": 1000, "card4no": null, "card4noAcc": null, "district2": 407, "searchScope": null, "status": 1, "address": "\u6cb3\u95f4\u8def830\u53f7", "name": "\u519c\u5de5\u5546 \u7b2c306\u5206\u5e97", "id": 178651, "pageNo": 0, "pageCount": null, "pageSize": 10, "ids": null, "endTime": null, "startTime": null}, {"cardNumFive": null, "isSupportYj": null, "cityName": null, "districtName": null, "shopinfo": {"mid": "888002154119944", "good_flag": null, "new_flag": null, "short_name": "\u519c\u5de5\u5546", "short_name_pinyin": "nonggongshang", "status": null, "address": null, "name": null, "id": "32712"}, "mid": "888002154119944", "shopId": "32712", "netid": null, "province": 901, "district": 601, "zipcode": null, "telephone": "62460089", "posDate": null, "destineTel": null, "togoTel": null, "trafficWay": null, "signBuilding": null, "businessArea": null, "selfRoom": null, "businessTime": null, "stall": null, "consume": null, "serviceFei": null, "favourable": null, "shopMemo": null, "appraise": null, "website": null, "memo": null, "payTypes": "\u6749\u5fb7\u5361", "shopTypes": "\u8d85\u5e02", "consumeTypes": null, "cookTypes": null, "orderNum": 1000, "card4no": null, "card4noAcc": null, "district2": 404, "searchScope": null, "status": 1, "address": "\u6b66\u5b9a\u8def1123-1127\u53f7", "name": "\u519c\u5de5\u5546 \u4e09\u548c\u5e97", "id": 178652, "pageNo": 0, "pageCount": null, "pageSize": 10, "ids": null, "endTime": null, "startTime": null}, {"cardNumFive": null, "isSupportYj": null, "cityName": null, "districtName": null, "shopinfo": {"mid": "888002154119944", "good_flag": null, "new_flag": null, "short_name": "\u519c\u5de5\u5546", "short_name_pinyin": "nonggongshang", "status": null, "address": null, "name": null, "id": "32712"}, "mid": "888002154119944", "shopId": "32712", "netid": null, "province": 901, "district": 601, "zipcode": null, "telephone": null, "posDate": null, "destineTel": null, "togoTel": null, "trafficWay": null, "signBuilding": null, "businessArea": null, "selfRoom": null, "businessTime": null, "stall": null, "consume": null, "serviceFei": null, "favourable": null, "shopMemo": null, "appraise": null, "website": null, "memo": null, "payTypes": "\u6749\u5fb7\u5361", "shopTypes": "\u8d85\u5e02", "consumeTypes": null, "cookTypes": null, "orderNum": 1000, "card4no": null, "card4noAcc": null, "district2": 403, "searchScope": null, "status": 1, "address": "\u4e2d\u5c71\u897f\u8def2368\u53f7", "name": "\u519c\u5de5\u5546 \u7b2c300\u5206\u5e97", "id": 178653, "pageNo": 0, "pageCount": null, "pageSize": 10, "ids": null, "endTime": null, "startTime": null}, {"cardNumFive": null, "isSupportYj": null, "cityName": null, "districtName": null, "shopinfo": {"mid": "888002142150014", "good_flag": null, "new_flag": null, "short_name": "\u519c\u5de5\u5546", "short_name_pinyin": "nonggongshang", "status": null, "address": null, "name": null, "id": "42360"}, "mid": "888002142150014", "shopId": "42360", "netid": null, "province": 901, "district": 601, "zipcode": null, "telephone": null, "posDate": null, "destineTel": null, "togoTel": null, "trafficWay": null, "signBuilding": null, "businessArea": null, "selfRoom": null, "businessTime": null, "stall": null, "consume": null, "serviceFei": null, "favourable": null, "shopMemo": null, "appraise": null, "website": null, "memo": null, "payTypes": "\u6749\u5fb7\u5361", "shopTypes": "\u9910\u996e", "consumeTypes": null, "cookTypes": null, "orderNum": 1000, "card4no": null, "card4noAcc": null, "district2": 418, "searchScope": null, "status": 1, "address": "\u4e1c\u9ad8\u8def16-20\u53f7", "name": "\u519c\u5de5\u5546 \u4e1c\u9ad8\u8def\u5e97", "id": 188933, "pageNo": 0, "pageCount": null, "pageSize": 10, "ids": null, "endTime": null, "startTime": null}, {"cardNumFive": null, "isSupportYj": null, "cityName": null, "districtName": null, "shopinfo": {"mid": "888002154119944", "good_flag": null, "new_flag": null, "short_name": "\u519c\u5de5\u5546", "short_name_pinyin": "nonggongshang", "status": null, "address": null, "name": null, "id": "32712"}, "mid": "888002154119944", "shopId": "32712", "netid": null, "province": 901, "district": 601, "zipcode": null, "telephone": null, "posDate": null, "destineTel": null, "togoTel": null, "trafficWay": null, "signBuilding": null, "businessArea": null, "selfRoom": null, "businessTime": null, "stall": null, "consume": null, "serviceFei": null, "favourable": null, "shopMemo": null, "appraise": null, "website": null, "memo": null, "payTypes": "\u6749\u5fb7\u5361", "shopTypes": "\u4fbf\u5229\u5e97", "consumeTypes": null, "cookTypes": null, "orderNum": 1000, "card4no": null, "card4noAcc": null, "district2": 411, "searchScope": null, "status": 1, "address": "\u7231\u7279\u8def158\u53f7", "name": "\u519c\u5de5\u5546 \u7b2c274\u5206\u5e97", "id": 188956, "pageNo": 0, "pageCount": null, "pageSize": 10, "ids": null, "endTime": null, "startTime": null}], "pageLimit": 7080, "size": 10}