{"pageCount": 1095, "count": 10942, "pageNo": 718, "subShopInfo": {"cardNumFive": "", "isSupportYj": "", "cityName": null, "districtName": null, "shopinfo": {"mid": null, "good_flag": null, "new_flag": null, "short_name": null, "short_name_pinyin": null, "status": null, "address": "", "name": "", "id": null}, "mid": null, "shopId": null, "netid": null, "province": 901, "district": null, "zipcode": null, "telephone": null, "posDate": null, "destineTel": null, "togoTel": null, "trafficWay": null, "signBuilding": null, "businessArea": null, "selfRoom": null, "businessTime": null, "stall": null, "consume": null, "serviceFei": null, "favourable": null, "shopMemo": "1", "appraise": null, "website": null, "memo": null, "payTypes": "", "shopTypes": "", "consumeTypes": null, "cookTypes": null, "orderNum": null, "card4no": null, "card4noAcc": null, "district2": null, "searchScope": null, "status": null, "address": "", "name": null, "id": null, "pageNo": 717, "pageCount": null, "pageSize": 10, "ids": null, "endTime": null, "startTime": null}, "list": [{"cardNumFive": null, "isSupportYj": null, "cityName": null, "districtName": null, "shopinfo": {"mid": "888002154411179", "good_flag": null, "new_flag": null, "short_name": "\u6b27\u5473\u591a", "short_name_pinyin": "ouweiduo", "status": null, "address": null, "name": null, "id": "36213"}, "mid": "888002154411179", "shopId": "36213", "netid": null, "province": 901, "district": 601, "zipcode": null, "telephone": null, "posDate": "20100809", "destineTel": null, "togoTel": null, "trafficWay": null, "signBuilding": null, "businessArea": null, "selfRoom": null, "businessTime": null, "stall": null, "consume": null, "serviceFei": null, "favourable": null, "shopMemo": null, "appraise": null, "website": null, "memo": null, "payTypes": "\u6749\u5fb7\u5361", "shopTypes": "\u96f6\u552e", "consumeTypes": null, "cookTypes": null, "orderNum": 1000, "card4no": null, "card4noAcc": null, "district2": 405, "searchScope": null, "status": 1, "address": "\u666e\u9640\u533a\u771f\u5317\u8def\u66f9\u6d66\u8def\u5bb6\u4e50\u798f\u4e09\u697c", "name": "\u6b27\u5473\u591a \u771f\u5317\u5bb6\u4e50\u798f\u5e97", "id": 150893, "pageNo": 0, "pageCount": null, "pageSize": 10, "ids": null, "endTime": null, "startTime": null}, {"cardNumFive": null, "isSupportYj": null, "cityName": null, "districtName": null, "shopinfo": {"mid": "888002154411179", "good_flag": null, "new_flag": null, "short_name": "\u6b27\u5473\u591a", "short_name_pinyin": "ouweiduo", "status": null, "address": null, "name": null, "id": "36213"}, "mid": "888002154411179", "shopId": "36213", "netid": null, "province": 901, "district": 601, "zipcode": null, "telephone": null, "posDate": "20100809", "destineTel": null, "togoTel": null, "trafficWay": null, "signBuilding": null, "businessArea": null, "selfRoom": null, "businessTime": null, "stall": null, "consume": null, "serviceFei": null, "favourable": null, "shopMemo": null, "appraise": null, "website": null, "memo": null, "payTypes": "\u6749\u5fb7\u5361", "shopTypes": "\u96f6\u552e", "consumeTypes": null, "cookTypes": null, "orderNum": 1000, "card4no": null, "card4noAcc": null, "district2": 405, "searchScope": null, "status": 1, "address": "\u666e\u9640\u533a\u94dc\u5ddd\u8def1688\u53f7\u4e50\u8d2d\u4e24\u697c", "name": "\u6b27\u5473\u591a \u771f\u5317\u4e50\u8d2d\u5e97", "id": 150894, "pageNo": 0, "pageCount": null, "pageSize": 10, "ids": null, "endTime": null, "startTime": null}, {"cardNumFive": null, "isSupportYj": null, "cityName": null, "districtName": null, "shopinfo": {"mid": "888002154411179", "good_flag": null, "new_flag": null, "short_name": "\u6b27\u5473\u591a", "short_name_pinyin": "ouweiduo", "status": null, "address": null, "name": null, "id": "36213"}, "mid": "888002154411179", "shopId": "36213", "netid": null, "province": 901, "district": 601, "zipcode": null, "telephone": null, "posDate": "20100805", "destineTel": null, "togoTel": null, "trafficWay": null, "signBuilding": null, "businessArea": null, "selfRoom": null, "businessTime": null, "stall": null, "consume": null, "serviceFei": null, "favourable": null, "shopMemo": null, "appraise": null, "website": null, "memo": null, "payTypes": "\u6749\u5fb7\u5361", "shopTypes": "\u96f6\u552e", "consumeTypes": null, "cookTypes": null, "orderNum": 1000, "card4no": null, "card4noAcc": null, "district2": 407, "searchScope": null, "status": 1, "address": "\u6768\u6d66\u533a\u4e2d\u539f\u8def102\u53f7\u4e00\u697c", "name": "\u6b27\u5473\u591a \u4e2d\u539f\u6b27\u5c1a\u5e97", "id": 150895, "pageNo": 0, "pageCount": null, "pageSize": 10, "ids": null, "endTime": null, "startTime": null}, {"cardNumFive": null, "isSupportYj": null, "cityName": null, "districtName": null, "shopinfo": {"mid": "888002154411179", "good_flag": null, "new_flag": null, "short_name": "\u6b27\u5473\u591a", "short_name_pinyin": "ouweiduo", "status": null, "address": null, "name": null, "id": "36213"}, "mid": "888002154411179", "shopId": "36213", "netid": null, "province": 901, "district": 601, "zipcode": null, "telephone": null, "posDate": "20100811", "destineTel": null, "togoTel": null, "trafficWay": null, "signBuilding": null, "businessArea": null, "selfRoom": null, "businessTime": null, "stall": null, "consume": null, "serviceFei": null, "favourable": null, "shopMemo": null, "appraise": null, "website": null, "memo": null, "payTypes": "\u6749\u5fb7\u5361", "shopTypes": "\u96f6\u552e", "consumeTypes": null, "cookTypes": null, "orderNum": 1000, "card4no": null, "card4noAcc": null, "district2": 416, "searchScope": null, "status": 1, "address": "\u5b9d\u5c71\u533a\u6d77\u6c5f\u8def426\u53f7\u4e00\u697c", "name": "\u6b27\u5473\u591a \u5b9d\u5c71\u4e16\u7eaa\u8054\u534e\u5e97", "id": 150908, "pageNo": 0, "pageCount": null, "pageSize": 10, "ids": null, "endTime": null, "startTime": null}, {"cardNumFive": null, "isSupportYj": null, "cityName": null, "districtName": null, "shopinfo": {"mid": "888002154411179", "good_flag": null, "new_flag": null, "short_name": "\u6b27\u5473\u591a", "short_name_pinyin": "ouweiduo", "status": null, "address": null, "name": null, "id": "36213"}, "mid": "888002154411179", "shopId": "36213", "netid": null, "province": 901, "district": 601, "zipcode": null, "telephone": null, "posDate": "20100813", "destineTel": null, "togoTel": null, "trafficWay": null, "signBuilding": null, "businessArea": null, "selfRoom": null, "businessTime": null, "stall": null, "consume": null, "serviceFei": null, "favourable": null, "shopMemo": null, "appraise": null, "website": null, "memo": null, "payTypes": "\u6749\u5fb7\u5361", "shopTypes": "\u96f6\u552e", "consumeTypes": null, "cookTypes": null, "orderNum": 1000, "card4no": null, "card4noAcc": null, "district2": 403, "searchScope": null, "status": 1, "address": "\u5f90\u6c47\u533a\u8239\u5382\u8def178\u53f7\u4e00\u697c", "name": "\u6b27\u5473\u591a \u8239\u5382\u6613\u521d\u5e97", "id": 150909, "pageNo": 0, "pageCount": null, "pageSize": 10, "ids": null, "endTime": null, "startTime": null}, {"cardNumFive": null, "isSupportYj": null, "cityName": null, "districtName": null, "shopinfo": {"mid": "888002154411179", "good_flag": null, "new_flag": null, "short_name": "\u6b27\u5473\u591a", "short_name_pinyin": "ouweiduo", "status": null, "address": null, "name": null, "id": "36213"}, "mid": "888002154411179", "shopId": "36213", "netid": null, "province": 901, "district": 601, "zipcode": null, "telephone": null, "posDate": "20100812", "destineTel": null, "togoTel": null, "trafficWay": null, "signBuilding": null, "businessArea": null, "selfRoom": null, "businessTime": null, "stall": null, "consume": null, "serviceFei": null, "favourable": null, "shopMemo": null, "appraise": null, "website": null, "memo": null, "payTypes": "\u6749\u5fb7\u5361", "shopTypes": "\u96f6\u552e", "consumeTypes": null, "cookTypes": null, "orderNum": 1000, "card4no": null, "card4noAcc": null, "district2": 409, "searchScope": null, "status": 1, "address": "\u95f5\u884c\u533a\u6625\u7533\u8def2801\u53f7 \u4e24\u697c", "name": "\u6b27\u5473\u591a \u6625\u7533\u5927\u6da6\u53d1\u5e97", "id": 150910, "pageNo": 0, "pageCount": null, "pageSize": 10, "ids": null, "endTime": null, "startTime": null}, {"cardNumFive": null, "isSupportYj": null, "cityName": null, "districtName": null, "shopinfo": {"mid": "888002154411179", "good_flag": null, "new_flag": null, "short_name": "\u6b27\u5473\u591a", "short_name_pinyin": "ouweiduo", "status": null, "address": null, "name": null, "id": "36213"}, "mid": "888002154411179", "shopId": "36213", "netid": null, "province": 901, "district": 601, "zipcode": null, "telephone": null, "posDate": "20100813", "destineTel": null, "togoTel": null, "trafficWay": null, "signBuilding": null, "businessArea": null, "selfRoom": null, "businessTime": null, "stall": null, "consume": null, "serviceFei": null, "favourable": null, "shopMemo": null, "appraise": null, "website": null, "memo": null, "payTypes": "\u6749\u5fb7\u5361", "shopTypes": "\u96f6\u552e", "consumeTypes": null, "cookTypes": null, "orderNum": 1000, "card4no": null, "card4noAcc": null, "district2": 413, "searchScope": null, "status": 1, "address": "\u5949\u8d24\u533a\u73af\u57ce\u4e1c\u8def1468\u53f7\u4e00\u697c", "name": "\u6b27\u5473\u591a \u5949\u8d24\u4e50\u8d2d\u5e97", "id": 150911, "pageNo": 0, "pageCount": null, "pageSize": 10, "ids": null, "endTime": null, "startTime": null}, {"cardNumFive": null, "isSupportYj": null, "cityName": null, "districtName": null, "shopinfo": {"mid": "888002154411179", "good_flag": null, "new_flag": null, "short_name": "\u6b27\u5473\u591a", "short_name_pinyin": "ouweiduo", "status": null, "address": null, "name": null, "id": "36213"}, "mid": "888002154411179", "shopId": "36213", "netid": null, "province": 901, "district": 601, "zipcode": null, "telephone": null, "posDate": "20100811", "destineTel": null, "togoTel": null, "trafficWay": null, "signBuilding": null, "businessArea": null, "selfRoom": null, "businessTime": null, "stall": null, "consume": null, "serviceFei": null, "favourable": null, "shopMemo": null, "appraise": null, "website": null, "memo": null, "payTypes": "\u6749\u5fb7\u5361", "shopTypes": "\u96f6\u552e", "consumeTypes": null, "cookTypes": null, "orderNum": 1000, "card4no": null, "card4noAcc": null, "district2": 409, "searchScope": null, "status": 1, "address": "\u95f5\u884c\u533a\u6c34\u6e05\u5357\u8def1500\u53f7 \u4e00\u697c", "name": "\u6b27\u5473\u591a \u6e2f\u6fb3\u5927\u6da6\u53d1\u5e97", "id": 150912, "pageNo": 0, "pageCount": null, "pageSize": 10, "ids": null, "endTime": null, "startTime": null}, {"cardNumFive": null, "isSupportYj": null, "cityName": null, "districtName": null, "shopinfo": {"mid": "888002154411179", "good_flag": null, "new_flag": null, "short_name": "\u6b27\u5473\u591a", "short_name_pinyin": "ouweiduo", "status": null, "address": null, "name": null, "id": "36213"}, "mid": "888002154411179", "shopId": "36213", "netid": null, "province": 901, "district": 601, "zipcode": null, "telephone": null, "posDate": "20100813", "destineTel": null, "togoTel": null, "trafficWay": null, "signBuilding": null, "businessArea": null, "selfRoom": null, "businessTime": null, "stall": null, "consume": null, "serviceFei": null, "favourable": null, "shopMemo": null, "appraise": null, "website": null, "memo": null, "payTypes": "\u6749\u5fb7\u5361", "shopTypes": "\u96f6\u552e", "consumeTypes": null, "cookTypes": null, "orderNum": 1000, "card4no": null, "card4noAcc": null, "district2": 418, "searchScope": null, "status": 1, "address": "\u5357\u95e8\u5927\u885718\u53f7\u4e24\u697c", "name": "\u6b27\u5473\u591a \u5357\u6c47\u4e50\u8d2d\u5e97", "id": 150916, "pageNo": 0, "pageCount": null, "pageSize": 10, "ids": null, "endTime": null, "startTime": null}, {"cardNumFive": null, "isSupportYj": null, "cityName": null, "districtName": null, "shopinfo": {"mid": "888002154411179", "good_flag": null, "new_flag": null, "short_name": "\u6b27\u5473\u591a", "short_name_pinyin": "ouweiduo", "status": null, "address": null, "name": null, "id": "36213"}, "mid": "888002154411179", "shopId": "36213", "netid": null, "province": 901, "district": 601, "zipcode": null, "telephone": null, "posDate": "20100811", "destineTel": null, "togoTel": null, "trafficWay": null, "signBuilding": null, "businessArea": null, "selfRoom": null, "businessTime": null, "stall": null, "consume": null, "serviceFei": null, "favourable": null, "shopMemo": null, "appraise": null, "website": null, "memo": null, "payTypes": "\u6749\u5fb7\u5361", "shopTypes": "\u96f6\u552e", "consumeTypes": null, "cookTypes": null, "orderNum": 1000, "card4no": null, "card4noAcc": null, "district2": 416, "searchScope": null, "status": 1, "address": "\u5b9d\u5c71\u533a\u6c34\u4ea7\u8def1234\u53f7\u4e00\u697c", "name": "\u6b27\u5473\u591a \u6c34\u4ea7\u4e16\u7eaa\u8054\u534e\u5e97", "id": 150918, "pageNo": 0, "pageCount": null, "pageSize": 10, "ids": null, "endTime": null, "startTime": null}], "pageLimit": 7170, "size": 10}