{"pageCount": 1095, "count": 10942, "pageNo": 716, "subShopInfo": {"cardNumFive": "", "isSupportYj": "", "cityName": null, "districtName": null, "shopinfo": {"mid": null, "good_flag": null, "new_flag": null, "short_name": null, "short_name_pinyin": null, "status": null, "address": "", "name": "", "id": null}, "mid": null, "shopId": null, "netid": null, "province": 901, "district": null, "zipcode": null, "telephone": null, "posDate": null, "destineTel": null, "togoTel": null, "trafficWay": null, "signBuilding": null, "businessArea": null, "selfRoom": null, "businessTime": null, "stall": null, "consume": null, "serviceFei": null, "favourable": null, "shopMemo": "1", "appraise": null, "website": null, "memo": null, "payTypes": "", "shopTypes": "", "consumeTypes": null, "cookTypes": null, "orderNum": null, "card4no": null, "card4noAcc": null, "district2": null, "searchScope": null, "status": null, "address": "", "name": null, "id": null, "pageNo": 715, "pageCount": null, "pageSize": 10, "ids": null, "endTime": null, "startTime": null}, "list": [{"cardNumFive": null, "isSupportYj": null, "cityName": null, "districtName": null, "shopinfo": {"mid": "888002154411179", "good_flag": null, "new_flag": null, "short_name": "\u6b27\u5473\u591a", "short_name_pinyin": "ouweiduo", "status": null, "address": null, "name": null, "id": "36213"}, "mid": "888002154411179", "shopId": "36213", "netid": null, "province": 901, "district": 601, "zipcode": null, "telephone": null, "posDate": "20100804", "destineTel": null, "togoTel": null, "trafficWay": null, "signBuilding": null, "businessArea": null, "selfRoom": null, "businessTime": null, "stall": null, "consume": null, "serviceFei": null, "favourable": null, "shopMemo": null, "appraise": null, "website": null, "memo": null, "payTypes": "\u6749\u5fb7\u5361", "shopTypes": "\u96f6\u552e", "consumeTypes": null, "cookTypes": null, "orderNum": 1000, "card4no": null, "card4noAcc": null, "district2": 418, "searchScope": null, "status": 1, "address": "\u6d66\u4e1c\u65b0\u533a\u5999\u5883\u8def1118\u4e00\u697c", "name": "\u6b27\u5473\u591a \u5ddd\u6c99\u5bb6\u4e50\u798f\u5e97", "id": 150870, "pageNo": 0, "pageCount": null, "pageSize": 10, "ids": null, "endTime": null, "startTime": null}, {"cardNumFive": null, "isSupportYj": null, "cityName": null, "districtName": null, "shopinfo": {"mid": "888002154411179", "good_flag": null, "new_flag": null, "short_name": "\u6b27\u5473\u591a", "short_name_pinyin": "ouweiduo", "status": null, "address": null, "name": null, "id": "36213"}, "mid": "888002154411179", "shopId": "36213", "netid": null, "province": 901, "district": 601, "zipcode": null, "telephone": null, "posDate": "20100810", "destineTel": null, "togoTel": null, "trafficWay": null, "signBuilding": null, "businessArea": null, "selfRoom": null, "businessTime": null, "stall": null, "consume": null, "serviceFei": null, "favourable": null, "shopMemo": null, "appraise": null, "website": null, "memo": null, "payTypes": "\u6749\u5fb7\u5361", "shopTypes": "\u96f6\u552e", "consumeTypes": null, "cookTypes": null, "orderNum": 1000, "card4no": null, "card4noAcc": null, "district2": 416, "searchScope": null, "status": 1, "address": "\u5b9d\u5c71\u533a\u5927\u534e\u8def518\u5f04E5\u67dc\u53f0\u4e24\u697c", "name": "\u6b27\u5473\u591a \u5927\u534e\u4e50\u8d2d\u5e97", "id": 150871, "pageNo": 0, "pageCount": null, "pageSize": 10, "ids": null, "endTime": null, "startTime": null}, {"cardNumFive": null, "isSupportYj": null, "cityName": null, "districtName": null, "shopinfo": {"mid": "888002154411179", "good_flag": null, "new_flag": null, "short_name": "\u6b27\u5473\u591a", "short_name_pinyin": "ouweiduo", "status": null, "address": null, "name": null, "id": "36213"}, "mid": "888002154411179", "shopId": "36213", "netid": null, "province": 901, "district": 601, "zipcode": null, "telephone": null, "posDate": "20100809", "destineTel": null, "togoTel": null, "trafficWay": null, "signBuilding": null, "businessArea": null, "selfRoom": null, "businessTime": null, "stall": null, "consume": null, "serviceFei": null, "favourable": null, "shopMemo": null, "appraise": null, "website": null, "memo": null, "payTypes": "\u6749\u5fb7\u5361", "shopTypes": "\u96f6\u552e", "consumeTypes": null, "cookTypes": null, "orderNum": 1000, "card4no": null, "card4noAcc": null, "district2": 405, "searchScope": null, "status": 1, "address": "\u666e\u9640\u533a\u4e2d\u5c71\u5317\u8def1855\u53f7 G02 \u67dc\u53f0\u4e00\u697c", "name": "\u6b27\u5473\u591a \u5149\u65b0\u4e50\u8d2d\u5e97", "id": 150872, "pageNo": 0, "pageCount": null, "pageSize": 10, "ids": null, "endTime": null, "startTime": null}, {"cardNumFive": null, "isSupportYj": null, "cityName": null, "districtName": null, "shopinfo": {"mid": "888002154411179", "good_flag": null, "new_flag": null, "short_name": "\u6b27\u5473\u591a", "short_name_pinyin": "ouweiduo", "status": null, "address": null, "name": null, "id": "36213"}, "mid": "888002154411179", "shopId": "36213", "netid": null, "province": 901, "district": 601, "zipcode": null, "telephone": null, "posDate": "20100806", "destineTel": null, "togoTel": null, "trafficWay": null, "signBuilding": null, "businessArea": null, "selfRoom": null, "businessTime": null, "stall": null, "consume": null, "serviceFei": null, "favourable": null, "shopMemo": null, "appraise": null, "website": null, "memo": null, "payTypes": "\u6749\u5fb7\u5361", "shopTypes": "\u96f6\u552e", "consumeTypes": null, "cookTypes": null, "orderNum": 1000, "card4no": null, "card4noAcc": null, "district2": 411, "searchScope": null, "status": 1, "address": "\u5609\u5b9a\u533a\u57ce\u4e2d\u8def2\u53f7\u4e24\u697c", "name": "\u6b27\u5473\u591a \u5609\u5b9a\u4e50\u8d2d\u5e97", "id": 150873, "pageNo": 0, "pageCount": null, "pageSize": 10, "ids": null, "endTime": null, "startTime": null}, {"cardNumFive": null, "isSupportYj": null, "cityName": null, "districtName": null, "shopinfo": {"mid": "888002154411179", "good_flag": null, "new_flag": null, "short_name": "\u6b27\u5473\u591a", "short_name_pinyin": "ouweiduo", "status": null, "address": null, "name": null, "id": "36213"}, "mid": "888002154411179", "shopId": "36213", "netid": null, "province": 901, "district": 601, "zipcode": null, "telephone": null, "posDate": "20100806", "destineTel": null, "togoTel": null, "trafficWay": null, "signBuilding": null, "businessArea": null, "selfRoom": null, "businessTime": null, "stall": null, "consume": null, "serviceFei": null, "favourable": null, "shopMemo": null, "appraise": null, "website": null, "memo": null, "payTypes": "\u6749\u5fb7\u5361", "shopTypes": "\u96f6\u552e", "consumeTypes": null, "cookTypes": null, "orderNum": 1000, "card4no": null, "card4noAcc": null, "district2": 411, "searchScope": null, "status": 1, "address": "\u5609\u5b9a\u533a\u535a\u4e50\u8def99\u53f7\u8d85\u7ea7\u5e02\u573a\u4e00\u697cC3\u53f7", "name": "\u6b27\u5473\u591a \u5609\u5b9a\u6b27\u5c1a\u5e97", "id": 150874, "pageNo": 0, "pageCount": null, "pageSize": 10, "ids": null, "endTime": null, "startTime": null}, {"cardNumFive": null, "isSupportYj": null, "cityName": null, "districtName": null, "shopinfo": {"mid": "888002154411179", "good_flag": null, "new_flag": null, "short_name": "\u6b27\u5473\u591a", "short_name_pinyin": "ouweiduo", "status": null, "address": null, "name": null, "id": "36213"}, "mid": "888002154411179", "shopId": "36213", "netid": null, "province": 901, "district": 601, "zipcode": null, "telephone": null, "posDate": "20100804", "destineTel": null, "togoTel": null, "trafficWay": null, "signBuilding": null, "businessArea": null, "selfRoom": null, "businessTime": null, "stall": null, "consume": null, "serviceFei": null, "favourable": null, "shopMemo": null, "appraise": null, "website": null, "memo": null, "payTypes": "\u6749\u5fb7\u5361", "shopTypes": "\u96f6\u552e", "consumeTypes": null, "cookTypes": null, "orderNum": 1000, "card4no": null, "card4noAcc": null, "district2": 418, "searchScope": null, "status": 1, "address": "\u6d66\u4e1c\u65b0\u533a\u5de8\u5cf0\u8def239\u53f7\u4e00\u697c", "name": "\u6b27\u5473\u591a \u5de8\u5cf0\u5bb6\u4e50\u798f\u5e97", "id": 150875, "pageNo": 0, "pageCount": null, "pageSize": 10, "ids": null, "endTime": null, "startTime": null}, {"cardNumFive": null, "isSupportYj": null, "cityName": null, "districtName": null, "shopinfo": {"mid": "888002154411179", "good_flag": null, "new_flag": null, "short_name": "\u6b27\u5473\u591a", "short_name_pinyin": "ouweiduo", "status": null, "address": null, "name": null, "id": "36213"}, "mid": "888002154411179", "shopId": "36213", "netid": null, "province": 901, "district": 601, "zipcode": null, "telephone": null, "posDate": "20100804", "destineTel": null, "togoTel": null, "trafficWay": null, "signBuilding": null, "businessArea": null, "selfRoom": null, "businessTime": null, "stall": null, "consume": null, "serviceFei": null, "favourable": null, "shopMemo": null, "appraise": null, "website": null, "memo": null, "payTypes": "\u6749\u5fb7\u5361", "shopTypes": "\u96f6\u552e", "consumeTypes": null, "cookTypes": null, "orderNum": 1000, "card4no": null, "card4noAcc": null, "district2": null, "searchScope": null, "status": 1, "address": "\u5357\u6c47\u533a\u5eb7\u6865\u9547\u79c0\u6cbf\u8def 1132\u53f7\u4e00\u697c", "name": "\u6b27\u5473\u591a \u5eb7\u6865\u5927\u6da6\u53d1\u5e97", "id": 150876, "pageNo": 0, "pageCount": null, "pageSize": 10, "ids": null, "endTime": null, "startTime": null}, {"cardNumFive": null, "isSupportYj": null, "cityName": null, "districtName": null, "shopinfo": {"mid": "888002154411179", "good_flag": null, "new_flag": null, "short_name": "\u6b27\u5473\u591a", "short_name_pinyin": "ouweiduo", "status": null, "address": null, "name": null, "id": "36213"}, "mid": "888002154411179", "shopId": "36213", "netid": null, "province": 901, "district": 601, "zipcode": null, "telephone": null, "posDate": "20100805", "destineTel": null, "togoTel": null, "trafficWay": null, "signBuilding": null, "businessArea": null, "selfRoom": null, "businessTime": null, "stall": null, "consume": null, "serviceFei": null, "favourable": null, "shopMemo": null, "appraise": null, "website": null, "memo": null, "payTypes": "\u6749\u5fb7\u5361", "shopTypes": "\u96f6\u552e", "consumeTypes": null, "cookTypes": null, "orderNum": 1000, "card4no": null, "card4noAcc": null, "district2": 408, "searchScope": null, "status": 1, "address": "\u8679\u53e3\u533a\u8f66\u7ad9\u5357\u8def340\u53f7", "name": "\u6b27\u5473\u591a \u51c9\u57ce\u4e16\u7eaa\u8054\u534e\u5e97", "id": 150877, "pageNo": 0, "pageCount": null, "pageSize": 10, "ids": null, "endTime": null, "startTime": null}, {"cardNumFive": null, "isSupportYj": null, "cityName": null, "districtName": null, "shopinfo": {"mid": "888002154411179", "good_flag": null, "new_flag": null, "short_name": "\u6b27\u5473\u591a", "short_name_pinyin": "ouweiduo", "status": null, "address": null, "name": null, "id": "36213"}, "mid": "888002154411179", "shopId": "36213", "netid": null, "province": 901, "district": 601, "zipcode": null, "telephone": null, "posDate": "20100805", "destineTel": null, "togoTel": null, "trafficWay": null, "signBuilding": null, "businessArea": null, "selfRoom": null, "businessTime": null, "stall": null, "consume": null, "serviceFei": null, "favourable": null, "shopMemo": null, "appraise": null, "website": null, "memo": null, "payTypes": "\u6749\u5fb7\u5361", "shopTypes": "\u96f6\u552e", "consumeTypes": null, "cookTypes": null, "orderNum": 1000, "card4no": null, "card4noAcc": null, "district2": 401, "searchScope": null, "status": 1, "address": "\u9ec4\u6d66\u533a\u9646\u5bb6\u6d5c\u8def436\u53f7\u4e00\u697c", "name": "\u6b27\u5473\u591a \u6d66\u6c5f\u597d\u53c8\u591a\u5e97", "id": 150879, "pageNo": 0, "pageCount": null, "pageSize": 10, "ids": null, "endTime": null, "startTime": null}, {"cardNumFive": null, "isSupportYj": null, "cityName": null, "districtName": null, "shopinfo": {"mid": "888002154411179", "good_flag": null, "new_flag": null, "short_name": "\u6b27\u5473\u591a", "short_name_pinyin": "ouweiduo", "status": null, "address": null, "name": null, "id": "36213"}, "mid": "888002154411179", "shopId": "36213", "netid": null, "province": 901, "district": 601, "zipcode": null, "telephone": null, "posDate": "20100809", "destineTel": null, "togoTel": null, "trafficWay": null, "signBuilding": null, "businessArea": null, "selfRoom": null, "businessTime": null, "stall": null, "consume": null, "serviceFei": null, "favourable": null, "shopMemo": null, "appraise": null, "website": null, "memo": null, "payTypes": "\u6749\u5fb7\u5361", "shopTypes": "\u96f6\u552e", "consumeTypes": null, "cookTypes": null, "orderNum": 1000, "card4no": null, "card4noAcc": null, "district2": 417, "searchScope": null, "status": 1, "address": "\u9752\u6d66\u533a\u76c8\u6d66\u8857\u9053\u76c8\u6e2f\u8def555\u53f7\u4e00\u697c", "name": "\u6b27\u5473\u591a \u9752\u6d66\u4e16\u7eaa\u8054\u534e\u5e97", "id": 150880, "pageNo": 0, "pageCount": null, "pageSize": 10, "ids": null, "endTime": null, "startTime": null}], "pageLimit": 7150, "size": 10}