{"pageCount": 1095, "count": 10942, "pageNo": 719, "subShopInfo": {"cardNumFive": "", "isSupportYj": "", "cityName": null, "districtName": null, "shopinfo": {"mid": null, "good_flag": null, "new_flag": null, "short_name": null, "short_name_pinyin": null, "status": null, "address": "", "name": "", "id": null}, "mid": null, "shopId": null, "netid": null, "province": 901, "district": null, "zipcode": null, "telephone": null, "posDate": null, "destineTel": null, "togoTel": null, "trafficWay": null, "signBuilding": null, "businessArea": null, "selfRoom": null, "businessTime": null, "stall": null, "consume": null, "serviceFei": null, "favourable": null, "shopMemo": "1", "appraise": null, "website": null, "memo": null, "payTypes": "", "shopTypes": "", "consumeTypes": null, "cookTypes": null, "orderNum": null, "card4no": null, "card4noAcc": null, "district2": null, "searchScope": null, "status": null, "address": "", "name": null, "id": null, "pageNo": 718, "pageCount": null, "pageSize": 10, "ids": null, "endTime": null, "startTime": null}, "list": [{"cardNumFive": null, "isSupportYj": null, "cityName": null, "districtName": null, "shopinfo": {"mid": "888002154411179", "good_flag": null, "new_flag": null, "short_name": "\u6b27\u5473\u591a", "short_name_pinyin": "ouweiduo", "status": null, "address": null, "name": null, "id": "36213"}, "mid": "888002154411179", "shopId": "36213", "netid": null, "province": 901, "district": 601, "zipcode": null, "telephone": null, "posDate": "20100813", "destineTel": null, "togoTel": null, "trafficWay": null, "signBuilding": null, "businessArea": null, "selfRoom": null, "businessTime": null, "stall": null, "consume": null, "serviceFei": null, "favourable": null, "shopMemo": null, "appraise": null, "website": null, "memo": null, "payTypes": "\u6749\u5fb7\u5361", "shopTypes": "\u96f6\u552e", "consumeTypes": null, "cookTypes": null, "orderNum": 1000, "card4no": null, "card4noAcc": null, "district2": 403, "searchScope": null, "status": 1, "address": "\u5f90\u6c47\u533a\u6842\u6797\u8def402\u53f7\u4e00\u697c", "name": "\u6b27\u5473\u591a \u7530\u6797\u597d\u53c8\u591a\u5e97", "id": 150919, "pageNo": 0, "pageCount": null, "pageSize": 10, "ids": null, "endTime": null, "startTime": null}, {"cardNumFive": null, "isSupportYj": null, "cityName": null, "districtName": null, "shopinfo": {"mid": "888002154411179", "good_flag": null, "new_flag": null, "short_name": "\u6b27\u5473\u591a", "short_name_pinyin": "ouweiduo", "status": null, "address": null, "name": null, "id": "36213"}, "mid": "888002154411179", "shopId": "36213", "netid": null, "province": 901, "district": 601, "zipcode": null, "telephone": null, "posDate": "20100811", "destineTel": null, "togoTel": null, "trafficWay": null, "signBuilding": null, "businessArea": null, "selfRoom": null, "businessTime": null, "stall": null, "consume": null, "serviceFei": null, "favourable": null, "shopMemo": null, "appraise": null, "website": null, "memo": null, "payTypes": "\u6749\u5fb7\u5361", "shopTypes": "\u96f6\u552e", "consumeTypes": null, "cookTypes": null, "orderNum": 1000, "card4no": null, "card4noAcc": null, "district2": 416, "searchScope": null, "status": 1, "address": "\u5b9d\u5c71\u533a\u5fb7\u90fd\u8def18\u53f7\u4e00\u697c", "name": "\u6b27\u5473\u591a \u6708\u6d66\u4e16\u7eaa\u8054\u534e\u5e97", "id": 150921, "pageNo": 0, "pageCount": null, "pageSize": 10, "ids": null, "endTime": null, "startTime": null}, {"cardNumFive": null, "isSupportYj": null, "cityName": null, "districtName": null, "shopinfo": {"mid": "888002154411179", "good_flag": null, "new_flag": null, "short_name": "\u6b27\u5473\u591a", "short_name_pinyin": "ouweiduo", "status": null, "address": null, "name": null, "id": "36213"}, "mid": "888002154411179", "shopId": "36213", "netid": null, "province": 901, "district": 601, "zipcode": null, "telephone": null, "posDate": null, "destineTel": null, "togoTel": null, "trafficWay": null, "signBuilding": null, "businessArea": null, "selfRoom": null, "businessTime": null, "stall": null, "consume": null, "serviceFei": null, "favourable": null, "shopMemo": null, "appraise": null, "website": null, "memo": null, "payTypes": "\u6749\u5fb7\u5361", "shopTypes": "\u96f6\u552e", "consumeTypes": null, "cookTypes": null, "orderNum": 1000, "card4no": null, "card4noAcc": null, "district2": 410, "searchScope": null, "status": 1, "address": "\u82b7\u6c5f\u897f\u8def488\u53f7", "name": "\u6b27\u5473\u591a \u82b7\u6c5f\u897f\u8def\u5e97", "id": 170027, "pageNo": 0, "pageCount": null, "pageSize": 10, "ids": null, "endTime": null, "startTime": null}, {"cardNumFive": null, "isSupportYj": null, "cityName": null, "districtName": null, "shopinfo": {"mid": "888002154411179", "good_flag": null, "new_flag": null, "short_name": "\u6b27\u5473\u591a", "short_name_pinyin": "ouweiduo", "status": null, "address": null, "name": null, "id": "36213"}, "mid": "888002154411179", "shopId": "36213", "netid": null, "province": 901, "district": 601, "zipcode": null, "telephone": null, "posDate": null, "destineTel": null, "togoTel": null, "trafficWay": null, "signBuilding": null, "businessArea": null, "selfRoom": null, "businessTime": null, "stall": null, "consume": null, "serviceFei": null, "favourable": null, "shopMemo": null, "appraise": null, "website": null, "memo": null, "payTypes": "\u6749\u5fb7\u5361", "shopTypes": "\u96f6\u552e", "consumeTypes": null, "cookTypes": null, "orderNum": 1000, "card4no": null, "card4noAcc": null, "district2": 408, "searchScope": null, "status": 1, "address": "\u56db\u5ddd\u5317\u8def789\u53f7", "name": "\u6b27\u5473\u591a \u56db\u5ddd\u5317\u8def\u5e97", "id": 170028, "pageNo": 0, "pageCount": null, "pageSize": 10, "ids": null, "endTime": null, "startTime": null}, {"cardNumFive": null, "isSupportYj": null, "cityName": null, "districtName": null, "shopinfo": {"mid": "888002154411179", "good_flag": null, "new_flag": null, "short_name": "\u6b27\u5473\u591a", "short_name_pinyin": "ouweiduo", "status": null, "address": null, "name": null, "id": "36213"}, "mid": "888002154411179", "shopId": "36213", "netid": null, "province": 901, "district": 601, "zipcode": null, "telephone": null, "posDate": null, "destineTel": null, "togoTel": null, "trafficWay": null, "signBuilding": null, "businessArea": null, "selfRoom": null, "businessTime": null, "stall": null, "consume": null, "serviceFei": null, "favourable": null, "shopMemo": null, "appraise": null, "website": null, "memo": null, "payTypes": "\u6749\u5fb7\u5361", "shopTypes": "\u96f6\u552e", "consumeTypes": null, "cookTypes": null, "orderNum": 1000, "card4no": null, "card4noAcc": null, "district2": 407, "searchScope": null, "status": 1, "address": "\u6dde\u6caa\u8def125\u53f7", "name": "\u6b27\u5473\u591a \u4e94\u89d2\u573a\u6c83\u5c14\u739b\u5e97", "id": 170029, "pageNo": 0, "pageCount": null, "pageSize": 10, "ids": null, "endTime": null, "startTime": null}, {"cardNumFive": null, "isSupportYj": null, "cityName": null, "districtName": null, "shopinfo": {"mid": "888888856810004", "good_flag": "2", "new_flag": "2", "short_name": "\u6d3e\u683c\u800c\u76ae\u5177", "short_name_pinyin": "paigeerpiju", "status": null, "address": null, "name": null, "id": "32729"}, "mid": "888888856810004", "shopId": "32729", "netid": null, "province": 901, "district": 601, "zipcode": null, "telephone": null, "posDate": "20080626", "destineTel": null, "togoTel": null, "trafficWay": null, "signBuilding": null, "businessArea": null, "selfRoom": null, "businessTime": "9:00~21:30", "stall": null, "consume": null, "serviceFei": null, "favourable": null, "shopMemo": null, "appraise": null, "website": null, "memo": null, "payTypes": "\u6749\u5fb7\u5361", "shopTypes": "\u4e13\u5356", "consumeTypes": null, "cookTypes": null, "orderNum": 1000, "card4no": null, "card4noAcc": null, "district2": 406, "searchScope": null, "status": 1, "address": "\u5143\u5c71\u8def111\u53f7\u5730\u4e0b\u4e00\u5c42", "name": "\u6d3e\u683c\u800c\u76ae\u5177 \u5143\u4e09\u8def\u5e97", "id": 140238, "pageNo": 0, "pageCount": null, "pageSize": 10, "ids": null, "endTime": null, "startTime": null}, {"cardNumFive": null, "isSupportYj": null, "cityName": null, "districtName": null, "shopinfo": {"mid": "888888854410148", "good_flag": null, "new_flag": null, "short_name": "\u57f9\u829d", "short_name_pinyin": "peizhi", "status": null, "address": null, "name": null, "id": "32733"}, "mid": "888888854410148", "shopId": "32733", "netid": null, "province": 901, "district": 601, "zipcode": null, "telephone": "54248281*303", "posDate": "20090422", "destineTel": null, "togoTel": null, "trafficWay": null, "signBuilding": null, "businessArea": null, "selfRoom": null, "businessTime": "9:00~21:00", "stall": null, "consume": null, "serviceFei": null, "favourable": null, "shopMemo": null, "appraise": null, "website": null, "memo": null, "payTypes": "\u6749\u5fb7\u5361", "shopTypes": "\u4e13\u5356", "consumeTypes": null, "cookTypes": null, "orderNum": 1000, "card4no": null, "card4noAcc": null, "district2": 416, "searchScope": null, "status": 1, "address": "\u5927\u534e\u8def518\u53f7\u5927\u534e\u4e50\u8d2d1\u697c", "name": "\u57f9\u829d \u5927\u534e\u8def\u5e97", "id": 140244, "pageNo": 0, "pageCount": null, "pageSize": 10, "ids": null, "endTime": null, "startTime": null}, {"cardNumFive": null, "isSupportYj": null, "cityName": null, "districtName": null, "shopinfo": {"mid": "888888854410148", "good_flag": null, "new_flag": null, "short_name": "\u57f9\u829d", "short_name_pinyin": "peizhi", "status": null, "address": null, "name": null, "id": "32733"}, "mid": "888888854410148", "shopId": "32733", "netid": null, "province": 901, "district": 601, "zipcode": null, "telephone": "54248028-304", "posDate": null, "destineTel": null, "togoTel": null, "trafficWay": "517\u3001562", "signBuilding": null, "businessArea": null, "selfRoom": null, "businessTime": "9:00~21:00", "stall": null, "consume": null, "serviceFei": null, "favourable": null, "shopMemo": null, "appraise": null, "website": null, "memo": null, "payTypes": "\u6749\u5fb7\u5361", "shopTypes": "\u4e13\u5356", "consumeTypes": null, "cookTypes": null, "orderNum": 1000, "card4no": null, "card4noAcc": null, "district2": 411, "searchScope": null, "status": 1, "address": "\u5357\u7fd4\u4e30\u7fd4\u8def3168\u53f71\u697c", "name": "\u57f9\u829d \u4e30\u7fd4\u8def\u5e97", "id": 140245, "pageNo": 0, "pageCount": null, "pageSize": 10, "ids": null, "endTime": null, "startTime": null}, {"cardNumFive": null, "isSupportYj": null, "cityName": null, "districtName": null, "shopinfo": {"mid": "888888854410148", "good_flag": null, "new_flag": null, "short_name": "\u57f9\u829d", "short_name_pinyin": "peizhi", "status": null, "address": null, "name": null, "id": "32733"}, "mid": "888888854410148", "shopId": "32733", "netid": null, "province": 901, "district": 601, "zipcode": null, "telephone": "54248028-304", "posDate": "20090415", "destineTel": null, "togoTel": null, "trafficWay": null, "signBuilding": null, "businessArea": null, "selfRoom": null, "businessTime": "10:00~22:00", "stall": null, "consume": null, "serviceFei": null, "favourable": null, "shopMemo": null, "appraise": null, "website": null, "memo": null, "payTypes": "\u6749\u5fb7\u5361", "shopTypes": "\u4e13\u5356", "consumeTypes": null, "cookTypes": null, "orderNum": 1000, "card4no": null, "card4noAcc": null, "district2": 418, "searchScope": null, "status": 1, "address": "\u5357\u6c47\u60e0\u5357\u9547\u5357\u95e8\u5927\u885718\u53f73\u697c\u6536\u94f6\u53f0\u5bf9\u9762", "name": "\u57f9\u829d \u5357\u6c47\u5e97", "id": 140247, "pageNo": 0, "pageCount": null, "pageSize": 10, "ids": null, "endTime": null, "startTime": null}, {"cardNumFive": null, "isSupportYj": null, "cityName": null, "districtName": null, "shopinfo": {"mid": "888888854410148", "good_flag": null, "new_flag": null, "short_name": "\u57f9\u829d", "short_name_pinyin": "peizhi", "status": null, "address": null, "name": null, "id": "32733"}, "mid": "888888854410148", "shopId": "32733", "netid": null, "province": 901, "district": 601, "zipcode": null, "telephone": "54248028-304", "posDate": "20090415", "destineTel": null, "togoTel": null, "trafficWay": null, "signBuilding": null, "businessArea": null, "selfRoom": null, "businessTime": "9:00~22:00", "stall": null, "consume": null, "serviceFei": null, "favourable": null, "shopMemo": null, "appraise": null, "website": null, "memo": null, "payTypes": "\u6749\u5fb7\u5361", "shopTypes": "\u4e13\u5356", "consumeTypes": null, "cookTypes": null, "orderNum": 1000, "card4no": null, "card4noAcc": null, "district2": 418, "searchScope": null, "status": 1, "address": "\u9ad8\u79d1\u4e2d\u8def2860\u53f7\u8fd1\u5f20\u4e1c\u8def\u5f20\u6c5f\u5bb6\u4e50\u798f2\u697c", "name": "\u57f9\u829d \u725b\u521d\u4e73\u5bb6\u4e50\u798f\u5f20\u6c5f\u5e97", "id": 140248, "pageNo": 0, "pageCount": null, "pageSize": 10, "ids": null, "endTime": null, "startTime": null}], "pageLimit": 7180, "size": 10}