{"pageCount": 1095, "count": 10942, "pageNo": 713, "subShopInfo": {"cardNumFive": "", "isSupportYj": "", "cityName": null, "districtName": null, "shopinfo": {"mid": null, "good_flag": null, "new_flag": null, "short_name": null, "short_name_pinyin": null, "status": null, "address": "", "name": "", "id": null}, "mid": null, "shopId": null, "netid": null, "province": 901, "district": null, "zipcode": null, "telephone": null, "posDate": null, "destineTel": null, "togoTel": null, "trafficWay": null, "signBuilding": null, "businessArea": null, "selfRoom": null, "businessTime": null, "stall": null, "consume": null, "serviceFei": null, "favourable": null, "shopMemo": "1", "appraise": null, "website": null, "memo": null, "payTypes": "", "shopTypes": "", "consumeTypes": null, "cookTypes": null, "orderNum": null, "card4no": null, "card4noAcc": null, "district2": null, "searchScope": null, "status": null, "address": "", "name": null, "id": null, "pageNo": 712, "pageCount": null, "pageSize": 10, "ids": null, "endTime": null, "startTime": null}, "list": [{"cardNumFive": null, "isSupportYj": null, "cityName": null, "districtName": null, "shopinfo": {"mid": "888002156911394", "good_flag": null, "new_flag": null, "short_name": "OCHIRLY&FIVE PLUS", "short_name_pinyin": "ochirlyandfiveplus", "status": null, "address": null, "name": null, "id": "35662"}, "mid": "888002156911394", "shopId": "35662", "netid": null, "province": 901, "district": 601, "zipcode": null, "telephone": "38231314", "posDate": "20100722", "destineTel": null, "togoTel": null, "trafficWay": null, "signBuilding": null, "businessArea": null, "selfRoom": null, "businessTime": null, "stall": null, "consume": null, "serviceFei": null, "favourable": null, "shopMemo": null, "appraise": null, "website": null, "memo": null, "payTypes": "\u6749\u5fb7\u5361", "shopTypes": "\u4e13\u5356", "consumeTypes": null, "cookTypes": null, "orderNum": 1000, "card4no": null, "card4noAcc": null, "district2": 418, "searchScope": null, "status": 1, "address": "\u5468\u6d66\u9547\u5e74\u5bb6\u6d5c\u8def437\u53f7\u4e00\u5c42", "name": "OCHIRLY&FIVE PLUS \u5468\u6d66\u4e07\u8fbe\u5e97", "id": 149178, "pageNo": 0, "pageCount": null, "pageSize": 10, "ids": null, "endTime": null, "startTime": null}, {"cardNumFive": null, "isSupportYj": null, "cityName": null, "districtName": null, "shopinfo": {"mid": "888002156911394", "good_flag": null, "new_flag": null, "short_name": "OCHIRLY&FIVE PLUS", "short_name_pinyin": "ochirlyandfiveplus", "status": null, "address": null, "name": null, "id": "35662"}, "mid": "888002156911394", "shopId": "35662", "netid": null, "province": 901, "district": 601, "zipcode": null, "telephone": "33620553", "posDate": "20100722", "destineTel": null, "togoTel": null, "trafficWay": null, "signBuilding": null, "businessArea": null, "selfRoom": null, "businessTime": null, "stall": null, "consume": null, "serviceFei": null, "favourable": null, "shopMemo": null, "appraise": null, "website": null, "memo": null, "payTypes": "\u6749\u5fb7\u5361", "shopTypes": "\u4e13\u5356", "consumeTypes": null, "cookTypes": null, "orderNum": 1000, "card4no": null, "card4noAcc": null, "district2": 407, "searchScope": null, "status": 1, "address": "\u6dde\u6caa\u8def77\u53f7\u4e07\u8fbe\u5e7f\u573aB1-C02", "name": "OCHIRLY&FIVE PLUS \u4e94\u89d2\u573a\u4e07\u8fbe\u5e97", "id": 149179, "pageNo": 0, "pageCount": null, "pageSize": 10, "ids": null, "endTime": null, "startTime": null}, {"cardNumFive": null, "isSupportYj": null, "cityName": null, "districtName": null, "shopinfo": {"mid": "888002156911394", "good_flag": null, "new_flag": null, "short_name": "OCHIRLY&FIVE PLUS", "short_name_pinyin": "ochirlyandfiveplus", "status": null, "address": null, "name": null, "id": "38110"}, "mid": "888002156911394", "shopId": "38110", "netid": null, "province": 901, "district": 601, "zipcode": null, "telephone": "60409330", "posDate": null, "destineTel": null, "togoTel": null, "trafficWay": null, "signBuilding": null, "businessArea": null, "selfRoom": null, "businessTime": null, "stall": null, "consume": null, "serviceFei": null, "favourable": null, "shopMemo": null, "appraise": null, "website": null, "memo": null, "payTypes": "\u6749\u5fb7\u5361", "shopTypes": "\u4e13\u5356", "consumeTypes": null, "cookTypes": null, "orderNum": 1000, "card4no": null, "card4noAcc": null, "district2": 408, "searchScope": null, "status": 1, "address": "\u897f\u6c5f\u6e7e\u8def388\u53f7A04\u5c4241\u53f7", "name": "OCHIRLY&FIVE PLUS \u8679\u53e3\u9f99\u4e4b\u68a6\u5e97", "id": 162179, "pageNo": 0, "pageCount": null, "pageSize": 10, "ids": null, "endTime": null, "startTime": null}, {"cardNumFive": null, "isSupportYj": null, "cityName": null, "districtName": null, "shopinfo": {"mid": "888002156911394", "good_flag": null, "new_flag": null, "short_name": "OCHIRLY&FIVE PLUS", "short_name_pinyin": "ochirlyandfiveplus", "status": null, "address": null, "name": null, "id": "38110"}, "mid": "888002156911394", "shopId": "38110", "netid": null, "province": 901, "district": 601, "zipcode": null, "telephone": "33620553", "posDate": null, "destineTel": null, "togoTel": null, "trafficWay": null, "signBuilding": null, "businessArea": null, "selfRoom": null, "businessTime": null, "stall": null, "consume": null, "serviceFei": null, "favourable": null, "shopMemo": null, "appraise": null, "website": null, "memo": null, "payTypes": "\u6749\u5fb7\u5361", "shopTypes": "\u4e13\u5356", "consumeTypes": null, "cookTypes": null, "orderNum": 1000, "card4no": null, "card4noAcc": null, "district2": 407, "searchScope": null, "status": 1, "address": "\u6dde\u6caa\u8def77\u53f7\u5730\u4e0b\u4e00\u5c42", "name": "OCHIRLY&FIVE PLUS \u6768\u6d66\u4e07\u8fbe\u5e97", "id": 162180, "pageNo": 0, "pageCount": null, "pageSize": 10, "ids": null, "endTime": null, "startTime": null}, {"cardNumFive": null, "isSupportYj": null, "cityName": null, "districtName": null, "shopinfo": {"mid": "888002156911394", "good_flag": null, "new_flag": null, "short_name": "OCHIRLY&FIVE PLUS", "short_name_pinyin": "ochirlyandfiveplus", "status": null, "address": null, "name": null, "id": "35662"}, "mid": "888002156911394", "shopId": "35662", "netid": null, "province": 901, "district": 601, "zipcode": null, "telephone": null, "posDate": null, "destineTel": null, "togoTel": null, "trafficWay": null, "signBuilding": null, "businessArea": null, "selfRoom": null, "businessTime": null, "stall": null, "consume": null, "serviceFei": null, "favourable": null, "shopMemo": null, "appraise": null, "website": null, "memo": null, "payTypes": "\u6749\u5fb7\u5361", "shopTypes": "\u4e13\u5356", "consumeTypes": null, "cookTypes": null, "orderNum": 1000, "card4no": null, "card4noAcc": null, "district2": 411, "searchScope": null, "status": 1, "address": "\u58a8\u7389\u5357\u8def1033\u53f7", "name": "OCHIRLY&FIVE PLUS \u5609\u4ead\u835f\u5e97", "id": 169268, "pageNo": 0, "pageCount": null, "pageSize": 10, "ids": null, "endTime": null, "startTime": null}, {"cardNumFive": null, "isSupportYj": null, "cityName": null, "districtName": null, "shopinfo": {"mid": "888002156911394", "good_flag": null, "new_flag": null, "short_name": "OCHIRLY&FIVE PLUS", "short_name_pinyin": "ochirlyandfiveplus", "status": null, "address": null, "name": null, "id": "35662"}, "mid": "888002156911394", "shopId": "35662", "netid": null, "province": 901, "district": 601, "zipcode": null, "telephone": null, "posDate": null, "destineTel": null, "togoTel": null, "trafficWay": null, "signBuilding": null, "businessArea": null, "selfRoom": null, "businessTime": null, "stall": null, "consume": null, "serviceFei": null, "favourable": null, "shopMemo": null, "appraise": null, "website": null, "memo": null, "payTypes": "\u6749\u5fb7\u5361", "shopTypes": "\u4e13\u5356", "consumeTypes": null, "cookTypes": null, "orderNum": 1000, "card4no": null, "card4noAcc": null, "district2": 416, "searchScope": null, "status": 1, "address": "\u4e00\u4e8c\u516b\u7eaa\u5ff5\u8def988\u5f041\u53f71\u697c", "name": "OCHIRLY&FIVE PLUS \u5b9d\u5c71\u4e07\u8fbe\u5e97", "id": 169270, "pageNo": 0, "pageCount": null, "pageSize": 10, "ids": null, "endTime": null, "startTime": null}, {"cardNumFive": null, "isSupportYj": null, "cityName": null, "districtName": null, "shopinfo": {"mid": "888002154110665", "good_flag": null, "new_flag": "2", "short_name": "OLE", "short_name_pinyin": "OLE", "status": null, "address": null, "name": null, "id": "42352"}, "mid": "888002154110665", "shopId": "42352", "netid": null, "province": 901, "district": 601, "zipcode": null, "telephone": null, "posDate": null, "destineTel": null, "togoTel": null, "trafficWay": null, "signBuilding": null, "businessArea": null, "selfRoom": null, "businessTime": null, "stall": null, "consume": null, "serviceFei": null, "favourable": null, "shopMemo": null, "appraise": null, "website": null, "memo": null, "payTypes": "\u6749\u5fb7\u5361", "shopTypes": "\u4fbf\u5229\u5e97", "consumeTypes": null, "cookTypes": null, "orderNum": 1000, "card4no": null, "card4noAcc": null, "district2": 406, "searchScope": null, "status": 1, "address": "\u9075\u4e49\u8def100\u53f7B1", "name": "OLE \u9075\u4e49\u8def\u5e97", "id": 188912, "pageNo": 0, "pageCount": null, "pageSize": 10, "ids": null, "endTime": null, "startTime": null}, {"cardNumFive": null, "isSupportYj": null, "cityName": null, "districtName": null, "shopinfo": {"mid": "888002154110762", "good_flag": null, "new_flag": null, "short_name": "OLE", "short_name_pinyin": "OLE", "status": null, "address": null, "name": null, "id": "43576"}, "mid": "888002154110762", "shopId": "43576", "netid": null, "province": 901, "district": 601, "zipcode": null, "telephone": null, "posDate": null, "destineTel": null, "togoTel": null, "trafficWay": null, "signBuilding": null, "businessArea": null, "selfRoom": null, "businessTime": null, "stall": null, "consume": null, "serviceFei": null, "favourable": null, "shopMemo": null, "appraise": null, "website": null, "memo": null, "payTypes": "\u6749\u5fb7\u5361", "shopTypes": "\u8d85\u5e02", "consumeTypes": null, "cookTypes": null, "orderNum": 1000, "card4no": null, "card4noAcc": null, "district2": 407, "searchScope": null, "status": 1, "address": "\u7fd4\u6bb7\u8def1099\u53f7\u5408\u751f\u56fd\u9645\u5e7f\u573aB2\u5c42B15\u5546\u94fa", "name": "OLE \u4e94\u89d2\u573a\u5e97", "id": 198168, "pageNo": 0, "pageCount": null, "pageSize": 10, "ids": null, "endTime": null, "startTime": null}, {"cardNumFive": null, "isSupportYj": null, "cityName": null, "districtName": null, "shopinfo": {"mid": "888002154110761", "good_flag": null, "new_flag": null, "short_name": "OLE", "short_name_pinyin": "OLE", "status": null, "address": null, "name": null, "id": "43593"}, "mid": "888002154110761", "shopId": "43593", "netid": null, "province": 901, "district": 601, "zipcode": null, "telephone": null, "posDate": null, "destineTel": null, "togoTel": null, "trafficWay": null, "signBuilding": null, "businessArea": null, "selfRoom": null, "businessTime": null, "stall": null, "consume": null, "serviceFei": null, "favourable": null, "shopMemo": null, "appraise": null, "website": null, "memo": null, "payTypes": "\u6749\u5fb7\u5361", "shopTypes": "\u8d85\u5e02", "consumeTypes": null, "cookTypes": null, "orderNum": 1000, "card4no": null, "card4noAcc": null, "district2": 404, "searchScope": null, "status": 1, "address": "\u897f\u85cf\u5317\u8def198\u53f7\u5927\u60a6\u57ceB102-17\u53f7\u5546\u94fa", "name": "OLE \u5927\u60a6\u57ce\u5e97", "id": 198562, "pageNo": 0, "pageCount": null, "pageSize": 10, "ids": null, "endTime": null, "startTime": null}, {"cardNumFive": null, "isSupportYj": null, "cityName": null, "districtName": null, "shopinfo": {"mid": "888002154110773", "good_flag": null, "new_flag": null, "short_name": "OLE", "short_name_pinyin": "OLE", "status": null, "address": null, "name": null, "id": "43888"}, "mid": "888002154110773", "shopId": "43888", "netid": null, "province": 901, "district": 601, "zipcode": null, "telephone": null, "posDate": null, "destineTel": null, "togoTel": null, "trafficWay": null, "signBuilding": null, "businessArea": null, "selfRoom": null, "businessTime": null, "stall": null, "consume": null, "serviceFei": null, "favourable": null, "shopMemo": null, "appraise": null, "website": null, "memo": null, "payTypes": "\u6749\u5fb7\u5361", "shopTypes": "\u8d85\u5e02", "consumeTypes": null, "cookTypes": null, "orderNum": 1000, "card4no": null, "card4noAcc": null, "district2": 409, "searchScope": null, "status": 1, "address": "\u6f15\u5b9d\u8def3366\u53f7\u4e0a\u6d77\u4e03\u5b9d\u4e07\u79d1\u5e7f\u573aB123\u5546\u54c1", "name": "OLE \u4e03\u5b9d\u5e97", "id": 202095, "pageNo": 0, "pageCount": null, "pageSize": 10, "ids": null, "endTime": null, "startTime": null}], "pageLimit": 7120, "size": 10}