{"pageCount": 1095, "count": 10942, "pageNo": 714, "subShopInfo": {"cardNumFive": "", "isSupportYj": "", "cityName": null, "districtName": null, "shopinfo": {"mid": null, "good_flag": null, "new_flag": null, "short_name": null, "short_name_pinyin": null, "status": null, "address": "", "name": "", "id": null}, "mid": null, "shopId": null, "netid": null, "province": 901, "district": null, "zipcode": null, "telephone": null, "posDate": null, "destineTel": null, "togoTel": null, "trafficWay": null, "signBuilding": null, "businessArea": null, "selfRoom": null, "businessTime": null, "stall": null, "consume": null, "serviceFei": null, "favourable": null, "shopMemo": "1", "appraise": null, "website": null, "memo": null, "payTypes": "", "shopTypes": "", "consumeTypes": null, "cookTypes": null, "orderNum": null, "card4no": null, "card4noAcc": null, "district2": null, "searchScope": null, "status": null, "address": "", "name": null, "id": null, "pageNo": 713, "pageCount": null, "pageSize": 10, "ids": null, "endTime": null, "startTime": null}, "list": [{"cardNumFive": null, "isSupportYj": null, "cityName": null, "districtName": null, "shopinfo": {"mid": "888002154110665", "good_flag": null, "new_flag": "2", "short_name": "OLE", "short_name_pinyin": "OLE", "status": null, "address": null, "name": null, "id": "42352"}, "mid": "888002154110665", "shopId": "42352", "netid": null, "province": 901, "district": 601, "zipcode": null, "telephone": null, "posDate": null, "destineTel": null, "togoTel": null, "trafficWay": null, "signBuilding": null, "businessArea": null, "selfRoom": null, "businessTime": null, "stall": null, "consume": null, "serviceFei": null, "favourable": null, "shopMemo": null, "appraise": null, "website": null, "memo": null, "payTypes": "\u6749\u5fb7\u5361,", "shopTypes": "\u4fbf\u5229\u5e97", "consumeTypes": null, "cookTypes": null, "orderNum": null, "card4no": null, "card4noAcc": null, "district2": 409, "searchScope": null, "status": 1, "address": "\u5434\u4e2d\u8def1599\u53f7b1\u5c42LG120\u5ba4", "name": "OLE \u4e07\u8c61\u57ce\u5e97", "id": 432862685135110144, "pageNo": 0, "pageCount": null, "pageSize": 10, "ids": null, "endTime": null, "startTime": null}, {"cardNumFive": null, "isSupportYj": null, "cityName": null, "districtName": null, "shopinfo": {"mid": "888888857190048", "good_flag": "2", "new_flag": "2", "short_name": "\u6b27\u70b9\u5bb6\u5c45\u7528\u54c1", "short_name_pinyin": "oudianjiajuyongpin", "status": null, "address": null, "name": null, "id": "32718"}, "mid": "888888857190048", "shopId": "32718", "netid": null, "province": 901, "district": 601, "zipcode": null, "telephone": null, "posDate": null, "destineTel": null, "togoTel": null, "trafficWay": "\u5609\u677e\u7ebf\u3001\u6caa\u9752\u4e13\u7ebf", "signBuilding": null, "businessArea": null, "selfRoom": null, "businessTime": null, "stall": null, "consume": null, "serviceFei": null, "favourable": null, "shopMemo": null, "appraise": null, "website": null, "memo": null, "payTypes": "\u6749\u5fb7\u5361", "shopTypes": "\u4e13\u5356", "consumeTypes": null, "cookTypes": null, "orderNum": 1000, "card4no": null, "card4noAcc": null, "district2": 417, "searchScope": null, "status": 1, "address": "\u5609\u677e\u516c\u8def5369\u53f7\u5409\u76db\u4f1f\u90a6B3-106", "name": "\u6b27\u70b9\u5bb6\u5c45\u7528\u54c1 \u5609\u677e\u516c\u8def\u5e97", "id": 140218, "pageNo": 0, "pageCount": null, "pageSize": 10, "ids": null, "endTime": null, "startTime": null}, {"cardNumFive": null, "isSupportYj": null, "cityName": null, "districtName": null, "shopinfo": {"mid": "888002154110626", "good_flag": null, "new_flag": null, "short_name": "\u6b27\u6da6\u53d1", "short_name_pinyin": "ourunfa", "status": null, "address": null, "name": null, "id": "41880"}, "mid": "888002154110626", "shopId": "41880", "netid": null, "province": 901, "district": 601, "zipcode": null, "telephone": null, "posDate": null, "destineTel": null, "togoTel": null, "trafficWay": null, "signBuilding": null, "businessArea": null, "selfRoom": null, "businessTime": null, "stall": null, "consume": null, "serviceFei": null, "favourable": null, "shopMemo": null, "appraise": null, "website": null, "memo": null, "payTypes": "\u6749\u5fb7\u5361", "shopTypes": "\u8d85\u5e02", "consumeTypes": null, "cookTypes": null, "orderNum": 1000, "card4no": null, "card4noAcc": null, "district2": 409, "searchScope": null, "status": 1, "address": "\u6d66\u6c5f\u9547\u6c5f\u6587\u8def470\u53f7", "name": "\u6b27\u6da6\u53d1 \u95f5\u884c\u5e97", "id": 186183, "pageNo": 0, "pageCount": null, "pageSize": 10, "ids": null, "endTime": null, "startTime": null}, {"cardNumFive": null, "isSupportYj": null, "cityName": null, "districtName": null, "shopinfo": {"mid": "T00000000000012", "good_flag": "2", "new_flag": "2", "short_name": "\u6b27\u5c1a\u8d85\u5e02", "short_name_pinyin": "oushangchaoshi", "status": null, "address": null, "name": null, "id": "32723"}, "mid": "T00000000000012", "shopId": "32723", "netid": null, "province": 901, "district": 601, "zipcode": null, "telephone": "65436543", "posDate": "20071221", "destineTel": null, "togoTel": null, "trafficWay": "\u516c\u4ea4934 868", "signBuilding": null, "businessArea": null, "selfRoom": null, "businessTime": null, "stall": "\u6709", "consume": null, "serviceFei": null, "favourable": null, "shopMemo": null, "appraise": null, "website": null, "memo": null, "payTypes": "\u6749\u5fb7\u5361 \u5361\u62bc\u91d1\u6d88\u8d39", "shopTypes": "\u8d85\u5e02", "consumeTypes": null, "cookTypes": null, "orderNum": 1000, "card4no": null, "card4noAcc": null, "district2": 407, "searchScope": null, "status": 1, "address": "\u957f\u9633\u8def1750\u53f7", "name": "\u6b27\u5c1a\u8d85\u5e02 \u957f\u9633\u5e97", "id": 140225, "pageNo": 0, "pageCount": null, "pageSize": 10, "ids": null, "endTime": null, "startTime": null}, {"cardNumFive": null, "isSupportYj": null, "cityName": null, "districtName": null, "shopinfo": {"mid": "T00000000000012", "good_flag": "2", "new_flag": "2", "short_name": "\u6b27\u5c1a\u8d85\u5e02", "short_name_pinyin": "oushangchaoshi", "status": null, "address": null, "name": null, "id": "32723"}, "mid": "T00000000000012", "shopId": "32723", "netid": null, "province": 901, "district": 601, "zipcode": null, "telephone": "69985651", "posDate": "20071220", "destineTel": null, "togoTel": null, "trafficWay": "\u65c5\u6e386A\u7ebf \u65b0\u5609\u7ebf", "signBuilding": null, "businessArea": null, "selfRoom": null, "businessTime": null, "stall": "\u6709", "consume": null, "serviceFei": null, "favourable": null, "shopMemo": null, "appraise": null, "website": null, "memo": null, "payTypes": "\u6749\u5fb7\u5361  \u5361\u62bc\u91d1\u6d88\u8d39", "shopTypes": "\u8d85\u5e02", "consumeTypes": null, "cookTypes": null, "orderNum": 1000, "card4no": null, "card4noAcc": null, "district2": 411, "searchScope": null, "status": 1, "address": "\u535a\u4e50\u8def99\u53f7", "name": "\u6b27\u5c1a\u8d85\u5e02 \u5609\u5b9a\u5e97", "id": 140226, "pageNo": 0, "pageCount": null, "pageSize": 10, "ids": null, "endTime": null, "startTime": null}, {"cardNumFive": null, "isSupportYj": null, "cityName": null, "districtName": null, "shopinfo": {"mid": "T00000000000012", "good_flag": "2", "new_flag": "2", "short_name": "\u6b27\u5c1a\u8d85\u5e02", "short_name_pinyin": "oushangchaoshi", "status": null, "address": null, "name": null, "id": "32723"}, "mid": "T00000000000012", "shopId": "32723", "netid": null, "province": 901, "district": 601, "zipcode": null, "telephone": "54703462", "posDate": "20071207", "destineTel": null, "togoTel": null, "trafficWay": "\u5f90\u95f5\u7ebf \u7533\u95f5\u7ebf \u4e1c\u576a\u7ebf", "signBuilding": null, "businessArea": null, "selfRoom": null, "businessTime": null, "stall": null, "consume": null, "serviceFei": null, "favourable": null, "shopMemo": null, "appraise": null, "website": null, "memo": null, "payTypes": "\u6749\u5fb7\u5361  \u5361\u62bc\u91d1\u6d88\u8d39", "shopTypes": "\u8d85\u5e02", "consumeTypes": null, "cookTypes": null, "orderNum": 1000, "card4no": null, "card4noAcc": null, "district2": 409, "searchScope": null, "status": 1, "address": "\u4e1c\u5ddd\u8def2092\u53f7", "name": "\u6b27\u5c1a\u8d85\u5e02 \u95f5\u884c\u5e97", "id": 140227, "pageNo": 0, "pageCount": null, "pageSize": 10, "ids": null, "endTime": null, "startTime": null}, {"cardNumFive": null, "isSupportYj": null, "cityName": null, "districtName": null, "shopinfo": {"mid": "T00000000000012", "good_flag": "2", "new_flag": "2", "short_name": "\u6b27\u5c1a\u8d85\u5e02", "short_name_pinyin": "oushangchaoshi", "status": null, "address": null, "name": null, "id": "32723"}, "mid": "T00000000000012", "shopId": "32723", "netid": null, "province": 901, "district": 601, "zipcode": null, "telephone": "13917510285/68092908", "posDate": null, "destineTel": null, "togoTel": null, "trafficWay": null, "signBuilding": null, "businessArea": null, "selfRoom": null, "businessTime": null, "stall": null, "consume": null, "serviceFei": null, "favourable": null, "shopMemo": null, "appraise": null, "website": null, "memo": null, "payTypes": "\u6749\u5fb7\u5361,\u5361\u62bc\u91d1\u6d88\u8d39", "shopTypes": "\u8d85\u5e02", "consumeTypes": null, "cookTypes": null, "orderNum": 1000, "card4no": null, "card4noAcc": null, "district2": 418, "searchScope": null, "status": 1, "address": "\u60e0\u5357\u9547\u4eba\u6c11\u897f\u8def955\u53f7", "name": "\u6b27\u5c1a\u8d85\u5e02 \u5357\u6c47\u5e97", "id": 140228, "pageNo": 0, "pageCount": null, "pageSize": 10, "ids": null, "endTime": null, "startTime": null}, {"cardNumFive": null, "isSupportYj": null, "cityName": null, "districtName": null, "shopinfo": {"mid": "T00000000000012", "good_flag": "2", "new_flag": "2", "short_name": "\u6b27\u5c1a\u8d85\u5e02", "short_name_pinyin": "oushangchaoshi", "status": null, "address": null, "name": null, "id": "32723"}, "mid": "T00000000000012", "shopId": "32723", "netid": null, "province": 901, "district": 601, "zipcode": null, "telephone": "65589988", "posDate": "20071214", "destineTel": null, "togoTel": null, "trafficWay": "\u516c\u4ea4537 \u5927\u6865\u4e09\u7ebf", "signBuilding": null, "businessArea": null, "selfRoom": null, "businessTime": null, "stall": null, "consume": null, "serviceFei": null, "favourable": null, "shopMemo": null, "appraise": null, "website": null, "memo": null, "payTypes": "\u6749\u5fb7\u5361  \u5361\u62bc\u91d1\u6d88\u8d39", "shopTypes": "\u8d85\u5e02", "consumeTypes": null, "cookTypes": null, "orderNum": 1000, "card4no": null, "card4noAcc": null, "district2": 407, "searchScope": null, "status": 1, "address": "\u4e2d\u539f\u8def102\u53f7", "name": "\u6b27\u5c1a\u8d85\u5e02 \u4e2d\u539f\u5e97", "id": 140229, "pageNo": 0, "pageCount": null, "pageSize": 10, "ids": null, "endTime": null, "startTime": null}, {"cardNumFive": null, "isSupportYj": null, "cityName": null, "districtName": null, "shopinfo": {"mid": "888002154119999", "good_flag": null, "new_flag": null, "short_name": "\u6b27\u5c1a\u8d85\u5e02", "short_name_pinyin": "oushangchaoshi", "status": null, "address": null, "name": null, "id": "39671"}, "mid": "888002154119999", "shopId": "39671", "netid": null, "province": 901, "district": 601, "zipcode": null, "telephone": "67299088", "posDate": null, "destineTel": null, "togoTel": null, "trafficWay": null, "signBuilding": null, "businessArea": null, "selfRoom": null, "businessTime": null, "stall": null, "consume": null, "serviceFei": null, "favourable": null, "shopMemo": null, "appraise": null, "website": null, "memo": null, "payTypes": "\u6749\u5fb7\u5361 \u5361\u62bc\u91d1\u6d88\u8d39", "shopTypes": "\u8d85\u5e02", "consumeTypes": null, "cookTypes": null, "orderNum": 1000, "card4no": null, "card4noAcc": null, "district2": 414, "searchScope": null, "status": 1, "address": "\u8499\u5c71\u5317\u8def399\u53f7", "name": "\u6b27\u5c1a\u8d85\u5e02 \u8499\u5c71\u5317\u8def\u5e97", "id": 170101, "pageNo": 0, "pageCount": null, "pageSize": 10, "ids": null, "endTime": null, "startTime": null}, {"cardNumFive": null, "isSupportYj": null, "cityName": null, "districtName": null, "shopinfo": {"mid": "888002154110568", "good_flag": null, "new_flag": null, "short_name": "\u6b27\u5c1a\u8d85\u5e02", "short_name_pinyin": "oushangchaoshi", "status": null, "address": null, "name": null, "id": "40024"}, "mid": "888002154110568", "shopId": "40024", "netid": null, "province": 901, "district": 601, "zipcode": null, "telephone": null, "posDate": null, "destineTel": null, "togoTel": null, "trafficWay": null, "signBuilding": null, "businessArea": null, "selfRoom": null, "businessTime": null, "stall": null, "consume": null, "serviceFei": null, "favourable": null, "shopMemo": null, "appraise": null, "website": null, "memo": null, "payTypes": "\u6749\u5fb7\u5361 \u5361\u62bc\u91d1\u6d88\u8d39", "shopTypes": "\u8d85\u5e02", "consumeTypes": null, "cookTypes": null, "orderNum": 1000, "card4no": null, "card4noAcc": null, "district2": 411, "searchScope": null, "status": 1, "address": "\u5609\u5b9a\u533a\u6f84\u6d4f\u4e2d\u8def3088\u53f7", "name": "\u6b27\u5c1a\u8d85\u5e02 \u5609\u5b9a\u4e8c\u5e97", "id": 173071, "pageNo": 0, "pageCount": null, "pageSize": 10, "ids": null, "endTime": null, "startTime": null}], "pageLimit": 7130, "size": 10}