{"pageCount": 1095, "count": 10942, "pageNo": 717, "subShopInfo": {"cardNumFive": "", "isSupportYj": "", "cityName": null, "districtName": null, "shopinfo": {"mid": null, "good_flag": null, "new_flag": null, "short_name": null, "short_name_pinyin": null, "status": null, "address": "", "name": "", "id": null}, "mid": null, "shopId": null, "netid": null, "province": 901, "district": null, "zipcode": null, "telephone": null, "posDate": null, "destineTel": null, "togoTel": null, "trafficWay": null, "signBuilding": null, "businessArea": null, "selfRoom": null, "businessTime": null, "stall": null, "consume": null, "serviceFei": null, "favourable": null, "shopMemo": "1", "appraise": null, "website": null, "memo": null, "payTypes": "", "shopTypes": "", "consumeTypes": null, "cookTypes": null, "orderNum": null, "card4no": null, "card4noAcc": null, "district2": null, "searchScope": null, "status": null, "address": "", "name": null, "id": null, "pageNo": 716, "pageCount": null, "pageSize": 10, "ids": null, "endTime": null, "startTime": null}, "list": [{"cardNumFive": null, "isSupportYj": null, "cityName": null, "districtName": null, "shopinfo": {"mid": "888002154411179", "good_flag": null, "new_flag": null, "short_name": "\u6b27\u5473\u591a", "short_name_pinyin": "ouweiduo", "status": null, "address": null, "name": null, "id": "36213"}, "mid": "888002154411179", "shopId": "36213", "netid": null, "province": 901, "district": 601, "zipcode": null, "telephone": null, "posDate": "20100805", "destineTel": null, "togoTel": null, "trafficWay": null, "signBuilding": null, "businessArea": null, "selfRoom": null, "businessTime": null, "stall": null, "consume": null, "serviceFei": null, "favourable": null, "shopMemo": null, "appraise": null, "website": null, "memo": null, "payTypes": "\u6749\u5fb7\u5361", "shopTypes": "\u96f6\u552e", "consumeTypes": null, "cookTypes": null, "orderNum": 1000, "card4no": null, "card4noAcc": null, "district2": 408, "searchScope": null, "status": 1, "address": "\u8679\u53e3\u533a\u66f2\u9633\u8def800\u53f7\u4e00\u697c", "name": "\u6b27\u5473\u591a \u66f2\u9633\u6613\u4e70\u5f97\u5e97", "id": 150881, "pageNo": 0, "pageCount": null, "pageSize": 10, "ids": null, "endTime": null, "startTime": null}, {"cardNumFive": null, "isSupportYj": null, "cityName": null, "districtName": null, "shopinfo": {"mid": "888002154411179", "good_flag": null, "new_flag": null, "short_name": "\u6b27\u5473\u591a", "short_name_pinyin": "ouweiduo", "status": null, "address": null, "name": null, "id": "36213"}, "mid": "888002154411179", "shopId": "36213", "netid": null, "province": 901, "district": 601, "zipcode": null, "telephone": null, "posDate": "20100804", "destineTel": null, "togoTel": null, "trafficWay": null, "signBuilding": null, "businessArea": null, "selfRoom": null, "businessTime": null, "stall": null, "consume": null, "serviceFei": null, "favourable": null, "shopMemo": null, "appraise": null, "website": null, "memo": null, "payTypes": "\u6749\u5fb7\u5361", "shopTypes": "\u96f6\u552e", "consumeTypes": null, "cookTypes": null, "orderNum": 1000, "card4no": null, "card4noAcc": null, "district2": 418, "searchScope": null, "status": 1, "address": "\u6d66\u4e1c\u65b0\u533a\u6d66\u4e09\u8def3050\u53f7\u4e24\u697c", "name": "\u6b27\u5473\u591a \u4e09\u6797\u6613\u4e70\u5f97\u5e97", "id": 150882, "pageNo": 0, "pageCount": null, "pageSize": 10, "ids": null, "endTime": null, "startTime": null}, {"cardNumFive": null, "isSupportYj": null, "cityName": null, "districtName": null, "shopinfo": {"mid": "888002154411179", "good_flag": null, "new_flag": null, "short_name": "\u6b27\u5473\u591a", "short_name_pinyin": "ouweiduo", "status": null, "address": null, "name": null, "id": "36213"}, "mid": "888002154411179", "shopId": "36213", "netid": null, "province": 901, "district": 601, "zipcode": null, "telephone": null, "posDate": "20100805", "destineTel": null, "togoTel": null, "trafficWay": null, "signBuilding": null, "businessArea": null, "selfRoom": null, "businessTime": null, "stall": null, "consume": null, "serviceFei": null, "favourable": null, "shopMemo": null, "appraise": null, "website": null, "memo": null, "payTypes": "\u6749\u5fb7\u5361", "shopTypes": "\u96f6\u552e", "consumeTypes": null, "cookTypes": null, "orderNum": 1000, "card4no": null, "card4noAcc": null, "district2": null, "searchScope": null, "status": 1, "address": "\u5b9d\u5c71\u533a\u4e09\u95e8\u8def501\u53f7\u4e00\u697c", "name": "\u6b27\u5473\u591a \u4e09\u95e8\u4e50\u8d2d\u5e97", "id": 150883, "pageNo": 0, "pageCount": null, "pageSize": 10, "ids": null, "endTime": null, "startTime": null}, {"cardNumFive": null, "isSupportYj": null, "cityName": null, "districtName": null, "shopinfo": {"mid": "888002154411179", "good_flag": null, "new_flag": null, "short_name": "\u6b27\u5473\u591a", "short_name_pinyin": "ouweiduo", "status": null, "address": null, "name": null, "id": "36213"}, "mid": "888002154411179", "shopId": "36213", "netid": null, "province": 901, "district": 601, "zipcode": null, "telephone": null, "posDate": "20100806", "destineTel": null, "togoTel": null, "trafficWay": null, "signBuilding": null, "businessArea": null, "selfRoom": null, "businessTime": null, "stall": null, "consume": null, "serviceFei": null, "favourable": null, "shopMemo": null, "appraise": null, "website": null, "memo": null, "payTypes": "\u6749\u5fb7\u5361", "shopTypes": "\u96f6\u552e", "consumeTypes": null, "cookTypes": null, "orderNum": 1000, "card4no": null, "card4noAcc": null, "district2": 412, "searchScope": null, "status": 1, "address": "\u677e\u6c5f\u533a\u8363\u4e50\u4e2d\u8def552\u53f7-652\u53f7\u5927\u6da6\u53d1\u4e00\u697c", "name": "\u6b27\u5473\u591a \u677e\u6c5f\u5927\u6da6\u53d1\u5e97", "id": 150885, "pageNo": 0, "pageCount": null, "pageSize": 10, "ids": null, "endTime": null, "startTime": null}, {"cardNumFive": null, "isSupportYj": null, "cityName": null, "districtName": null, "shopinfo": {"mid": "888002154411179", "good_flag": null, "new_flag": null, "short_name": "\u6b27\u5473\u591a", "short_name_pinyin": "ouweiduo", "status": null, "address": null, "name": null, "id": "36213"}, "mid": "888002154411179", "shopId": "36213", "netid": null, "province": 901, "district": 601, "zipcode": null, "telephone": null, "posDate": "20100806", "destineTel": null, "togoTel": null, "trafficWay": null, "signBuilding": null, "businessArea": null, "selfRoom": null, "businessTime": null, "stall": null, "consume": null, "serviceFei": null, "favourable": null, "shopMemo": null, "appraise": null, "website": null, "memo": null, "payTypes": "\u6749\u5fb7\u5361", "shopTypes": "\u96f6\u552e", "consumeTypes": null, "cookTypes": null, "orderNum": 1000, "card4no": null, "card4noAcc": null, "district2": 412, "searchScope": null, "status": 1, "address": "\u677e\u6c5f\u533a\u8363\u4e50\u4e2d\u8def8\u53f7\u4e00\u697c", "name": "\u6b27\u5473\u591a \u677e\u6c5f\u6613\u521d\u5e97", "id": 150886, "pageNo": 0, "pageCount": null, "pageSize": 10, "ids": null, "endTime": null, "startTime": null}, {"cardNumFive": null, "isSupportYj": null, "cityName": null, "districtName": null, "shopinfo": {"mid": "888002154411179", "good_flag": null, "new_flag": null, "short_name": "\u6b27\u5473\u591a", "short_name_pinyin": "ouweiduo", "status": null, "address": null, "name": null, "id": "36213"}, "mid": "888002154411179", "shopId": "36213", "netid": null, "province": 901, "district": 601, "zipcode": null, "telephone": null, "posDate": "20100809", "destineTel": null, "togoTel": null, "trafficWay": null, "signBuilding": null, "businessArea": null, "selfRoom": null, "businessTime": null, "stall": null, "consume": null, "serviceFei": null, "favourable": null, "shopMemo": null, "appraise": null, "website": null, "memo": null, "payTypes": "\u6749\u5fb7\u5361", "shopTypes": "\u96f6\u552e", "consumeTypes": null, "cookTypes": null, "orderNum": 1000, "card4no": null, "card4noAcc": null, "district2": 406, "searchScope": null, "status": 1, "address": "\u957f\u5b81\u533a\u5929\u5c71\u897f\u8def541\u53f7\u4e00\u697c", "name": "\u6b27\u5473\u591a \u5929\u5c71\u6613\u521d\u5e97", "id": 150887, "pageNo": 0, "pageCount": null, "pageSize": 10, "ids": null, "endTime": null, "startTime": null}, {"cardNumFive": null, "isSupportYj": null, "cityName": null, "districtName": null, "shopinfo": {"mid": "888002154411179", "good_flag": null, "new_flag": null, "short_name": "\u6b27\u5473\u591a", "short_name_pinyin": "ouweiduo", "status": null, "address": null, "name": null, "id": "36213"}, "mid": "888002154411179", "shopId": "36213", "netid": null, "province": 901, "district": 601, "zipcode": null, "telephone": null, "posDate": "20100810", "destineTel": null, "togoTel": null, "trafficWay": null, "signBuilding": null, "businessArea": null, "selfRoom": null, "businessTime": null, "stall": null, "consume": null, "serviceFei": null, "favourable": null, "shopMemo": null, "appraise": null, "website": null, "memo": null, "payTypes": "\u6749\u5fb7\u5361", "shopTypes": "\u96f6\u552e", "consumeTypes": null, "cookTypes": null, "orderNum": 1000, "card4no": null, "card4noAcc": null, "district2": 405, "searchScope": null, "status": 1, "address": "\u666e\u9640\u533a\u65b0\u6751\u8def1500\u53f7\u5bb6\u4e50\u798f\u4e24\u697c", "name": "\u6b27\u5473\u591a \u4e07\u91cc\u5bb6\u4e50\u798f\u5e97", "id": 150888, "pageNo": 0, "pageCount": null, "pageSize": 10, "ids": null, "endTime": null, "startTime": null}, {"cardNumFive": null, "isSupportYj": null, "cityName": null, "districtName": null, "shopinfo": {"mid": "888002154411179", "good_flag": null, "new_flag": null, "short_name": "\u6b27\u5473\u591a", "short_name_pinyin": "ouweiduo", "status": null, "address": null, "name": null, "id": "36213"}, "mid": "888002154411179", "shopId": "36213", "netid": null, "province": 901, "district": 601, "zipcode": null, "telephone": null, "posDate": "20100809", "destineTel": null, "togoTel": null, "trafficWay": null, "signBuilding": null, "businessArea": null, "selfRoom": null, "businessTime": null, "stall": null, "consume": null, "serviceFei": null, "favourable": null, "shopMemo": null, "appraise": null, "website": null, "memo": null, "payTypes": "\u6749\u5fb7\u5361", "shopTypes": "\u96f6\u552e", "consumeTypes": null, "cookTypes": null, "orderNum": 1000, "card4no": null, "card4noAcc": null, "district2": 417, "searchScope": null, "status": 1, "address": "\u6caa\u9752\u5e73\u516c\u8def1815\u53f7\u4e00\u697c", "name": "\u6b27\u5473\u591a \u5f90\u6cfe\u5bb6\u4e50\u798f\u5e97", "id": 150890, "pageNo": 0, "pageCount": null, "pageSize": 10, "ids": null, "endTime": null, "startTime": null}, {"cardNumFive": null, "isSupportYj": null, "cityName": null, "districtName": null, "shopinfo": {"mid": "888002154411179", "good_flag": null, "new_flag": null, "short_name": "\u6b27\u5473\u591a", "short_name_pinyin": "ouweiduo", "status": null, "address": null, "name": null, "id": "36213"}, "mid": "888002154411179", "shopId": "36213", "netid": null, "province": 901, "district": 601, "zipcode": null, "telephone": null, "posDate": "20100804", "destineTel": null, "togoTel": null, "trafficWay": null, "signBuilding": null, "businessArea": null, "selfRoom": null, "businessTime": null, "stall": null, "consume": null, "serviceFei": null, "favourable": null, "shopMemo": null, "appraise": null, "website": null, "memo": null, "payTypes": "\u6749\u5fb7\u5361", "shopTypes": "\u96f6\u552e", "consumeTypes": null, "cookTypes": null, "orderNum": 1000, "card4no": null, "card4noAcc": null, "district2": 418, "searchScope": null, "status": 1, "address": "\u91d1\u9ad8\u8def1256\u53f7\u4e00\u697c", "name": "\u6b27\u5473\u591a \u6768\u9ad8\u5317\u8def\u6613\u521d\u5e97", "id": 150891, "pageNo": 0, "pageCount": null, "pageSize": 10, "ids": null, "endTime": null, "startTime": null}, {"cardNumFive": null, "isSupportYj": null, "cityName": null, "districtName": null, "shopinfo": {"mid": "888002154411179", "good_flag": null, "new_flag": null, "short_name": "\u6b27\u5473\u591a", "short_name_pinyin": "ouweiduo", "status": null, "address": null, "name": null, "id": "36213"}, "mid": "888002154411179", "shopId": "36213", "netid": null, "province": 901, "district": 601, "zipcode": null, "telephone": null, "posDate": "20100805", "destineTel": null, "togoTel": null, "trafficWay": null, "signBuilding": null, "businessArea": null, "selfRoom": null, "businessTime": null, "stall": null, "consume": null, "serviceFei": null, "favourable": null, "shopMemo": null, "appraise": null, "website": null, "memo": null, "payTypes": "\u6749\u5fb7\u5361", "shopTypes": "\u96f6\u552e", "consumeTypes": null, "cookTypes": null, "orderNum": 1000, "card4no": null, "card4noAcc": null, "district2": 407, "searchScope": null, "status": 1, "address": "\u6768\u6d66\u533a\u9ec4\u5174\u8def1618\u53f7\u4e00\u697c", "name": "\u6b27\u5473\u591a \u6768\u6d66\u5927\u6da6\u53d1\u5e97", "id": 150892, "pageNo": 0, "pageCount": null, "pageSize": 10, "ids": null, "endTime": null, "startTime": null}], "pageLimit": 7160, "size": 10}