{"pageCount": 1095, "count": 10942, "pageNo": 720, "subShopInfo": {"cardNumFive": "", "isSupportYj": "", "cityName": null, "districtName": null, "shopinfo": {"mid": null, "good_flag": null, "new_flag": null, "short_name": null, "short_name_pinyin": null, "status": null, "address": "", "name": "", "id": null}, "mid": null, "shopId": null, "netid": null, "province": 901, "district": null, "zipcode": null, "telephone": null, "posDate": null, "destineTel": null, "togoTel": null, "trafficWay": null, "signBuilding": null, "businessArea": null, "selfRoom": null, "businessTime": null, "stall": null, "consume": null, "serviceFei": null, "favourable": null, "shopMemo": "1", "appraise": null, "website": null, "memo": null, "payTypes": "", "shopTypes": "", "consumeTypes": null, "cookTypes": null, "orderNum": null, "card4no": null, "card4noAcc": null, "district2": null, "searchScope": null, "status": null, "address": "", "name": null, "id": null, "pageNo": 719, "pageCount": null, "pageSize": 10, "ids": null, "endTime": null, "startTime": null}, "list": [{"cardNumFive": null, "isSupportYj": null, "cityName": null, "districtName": null, "shopinfo": {"mid": "888888854410148", "good_flag": null, "new_flag": null, "short_name": "\u57f9\u829d", "short_name_pinyin": "peizhi", "status": null, "address": null, "name": null, "id": "32733"}, "mid": "888888854410148", "shopId": "32733", "netid": null, "province": 901, "district": 601, "zipcode": null, "telephone": "54248028-304", "posDate": "20090415", "destineTel": null, "togoTel": null, "trafficWay": null, "signBuilding": null, "businessArea": null, "selfRoom": null, "businessTime": null, "stall": null, "consume": null, "serviceFei": null, "favourable": null, "shopMemo": null, "appraise": null, "website": null, "memo": null, "payTypes": "\u6749\u5fb7\u5361", "shopTypes": "\u4e13\u5356", "consumeTypes": null, "cookTypes": null, "orderNum": 1000, "card4no": null, "card4noAcc": null, "district2": 405, "searchScope": null, "status": 1, "address": "\u65b0\u6751\u8def1500\u53f7\u4e07\u91cc\u5bb6\u4e50\u798f1\u697c\u513f\u7ae5\u4e50\u56ed\u65c1", "name": "\u57f9\u829d \u4e07\u91cc\u5e97", "id": 140256, "pageNo": 0, "pageCount": null, "pageSize": 10, "ids": null, "endTime": null, "startTime": null}, {"cardNumFive": null, "isSupportYj": null, "cityName": null, "districtName": null, "shopinfo": {"mid": "888888854410148", "good_flag": null, "new_flag": null, "short_name": "\u57f9\u829d", "short_name_pinyin": "peizhi", "status": null, "address": null, "name": null, "id": "36179"}, "mid": "888888854410148", "shopId": "36179", "netid": null, "province": 901, "district": 601, "zipcode": null, "telephone": null, "posDate": "20100805", "destineTel": null, "togoTel": null, "trafficWay": null, "signBuilding": null, "businessArea": null, "selfRoom": null, "businessTime": null, "stall": null, "consume": null, "serviceFei": null, "favourable": null, "shopMemo": null, "appraise": null, "website": null, "memo": null, "payTypes": "\u6749\u5fb7\u5361", "shopTypes": "\u4e13\u5356", "consumeTypes": null, "cookTypes": null, "orderNum": 1000, "card4no": null, "card4noAcc": null, "district2": 417, "searchScope": null, "status": 1, "address": "\u6caa\u9752\u5e73\u516c\u8def1829\u53f7\u5bb6\u4e50\u798f\u5f90\u6cfe\u5e971\u697c", "name": "\u57f9\u829d \u5bb6\u4e50\u798f\u5f90\u6cfe\u5e97", "id": 150747, "pageNo": 0, "pageCount": null, "pageSize": 10, "ids": null, "endTime": null, "startTime": null}, {"cardNumFive": null, "isSupportYj": null, "cityName": null, "districtName": null, "shopinfo": {"mid": "888888872300037", "good_flag": "2", "new_flag": "2", "short_name": "\u5f6d\u6751\u6885\u56fd\u9645\u7f8e\u5bb9", "short_name_pinyin": "pengcunmeiguojimeirong", "status": null, "address": null, "name": null, "id": "32737"}, "mid": "888888872300037", "shopId": "32737", "netid": null, "province": 901, "district": 601, "zipcode": "201206", "telephone": "38700166", "posDate": "20070405", "destineTel": null, "togoTel": null, "trafficWay": "984\u8def \u4e0a\u5ddd\u7ebf", "signBuilding": null, "businessArea": null, "selfRoom": null, "businessTime": null, "stall": null, "consume": null, "serviceFei": null, "favourable": null, "shopMemo": null, "appraise": null, "website": null, "memo": null, "payTypes": "\u6749\u5fb7\u5361", "shopTypes": "\u7f8e\u5bb9\u7f8e\u53d1", "consumeTypes": null, "cookTypes": null, "orderNum": 1000, "card4no": null, "card4noAcc": null, "district2": 418, "searchScope": null, "status": 1, "address": "\u78a7\u4e91\u8def1186\u53f7", "name": "\u5f6d\u6751\u6885\u56fd\u9645\u7f8e\u5bb9 \u78a7\u4e91\u5e97", "id": 140262, "pageNo": 0, "pageCount": null, "pageSize": 10, "ids": null, "endTime": null, "startTime": null}, {"cardNumFive": null, "isSupportYj": null, "cityName": null, "districtName": null, "shopinfo": {"mid": "888888872300037", "good_flag": "2", "new_flag": "2", "short_name": "\u5f6d\u6751\u6885\u56fd\u9645\u7f8e\u5bb9", "short_name_pinyin": "pengcunmeiguojimeirong", "status": null, "address": null, "name": null, "id": "32737"}, "mid": "888888872300037", "shopId": "32737", "netid": null, "province": 901, "district": 601, "zipcode": "200000", "telephone": null, "posDate": "20070405", "destineTel": null, "togoTel": null, "trafficWay": "\u516c\u4ea4984", "signBuilding": null, "businessArea": null, "selfRoom": null, "businessTime": null, "stall": null, "consume": null, "serviceFei": null, "favourable": null, "shopMemo": null, "appraise": null, "website": null, "memo": null, "payTypes": "\u6749\u5fb7\u5361", "shopTypes": "\u7f8e\u5bb9\u7f8e\u53d1", "consumeTypes": null, "cookTypes": null, "orderNum": 1000, "card4no": null, "card4noAcc": null, "district2": 418, "searchScope": null, "status": 1, "address": "\u4e1c\u65b9\u8def1816\u53f7", "name": "\u5f6d\u6751\u6885\u56fd\u9645\u7f8e\u5bb9 \u4e1c\u65b9\u5e97", "id": 140266, "pageNo": 0, "pageCount": null, "pageSize": 10, "ids": null, "endTime": null, "startTime": null}, {"cardNumFive": null, "isSupportYj": null, "cityName": null, "districtName": null, "shopinfo": {"mid": "888888872300037", "good_flag": "2", "new_flag": "2", "short_name": "\u5f6d\u6751\u6885\u56fd\u9645\u7f8e\u5bb9", "short_name_pinyin": "pengcunmeiguojimeirong", "status": null, "address": null, "name": null, "id": "32737"}, "mid": "888888872300037", "shopId": "32737", "netid": null, "province": 901, "district": 601, "zipcode": "200135", "telephone": "51379065", "posDate": "20070405", "destineTel": null, "togoTel": null, "trafficWay": "\u516c\u4ea4814 775", "signBuilding": null, "businessArea": null, "selfRoom": null, "businessTime": null, "stall": null, "consume": null, "serviceFei": null, "favourable": null, "shopMemo": null, "appraise": null, "website": null, "memo": null, "payTypes": "\u6749\u5fb7\u5361", "shopTypes": "\u7f8e\u5bb9\u7f8e\u53d1", "consumeTypes": null, "cookTypes": null, "orderNum": 1000, "card4no": null, "card4noAcc": null, "district2": 418, "searchScope": null, "status": 1, "address": "\u7fbd\u5c71\u8def122\u53f7", "name": "\u5f6d\u6751\u6885\u56fd\u9645\u7f8e\u5bb9 \u7fbd\u5c71\u5e97", "id": 140275, "pageNo": 0, "pageCount": null, "pageSize": 10, "ids": null, "endTime": null, "startTime": null}, {"cardNumFive": null, "isSupportYj": null, "cityName": null, "districtName": null, "shopinfo": {"mid": "888888853110039", "good_flag": "1", "new_flag": "2", "short_name": "\u6d66\u4e1c\u5546\u573a", "short_name_pinyin": "pudongshangchang", "status": null, "address": null, "name": null, "id": "32758"}, "mid": "888888853110039", "shopId": "32758", "netid": null, "province": 901, "district": 601, "zipcode": null, "telephone": "58744399", "posDate": "20070705", "destineTel": null, "togoTel": null, "trafficWay": "\u516c\u4ea4572 \u96a7\u9053\u4e8c\u7ebf", "signBuilding": "\u957f\u9752\u516c\u56ed", "businessArea": null, "selfRoom": "\u65e0", "businessTime": "10:00~22:00", "stall": "\u6709", "consume": null, "serviceFei": null, "favourable": null, "shopMemo": null, "appraise": null, "website": null, "memo": null, "payTypes": "\u6749\u5fb7\u5361   \u5361\u62bc\u91d1\u6d88\u8d39", "shopTypes": "\u767e\u8d27", "consumeTypes": null, "cookTypes": null, "orderNum": 1000, "card4no": null, "card4noAcc": null, "district2": 418, "searchScope": null, "status": 1, "address": "\u660c\u91cc\u8def337\u53f7", "name": "\u6d66\u4e1c\u5546\u573a \u660c\u91cc\u8def\u5e97", "id": 140306, "pageNo": 0, "pageCount": null, "pageSize": 10, "ids": null, "endTime": null, "startTime": null}, {"cardNumFive": null, "isSupportYj": null, "cityName": null, "districtName": null, "shopinfo": {"mid": "888888853110084", "good_flag": "1", "new_flag": "2", "short_name": "\u6d66\u4e1c\u5546\u573a", "short_name_pinyin": "pudongshangchang", "status": null, "address": null, "name": null, "id": "32759"}, "mid": "888888853110084", "shopId": "32759", "netid": null, "province": 901, "district": 601, "zipcode": null, "telephone": "58801906/50565573/50565576", "posDate": "20090423", "destineTel": null, "togoTel": null, "trafficWay": null, "signBuilding": null, "businessArea": null, "selfRoom": null, "businessTime": null, "stall": null, "consume": null, "serviceFei": null, "favourable": null, "shopMemo": null, "appraise": null, "website": null, "memo": null, "payTypes": "\u6749\u5fb7\u5361", "shopTypes": "\u767e\u8d27", "consumeTypes": null, "cookTypes": null, "orderNum": 1000, "card4no": null, "card4noAcc": null, "district2": 418, "searchScope": null, "status": 1, "address": "\u6210\u5c71\u8def500\u53f7", "name": "\u6d66\u4e1c\u5546\u573a \u6210\u5c71\u8def\u5e97", "id": 140307, "pageNo": 0, "pageCount": null, "pageSize": 10, "ids": null, "endTime": null, "startTime": null}, {"cardNumFive": null, "isSupportYj": null, "cityName": null, "districtName": null, "shopinfo": {"mid": "888888853110075", "good_flag": null, "new_flag": null, "short_name": "\u6d66\u4e1c\u5546\u573a", "short_name_pinyin": "pudongshangchang", "status": null, "address": null, "name": null, "id": "41063"}, "mid": "888888853110075", "shopId": "41063", "netid": null, "province": 901, "district": 601, "zipcode": null, "telephone": "68397911", "posDate": null, "destineTel": null, "togoTel": null, "trafficWay": null, "signBuilding": null, "businessArea": null, "selfRoom": null, "businessTime": null, "stall": null, "consume": null, "serviceFei": null, "favourable": null, "shopMemo": null, "appraise": null, "website": null, "memo": null, "payTypes": "\u6749\u5fb7\u5361", "shopTypes": "\u767e\u8d27", "consumeTypes": null, "cookTypes": null, "orderNum": 1000, "card4no": null, "card4noAcc": null, "district2": 418, "searchScope": null, "status": 1, "address": "\u5ddd\u6c99\u8def4825\u53f7", "name": "\u6d66\u4e1c\u5546\u573a \u5ddd\u6c99\u5e97", "id": 179064, "pageNo": 0, "pageCount": null, "pageSize": 10, "ids": null, "endTime": null, "startTime": null}, {"cardNumFive": null, "isSupportYj": null, "cityName": null, "districtName": null, "shopinfo": {"mid": "888888853110092", "good_flag": null, "new_flag": null, "short_name": "\u6d66\u4e1c\u5546\u573a", "short_name_pinyin": "pudongshangchang", "status": null, "address": null, "name": null, "id": "41064"}, "mid": "888888853110092", "shopId": "41064", "netid": null, "province": 901, "district": 601, "zipcode": null, "telephone": "38022999", "posDate": null, "destineTel": null, "togoTel": null, "trafficWay": null, "signBuilding": null, "businessArea": null, "selfRoom": null, "businessTime": null, "stall": null, "consume": null, "serviceFei": null, "favourable": null, "shopMemo": null, "appraise": null, "website": null, "memo": null, "payTypes": "\u6749\u5fb7\u5361", "shopTypes": "\u767e\u8d27", "consumeTypes": null, "cookTypes": null, "orderNum": 1000, "card4no": null, "card4noAcc": null, "district2": 418, "searchScope": null, "status": 1, "address": "\u4e1c\u95e8\u5927\u8857200\u53f7", "name": "\u6d66\u4e1c\u5546\u573a \u5357\u6c47\u5e97", "id": 179065, "pageNo": 0, "pageCount": null, "pageSize": 10, "ids": null, "endTime": null, "startTime": null}, {"cardNumFive": null, "isSupportYj": null, "cityName": null, "districtName": null, "shopinfo": {"mid": "888002153110300", "good_flag": null, "new_flag": null, "short_name": "\u6d66\u4e1c\u5546\u573a", "short_name_pinyin": "pudongshangchang", "status": null, "address": null, "name": null, "id": "43393"}, "mid": "888002153110300", "shopId": "43393", "netid": null, "province": 901, "district": 601, "zipcode": null, "telephone": null, "posDate": null, "destineTel": null, "togoTel": null, "trafficWay": null, "signBuilding": null, "businessArea": null, "selfRoom": null, "businessTime": null, "stall": null, "consume": null, "serviceFei": null, "favourable": null, "shopMemo": null, "appraise": null, "website": null, "memo": null, "payTypes": "\u6749\u5fb7\u5361", "shopTypes": "\u767e\u8d27", "consumeTypes": null, "cookTypes": null, "orderNum": 1000, "card4no": null, "card4noAcc": null, "district2": 413, "searchScope": null, "status": 1, "address": "\u5357\u4e2d\u8def80\u53f78\u5c42", "name": "\u6d66\u4e1c\u5546\u573a \u5949\u8d24\u5e97", "id": 195274, "pageNo": 0, "pageCount": null, "pageSize": 10, "ids": null, "endTime": null, "startTime": null}], "pageLimit": 7190, "size": 10}