{"pageCount": 1095, "count": 10942, "pageNo": 722, "subShopInfo": {"cardNumFive": "", "isSupportYj": "", "cityName": null, "districtName": null, "shopinfo": {"mid": null, "good_flag": null, "new_flag": null, "short_name": null, "short_name_pinyin": null, "status": null, "address": "", "name": "", "id": null}, "mid": null, "shopId": null, "netid": null, "province": 901, "district": null, "zipcode": null, "telephone": null, "posDate": null, "destineTel": null, "togoTel": null, "trafficWay": null, "signBuilding": null, "businessArea": null, "selfRoom": null, "businessTime": null, "stall": null, "consume": null, "serviceFei": null, "favourable": null, "shopMemo": "1", "appraise": null, "website": null, "memo": null, "payTypes": "", "shopTypes": "", "consumeTypes": null, "cookTypes": null, "orderNum": null, "card4no": null, "card4noAcc": null, "district2": null, "searchScope": null, "status": null, "address": "", "name": null, "id": null, "pageNo": 721, "pageCount": null, "pageSize": 10, "ids": null, "endTime": null, "startTime": null}, "list": [{"cardNumFive": null, "isSupportYj": null, "cityName": null, "districtName": null, "shopinfo": {"mid": "T00000000000019", "good_flag": "1", "new_flag": "2", "short_name": "\u4fcf\u6c5f\u5357", "short_name_pinyin": "qiaojiangnan", "status": null, "address": null, "name": null, "id": "32808"}, "mid": "T00000000000019", "shopId": "32808", "netid": null, "province": 901, "district": 601, "zipcode": null, "telephone": "61590299", "posDate": "20090623", "destineTel": null, "togoTel": null, "trafficWay": null, "signBuilding": null, "businessArea": null, "selfRoom": null, "businessTime": null, "stall": null, "consume": null, "serviceFei": null, "favourable": null, "shopMemo": null, "appraise": null, "website": null, "memo": null, "payTypes": "\u6749\u5fb7\u5361", "shopTypes": "\u9910\u996e", "consumeTypes": null, "cookTypes": null, "orderNum": 1000, "card4no": null, "card4noAcc": null, "district2": 418, "searchScope": null, "status": 1, "address": "\u82b3\u7538\u8def300\u53f7\u8054\u6d0b\u5e7f\u573a2F", "name": "\u4fcf\u6c5f\u5357 \u6d66\u4e1c\u8054\u6d0b\u5e7f\u573a\u5e97", "id": 140548, "pageNo": 0, "pageCount": null, "pageSize": 10, "ids": null, "endTime": null, "startTime": null}, {"cardNumFive": null, "isSupportYj": null, "cityName": null, "districtName": null, "shopinfo": {"mid": "T00000000000019", "good_flag": "1", "new_flag": "2", "short_name": "\u4fcf\u6c5f\u5357", "short_name_pinyin": "qiaojiangnan", "status": null, "address": null, "name": null, "id": "32808"}, "mid": "T00000000000019", "shopId": "32808", "netid": null, "province": 901, "district": 601, "zipcode": null, "telephone": "50471817\uff1b50471917", "posDate": "20090623", "destineTel": null, "togoTel": null, "trafficWay": null, "signBuilding": null, "businessArea": null, "selfRoom": null, "businessTime": null, "stall": null, "consume": null, "serviceFei": null, "favourable": null, "shopMemo": null, "appraise": null, "website": null, "memo": null, "payTypes": "\u6749\u5fb7\u5361", "shopTypes": "\u9910\u996e", "consumeTypes": null, "cookTypes": null, "orderNum": 1000, "card4no": null, "card4noAcc": null, "district2": 418, "searchScope": null, "status": 1, "address": "\u9646\u5bb6\u5634\u897f\u8def168\u53f7\u6b63\u5927\u5e7f\u573a10F", "name": "\u4fcf\u6c5f\u5357 \u6d66\u4e1c\u6b63\u5927\u5e7f\u573a\u5e97", "id": 140549, "pageNo": 0, "pageCount": null, "pageSize": 10, "ids": null, "endTime": null, "startTime": null}, {"cardNumFive": null, "isSupportYj": null, "cityName": null, "districtName": null, "shopinfo": {"mid": "888888854410180", "good_flag": "2", "new_flag": "1", "short_name": "\u742a\u52a0\u4e50", "short_name_pinyin": "qijiale", "status": null, "address": null, "name": null, "id": "32772"}, "mid": "888888854410180", "shopId": "32772", "netid": null, "province": 901, "district": 601, "zipcode": null, "telephone": "62397857", "posDate": null, "destineTel": null, "togoTel": null, "trafficWay": null, "signBuilding": null, "businessArea": null, "selfRoom": null, "businessTime": null, "stall": null, "consume": null, "serviceFei": null, "favourable": null, "shopMemo": null, "appraise": null, "website": null, "memo": null, "payTypes": "\u6749\u5fb7\u5361", "shopTypes": "\u96f6\u552e", "consumeTypes": null, "cookTypes": null, "orderNum": 1000, "card4no": null, "card4noAcc": null, "district2": 406, "searchScope": null, "status": 1, "address": "\u5317\u6e14\u8def76\u53f7A107\u5ba4", "name": "\u742a\u52a0\u4e50 \u5317\u6e14\u8def\u5e97", "id": 140394, "pageNo": 0, "pageCount": null, "pageSize": 10, "ids": null, "endTime": null, "startTime": null}, {"cardNumFive": null, "isSupportYj": null, "cityName": null, "districtName": null, "shopinfo": {"mid": "888002156610028", "good_flag": "2", "new_flag": "1", "short_name": "\u5947\u7f8e\u978b\u4e1a", "short_name_pinyin": "qimeixieye", "status": null, "address": null, "name": null, "id": "32771"}, "mid": "888002156610028", "shopId": "32771", "netid": null, "province": 901, "district": 601, "zipcode": null, "telephone": null, "posDate": "20100623", "destineTel": null, "togoTel": null, "trafficWay": null, "signBuilding": null, "businessArea": null, "selfRoom": null, "businessTime": null, "stall": null, "consume": null, "serviceFei": null, "favourable": null, "shopMemo": null, "appraise": null, "website": null, "memo": null, "payTypes": "\u6749\u5fb7\u5361", "shopTypes": "\u670d\u9970\u5bb6\u7eba", "consumeTypes": null, "cookTypes": null, "orderNum": 1000, "card4no": null, "card4noAcc": null, "district2": 401, "searchScope": null, "status": 1, "address": "\u6dee\u6d77\u4e2d\u8def611\u53f7", "name": "\u5947\u7f8e\u978b\u4e1a \u6dee\u6d77\u4e2d\u8def\u5e97", "id": 140393, "pageNo": 0, "pageCount": null, "pageSize": 10, "ids": null, "endTime": null, "startTime": null}, {"cardNumFive": null, "isSupportYj": null, "cityName": null, "districtName": null, "shopinfo": {"mid": "888888856910356", "good_flag": "2", "new_flag": "1", "short_name": "\u9752\u5c71\u6d0b\u670d", "short_name_pinyin": "qingshanyangfu", "status": null, "address": null, "name": null, "id": "32815"}, "mid": "888888856910356", "shopId": "32815", "netid": null, "province": 901, "district": 601, "zipcode": null, "telephone": "61155291", "posDate": null, "destineTel": null, "togoTel": null, "trafficWay": null, "signBuilding": null, "businessArea": null, "selfRoom": null, "businessTime": null, "stall": null, "consume": null, "serviceFei": null, "favourable": null, "shopMemo": null, "appraise": null, "website": null, "memo": null, "payTypes": "\u6749\u5fb7\u5361", "shopTypes": "\u670d\u9970\u5bb6\u7eba", "consumeTypes": null, "cookTypes": null, "orderNum": 1000, "card4no": null, "card4noAcc": null, "district2": 406, "searchScope": null, "status": 1, "address": "\u957f\u5b81\u8def1018\u53f74\u697c4049\u5ba4", "name": "\u9752\u5c71\u6d0b\u670d \u957f\u5b81\u8def\u5e97", "id": 140565, "pageNo": 0, "pageCount": null, "pageSize": 10, "ids": null, "endTime": null, "startTime": null}, {"cardNumFive": null, "isSupportYj": null, "cityName": null, "districtName": null, "shopinfo": {"mid": "888888880210026", "good_flag": "2", "new_flag": "2", "short_name": "\u79e6\u9e4f\u53e3\u8154", "short_name_pinyin": "qinpengkouqiang", "status": null, "address": null, "name": null, "id": "32810"}, "mid": "888888880210026", "shopId": "32810", "netid": null, "province": 901, "district": 601, "zipcode": null, "telephone": "62717615 /62717619", "posDate": "20081013", "destineTel": null, "togoTel": null, "trafficWay": "\u516c\u4ea436 109 974", "signBuilding": null, "businessArea": "100", "selfRoom": null, "businessTime": "9:00~22:30", "stall": null, "consume": null, "serviceFei": null, "favourable": null, "shopMemo": null, "appraise": null, "website": null, "memo": "\u6301\u6749\u5fb7\u5361\u5168\u53e3\u6d01\u7259\u53ef\u4eab\u53d75\u6298\u4f18\u60e0\uff1b\u6301\u6749\u5fb7\u5361\u5c31\u8bca\u6cbb\u7597\u53ef\u4eab88\u6298\u4f18\u60e0", "payTypes": ",,\u6749\u5fb7\u5361", "shopTypes": "\u5176\u4ed6", "consumeTypes": null, "cookTypes": null, "orderNum": 1000, "card4no": null, "card4noAcc": null, "district2": 404, "searchScope": null, "status": 1, "address": "\u5927\u7530\u8def129\u5f041\u53f7E\u5c42", "name": "\u79e6\u9e4f\u53e3\u8154 \u738b\u8005\u9f7f\u79d1", "id": 140560, "pageNo": 0, "pageCount": null, "pageSize": 10, "ids": null, "endTime": null, "startTime": null}, {"cardNumFive": null, "isSupportYj": null, "cityName": null, "districtName": null, "shopinfo": {"mid": "888888856910023", "good_flag": "2", "new_flag": "1", "short_name": "\u4e03\u5339\u72fc", "short_name_pinyin": "qipilang", "status": null, "address": null, "name": null, "id": "32766"}, "mid": "888888856910023", "shopId": "32766", "netid": null, "province": 901, "district": 601, "zipcode": "201600", "telephone": "57812149", "posDate": "20070130", "destineTel": "57812149", "togoTel": "57812149", "trafficWay": "\u60e0\u677e\u7ebf \u677e\u6885\u7ebf", "signBuilding": null, "businessArea": "1000\u591a\u5e73\u65b9\u7c73", "selfRoom": "\u65e0", "businessTime": "10:00~21:00", "stall": "\u65e0", "consume": null, "serviceFei": null, "favourable": null, "shopMemo": null, "appraise": null, "website": null, "memo": null, "payTypes": "\u6749\u5fb7\u5361", "shopTypes": "\u670d\u9970\u5bb6\u7eba", "consumeTypes": null, "cookTypes": null, "orderNum": 1000, "card4no": null, "card4noAcc": null, "district2": 412, "searchScope": null, "status": 1, "address": "\u677e\u6c5f\u7f38\u750f\u5df759\u53f7", "name": "\u4e03\u5339\u72fc \u677e\u6c5f\u5e97", "id": 140387, "pageNo": 0, "pageCount": null, "pageSize": 10, "ids": null, "endTime": null, "startTime": null}, {"cardNumFive": null, "isSupportYj": null, "cityName": null, "districtName": null, "shopinfo": {"mid": "888002154411174", "good_flag": "2", "new_flag": "1", "short_name": "\u542f\u5ef7\u4fdd\u5065", "short_name_pinyin": "qitingbaojian", "status": null, "address": null, "name": null, "id": "32778"}, "mid": "888002154411174", "shopId": "32778", "netid": null, "province": 901, "district": 601, "zipcode": null, "telephone": null, "posDate": "20100624", "destineTel": null, "togoTel": null, "trafficWay": null, "signBuilding": null, "businessArea": null, "selfRoom": null, "businessTime": null, "stall": null, "consume": null, "serviceFei": null, "favourable": null, "shopMemo": null, "appraise": null, "website": null, "memo": null, "payTypes": "\u6749\u5fb7\u5361", "shopTypes": "\u96f6\u552e", "consumeTypes": null, "cookTypes": null, "orderNum": 1000, "card4no": null, "card4noAcc": null, "district2": 418, "searchScope": null, "status": 1, "address": "\u6d66\u4e1c\u4e73\u5c71\u8def205\u53f7", "name": "\u542f\u5ef7\u4fdd\u5065 \u4e73\u5c71\u8def\u5e97", "id": 140401, "pageNo": 0, "pageCount": null, "pageSize": 10, "ids": null, "endTime": null, "startTime": null}, {"cardNumFive": null, "isSupportYj": null, "cityName": null, "districtName": null, "shopinfo": {"mid": "888002154411174", "good_flag": "2", "new_flag": "1", "short_name": "\u542f\u5ef7\u4fdd\u5065", "short_name_pinyin": "qitingbaojian", "status": null, "address": null, "name": null, "id": "32778"}, "mid": "888002154411174", "shopId": "32778", "netid": null, "province": 901, "district": 601, "zipcode": null, "telephone": null, "posDate": "20100624", "destineTel": null, "togoTel": null, "trafficWay": null, "signBuilding": null, "businessArea": null, "selfRoom": null, "businessTime": null, "stall": null, "consume": null, "serviceFei": null, "favourable": null, "shopMemo": null, "appraise": null, "website": null, "memo": null, "payTypes": "\u6749\u5fb7\u5361", "shopTypes": "\u96f6\u552e", "consumeTypes": null, "cookTypes": null, "orderNum": 1000, "card4no": null, "card4noAcc": null, "district2": 410, "searchScope": null, "status": 1, "address": "\u5ef6\u957f\u4e2d\u8def512\u53f7104\u5ba4", "name": "\u542f\u5ef7\u4fdd\u5065 \u5ef6\u957f\u4e2d\u8def\u5e97", "id": 140404, "pageNo": 0, "pageCount": null, "pageSize": 10, "ids": null, "endTime": null, "startTime": null}, {"cardNumFive": null, "isSupportYj": null, "cityName": null, "districtName": null, "shopinfo": {"mid": "888002154411174", "good_flag": "2", "new_flag": "1", "short_name": "\u542f\u5ef7\u4fdd\u5065", "short_name_pinyin": "qitingbaojian", "status": null, "address": null, "name": null, "id": "32778"}, "mid": "888002154411174", "shopId": "32778", "netid": null, "province": 901, "district": 601, "zipcode": null, "telephone": null, "posDate": "20100624", "destineTel": null, "togoTel": null, "trafficWay": null, "signBuilding": null, "businessArea": null, "selfRoom": null, "businessTime": null, "stall": null, "consume": null, "serviceFei": null, "favourable": null, "shopMemo": null, "appraise": null, "website": null, "memo": null, "payTypes": "\u6749\u5fb7\u5361", "shopTypes": "\u96f6\u552e", "consumeTypes": null, "cookTypes": null, "orderNum": 1000, "card4no": null, "card4noAcc": null, "district2": 410, "searchScope": null, "status": 1, "address": "\u82b7\u6c5f\u4e2d\u8def433\u53f7", "name": "\u542f\u5ef7\u4fdd\u5065 \u82b7\u6c5f\u4e2d\u8def\u5e97", "id": 140405, "pageNo": 0, "pageCount": null, "pageSize": 10, "ids": null, "endTime": null, "startTime": null}], "pageLimit": 7210, "size": 10}