{"pageCount": 1095, "count": 10942, "pageNo": 721, "subShopInfo": {"cardNumFive": "", "isSupportYj": "", "cityName": null, "districtName": null, "shopinfo": {"mid": null, "good_flag": null, "new_flag": null, "short_name": null, "short_name_pinyin": null, "status": null, "address": "", "name": "", "id": null}, "mid": null, "shopId": null, "netid": null, "province": 901, "district": null, "zipcode": null, "telephone": null, "posDate": null, "destineTel": null, "togoTel": null, "trafficWay": null, "signBuilding": null, "businessArea": null, "selfRoom": null, "businessTime": null, "stall": null, "consume": null, "serviceFei": null, "favourable": null, "shopMemo": "1", "appraise": null, "website": null, "memo": null, "payTypes": "", "shopTypes": "", "consumeTypes": null, "cookTypes": null, "orderNum": null, "card4no": null, "card4noAcc": null, "district2": null, "searchScope": null, "status": null, "address": "", "name": null, "id": null, "pageNo": 720, "pageCount": null, "pageSize": 10, "ids": null, "endTime": null, "startTime": null}, "list": [{"cardNumFive": null, "isSupportYj": null, "cityName": null, "districtName": null, "shopinfo": {"mid": "888002155330005", "good_flag": "2", "new_flag": "1", "short_name": "\u666e\u98de", "short_name_pinyin": "pufei", "status": null, "address": null, "name": null, "id": "32763"}, "mid": "888002155330005", "shopId": "32763", "netid": null, "province": 901, "district": 601, "zipcode": null, "telephone": "50569153", "posDate": null, "destineTel": null, "togoTel": null, "trafficWay": null, "signBuilding": null, "businessArea": null, "selfRoom": null, "businessTime": null, "stall": null, "consume": null, "serviceFei": null, "favourable": null, "shopMemo": null, "appraise": null, "website": null, "memo": null, "payTypes": "\u6749\u5fb7\u5361", "shopTypes": "\u96f6\u552e", "consumeTypes": null, "cookTypes": null, "orderNum": 1000, "card4no": null, "card4noAcc": null, "district2": 418, "searchScope": null, "status": 1, "address": "\u5fb7\u5dde\u8def453\u53f7", "name": "\u666e\u98de \u5fb7\u5dde\u8def\u5e97", "id": 140313, "pageNo": 0, "pageCount": null, "pageSize": 10, "ids": null, "endTime": null, "startTime": null}, {"cardNumFive": null, "isSupportYj": null, "cityName": null, "districtName": null, "shopinfo": {"mid": "888002155330005", "good_flag": "2", "new_flag": "1", "short_name": "\u666e\u98de", "short_name_pinyin": "pufei", "status": null, "address": null, "name": null, "id": "32763"}, "mid": "888002155330005", "shopId": "32763", "netid": null, "province": 901, "district": 601, "zipcode": null, "telephone": "58326492", "posDate": null, "destineTel": null, "togoTel": null, "trafficWay": null, "signBuilding": null, "businessArea": null, "selfRoom": null, "businessTime": null, "stall": null, "consume": null, "serviceFei": null, "favourable": null, "shopMemo": null, "appraise": null, "website": null, "memo": null, "payTypes": "\u6749\u5fb7\u5361", "shopTypes": "\u96f6\u552e", "consumeTypes": null, "cookTypes": null, "orderNum": 1000, "card4no": null, "card4noAcc": null, "district2": 418, "searchScope": null, "status": 1, "address": "\u6d77\u9633\u8def621\u53f7", "name": "\u666e\u98de \u6d77\u9633\u8def\u5e97", "id": 140315, "pageNo": 0, "pageCount": null, "pageSize": 10, "ids": null, "endTime": null, "startTime": null}, {"cardNumFive": null, "isSupportYj": null, "cityName": null, "districtName": null, "shopinfo": {"mid": "888002155330005", "good_flag": "2", "new_flag": "1", "short_name": "\u666e\u98de", "short_name_pinyin": "pufei", "status": null, "address": null, "name": null, "id": "32763"}, "mid": "888002155330005", "shopId": "32763", "netid": null, "province": 901, "district": 601, "zipcode": null, "telephone": "58126879", "posDate": null, "destineTel": null, "togoTel": null, "trafficWay": null, "signBuilding": null, "businessArea": null, "selfRoom": null, "businessTime": null, "stall": null, "consume": null, "serviceFei": null, "favourable": null, "shopMemo": null, "appraise": null, "website": null, "memo": null, "payTypes": "\u6749\u5fb7\u5361", "shopTypes": "\u96f6\u552e", "consumeTypes": null, "cookTypes": null, "orderNum": 1000, "card4no": null, "card4noAcc": null, "district2": 418, "searchScope": null, "status": 1, "address": "\u5eb7\u6865\u8def1125.1127\u53f7", "name": "\u666e\u98de \u5eb7\u6865\u8def\u5e97", "id": 140321, "pageNo": 0, "pageCount": null, "pageSize": 10, "ids": null, "endTime": null, "startTime": null}, {"cardNumFive": null, "isSupportYj": null, "cityName": null, "districtName": null, "shopinfo": {"mid": "888002155330005", "good_flag": "2", "new_flag": "1", "short_name": "\u666e\u98de", "short_name_pinyin": "pufei", "status": null, "address": null, "name": null, "id": "32763"}, "mid": "888002155330005", "shopId": "32763", "netid": null, "province": 901, "district": 601, "zipcode": null, "telephone": "33731498", "posDate": null, "destineTel": null, "togoTel": null, "trafficWay": null, "signBuilding": null, "businessArea": null, "selfRoom": null, "businessTime": null, "stall": null, "consume": null, "serviceFei": null, "favourable": null, "shopMemo": null, "appraise": null, "website": null, "memo": null, "payTypes": "\u6749\u5fb7\u5361", "shopTypes": "\u96f6\u552e", "consumeTypes": null, "cookTypes": null, "orderNum": 1000, "card4no": null, "card4noAcc": null, "district2": 410, "searchScope": null, "status": 1, "address": "\u6d9e\u4ead\u5357\u8def888\u5f04714-720\u53f7", "name": "\u666e\u98de \u6d9e\u4ead\u5357\u8def\u5e97", "id": 140323, "pageNo": 0, "pageCount": null, "pageSize": 10, "ids": null, "endTime": null, "startTime": null}, {"cardNumFive": null, "isSupportYj": null, "cityName": null, "districtName": null, "shopinfo": {"mid": "888002155330005", "good_flag": "2", "new_flag": "1", "short_name": "\u666e\u98de", "short_name_pinyin": "pufei", "status": null, "address": null, "name": null, "id": "32763"}, "mid": "888002155330005", "shopId": "32763", "netid": null, "province": 901, "district": 601, "zipcode": null, "telephone": "50788057", "posDate": null, "destineTel": null, "togoTel": null, "trafficWay": null, "signBuilding": null, "businessArea": null, "selfRoom": null, "businessTime": null, "stall": null, "consume": null, "serviceFei": null, "favourable": null, "shopMemo": null, "appraise": null, "website": null, "memo": null, "payTypes": "\u6749\u5fb7\u5361", "shopTypes": "\u96f6\u552e", "consumeTypes": null, "cookTypes": null, "orderNum": 1000, "card4no": null, "card4noAcc": null, "district2": 418, "searchScope": null, "status": 1, "address": "\u9f50\u6cb3\u8def895\u53f7", "name": "\u666e\u98de \u9f50\u6cb3\u8def\u5e97", "id": 140326, "pageNo": 0, "pageCount": null, "pageSize": 10, "ids": null, "endTime": null, "startTime": null}, {"cardNumFive": null, "isSupportYj": null, "cityName": null, "districtName": null, "shopinfo": {"mid": "888002155330005", "good_flag": "2", "new_flag": "1", "short_name": "\u666e\u98de", "short_name_pinyin": "pufei", "status": null, "address": null, "name": null, "id": "32763"}, "mid": "888002155330005", "shopId": "32763", "netid": null, "province": 901, "district": 601, "zipcode": null, "telephone": "67814794", "posDate": null, "destineTel": null, "togoTel": null, "trafficWay": null, "signBuilding": null, "businessArea": null, "selfRoom": null, "businessTime": null, "stall": null, "consume": null, "serviceFei": null, "favourable": null, "shopMemo": null, "appraise": null, "website": null, "memo": null, "payTypes": "\u6749\u5fb7\u5361", "shopTypes": "\u96f6\u552e", "consumeTypes": null, "cookTypes": null, "orderNum": 1000, "card4no": null, "card4noAcc": null, "district2": 412, "searchScope": null, "status": 1, "address": "\u8363\u4e50\u897f\u8def596\u53f7", "name": "\u666e\u98de \u8363\u4e50\u897f\u8def\u5e97", "id": 140327, "pageNo": 0, "pageCount": null, "pageSize": 10, "ids": null, "endTime": null, "startTime": null}, {"cardNumFive": null, "isSupportYj": null, "cityName": null, "districtName": null, "shopinfo": {"mid": "888002155330005", "good_flag": "2", "new_flag": "1", "short_name": "\u666e\u98de", "short_name_pinyin": "pufei", "status": null, "address": null, "name": null, "id": "32763"}, "mid": "888002155330005", "shopId": "32763", "netid": null, "province": 901, "district": 601, "zipcode": null, "telephone": "66986025", "posDate": null, "destineTel": null, "togoTel": null, "trafficWay": null, "signBuilding": null, "businessArea": null, "selfRoom": null, "businessTime": null, "stall": null, "consume": null, "serviceFei": null, "favourable": null, "shopMemo": null, "appraise": null, "website": null, "memo": null, "payTypes": "\u6749\u5fb7\u5361", "shopTypes": "\u96f6\u552e", "consumeTypes": null, "cookTypes": null, "orderNum": 1000, "card4no": null, "card4noAcc": null, "district2": 416, "searchScope": null, "status": 1, "address": "\u4e00\u4e8c\u516b\u7eaa\u5ff5\u8def706\u53f7", "name": "\u666e\u98de \u4e00\u4e8c\u516b\u7eaa\u5ff5\u8def\u5e97", "id": 140329, "pageNo": 0, "pageCount": null, "pageSize": 10, "ids": null, "endTime": null, "startTime": null}, {"cardNumFive": null, "isSupportYj": null, "cityName": null, "districtName": null, "shopinfo": {"mid": "888888857320027", "good_flag": "2", "new_flag": "2", "short_name": "\u5f3a\u58f0\u97f3\u50cf\u5668\u6750", "short_name_pinyin": "qiangshengyinxiangqicai", "status": null, "address": null, "name": null, "id": "32802"}, "mid": "888888857320027", "shopId": "32802", "netid": null, "province": 901, "district": 601, "zipcode": null, "telephone": "50988118", "posDate": "200908", "destineTel": null, "togoTel": null, "trafficWay": "\u516c\u4ea481\u3001583", "signBuilding": null, "businessArea": null, "selfRoom": null, "businessTime": "7:30~20:30", "stall": null, "consume": null, "serviceFei": null, "favourable": null, "shopMemo": null, "appraise": null, "website": null, "memo": null, "payTypes": "\u6749\u5fb7\u5361", "shopTypes": "\u4e13\u5356", "consumeTypes": null, "cookTypes": null, "orderNum": 1000, "card4no": null, "card4noAcc": null, "district2": 418, "searchScope": null, "status": 1, "address": "\u9646\u5bb6\u5634\u897f\u8def168\u53f78\u697c01B-CH", "name": "\u5f3a\u58f0\u97f3\u50cf\u5668\u6750 \u6b63\u5927\u5e7f\u573a\u5e97", "id": 140459, "pageNo": 0, "pageCount": null, "pageSize": 10, "ids": null, "endTime": null, "startTime": null}, {"cardNumFive": null, "isSupportYj": null, "cityName": null, "districtName": null, "shopinfo": {"mid": "888888880430083", "good_flag": "2", "new_flag": "2", "short_name": "\u5343\u4e00\u773c\u955c", "short_name_pinyin": "qianyiyanjing", "status": null, "address": null, "name": null, "id": "32793"}, "mid": "888888880430083", "shopId": "32793", "netid": null, "province": 901, "district": 601, "zipcode": null, "telephone": null, "posDate": null, "destineTel": null, "togoTel": null, "trafficWay": "\u677e\u6c5f3\u8def\u3001\u677e\u6c5f16\u8def\u3001\u5609\u677e\u7ebf", "signBuilding": null, "businessArea": null, "selfRoom": null, "businessTime": null, "stall": null, "consume": null, "serviceFei": null, "favourable": null, "shopMemo": null, "appraise": null, "website": null, "memo": null, "payTypes": "\u6749\u5fb7\u5361", "shopTypes": "\u96f6\u552e,\u4e13\u5356", "consumeTypes": null, "cookTypes": null, "orderNum": 1000, "card4no": null, "card4noAcc": null, "district2": 412, "searchScope": null, "status": 1, "address": "\u6587\u8bda\u8def\u6613\u4e70\u5f97\u4e00\u697cA-108\u5546\u94fa", "name": "\u5343\u4e00\u773c\u955c \u6587\u8bda\u8def\u5e97", "id": 140446, "pageNo": 0, "pageCount": null, "pageSize": 10, "ids": null, "endTime": null, "startTime": null}, {"cardNumFive": null, "isSupportYj": null, "cityName": null, "districtName": null, "shopinfo": {"mid": "T00000000000019", "good_flag": "1", "new_flag": "2", "short_name": "\u4fcf\u6c5f\u5357", "short_name_pinyin": "qiaojiangnan", "status": null, "address": null, "name": null, "id": "32808"}, "mid": "T00000000000019", "shopId": "32808", "netid": null, "province": 901, "district": 601, "zipcode": null, "telephone": "68776298\uff1b68776299", "posDate": "20090623", "destineTel": null, "togoTel": null, "trafficWay": null, "signBuilding": null, "businessArea": null, "selfRoom": null, "businessTime": null, "stall": null, "consume": null, "serviceFei": null, "favourable": null, "shopMemo": null, "appraise": null, "website": null, "memo": null, "payTypes": "\u6749\u5fb7\u5361", "shopTypes": "\u9910\u996e", "consumeTypes": null, "cookTypes": null, "orderNum": 1000, "card4no": null, "card4noAcc": null, "district2": 418, "searchScope": null, "status": 1, "address": "\u4e16\u7eaa\u5927\u9053100\u53f7307\u5355\u5143", "name": "\u4fcf\u6c5f\u5357 \u73af\u7403\u91d1\u878d\u4e2d\u5fc3\u5e97", "id": 140547, "pageNo": 0, "pageCount": null, "pageSize": 10, "ids": null, "endTime": null, "startTime": null}], "pageLimit": 7200, "size": 10}