{"pageCount": 1095, "count": 10942, "pageNo": 738, "subShopInfo": {"cardNumFive": "", "isSupportYj": "", "cityName": null, "districtName": null, "shopinfo": {"mid": null, "good_flag": null, "new_flag": null, "short_name": null, "short_name_pinyin": null, "status": null, "address": "", "name": "", "id": null}, "mid": null, "shopId": null, "netid": null, "province": 901, "district": null, "zipcode": null, "telephone": null, "posDate": null, "destineTel": null, "togoTel": null, "trafficWay": null, "signBuilding": null, "businessArea": null, "selfRoom": null, "businessTime": null, "stall": null, "consume": null, "serviceFei": null, "favourable": null, "shopMemo": "1", "appraise": null, "website": null, "memo": null, "payTypes": "", "shopTypes": "", "consumeTypes": null, "cookTypes": null, "orderNum": null, "card4no": null, "card4noAcc": null, "district2": null, "searchScope": null, "status": null, "address": "", "name": null, "id": null, "pageNo": 737, "pageCount": null, "pageSize": 10, "ids": null, "endTime": null, "startTime": null}, "list": [{"cardNumFive": null, "isSupportYj": null, "cityName": null, "districtName": null, "shopinfo": {"mid": "888002154110276", "good_flag": null, "new_flag": "2", "short_name": "\u5168\u5bb6\u4fbf\u5229", "short_name_pinyin": "quanjiabianli", "status": null, "address": null, "name": null, "id": "43229"}, "mid": "888002154110276", "shopId": "43229", "netid": null, "province": 901, "district": 601, "zipcode": null, "telephone": null, "posDate": null, "destineTel": null, "togoTel": null, "trafficWay": null, "signBuilding": null, "businessArea": null, "selfRoom": null, "businessTime": null, "stall": null, "consume": null, "serviceFei": null, "favourable": null, "shopMemo": null, "appraise": null, "website": null, "memo": null, "payTypes": "\u6749\u5fb7\u5361", "shopTypes": "\u4fbf\u5229\u5e97", "consumeTypes": null, "cookTypes": null, "orderNum": 1000, "card4no": null, "card4noAcc": null, "district2": 411, "searchScope": null, "status": 1, "address": "\u542f\u6e90\u8def992-996\u53f7\u4e00\u5c42", "name": "\u5168\u5bb6\u4fbf\u5229 \u542f\u6e90\u8def\u5e97", "id": 197842, "pageNo": 0, "pageCount": null, "pageSize": 10, "ids": null, "endTime": null, "startTime": null}, {"cardNumFive": null, "isSupportYj": null, "cityName": null, "districtName": null, "shopinfo": {"mid": "888002154110276", "good_flag": null, "new_flag": "2", "short_name": "\u5168\u5bb6\u4fbf\u5229", "short_name_pinyin": "quanjiabianli", "status": null, "address": null, "name": null, "id": "43229"}, "mid": "888002154110276", "shopId": "43229", "netid": null, "province": 901, "district": 601, "zipcode": null, "telephone": null, "posDate": null, "destineTel": null, "togoTel": null, "trafficWay": null, "signBuilding": null, "businessArea": null, "selfRoom": null, "businessTime": null, "stall": null, "consume": null, "serviceFei": null, "favourable": null, "shopMemo": null, "appraise": null, "website": null, "memo": null, "payTypes": "\u6749\u5fb7\u5361", "shopTypes": "\u4fbf\u5229\u5e97", "consumeTypes": null, "cookTypes": null, "orderNum": 1000, "card4no": null, "card4noAcc": null, "district2": 403, "searchScope": null, "status": 1, "address": "\u9f99\u8317\u8def2355\u53f7101\u5ba4", "name": "\u5168\u5bb6\u4fbf\u5229 \u6f15\u5b9d\u8def\u516d\u5e97", "id": 197843, "pageNo": 0, "pageCount": null, "pageSize": 10, "ids": null, "endTime": null, "startTime": null}, {"cardNumFive": null, "isSupportYj": null, "cityName": null, "districtName": null, "shopinfo": {"mid": "888002154110276", "good_flag": null, "new_flag": "2", "short_name": "\u5168\u5bb6\u4fbf\u5229", "short_name_pinyin": "quanjiabianli", "status": null, "address": null, "name": null, "id": "43229"}, "mid": "888002154110276", "shopId": "43229", "netid": null, "province": 901, "district": 601, "zipcode": null, "telephone": null, "posDate": null, "destineTel": null, "togoTel": null, "trafficWay": null, "signBuilding": null, "businessArea": null, "selfRoom": null, "businessTime": null, "stall": null, "consume": null, "serviceFei": null, "favourable": null, "shopMemo": null, "appraise": null, "website": null, "memo": null, "payTypes": "\u6749\u5fb7\u5361", "shopTypes": "\u4fbf\u5229\u5e97", "consumeTypes": null, "cookTypes": null, "orderNum": 1000, "card4no": null, "card4noAcc": null, "district2": 418, "searchScope": null, "status": 1, "address": "\uff08\u5ddd\u6c99\uff09\u7533\u8fea\u5357\u8def85\u5f04116\u53f78\u5e62", "name": "\u5168\u5bb6\u4fbf\u5229 \u7533\u8fea\u5357\u8def\u5e97", "id": 197844, "pageNo": 0, "pageCount": null, "pageSize": 10, "ids": null, "endTime": null, "startTime": null}, {"cardNumFive": null, "isSupportYj": null, "cityName": null, "districtName": null, "shopinfo": {"mid": "888002154110276", "good_flag": null, "new_flag": "2", "short_name": "\u5168\u5bb6\u4fbf\u5229", "short_name_pinyin": "quanjiabianli", "status": null, "address": null, "name": null, "id": "43229"}, "mid": "888002154110276", "shopId": "43229", "netid": null, "province": 901, "district": 601, "zipcode": null, "telephone": null, "posDate": null, "destineTel": null, "togoTel": null, "trafficWay": null, "signBuilding": null, "businessArea": null, "selfRoom": null, "businessTime": null, "stall": null, "consume": null, "serviceFei": null, "favourable": null, "shopMemo": null, "appraise": null, "website": null, "memo": null, "payTypes": "\u6749\u5fb7\u5361", "shopTypes": "\u4fbf\u5229\u5e97", "consumeTypes": null, "cookTypes": null, "orderNum": 1000, "card4no": null, "card4noAcc": null, "district2": 418, "searchScope": null, "status": 1, "address": "\uff08\u5ddd\u6c99\uff09\u7533\u8fea\u5357\u8def85\u5f04116\u53f79\u5e62", "name": "\u5168\u5bb6\u4fbf\u5229 \u7533\u8fea\u5357\u8def\u4e8c\u5e97", "id": 197845, "pageNo": 0, "pageCount": null, "pageSize": 10, "ids": null, "endTime": null, "startTime": null}, {"cardNumFive": null, "isSupportYj": null, "cityName": null, "districtName": null, "shopinfo": {"mid": "888002154110276", "good_flag": null, "new_flag": "2", "short_name": "\u5168\u5bb6\u4fbf\u5229", "short_name_pinyin": "quanjiabianli", "status": null, "address": null, "name": null, "id": "43229"}, "mid": "888002154110276", "shopId": "43229", "netid": null, "province": 901, "district": 601, "zipcode": null, "telephone": null, "posDate": null, "destineTel": null, "togoTel": null, "trafficWay": null, "signBuilding": null, "businessArea": null, "selfRoom": null, "businessTime": null, "stall": null, "consume": null, "serviceFei": null, "favourable": null, "shopMemo": null, "appraise": null, "website": null, "memo": null, "payTypes": "\u6749\u5fb7\u5361", "shopTypes": "\u4fbf\u5229\u5e97", "consumeTypes": null, "cookTypes": null, "orderNum": 1000, "card4no": null, "card4noAcc": null, "district2": 418, "searchScope": null, "status": 1, "address": "\u6d66\u4e1c\u4e94\u83b2\u8def1703\u53f701\u5ba4", "name": "\u5168\u5bb6\u4fbf\u5229 \u4e94\u83b2\u4e09\u5e97", "id": 197977, "pageNo": 0, "pageCount": null, "pageSize": 10, "ids": null, "endTime": null, "startTime": null}, {"cardNumFive": null, "isSupportYj": null, "cityName": null, "districtName": null, "shopinfo": {"mid": "888002154110276", "good_flag": null, "new_flag": "2", "short_name": "\u5168\u5bb6\u4fbf\u5229", "short_name_pinyin": "quanjiabianli", "status": null, "address": null, "name": null, "id": "43229"}, "mid": "888002154110276", "shopId": "43229", "netid": null, "province": 901, "district": 601, "zipcode": null, "telephone": null, "posDate": null, "destineTel": null, "togoTel": null, "trafficWay": null, "signBuilding": null, "businessArea": null, "selfRoom": null, "businessTime": null, "stall": null, "consume": null, "serviceFei": null, "favourable": null, "shopMemo": null, "appraise": null, "website": null, "memo": null, "payTypes": "\u6749\u5fb7\u5361", "shopTypes": "\u4fbf\u5229\u5e97", "consumeTypes": null, "cookTypes": null, "orderNum": 1000, "card4no": null, "card4noAcc": null, "district2": 409, "searchScope": null, "status": 1, "address": "\u745e\u4e3d\u8def55\u53f7", "name": "\u5168\u5bb6\u4fbf\u5229 \u745e\u4e3d\u8def\u4e8c\u5e97", "id": 197978, "pageNo": 0, "pageCount": null, "pageSize": 10, "ids": null, "endTime": null, "startTime": null}, {"cardNumFive": null, "isSupportYj": null, "cityName": null, "districtName": null, "shopinfo": {"mid": "888002154110276", "good_flag": null, "new_flag": "2", "short_name": "\u5168\u5bb6\u4fbf\u5229", "short_name_pinyin": "quanjiabianli", "status": null, "address": null, "name": null, "id": "43229"}, "mid": "888002154110276", "shopId": "43229", "netid": null, "province": 901, "district": 601, "zipcode": null, "telephone": null, "posDate": null, "destineTel": null, "togoTel": null, "trafficWay": null, "signBuilding": null, "businessArea": null, "selfRoom": null, "businessTime": null, "stall": null, "consume": null, "serviceFei": null, "favourable": null, "shopMemo": null, "appraise": null, "website": null, "memo": null, "payTypes": "\u6749\u5fb7\u5361", "shopTypes": "\u4fbf\u5229\u5e97", "consumeTypes": null, "cookTypes": null, "orderNum": 1000, "card4no": null, "card4noAcc": null, "district2": 416, "searchScope": null, "status": 1, "address": "\u864e\u6797\u8def311\u53f7", "name": "\u5168\u5bb6\u4fbf\u5229 \u864e\u6797\u8def\u5e97", "id": 197979, "pageNo": 0, "pageCount": null, "pageSize": 10, "ids": null, "endTime": null, "startTime": null}, {"cardNumFive": null, "isSupportYj": null, "cityName": null, "districtName": null, "shopinfo": {"mid": "888002154110276", "good_flag": null, "new_flag": "2", "short_name": "\u5168\u5bb6\u4fbf\u5229", "short_name_pinyin": "quanjiabianli", "status": null, "address": null, "name": null, "id": "43229"}, "mid": "888002154110276", "shopId": "43229", "netid": null, "province": 901, "district": 601, "zipcode": null, "telephone": null, "posDate": null, "destineTel": null, "togoTel": null, "trafficWay": null, "signBuilding": null, "businessArea": null, "selfRoom": null, "businessTime": null, "stall": null, "consume": null, "serviceFei": null, "favourable": null, "shopMemo": null, "appraise": null, "website": null, "memo": null, "payTypes": "\u6749\u5fb7\u5361", "shopTypes": "\u4fbf\u5229\u5e97", "consumeTypes": null, "cookTypes": null, "orderNum": 1000, "card4no": null, "card4noAcc": null, "district2": 405, "searchScope": null, "status": 1, "address": "\u5b9c\u5ddd\u8def22\u53f7", "name": "\u5168\u5bb6\u4fbf\u5229 \u5b9c\u5ddd\u8def\u56db\u5e97", "id": 197980, "pageNo": 0, "pageCount": null, "pageSize": 10, "ids": null, "endTime": null, "startTime": null}, {"cardNumFive": null, "isSupportYj": null, "cityName": null, "districtName": null, "shopinfo": {"mid": "888002154110276", "good_flag": null, "new_flag": "2", "short_name": "\u5168\u5bb6\u4fbf\u5229", "short_name_pinyin": "quanjiabianli", "status": null, "address": null, "name": null, "id": "43229"}, "mid": "888002154110276", "shopId": "43229", "netid": null, "province": 901, "district": 601, "zipcode": null, "telephone": null, "posDate": null, "destineTel": null, "togoTel": null, "trafficWay": null, "signBuilding": null, "businessArea": null, "selfRoom": null, "businessTime": null, "stall": null, "consume": null, "serviceFei": null, "favourable": null, "shopMemo": null, "appraise": null, "website": null, "memo": null, "payTypes": "\u6749\u5fb7\u5361", "shopTypes": "\u4fbf\u5229\u5e97", "consumeTypes": null, "cookTypes": null, "orderNum": 1000, "card4no": null, "card4noAcc": null, "district2": 418, "searchScope": null, "status": 1, "address": "\u4e0a\u4e30\u8def1288\u53f7", "name": "\u5168\u5bb6\u4fbf\u5229 \u4e0a\u4e30\u8def\u4e8c\u5e97", "id": 197981, "pageNo": 0, "pageCount": null, "pageSize": 10, "ids": null, "endTime": null, "startTime": null}, {"cardNumFive": null, "isSupportYj": null, "cityName": null, "districtName": null, "shopinfo": {"mid": "888002154110276", "good_flag": null, "new_flag": "2", "short_name": "\u5168\u5bb6\u4fbf\u5229", "short_name_pinyin": "quanjiabianli", "status": null, "address": null, "name": null, "id": "43229"}, "mid": "888002154110276", "shopId": "43229", "netid": null, "province": 901, "district": 601, "zipcode": null, "telephone": null, "posDate": null, "destineTel": null, "togoTel": null, "trafficWay": null, "signBuilding": null, "businessArea": null, "selfRoom": null, "businessTime": null, "stall": null, "consume": null, "serviceFei": null, "favourable": null, "shopMemo": null, "appraise": null, "website": null, "memo": null, "payTypes": "\u6749\u5fb7\u5361", "shopTypes": "\u4fbf\u5229\u5e97", "consumeTypes": null, "cookTypes": null, "orderNum": 1000, "card4no": null, "card4noAcc": null, "district2": 407, "searchScope": null, "status": 1, "address": "\u6b66\u4e1c\u8def44\u53f7", "name": "\u5168\u5bb6\u4fbf\u5229 \u6b66\u4e1c\u8def\u5e97", "id": 197987, "pageNo": 0, "pageCount": null, "pageSize": 10, "ids": null, "endTime": null, "startTime": null}], "pageLimit": 7370, "size": 10}