{"pageCount": 1095, "count": 10942, "pageNo": 740, "subShopInfo": {"cardNumFive": "", "isSupportYj": "", "cityName": null, "districtName": null, "shopinfo": {"mid": null, "good_flag": null, "new_flag": null, "short_name": null, "short_name_pinyin": null, "status": null, "address": "", "name": "", "id": null}, "mid": null, "shopId": null, "netid": null, "province": 901, "district": null, "zipcode": null, "telephone": null, "posDate": null, "destineTel": null, "togoTel": null, "trafficWay": null, "signBuilding": null, "businessArea": null, "selfRoom": null, "businessTime": null, "stall": null, "consume": null, "serviceFei": null, "favourable": null, "shopMemo": "1", "appraise": null, "website": null, "memo": null, "payTypes": "", "shopTypes": "", "consumeTypes": null, "cookTypes": null, "orderNum": null, "card4no": null, "card4noAcc": null, "district2": null, "searchScope": null, "status": null, "address": "", "name": null, "id": null, "pageNo": 739, "pageCount": null, "pageSize": 10, "ids": null, "endTime": null, "startTime": null}, "list": [{"cardNumFive": null, "isSupportYj": null, "cityName": null, "districtName": null, "shopinfo": {"mid": "888002154110276", "good_flag": null, "new_flag": "2", "short_name": "\u5168\u5bb6\u4fbf\u5229", "short_name_pinyin": "quanjiabianli", "status": null, "address": null, "name": null, "id": "43229"}, "mid": "888002154110276", "shopId": "43229", "netid": null, "province": 901, "district": 601, "zipcode": null, "telephone": null, "posDate": null, "destineTel": null, "togoTel": null, "trafficWay": null, "signBuilding": null, "businessArea": null, "selfRoom": null, "businessTime": null, "stall": null, "consume": null, "serviceFei": null, "favourable": null, "shopMemo": null, "appraise": null, "website": null, "memo": null, "payTypes": "\u6749\u5fb7\u5361", "shopTypes": "\u4fbf\u5229\u5e97", "consumeTypes": null, "cookTypes": null, "orderNum": 1000, "card4no": null, "card4noAcc": null, "district2": 409, "searchScope": null, "status": 1, "address": "\u77f3\u5c4f\u8def391\u53f7", "name": "\u5168\u5bb6\u4fbf\u5229 \u77f3\u5c4f\u8def\u5e97", "id": 198142, "pageNo": 0, "pageCount": null, "pageSize": 10, "ids": null, "endTime": null, "startTime": null}, {"cardNumFive": null, "isSupportYj": null, "cityName": null, "districtName": null, "shopinfo": {"mid": "888002154110276", "good_flag": null, "new_flag": "2", "short_name": "\u5168\u5bb6\u4fbf\u5229", "short_name_pinyin": "quanjiabianli", "status": null, "address": null, "name": null, "id": "43229"}, "mid": "888002154110276", "shopId": "43229", "netid": null, "province": 901, "district": 601, "zipcode": null, "telephone": null, "posDate": null, "destineTel": null, "togoTel": null, "trafficWay": null, "signBuilding": null, "businessArea": null, "selfRoom": null, "businessTime": null, "stall": null, "consume": null, "serviceFei": null, "favourable": null, "shopMemo": null, "appraise": null, "website": null, "memo": null, "payTypes": "\u6749\u5fb7\u5361", "shopTypes": "\u4fbf\u5229\u5e97", "consumeTypes": null, "cookTypes": null, "orderNum": 1000, "card4no": null, "card4noAcc": null, "district2": 418, "searchScope": null, "status": 1, "address": "\u83cf\u6cfd\u8def630\u53f7\u4e00\u5c42", "name": "\u5168\u5bb6\u4fbf\u5229 \u83cf\u6cfd\u8def\u5e97", "id": 198144, "pageNo": 0, "pageCount": null, "pageSize": 10, "ids": null, "endTime": null, "startTime": null}, {"cardNumFive": null, "isSupportYj": null, "cityName": null, "districtName": null, "shopinfo": {"mid": "888002154110276", "good_flag": null, "new_flag": "2", "short_name": "\u5168\u5bb6\u4fbf\u5229", "short_name_pinyin": "quanjiabianli", "status": null, "address": null, "name": null, "id": "43229"}, "mid": "888002154110276", "shopId": "43229", "netid": null, "province": 901, "district": 601, "zipcode": null, "telephone": null, "posDate": null, "destineTel": null, "togoTel": null, "trafficWay": null, "signBuilding": null, "businessArea": null, "selfRoom": null, "businessTime": null, "stall": null, "consume": null, "serviceFei": null, "favourable": null, "shopMemo": null, "appraise": null, "website": null, "memo": null, "payTypes": "\u6749\u5fb7\u5361", "shopTypes": "\u4fbf\u5229\u5e97", "consumeTypes": null, "cookTypes": null, "orderNum": 1000, "card4no": null, "card4noAcc": null, "district2": 406, "searchScope": null, "status": 1, "address": "\u756a\u79ba\u8def619-1\u53f7\u4e00\u5c42", "name": "\u5168\u5bb6\u4fbf\u5229 \u756a\u79ba\u8def\u4e94\u5e97", "id": 198150, "pageNo": 0, "pageCount": null, "pageSize": 10, "ids": null, "endTime": null, "startTime": null}, {"cardNumFive": null, "isSupportYj": null, "cityName": null, "districtName": null, "shopinfo": {"mid": "888002154110276", "good_flag": null, "new_flag": "2", "short_name": "\u5168\u5bb6\u4fbf\u5229", "short_name_pinyin": "quanjiabianli", "status": null, "address": null, "name": null, "id": "43229"}, "mid": "888002154110276", "shopId": "43229", "netid": null, "province": 901, "district": 601, "zipcode": null, "telephone": null, "posDate": null, "destineTel": null, "togoTel": null, "trafficWay": null, "signBuilding": null, "businessArea": null, "selfRoom": null, "businessTime": null, "stall": null, "consume": null, "serviceFei": null, "favourable": null, "shopMemo": null, "appraise": null, "website": null, "memo": null, "payTypes": "\u6749\u5fb7\u5361", "shopTypes": "\u4fbf\u5229\u5e97", "consumeTypes": null, "cookTypes": null, "orderNum": 1000, "card4no": null, "card4noAcc": null, "district2": 401, "searchScope": null, "status": 1, "address": "\u4e91\u5357\u5357\u8def192\u53f7", "name": "\u5168\u5bb6\u4fbf\u5229 \u4e91\u5357\u5357\u8def\u4e8c\u5e97", "id": 198151, "pageNo": 0, "pageCount": null, "pageSize": 10, "ids": null, "endTime": null, "startTime": null}, {"cardNumFive": null, "isSupportYj": null, "cityName": null, "districtName": null, "shopinfo": {"mid": "888002154110276", "good_flag": null, "new_flag": "2", "short_name": "\u5168\u5bb6\u4fbf\u5229", "short_name_pinyin": "quanjiabianli", "status": null, "address": null, "name": null, "id": "43229"}, "mid": "888002154110276", "shopId": "43229", "netid": null, "province": 901, "district": 601, "zipcode": null, "telephone": null, "posDate": null, "destineTel": null, "togoTel": null, "trafficWay": null, "signBuilding": null, "businessArea": null, "selfRoom": null, "businessTime": null, "stall": null, "consume": null, "serviceFei": null, "favourable": null, "shopMemo": null, "appraise": null, "website": null, "memo": null, "payTypes": "\u6749\u5fb7\u5361", "shopTypes": "\u4fbf\u5229\u5e97", "consumeTypes": null, "cookTypes": null, "orderNum": 1000, "card4no": null, "card4noAcc": null, "district2": 407, "searchScope": null, "status": 1, "address": "\u5927\u8fde\u8def1548\u53f7", "name": "\u5168\u5bb6\u4fbf\u5229 \u5927\u8fde\u8def\u4e09\u5e97", "id": 198152, "pageNo": 0, "pageCount": null, "pageSize": 10, "ids": null, "endTime": null, "startTime": null}, {"cardNumFive": null, "isSupportYj": null, "cityName": null, "districtName": null, "shopinfo": {"mid": "888002154110276", "good_flag": null, "new_flag": "2", "short_name": "\u5168\u5bb6\u4fbf\u5229", "short_name_pinyin": "quanjiabianli", "status": null, "address": null, "name": null, "id": "43229"}, "mid": "888002154110276", "shopId": "43229", "netid": null, "province": 901, "district": 601, "zipcode": null, "telephone": null, "posDate": null, "destineTel": null, "togoTel": null, "trafficWay": null, "signBuilding": null, "businessArea": null, "selfRoom": null, "businessTime": null, "stall": null, "consume": null, "serviceFei": null, "favourable": null, "shopMemo": null, "appraise": null, "website": null, "memo": null, "payTypes": "\u6749\u5fb7\u5361", "shopTypes": "\u4fbf\u5229\u5e97", "consumeTypes": null, "cookTypes": null, "orderNum": 1000, "card4no": null, "card4noAcc": null, "district2": 403, "searchScope": null, "status": 1, "address": "\u5b9c\u5c71\u8def810\u53f718\u5e62L1\u5c4208\u5ba4", "name": "\u5168\u5bb6\u4fbf\u5229 \u5b9c\u5c71\u8def\u4e03\u5e97", "id": 198154, "pageNo": 0, "pageCount": null, "pageSize": 10, "ids": null, "endTime": null, "startTime": null}, {"cardNumFive": null, "isSupportYj": null, "cityName": null, "districtName": null, "shopinfo": {"mid": "888002154110276", "good_flag": null, "new_flag": "2", "short_name": "\u5168\u5bb6\u4fbf\u5229", "short_name_pinyin": "quanjiabianli", "status": null, "address": null, "name": null, "id": "43229"}, "mid": "888002154110276", "shopId": "43229", "netid": null, "province": 901, "district": 601, "zipcode": null, "telephone": null, "posDate": null, "destineTel": null, "togoTel": null, "trafficWay": null, "signBuilding": null, "businessArea": null, "selfRoom": null, "businessTime": null, "stall": null, "consume": null, "serviceFei": null, "favourable": null, "shopMemo": null, "appraise": null, "website": null, "memo": null, "payTypes": "\u6749\u5fb7\u5361", "shopTypes": "\u4fbf\u5229\u5e97", "consumeTypes": null, "cookTypes": null, "orderNum": 1000, "card4no": null, "card4noAcc": null, "district2": 403, "searchScope": null, "status": 1, "address": "\u94a6\u6c5f\u8def102\u53f71\u697c", "name": "\u5168\u5bb6\u4fbf\u5229 \u94a6\u6c5f\u8def\u5e97", "id": 198156, "pageNo": 0, "pageCount": null, "pageSize": 10, "ids": null, "endTime": null, "startTime": null}, {"cardNumFive": null, "isSupportYj": null, "cityName": null, "districtName": null, "shopinfo": {"mid": "888002154110276", "good_flag": null, "new_flag": "2", "short_name": "\u5168\u5bb6\u4fbf\u5229", "short_name_pinyin": "quanjiabianli", "status": null, "address": null, "name": null, "id": "43229"}, "mid": "888002154110276", "shopId": "43229", "netid": null, "province": 901, "district": 601, "zipcode": null, "telephone": null, "posDate": null, "destineTel": null, "togoTel": null, "trafficWay": null, "signBuilding": null, "businessArea": null, "selfRoom": null, "businessTime": null, "stall": null, "consume": null, "serviceFei": null, "favourable": null, "shopMemo": null, "appraise": null, "website": null, "memo": null, "payTypes": "\u6749\u5fb7\u5361", "shopTypes": "\u4fbf\u5229\u5e97", "consumeTypes": null, "cookTypes": null, "orderNum": 1000, "card4no": null, "card4noAcc": null, "district2": 418, "searchScope": null, "status": 1, "address": "\uff08\u5ddd\u6c99\uff09\u7533\u8fea\u897f\u8def255\u5f04416\u53f7112-113\u5ba4", "name": "\u5168\u5bb6\u4fbf\u5229 \u7533\u8fea\u897f\u8def\u5e97", "id": 198159, "pageNo": 0, "pageCount": null, "pageSize": 10, "ids": null, "endTime": null, "startTime": null}, {"cardNumFive": null, "isSupportYj": null, "cityName": null, "districtName": null, "shopinfo": {"mid": "888002154110276", "good_flag": null, "new_flag": "2", "short_name": "\u5168\u5bb6\u4fbf\u5229", "short_name_pinyin": "quanjiabianli", "status": null, "address": null, "name": null, "id": "43229"}, "mid": "888002154110276", "shopId": "43229", "netid": null, "province": 901, "district": 601, "zipcode": null, "telephone": null, "posDate": null, "destineTel": null, "togoTel": null, "trafficWay": null, "signBuilding": null, "businessArea": null, "selfRoom": null, "businessTime": null, "stall": null, "consume": null, "serviceFei": null, "favourable": null, "shopMemo": null, "appraise": null, "website": null, "memo": null, "payTypes": "\u6749\u5fb7\u5361", "shopTypes": "\u4fbf\u5229\u5e97", "consumeTypes": null, "cookTypes": null, "orderNum": 1000, "card4no": null, "card4noAcc": null, "district2": 412, "searchScope": null, "status": 1, "address": "\u4e2d\u5c71\u4e2d\u8def168-188\u53f71\u5e621\u5c42-1", "name": "\u5168\u5bb6\u4fbf\u5229 \u4e2d\u5c71\u4e2d\u8def\u4e09\u5e97", "id": 198162, "pageNo": 0, "pageCount": null, "pageSize": 10, "ids": null, "endTime": null, "startTime": null}, {"cardNumFive": null, "isSupportYj": null, "cityName": null, "districtName": null, "shopinfo": {"mid": "888002154110276", "good_flag": null, "new_flag": "2", "short_name": "\u5168\u5bb6\u4fbf\u5229", "short_name_pinyin": "quanjiabianli", "status": null, "address": null, "name": null, "id": "43229"}, "mid": "888002154110276", "shopId": "43229", "netid": null, "province": 901, "district": 601, "zipcode": null, "telephone": null, "posDate": null, "destineTel": null, "togoTel": null, "trafficWay": null, "signBuilding": null, "businessArea": null, "selfRoom": null, "businessTime": null, "stall": null, "consume": null, "serviceFei": null, "favourable": null, "shopMemo": null, "appraise": null, "website": null, "memo": null, "payTypes": "\u6749\u5fb7\u5361", "shopTypes": "\u4fbf\u5229\u5e97", "consumeTypes": null, "cookTypes": null, "orderNum": 1000, "card4no": null, "card4noAcc": null, "district2": 418, "searchScope": null, "status": 1, "address": "\u4e34\u6e2f\u65b0\u57ce\u6a44\u6984\u8def1350\u53f7\uff08\u7535\u673a\u5b66\u9662\u4e34\u6e2f\u6821\u533a\u5185\u9ad8\u5c42\u5b66\u751f\u516c\u5bd31\u5e62101-103\u5ba4\uff09", "name": "\u5168\u5bb6\u4fbf\u5229 \u6a44\u6984\u8def\u5e97", "id": 198165, "pageNo": 0, "pageCount": null, "pageSize": 10, "ids": null, "endTime": null, "startTime": null}], "pageLimit": 7390, "size": 10}