{"pageCount": 1095, "count": 10942, "pageNo": 750, "subShopInfo": {"cardNumFive": "", "isSupportYj": "", "cityName": null, "districtName": null, "shopinfo": {"mid": null, "good_flag": null, "new_flag": null, "short_name": null, "short_name_pinyin": null, "status": null, "address": "", "name": "", "id": null}, "mid": null, "shopId": null, "netid": null, "province": 901, "district": null, "zipcode": null, "telephone": null, "posDate": null, "destineTel": null, "togoTel": null, "trafficWay": null, "signBuilding": null, "businessArea": null, "selfRoom": null, "businessTime": null, "stall": null, "consume": null, "serviceFei": null, "favourable": null, "shopMemo": "1", "appraise": null, "website": null, "memo": null, "payTypes": "", "shopTypes": "", "consumeTypes": null, "cookTypes": null, "orderNum": null, "card4no": null, "card4noAcc": null, "district2": null, "searchScope": null, "status": null, "address": "", "name": null, "id": null, "pageNo": 749, "pageCount": null, "pageSize": 10, "ids": null, "endTime": null, "startTime": null}, "list": [{"cardNumFive": null, "isSupportYj": null, "cityName": null, "districtName": null, "shopinfo": {"mid": "888002154110276", "good_flag": null, "new_flag": "2", "short_name": "\u5168\u5bb6\u4fbf\u5229", "short_name_pinyin": "quanjiabianli", "status": null, "address": null, "name": null, "id": "43229"}, "mid": "888002154110276", "shopId": "43229", "netid": null, "province": 901, "district": 601, "zipcode": null, "telephone": null, "posDate": null, "destineTel": null, "togoTel": null, "trafficWay": null, "signBuilding": null, "businessArea": null, "selfRoom": null, "businessTime": null, "stall": null, "consume": null, "serviceFei": null, "favourable": null, "shopMemo": null, "appraise": null, "website": null, "memo": null, "payTypes": "\u6749\u5fb7\u5361", "shopTypes": "\u4fbf\u5229\u5e97", "consumeTypes": null, "cookTypes": null, "orderNum": 1000, "card4no": null, "card4noAcc": null, "district2": 404, "searchScope": null, "status": 1, "address": "\u5cad\u5357\u8def310\u53f7", "name": "\u5168\u5bb6\u4fbf\u5229 \u5cad\u5357\u8def\u4e8c\u5e97", "id": 202117, "pageNo": 0, "pageCount": null, "pageSize": 10, "ids": null, "endTime": null, "startTime": null}, {"cardNumFive": null, "isSupportYj": null, "cityName": null, "districtName": null, "shopinfo": {"mid": "888002154110276", "good_flag": null, "new_flag": "2", "short_name": "\u5168\u5bb6\u4fbf\u5229", "short_name_pinyin": "quanjiabianli", "status": null, "address": null, "name": null, "id": "43229"}, "mid": "888002154110276", "shopId": "43229", "netid": null, "province": 901, "district": 601, "zipcode": null, "telephone": null, "posDate": null, "destineTel": null, "togoTel": null, "trafficWay": null, "signBuilding": null, "businessArea": null, "selfRoom": null, "businessTime": null, "stall": null, "consume": null, "serviceFei": null, "favourable": null, "shopMemo": null, "appraise": null, "website": null, "memo": null, "payTypes": "\u6749\u5fb7\u5361", "shopTypes": "\u4fbf\u5229\u5e97", "consumeTypes": null, "cookTypes": null, "orderNum": 1000, "card4no": null, "card4noAcc": null, "district2": 403, "searchScope": null, "status": 1, "address": "\u5b9c\u5c71\u8def719\u53f7\u4e00\u5c42109\u5ba4", "name": "\u5168\u5bb6\u4fbf\u5229 \u5b9c\u5c71\u8def\u516b\u5e97", "id": 202118, "pageNo": 0, "pageCount": null, "pageSize": 10, "ids": null, "endTime": null, "startTime": null}, {"cardNumFive": null, "isSupportYj": null, "cityName": null, "districtName": null, "shopinfo": {"mid": "888002154110276", "good_flag": null, "new_flag": "2", "short_name": "\u5168\u5bb6\u4fbf\u5229", "short_name_pinyin": "quanjiabianli", "status": null, "address": null, "name": null, "id": "43229"}, "mid": "888002154110276", "shopId": "43229", "netid": null, "province": 901, "district": 601, "zipcode": null, "telephone": null, "posDate": null, "destineTel": null, "togoTel": null, "trafficWay": null, "signBuilding": null, "businessArea": null, "selfRoom": null, "businessTime": null, "stall": null, "consume": null, "serviceFei": null, "favourable": null, "shopMemo": null, "appraise": null, "website": null, "memo": null, "payTypes": "\u6749\u5fb7\u5361", "shopTypes": "\u4fbf\u5229\u5e97", "consumeTypes": null, "cookTypes": null, "orderNum": 1000, "card4no": null, "card4noAcc": null, "district2": 417, "searchScope": null, "status": 1, "address": "\u76c8\u6e2f\u8def515\u53f71003\u30011004\u30011007\u5ba4", "name": "\u5168\u5bb6\u4fbf\u5229 \u76c8\u6e2f\u8def\u4e09\u5e97", "id": 202120, "pageNo": 0, "pageCount": null, "pageSize": 10, "ids": null, "endTime": null, "startTime": null}, {"cardNumFive": null, "isSupportYj": null, "cityName": null, "districtName": null, "shopinfo": {"mid": "888002154110276", "good_flag": null, "new_flag": "2", "short_name": "\u5168\u5bb6\u4fbf\u5229", "short_name_pinyin": "quanjiabianli", "status": null, "address": null, "name": null, "id": "43229"}, "mid": "888002154110276", "shopId": "43229", "netid": null, "province": 901, "district": 601, "zipcode": null, "telephone": null, "posDate": null, "destineTel": null, "togoTel": null, "trafficWay": null, "signBuilding": null, "businessArea": null, "selfRoom": null, "businessTime": null, "stall": null, "consume": null, "serviceFei": null, "favourable": null, "shopMemo": null, "appraise": null, "website": null, "memo": null, "payTypes": "\u6749\u5fb7\u5361", "shopTypes": "\u4fbf\u5229\u5e97", "consumeTypes": null, "cookTypes": null, "orderNum": 1000, "card4no": null, "card4noAcc": null, "district2": 410, "searchScope": null, "status": 1, "address": "\u5171\u548c\u65b0\u8def4715\u53f74\u5ba4", "name": "\u5168\u5bb6\u4fbf\u5229 \u5171\u548c\u65b0\u8def\u4e8c\u5e97", "id": 202121, "pageNo": 0, "pageCount": null, "pageSize": 10, "ids": null, "endTime": null, "startTime": null}, {"cardNumFive": null, "isSupportYj": null, "cityName": null, "districtName": null, "shopinfo": {"mid": "888002154110276", "good_flag": null, "new_flag": "2", "short_name": "\u5168\u5bb6\u4fbf\u5229", "short_name_pinyin": "quanjiabianli", "status": null, "address": null, "name": null, "id": "43229"}, "mid": "888002154110276", "shopId": "43229", "netid": null, "province": 901, "district": 601, "zipcode": null, "telephone": null, "posDate": null, "destineTel": null, "togoTel": null, "trafficWay": null, "signBuilding": null, "businessArea": null, "selfRoom": null, "businessTime": null, "stall": null, "consume": null, "serviceFei": null, "favourable": null, "shopMemo": null, "appraise": null, "website": null, "memo": null, "payTypes": "\u6749\u5fb7\u5361", "shopTypes": "\u4fbf\u5229\u5e97", "consumeTypes": null, "cookTypes": null, "orderNum": 1000, "card4no": null, "card4noAcc": null, "district2": 409, "searchScope": null, "status": 1, "address": "\u4e0a\u6d77\u8f68\u9053\u4ea4\u901a12\u53f7\u7ebf\u8679\u8398\u8def\u7ad912-102\u5546\u94fa", "name": "\u5168\u5bb6\u4fbf\u5229 \u8679\u8398\u8def\u7ad9\u5e97", "id": 202122, "pageNo": 0, "pageCount": null, "pageSize": 10, "ids": null, "endTime": null, "startTime": null}, {"cardNumFive": null, "isSupportYj": null, "cityName": null, "districtName": null, "shopinfo": {"mid": "888002154110276", "good_flag": null, "new_flag": "2", "short_name": "\u5168\u5bb6\u4fbf\u5229", "short_name_pinyin": "quanjiabianli", "status": null, "address": null, "name": null, "id": "43229"}, "mid": "888002154110276", "shopId": "43229", "netid": null, "province": 901, "district": 601, "zipcode": null, "telephone": null, "posDate": null, "destineTel": null, "togoTel": null, "trafficWay": null, "signBuilding": null, "businessArea": null, "selfRoom": null, "businessTime": null, "stall": null, "consume": null, "serviceFei": null, "favourable": null, "shopMemo": null, "appraise": null, "website": null, "memo": null, "payTypes": "\u6749\u5fb7\u5361", "shopTypes": "\u4fbf\u5229\u5e97", "consumeTypes": null, "cookTypes": null, "orderNum": 1000, "card4no": null, "card4noAcc": null, "district2": 410, "searchScope": null, "status": 1, "address": "\u5927\u5b81\u8def605\u53f7", "name": "\u5168\u5bb6\u4fbf\u5229 \u5927\u5b81\u8def\u4e8c\u5e97", "id": 202123, "pageNo": 0, "pageCount": null, "pageSize": 10, "ids": null, "endTime": null, "startTime": null}, {"cardNumFive": null, "isSupportYj": null, "cityName": null, "districtName": null, "shopinfo": {"mid": "888002154110276", "good_flag": null, "new_flag": "2", "short_name": "\u5168\u5bb6\u4fbf\u5229", "short_name_pinyin": "quanjiabianli", "status": null, "address": null, "name": null, "id": "43229"}, "mid": "888002154110276", "shopId": "43229", "netid": null, "province": 901, "district": 601, "zipcode": null, "telephone": null, "posDate": null, "destineTel": null, "togoTel": null, "trafficWay": null, "signBuilding": null, "businessArea": null, "selfRoom": null, "businessTime": null, "stall": null, "consume": null, "serviceFei": null, "favourable": null, "shopMemo": null, "appraise": null, "website": null, "memo": null, "payTypes": "\u6749\u5fb7\u5361", "shopTypes": "\u4fbf\u5229\u5e97", "consumeTypes": null, "cookTypes": null, "orderNum": 1000, "card4no": null, "card4noAcc": null, "district2": 407, "searchScope": null, "status": 1, "address": "\u56fd\u6d69\u8def203\u53f7", "name": "\u5168\u5bb6\u4fbf\u5229 \u56fd\u6d69\u8def\u5e97", "id": 202124, "pageNo": 0, "pageCount": null, "pageSize": 10, "ids": null, "endTime": null, "startTime": null}, {"cardNumFive": null, "isSupportYj": null, "cityName": null, "districtName": null, "shopinfo": {"mid": "888002154110276", "good_flag": null, "new_flag": "2", "short_name": "\u5168\u5bb6\u4fbf\u5229", "short_name_pinyin": "quanjiabianli", "status": null, "address": null, "name": null, "id": "43229"}, "mid": "888002154110276", "shopId": "43229", "netid": null, "province": 901, "district": 601, "zipcode": null, "telephone": null, "posDate": null, "destineTel": null, "togoTel": null, "trafficWay": null, "signBuilding": null, "businessArea": null, "selfRoom": null, "businessTime": null, "stall": null, "consume": null, "serviceFei": null, "favourable": null, "shopMemo": null, "appraise": null, "website": null, "memo": null, "payTypes": "\u6749\u5fb7\u5361", "shopTypes": "\u4fbf\u5229\u5e97", "consumeTypes": null, "cookTypes": null, "orderNum": 1000, "card4no": null, "card4noAcc": null, "district2": 418, "searchScope": null, "status": 1, "address": "\u767e\u7199\u8def336\u53f7", "name": "\u5168\u5bb6\u4fbf\u5229 \u767e\u7199\u8def\u5e97", "id": 202125, "pageNo": 0, "pageCount": null, "pageSize": 10, "ids": null, "endTime": null, "startTime": null}, {"cardNumFive": null, "isSupportYj": null, "cityName": null, "districtName": null, "shopinfo": {"mid": "888002154110276", "good_flag": null, "new_flag": "2", "short_name": "\u5168\u5bb6\u4fbf\u5229", "short_name_pinyin": "quanjiabianli", "status": null, "address": null, "name": null, "id": "43229"}, "mid": "888002154110276", "shopId": "43229", "netid": null, "province": 901, "district": 601, "zipcode": null, "telephone": null, "posDate": null, "destineTel": null, "togoTel": null, "trafficWay": null, "signBuilding": null, "businessArea": null, "selfRoom": null, "businessTime": null, "stall": null, "consume": null, "serviceFei": null, "favourable": null, "shopMemo": null, "appraise": null, "website": null, "memo": null, "payTypes": "\u6749\u5fb7\u5361", "shopTypes": "\u4fbf\u5229\u5e97", "consumeTypes": null, "cookTypes": null, "orderNum": 1000, "card4no": null, "card4noAcc": null, "district2": 414, "searchScope": null, "status": 1, "address": "\u536b\u9752\u897f\u8def636\u53f7\u4e00\u5c42", "name": "\u5168\u5bb6\u4fbf\u5229 \u536b\u9752\u897f\u8def\u4e8c\u5e97", "id": 202129, "pageNo": 0, "pageCount": null, "pageSize": 10, "ids": null, "endTime": null, "startTime": null}, {"cardNumFive": null, "isSupportYj": null, "cityName": null, "districtName": null, "shopinfo": {"mid": "888002154110276", "good_flag": null, "new_flag": "2", "short_name": "\u5168\u5bb6\u4fbf\u5229", "short_name_pinyin": "quanjiabianli", "status": null, "address": null, "name": null, "id": "43229"}, "mid": "888002154110276", "shopId": "43229", "netid": null, "province": 901, "district": 601, "zipcode": null, "telephone": null, "posDate": null, "destineTel": null, "togoTel": null, "trafficWay": null, "signBuilding": null, "businessArea": null, "selfRoom": null, "businessTime": null, "stall": null, "consume": null, "serviceFei": null, "favourable": null, "shopMemo": null, "appraise": null, "website": null, "memo": null, "payTypes": "\u6749\u5fb7\u5361", "shopTypes": "\u4fbf\u5229\u5e97", "consumeTypes": null, "cookTypes": null, "orderNum": 1000, "card4no": null, "card4noAcc": null, "district2": 407, "searchScope": null, "status": 1, "address": "\u56fd\u6743\u8def98\u53f7\u4e00\u5c42\u5ba4", "name": "\u5168\u5bb6\u4fbf\u5229 \u56fd\u6743\u8def\u4e8c\u5e97", "id": 202131, "pageNo": 0, "pageCount": null, "pageSize": 10, "ids": null, "endTime": null, "startTime": null}], "pageLimit": 7490, "size": 10}