{"pageCount": 1095, "count": 10942, "pageNo": 774, "subShopInfo": {"cardNumFive": "", "isSupportYj": "", "cityName": null, "districtName": null, "shopinfo": {"mid": null, "good_flag": null, "new_flag": null, "short_name": null, "short_name_pinyin": null, "status": null, "address": "", "name": "", "id": null}, "mid": null, "shopId": null, "netid": null, "province": 901, "district": null, "zipcode": null, "telephone": null, "posDate": null, "destineTel": null, "togoTel": null, "trafficWay": null, "signBuilding": null, "businessArea": null, "selfRoom": null, "businessTime": null, "stall": null, "consume": null, "serviceFei": null, "favourable": null, "shopMemo": "1", "appraise": null, "website": null, "memo": null, "payTypes": "", "shopTypes": "", "consumeTypes": null, "cookTypes": null, "orderNum": null, "card4no": null, "card4noAcc": null, "district2": null, "searchScope": null, "status": null, "address": "", "name": null, "id": null, "pageNo": 773, "pageCount": null, "pageSize": 10, "ids": null, "endTime": null, "startTime": null}, "list": [{"cardNumFive": null, "isSupportYj": null, "cityName": null, "districtName": null, "shopinfo": {"mid": "888002154110276", "good_flag": null, "new_flag": "2", "short_name": "\u5168\u5bb6\u4fbf\u5229", "short_name_pinyin": "quanjiabianli", "status": null, "address": null, "name": null, "id": "43229"}, "mid": "888002154110276", "shopId": "43229", "netid": null, "province": 901, "district": 601, "zipcode": null, "telephone": null, "posDate": null, "destineTel": null, "togoTel": null, "trafficWay": null, "signBuilding": null, "businessArea": null, "selfRoom": null, "businessTime": null, "stall": null, "consume": null, "serviceFei": null, "favourable": null, "shopMemo": null, "appraise": null, "website": null, "memo": null, "payTypes": "", "shopTypes": null, "consumeTypes": null, "cookTypes": null, "orderNum": null, "card4no": null, "card4noAcc": null, "district2": 414, "searchScope": null, "status": 1, "address": "\u9f99\u7693\u8def308\u53f7", "name": "\u9f99\u7693\u8def\u5e97", "id": 476799471213084672, "pageNo": 0, "pageCount": null, "pageSize": 10, "ids": null, "endTime": null, "startTime": null}, {"cardNumFive": null, "isSupportYj": null, "cityName": null, "districtName": null, "shopinfo": {"mid": "888002154110276", "good_flag": null, "new_flag": "2", "short_name": "\u5168\u5bb6\u4fbf\u5229", "short_name_pinyin": "quanjiabianli", "status": null, "address": null, "name": null, "id": "43229"}, "mid": "888002154110276", "shopId": "43229", "netid": null, "province": 901, "district": 601, "zipcode": null, "telephone": null, "posDate": null, "destineTel": null, "togoTel": null, "trafficWay": null, "signBuilding": null, "businessArea": null, "selfRoom": null, "businessTime": null, "stall": null, "consume": null, "serviceFei": null, "favourable": null, "shopMemo": null, "appraise": null, "website": null, "memo": null, "payTypes": "", "shopTypes": null, "consumeTypes": null, "cookTypes": null, "orderNum": null, "card4no": null, "card4noAcc": null, "district2": 411, "searchScope": null, "status": 1, "address": "\u56ed\u56fd\u8def60\u53f71\u680b1\u5c42105\u5ba4", "name": "\u56ed\u56fd\u8def\u5e97", "id": 476799472446210048, "pageNo": 0, "pageCount": null, "pageSize": 10, "ids": null, "endTime": null, "startTime": null}, {"cardNumFive": null, "isSupportYj": null, "cityName": null, "districtName": null, "shopinfo": {"mid": "888002154110276", "good_flag": null, "new_flag": "2", "short_name": "\u5168\u5bb6\u4fbf\u5229", "short_name_pinyin": "quanjiabianli", "status": null, "address": null, "name": null, "id": "43229"}, "mid": "888002154110276", "shopId": "43229", "netid": null, "province": 901, "district": 601, "zipcode": null, "telephone": null, "posDate": null, "destineTel": null, "togoTel": null, "trafficWay": null, "signBuilding": null, "businessArea": null, "selfRoom": null, "businessTime": null, "stall": null, "consume": null, "serviceFei": null, "favourable": null, "shopMemo": null, "appraise": null, "website": null, "memo": null, "payTypes": "", "shopTypes": null, "consumeTypes": null, "cookTypes": null, "orderNum": null, "card4no": null, "card4noAcc": null, "district2": 407, "searchScope": null, "status": 1, "address": "\u519b\u5de5\u8def2500\u53f716\u5e62", "name": "\u519b\u5de5\u8def\u5e97", "id": 476799472983080960, "pageNo": 0, "pageCount": null, "pageSize": 10, "ids": null, "endTime": null, "startTime": null}, {"cardNumFive": null, "isSupportYj": null, "cityName": null, "districtName": null, "shopinfo": {"mid": "888002154110276", "good_flag": null, "new_flag": "2", "short_name": "\u5168\u5bb6\u4fbf\u5229", "short_name_pinyin": "quanjiabianli", "status": null, "address": null, "name": null, "id": "43229"}, "mid": "888002154110276", "shopId": "43229", "netid": null, "province": 901, "district": 601, "zipcode": null, "telephone": null, "posDate": null, "destineTel": null, "togoTel": null, "trafficWay": null, "signBuilding": null, "businessArea": null, "selfRoom": null, "businessTime": null, "stall": null, "consume": null, "serviceFei": null, "favourable": null, "shopMemo": null, "appraise": null, "website": null, "memo": null, "payTypes": "", "shopTypes": null, "consumeTypes": null, "cookTypes": null, "orderNum": null, "card4no": null, "card4noAcc": null, "district2": 411, "searchScope": null, "status": 1, "address": "\u91d1\u8fd0\u8def165\u53f71\u5c42", "name": "\u91d1\u8fd0\u8def\u5e97", "id": 476799473532534784, "pageNo": 0, "pageCount": null, "pageSize": 10, "ids": null, "endTime": null, "startTime": null}, {"cardNumFive": null, "isSupportYj": null, "cityName": null, "districtName": null, "shopinfo": {"mid": "888002154110276", "good_flag": null, "new_flag": "2", "short_name": "\u5168\u5bb6\u4fbf\u5229", "short_name_pinyin": "quanjiabianli", "status": null, "address": null, "name": null, "id": "43229"}, "mid": "888002154110276", "shopId": "43229", "netid": null, "province": 901, "district": 601, "zipcode": null, "telephone": null, "posDate": null, "destineTel": null, "togoTel": null, "trafficWay": null, "signBuilding": null, "businessArea": null, "selfRoom": null, "businessTime": null, "stall": null, "consume": null, "serviceFei": null, "favourable": null, "shopMemo": null, "appraise": null, "website": null, "memo": null, "payTypes": "", "shopTypes": null, "consumeTypes": null, "cookTypes": null, "orderNum": null, "card4no": null, "card4noAcc": null, "district2": 418, "searchScope": null, "status": 1, "address": "\u9f99\u4e1c\u5927\u90533000\u53f71\u5c42108-2-B\u5ba4", "name": "\u9f99\u4e1c\u5927\u9053\u4e8c\u5e97", "id": 476799474744688640, "pageNo": 0, "pageCount": null, "pageSize": 10, "ids": null, "endTime": null, "startTime": null}, {"cardNumFive": null, "isSupportYj": null, "cityName": null, "districtName": null, "shopinfo": {"mid": "888002154110276", "good_flag": null, "new_flag": "2", "short_name": "\u5168\u5bb6\u4fbf\u5229", "short_name_pinyin": "quanjiabianli", "status": null, "address": null, "name": null, "id": "43229"}, "mid": "888002154110276", "shopId": "43229", "netid": null, "province": 901, "district": 601, "zipcode": null, "telephone": null, "posDate": null, "destineTel": null, "togoTel": null, "trafficWay": null, "signBuilding": null, "businessArea": null, "selfRoom": null, "businessTime": null, "stall": null, "consume": null, "serviceFei": null, "favourable": null, "shopMemo": null, "appraise": null, "website": null, "memo": null, "payTypes": "", "shopTypes": null, "consumeTypes": null, "cookTypes": null, "orderNum": null, "card4no": null, "card4noAcc": null, "district2": 409, "searchScope": null, "status": 1, "address": "\u8f68\u9053\u4ea4\u901a\u5341\u4e8c\u53f7\u7ebf\u4e03\u8398\u8def\u7ad912-103", "name": "\u4e03\u8398\u8def\u7ad9\u5e97", "id": 476799475285753856, "pageNo": 0, "pageCount": null, "pageSize": 10, "ids": null, "endTime": null, "startTime": null}, {"cardNumFive": null, "isSupportYj": null, "cityName": null, "districtName": null, "shopinfo": {"mid": "888002154110276", "good_flag": null, "new_flag": "2", "short_name": "\u5168\u5bb6\u4fbf\u5229", "short_name_pinyin": "quanjiabianli", "status": null, "address": null, "name": null, "id": "43229"}, "mid": "888002154110276", "shopId": "43229", "netid": null, "province": 901, "district": 601, "zipcode": null, "telephone": null, "posDate": null, "destineTel": null, "togoTel": null, "trafficWay": null, "signBuilding": null, "businessArea": null, "selfRoom": null, "businessTime": null, "stall": null, "consume": null, "serviceFei": null, "favourable": null, "shopMemo": null, "appraise": null, "website": null, "memo": null, "payTypes": "", "shopTypes": null, "consumeTypes": null, "cookTypes": null, "orderNum": null, "card4no": null, "card4noAcc": null, "district2": 404, "searchScope": null, "status": 1, "address": "\u8f68\u9053\u4ea4\u901a\u5341\u4e09\u53f7\u7ebf\u6c5f\u5b81\u8def\u7ad913-102", "name": "\u6c5f\u5b81\u8def\u7ad9\u5e97", "id": 476799475713572864, "pageNo": 0, "pageCount": null, "pageSize": 10, "ids": null, "endTime": null, "startTime": null}, {"cardNumFive": null, "isSupportYj": null, "cityName": null, "districtName": null, "shopinfo": {"mid": "888002154110276", "good_flag": null, "new_flag": "2", "short_name": "\u5168\u5bb6\u4fbf\u5229", "short_name_pinyin": "quanjiabianli", "status": null, "address": null, "name": null, "id": "43229"}, "mid": "888002154110276", "shopId": "43229", "netid": null, "province": 901, "district": 601, "zipcode": null, "telephone": null, "posDate": null, "destineTel": null, "togoTel": null, "trafficWay": null, "signBuilding": null, "businessArea": null, "selfRoom": null, "businessTime": null, "stall": null, "consume": null, "serviceFei": null, "favourable": null, "shopMemo": null, "appraise": null, "website": null, "memo": null, "payTypes": "", "shopTypes": null, "consumeTypes": null, "cookTypes": null, "orderNum": null, "card4no": null, "card4noAcc": null, "district2": 418, "searchScope": null, "status": 1, "address": "\u83b2\u6eaa\u8def508\u53f7", "name": "\u83b2\u6eaa\u8def\u5e97", "id": 476799476225277952, "pageNo": 0, "pageCount": null, "pageSize": 10, "ids": null, "endTime": null, "startTime": null}, {"cardNumFive": null, "isSupportYj": null, "cityName": null, "districtName": null, "shopinfo": {"mid": "888002154110276", "good_flag": null, "new_flag": "2", "short_name": "\u5168\u5bb6\u4fbf\u5229", "short_name_pinyin": "quanjiabianli", "status": null, "address": null, "name": null, "id": "43229"}, "mid": "888002154110276", "shopId": "43229", "netid": null, "province": 901, "district": 601, "zipcode": null, "telephone": null, "posDate": null, "destineTel": null, "togoTel": null, "trafficWay": null, "signBuilding": null, "businessArea": null, "selfRoom": null, "businessTime": null, "stall": null, "consume": null, "serviceFei": null, "favourable": null, "shopMemo": null, "appraise": null, "website": null, "memo": null, "payTypes": "", "shopTypes": null, "consumeTypes": null, "cookTypes": null, "orderNum": null, "card4no": null, "card4noAcc": null, "district2": 417, "searchScope": null, "status": 1, "address": "\u9752\u677e\u8def45\u53f7", "name": "\u9752\u677e\u8def\u5e97", "id": 476799476636319744, "pageNo": 0, "pageCount": null, "pageSize": 10, "ids": null, "endTime": null, "startTime": null}, {"cardNumFive": null, "isSupportYj": null, "cityName": null, "districtName": null, "shopinfo": {"mid": "888002154110276", "good_flag": null, "new_flag": "2", "short_name": "\u5168\u5bb6\u4fbf\u5229", "short_name_pinyin": "quanjiabianli", "status": null, "address": null, "name": null, "id": "43229"}, "mid": "888002154110276", "shopId": "43229", "netid": null, "province": 901, "district": 601, "zipcode": null, "telephone": null, "posDate": null, "destineTel": null, "togoTel": null, "trafficWay": null, "signBuilding": null, "businessArea": null, "selfRoom": null, "businessTime": null, "stall": null, "consume": null, "serviceFei": null, "favourable": null, "shopMemo": null, "appraise": null, "website": null, "memo": null, "payTypes": "", "shopTypes": null, "consumeTypes": null, "cookTypes": null, "orderNum": null, "card4no": null, "card4noAcc": null, "district2": 416, "searchScope": null, "status": 1, "address": "\u53cb\u8c0a\u8def37\u53f7-1,2", "name": "\u53cb\u8c0a\u8def\u5e97", "id": 476799477122859008, "pageNo": 0, "pageCount": null, "pageSize": 10, "ids": null, "endTime": null, "startTime": null}], "pageLimit": 7730, "size": 10}