{"pageCount": 1095, "count": 10942, "pageNo": 773, "subShopInfo": {"cardNumFive": "", "isSupportYj": "", "cityName": null, "districtName": null, "shopinfo": {"mid": null, "good_flag": null, "new_flag": null, "short_name": null, "short_name_pinyin": null, "status": null, "address": "", "name": "", "id": null}, "mid": null, "shopId": null, "netid": null, "province": 901, "district": null, "zipcode": null, "telephone": null, "posDate": null, "destineTel": null, "togoTel": null, "trafficWay": null, "signBuilding": null, "businessArea": null, "selfRoom": null, "businessTime": null, "stall": null, "consume": null, "serviceFei": null, "favourable": null, "shopMemo": "1", "appraise": null, "website": null, "memo": null, "payTypes": "", "shopTypes": "", "consumeTypes": null, "cookTypes": null, "orderNum": null, "card4no": null, "card4noAcc": null, "district2": null, "searchScope": null, "status": null, "address": "", "name": null, "id": null, "pageNo": 772, "pageCount": null, "pageSize": 10, "ids": null, "endTime": null, "startTime": null}, "list": [{"cardNumFive": null, "isSupportYj": null, "cityName": null, "districtName": null, "shopinfo": {"mid": "888002154110276", "good_flag": null, "new_flag": "2", "short_name": "\u5168\u5bb6\u4fbf\u5229", "short_name_pinyin": "quanjiabianli", "status": null, "address": null, "name": null, "id": "43229"}, "mid": "888002154110276", "shopId": "43229", "netid": null, "province": 901, "district": 601, "zipcode": null, "telephone": null, "posDate": null, "destineTel": null, "togoTel": null, "trafficWay": null, "signBuilding": null, "businessArea": null, "selfRoom": null, "businessTime": null, "stall": null, "consume": null, "serviceFei": null, "favourable": null, "shopMemo": null, "appraise": null, "website": null, "memo": null, "payTypes": "", "shopTypes": null, "consumeTypes": null, "cookTypes": null, "orderNum": null, "card4no": null, "card4noAcc": null, "district2": 406, "searchScope": null, "status": 1, "address": "\u901a\u534f\u8def278\u53f7101-03\u5ba4", "name": "\u901a\u534f\u8def\u5e97", "id": 476799464871297024, "pageNo": 0, "pageCount": null, "pageSize": 10, "ids": null, "endTime": null, "startTime": null}, {"cardNumFive": null, "isSupportYj": null, "cityName": null, "districtName": null, "shopinfo": {"mid": "888002154110276", "good_flag": null, "new_flag": "2", "short_name": "\u5168\u5bb6\u4fbf\u5229", "short_name_pinyin": "quanjiabianli", "status": null, "address": null, "name": null, "id": "43229"}, "mid": "888002154110276", "shopId": "43229", "netid": null, "province": 901, "district": 601, "zipcode": null, "telephone": null, "posDate": null, "destineTel": null, "togoTel": null, "trafficWay": null, "signBuilding": null, "businessArea": null, "selfRoom": null, "businessTime": null, "stall": null, "consume": null, "serviceFei": null, "favourable": null, "shopMemo": null, "appraise": null, "website": null, "memo": null, "payTypes": "", "shopTypes": null, "consumeTypes": null, "cookTypes": null, "orderNum": null, "card4no": null, "card4noAcc": null, "district2": 418, "searchScope": null, "status": 1, "address": "\u5e74\u5bb6\u6d5c\u8def5-1,7\u53f71\u5c42", "name": "\u5e74\u5bb6\u6d5c\u8def\u4e09\u5e97", "id": 476799465320087552, "pageNo": 0, "pageCount": null, "pageSize": 10, "ids": null, "endTime": null, "startTime": null}, {"cardNumFive": null, "isSupportYj": null, "cityName": null, "districtName": null, "shopinfo": {"mid": "888002154110276", "good_flag": null, "new_flag": "2", "short_name": "\u5168\u5bb6\u4fbf\u5229", "short_name_pinyin": "quanjiabianli", "status": null, "address": null, "name": null, "id": "43229"}, "mid": "888002154110276", "shopId": "43229", "netid": null, "province": 901, "district": 601, "zipcode": null, "telephone": null, "posDate": null, "destineTel": null, "togoTel": null, "trafficWay": null, "signBuilding": null, "businessArea": null, "selfRoom": null, "businessTime": null, "stall": null, "consume": null, "serviceFei": null, "favourable": null, "shopMemo": null, "appraise": null, "website": null, "memo": null, "payTypes": "", "shopTypes": null, "consumeTypes": null, "cookTypes": null, "orderNum": null, "card4no": null, "card4noAcc": null, "district2": 416, "searchScope": null, "status": 1, "address": "\u5409\u6d66\u8def319\u53f71\u5c42", "name": "\u5409\u6d66\u8def\u5e97", "id": 476799466125393920, "pageNo": 0, "pageCount": null, "pageSize": 10, "ids": null, "endTime": null, "startTime": null}, {"cardNumFive": null, "isSupportYj": null, "cityName": null, "districtName": null, "shopinfo": {"mid": "888002154110276", "good_flag": null, "new_flag": "2", "short_name": "\u5168\u5bb6\u4fbf\u5229", "short_name_pinyin": "quanjiabianli", "status": null, "address": null, "name": null, "id": "43229"}, "mid": "888002154110276", "shopId": "43229", "netid": null, "province": 901, "district": 601, "zipcode": null, "telephone": null, "posDate": null, "destineTel": null, "togoTel": null, "trafficWay": null, "signBuilding": null, "businessArea": null, "selfRoom": null, "businessTime": null, "stall": null, "consume": null, "serviceFei": null, "favourable": null, "shopMemo": null, "appraise": null, "website": null, "memo": null, "payTypes": "", "shopTypes": null, "consumeTypes": null, "cookTypes": null, "orderNum": null, "card4no": null, "card4noAcc": null, "district2": 418, "searchScope": null, "status": 1, "address": "\u57ce\u5357\u8def485\u5f042\u53f7", "name": "\u57ce\u5357\u8def\u5e97", "id": 476799466574184448, "pageNo": 0, "pageCount": null, "pageSize": 10, "ids": null, "endTime": null, "startTime": null}, {"cardNumFive": null, "isSupportYj": null, "cityName": null, "districtName": null, "shopinfo": {"mid": "888002154110276", "good_flag": null, "new_flag": "2", "short_name": "\u5168\u5bb6\u4fbf\u5229", "short_name_pinyin": "quanjiabianli", "status": null, "address": null, "name": null, "id": "43229"}, "mid": "888002154110276", "shopId": "43229", "netid": null, "province": 901, "district": 601, "zipcode": null, "telephone": null, "posDate": null, "destineTel": null, "togoTel": null, "trafficWay": null, "signBuilding": null, "businessArea": null, "selfRoom": null, "businessTime": null, "stall": null, "consume": null, "serviceFei": null, "favourable": null, "shopMemo": null, "appraise": null, "website": null, "memo": null, "payTypes": "", "shopTypes": null, "consumeTypes": null, "cookTypes": null, "orderNum": null, "card4no": null, "card4noAcc": null, "district2": 401, "searchScope": null, "status": 1, "address": "\u4e00\u53f7\u7ebf\u9ec4\u9642\u5357\u8def\u5730\u94c1\u7ad9", "name": "\u9ec4\u9642\u5357\u8def\u7ad9\u5e97", "id": 476799467002003456, "pageNo": 0, "pageCount": null, "pageSize": 10, "ids": null, "endTime": null, "startTime": null}, {"cardNumFive": null, "isSupportYj": null, "cityName": null, "districtName": null, "shopinfo": {"mid": "888002154110276", "good_flag": null, "new_flag": "2", "short_name": "\u5168\u5bb6\u4fbf\u5229", "short_name_pinyin": "quanjiabianli", "status": null, "address": null, "name": null, "id": "43229"}, "mid": "888002154110276", "shopId": "43229", "netid": null, "province": 901, "district": 601, "zipcode": null, "telephone": null, "posDate": null, "destineTel": null, "togoTel": null, "trafficWay": null, "signBuilding": null, "businessArea": null, "selfRoom": null, "businessTime": null, "stall": null, "consume": null, "serviceFei": null, "favourable": null, "shopMemo": null, "appraise": null, "website": null, "memo": null, "payTypes": "", "shopTypes": null, "consumeTypes": null, "cookTypes": null, "orderNum": null, "card4no": null, "card4noAcc": null, "district2": 406, "searchScope": null, "status": 1, "address": "\u7a7a\u6e2f\u4e00\u8def89\u53f7106\u5ba4", "name": "\u7a7a\u6e2f\u4e00\u8def\u5e97", "id": 476799467668897792, "pageNo": 0, "pageCount": null, "pageSize": 10, "ids": null, "endTime": null, "startTime": null}, {"cardNumFive": null, "isSupportYj": null, "cityName": null, "districtName": null, "shopinfo": {"mid": "888002154110276", "good_flag": null, "new_flag": "2", "short_name": "\u5168\u5bb6\u4fbf\u5229", "short_name_pinyin": "quanjiabianli", "status": null, "address": null, "name": null, "id": "43229"}, "mid": "888002154110276", "shopId": "43229", "netid": null, "province": 901, "district": 601, "zipcode": null, "telephone": null, "posDate": null, "destineTel": null, "togoTel": null, "trafficWay": null, "signBuilding": null, "businessArea": null, "selfRoom": null, "businessTime": null, "stall": null, "consume": null, "serviceFei": null, "favourable": null, "shopMemo": null, "appraise": null, "website": null, "memo": null, "payTypes": "", "shopTypes": null, "consumeTypes": null, "cookTypes": null, "orderNum": null, "card4no": null, "card4noAcc": null, "district2": 405, "searchScope": null, "status": 1, "address": "\u5170\u6eaa\u8def164\u53f72\u53f7\u697c", "name": "\u5170\u6eaa\u8def\u4e8c\u5e97", "id": 476799468449038336, "pageNo": 0, "pageCount": null, "pageSize": 10, "ids": null, "endTime": null, "startTime": null}, {"cardNumFive": null, "isSupportYj": null, "cityName": null, "districtName": null, "shopinfo": {"mid": "888002154110276", "good_flag": null, "new_flag": "2", "short_name": "\u5168\u5bb6\u4fbf\u5229", "short_name_pinyin": "quanjiabianli", "status": null, "address": null, "name": null, "id": "43229"}, "mid": "888002154110276", "shopId": "43229", "netid": null, "province": 901, "district": 601, "zipcode": null, "telephone": null, "posDate": null, "destineTel": null, "togoTel": null, "trafficWay": null, "signBuilding": null, "businessArea": null, "selfRoom": null, "businessTime": null, "stall": null, "consume": null, "serviceFei": null, "favourable": null, "shopMemo": null, "appraise": null, "website": null, "memo": null, "payTypes": "", "shopTypes": null, "consumeTypes": null, "cookTypes": null, "orderNum": null, "card4no": null, "card4noAcc": null, "district2": 415, "searchScope": null, "status": 1, "address": "\u7389\u73af\u8def\u6c5f\u5c71\u65b0\u675166\u53f7543\u5ba4", "name": "\u6c5f\u5c71\u65b0\u6751\u5e97", "id": 476799469061406720, "pageNo": 0, "pageCount": null, "pageSize": 10, "ids": null, "endTime": null, "startTime": null}, {"cardNumFive": null, "isSupportYj": null, "cityName": null, "districtName": null, "shopinfo": {"mid": "888002154110276", "good_flag": null, "new_flag": "2", "short_name": "\u5168\u5bb6\u4fbf\u5229", "short_name_pinyin": "quanjiabianli", "status": null, "address": null, "name": null, "id": "43229"}, "mid": "888002154110276", "shopId": "43229", "netid": null, "province": 901, "district": 601, "zipcode": null, "telephone": null, "posDate": null, "destineTel": null, "togoTel": null, "trafficWay": null, "signBuilding": null, "businessArea": null, "selfRoom": null, "businessTime": null, "stall": null, "consume": null, "serviceFei": null, "favourable": null, "shopMemo": null, "appraise": null, "website": null, "memo": null, "payTypes": "", "shopTypes": null, "consumeTypes": null, "cookTypes": null, "orderNum": null, "card4no": null, "card4noAcc": null, "district2": 405, "searchScope": null, "status": 1, "address": "\u5b81\u590f\u8def679\u53f71\u5c42102\u5ba4", "name": "\u5b81\u590f\u8def\u5e97", "id": 476799469753466880, "pageNo": 0, "pageCount": null, "pageSize": 10, "ids": null, "endTime": null, "startTime": null}, {"cardNumFive": null, "isSupportYj": null, "cityName": null, "districtName": null, "shopinfo": {"mid": "888002154110276", "good_flag": null, "new_flag": "2", "short_name": "\u5168\u5bb6\u4fbf\u5229", "short_name_pinyin": "quanjiabianli", "status": null, "address": null, "name": null, "id": "43229"}, "mid": "888002154110276", "shopId": "43229", "netid": null, "province": 901, "district": 601, "zipcode": null, "telephone": null, "posDate": null, "destineTel": null, "togoTel": null, "trafficWay": null, "signBuilding": null, "businessArea": null, "selfRoom": null, "businessTime": null, "stall": null, "consume": null, "serviceFei": null, "favourable": null, "shopMemo": null, "appraise": null, "website": null, "memo": null, "payTypes": "", "shopTypes": null, "consumeTypes": null, "cookTypes": null, "orderNum": null, "card4no": null, "card4noAcc": null, "district2": 418, "searchScope": null, "status": 1, "address": "\u4e1c\u65b9\u8def791\u53f7B1\u5c42-H", "name": "\u4e16\u7eaa\u5927\u9053\u4e09\u5e97", "id": 476799470672019456, "pageNo": 0, "pageCount": null, "pageSize": 10, "ids": null, "endTime": null, "startTime": null}], "pageLimit": 7720, "size": 10}