{"pageCount": 1095, "count": 10942, "pageNo": 792, "subShopInfo": {"cardNumFive": "", "isSupportYj": "", "cityName": null, "districtName": null, "shopinfo": {"mid": null, "good_flag": null, "new_flag": null, "short_name": null, "short_name_pinyin": null, "status": null, "address": "", "name": "", "id": null}, "mid": null, "shopId": null, "netid": null, "province": 901, "district": null, "zipcode": null, "telephone": null, "posDate": null, "destineTel": null, "togoTel": null, "trafficWay": null, "signBuilding": null, "businessArea": null, "selfRoom": null, "businessTime": null, "stall": null, "consume": null, "serviceFei": null, "favourable": null, "shopMemo": "1", "appraise": null, "website": null, "memo": null, "payTypes": "", "shopTypes": "", "consumeTypes": null, "cookTypes": null, "orderNum": null, "card4no": null, "card4noAcc": null, "district2": null, "searchScope": null, "status": null, "address": "", "name": null, "id": null, "pageNo": 791, "pageCount": null, "pageSize": 10, "ids": null, "endTime": null, "startTime": null}, "list": [{"cardNumFive": null, "isSupportYj": null, "cityName": null, "districtName": null, "shopinfo": {"mid": "888888854110045", "good_flag": null, "new_flag": null, "short_name": "\u5c48\u81e3\u6c0f", "short_name_pinyin": "quchenshi", "status": null, "address": null, "name": null, "id": "32824"}, "mid": "888888854110045", "shopId": "32824", "netid": null, "province": 901, "district": 601, "zipcode": null, "telephone": "54960666*604", "posDate": "20070919", "destineTel": null, "togoTel": null, "trafficWay": "\u65c5\u6e382\u53f7\u7ebf \u60e0\u677e\u7ebf", "signBuilding": null, "businessArea": null, "selfRoom": null, "businessTime": "9:00~22:00", "stall": null, "consume": null, "serviceFei": null, "favourable": null, "shopMemo": null, "appraise": null, "website": null, "memo": null, "payTypes": "\u6749\u5fb7\u5361", "shopTypes": "\u8d85\u5e02", "consumeTypes": null, "cookTypes": null, "orderNum": 1000, "card4no": null, "card4noAcc": null, "district2": 418, "searchScope": null, "status": 1, "address": "\u4eba\u6c11\u4e1c\u8def2635\u5f0497\u300199\u3001101\u53f7", "name": "\u5c48\u81e3\u6c0f \u4eba\u6c11\u4e1c\u8def\u6b65\u884c\u8857\u5e97", "id": 140620, "pageNo": 0, "pageCount": null, "pageSize": 10, "ids": null, "endTime": null, "startTime": null}, {"cardNumFive": null, "isSupportYj": null, "cityName": null, "districtName": null, "shopinfo": {"mid": "888888854110045", "good_flag": null, "new_flag": null, "short_name": "\u5c48\u81e3\u6c0f", "short_name_pinyin": "quchenshi", "status": null, "address": null, "name": null, "id": "32824"}, "mid": "888888854110045", "shopId": "32824", "netid": null, "province": 901, "district": 601, "zipcode": null, "telephone": "54960666*604", "posDate": "20070914", "destineTel": null, "togoTel": null, "trafficWay": "\u5730\u94c1\u56db\u53f7\u7ebf \u6caa\u77f3\u7ebf", "signBuilding": null, "businessArea": null, "selfRoom": null, "businessTime": "9:00~22:00", "stall": null, "consume": null, "serviceFei": null, "favourable": null, "shopMemo": null, "appraise": null, "website": null, "memo": null, "payTypes": "\u6749\u5fb7\u5361", "shopTypes": "\u8d85\u5e02", "consumeTypes": null, "cookTypes": null, "orderNum": 1000, "card4no": null, "card4noAcc": null, "district2": 408, "searchScope": null, "status": 1, "address": "\u4e34\u5e73\u8def123\u53f7\u745e\u8679\u65b0\u57ce1\u5c4229\u5355\u51432\u5c4219\u5355\u5143", "name": "\u5c48\u81e3\u6c0f \u745e\u8679\u751f\u6d3b\u5e7f\u573a\u5e97", "id": 140621, "pageNo": 0, "pageCount": null, "pageSize": 10, "ids": null, "endTime": null, "startTime": null}, {"cardNumFive": null, "isSupportYj": null, "cityName": null, "districtName": null, "shopinfo": {"mid": "888888854110045", "good_flag": null, "new_flag": null, "short_name": "\u5c48\u81e3\u6c0f", "short_name_pinyin": "quchenshi", "status": null, "address": null, "name": null, "id": "32824"}, "mid": "888888854110045", "shopId": "32824", "netid": null, "province": 901, "district": 601, "zipcode": null, "telephone": "57826948", "posDate": "20070917", "destineTel": null, "togoTel": null, "trafficWay": "\u6caa\u677e\u7ebf \u677e\u6885\u7ebf \u60e0\u677e\u7ebf", "signBuilding": null, "businessArea": null, "selfRoom": null, "businessTime": "9:00~22:00", "stall": null, "consume": null, "serviceFei": null, "favourable": null, "shopMemo": null, "appraise": null, "website": null, "memo": null, "payTypes": "\u6749\u5fb7\u5361", "shopTypes": "\u8d85\u5e02", "consumeTypes": null, "cookTypes": null, "orderNum": 1000, "card4no": null, "card4noAcc": null, "district2": 412, "searchScope": null, "status": 1, "address": "\u4e50\u90fd\u8def348\u53f7", "name": "\u5c48\u81e3\u6c0f \u677e\u6c5f\u5e97", "id": 140623, "pageNo": 0, "pageCount": null, "pageSize": 10, "ids": null, "endTime": null, "startTime": null}, {"cardNumFive": null, "isSupportYj": null, "cityName": null, "districtName": null, "shopinfo": {"mid": "888888854110045", "good_flag": null, "new_flag": null, "short_name": "\u5c48\u81e3\u6c0f", "short_name_pinyin": "quchenshi", "status": null, "address": null, "name": null, "id": "32824"}, "mid": "888888854110045", "shopId": "32824", "netid": null, "province": 901, "district": 601, "zipcode": null, "telephone": null, "posDate": "20070921", "destineTel": null, "togoTel": null, "trafficWay": "\u516c\u4ea4946 \u5730\u94c1\u4e00\u53f7\u7ebf", "signBuilding": "\u516b\u4e07\u4eba\u4f53\u80b2\u9986", "businessArea": null, "selfRoom": null, "businessTime": null, "stall": null, "consume": null, "serviceFei": null, "favourable": null, "shopMemo": null, "appraise": null, "website": null, "memo": null, "payTypes": "\u6749\u5fb7\u5361", "shopTypes": "\u8d85\u5e02", "consumeTypes": null, "cookTypes": null, "orderNum": 1000, "card4no": null, "card4noAcc": null, "district2": 403, "searchScope": null, "status": 1, "address": "\u5929\u94a5\u6865\u8def333\u53f7\u817e\u98de\u5927\u53a6", "name": "\u5c48\u81e3\u6c0f \u817e\u98de\u5e97", "id": 140624, "pageNo": 0, "pageCount": null, "pageSize": 10, "ids": null, "endTime": null, "startTime": null}, {"cardNumFive": null, "isSupportYj": null, "cityName": null, "districtName": null, "shopinfo": {"mid": "888888854110045", "good_flag": null, "new_flag": null, "short_name": "\u5c48\u81e3\u6c0f", "short_name_pinyin": "quchenshi", "status": null, "address": null, "name": null, "id": "32824"}, "mid": "888888854110045", "shopId": "32824", "netid": null, "province": 901, "district": 601, "zipcode": null, "telephone": "62330166", "posDate": "20080117", "destineTel": null, "togoTel": null, "trafficWay": "\u516c\u4ea4855 72 836", "signBuilding": null, "businessArea": null, "selfRoom": null, "businessTime": null, "stall": null, "consume": null, "serviceFei": null, "favourable": null, "shopMemo": null, "appraise": null, "website": null, "memo": null, "payTypes": "\u6749\u5fb7\u5361", "shopTypes": "\u8d85\u5e02", "consumeTypes": null, "cookTypes": null, "orderNum": 1000, "card4no": null, "card4noAcc": null, "district2": 406, "searchScope": null, "status": 1, "address": "\u5929\u5c71\u8def789\u53f7\u4e00\u697c", "name": "\u5c48\u81e3\u6c0f \u5929\u5c71\u5e97", "id": 140625, "pageNo": 0, "pageCount": null, "pageSize": 10, "ids": null, "endTime": null, "startTime": null}, {"cardNumFive": null, "isSupportYj": null, "cityName": null, "districtName": null, "shopinfo": {"mid": "888888854110045", "good_flag": null, "new_flag": null, "short_name": "\u5c48\u81e3\u6c0f", "short_name_pinyin": "quchenshi", "status": null, "address": null, "name": null, "id": "32824"}, "mid": "888888854110045", "shopId": "32824", "netid": null, "province": 901, "district": 601, "zipcode": null, "telephone": "64229533", "posDate": "200908", "destineTel": null, "togoTel": null, "trafficWay": "\u516c\u4ea4165\u3001105", "signBuilding": null, "businessArea": null, "selfRoom": null, "businessTime": null, "stall": null, "consume": null, "serviceFei": null, "favourable": null, "shopMemo": null, "appraise": null, "website": null, "memo": null, "payTypes": "\u6749\u5fb7\u5361", "shopTypes": "\u8d85\u5e02", "consumeTypes": null, "cookTypes": null, "orderNum": 1000, "card4no": null, "card4noAcc": null, "district2": 405, "searchScope": null, "status": 1, "address": "\u771f\u5317\u8def\u94dc\u5ddd\u4e50\u8d2d\u5e97\u5185", "name": "\u5c48\u81e3\u6c0f \u94dc\u5ddd\u5e97", "id": 140626, "pageNo": 0, "pageCount": null, "pageSize": 10, "ids": null, "endTime": null, "startTime": null}, {"cardNumFive": null, "isSupportYj": null, "cityName": null, "districtName": null, "shopinfo": {"mid": "888888854110045", "good_flag": null, "new_flag": null, "short_name": "\u5c48\u81e3\u6c0f", "short_name_pinyin": "quchenshi", "status": null, "address": null, "name": null, "id": "32824"}, "mid": "888888854110045", "shopId": "32824", "netid": null, "province": 901, "district": 601, "zipcode": null, "telephone": null, "posDate": "20070920", "destineTel": null, "togoTel": null, "trafficWay": "\u516c\u4ea4937 910 966", "signBuilding": null, "businessArea": null, "selfRoom": null, "businessTime": null, "stall": null, "consume": null, "serviceFei": null, "favourable": null, "shopMemo": null, "appraise": null, "website": null, "memo": null, "payTypes": "\u6749\u5fb7\u5361", "shopTypes": "\u8d85\u5e02", "consumeTypes": null, "cookTypes": null, "orderNum": 1000, "card4no": null, "card4noAcc": null, "district2": 407, "searchScope": null, "status": 1, "address": "\u6dde\u6caa\u8def88\u53f7\u4e07\u8fbe\u5546\u4e1a\u5e7f\u573a\u5730\u4e0b\u4e00\u5c42", "name": "\u5c48\u81e3\u6c0f \u4e94\u89d2\u573a\u4e07\u8fbe\u5e97", "id": 140627, "pageNo": 0, "pageCount": null, "pageSize": 10, "ids": null, "endTime": null, "startTime": null}, {"cardNumFive": null, "isSupportYj": null, "cityName": null, "districtName": null, "shopinfo": {"mid": "888888854110045", "good_flag": null, "new_flag": null, "short_name": "\u5c48\u81e3\u6c0f", "short_name_pinyin": "quchenshi", "status": null, "address": null, "name": null, "id": "32824"}, "mid": "888888854110045", "shopId": "32824", "netid": null, "province": 901, "district": 601, "zipcode": null, "telephone": null, "posDate": "20070918", "destineTel": null, "togoTel": null, "trafficWay": "\u516c\u4ea4836 91", "signBuilding": null, "businessArea": null, "selfRoom": null, "businessTime": "9:00~22:00", "stall": null, "consume": null, "serviceFei": null, "favourable": null, "shopMemo": null, "appraise": null, "website": null, "memo": null, "payTypes": "\u6749\u5fb7\u5361", "shopTypes": "\u8d85\u5e02", "consumeTypes": null, "cookTypes": null, "orderNum": 1000, "card4no": null, "card4noAcc": null, "district2": 406, "searchScope": null, "status": 1, "address": "\u4ed9\u971e\u897f\u8def88\u53f7", "name": "\u5c48\u81e3\u6c0f \u897f\u90ca\u767e\u8054\u5e97", "id": 140629, "pageNo": 0, "pageCount": null, "pageSize": 10, "ids": null, "endTime": null, "startTime": null}, {"cardNumFive": null, "isSupportYj": null, "cityName": null, "districtName": null, "shopinfo": {"mid": "888888854110045", "good_flag": null, "new_flag": null, "short_name": "\u5c48\u81e3\u6c0f", "short_name_pinyin": "quchenshi", "status": null, "address": null, "name": null, "id": "32824"}, "mid": "888888854110045", "shopId": "32824", "netid": null, "province": 901, "district": 601, "zipcode": null, "telephone": "63595710", "posDate": "20070917", "destineTel": null, "togoTel": null, "trafficWay": "\u5730\u94c1\u4e00\u53f7\u7ebf", "signBuilding": null, "businessArea": null, "selfRoom": null, "businessTime": "9:00~22:00", "stall": null, "consume": null, "serviceFei": null, "favourable": null, "shopMemo": null, "appraise": null, "website": null, "memo": null, "payTypes": "\u6749\u5fb7\u5361", "shopTypes": "\u8d85\u5e02", "consumeTypes": null, "cookTypes": null, "orderNum": 1000, "card4no": null, "card4noAcc": null, "district2": 401, "searchScope": null, "status": 1, "address": "\u5357\u4eac\u897f\u8def2-68\u53f7", "name": "\u5c48\u81e3\u6c0f \u65b0\u4e16\u754c\u57ce\u5e97", "id": 140630, "pageNo": 0, "pageCount": null, "pageSize": 10, "ids": null, "endTime": null, "startTime": null}, {"cardNumFive": null, "isSupportYj": null, "cityName": null, "districtName": null, "shopinfo": {"mid": "888888854110045", "good_flag": null, "new_flag": null, "short_name": "\u5c48\u81e3\u6c0f", "short_name_pinyin": "quchenshi", "status": null, "address": null, "name": null, "id": "32824"}, "mid": "888888854110045", "shopId": "32824", "netid": null, "province": 901, "district": 601, "zipcode": null, "telephone": null, "posDate": "200911", "destineTel": null, "togoTel": null, "trafficWay": null, "signBuilding": null, "businessArea": null, "selfRoom": null, "businessTime": null, "stall": null, "consume": null, "serviceFei": null, "favourable": null, "shopMemo": null, "appraise": null, "website": null, "memo": null, "payTypes": "\u6749\u5fb7\u5361", "shopTypes": "\u8d85\u5e02", "consumeTypes": null, "cookTypes": null, "orderNum": 1000, "card4no": null, "card4noAcc": null, "district2": 412, "searchScope": null, "status": 1, "address": "\u65b0\u677e\u8def925\u5f041141\u5ba4\u5f00\u5143\u5546\u573a", "name": "\u5c48\u81e3\u6c0f \u65b0\u677e\u8def\u5e97", "id": 140632, "pageNo": 0, "pageCount": null, "pageSize": 10, "ids": null, "endTime": null, "startTime": null}], "pageLimit": 7910, "size": 10}