{"pageCount": 1095, "count": 10942, "pageNo": 790, "subShopInfo": {"cardNumFive": "", "isSupportYj": "", "cityName": null, "districtName": null, "shopinfo": {"mid": null, "good_flag": null, "new_flag": null, "short_name": null, "short_name_pinyin": null, "status": null, "address": "", "name": "", "id": null}, "mid": null, "shopId": null, "netid": null, "province": 901, "district": null, "zipcode": null, "telephone": null, "posDate": null, "destineTel": null, "togoTel": null, "trafficWay": null, "signBuilding": null, "businessArea": null, "selfRoom": null, "businessTime": null, "stall": null, "consume": null, "serviceFei": null, "favourable": null, "shopMemo": "1", "appraise": null, "website": null, "memo": null, "payTypes": "", "shopTypes": "", "consumeTypes": null, "cookTypes": null, "orderNum": null, "card4no": null, "card4noAcc": null, "district2": null, "searchScope": null, "status": null, "address": "", "name": null, "id": null, "pageNo": 789, "pageCount": null, "pageSize": 10, "ids": null, "endTime": null, "startTime": null}, "list": [{"cardNumFive": null, "isSupportYj": null, "cityName": null, "districtName": null, "shopinfo": {"mid": "888888854110045", "good_flag": null, "new_flag": null, "short_name": "\u5c48\u81e3\u6c0f", "short_name_pinyin": "quchenshi", "status": null, "address": null, "name": null, "id": "32824"}, "mid": "888888854110045", "shopId": "32824", "netid": null, "province": 901, "district": 601, "zipcode": null, "telephone": null, "posDate": "20070914", "destineTel": null, "togoTel": null, "trafficWay": "\u65c5\u6e3810\u53f7\u7ebf \u516c\u4ea415\u8def", "signBuilding": null, "businessArea": null, "selfRoom": null, "businessTime": "9:00~22:00", "stall": null, "consume": null, "serviceFei": null, "favourable": null, "shopMemo": null, "appraise": null, "website": null, "memo": null, "payTypes": "\u6749\u5fb7\u5361", "shopTypes": "\u8d85\u5e02", "consumeTypes": null, "cookTypes": null, "orderNum": 1000, "card4no": null, "card4noAcc": null, "district2": 408, "searchScope": null, "status": 1, "address": "\u56db\u5ddd\u5317\u8def818\u53f7", "name": "\u5c48\u81e3\u6c0f \u4e8c\u5341\u4e00\u4e16\u7eaa\u5e97", "id": 140591, "pageNo": 0, "pageCount": null, "pageSize": 10, "ids": null, "endTime": null, "startTime": null}, {"cardNumFive": null, "isSupportYj": null, "cityName": null, "districtName": null, "shopinfo": {"mid": "888888854110045", "good_flag": null, "new_flag": null, "short_name": "\u5c48\u81e3\u6c0f", "short_name_pinyin": "quchenshi", "status": null, "address": null, "name": null, "id": "32824"}, "mid": "888888854110045", "shopId": "32824", "netid": null, "province": 901, "district": 601, "zipcode": null, "telephone": null, "posDate": "20091228", "destineTel": null, "togoTel": null, "trafficWay": null, "signBuilding": null, "businessArea": null, "selfRoom": null, "businessTime": null, "stall": null, "consume": null, "serviceFei": null, "favourable": null, "shopMemo": null, "appraise": null, "website": null, "memo": null, "payTypes": "\u6749\u5fb7\u5361", "shopTypes": "\u8d85\u5e02", "consumeTypes": null, "cookTypes": null, "orderNum": 1000, "card4no": null, "card4noAcc": null, "district2": 417, "searchScope": null, "status": 1, "address": "\u9752\u6d66\u516c\u56ed\u8def458\u53f7", "name": "\u5c48\u81e3\u6c0f \u516c\u56ed\u8def\u5e97", "id": 140593, "pageNo": 0, "pageCount": null, "pageSize": 10, "ids": null, "endTime": null, "startTime": null}, {"cardNumFive": null, "isSupportYj": null, "cityName": null, "districtName": null, "shopinfo": {"mid": "888888854110045", "good_flag": null, "new_flag": null, "short_name": "\u5c48\u81e3\u6c0f", "short_name_pinyin": "quchenshi", "status": null, "address": null, "name": null, "id": "32824"}, "mid": "888888854110045", "shopId": "32824", "netid": null, "province": 901, "district": 601, "zipcode": null, "telephone": "55663731", "posDate": null, "destineTel": null, "togoTel": null, "trafficWay": null, "signBuilding": null, "businessArea": null, "selfRoom": null, "businessTime": null, "stall": null, "consume": null, "serviceFei": null, "favourable": null, "shopMemo": null, "appraise": null, "website": null, "memo": null, "payTypes": "\u6749\u5fb7\u5361", "shopTypes": "\u8d85\u5e02", "consumeTypes": null, "cookTypes": null, "orderNum": 1000, "card4no": null, "card4noAcc": null, "district2": 407, "searchScope": null, "status": 1, "address": "\u56fd\u5b9a\u8def323\u53f7", "name": "\u5c48\u81e3\u6c0f \u56fd\u5b9a\u8def\u5e97", "id": 140594, "pageNo": 0, "pageCount": null, "pageSize": 10, "ids": null, "endTime": null, "startTime": null}, {"cardNumFive": null, "isSupportYj": null, "cityName": null, "districtName": null, "shopinfo": {"mid": "888888854110045", "good_flag": null, "new_flag": null, "short_name": "\u5c48\u81e3\u6c0f", "short_name_pinyin": "quchenshi", "status": null, "address": null, "name": null, "id": "32824"}, "mid": "888888854110045", "shopId": "32824", "netid": null, "province": 901, "district": 601, "zipcode": null, "telephone": null, "posDate": "20070917", "destineTel": null, "togoTel": null, "trafficWay": "\u5730\u94c1\u4e8c\u53f7\u7ebf", "signBuilding": null, "businessArea": null, "selfRoom": null, "businessTime": "9:00~22:00", "stall": null, "consume": null, "serviceFei": null, "favourable": null, "shopMemo": null, "appraise": null, "website": null, "memo": null, "payTypes": "\u6749\u5fb7\u5361", "shopTypes": "\u8d85\u5e02", "consumeTypes": null, "cookTypes": null, "orderNum": 1000, "card4no": null, "card4noAcc": null, "district2": 401, "searchScope": null, "status": 1, "address": "\u5357\u4eac\u8def\u6cb3\u5357\u8def\u5730\u94c13\u53f7\u51fa\u53e3", "name": "\u5c48\u81e3\u6c0f \u5b8f\u4f0a\u5e97", "id": 140595, "pageNo": 0, "pageCount": null, "pageSize": 10, "ids": null, "endTime": null, "startTime": null}, {"cardNumFive": null, "isSupportYj": null, "cityName": null, "districtName": null, "shopinfo": {"mid": "888888854110045", "good_flag": null, "new_flag": null, "short_name": "\u5c48\u81e3\u6c0f", "short_name_pinyin": "quchenshi", "status": null, "address": null, "name": null, "id": "32824"}, "mid": "888888854110045", "shopId": "32824", "netid": null, "province": 901, "district": 601, "zipcode": null, "telephone": "63296413", "posDate": "20070917", "destineTel": null, "togoTel": null, "trafficWay": "\u516c\u4ea442 49 864 \u5730\u94c1\u4e8c\u53f7\u7ebf", "signBuilding": null, "businessArea": null, "selfRoom": null, "businessTime": "9:00~22:00", "stall": null, "consume": null, "serviceFei": null, "favourable": null, "shopMemo": null, "appraise": null, "website": null, "memo": null, "payTypes": "\u6749\u5fb7\u5361", "shopTypes": "\u8d85\u5e02", "consumeTypes": null, "cookTypes": null, "orderNum": 1000, "card4no": null, "card4noAcc": null, "district2": 401, "searchScope": null, "status": 1, "address": "\u5357\u4eac\u4e1c\u8def98-100\u53f7", "name": "\u5c48\u81e3\u6c0f \u60e0\u7f57\u5e97", "id": 140598, "pageNo": 0, "pageCount": null, "pageSize": 10, "ids": null, "endTime": null, "startTime": null}, {"cardNumFive": null, "isSupportYj": null, "cityName": null, "districtName": null, "shopinfo": {"mid": "888888854110045", "good_flag": null, "new_flag": null, "short_name": "\u5c48\u81e3\u6c0f", "short_name_pinyin": "quchenshi", "status": null, "address": null, "name": null, "id": "32824"}, "mid": "888888854110045", "shopId": "32824", "netid": null, "province": 901, "district": 601, "zipcode": null, "telephone": null, "posDate": "20070921", "destineTel": null, "togoTel": null, "trafficWay": "\u60e0\u5609\u7ebf \u6caa\u5510\u7ebf", "signBuilding": null, "businessArea": null, "selfRoom": null, "businessTime": null, "stall": null, "consume": null, "serviceFei": null, "favourable": null, "shopMemo": null, "appraise": null, "website": null, "memo": null, "payTypes": "\u6749\u5fb7\u5361", "shopTypes": "\u8d85\u5e02", "consumeTypes": null, "cookTypes": null, "orderNum": 1000, "card4no": null, "card4noAcc": null, "district2": 411, "searchScope": null, "status": 1, "address": "\u57ce\u4e2d\u8def138\u53f7\u7f57\u5bbe\u68ee\u5e7f\u573a\u9996\u5c42", "name": "\u5c48\u81e3\u6c0f \u5609\u5b9a\u7f57\u5bbe\u68ee\u5e97", "id": 140599, "pageNo": 0, "pageCount": null, "pageSize": 10, "ids": null, "endTime": null, "startTime": null}, {"cardNumFive": null, "isSupportYj": null, "cityName": null, "districtName": null, "shopinfo": {"mid": "888888854110045", "good_flag": null, "new_flag": null, "short_name": "\u5c48\u81e3\u6c0f", "short_name_pinyin": "quchenshi", "status": null, "address": null, "name": null, "id": "32824"}, "mid": "888888854110045", "shopId": "32824", "netid": null, "province": 901, "district": 601, "zipcode": null, "telephone": "63542287", "posDate": "20070920", "destineTel": null, "togoTel": null, "trafficWay": "\u516c\u4ea441 104 \u5730\u94c1\u4e8c\u53f7\u7ebf", "signBuilding": "\u65b0\u5ba2\u7ad9", "businessArea": null, "selfRoom": null, "businessTime": null, "stall": null, "consume": null, "serviceFei": null, "favourable": null, "shopMemo": null, "appraise": null, "website": null, "memo": null, "payTypes": "\u6749\u5fb7\u5361", "shopTypes": "\u8d85\u5e02", "consumeTypes": null, "cookTypes": null, "orderNum": 1000, "card4no": null, "card4noAcc": null, "district2": 410, "searchScope": null, "status": 1, "address": "\u5929\u76ee\u897f\u8def122-23\u53f7\u592a\u5e73\u6d0b\u767e\u8d27", "name": "\u5c48\u81e3\u6c0f \u5609\u91cc\u5e97", "id": 140600, "pageNo": 0, "pageCount": null, "pageSize": 10, "ids": null, "endTime": null, "startTime": null}, {"cardNumFive": null, "isSupportYj": null, "cityName": null, "districtName": null, "shopinfo": {"mid": "888888854110045", "good_flag": null, "new_flag": null, "short_name": "\u5c48\u81e3\u6c0f", "short_name_pinyin": "quchenshi", "status": null, "address": null, "name": null, "id": "32824"}, "mid": "888888854110045", "shopId": "32824", "netid": null, "province": 901, "district": 601, "zipcode": null, "telephone": "13795459770", "posDate": "200909", "destineTel": null, "togoTel": null, "trafficWay": "\u516c\u4ea4\u77f3\u53163\u7ebf\u3001\u91d1\u5c712\u8def\u3001\u91d1\u5c714\u8def", "signBuilding": null, "businessArea": null, "selfRoom": null, "businessTime": null, "stall": null, "consume": null, "serviceFei": null, "favourable": null, "shopMemo": null, "appraise": null, "website": null, "memo": null, "payTypes": "\u6749\u5fb7\u5361", "shopTypes": "\u8d85\u5e02", "consumeTypes": null, "cookTypes": null, "orderNum": 1000, "card4no": null, "card4noAcc": null, "district2": 414, "searchScope": null, "status": 1, "address": "\u536b\u96f6\u8def205\u53f7", "name": "\u5c48\u81e3\u6c0f \u91d1\u5c71\u5e97", "id": 140601, "pageNo": 0, "pageCount": null, "pageSize": 10, "ids": null, "endTime": null, "startTime": null}, {"cardNumFive": null, "isSupportYj": null, "cityName": null, "districtName": null, "shopinfo": {"mid": "888888854110045", "good_flag": null, "new_flag": null, "short_name": "\u5c48\u81e3\u6c0f", "short_name_pinyin": "quchenshi", "status": null, "address": null, "name": null, "id": "32824"}, "mid": "888888854110045", "shopId": "32824", "netid": null, "province": 901, "district": 601, "zipcode": null, "telephone": "62882446", "posDate": "20070917", "destineTel": null, "togoTel": null, "trafficWay": "\u516c\u4ea445 830 15 76 \u5730\u94c1\u4e8c\u53f7\u7ebf", "signBuilding": "\u9759\u5b89\u5bfa", "businessArea": null, "selfRoom": null, "businessTime": "9:00~22:00", "stall": null, "consume": null, "serviceFei": null, "favourable": null, "shopMemo": null, "appraise": null, "website": null, "memo": null, "payTypes": "\u6749\u5fb7\u5361", "shopTypes": "\u8d85\u5e02", "consumeTypes": null, "cookTypes": null, "orderNum": 1000, "card4no": null, "card4noAcc": null, "district2": 404, "searchScope": null, "status": 1, "address": "\u5357\u4eac\u897f\u8def1617\u53f7\u4e45\u5149\u5730\u4e0b\u4e00\u5c42", "name": "\u5c48\u81e3\u6c0f \u4e45\u5149\u5e97", "id": 140602, "pageNo": 0, "pageCount": null, "pageSize": 10, "ids": null, "endTime": null, "startTime": null}, {"cardNumFive": null, "isSupportYj": null, "cityName": null, "districtName": null, "shopinfo": {"mid": "888888854110045", "good_flag": null, "new_flag": null, "short_name": "\u5c48\u81e3\u6c0f", "short_name_pinyin": "quchenshi", "status": null, "address": null, "name": null, "id": "32824"}, "mid": "888888854110045", "shopId": "32824", "netid": null, "province": 901, "district": 601, "zipcode": null, "telephone": "62767661", "posDate": "20070920", "destineTel": null, "togoTel": null, "trafficWay": "\u516c\u4ea4830 36 824", "signBuilding": "\u4e9a\u65b0\u751f\u6d3b\u5e7f\u573a", "businessArea": null, "selfRoom": null, "businessTime": null, "stall": null, "consume": null, "serviceFei": null, "favourable": null, "shopMemo": null, "appraise": null, "website": null, "memo": null, "payTypes": "\u6749\u5fb7\u5361", "shopTypes": "\u8d85\u5e02", "consumeTypes": null, "cookTypes": null, "orderNum": 1000, "card4no": null, "card4noAcc": null, "district2": 405, "searchScope": null, "status": 1, "address": "\u957f\u5bff\u8def401\u53f7\u4e9a\u65b0\u751f\u6d3b\u5e7f\u573a", "name": "\u5c48\u81e3\u6c0f \u6606\u4ed1\u53f0\u6e7e\u5546\u57ce\u5e97", "id": 140603, "pageNo": 0, "pageCount": null, "pageSize": 10, "ids": null, "endTime": null, "startTime": null}], "pageLimit": 7890, "size": 10}