{"pageCount": 1095, "count": 10942, "pageNo": 806, "subShopInfo": {"cardNumFive": "", "isSupportYj": "", "cityName": null, "districtName": null, "shopinfo": {"mid": null, "good_flag": null, "new_flag": null, "short_name": null, "short_name_pinyin": null, "status": null, "address": "", "name": "", "id": null}, "mid": null, "shopId": null, "netid": null, "province": 901, "district": null, "zipcode": null, "telephone": null, "posDate": null, "destineTel": null, "togoTel": null, "trafficWay": null, "signBuilding": null, "businessArea": null, "selfRoom": null, "businessTime": null, "stall": null, "consume": null, "serviceFei": null, "favourable": null, "shopMemo": "1", "appraise": null, "website": null, "memo": null, "payTypes": "", "shopTypes": "", "consumeTypes": null, "cookTypes": null, "orderNum": null, "card4no": null, "card4noAcc": null, "district2": null, "searchScope": null, "status": null, "address": "", "name": null, "id": null, "pageNo": 805, "pageCount": null, "pageSize": 10, "ids": null, "endTime": null, "startTime": null}, "list": [{"cardNumFive": null, "isSupportYj": null, "cityName": null, "districtName": null, "shopinfo": {"mid": "888002156910396", "good_flag": null, "new_flag": "2", "short_name": "\u70ed\u98ce", "short_name_pinyin": "refeng", "status": null, "address": null, "name": null, "id": "40968"}, "mid": "888002156910396", "shopId": "40968", "netid": null, "province": 901, "district": 601, "zipcode": null, "telephone": "36521002", "posDate": null, "destineTel": null, "togoTel": null, "trafficWay": null, "signBuilding": null, "businessArea": null, "selfRoom": null, "businessTime": null, "stall": null, "consume": null, "serviceFei": null, "favourable": null, "shopMemo": null, "appraise": null, "website": null, "memo": null, "payTypes": "\u6749\u5fb7\u5361", "shopTypes": "\u4e13\u5356", "consumeTypes": null, "cookTypes": null, "orderNum": 1000, "card4no": null, "card4noAcc": null, "district2": 410, "searchScope": null, "status": 1, "address": "\u897f\u85cf\u5317\u8def166\u53f75\u697c03\u53f7", "name": "\u70ed\u98ce \u5927\u60a6\u57ce\u5e97", "id": 177911, "pageNo": 0, "pageCount": null, "pageSize": 10, "ids": null, "endTime": null, "startTime": null}, {"cardNumFive": null, "isSupportYj": null, "cityName": null, "districtName": null, "shopinfo": {"mid": "888002156910396", "good_flag": null, "new_flag": "2", "short_name": "\u70ed\u98ce", "short_name_pinyin": "refeng", "status": null, "address": null, "name": null, "id": "40968"}, "mid": "888002156910396", "shopId": "40968", "netid": null, "province": 901, "district": 601, "zipcode": null, "telephone": "60826182", "posDate": null, "destineTel": null, "togoTel": null, "trafficWay": null, "signBuilding": null, "businessArea": null, "selfRoom": null, "businessTime": null, "stall": null, "consume": null, "serviceFei": null, "favourable": null, "shopMemo": null, "appraise": null, "website": null, "memo": null, "payTypes": "\u6749\u5fb7\u5361", "shopTypes": "\u4e13\u5356", "consumeTypes": null, "cookTypes": null, "orderNum": 1000, "card4no": null, "card4noAcc": null, "district2": 408, "searchScope": null, "status": 1, "address": "\u897f\u6c5f\u6e7e\u8def388\u53f7", "name": "\u70ed\u98ce \u8679\u53e3\u9f99\u4e4b\u68a6\u5e97", "id": 177912, "pageNo": 0, "pageCount": null, "pageSize": 10, "ids": null, "endTime": null, "startTime": null}, {"cardNumFive": null, "isSupportYj": null, "cityName": null, "districtName": null, "shopinfo": {"mid": "888002156910396", "good_flag": null, "new_flag": "2", "short_name": "\u70ed\u98ce", "short_name_pinyin": "refeng", "status": null, "address": null, "name": null, "id": "40968"}, "mid": "888002156910396", "shopId": "40968", "netid": null, "province": 901, "district": 601, "zipcode": null, "telephone": "55093635", "posDate": null, "destineTel": null, "togoTel": null, "trafficWay": null, "signBuilding": null, "businessArea": null, "selfRoom": null, "businessTime": null, "stall": null, "consume": null, "serviceFei": null, "favourable": null, "shopMemo": null, "appraise": null, "website": null, "memo": null, "payTypes": "\u6749\u5fb7\u5361", "shopTypes": "\u4e13\u5356", "consumeTypes": null, "cookTypes": null, "orderNum": 1000, "card4no": null, "card4noAcc": null, "district2": 407, "searchScope": null, "status": 1, "address": "\u653f\u901a\u8def189\u53f7", "name": "\u70ed\u98ce \u4e07\u8fbe\u4e8c\u5e97", "id": 177913, "pageNo": 0, "pageCount": null, "pageSize": 10, "ids": null, "endTime": null, "startTime": null}, {"cardNumFive": null, "isSupportYj": null, "cityName": null, "districtName": null, "shopinfo": {"mid": "888002156910396", "good_flag": null, "new_flag": "2", "short_name": "\u70ed\u98ce", "short_name_pinyin": "refeng", "status": null, "address": null, "name": null, "id": "40968"}, "mid": "888002156910396", "shopId": "40968", "netid": null, "province": 901, "district": 601, "zipcode": null, "telephone": "69503601", "posDate": null, "destineTel": null, "togoTel": null, "trafficWay": null, "signBuilding": null, "businessArea": null, "selfRoom": null, "businessTime": null, "stall": null, "consume": null, "serviceFei": null, "favourable": null, "shopMemo": null, "appraise": null, "website": null, "memo": null, "payTypes": "\u6749\u5fb7\u5361", "shopTypes": "\u4e13\u5356", "consumeTypes": null, "cookTypes": null, "orderNum": 1000, "card4no": null, "card4noAcc": null, "district2": 411, "searchScope": null, "status": 1, "address": "\u58a8\u7389\u5357\u8def1055\u53f7326-327\u5ba4", "name": "\u70ed\u98ce \u5b89\u4ead\u5e97", "id": 177914, "pageNo": 0, "pageCount": null, "pageSize": 10, "ids": null, "endTime": null, "startTime": null}, {"cardNumFive": null, "isSupportYj": null, "cityName": null, "districtName": null, "shopinfo": {"mid": "888002156910396", "good_flag": null, "new_flag": "2", "short_name": "\u70ed\u98ce", "short_name_pinyin": "refeng", "status": null, "address": null, "name": null, "id": "40968"}, "mid": "888002156910396", "shopId": "40968", "netid": null, "province": 901, "district": 601, "zipcode": null, "telephone": "38780001", "posDate": null, "destineTel": null, "togoTel": null, "trafficWay": null, "signBuilding": null, "businessArea": null, "selfRoom": null, "businessTime": null, "stall": null, "consume": null, "serviceFei": null, "favourable": null, "shopMemo": null, "appraise": null, "website": null, "memo": null, "payTypes": "\u6749\u5fb7\u5361", "shopTypes": "\u4e13\u5356", "consumeTypes": null, "cookTypes": null, "orderNum": 1000, "card4no": null, "card4noAcc": null, "district2": 418, "searchScope": null, "status": 1, "address": "\u9646\u5bb6\u5634\u897f\u8def168\u53f75\u697c", "name": "\u70ed\u98ce \u6b63\u5927\u5e97", "id": 177915, "pageNo": 0, "pageCount": null, "pageSize": 10, "ids": null, "endTime": null, "startTime": null}, {"cardNumFive": null, "isSupportYj": null, "cityName": null, "districtName": null, "shopinfo": {"mid": "888002156910396", "good_flag": null, "new_flag": "2", "short_name": "\u70ed\u98ce", "short_name_pinyin": "refeng", "status": null, "address": null, "name": null, "id": "40968"}, "mid": "888002156910396", "shopId": "40968", "netid": null, "province": 901, "district": 601, "zipcode": null, "telephone": "33870941", "posDate": null, "destineTel": null, "togoTel": null, "trafficWay": null, "signBuilding": null, "businessArea": null, "selfRoom": null, "businessTime": null, "stall": null, "consume": null, "serviceFei": null, "favourable": null, "shopMemo": null, "appraise": null, "website": null, "memo": null, "payTypes": "\u6749\u5fb7\u5361", "shopTypes": "\u4e13\u5356", "consumeTypes": null, "cookTypes": null, "orderNum": 1000, "card4no": null, "card4noAcc": null, "district2": 408, "searchScope": null, "status": 1, "address": "\u56db\u5ddd\u5317\u8def1363\u53f7", "name": "\u70ed\u98ce \u58f9\u4e30\u5e7f\u573a\u5e97", "id": 177917, "pageNo": 0, "pageCount": null, "pageSize": 10, "ids": null, "endTime": null, "startTime": null}, {"cardNumFive": null, "isSupportYj": null, "cityName": null, "districtName": null, "shopinfo": {"mid": "888002156910396", "good_flag": null, "new_flag": "2", "short_name": "\u70ed\u98ce", "short_name_pinyin": "refeng", "status": null, "address": null, "name": null, "id": "40968"}, "mid": "888002156910396", "shopId": "40968", "netid": null, "province": 901, "district": 601, "zipcode": null, "telephone": "33160252", "posDate": null, "destineTel": null, "togoTel": null, "trafficWay": null, "signBuilding": null, "businessArea": null, "selfRoom": null, "businessTime": null, "stall": null, "consume": null, "serviceFei": null, "favourable": null, "shopMemo": null, "appraise": null, "website": null, "memo": null, "payTypes": "\u6749\u5fb7\u5361", "shopTypes": "\u4e13\u5356", "consumeTypes": null, "cookTypes": null, "orderNum": 1000, "card4no": null, "card4noAcc": null, "district2": 401, "searchScope": null, "status": 1, "address": "\u6dee\u6d77\u4e2d\u8def138\u53f7", "name": "\u70ed\u98ce \u65e0\u9650\u5ea6\u5e97", "id": 177918, "pageNo": 0, "pageCount": null, "pageSize": 10, "ids": null, "endTime": null, "startTime": null}, {"cardNumFive": null, "isSupportYj": null, "cityName": null, "districtName": null, "shopinfo": {"mid": "888002156910396", "good_flag": null, "new_flag": "2", "short_name": "\u70ed\u98ce", "short_name_pinyin": "refeng", "status": null, "address": null, "name": null, "id": "40968"}, "mid": "888002156910396", "shopId": "40968", "netid": null, "province": 901, "district": 601, "zipcode": null, "telephone": "61198032", "posDate": null, "destineTel": null, "togoTel": null, "trafficWay": null, "signBuilding": null, "businessArea": null, "selfRoom": null, "businessTime": null, "stall": null, "consume": null, "serviceFei": null, "favourable": null, "shopMemo": null, "appraise": null, "website": null, "memo": null, "payTypes": "\u6749\u5fb7\u5361", "shopTypes": "\u4e13\u5356", "consumeTypes": null, "cookTypes": null, "orderNum": 1000, "card4no": null, "card4noAcc": null, "district2": 403, "searchScope": null, "status": 1, "address": "\u5929\u94a5\u6865\u8def666\u53f7", "name": "\u70ed\u98ce \u4f53\u80b2\u573a\u5e97", "id": 177919, "pageNo": 0, "pageCount": null, "pageSize": 10, "ids": null, "endTime": null, "startTime": null}, {"cardNumFive": null, "isSupportYj": null, "cityName": null, "districtName": null, "shopinfo": {"mid": "888002156910396", "good_flag": null, "new_flag": "2", "short_name": "\u70ed\u98ce", "short_name_pinyin": "refeng", "status": null, "address": null, "name": null, "id": "40968"}, "mid": "888002156910396", "shopId": "40968", "netid": null, "province": 901, "district": 601, "zipcode": null, "telephone": "26031000-35175", "posDate": null, "destineTel": null, "togoTel": null, "trafficWay": null, "signBuilding": null, "businessArea": null, "selfRoom": null, "businessTime": null, "stall": null, "consume": null, "serviceFei": null, "favourable": null, "shopMemo": null, "appraise": null, "website": null, "memo": null, "payTypes": "\u6749\u5fb7\u5361", "shopTypes": "\u4e13\u5356", "consumeTypes": null, "cookTypes": null, "orderNum": 1000, "card4no": null, "card4noAcc": null, "district2": 407, "searchScope": null, "status": 1, "address": "\u8f68\u9053\u4ea4\u901a3\u53f7\u7ebf\u8d64\u5cf0\u7ad92\u697c", "name": "\u70ed\u98ce \u8d64\u5cf0\u5e97", "id": 177920, "pageNo": 0, "pageCount": null, "pageSize": 10, "ids": null, "endTime": null, "startTime": null}, {"cardNumFive": null, "isSupportYj": null, "cityName": null, "districtName": null, "shopinfo": {"mid": "888002156910396", "good_flag": null, "new_flag": "2", "short_name": "\u70ed\u98ce", "short_name_pinyin": "refeng", "status": null, "address": null, "name": null, "id": "40968"}, "mid": "888002156910396", "shopId": "40968", "netid": null, "province": 901, "district": 601, "zipcode": null, "telephone": "33317841", "posDate": null, "destineTel": null, "togoTel": null, "trafficWay": null, "signBuilding": null, "businessArea": null, "selfRoom": null, "businessTime": null, "stall": null, "consume": null, "serviceFei": null, "favourable": null, "shopMemo": null, "appraise": null, "website": null, "memo": null, "payTypes": "\u6749\u5fb7\u5361", "shopTypes": "\u4e13\u5356", "consumeTypes": null, "cookTypes": null, "orderNum": 1000, "card4no": null, "card4noAcc": null, "district2": 411, "searchScope": null, "status": 1, "address": "\u91d1\u6c99\u6c5f\u897f\u8def1051\u5f041\u53f72\u697c", "name": "\u70ed\u98ce \u6c5f\u6865\u5e97", "id": 177921, "pageNo": 0, "pageCount": null, "pageSize": 10, "ids": null, "endTime": null, "startTime": null}], "pageLimit": 8050, "size": 10}