{"pageCount": 1095, "count": 10942, "pageNo": 804, "subShopInfo": {"cardNumFive": "", "isSupportYj": "", "cityName": null, "districtName": null, "shopinfo": {"mid": null, "good_flag": null, "new_flag": null, "short_name": null, "short_name_pinyin": null, "status": null, "address": "", "name": "", "id": null}, "mid": null, "shopId": null, "netid": null, "province": 901, "district": null, "zipcode": null, "telephone": null, "posDate": null, "destineTel": null, "togoTel": null, "trafficWay": null, "signBuilding": null, "businessArea": null, "selfRoom": null, "businessTime": null, "stall": null, "consume": null, "serviceFei": null, "favourable": null, "shopMemo": "1", "appraise": null, "website": null, "memo": null, "payTypes": "", "shopTypes": "", "consumeTypes": null, "cookTypes": null, "orderNum": null, "card4no": null, "card4noAcc": null, "district2": null, "searchScope": null, "status": null, "address": "", "name": null, "id": null, "pageNo": 803, "pageCount": null, "pageSize": 10, "ids": null, "endTime": null, "startTime": null}, "list": [{"cardNumFive": null, "isSupportYj": null, "cityName": null, "districtName": null, "shopinfo": {"mid": "888002154110002", "good_flag": null, "new_flag": "2", "short_name": "\u5c48\u81e3\u6c0f", "short_name_pinyin": "quchenshi", "status": null, "address": null, "name": null, "id": "41878"}, "mid": "888002154110002", "shopId": "41878", "netid": null, "province": 901, "district": 601, "zipcode": null, "telephone": null, "posDate": null, "destineTel": null, "togoTel": null, "trafficWay": null, "signBuilding": null, "businessArea": null, "selfRoom": null, "businessTime": null, "stall": null, "consume": null, "serviceFei": null, "favourable": null, "shopMemo": null, "appraise": null, "website": null, "memo": null, "payTypes": "\u6749\u5fb7\u5361,", "shopTypes": "\u4fbf\u5229\u5e97", "consumeTypes": null, "cookTypes": null, "orderNum": null, "card4no": null, "card4noAcc": null, "district2": 412, "searchScope": null, "status": 1, "address": "\u6cd7\u5b9d\u8def41\u53f7", "name": "\u6cd7\u5b9d\u8def", "id": 454317304306466816, "pageNo": 0, "pageCount": null, "pageSize": 10, "ids": null, "endTime": null, "startTime": null}, {"cardNumFive": null, "isSupportYj": null, "cityName": null, "districtName": null, "shopinfo": {"mid": "888002154110002", "good_flag": null, "new_flag": "2", "short_name": "\u5c48\u81e3\u6c0f", "short_name_pinyin": "quchenshi", "status": null, "address": null, "name": null, "id": "41878"}, "mid": "888002154110002", "shopId": "41878", "netid": null, "province": 901, "district": 601, "zipcode": null, "telephone": null, "posDate": null, "destineTel": null, "togoTel": null, "trafficWay": null, "signBuilding": null, "businessArea": null, "selfRoom": null, "businessTime": null, "stall": null, "consume": null, "serviceFei": null, "favourable": null, "shopMemo": null, "appraise": null, "website": null, "memo": null, "payTypes": "", "shopTypes": null, "consumeTypes": null, "cookTypes": null, "orderNum": null, "card4no": null, "card4noAcc": null, "district2": 401, "searchScope": null, "status": 1, "address": "\u5f90\u5bb6\u6c47\u8def268\u53f7\u51ef\u5fb7\u6676\u7cb9\u5e7f\u573a", "name": "\u51ef\u5fb7\u6676\u7cb9\u5e7f\u573a\u5e97", "id": 503957919998410752, "pageNo": 0, "pageCount": null, "pageSize": 10, "ids": null, "endTime": null, "startTime": null}, {"cardNumFive": null, "isSupportYj": null, "cityName": null, "districtName": null, "shopinfo": {"mid": "888888859430017", "good_flag": "2", "new_flag": "2", "short_name": "\u96c0\u65e5\u6587\u4f53\u7528\u54c1", "short_name_pinyin": "queriwentiyongpin", "status": null, "address": null, "name": null, "id": "32832"}, "mid": "888888859430017", "shopId": "32832", "netid": null, "province": 901, "district": 601, "zipcode": null, "telephone": "66839566", "posDate": "20081113", "destineTel": null, "togoTel": null, "trafficWay": "\u516c\u4ea495 46", "signBuilding": "\u4e0a\u6d77\u706b\u8f66\u7ad9", "businessArea": "100", "selfRoom": null, "businessTime": "9:00~22:00", "stall": null, "consume": null, "serviceFei": null, "favourable": null, "shopMemo": null, "appraise": null, "website": null, "memo": null, "payTypes": "\u6749\u5fb7\u5361", "shopTypes": "\u96f6\u552e", "consumeTypes": null, "cookTypes": null, "orderNum": 1000, "card4no": null, "card4noAcc": null, "district2": 410, "searchScope": null, "status": 1, "address": "\u4e2d\u534e\u65b0\u8def886\u53f7", "name": "\u96c0\u65e5\u6587\u4f53\u7528\u54c1 \u4e2d\u534e\u65b0\u8def\u5e97", "id": 140911, "pageNo": 0, "pageCount": null, "pageSize": 10, "ids": null, "endTime": null, "startTime": null}, {"cardNumFive": null, "isSupportYj": null, "cityName": null, "districtName": null, "shopinfo": {"mid": "888888858130033", "good_flag": "2", "new_flag": "2", "short_name": "\u7fa4\u5cf0\u8336\u53f6", "short_name_pinyin": "qunfengchaye", "status": null, "address": null, "name": null, "id": "32833"}, "mid": "888888858130033", "shopId": "32833", "netid": null, "province": 901, "district": 601, "zipcode": null, "telephone": "54853861", "posDate": "20080708", "destineTel": null, "togoTel": null, "trafficWay": "\u516c\u4ea4\u6caa\u9752\u4e13\u7ebf", "signBuilding": null, "businessArea": null, "selfRoom": null, "businessTime": "7:30~20:30", "stall": null, "consume": null, "serviceFei": null, "favourable": null, "shopMemo": null, "appraise": null, "website": null, "memo": null, "payTypes": "\u6749\u5fb7\u5361", "shopTypes": "\u4e13\u5356", "consumeTypes": null, "cookTypes": null, "orderNum": 1000, "card4no": null, "card4noAcc": null, "district2": 409, "searchScope": null, "status": 1, "address": "\u4e03\u8398\u8def3655\u5609\u8302\u5e7f\u573a02-21B", "name": "\u7fa4\u5cf0\u8336\u53f6 \u4e03\u8398\u8def\u5e97", "id": 140912, "pageNo": 0, "pageCount": null, "pageSize": 10, "ids": null, "endTime": null, "startTime": null}, {"cardNumFive": null, "isSupportYj": null, "cityName": null, "districtName": null, "shopinfo": {"mid": "888002156910396", "good_flag": null, "new_flag": "2", "short_name": "\u70ed\u98ce", "short_name_pinyin": "refeng", "status": null, "address": null, "name": null, "id": "40968"}, "mid": "888002156910396", "shopId": "40968", "netid": null, "province": 901, "district": 601, "zipcode": null, "telephone": "38230519", "posDate": null, "destineTel": null, "togoTel": null, "trafficWay": null, "signBuilding": null, "businessArea": null, "selfRoom": null, "businessTime": null, "stall": null, "consume": null, "serviceFei": null, "favourable": null, "shopMemo": null, "appraise": null, "website": null, "memo": null, "payTypes": "\u6749\u5fb7\u5361", "shopTypes": "\u4e13\u5356", "consumeTypes": null, "cookTypes": null, "orderNum": 1000, "card4no": null, "card4noAcc": null, "district2": 409, "searchScope": null, "status": 1, "address": "\u6caa\u95f5\u8def6088\u53f72\u697c02-13\u53f7", "name": "\u70ed\u98ce \u6caa\u95f5\u5e97", "id": 177892, "pageNo": 0, "pageCount": null, "pageSize": 10, "ids": null, "endTime": null, "startTime": null}, {"cardNumFive": null, "isSupportYj": null, "cityName": null, "districtName": null, "shopinfo": {"mid": "888002156910396", "good_flag": null, "new_flag": "2", "short_name": "\u70ed\u98ce", "short_name_pinyin": "refeng", "status": null, "address": null, "name": null, "id": "40968"}, "mid": "888002156910396", "shopId": "40968", "netid": null, "province": 901, "district": 601, "zipcode": null, "telephone": "50136729", "posDate": null, "destineTel": null, "togoTel": null, "trafficWay": null, "signBuilding": null, "businessArea": null, "selfRoom": null, "businessTime": null, "stall": null, "consume": null, "serviceFei": null, "favourable": null, "shopMemo": null, "appraise": null, "website": null, "memo": null, "payTypes": "\u6749\u5fb7\u5361", "shopTypes": "\u4e13\u5356", "consumeTypes": null, "cookTypes": null, "orderNum": 1000, "card4no": null, "card4noAcc": null, "district2": 418, "searchScope": null, "status": 1, "address": "\u82b1\u6728\u8def1378\u53f7", "name": "\u70ed\u98ce \u82b1\u6728\u5e97", "id": 177893, "pageNo": 0, "pageCount": null, "pageSize": 10, "ids": null, "endTime": null, "startTime": null}, {"cardNumFive": null, "isSupportYj": null, "cityName": null, "districtName": null, "shopinfo": {"mid": "888002156910396", "good_flag": null, "new_flag": "2", "short_name": "\u70ed\u98ce", "short_name_pinyin": "refeng", "status": null, "address": null, "name": null, "id": "40968"}, "mid": "888002156910396", "shopId": "40968", "netid": null, "province": 901, "district": 601, "zipcode": null, "telephone": "34680120", "posDate": null, "destineTel": null, "togoTel": null, "trafficWay": null, "signBuilding": null, "businessArea": null, "selfRoom": null, "businessTime": null, "stall": null, "consume": null, "serviceFei": null, "favourable": null, "shopMemo": null, "appraise": null, "website": null, "memo": null, "payTypes": "\u6749\u5fb7\u5361", "shopTypes": "\u4e13\u5356", "consumeTypes": null, "cookTypes": null, "orderNum": 1000, "card4no": null, "card4noAcc": null, "district2": 409, "searchScope": null, "status": 1, "address": "\u6caa\u95f5\u8def7866\u5f042121\u53f7214\u5ba4", "name": "\u70ed\u98ce \u6caa\u95f5\u4e8c\u5e97", "id": 177895, "pageNo": 0, "pageCount": null, "pageSize": 10, "ids": null, "endTime": null, "startTime": null}, {"cardNumFive": null, "isSupportYj": null, "cityName": null, "districtName": null, "shopinfo": {"mid": "888002156910396", "good_flag": null, "new_flag": "2", "short_name": "\u70ed\u98ce", "short_name_pinyin": "refeng", "status": null, "address": null, "name": null, "id": "40968"}, "mid": "888002156910396", "shopId": "40968", "netid": null, "province": 901, "district": 601, "zipcode": null, "telephone": null, "posDate": null, "destineTel": null, "togoTel": null, "trafficWay": null, "signBuilding": null, "businessArea": null, "selfRoom": null, "businessTime": null, "stall": null, "consume": null, "serviceFei": null, "favourable": null, "shopMemo": null, "appraise": null, "website": null, "memo": null, "payTypes": "\u6749\u5fb7\u5361", "shopTypes": "\u4e13\u5356", "consumeTypes": null, "cookTypes": null, "orderNum": 1000, "card4no": null, "card4noAcc": null, "district2": 418, "searchScope": null, "status": 1, "address": "\u6caa\u5357\u516c\u8def3449\u53f7", "name": "\u70ed\u98ce \u5468\u6d66\u4e07\u8fbe\u5e97", "id": 177896, "pageNo": 0, "pageCount": null, "pageSize": 10, "ids": null, "endTime": null, "startTime": null}, {"cardNumFive": null, "isSupportYj": null, "cityName": null, "districtName": null, "shopinfo": {"mid": "888002156910396", "good_flag": null, "new_flag": "2", "short_name": "\u70ed\u98ce", "short_name_pinyin": "refeng", "status": null, "address": null, "name": null, "id": "40968"}, "mid": "888002156910396", "shopId": "40968", "netid": null, "province": 901, "district": 601, "zipcode": null, "telephone": "32300823", "posDate": null, "destineTel": null, "togoTel": null, "trafficWay": null, "signBuilding": null, "businessArea": null, "selfRoom": null, "businessTime": null, "stall": null, "consume": null, "serviceFei": null, "favourable": null, "shopMemo": null, "appraise": null, "website": null, "memo": null, "payTypes": "\u6749\u5fb7\u5361", "shopTypes": "\u4e13\u5356", "consumeTypes": null, "cookTypes": null, "orderNum": 1000, "card4no": null, "card4noAcc": null, "district2": 405, "searchScope": null, "status": 1, "address": "\u5927\u6e21\u6cb3\u8def168\u5f04136\u53f7", "name": "\u70ed\u98ce \u957f\u98ce\u5e97", "id": 177897, "pageNo": 0, "pageCount": null, "pageSize": 10, "ids": null, "endTime": null, "startTime": null}, {"cardNumFive": null, "isSupportYj": null, "cityName": null, "districtName": null, "shopinfo": {"mid": "888002156910396", "good_flag": null, "new_flag": "2", "short_name": "\u70ed\u98ce", "short_name_pinyin": "refeng", "status": null, "address": null, "name": null, "id": "40968"}, "mid": "888002156910396", "shopId": "40968", "netid": null, "province": 901, "district": 601, "zipcode": null, "telephone": "33870551", "posDate": null, "destineTel": null, "togoTel": null, "trafficWay": null, "signBuilding": null, "businessArea": null, "selfRoom": null, "businessTime": null, "stall": null, "consume": null, "serviceFei": null, "favourable": null, "shopMemo": null, "appraise": null, "website": null, "memo": null, "payTypes": "\u6749\u5fb7\u5361", "shopTypes": "\u4e13\u5356", "consumeTypes": null, "cookTypes": null, "orderNum": 1000, "card4no": null, "card4noAcc": null, "district2": 410, "searchScope": null, "status": 1, "address": "\u5171\u548c\u65b0\u8def1988\u53f7209-216\u53f7", "name": "\u70ed\u98ce \u5927\u5b81\u56fd\u9645\u5e7f\u573a\u5e97", "id": 177899, "pageNo": 0, "pageCount": null, "pageSize": 10, "ids": null, "endTime": null, "startTime": null}], "pageLimit": 8030, "size": 10}