{"pageCount": 1095, "count": 10942, "pageNo": 807, "subShopInfo": {"cardNumFive": "", "isSupportYj": "", "cityName": null, "districtName": null, "shopinfo": {"mid": null, "good_flag": null, "new_flag": null, "short_name": null, "short_name_pinyin": null, "status": null, "address": "", "name": "", "id": null}, "mid": null, "shopId": null, "netid": null, "province": 901, "district": null, "zipcode": null, "telephone": null, "posDate": null, "destineTel": null, "togoTel": null, "trafficWay": null, "signBuilding": null, "businessArea": null, "selfRoom": null, "businessTime": null, "stall": null, "consume": null, "serviceFei": null, "favourable": null, "shopMemo": "1", "appraise": null, "website": null, "memo": null, "payTypes": "", "shopTypes": "", "consumeTypes": null, "cookTypes": null, "orderNum": null, "card4no": null, "card4noAcc": null, "district2": null, "searchScope": null, "status": null, "address": "", "name": null, "id": null, "pageNo": 806, "pageCount": null, "pageSize": 10, "ids": null, "endTime": null, "startTime": null}, "list": [{"cardNumFive": null, "isSupportYj": null, "cityName": null, "districtName": null, "shopinfo": {"mid": "888002156910396", "good_flag": null, "new_flag": "2", "short_name": "\u70ed\u98ce", "short_name_pinyin": "refeng", "status": null, "address": null, "name": null, "id": "40968"}, "mid": "888002156910396", "shopId": "40968", "netid": null, "province": 901, "district": 601, "zipcode": null, "telephone": "32501261", "posDate": null, "destineTel": null, "togoTel": null, "trafficWay": null, "signBuilding": null, "businessArea": null, "selfRoom": null, "businessTime": null, "stall": null, "consume": null, "serviceFei": null, "favourable": null, "shopMemo": null, "appraise": null, "website": null, "memo": null, "payTypes": "\u6749\u5fb7\u5361", "shopTypes": "\u4e13\u5356", "consumeTypes": null, "cookTypes": null, "orderNum": 1000, "card4no": null, "card4noAcc": null, "district2": 405, "searchScope": null, "status": 1, "address": "\u6b66\u5b81\u8def101\u53f7", "name": "\u70ed\u98ce \u6211\u683c\u5e7f\u573a\u5e97", "id": 177922, "pageNo": 0, "pageCount": null, "pageSize": 10, "ids": null, "endTime": null, "startTime": null}, {"cardNumFive": null, "isSupportYj": null, "cityName": null, "districtName": null, "shopinfo": {"mid": "888002156910396", "good_flag": null, "new_flag": "2", "short_name": "\u70ed\u98ce", "short_name_pinyin": "refeng", "status": null, "address": null, "name": null, "id": "40968"}, "mid": "888002156910396", "shopId": "40968", "netid": null, "province": 901, "district": 601, "zipcode": null, "telephone": "60767135", "posDate": null, "destineTel": null, "togoTel": null, "trafficWay": null, "signBuilding": null, "businessArea": null, "selfRoom": null, "businessTime": null, "stall": null, "consume": null, "serviceFei": null, "favourable": null, "shopMemo": null, "appraise": null, "website": null, "memo": null, "payTypes": "\u6749\u5fb7\u5361", "shopTypes": "\u4e13\u5356", "consumeTypes": null, "cookTypes": null, "orderNum": 1000, "card4no": null, "card4noAcc": null, "district2": 401, "searchScope": null, "status": 1, "address": "\u5357\u4eac\u4e1c\u8def300\u53f73\u697c", "name": "\u70ed\u98ce \u540d\u4eba\u5e97", "id": 177923, "pageNo": 0, "pageCount": null, "pageSize": 10, "ids": null, "endTime": null, "startTime": null}, {"cardNumFive": null, "isSupportYj": null, "cityName": null, "districtName": null, "shopinfo": {"mid": "888002156910396", "good_flag": null, "new_flag": "2", "short_name": "\u70ed\u98ce", "short_name_pinyin": "refeng", "status": null, "address": null, "name": null, "id": "40968"}, "mid": "888002156910396", "shopId": "40968", "netid": null, "province": 901, "district": 601, "zipcode": null, "telephone": "61001380", "posDate": null, "destineTel": null, "togoTel": null, "trafficWay": null, "signBuilding": null, "businessArea": null, "selfRoom": null, "businessTime": null, "stall": null, "consume": null, "serviceFei": null, "favourable": null, "shopMemo": null, "appraise": null, "website": null, "memo": null, "payTypes": "\u6749\u5fb7\u5361", "shopTypes": "\u4e13\u5356", "consumeTypes": null, "cookTypes": null, "orderNum": 1000, "card4no": null, "card4noAcc": null, "district2": 418, "searchScope": null, "status": 1, "address": "\u4e1c\u65b9\u8def796\u53f71\u697c116\u5355\u5143", "name": "\u70ed\u98ce 96\u5e7f\u573a\u5e97", "id": 177924, "pageNo": 0, "pageCount": null, "pageSize": 10, "ids": null, "endTime": null, "startTime": null}, {"cardNumFive": null, "isSupportYj": null, "cityName": null, "districtName": null, "shopinfo": {"mid": "888002156910396", "good_flag": null, "new_flag": "2", "short_name": "\u70ed\u98ce", "short_name_pinyin": "refeng", "status": null, "address": null, "name": null, "id": "40968"}, "mid": "888002156910396", "shopId": "40968", "netid": null, "province": 901, "district": 601, "zipcode": null, "telephone": "58386563", "posDate": null, "destineTel": null, "togoTel": null, "trafficWay": null, "signBuilding": null, "businessArea": null, "selfRoom": null, "businessTime": null, "stall": null, "consume": null, "serviceFei": null, "favourable": null, "shopMemo": null, "appraise": null, "website": null, "memo": null, "payTypes": "\u6749\u5fb7\u5361", "shopTypes": "\u4e13\u5356", "consumeTypes": null, "cookTypes": null, "orderNum": 1000, "card4no": null, "card4noAcc": null, "district2": 418, "searchScope": null, "status": 1, "address": "\u6caa\u5357\u8def2420\u53f7", "name": "\u70ed\u98ce \u4e1c\u90ca\u767e\u8054\u5e97", "id": 177925, "pageNo": 0, "pageCount": null, "pageSize": 10, "ids": null, "endTime": null, "startTime": null}, {"cardNumFive": null, "isSupportYj": null, "cityName": null, "districtName": null, "shopinfo": {"mid": "888002156910396", "good_flag": null, "new_flag": "2", "short_name": "\u70ed\u98ce", "short_name_pinyin": "refeng", "status": null, "address": null, "name": null, "id": "40968"}, "mid": "888002156910396", "shopId": "40968", "netid": null, "province": 901, "district": 601, "zipcode": null, "telephone": null, "posDate": null, "destineTel": null, "togoTel": null, "trafficWay": null, "signBuilding": null, "businessArea": null, "selfRoom": null, "businessTime": null, "stall": null, "consume": null, "serviceFei": null, "favourable": null, "shopMemo": null, "appraise": null, "website": null, "memo": null, "payTypes": "\u6749\u5fb7\u5361", "shopTypes": "\u4e13\u5356", "consumeTypes": null, "cookTypes": null, "orderNum": 1000, "card4no": null, "card4noAcc": null, "district2": 414, "searchScope": null, "status": 1, "address": "\u536b\u6e05\u897f\u8def188\u53f72\u697c", "name": "\u70ed\u98ce \u767e\u8054\u91d1\u5c71\u5e97", "id": 177927, "pageNo": 0, "pageCount": null, "pageSize": 10, "ids": null, "endTime": null, "startTime": null}, {"cardNumFive": null, "isSupportYj": null, "cityName": null, "districtName": null, "shopinfo": {"mid": "888002156910396", "good_flag": null, "new_flag": "2", "short_name": "\u70ed\u98ce", "short_name_pinyin": "refeng", "status": null, "address": null, "name": null, "id": "40968"}, "mid": "888002156910396", "shopId": "40968", "netid": null, "province": 901, "district": 601, "zipcode": null, "telephone": "31757370", "posDate": null, "destineTel": null, "togoTel": null, "trafficWay": null, "signBuilding": null, "businessArea": null, "selfRoom": null, "businessTime": null, "stall": null, "consume": null, "serviceFei": null, "favourable": null, "shopMemo": null, "appraise": null, "website": null, "memo": null, "payTypes": "\u6749\u5fb7\u5361", "shopTypes": "\u4e13\u5356", "consumeTypes": null, "cookTypes": null, "orderNum": 1000, "card4no": null, "card4noAcc": null, "district2": 411, "searchScope": null, "status": 1, "address": "\u771f\u5357\u8def4368\u5f047\u53f7", "name": "\u70ed\u98ce \u5357\u7fd4\u5e97", "id": 177928, "pageNo": 0, "pageCount": null, "pageSize": 10, "ids": null, "endTime": null, "startTime": null}, {"cardNumFive": null, "isSupportYj": null, "cityName": null, "districtName": null, "shopinfo": {"mid": "888888856610021", "good_flag": "2", "new_flag": "2", "short_name": "\u70ed\u98ce", "short_name_pinyin": "refeng", "status": null, "address": null, "name": null, "id": "32835"}, "mid": "888888856610021", "shopId": "32835", "netid": null, "province": 901, "district": 601, "zipcode": null, "telephone": "54245798", "posDate": null, "destineTel": null, "togoTel": null, "trafficWay": null, "signBuilding": null, "businessArea": null, "selfRoom": null, "businessTime": null, "stall": null, "consume": null, "serviceFei": null, "favourable": null, "shopMemo": null, "appraise": null, "website": null, "memo": null, "payTypes": "\u6749\u5fb7\u5361", "shopTypes": "\u4e13\u5356", "consumeTypes": null, "cookTypes": null, "orderNum": 1000, "card4no": null, "card4noAcc": null, "district2": 403, "searchScope": null, "status": 1, "address": "\u5929\u94a5\u6865\u8def166\u53f7", "name": "\u70ed\u98ce \u5929\u94a5\u6865\u8def\u5e97", "id": 183260, "pageNo": 0, "pageCount": null, "pageSize": 10, "ids": null, "endTime": null, "startTime": null}, {"cardNumFive": null, "isSupportYj": null, "cityName": null, "districtName": null, "shopinfo": {"mid": "888888856610021", "good_flag": "2", "new_flag": "2", "short_name": "\u70ed\u98ce", "short_name_pinyin": "refeng", "status": null, "address": null, "name": null, "id": "32835"}, "mid": "888888856610021", "shopId": "32835", "netid": null, "province": 901, "district": 601, "zipcode": null, "telephone": "56480998", "posDate": null, "destineTel": null, "togoTel": null, "trafficWay": null, "signBuilding": null, "businessArea": null, "selfRoom": null, "businessTime": null, "stall": null, "consume": null, "serviceFei": null, "favourable": null, "shopMemo": null, "appraise": null, "website": null, "memo": null, "payTypes": "\u6749\u5fb7\u5361", "shopTypes": "\u4e13\u5356", "consumeTypes": null, "cookTypes": null, "orderNum": 1000, "card4no": null, "card4noAcc": null, "district2": 416, "searchScope": null, "status": 1, "address": "\u4e00\u4e8c\u516b\u7eaa\u5ff5\u8def988\u5f041\u53f7", "name": "\u70ed\u98ce \u5b9d\u5c71\u4e07\u8fbe\u5e7f\u573a\u5e97", "id": 183261, "pageNo": 0, "pageCount": null, "pageSize": 10, "ids": null, "endTime": null, "startTime": null}, {"cardNumFive": null, "isSupportYj": null, "cityName": null, "districtName": null, "shopinfo": {"mid": "888888856610021", "good_flag": "2", "new_flag": "2", "short_name": "\u70ed\u98ce", "short_name_pinyin": "refeng", "status": null, "address": null, "name": null, "id": "32835"}, "mid": "888888856610021", "shopId": "32835", "netid": null, "province": 901, "district": 601, "zipcode": null, "telephone": "53824018", "posDate": null, "destineTel": null, "togoTel": null, "trafficWay": null, "signBuilding": null, "businessArea": null, "selfRoom": null, "businessTime": null, "stall": null, "consume": null, "serviceFei": null, "favourable": null, "shopMemo": null, "appraise": null, "website": null, "memo": null, "payTypes": "\u6749\u5fb7\u5361", "shopTypes": "\u4e13\u5356", "consumeTypes": null, "cookTypes": null, "orderNum": 1000, "card4no": null, "card4noAcc": null, "district2": 401, "searchScope": null, "status": 1, "address": "\u6dee\u6d77\u4e2d\u8def358\u5f0421-23\u53f7", "name": "\u70ed\u98ce \u6dee\u6d77\u8def\u5e97", "id": 183263, "pageNo": 0, "pageCount": null, "pageSize": 10, "ids": null, "endTime": null, "startTime": null}, {"cardNumFive": null, "isSupportYj": null, "cityName": null, "districtName": null, "shopinfo": {"mid": "888002156910396", "good_flag": null, "new_flag": "2", "short_name": "\u70ed\u98ce", "short_name_pinyin": "refeng", "status": null, "address": null, "name": null, "id": "40968"}, "mid": "888002156910396", "shopId": "40968", "netid": null, "province": 901, "district": 601, "zipcode": null, "telephone": null, "posDate": null, "destineTel": null, "togoTel": null, "trafficWay": null, "signBuilding": null, "businessArea": null, "selfRoom": null, "businessTime": null, "stall": null, "consume": null, "serviceFei": null, "favourable": null, "shopMemo": null, "appraise": null, "website": null, "memo": null, "payTypes": "\u6749\u5fb7\u5361", "shopTypes": "\u96f6\u552e", "consumeTypes": null, "cookTypes": null, "orderNum": 1000, "card4no": null, "card4noAcc": null, "district2": 413, "searchScope": null, "status": 1, "address": "\u822a\u5357\u516c\u8def5639\u53f72\u53f7022B", "name": "\u70ed\u98ce \u5b9d\u9f99\u57ce\u5e97", "id": 197794, "pageNo": 0, "pageCount": null, "pageSize": 10, "ids": null, "endTime": null, "startTime": null}], "pageLimit": 8060, "size": 10}