{"pageCount": 1095, "count": 10942, "pageNo": 809, "subShopInfo": {"cardNumFive": "", "isSupportYj": "", "cityName": null, "districtName": null, "shopinfo": {"mid": null, "good_flag": null, "new_flag": null, "short_name": null, "short_name_pinyin": null, "status": null, "address": "", "name": "", "id": null}, "mid": null, "shopId": null, "netid": null, "province": 901, "district": null, "zipcode": null, "telephone": null, "posDate": null, "destineTel": null, "togoTel": null, "trafficWay": null, "signBuilding": null, "businessArea": null, "selfRoom": null, "businessTime": null, "stall": null, "consume": null, "serviceFei": null, "favourable": null, "shopMemo": "1", "appraise": null, "website": null, "memo": null, "payTypes": "", "shopTypes": "", "consumeTypes": null, "cookTypes": null, "orderNum": null, "card4no": null, "card4noAcc": null, "district2": null, "searchScope": null, "status": null, "address": "", "name": null, "id": null, "pageNo": 808, "pageCount": null, "pageSize": 10, "ids": null, "endTime": null, "startTime": null}, "list": [{"cardNumFive": null, "isSupportYj": null, "cityName": null, "districtName": null, "shopinfo": {"mid": "888002156910396", "good_flag": null, "new_flag": "2", "short_name": "\u70ed\u98ce", "short_name_pinyin": "refeng", "status": null, "address": null, "name": null, "id": "40968"}, "mid": "888002156910396", "shopId": "40968", "netid": null, "province": 901, "district": 601, "zipcode": null, "telephone": null, "posDate": null, "destineTel": null, "togoTel": null, "trafficWay": null, "signBuilding": null, "businessArea": null, "selfRoom": null, "businessTime": null, "stall": null, "consume": null, "serviceFei": null, "favourable": null, "shopMemo": null, "appraise": null, "website": null, "memo": null, "payTypes": "\u6749\u5fb7\u5361", "shopTypes": "\u96f6\u552e", "consumeTypes": null, "cookTypes": null, "orderNum": 1000, "card4no": null, "card4noAcc": null, "district2": 407, "searchScope": null, "status": 1, "address": "\u7fd4\u6bb7\u8def1099\u53f7\u5408\u751f\u4f1aB1\u5c4237\u5ba4", "name": "\u70ed\u98ce \u5408\u751f\u6c47\u5e7f\u573a\u5e97", "id": 197806, "pageNo": 0, "pageCount": null, "pageSize": 10, "ids": null, "endTime": null, "startTime": null}, {"cardNumFive": null, "isSupportYj": null, "cityName": null, "districtName": null, "shopinfo": {"mid": "888002156910396", "good_flag": null, "new_flag": "2", "short_name": "\u70ed\u98ce", "short_name_pinyin": "refeng", "status": null, "address": null, "name": null, "id": "40968"}, "mid": "888002156910396", "shopId": "40968", "netid": null, "province": 901, "district": 601, "zipcode": null, "telephone": null, "posDate": null, "destineTel": null, "togoTel": null, "trafficWay": null, "signBuilding": null, "businessArea": null, "selfRoom": null, "businessTime": null, "stall": null, "consume": null, "serviceFei": null, "favourable": null, "shopMemo": null, "appraise": null, "website": null, "memo": null, "payTypes": "\u6749\u5fb7\u5361", "shopTypes": "\u96f6\u552e", "consumeTypes": null, "cookTypes": null, "orderNum": 1000, "card4no": null, "card4noAcc": null, "district2": 401, "searchScope": null, "status": 1, "address": "\u897f\u85cf\u5317\u8def166\u53f7\u5927\u60a6\u57ce4\u697c401", "name": "\u70ed\u98ce \u5927\u60a6\u57ce\u4e8c\u5e97", "id": 197807, "pageNo": 0, "pageCount": null, "pageSize": 10, "ids": null, "endTime": null, "startTime": null}, {"cardNumFive": null, "isSupportYj": null, "cityName": null, "districtName": null, "shopinfo": {"mid": "888002156910396", "good_flag": null, "new_flag": "2", "short_name": "\u70ed\u98ce", "short_name_pinyin": "refeng", "status": null, "address": null, "name": null, "id": "40968"}, "mid": "888002156910396", "shopId": "40968", "netid": null, "province": 901, "district": 601, "zipcode": null, "telephone": null, "posDate": null, "destineTel": null, "togoTel": null, "trafficWay": null, "signBuilding": null, "businessArea": null, "selfRoom": null, "businessTime": null, "stall": null, "consume": null, "serviceFei": null, "favourable": null, "shopMemo": null, "appraise": null, "website": null, "memo": null, "payTypes": "\u6749\u5fb7\u5361", "shopTypes": "\u96f6\u552e", "consumeTypes": null, "cookTypes": null, "orderNum": 1000, "card4no": null, "card4noAcc": null, "district2": 410, "searchScope": null, "status": 1, "address": "\u6cb3\u5357\u5357\u8def489\u53f7L101-41\u53f7", "name": "\u70ed\u98ce \u9999\u6e2f\u540d\u90fd\u5546\u573a\u5e97", "id": 197808, "pageNo": 0, "pageCount": null, "pageSize": 10, "ids": null, "endTime": null, "startTime": null}, {"cardNumFive": null, "isSupportYj": null, "cityName": null, "districtName": null, "shopinfo": {"mid": "888002156910396", "good_flag": null, "new_flag": "2", "short_name": "\u70ed\u98ce", "short_name_pinyin": "refeng", "status": null, "address": null, "name": null, "id": "40968"}, "mid": "888002156910396", "shopId": "40968", "netid": null, "province": 901, "district": 601, "zipcode": null, "telephone": null, "posDate": null, "destineTel": null, "togoTel": null, "trafficWay": null, "signBuilding": null, "businessArea": null, "selfRoom": null, "businessTime": null, "stall": null, "consume": null, "serviceFei": null, "favourable": null, "shopMemo": null, "appraise": null, "website": null, "memo": null, "payTypes": "\u6749\u5fb7\u5361", "shopTypes": "\u96f6\u552e", "consumeTypes": null, "cookTypes": null, "orderNum": 1000, "card4no": null, "card4noAcc": null, "district2": 411, "searchScope": null, "status": 1, "address": "\u5357\u7fd4\u9547\u9648\u7fd4\u8def\u5b9d\u7fd4\u8def\u4e0a\u6d77\u4e2d\u592e\u516c\u56ed\u4e94\u5f69\u57ceG108\u5546\u94fa", "name": "\u70ed\u98ce \u4e0a\u6d77\u4e2d\u592e\u516c\u56ed\u4e94\u5f69\u57ce\u5e97", "id": 197812, "pageNo": 0, "pageCount": null, "pageSize": 10, "ids": null, "endTime": null, "startTime": null}, {"cardNumFive": null, "isSupportYj": null, "cityName": null, "districtName": null, "shopinfo": {"mid": "888002156910396", "good_flag": null, "new_flag": "2", "short_name": "\u70ed\u98ce", "short_name_pinyin": "refeng", "status": null, "address": null, "name": null, "id": "40968"}, "mid": "888002156910396", "shopId": "40968", "netid": null, "province": 901, "district": 601, "zipcode": null, "telephone": null, "posDate": null, "destineTel": null, "togoTel": null, "trafficWay": null, "signBuilding": null, "businessArea": null, "selfRoom": null, "businessTime": null, "stall": null, "consume": null, "serviceFei": null, "favourable": null, "shopMemo": null, "appraise": null, "website": null, "memo": null, "payTypes": "\u6749\u5fb7\u5361", "shopTypes": "\u96f6\u552e", "consumeTypes": null, "cookTypes": null, "orderNum": 1000, "card4no": null, "card4noAcc": null, "district2": 417, "searchScope": null, "status": 1, "address": "\u6dc0\u5c71\u6e56\u5927\u9053218\u53f7\u9752\u6d66\u543e\u60a6\u5e7f\u573a2F-010-1\u53f7", "name": "\u70ed\u98ce \u9752\u6d66\u543e\u60a6\u5e7f\u573a\u5e97", "id": 197813, "pageNo": 0, "pageCount": null, "pageSize": 10, "ids": null, "endTime": null, "startTime": null}, {"cardNumFive": null, "isSupportYj": null, "cityName": null, "districtName": null, "shopinfo": {"mid": "888002156910396", "good_flag": null, "new_flag": "2", "short_name": "\u70ed\u98ce", "short_name_pinyin": "refeng", "status": null, "address": null, "name": null, "id": "40968"}, "mid": "888002156910396", "shopId": "40968", "netid": null, "province": 901, "district": 601, "zipcode": null, "telephone": null, "posDate": null, "destineTel": null, "togoTel": null, "trafficWay": null, "signBuilding": null, "businessArea": null, "selfRoom": null, "businessTime": null, "stall": null, "consume": null, "serviceFei": null, "favourable": null, "shopMemo": null, "appraise": null, "website": null, "memo": null, "payTypes": "\u6749\u5fb7\u5361", "shopTypes": "\u96f6\u552e", "consumeTypes": null, "cookTypes": null, "orderNum": 1000, "card4no": null, "card4noAcc": null, "district2": 409, "searchScope": null, "status": 1, "address": "\u7533\u957f\u8def688\u53f74\u697cL4-12/15\u5355\u5143", "name": "\u70ed\u98ce \u7533\u957f\u8def\u5e97", "id": 197814, "pageNo": 0, "pageCount": null, "pageSize": 10, "ids": null, "endTime": null, "startTime": null}, {"cardNumFive": null, "isSupportYj": null, "cityName": null, "districtName": null, "shopinfo": {"mid": "888002156910396", "good_flag": null, "new_flag": "2", "short_name": "\u70ed\u98ce", "short_name_pinyin": "refeng", "status": null, "address": null, "name": null, "id": "40968"}, "mid": "888002156910396", "shopId": "40968", "netid": null, "province": 901, "district": 601, "zipcode": null, "telephone": null, "posDate": null, "destineTel": null, "togoTel": null, "trafficWay": null, "signBuilding": null, "businessArea": null, "selfRoom": null, "businessTime": null, "stall": null, "consume": null, "serviceFei": null, "favourable": null, "shopMemo": null, "appraise": null, "website": null, "memo": null, "payTypes": "\u6749\u5fb7\u5361", "shopTypes": "\u96f6\u552e", "consumeTypes": null, "cookTypes": null, "orderNum": 1000, "card4no": null, "card4noAcc": null, "district2": 412, "searchScope": null, "status": 1, "address": "\u8363\u4e50\u897f\u8def860\u53f7F1/91-97", "name": "\u70ed\u98ce \u65b0\u7406\u60f3\u5e7f\u573a\u5e97", "id": 197816, "pageNo": 0, "pageCount": null, "pageSize": 10, "ids": null, "endTime": null, "startTime": null}, {"cardNumFive": null, "isSupportYj": null, "cityName": null, "districtName": null, "shopinfo": {"mid": "888002156910396", "good_flag": null, "new_flag": "2", "short_name": "\u70ed\u98ce", "short_name_pinyin": "refeng", "status": null, "address": null, "name": null, "id": "40968"}, "mid": "888002156910396", "shopId": "40968", "netid": null, "province": 901, "district": 601, "zipcode": null, "telephone": null, "posDate": null, "destineTel": null, "togoTel": null, "trafficWay": null, "signBuilding": null, "businessArea": null, "selfRoom": null, "businessTime": null, "stall": null, "consume": null, "serviceFei": null, "favourable": null, "shopMemo": null, "appraise": null, "website": null, "memo": null, "payTypes": "\u6749\u5fb7\u5361", "shopTypes": "\u96f6\u552e", "consumeTypes": null, "cookTypes": null, "orderNum": 1000, "card4no": null, "card4noAcc": null, "district2": 406, "searchScope": null, "status": 1, "address": "\u4ed9\u971e\u897f\u8def88\u53f72\u5c42G05-2F-1-2208", "name": "\u70ed\u98ce \u4ed9\u971e\u8def\u5e97", "id": 197818, "pageNo": 0, "pageCount": null, "pageSize": 10, "ids": null, "endTime": null, "startTime": null}, {"cardNumFive": null, "isSupportYj": null, "cityName": null, "districtName": null, "shopinfo": {"mid": "888002156910396", "good_flag": null, "new_flag": "2", "short_name": "\u70ed\u98ce", "short_name_pinyin": "refeng", "status": null, "address": null, "name": null, "id": "40968"}, "mid": "888002156910396", "shopId": "40968", "netid": null, "province": 901, "district": 601, "zipcode": null, "telephone": null, "posDate": null, "destineTel": null, "togoTel": null, "trafficWay": null, "signBuilding": null, "businessArea": null, "selfRoom": null, "businessTime": null, "stall": null, "consume": null, "serviceFei": null, "favourable": null, "shopMemo": null, "appraise": null, "website": null, "memo": null, "payTypes": "\u6749\u5fb7\u5361", "shopTypes": "\u96f6\u552e", "consumeTypes": null, "cookTypes": null, "orderNum": 1000, "card4no": null, "card4noAcc": null, "district2": 405, "searchScope": null, "status": 1, "address": "\u771f\u5317\u8def818\u53f7\u8fd1\u94c1\u57ce\u5e02\u5e7f\u573a\u5185N-B1-03-04-05", "name": "\u70ed\u98ce \u94c1\u57ce\u5e02\u5e7f\u573a\u5e97", "id": 197820, "pageNo": 0, "pageCount": null, "pageSize": 10, "ids": null, "endTime": null, "startTime": null}, {"cardNumFive": null, "isSupportYj": null, "cityName": null, "districtName": null, "shopinfo": {"mid": "888002156910396", "good_flag": null, "new_flag": "2", "short_name": "\u70ed\u98ce", "short_name_pinyin": "refeng", "status": null, "address": null, "name": null, "id": "40968"}, "mid": "888002156910396", "shopId": "40968", "netid": null, "province": 901, "district": 601, "zipcode": null, "telephone": null, "posDate": null, "destineTel": null, "togoTel": null, "trafficWay": null, "signBuilding": null, "businessArea": null, "selfRoom": null, "businessTime": null, "stall": null, "consume": null, "serviceFei": null, "favourable": null, "shopMemo": null, "appraise": null, "website": null, "memo": null, "payTypes": "\u6749\u5fb7\u5361", "shopTypes": "\u96f6\u552e", "consumeTypes": null, "cookTypes": null, "orderNum": 1000, "card4no": null, "card4noAcc": null, "district2": 405, "searchScope": null, "status": 1, "address": "\u771f\u5149\u8def1288\u53f7B1\u697cG08", "name": "\u70ed\u98ce \u4e2d\u73af\u767e\u8054\u5e97", "id": 197821, "pageNo": 0, "pageCount": null, "pageSize": 10, "ids": null, "endTime": null, "startTime": null}], "pageLimit": 8080, "size": 10}