{"pageCount": 1095, "count": 10942, "pageNo": 815, "subShopInfo": {"cardNumFive": "", "isSupportYj": "", "cityName": null, "districtName": null, "shopinfo": {"mid": null, "good_flag": null, "new_flag": null, "short_name": null, "short_name_pinyin": null, "status": null, "address": "", "name": "", "id": null}, "mid": null, "shopId": null, "netid": null, "province": 901, "district": null, "zipcode": null, "telephone": null, "posDate": null, "destineTel": null, "togoTel": null, "trafficWay": null, "signBuilding": null, "businessArea": null, "selfRoom": null, "businessTime": null, "stall": null, "consume": null, "serviceFei": null, "favourable": null, "shopMemo": "1", "appraise": null, "website": null, "memo": null, "payTypes": "", "shopTypes": "", "consumeTypes": null, "cookTypes": null, "orderNum": null, "card4no": null, "card4noAcc": null, "district2": null, "searchScope": null, "status": null, "address": "", "name": null, "id": null, "pageNo": 814, "pageCount": null, "pageSize": 10, "ids": null, "endTime": null, "startTime": null}, "list": [{"cardNumFive": null, "isSupportYj": null, "cityName": null, "districtName": null, "shopinfo": {"mid": "888888859120039", "good_flag": "1", "new_flag": "2", "short_name": "\u4eba\u548c\u5802", "short_name_pinyin": "renhetang", "status": null, "address": null, "name": null, "id": "32838"}, "mid": "888888859120039", "shopId": "32838", "netid": null, "province": 901, "district": 601, "zipcode": null, "telephone": null, "posDate": "20070601", "destineTel": null, "togoTel": null, "trafficWay": "\u8398\u56e2\u7ebf \u4e0a\u90b5\u7ebf", "signBuilding": null, "businessArea": null, "selfRoom": "\u65e0", "businessTime": null, "stall": null, "consume": null, "serviceFei": null, "favourable": null, "shopMemo": null, "appraise": null, "website": null, "memo": null, "payTypes": "\u6749\u5fb7\u5361", "shopTypes": "\u836f\u5e97", "consumeTypes": null, "cookTypes": null, "orderNum": 1000, "card4no": null, "card4noAcc": null, "district2": 413, "searchScope": null, "status": 1, "address": "\u56db\u56e2\u5929\u9e4f\u885771\u53f7", "name": "\u4eba\u548c\u5802 \u56db\u56e2\u836f\u5e97", "id": 140953, "pageNo": 0, "pageCount": null, "pageSize": 10, "ids": null, "endTime": null, "startTime": null}, {"cardNumFive": null, "isSupportYj": null, "cityName": null, "districtName": null, "shopinfo": {"mid": "888888859120039", "good_flag": "1", "new_flag": "2", "short_name": "\u4eba\u548c\u5802", "short_name_pinyin": "renhetang", "status": null, "address": null, "name": null, "id": "32838"}, "mid": "888888859120039", "shopId": "32838", "netid": null, "province": 901, "district": 601, "zipcode": null, "telephone": null, "posDate": "20070530", "destineTel": null, "togoTel": null, "trafficWay": null, "signBuilding": null, "businessArea": null, "selfRoom": "\u65e0", "businessTime": null, "stall": null, "consume": null, "serviceFei": null, "favourable": null, "shopMemo": null, "appraise": null, "website": null, "memo": null, "payTypes": "\u6749\u5fb7\u5361", "shopTypes": "\u836f\u5e97", "consumeTypes": null, "cookTypes": null, "orderNum": 1000, "card4no": null, "card4noAcc": null, "district2": 413, "searchScope": null, "status": 1, "address": "\u6cf0\u65e5\u6cf0\u9752\u8def98\u53f7", "name": "\u4eba\u548c\u5802 \u6cf0\u65e5\u836f\u5e97", "id": 140956, "pageNo": 0, "pageCount": null, "pageSize": 10, "ids": null, "endTime": null, "startTime": null}, {"cardNumFive": null, "isSupportYj": null, "cityName": null, "districtName": null, "shopinfo": {"mid": "888888859120039", "good_flag": "1", "new_flag": "2", "short_name": "\u4eba\u548c\u5802", "short_name_pinyin": "renhetang", "status": null, "address": null, "name": null, "id": "32838"}, "mid": "888888859120039", "shopId": "32838", "netid": null, "province": 901, "district": 601, "zipcode": null, "telephone": null, "posDate": "20070604", "destineTel": null, "togoTel": null, "trafficWay": null, "signBuilding": null, "businessArea": null, "selfRoom": "\u65e0", "businessTime": null, "stall": null, "consume": null, "serviceFei": null, "favourable": null, "shopMemo": null, "appraise": null, "website": null, "memo": null, "payTypes": "\u6749\u5fb7\u5361", "shopTypes": "\u836f\u5e97", "consumeTypes": null, "cookTypes": null, "orderNum": 1000, "card4no": null, "card4noAcc": null, "district2": 413, "searchScope": null, "status": 1, "address": "\u5858\u5916\u4eba\u6c11\u8def52\u53f7", "name": "\u4eba\u548c\u5802 \u5858\u5916\u836f\u5e97", "id": 140957, "pageNo": 0, "pageCount": null, "pageSize": 10, "ids": null, "endTime": null, "startTime": null}, {"cardNumFive": null, "isSupportYj": null, "cityName": null, "districtName": null, "shopinfo": {"mid": "888888859120039", "good_flag": "1", "new_flag": "2", "short_name": "\u4eba\u548c\u5802", "short_name_pinyin": "renhetang", "status": null, "address": null, "name": null, "id": "32838"}, "mid": "888888859120039", "shopId": "32838", "netid": null, "province": 901, "district": 601, "zipcode": null, "telephone": null, "posDate": "20070604", "destineTel": null, "togoTel": null, "trafficWay": "\u5858\u536b\u7ebf", "signBuilding": null, "businessArea": null, "selfRoom": "\u65e0", "businessTime": null, "stall": null, "consume": null, "serviceFei": null, "favourable": null, "shopMemo": null, "appraise": null, "website": null, "memo": null, "payTypes": "\u6749\u5fb7\u5361", "shopTypes": "\u836f\u5e97", "consumeTypes": null, "cookTypes": null, "orderNum": 1000, "card4no": null, "card4noAcc": null, "district2": 413, "searchScope": null, "status": 1, "address": "\u5e84\u884c\u5357\u4ead\u516c\u8def1150\u53f7", "name": "\u4eba\u548c\u5802 \u4fe1\u5eb7\u836f\u5e97", "id": 140960, "pageNo": 0, "pageCount": null, "pageSize": 10, "ids": null, "endTime": null, "startTime": null}, {"cardNumFive": null, "isSupportYj": null, "cityName": null, "districtName": null, "shopinfo": {"mid": "888002156911395", "good_flag": null, "new_flag": null, "short_name": "\u4eba\u95f4\u56db\u6708\u5929", "short_name_pinyin": "renjiansiyuetian", "status": null, "address": null, "name": null, "id": "36333"}, "mid": "888002156911395", "shopId": "36333", "netid": null, "province": 901, "district": 601, "zipcode": null, "telephone": null, "posDate": "20100819", "destineTel": null, "togoTel": null, "trafficWay": null, "signBuilding": null, "businessArea": null, "selfRoom": null, "businessTime": null, "stall": null, "consume": null, "serviceFei": null, "favourable": null, "shopMemo": null, "appraise": null, "website": null, "memo": null, "payTypes": "\u6749\u5fb7\u5361", "shopTypes": "\u670d\u9970\u5bb6\u7eba", "consumeTypes": null, "cookTypes": null, "orderNum": 1000, "card4no": null, "card4noAcc": null, "district2": 417, "searchScope": null, "status": 1, "address": "\u57ce\u4e2d\u4e1c\u8def362\u53f7", "name": "\u4eba\u95f4\u56db\u6708\u5929 \u57ce\u4e2d\u4e1c\u8def\u5e97", "id": 151246, "pageNo": 0, "pageCount": null, "pageSize": 10, "ids": null, "endTime": null, "startTime": null}, {"cardNumFive": null, "isSupportYj": null, "cityName": null, "districtName": null, "shopinfo": {"mid": "888002156911395", "good_flag": null, "new_flag": null, "short_name": "\u4eba\u95f4\u56db\u6708\u5929", "short_name_pinyin": "renjiansiyuetian", "status": null, "address": null, "name": null, "id": "36333"}, "mid": "888002156911395", "shopId": "36333", "netid": null, "province": 901, "district": 601, "zipcode": null, "telephone": null, "posDate": "20100819", "destineTel": null, "togoTel": null, "trafficWay": null, "signBuilding": null, "businessArea": null, "selfRoom": null, "businessTime": null, "stall": null, "consume": null, "serviceFei": null, "favourable": null, "shopMemo": null, "appraise": null, "website": null, "memo": null, "payTypes": "\u6749\u5fb7\u5361", "shopTypes": "\u670d\u9970\u5bb6\u7eba", "consumeTypes": null, "cookTypes": null, "orderNum": 1000, "card4no": null, "card4noAcc": null, "district2": 410, "searchScope": null, "status": 1, "address": "\u5858\u6cbd\u8def985\u53f72101\u5ba4", "name": "\u4eba\u95f4\u56db\u6708\u5929 \u5858\u6cbd\u8def\u5e97", "id": 151248, "pageNo": 0, "pageCount": null, "pageSize": 10, "ids": null, "endTime": null, "startTime": null}, {"cardNumFive": null, "isSupportYj": null, "cityName": null, "districtName": null, "shopinfo": {"mid": "888002179970114", "good_flag": "2", "new_flag": "2", "short_name": "\u4eba\u9a6c\u7ebf\u5065\u8eab", "short_name_pinyin": "renmaxianjianshen", "status": null, "address": null, "name": null, "id": "476799485696016384"}, "mid": "888002179970114", "shopId": "476799485696016384", "netid": null, "province": 901, "district": 601, "zipcode": null, "telephone": null, "posDate": null, "destineTel": null, "togoTel": null, "trafficWay": null, "signBuilding": null, "businessArea": null, "selfRoom": null, "businessTime": null, "stall": null, "consume": null, "serviceFei": null, "favourable": null, "shopMemo": null, "appraise": null, "website": null, "memo": null, "payTypes": "", "shopTypes": null, "consumeTypes": null, "cookTypes": null, "orderNum": null, "card4no": null, "card4noAcc": null, "district2": 418, "searchScope": null, "status": 1, "address": "\u91d1\u79d1\u8def3057\u53f7\u6c47\u667a\u56fd\u9645\u5546\u4e1a\u4e2d\u5fc3\u4e94\u5c42\u6cb3\u9a6c\u5f71\u57ce\u552e\u7968\u5927\u53852\u697c", "name": "\u5f20\u6c5f\u6cb3\u9a6c\u5e97", "id": 476799484144123904, "pageNo": 0, "pageCount": null, "pageSize": 10, "ids": null, "endTime": null, "startTime": null}, {"cardNumFive": null, "isSupportYj": null, "cityName": null, "districtName": null, "shopinfo": {"mid": "888002179970114", "good_flag": "2", "new_flag": "2", "short_name": "\u4eba\u9a6c\u7ebf\u5065\u8eab", "short_name_pinyin": "renmaxianjianshen", "status": null, "address": null, "name": null, "id": "476799485696016384"}, "mid": "888002179970114", "shopId": "476799485696016384", "netid": null, "province": 901, "district": 601, "zipcode": null, "telephone": null, "posDate": null, "destineTel": null, "togoTel": null, "trafficWay": null, "signBuilding": null, "businessArea": null, "selfRoom": null, "businessTime": null, "stall": null, "consume": null, "serviceFei": null, "favourable": null, "shopMemo": null, "appraise": null, "website": null, "memo": null, "payTypes": "", "shopTypes": null, "consumeTypes": null, "cookTypes": null, "orderNum": null, "card4no": null, "card4noAcc": null, "district2": 401, "searchScope": null, "status": 1, "address": "\u5357\u4eac\u4e1c\u8def300\u53f7\u6052\u57fa\u540d\u4eba\u8d2d\u7269\u4e2d\u5fc3\u4e94\u5c42L513\u5ba4", "name": "\u6052\u57fa\u540d\u4eba\u5e97", "id": 476799485020733440, "pageNo": 0, "pageCount": null, "pageSize": 10, "ids": null, "endTime": null, "startTime": null}, {"cardNumFive": null, "isSupportYj": null, "cityName": null, "districtName": null, "shopinfo": {"mid": "888002179970114", "good_flag": "2", "new_flag": "2", "short_name": "\u4eba\u9a6c\u7ebf\u5065\u8eab", "short_name_pinyin": "renmaxianjianshen", "status": null, "address": null, "name": null, "id": "476799485696016384"}, "mid": "888002179970114", "shopId": "476799485696016384", "netid": null, "province": 901, "district": 601, "zipcode": null, "telephone": null, "posDate": null, "destineTel": null, "togoTel": null, "trafficWay": null, "signBuilding": null, "businessArea": null, "selfRoom": null, "businessTime": null, "stall": null, "consume": null, "serviceFei": null, "favourable": null, "shopMemo": null, "appraise": null, "website": null, "memo": null, "payTypes": "", "shopTypes": null, "consumeTypes": null, "cookTypes": null, "orderNum": null, "card4no": null, "card4noAcc": null, "district2": 406, "searchScope": null, "status": 1, "address": "\u5929\u5c71\u8def900\u53f7\u6c47\u91d1\u767e\u8d27\u5546\u573a\u4e09\u5c42319\u5ba4", "name": "\u6c47\u91d1\u767e\u8d27\u5e97", "id": 476799485473718272, "pageNo": 0, "pageCount": null, "pageSize": 10, "ids": null, "endTime": null, "startTime": null}, {"cardNumFive": null, "isSupportYj": null, "cityName": null, "districtName": null, "shopinfo": {"mid": "888002179970114", "good_flag": "2", "new_flag": "2", "short_name": "\u4eba\u9a6c\u7ebf\u5065\u8eab", "short_name_pinyin": "renmaxianjianshen", "status": null, "address": null, "name": null, "id": "476799485696016384"}, "mid": "888002179970114", "shopId": "476799485696016384", "netid": null, "province": 901, "district": 601, "zipcode": null, "telephone": null, "posDate": null, "destineTel": null, "togoTel": null, "trafficWay": null, "signBuilding": null, "businessArea": null, "selfRoom": null, "businessTime": null, "stall": null, "consume": null, "serviceFei": null, "favourable": null, "shopMemo": null, "appraise": null, "website": null, "memo": null, "payTypes": "", "shopTypes": null, "consumeTypes": null, "cookTypes": null, "orderNum": null, "card4no": null, "card4noAcc": null, "district2": 401, "searchScope": null, "status": 1, "address": "\u6dee\u6d77\u4e2d\u8def755\u53f7\u6dee\u6d77755\u5e7f\u573a\u4e8c\u5c42203\u5ba4", "name": "\u6dee\u6d77755\u5e97", "id": 476799485888954368, "pageNo": 0, "pageCount": null, "pageSize": 10, "ids": null, "endTime": null, "startTime": null}], "pageLimit": 8140, "size": 10}