{"pageCount": 1095, "count": 10942, "pageNo": 818, "subShopInfo": {"cardNumFive": "", "isSupportYj": "", "cityName": null, "districtName": null, "shopinfo": {"mid": null, "good_flag": null, "new_flag": null, "short_name": null, "short_name_pinyin": null, "status": null, "address": "", "name": "", "id": null}, "mid": null, "shopId": null, "netid": null, "province": 901, "district": null, "zipcode": null, "telephone": null, "posDate": null, "destineTel": null, "togoTel": null, "trafficWay": null, "signBuilding": null, "businessArea": null, "selfRoom": null, "businessTime": null, "stall": null, "consume": null, "serviceFei": null, "favourable": null, "shopMemo": "1", "appraise": null, "website": null, "memo": null, "payTypes": "", "shopTypes": "", "consumeTypes": null, "cookTypes": null, "orderNum": null, "card4no": null, "card4noAcc": null, "district2": null, "searchScope": null, "status": null, "address": "", "name": null, "id": null, "pageNo": 817, "pageCount": null, "pageSize": 10, "ids": null, "endTime": null, "startTime": null}, "list": [{"cardNumFive": null, "isSupportYj": null, "cityName": null, "districtName": null, "shopinfo": {"mid": "888888853990207", "good_flag": null, "new_flag": null, "short_name": "\u745e\u83b1", "short_name_pinyin": "ruilai", "status": null, "address": null, "name": null, "id": "32868"}, "mid": "888888853990207", "shopId": "32868", "netid": null, "province": 901, "district": 601, "zipcode": null, "telephone": "23265581", "posDate": "200908", "destineTel": null, "togoTel": null, "trafficWay": "\u516c\u4ea4602\u3001995", "signBuilding": null, "businessArea": null, "selfRoom": null, "businessTime": "10:00~18:00", "stall": null, "consume": null, "serviceFei": null, "favourable": null, "shopMemo": null, "appraise": null, "website": null, "memo": null, "payTypes": "\u6749\u5fb7\u5361", "shopTypes": "\u4e13\u5356", "consumeTypes": null, "cookTypes": null, "orderNum": 1000, "card4no": null, "card4noAcc": null, "district2": 418, "searchScope": null, "status": 1, "address": "\u6768\u9ad8\u4e2d\u8def2128\u53f7\u535c\u5cf0\u83b2\u82b1\u8d85\u5e022\u697c", "name": "\u745e\u83b1 \u6768\u9ad8\u4e2d\u8def\u5e97", "id": 141014, "pageNo": 0, "pageCount": null, "pageSize": 10, "ids": null, "endTime": null, "startTime": null}, {"cardNumFive": null, "isSupportYj": null, "cityName": null, "districtName": null, "shopinfo": {"mid": "888002153110186", "good_flag": null, "new_flag": null, "short_name": "\u82ae\u6b27\u767e\u8d27", "short_name_pinyin": "ruioubaihuo", "status": null, "address": null, "name": null, "id": "39759"}, "mid": "888002153110186", "shopId": "39759", "netid": null, "province": 901, "district": 601, "zipcode": null, "telephone": "22309888", "posDate": null, "destineTel": null, "togoTel": null, "trafficWay": null, "signBuilding": null, "businessArea": null, "selfRoom": null, "businessTime": null, "stall": null, "consume": null, "serviceFei": null, "favourable": null, "shopMemo": null, "appraise": null, "website": null, "memo": "\u4ec5\u9650\u603b\u6536\u94f6\u53f0\u4f7f\u7528", "payTypes": "\u6749\u5fb7\u5361", "shopTypes": "\u767e\u8d27", "consumeTypes": null, "cookTypes": null, "orderNum": 1000, "card4no": null, "card4noAcc": null, "district2": 404, "searchScope": null, "status": 1, "address": "\u5357\u4eac\u897f\u8def1601\u53f7", "name": "\u82ae\u6b27\u767e\u8d27 \u9759\u5b89\u5e97", "id": 171270, "pageNo": 0, "pageCount": null, "pageSize": 10, "ids": null, "endTime": null, "startTime": null}, {"cardNumFive": null, "isSupportYj": null, "cityName": null, "districtName": null, "shopinfo": {"mid": "888002158122313", "good_flag": null, "new_flag": null, "short_name": "\u82ae\u6b27\u767e\u8d27", "short_name_pinyin": "ruioubaihuo", "status": null, "address": null, "name": null, "id": "39760"}, "mid": "888002158122313", "shopId": "39760", "netid": null, "province": 901, "district": 601, "zipcode": null, "telephone": null, "posDate": null, "destineTel": null, "togoTel": null, "trafficWay": null, "signBuilding": null, "businessArea": null, "selfRoom": null, "businessTime": null, "stall": null, "consume": null, "serviceFei": null, "favourable": null, "shopMemo": null, "appraise": null, "website": null, "memo": null, "payTypes": "\u6749\u5fb7\u5361", "shopTypes": "\u9910\u996e", "consumeTypes": null, "cookTypes": null, "orderNum": 1000, "card4no": null, "card4noAcc": null, "district2": 404, "searchScope": null, "status": 1, "address": "\u5357\u4eac\u897f\u8def1601\u53f7\u5730\u4e0b2\u697c", "name": "Reel Kitchen", "id": 171278, "pageNo": 0, "pageCount": null, "pageSize": 10, "ids": null, "endTime": null, "startTime": null}, {"cardNumFive": null, "isSupportYj": null, "cityName": null, "districtName": null, "shopinfo": {"mid": "888002153310219", "good_flag": null, "new_flag": null, "short_name": "\u6da6\u798f\u8d85\u5e02", "short_name_pinyin": "runfuchaoshi", "status": null, "address": null, "name": null, "id": "40806"}, "mid": "888002153310219", "shopId": "40806", "netid": null, "province": 901, "district": 601, "zipcode": null, "telephone": "61625552", "posDate": null, "destineTel": null, "togoTel": null, "trafficWay": null, "signBuilding": null, "businessArea": null, "selfRoom": null, "businessTime": null, "stall": null, "consume": null, "serviceFei": null, "favourable": null, "shopMemo": null, "appraise": null, "website": null, "memo": null, "payTypes": "\u6749\u5fb7\u5361", "shopTypes": "\u8d85\u5e02", "consumeTypes": null, "cookTypes": null, "orderNum": 1000, "card4no": null, "card4noAcc": null, "district2": 418, "searchScope": null, "status": 1, "address": "\u6c11\u6625\u8def361-379\u53f71-3\u697c", "name": "\u6da6\u798f\u8d85\u5e02 \u66f9\u8def\u9547\u5e97", "id": 177491, "pageNo": 0, "pageCount": null, "pageSize": 10, "ids": null, "endTime": null, "startTime": null}, {"cardNumFive": null, "isSupportYj": null, "cityName": null, "districtName": null, "shopinfo": {"mid": "888888857340046", "good_flag": "2", "new_flag": "2", "short_name": "\u8d5b\u6b66\u79d1\u6280", "short_name_pinyin": "saiwukeji", "status": null, "address": null, "name": null, "id": "32878"}, "mid": "888888857340046", "shopId": "32878", "netid": null, "province": 901, "district": 601, "zipcode": null, "telephone": "58357234", "posDate": "20090512", "destineTel": null, "togoTel": null, "trafficWay": null, "signBuilding": null, "businessArea": "40", "selfRoom": null, "businessTime": "10:00~22:00", "stall": "\u6709", "consume": null, "serviceFei": null, "favourable": null, "shopMemo": null, "appraise": null, "website": null, "memo": null, "payTypes": "\u6749\u5fb7\u5361", "shopTypes": "\u96f6\u552e", "consumeTypes": null, "cookTypes": null, "orderNum": 1000, "card4no": null, "card4noAcc": null, "district2": 418, "searchScope": null, "status": 1, "address": "\u5f20\u6768\u8def588\u53f7\u767e\u8111\u6c473E10B", "name": "\u8d5b\u6b66\u79d1\u6280 \u5f20\u6768\u8def\u5e97", "id": 141043, "pageNo": 0, "pageCount": null, "pageSize": 10, "ids": null, "endTime": null, "startTime": null}, {"cardNumFive": null, "isSupportYj": null, "cityName": null, "districtName": null, "shopinfo": {"mid": "888888856310004", "good_flag": "2", "new_flag": "2", "short_name": "SAMSONITE", "short_name_pinyin": "samsonite", "status": null, "address": null, "name": null, "id": "31074"}, "mid": "888888856310004", "shopId": "31074", "netid": null, "province": 901, "district": 601, "zipcode": null, "telephone": null, "posDate": "20090323", "destineTel": null, "togoTel": null, "trafficWay": null, "signBuilding": null, "businessArea": null, "selfRoom": null, "businessTime": null, "stall": null, "consume": null, "serviceFei": null, "favourable": null, "shopMemo": null, "appraise": null, "website": null, "memo": null, "payTypes": "\u6749\u5fb7\u5361", "shopTypes": "\u670d\u9970\u5bb6\u7eba", "consumeTypes": null, "cookTypes": null, "orderNum": 1000, "card4no": null, "card4noAcc": null, "district2": 401, "searchScope": null, "status": 1, "address": "\u5357\u4eac\u897f\u8def388\u53f71\u5c42A\u5ba4", "name": "SAMSONITE \u9ec4\u6d66\u4e00\u5e97", "id": 132097, "pageNo": 0, "pageCount": null, "pageSize": 10, "ids": null, "endTime": null, "startTime": null}, {"cardNumFive": null, "isSupportYj": null, "cityName": null, "districtName": null, "shopinfo": {"mid": "888888856910062", "good_flag": null, "new_flag": null, "short_name": "\u4e09\u67aa", "short_name_pinyin": "sanqiang", "status": null, "address": null, "name": null, "id": "32880"}, "mid": "888888856910062", "shopId": "32880", "netid": null, "province": 901, "district": 601, "zipcode": null, "telephone": "56604622", "posDate": null, "destineTel": null, "togoTel": null, "trafficWay": "952B 848", "signBuilding": null, "businessArea": null, "selfRoom": null, "businessTime": "10:00~22:00", "stall": null, "consume": null, "serviceFei": null, "favourable": null, "shopMemo": null, "appraise": null, "website": null, "memo": null, "payTypes": "\u6749\u5fb7\u5361", "shopTypes": "\u4e13\u5356", "consumeTypes": null, "cookTypes": null, "orderNum": 1000, "card4no": null, "card4noAcc": null, "district2": 416, "searchScope": null, "status": 1, "address": "\u53cb\u8c0a\u8def57\u53f7", "name": "\u4e09\u67aa \u5b9d\u5c71\u53cb\u8c0a\u5e97", "id": 141045, "pageNo": 0, "pageCount": null, "pageSize": 10, "ids": null, "endTime": null, "startTime": null}, {"cardNumFive": null, "isSupportYj": null, "cityName": null, "districtName": null, "shopinfo": {"mid": "888888856910062", "good_flag": null, "new_flag": null, "short_name": "\u4e09\u67aa", "short_name_pinyin": "sanqiang", "status": null, "address": null, "name": null, "id": "32880"}, "mid": "888888856910062", "shopId": "32880", "netid": null, "province": 901, "district": 601, "zipcode": null, "telephone": "50420565", "posDate": "20081111", "destineTel": null, "togoTel": null, "trafficWay": "\u516c\u4ea4451 \u9f99\u6ee8\u4e13\u7ebf\u533a\u95f4", "signBuilding": null, "businessArea": null, "selfRoom": null, "businessTime": "10:00~22:00", "stall": null, "consume": null, "serviceFei": null, "favourable": null, "shopMemo": null, "appraise": null, "website": null, "memo": null, "payTypes": "\u6749\u5fb7\u5361", "shopTypes": "\u4e13\u5356", "consumeTypes": null, "cookTypes": null, "orderNum": 1000, "card4no": null, "card4noAcc": null, "district2": 418, "searchScope": null, "status": 1, "address": "\u5317\u8521\u9547\u5317\u4e2d\u8def419\u53f7", "name": "\u4e09\u67aa \u5317\u8521\u4e13\u5356\u5e97", "id": 141046, "pageNo": 0, "pageCount": null, "pageSize": 10, "ids": null, "endTime": null, "startTime": null}, {"cardNumFive": null, "isSupportYj": null, "cityName": null, "districtName": null, "shopinfo": {"mid": "888888856910062", "good_flag": null, "new_flag": null, "short_name": "\u4e09\u67aa", "short_name_pinyin": "sanqiang", "status": null, "address": null, "name": null, "id": "32880"}, "mid": "888888856910062", "shopId": "32880", "netid": null, "province": 901, "district": 601, "zipcode": null, "telephone": "52193372", "posDate": "20071016", "destineTel": null, "togoTel": null, "trafficWay": "\u516c\u4ea4855 836 808", "signBuilding": null, "businessArea": null, "selfRoom": null, "businessTime": "10:00~22:00", "stall": null, "consume": null, "serviceFei": null, "favourable": null, "shopMemo": null, "appraise": null, "website": null, "memo": null, "payTypes": "\u6749\u5fb7\u5361", "shopTypes": "\u4e13\u5356", "consumeTypes": null, "cookTypes": null, "orderNum": 1000, "card4no": null, "card4noAcc": null, "district2": 406, "searchScope": null, "status": 1, "address": "\u5929\u5c71\u897f\u8def266-1\u53f7", "name": "\u4e09\u67aa \u5317\u65b0\u5f84\u5e97", "id": 141047, "pageNo": 0, "pageCount": null, "pageSize": 10, "ids": null, "endTime": null, "startTime": null}, {"cardNumFive": null, "isSupportYj": null, "cityName": null, "districtName": null, "shopinfo": {"mid": "888888856910062", "good_flag": null, "new_flag": null, "short_name": "\u4e09\u67aa", "short_name_pinyin": "sanqiang", "status": null, "address": null, "name": null, "id": "32880"}, "mid": "888888856910062", "shopId": "32880", "netid": null, "province": 901, "district": 601, "zipcode": null, "telephone": "68553741", "posDate": "20070929", "destineTel": null, "togoTel": null, "trafficWay": "\u516c\u4ea4814 \u4e0a\u5ddd\u4e13\u7ebf", "signBuilding": null, "businessArea": null, "selfRoom": null, "businessTime": "9:30~21:30", "stall": null, "consume": null, "serviceFei": null, "favourable": null, "shopMemo": null, "appraise": null, "website": null, "memo": null, "payTypes": "\u6749\u5fb7\u5361", "shopTypes": "\u4e13\u5356", "consumeTypes": null, "cookTypes": null, "orderNum": 1000, "card4no": null, "card4noAcc": null, "district2": 418, "searchScope": null, "status": 1, "address": "\u535a\u5c71\u8def94\u53f7", "name": "\u4e09\u67aa \u535a\u5c71\u8def\u5e97", "id": 141048, "pageNo": 0, "pageCount": null, "pageSize": 10, "ids": null, "endTime": null, "startTime": null}], "pageLimit": 8170, "size": 10}