{"pageCount": 1095, "count": 10942, "pageNo": 817, "subShopInfo": {"cardNumFive": "", "isSupportYj": "", "cityName": null, "districtName": null, "shopinfo": {"mid": null, "good_flag": null, "new_flag": null, "short_name": null, "short_name_pinyin": null, "status": null, "address": "", "name": "", "id": null}, "mid": null, "shopId": null, "netid": null, "province": 901, "district": null, "zipcode": null, "telephone": null, "posDate": null, "destineTel": null, "togoTel": null, "trafficWay": null, "signBuilding": null, "businessArea": null, "selfRoom": null, "businessTime": null, "stall": null, "consume": null, "serviceFei": null, "favourable": null, "shopMemo": "1", "appraise": null, "website": null, "memo": null, "payTypes": "", "shopTypes": "", "consumeTypes": null, "cookTypes": null, "orderNum": null, "card4no": null, "card4noAcc": null, "district2": null, "searchScope": null, "status": null, "address": "", "name": null, "id": null, "pageNo": 816, "pageCount": null, "pageSize": 10, "ids": null, "endTime": null, "startTime": null}, "list": [{"cardNumFive": null, "isSupportYj": null, "cityName": null, "districtName": null, "shopinfo": {"mid": "888002153310113", "good_flag": null, "new_flag": null, "short_name": "\u5982\u6d77\u8d85\u5e02", "short_name_pinyin": "ruhaichaoshi", "status": null, "address": null, "name": null, "id": "32863"}, "mid": "888002153310113", "shopId": "32863", "netid": null, "province": 901, "district": 601, "zipcode": null, "telephone": "64753620", "posDate": "20100709", "destineTel": null, "togoTel": null, "trafficWay": null, "signBuilding": null, "businessArea": null, "selfRoom": null, "businessTime": null, "stall": null, "consume": null, "serviceFei": null, "favourable": null, "shopMemo": null, "appraise": null, "website": null, "memo": null, "payTypes": "\u6749\u5fb7\u5361", "shopTypes": "\u8d85\u5e02", "consumeTypes": null, "cookTypes": null, "orderNum": 1000, "card4no": null, "card4noAcc": null, "district2": 406, "searchScope": null, "status": 1, "address": "\u5929\u5c71\u8def585\u5f0419\u53f7", "name": "\u5982\u6d77\u8d85\u5e02 \u5929\u5c71\u5e97", "id": 140998, "pageNo": 0, "pageCount": null, "pageSize": 10, "ids": null, "endTime": null, "startTime": null}, {"cardNumFive": null, "isSupportYj": null, "cityName": null, "districtName": null, "shopinfo": {"mid": "888002153310113", "good_flag": null, "new_flag": null, "short_name": "\u5982\u6d77\u8d85\u5e02", "short_name_pinyin": "ruhaichaoshi", "status": null, "address": null, "name": null, "id": "35657"}, "mid": "888002153310113", "shopId": "35657", "netid": null, "province": 901, "district": 601, "zipcode": null, "telephone": "64753620", "posDate": "20100721", "destineTel": null, "togoTel": null, "trafficWay": null, "signBuilding": null, "businessArea": null, "selfRoom": null, "businessTime": null, "stall": null, "consume": null, "serviceFei": null, "favourable": null, "shopMemo": null, "appraise": null, "website": null, "memo": null, "payTypes": "\u6749\u5fb7\u5361", "shopTypes": "\u8d85\u5e02", "consumeTypes": null, "cookTypes": null, "orderNum": 1000, "card4no": null, "card4noAcc": null, "district2": 406, "searchScope": null, "status": 1, "address": "\u5929\u5c71\u8def585\u5f0419\u53f7", "name": "\u5982\u6d77\u8d85\u5e02 \u5929\u5c71\u8def\u5e97", "id": 149159, "pageNo": 0, "pageCount": null, "pageSize": 10, "ids": null, "endTime": null, "startTime": null}, {"cardNumFive": null, "isSupportYj": null, "cityName": null, "districtName": null, "shopinfo": {"mid": "888002159470040", "good_flag": null, "new_flag": null, "short_name": "\u745e\u8d1d\u5361", "short_name_pinyin": "ruibeika", "status": null, "address": null, "name": null, "id": "36327"}, "mid": "888002159470040", "shopId": "36327", "netid": null, "province": 901, "district": 601, "zipcode": null, "telephone": null, "posDate": "20100901", "destineTel": null, "togoTel": null, "trafficWay": null, "signBuilding": null, "businessArea": null, "selfRoom": null, "businessTime": null, "stall": null, "consume": null, "serviceFei": null, "favourable": null, "shopMemo": null, "appraise": null, "website": null, "memo": null, "payTypes": "\u6749\u5fb7\u5361", "shopTypes": "\u9970\u54c1", "consumeTypes": null, "cookTypes": null, "orderNum": 1000, "card4no": null, "card4noAcc": null, "district2": 401, "searchScope": null, "status": 1, "address": "\u897f\u85cf\u4e2d\u8def268\u53f73\u697c", "name": "\u745e\u8d1d\u5361 \u6765\u798f\u58eb\u5e97", "id": 151355, "pageNo": 0, "pageCount": null, "pageSize": 10, "ids": null, "endTime": null, "startTime": null}, {"cardNumFive": null, "isSupportYj": null, "cityName": null, "districtName": null, "shopinfo": {"mid": "888002159470041", "good_flag": null, "new_flag": null, "short_name": "\u745e\u8d1d\u5361", "short_name_pinyin": "ruibeika", "status": null, "address": null, "name": null, "id": "36465"}, "mid": "888002159470041", "shopId": "36465", "netid": null, "province": 901, "district": 601, "zipcode": null, "telephone": "33727786", "posDate": "20100915", "destineTel": null, "togoTel": null, "trafficWay": null, "signBuilding": null, "businessArea": null, "selfRoom": null, "businessTime": null, "stall": null, "consume": null, "serviceFei": null, "favourable": null, "shopMemo": null, "appraise": null, "website": null, "memo": null, "payTypes": "\u6749\u5fb7\u5361", "shopTypes": "\u9970\u54c1", "consumeTypes": null, "cookTypes": null, "orderNum": 1000, "card4no": null, "card4noAcc": null, "district2": 406, "searchScope": null, "status": 1, "address": "\u957f\u5b81\u8def1018\u53f7\u9f99\u4e4b\u68a62063\u5546\u94fa", "name": "\u745e\u8d1d\u5361 \u9f99\u4e4b\u68a6\u5e97", "id": 151672, "pageNo": 0, "pageCount": null, "pageSize": 10, "ids": null, "endTime": null, "startTime": null}, {"cardNumFive": null, "isSupportYj": null, "cityName": null, "districtName": null, "shopinfo": {"mid": "888888880430006", "good_flag": "2", "new_flag": "2", "short_name": "\u745e\u5149\u5149\u5b66\u773c\u955c", "short_name_pinyin": "ruiguangguangxueyanjing", "status": null, "address": null, "name": null, "id": "32865"}, "mid": "888888880430006", "shopId": "32865", "netid": null, "province": 901, "district": 601, "zipcode": "200061", "telephone": null, "posDate": "20070228", "destineTel": "62603154", "togoTel": "62603154", "trafficWay": "\u5730\u94c1\u56db\u53f7\u7ebf 224", "signBuilding": null, "businessArea": null, "selfRoom": "\u65e0", "businessTime": null, "stall": "\u65e0", "consume": null, "serviceFei": null, "favourable": null, "shopMemo": null, "appraise": null, "website": null, "memo": null, "payTypes": "\u6749\u5fb7\u5361", "shopTypes": "\u96f6\u552e,\u4e13\u5356", "consumeTypes": null, "cookTypes": null, "orderNum": 1000, "card4no": null, "card4noAcc": null, "district2": 405, "searchScope": null, "status": 1, "address": "\u534e\u6c60\u8def124\u53f7", "name": "\u745e\u5149\u5149\u5b66\u773c\u955c \u534e\u6c60\u5e97", "id": 141000, "pageNo": 0, "pageCount": null, "pageSize": 10, "ids": null, "endTime": null, "startTime": null}, {"cardNumFive": null, "isSupportYj": null, "cityName": null, "districtName": null, "shopinfo": {"mid": "888888853990207", "good_flag": null, "new_flag": null, "short_name": "\u745e\u83b1", "short_name_pinyin": "ruilai", "status": null, "address": null, "name": null, "id": "32868"}, "mid": "888888853990207", "shopId": "32868", "netid": null, "province": 901, "district": 601, "zipcode": null, "telephone": "50307318", "posDate": "20090310", "destineTel": null, "togoTel": null, "trafficWay": null, "signBuilding": null, "businessArea": null, "selfRoom": null, "businessTime": "10:00~22:00", "stall": null, "consume": null, "serviceFei": null, "favourable": null, "shopMemo": null, "appraise": null, "website": null, "memo": null, "payTypes": "\u6749\u5fb7\u5361", "shopTypes": "\u4e13\u5356", "consumeTypes": null, "cookTypes": null, "orderNum": 1000, "card4no": null, "card4noAcc": null, "district2": 418, "searchScope": null, "status": 1, "address": "\u78a7\u4e91\u8def535\u91d1\u6865\u5bb6\u4e50\u798f1\u697c", "name": "\u745e\u83b1 \u91d1\u6865\u5e97", "id": 141007, "pageNo": 0, "pageCount": null, "pageSize": 10, "ids": null, "endTime": null, "startTime": null}, {"cardNumFive": null, "isSupportYj": null, "cityName": null, "districtName": null, "shopinfo": {"mid": "888888853990207", "good_flag": null, "new_flag": null, "short_name": "\u745e\u83b1", "short_name_pinyin": "ruilai", "status": null, "address": null, "name": null, "id": "32868"}, "mid": "888888853990207", "shopId": "32868", "netid": null, "province": 901, "district": 601, "zipcode": null, "telephone": "52377908", "posDate": "20090310", "destineTel": null, "togoTel": null, "trafficWay": null, "signBuilding": null, "businessArea": null, "selfRoom": null, "businessTime": "24\u5c0f\u65f6", "stall": null, "consume": null, "serviceFei": null, "favourable": null, "shopMemo": null, "appraise": null, "website": null, "memo": null, "payTypes": "\u6749\u5fb7\u5361", "shopTypes": "\u4e13\u5356", "consumeTypes": null, "cookTypes": null, "orderNum": 1000, "card4no": null, "card4noAcc": null, "district2": 406, "searchScope": null, "status": 1, "address": "\u957f\u5b81\u8def1018\u53f7\u5bb6\u4e50\u798f\u4e2d\u5c71\u516c\u56ed\u5e97B1-703", "name": "\u745e\u83b1 \u9f99\u4e4b\u68a6\u5e97", "id": 141008, "pageNo": 0, "pageCount": null, "pageSize": 10, "ids": null, "endTime": null, "startTime": null}, {"cardNumFive": null, "isSupportYj": null, "cityName": null, "districtName": null, "shopinfo": {"mid": "888888853990207", "good_flag": null, "new_flag": null, "short_name": "\u745e\u83b1", "short_name_pinyin": "ruilai", "status": null, "address": null, "name": null, "id": "32868"}, "mid": "888888853990207", "shopId": "32868", "netid": null, "province": 901, "district": 601, "zipcode": null, "telephone": null, "posDate": "20091207", "destineTel": null, "togoTel": null, "trafficWay": null, "signBuilding": null, "businessArea": null, "selfRoom": null, "businessTime": "10:00~22:00", "stall": null, "consume": null, "serviceFei": null, "favourable": null, "shopMemo": null, "appraise": null, "website": null, "memo": null, "payTypes": "\u6749\u5fb7\u5361", "shopTypes": "\u4e13\u5356", "consumeTypes": null, "cookTypes": null, "orderNum": 1000, "card4no": null, "card4noAcc": null, "district2": 418, "searchScope": null, "status": 1, "address": "\u4e25\u6865\u8def326\u53f74F", "name": "\u745e\u83b1 \u5168\u52b2\u56fd\u9645\u5e7f\u573a\u5e97", "id": 141010, "pageNo": 0, "pageCount": null, "pageSize": 10, "ids": null, "endTime": null, "startTime": null}, {"cardNumFive": null, "isSupportYj": null, "cityName": null, "districtName": null, "shopinfo": {"mid": "888888853990207", "good_flag": null, "new_flag": null, "short_name": "\u745e\u83b1", "short_name_pinyin": "ruilai", "status": null, "address": null, "name": null, "id": "32868"}, "mid": "888888853990207", "shopId": "32868", "netid": null, "province": 901, "district": 601, "zipcode": null, "telephone": "62315573", "posDate": "20090310", "destineTel": null, "togoTel": null, "trafficWay": null, "signBuilding": null, "businessArea": null, "selfRoom": null, "businessTime": "10:00~22:00", "stall": null, "consume": null, "serviceFei": null, "favourable": null, "shopMemo": null, "appraise": null, "website": null, "memo": null, "payTypes": "\u6749\u5fb7\u5361", "shopTypes": "\u4e13\u5356", "consumeTypes": null, "cookTypes": null, "orderNum": 1000, "card4no": null, "card4noAcc": null, "district2": 405, "searchScope": null, "status": 1, "address": "\u957f\u5bff\u8def834\u53f7\u6b66\u5b81\u5bb6\u4e50\u798f2\u697c\u7535\u68af\u53e3GNC\u4e13\u67dc", "name": "\u745e\u83b1 \u6b66\u5b81\u5e97", "id": 141012, "pageNo": 0, "pageCount": null, "pageSize": 10, "ids": null, "endTime": null, "startTime": null}, {"cardNumFive": null, "isSupportYj": null, "cityName": null, "districtName": null, "shopinfo": {"mid": "888888853990207", "good_flag": null, "new_flag": null, "short_name": "\u745e\u83b1", "short_name_pinyin": "ruilai", "status": null, "address": null, "name": null, "id": "32868"}, "mid": "888888853990207", "shopId": "32868", "netid": null, "province": 901, "district": 601, "zipcode": null, "telephone": "69760237", "posDate": "20090310", "destineTel": null, "togoTel": null, "trafficWay": null, "signBuilding": null, "businessArea": null, "selfRoom": null, "businessTime": "10:00~22:00", "stall": null, "consume": null, "serviceFei": null, "favourable": null, "shopMemo": null, "appraise": null, "website": null, "memo": null, "payTypes": "\u6749\u5fb7\u5361", "shopTypes": "\u4e13\u5356", "consumeTypes": null, "cookTypes": null, "orderNum": 1000, "card4no": null, "card4noAcc": null, "district2": 417, "searchScope": null, "status": 1, "address": "\u6caa\u9752\u5e73\u516c\u8def1829\u53f7\u5bb6\u4e50\u798fAJ-306A", "name": "\u745e\u83b1 \u5f90\u6cfe\u5e97", "id": 141013, "pageNo": 0, "pageCount": null, "pageSize": 10, "ids": null, "endTime": null, "startTime": null}], "pageLimit": 8160, "size": 10}