{"pageCount": 1095, "count": 10942, "pageNo": 826, "subShopInfo": {"cardNumFive": "", "isSupportYj": "", "cityName": null, "districtName": null, "shopinfo": {"mid": null, "good_flag": null, "new_flag": null, "short_name": null, "short_name_pinyin": null, "status": null, "address": "", "name": "", "id": null}, "mid": null, "shopId": null, "netid": null, "province": 901, "district": null, "zipcode": null, "telephone": null, "posDate": null, "destineTel": null, "togoTel": null, "trafficWay": null, "signBuilding": null, "businessArea": null, "selfRoom": null, "businessTime": null, "stall": null, "consume": null, "serviceFei": null, "favourable": null, "shopMemo": "1", "appraise": null, "website": null, "memo": null, "payTypes": "", "shopTypes": "", "consumeTypes": null, "cookTypes": null, "orderNum": null, "card4no": null, "card4noAcc": null, "district2": null, "searchScope": null, "status": null, "address": "", "name": null, "id": null, "pageNo": 825, "pageCount": null, "pageSize": 10, "ids": null, "endTime": null, "startTime": null}, "list": [{"cardNumFive": null, "isSupportYj": null, "cityName": null, "districtName": null, "shopinfo": {"mid": "888888856910062", "good_flag": null, "new_flag": null, "short_name": "\u4e09\u67aa", "short_name_pinyin": "sanqiang", "status": null, "address": null, "name": null, "id": "36328"}, "mid": "888888856910062", "shopId": "36328", "netid": null, "province": 901, "district": 601, "zipcode": null, "telephone": "63506389", "posDate": "20100818", "destineTel": null, "togoTel": null, "trafficWay": null, "signBuilding": null, "businessArea": null, "selfRoom": null, "businessTime": null, "stall": null, "consume": null, "serviceFei": null, "favourable": null, "shopMemo": null, "appraise": null, "website": null, "memo": null, "payTypes": "\u6749\u5fb7\u5361", "shopTypes": "\u4e13\u5356", "consumeTypes": null, "cookTypes": null, "orderNum": 1000, "card4no": null, "card4noAcc": null, "district2": 401, "searchScope": null, "status": 1, "address": "\u798f\u5efa\u4e2d\u8def384\u53f7", "name": "\u4e09\u67aa \u798f\u5efa\u4e2d\u8def\u5e97", "id": 151230, "pageNo": 0, "pageCount": null, "pageSize": 10, "ids": null, "endTime": null, "startTime": null}, {"cardNumFive": null, "isSupportYj": null, "cityName": null, "districtName": null, "shopinfo": {"mid": "888888856910062", "good_flag": null, "new_flag": null, "short_name": "\u4e09\u67aa", "short_name_pinyin": "sanqiang", "status": null, "address": null, "name": null, "id": "36328"}, "mid": "888888856910062", "shopId": "36328", "netid": null, "province": 901, "district": 601, "zipcode": null, "telephone": "68512001", "posDate": "20100818", "destineTel": null, "togoTel": null, "trafficWay": null, "signBuilding": null, "businessArea": null, "selfRoom": null, "businessTime": null, "stall": null, "consume": null, "serviceFei": null, "favourable": null, "shopMemo": null, "appraise": null, "website": null, "memo": null, "payTypes": "\u6749\u5fb7\u5361", "shopTypes": "\u4e13\u5356", "consumeTypes": null, "cookTypes": null, "orderNum": 1000, "card4no": null, "card4noAcc": null, "district2": 418, "searchScope": null, "status": 1, "address": "\u83cf\u6cfd\u8def356\u53f7", "name": "\u4e09\u67aa \u83cf\u6cfd\u5e97", "id": 151231, "pageNo": 0, "pageCount": null, "pageSize": 10, "ids": null, "endTime": null, "startTime": null}, {"cardNumFive": null, "isSupportYj": null, "cityName": null, "districtName": null, "shopinfo": {"mid": "888888856910062", "good_flag": null, "new_flag": null, "short_name": "\u4e09\u67aa", "short_name_pinyin": "sanqiang", "status": null, "address": null, "name": null, "id": "36328"}, "mid": "888888856910062", "shopId": "36328", "netid": null, "province": 901, "district": 601, "zipcode": null, "telephone": "59122909", "posDate": "20100818", "destineTel": null, "togoTel": null, "trafficWay": null, "signBuilding": null, "businessArea": null, "selfRoom": null, "businessTime": null, "stall": null, "consume": null, "serviceFei": null, "favourable": null, "shopMemo": null, "appraise": null, "website": null, "memo": null, "payTypes": "\u6749\u5fb7\u5361", "shopTypes": "\u4e13\u5356", "consumeTypes": null, "cookTypes": null, "orderNum": 1000, "card4no": null, "card4noAcc": null, "district2": 411, "searchScope": null, "status": 1, "address": "\u5609\u5b9a\u533a\u89e3\u653e\u885726\u53f7", "name": "\u4e09\u67aa \u5357\u7fd4\u5e97", "id": 151232, "pageNo": 0, "pageCount": null, "pageSize": 10, "ids": null, "endTime": null, "startTime": null}, {"cardNumFive": null, "isSupportYj": null, "cityName": null, "districtName": null, "shopinfo": {"mid": "888888856910062", "good_flag": null, "new_flag": null, "short_name": "\u4e09\u67aa", "short_name_pinyin": "sanqiang", "status": null, "address": null, "name": null, "id": "36328"}, "mid": "888888856910062", "shopId": "36328", "netid": null, "province": 901, "district": 601, "zipcode": null, "telephone": "66930886", "posDate": "20100818", "destineTel": null, "togoTel": null, "trafficWay": null, "signBuilding": null, "businessArea": null, "selfRoom": null, "businessTime": null, "stall": null, "consume": null, "serviceFei": null, "favourable": null, "shopMemo": null, "appraise": null, "website": null, "memo": null, "payTypes": "\u6749\u5fb7\u5361", "shopTypes": "\u4e13\u5356", "consumeTypes": null, "cookTypes": null, "orderNum": 1000, "card4no": null, "card4noAcc": null, "district2": 416, "searchScope": null, "status": 1, "address": "\u9f99\u9547\u8def89\u53f7", "name": "\u4e09\u67aa \u6708\u6d66\u5e97", "id": 151233, "pageNo": 0, "pageCount": null, "pageSize": 10, "ids": null, "endTime": null, "startTime": null}, {"cardNumFive": null, "isSupportYj": null, "cityName": null, "districtName": null, "shopinfo": {"mid": "888888856910062", "good_flag": null, "new_flag": null, "short_name": "\u4e09\u67aa", "short_name_pinyin": "sanqiang", "status": null, "address": null, "name": null, "id": "36328"}, "mid": "888888856910062", "shopId": "36328", "netid": null, "province": 901, "district": 601, "zipcode": null, "telephone": "59738165", "posDate": "20100818", "destineTel": null, "togoTel": null, "trafficWay": null, "signBuilding": null, "businessArea": null, "selfRoom": null, "businessTime": null, "stall": null, "consume": null, "serviceFei": null, "favourable": null, "shopMemo": null, "appraise": null, "website": null, "memo": null, "payTypes": "\u6749\u5fb7\u5361", "shopTypes": "\u4e13\u5356", "consumeTypes": null, "cookTypes": null, "orderNum": 1000, "card4no": null, "card4noAcc": null, "district2": 417, "searchScope": null, "status": 1, "address": "\u9752\u677e\u8def82\u53f7", "name": "\u4e09\u67aa \u9752\u6d66\u5e97", "id": 151234, "pageNo": 0, "pageCount": null, "pageSize": 10, "ids": null, "endTime": null, "startTime": null}, {"cardNumFive": null, "isSupportYj": null, "cityName": null, "districtName": null, "shopinfo": {"mid": "888888856910062", "good_flag": null, "new_flag": null, "short_name": "\u4e09\u67aa", "short_name_pinyin": "sanqiang", "status": null, "address": null, "name": null, "id": "36328"}, "mid": "888888856910062", "shopId": "36328", "netid": null, "province": 901, "district": 601, "zipcode": null, "telephone": "58403810", "posDate": "20100818", "destineTel": null, "togoTel": null, "trafficWay": null, "signBuilding": null, "businessArea": null, "selfRoom": null, "businessTime": null, "stall": null, "consume": null, "serviceFei": null, "favourable": null, "shopMemo": null, "appraise": null, "website": null, "memo": null, "payTypes": "\u6749\u5fb7\u5361", "shopTypes": "\u4e13\u5356", "consumeTypes": null, "cookTypes": null, "orderNum": 1000, "card4no": null, "card4noAcc": null, "district2": 418, "searchScope": null, "status": 1, "address": "\u4e73\u5c71\u8def71\u53f7", "name": "\u4e09\u67aa \u4e73\u5c71\u8def\u5e97", "id": 151235, "pageNo": 0, "pageCount": null, "pageSize": 10, "ids": null, "endTime": null, "startTime": null}, {"cardNumFive": null, "isSupportYj": null, "cityName": null, "districtName": null, "shopinfo": {"mid": "888888856910062", "good_flag": null, "new_flag": null, "short_name": "\u4e09\u67aa", "short_name_pinyin": "sanqiang", "status": null, "address": null, "name": null, "id": "36328"}, "mid": "888888856910062", "shopId": "36328", "netid": null, "province": 901, "district": 601, "zipcode": null, "telephone": "54258676", "posDate": "20100818", "destineTel": null, "togoTel": null, "trafficWay": null, "signBuilding": null, "businessArea": null, "selfRoom": null, "businessTime": null, "stall": null, "consume": null, "serviceFei": null, "favourable": null, "shopMemo": null, "appraise": null, "website": null, "memo": null, "payTypes": "\u6749\u5fb7\u5361", "shopTypes": "\u4e13\u5356", "consumeTypes": null, "cookTypes": null, "orderNum": 1000, "card4no": null, "card4noAcc": null, "district2": 403, "searchScope": null, "status": 1, "address": "\u5b9b\u5e73\u5357\u8def61\u53f7", "name": "\u4e09\u67aa \u5b9b\u5e73\u5357\u8def\u5e97", "id": 151236, "pageNo": 0, "pageCount": null, "pageSize": 10, "ids": null, "endTime": null, "startTime": null}, {"cardNumFive": null, "isSupportYj": null, "cityName": null, "districtName": null, "shopinfo": {"mid": "888888856910062", "good_flag": null, "new_flag": null, "short_name": "\u4e09\u67aa", "short_name_pinyin": "sanqiang", "status": null, "address": null, "name": null, "id": "36328"}, "mid": "888888856910062", "shopId": "36328", "netid": null, "province": 901, "district": 601, "zipcode": null, "telephone": "56820233", "posDate": "20100818", "destineTel": null, "togoTel": null, "trafficWay": null, "signBuilding": null, "businessArea": null, "selfRoom": null, "businessTime": null, "stall": null, "consume": null, "serviceFei": null, "favourable": null, "shopMemo": null, "appraise": null, "website": null, "memo": null, "payTypes": "\u6749\u5fb7\u5361", "shopTypes": "\u4e13\u5356", "consumeTypes": null, "cookTypes": null, "orderNum": 1000, "card4no": null, "card4noAcc": null, "district2": 416, "searchScope": null, "status": 1, "address": "\u6bb7\u9ad8\u897f\u8def209\u53f7", "name": "\u4e09\u67aa \u6bb7\u9ad8\u897f\u8def\u5e97", "id": 151238, "pageNo": 0, "pageCount": null, "pageSize": 10, "ids": null, "endTime": null, "startTime": null}, {"cardNumFive": null, "isSupportYj": null, "cityName": null, "districtName": null, "shopinfo": {"mid": "888888856910062", "good_flag": null, "new_flag": null, "short_name": "\u4e09\u67aa", "short_name_pinyin": "sanqiang", "status": null, "address": null, "name": null, "id": "36328"}, "mid": "888888856910062", "shopId": "36328", "netid": null, "province": 901, "district": 601, "zipcode": null, "telephone": "62283395", "posDate": "20100818", "destineTel": null, "togoTel": null, "trafficWay": null, "signBuilding": null, "businessArea": null, "selfRoom": null, "businessTime": null, "stall": null, "consume": null, "serviceFei": null, "favourable": null, "shopMemo": null, "appraise": null, "website": null, "memo": null, "payTypes": "\u6749\u5fb7\u5361", "shopTypes": "\u4e13\u5356", "consumeTypes": null, "cookTypes": null, "orderNum": 1000, "card4no": null, "card4noAcc": null, "district2": 406, "searchScope": null, "status": 1, "address": "\u7389\u5c4f\u5357\u8def152\u53f7", "name": "\u4e09\u67aa \u7389\u5c4f\u5357\u8def\u5e97", "id": 151239, "pageNo": 0, "pageCount": null, "pageSize": 10, "ids": null, "endTime": null, "startTime": null}, {"cardNumFive": null, "isSupportYj": null, "cityName": null, "districtName": null, "shopinfo": {"mid": "888888856910062", "good_flag": null, "new_flag": null, "short_name": "\u4e09\u67aa", "short_name_pinyin": "sanqiang", "status": null, "address": null, "name": null, "id": "36328"}, "mid": "888888856910062", "shopId": "36328", "netid": null, "province": 901, "district": 601, "zipcode": null, "telephone": "62410397", "posDate": "20100818", "destineTel": null, "togoTel": null, "trafficWay": null, "signBuilding": null, "businessArea": null, "selfRoom": null, "businessTime": null, "stall": null, "consume": null, "serviceFei": null, "favourable": null, "shopMemo": null, "appraise": null, "website": null, "memo": null, "payTypes": "\u6749\u5fb7\u5361", "shopTypes": "\u4e13\u5356", "consumeTypes": null, "cookTypes": null, "orderNum": 1000, "card4no": null, "card4noAcc": null, "district2": 406, "searchScope": null, "status": 1, "address": "\u9075\u4e49\u8def134-136\u53f7", "name": "\u4e09\u67aa \u9075\u4e49\u8def\u5e97", "id": 151240, "pageNo": 0, "pageCount": null, "pageSize": 10, "ids": null, "endTime": null, "startTime": null}], "pageLimit": 8250, "size": 10}