{"pageCount": 1095, "count": 10942, "pageNo": 824, "subShopInfo": {"cardNumFive": "", "isSupportYj": "", "cityName": null, "districtName": null, "shopinfo": {"mid": null, "good_flag": null, "new_flag": null, "short_name": null, "short_name_pinyin": null, "status": null, "address": "", "name": "", "id": null}, "mid": null, "shopId": null, "netid": null, "province": 901, "district": null, "zipcode": null, "telephone": null, "posDate": null, "destineTel": null, "togoTel": null, "trafficWay": null, "signBuilding": null, "businessArea": null, "selfRoom": null, "businessTime": null, "stall": null, "consume": null, "serviceFei": null, "favourable": null, "shopMemo": "1", "appraise": null, "website": null, "memo": null, "payTypes": "", "shopTypes": "", "consumeTypes": null, "cookTypes": null, "orderNum": null, "card4no": null, "card4noAcc": null, "district2": null, "searchScope": null, "status": null, "address": "", "name": null, "id": null, "pageNo": 823, "pageCount": null, "pageSize": 10, "ids": null, "endTime": null, "startTime": null}, "list": [{"cardNumFive": null, "isSupportYj": null, "cityName": null, "districtName": null, "shopinfo": {"mid": "888888856910062", "good_flag": null, "new_flag": null, "short_name": "\u4e09\u67aa", "short_name_pinyin": "sanqiang", "status": null, "address": null, "name": null, "id": "32880"}, "mid": "888888856910062", "shopId": "32880", "netid": null, "province": 901, "district": 601, "zipcode": null, "telephone": "62572349", "posDate": "20070921", "destineTel": null, "togoTel": null, "trafficWay": "\u516c\u4ea4754 807", "signBuilding": null, "businessArea": null, "selfRoom": null, "businessTime": "10:00~22:00", "stall": null, "consume": null, "serviceFei": null, "favourable": null, "shopMemo": null, "appraise": null, "website": null, "memo": null, "payTypes": "\u6749\u5fb7\u5361", "shopTypes": "\u4e13\u5356", "consumeTypes": null, "cookTypes": null, "orderNum": 1000, "card4no": null, "card4noAcc": null, "district2": 405, "searchScope": null, "status": 1, "address": "\u5170\u6eaa\u8def207\u53f7", "name": "\u4e09\u67aa \u771f\u5982\u4e13\u5356", "id": 141108, "pageNo": 0, "pageCount": null, "pageSize": 10, "ids": null, "endTime": null, "startTime": null}, {"cardNumFive": null, "isSupportYj": null, "cityName": null, "districtName": null, "shopinfo": {"mid": "888888856910062", "good_flag": null, "new_flag": null, "short_name": "\u4e09\u67aa", "short_name_pinyin": "sanqiang", "status": null, "address": null, "name": null, "id": "32880"}, "mid": "888888856910062", "shopId": "32880", "netid": null, "province": 901, "district": 601, "zipcode": null, "telephone": "63132103", "posDate": "20080604", "destineTel": null, "togoTel": null, "trafficWay": "\u516c\u4ea418 109 \u5730\u94c1\u516b\u53f7\u7ebf", "signBuilding": null, "businessArea": null, "selfRoom": null, "businessTime": "10:00~22:00", "stall": null, "consume": null, "serviceFei": null, "favourable": null, "shopMemo": null, "appraise": null, "website": null, "memo": null, "payTypes": "\u6749\u5fb7\u5361", "shopTypes": "\u4e13\u5356", "consumeTypes": null, "cookTypes": null, "orderNum": 1000, "card4no": null, "card4noAcc": null, "district2": 401, "searchScope": null, "status": 1, "address": "\u5236\u9020\u5c40\u8def584\u53f7", "name": "\u4e09\u67aa \u5236\u9020\u5c40\u8def\u5e97", "id": 141109, "pageNo": 0, "pageCount": null, "pageSize": 10, "ids": null, "endTime": null, "startTime": null}, {"cardNumFive": null, "isSupportYj": null, "cityName": null, "districtName": null, "shopinfo": {"mid": "888888856910062", "good_flag": null, "new_flag": null, "short_name": "\u4e09\u67aa", "short_name_pinyin": "sanqiang", "status": null, "address": null, "name": null, "id": "32880"}, "mid": "888888856910062", "shopId": "32880", "netid": null, "province": 901, "district": 601, "zipcode": null, "telephone": null, "posDate": "20071129", "destineTel": null, "togoTel": null, "trafficWay": "\u5f90\u95f5\u7ebf \u4e1c\u576a\u7ebf \u5730\u94c1\u4e94\u53f7\u7ebf", "signBuilding": null, "businessArea": null, "selfRoom": null, "businessTime": null, "stall": null, "consume": null, "serviceFei": null, "favourable": null, "shopMemo": null, "appraise": null, "website": null, "memo": null, "payTypes": "\u6749\u5fb7\u5361", "shopTypes": "\u4e13\u5356", "consumeTypes": null, "cookTypes": null, "orderNum": 1000, "card4no": null, "card4noAcc": null, "district2": 409, "searchScope": null, "status": 1, "address": "\u989b\u5174\u8def101\u53f7", "name": "\u4e09\u67aa \u989b\u5174\u8def\u5e97", "id": 141110, "pageNo": 0, "pageCount": null, "pageSize": 10, "ids": null, "endTime": null, "startTime": null}, {"cardNumFive": null, "isSupportYj": null, "cityName": null, "districtName": null, "shopinfo": {"mid": "888888856910062", "good_flag": null, "new_flag": null, "short_name": "\u4e09\u67aa", "short_name_pinyin": "sanqiang", "status": null, "address": null, "name": null, "id": "36215"}, "mid": "888888856910062", "shopId": "36215", "netid": null, "province": 901, "district": 601, "zipcode": null, "telephone": "56742655", "posDate": "20100817", "destineTel": null, "togoTel": null, "trafficWay": null, "signBuilding": null, "businessArea": null, "selfRoom": null, "businessTime": null, "stall": null, "consume": null, "serviceFei": null, "favourable": null, "shopMemo": null, "appraise": null, "website": null, "memo": null, "payTypes": "\u6749\u5fb7\u5361", "shopTypes": "\u4e13\u5356", "consumeTypes": null, "cookTypes": null, "orderNum": 1000, "card4no": null, "card4noAcc": null, "district2": 416, "searchScope": null, "status": 1, "address": "\u5171\u6c5f\u8def1026\u53f7", "name": "\u4e09\u67aa \u5171\u6c5f\u5e97", "id": 150929, "pageNo": 0, "pageCount": null, "pageSize": 10, "ids": null, "endTime": null, "startTime": null}, {"cardNumFive": null, "isSupportYj": null, "cityName": null, "districtName": null, "shopinfo": {"mid": "888888856910062", "good_flag": null, "new_flag": null, "short_name": "\u4e09\u67aa", "short_name_pinyin": "sanqiang", "status": null, "address": null, "name": null, "id": "36215"}, "mid": "888888856910062", "shopId": "36215", "netid": null, "province": 901, "district": 601, "zipcode": null, "telephone": "56415491", "posDate": "20100817", "destineTel": null, "togoTel": null, "trafficWay": null, "signBuilding": null, "businessArea": null, "selfRoom": null, "businessTime": null, "stall": null, "consume": null, "serviceFei": null, "favourable": null, "shopMemo": null, "appraise": null, "website": null, "memo": null, "payTypes": "\u6749\u5fb7\u5361", "shopTypes": "\u4e13\u5356", "consumeTypes": null, "cookTypes": null, "orderNum": 1000, "card4no": null, "card4noAcc": null, "district2": 410, "searchScope": null, "status": 1, "address": "\u5171\u5eb7\u8def386\u53f7", "name": "\u4e09\u67aa \u5171\u5eb7\u8def\u5e97", "id": 150930, "pageNo": 0, "pageCount": null, "pageSize": 10, "ids": null, "endTime": null, "startTime": null}, {"cardNumFive": null, "isSupportYj": null, "cityName": null, "districtName": null, "shopinfo": {"mid": "888888856910062", "good_flag": null, "new_flag": null, "short_name": "\u4e09\u67aa", "short_name_pinyin": "sanqiang", "status": null, "address": null, "name": null, "id": "36215"}, "mid": "888888856910062", "shopId": "36215", "netid": null, "province": 901, "district": 601, "zipcode": null, "telephone": "56966154", "posDate": "20100817", "destineTel": null, "togoTel": null, "trafficWay": null, "signBuilding": null, "businessArea": null, "selfRoom": null, "businessTime": null, "stall": null, "consume": null, "serviceFei": null, "favourable": null, "shopMemo": null, "appraise": null, "website": null, "memo": null, "payTypes": "\u6749\u5fb7\u5361", "shopTypes": "\u4e13\u5356", "consumeTypes": null, "cookTypes": null, "orderNum": 1000, "card4no": null, "card4noAcc": null, "district2": 408, "searchScope": null, "status": 1, "address": "\u6b27\u9633\u8def448\u53f7", "name": "\u4e09\u67aa \u6b27\u9633\u8def\u5e97", "id": 150932, "pageNo": 0, "pageCount": null, "pageSize": 10, "ids": null, "endTime": null, "startTime": null}, {"cardNumFive": null, "isSupportYj": null, "cityName": null, "districtName": null, "shopinfo": {"mid": "888888856910062", "good_flag": null, "new_flag": null, "short_name": "\u4e09\u67aa", "short_name_pinyin": "sanqiang", "status": null, "address": null, "name": null, "id": "36215"}, "mid": "888888856910062", "shopId": "36215", "netid": null, "province": 901, "district": 601, "zipcode": null, "telephone": "65452582", "posDate": "20100817", "destineTel": null, "togoTel": null, "trafficWay": null, "signBuilding": null, "businessArea": null, "selfRoom": null, "businessTime": null, "stall": null, "consume": null, "serviceFei": null, "favourable": null, "shopMemo": null, "appraise": null, "website": null, "memo": null, "payTypes": "\u6749\u5fb7\u5361", "shopTypes": "\u4e13\u5356", "consumeTypes": null, "cookTypes": null, "orderNum": 1000, "card4no": null, "card4noAcc": null, "district2": 407, "searchScope": null, "status": 1, "address": "\u5e73\u51c9\u8def430\u53f7", "name": "\u4e09\u67aa \u5e73\u51c9\u5e97", "id": 150933, "pageNo": 0, "pageCount": null, "pageSize": 10, "ids": null, "endTime": null, "startTime": null}, {"cardNumFive": null, "isSupportYj": null, "cityName": null, "districtName": null, "shopinfo": {"mid": "888888856910062", "good_flag": null, "new_flag": null, "short_name": "\u4e09\u67aa", "short_name_pinyin": "sanqiang", "status": null, "address": null, "name": null, "id": "36215"}, "mid": "888888856910062", "shopId": "36215", "netid": null, "province": 901, "district": 601, "zipcode": null, "telephone": "65337956", "posDate": "20100817", "destineTel": null, "togoTel": null, "trafficWay": null, "signBuilding": null, "businessArea": null, "selfRoom": null, "businessTime": null, "stall": null, "consume": null, "serviceFei": null, "favourable": null, "shopMemo": null, "appraise": null, "website": null, "memo": null, "payTypes": "\u6749\u5fb7\u5361", "shopTypes": "\u4e13\u5356", "consumeTypes": null, "cookTypes": null, "orderNum": 1000, "card4no": null, "card4noAcc": null, "district2": 407, "searchScope": null, "status": 1, "address": "\u6768\u6d66\u533a\u9756\u5b87\u4e1c\u8def230\u53f7", "name": "\u4e09\u67aa \u5ef6\u5409\u5e97", "id": 150934, "pageNo": 0, "pageCount": null, "pageSize": 10, "ids": null, "endTime": null, "startTime": null}, {"cardNumFive": null, "isSupportYj": null, "cityName": null, "districtName": null, "shopinfo": {"mid": "888888856910062", "good_flag": null, "new_flag": null, "short_name": "\u4e09\u67aa", "short_name_pinyin": "sanqiang", "status": null, "address": null, "name": null, "id": "36215"}, "mid": "888888856910062", "shopId": "36215", "netid": null, "province": 901, "district": 601, "zipcode": null, "telephone": "58113185", "posDate": "20100817", "destineTel": null, "togoTel": null, "trafficWay": null, "signBuilding": null, "businessArea": null, "selfRoom": null, "businessTime": null, "stall": null, "consume": null, "serviceFei": null, "favourable": null, "shopMemo": null, "appraise": null, "website": null, "memo": null, "payTypes": "\u6749\u5fb7\u5361", "shopTypes": "\u4e13\u5356", "consumeTypes": null, "cookTypes": null, "orderNum": 1000, "card4no": null, "card4noAcc": null, "district2": 418, "searchScope": null, "status": 1, "address": "\u5eb7\u6c88\u8def1533\u53f7", "name": "\u4e09\u67aa \u5468\u6d66\u5e97", "id": 150935, "pageNo": 0, "pageCount": null, "pageSize": 10, "ids": null, "endTime": null, "startTime": null}, {"cardNumFive": null, "isSupportYj": null, "cityName": null, "districtName": null, "shopinfo": {"mid": "888888856910062", "good_flag": null, "new_flag": null, "short_name": "\u4e09\u67aa", "short_name_pinyin": "sanqiang", "status": null, "address": null, "name": null, "id": "36215"}, "mid": "888888856910062", "shopId": "36215", "netid": null, "province": 901, "district": 601, "zipcode": null, "telephone": "? 63168571", "posDate": "20100817", "destineTel": null, "togoTel": null, "trafficWay": null, "signBuilding": null, "businessArea": null, "selfRoom": null, "businessTime": null, "stall": null, "consume": null, "serviceFei": null, "favourable": null, "shopMemo": null, "appraise": null, "website": null, "memo": null, "payTypes": "\u6749\u5fb7\u5361", "shopTypes": "\u4e13\u5356", "consumeTypes": null, "cookTypes": null, "orderNum": 1000, "card4no": null, "card4noAcc": null, "district2": 418, "searchScope": null, "status": 1, "address": "\u5fb7\u5dde\u8def391\u53f7", "name": "\u4e09\u67aa \u5fb7\u5dde\u8def\u5e97", "id": 150950, "pageNo": 0, "pageCount": null, "pageSize": 10, "ids": null, "endTime": null, "startTime": null}], "pageLimit": 8230, "size": 10}