{"pageCount": 1095, "count": 10942, "pageNo": 827, "subShopInfo": {"cardNumFive": "", "isSupportYj": "", "cityName": null, "districtName": null, "shopinfo": {"mid": null, "good_flag": null, "new_flag": null, "short_name": null, "short_name_pinyin": null, "status": null, "address": "", "name": "", "id": null}, "mid": null, "shopId": null, "netid": null, "province": 901, "district": null, "zipcode": null, "telephone": null, "posDate": null, "destineTel": null, "togoTel": null, "trafficWay": null, "signBuilding": null, "businessArea": null, "selfRoom": null, "businessTime": null, "stall": null, "consume": null, "serviceFei": null, "favourable": null, "shopMemo": "1", "appraise": null, "website": null, "memo": null, "payTypes": "", "shopTypes": "", "consumeTypes": null, "cookTypes": null, "orderNum": null, "card4no": null, "card4noAcc": null, "district2": null, "searchScope": null, "status": null, "address": "", "name": null, "id": null, "pageNo": 826, "pageCount": null, "pageSize": 10, "ids": null, "endTime": null, "startTime": null}, "list": [{"cardNumFive": null, "isSupportYj": null, "cityName": null, "districtName": null, "shopinfo": {"mid": "888888856910062", "good_flag": null, "new_flag": null, "short_name": "\u4e09\u67aa", "short_name_pinyin": "sanqiang", "status": null, "address": null, "name": null, "id": "36328"}, "mid": "888888856910062", "shopId": "36328", "netid": null, "province": 901, "district": 601, "zipcode": null, "telephone": "56625301", "posDate": "20100818", "destineTel": null, "togoTel": null, "trafficWay": null, "signBuilding": null, "businessArea": null, "selfRoom": null, "businessTime": null, "stall": null, "consume": null, "serviceFei": null, "favourable": null, "shopMemo": null, "appraise": null, "website": null, "memo": null, "payTypes": "\u6749\u5fb7\u5361", "shopTypes": "\u4e13\u5356", "consumeTypes": null, "cookTypes": null, "orderNum": 1000, "card4no": null, "card4noAcc": null, "district2": 410, "searchScope": null, "status": 1, "address": "\u82b7\u6c5f\u4e2d\u8def371\u53f7", "name": "\u4e09\u67aa \u82b7\u6c5f\u5e97", "id": 151241, "pageNo": 0, "pageCount": null, "pageSize": 10, "ids": null, "endTime": null, "startTime": null}, {"cardNumFive": null, "isSupportYj": null, "cityName": null, "districtName": null, "shopinfo": {"mid": "888888858120146", "good_flag": "2", "new_flag": "1", "short_name": "\u4e09\u4eba\u884c", "short_name_pinyin": "sanrenxing", "status": null, "address": null, "name": null, "id": "32882"}, "mid": "888888858120146", "shopId": "32882", "netid": null, "province": 901, "district": 601, "zipcode": null, "telephone": "62668575", "posDate": "20070914", "destineTel": null, "togoTel": null, "trafficWay": "\u516c\u4ea4830 824 76 24", "signBuilding": null, "businessArea": null, "selfRoom": null, "businessTime": null, "stall": null, "consume": null, "serviceFei": null, "favourable": null, "shopMemo": null, "appraise": null, "website": null, "memo": null, "payTypes": "\u6749\u5fb7\u5361", "shopTypes": "\u9910\u996e", "consumeTypes": null, "cookTypes": null, "orderNum": 1000, "card4no": null, "card4noAcc": null, "district2": 404, "searchScope": null, "status": 1, "address": "\u957f\u5bff\u8def505\u5f046\u53f7\u9760\u8fd1\u80f6\u5dde\u8def", "name": "\u4e09\u4eba\u884c \u957f\u5bff\u5e97", "id": 141111, "pageNo": 0, "pageCount": null, "pageSize": 10, "ids": null, "endTime": null, "startTime": null}, {"cardNumFive": null, "isSupportYj": null, "cityName": null, "districtName": null, "shopinfo": {"mid": "888888858120146", "good_flag": "2", "new_flag": "1", "short_name": "\u4e09\u4eba\u884c", "short_name_pinyin": "sanrenxing", "status": null, "address": null, "name": null, "id": "32882"}, "mid": "888888858120146", "shopId": "32882", "netid": null, "province": 901, "district": 601, "zipcode": null, "telephone": null, "posDate": "20100118", "destineTel": null, "togoTel": null, "trafficWay": null, "signBuilding": null, "businessArea": null, "selfRoom": null, "businessTime": null, "stall": null, "consume": null, "serviceFei": null, "favourable": null, "shopMemo": null, "appraise": null, "website": null, "memo": null, "payTypes": "\u6749\u5fb7\u5361", "shopTypes": "\u9910\u996e", "consumeTypes": null, "cookTypes": null, "orderNum": 1000, "card4no": null, "card4noAcc": null, "district2": 401, "searchScope": null, "status": 1, "address": "\u5357\u4eac\u4e1c\u8def\u767e\u8054\u4e16\u8d38\u4e03\u697c", "name": "\u4e09\u4eba\u884c \u9aa8\u5934\u738b\u767e\u8054\u4e16\u8d38\u5e97", "id": 141112, "pageNo": 0, "pageCount": null, "pageSize": 10, "ids": null, "endTime": null, "startTime": null}, {"cardNumFive": null, "isSupportYj": null, "cityName": null, "districtName": null, "shopinfo": {"mid": "888888858120146", "good_flag": "2", "new_flag": "1", "short_name": "\u4e09\u4eba\u884c", "short_name_pinyin": "sanrenxing", "status": null, "address": null, "name": null, "id": "32882"}, "mid": "888888858120146", "shopId": "32882", "netid": null, "province": 901, "district": 601, "zipcode": null, "telephone": "62257590", "posDate": "20070914", "destineTel": null, "togoTel": null, "trafficWay": "\u516c\u4ea4923 202 44", "signBuilding": null, "businessArea": null, "selfRoom": null, "businessTime": null, "stall": null, "consume": null, "serviceFei": null, "favourable": null, "shopMemo": null, "appraise": null, "website": null, "memo": null, "payTypes": "\u6749\u5fb7\u5361", "shopTypes": "\u9910\u996e", "consumeTypes": null, "cookTypes": null, "orderNum": 1000, "card4no": null, "card4noAcc": null, "district2": 406, "searchScope": null, "status": 1, "address": "\u4e1c\u8bf8\u5b89\u6d5c\u8def141\u53f7", "name": "\u4e09\u4eba\u884c \u9aa8\u5934\u738b\u957f\u5b81\u5e97", "id": 141113, "pageNo": 0, "pageCount": null, "pageSize": 10, "ids": null, "endTime": null, "startTime": null}, {"cardNumFive": null, "isSupportYj": null, "cityName": null, "districtName": null, "shopinfo": {"mid": "888888858120146", "good_flag": "2", "new_flag": "1", "short_name": "\u4e09\u4eba\u884c", "short_name_pinyin": "sanrenxing", "status": null, "address": null, "name": null, "id": "32882"}, "mid": "888888858120146", "shopId": "32882", "netid": null, "province": 901, "district": 601, "zipcode": null, "telephone": null, "posDate": "20100118", "destineTel": null, "togoTel": null, "trafficWay": null, "signBuilding": null, "businessArea": null, "selfRoom": null, "businessTime": null, "stall": null, "consume": null, "serviceFei": null, "favourable": null, "shopMemo": null, "appraise": null, "website": null, "memo": null, "payTypes": "\u6749\u5fb7\u5361", "shopTypes": "\u9910\u996e", "consumeTypes": null, "cookTypes": null, "orderNum": 1000, "card4no": null, "card4noAcc": null, "district2": 403, "searchScope": null, "status": 1, "address": "\u67f3\u5dde\u8def\u7530\u6797\u5341\u4e09\u67515\u53f7", "name": "\u4e09\u4eba\u884c \u9aa8\u5934\u738b\u7530\u6797\u5e97", "id": 141117, "pageNo": 0, "pageCount": null, "pageSize": 10, "ids": null, "endTime": null, "startTime": null}, {"cardNumFive": null, "isSupportYj": null, "cityName": null, "districtName": null, "shopinfo": {"mid": "888888858120146", "good_flag": "2", "new_flag": "1", "short_name": "\u4e09\u4eba\u884c", "short_name_pinyin": "sanrenxing", "status": null, "address": null, "name": null, "id": "32882"}, "mid": "888888858120146", "shopId": "32882", "netid": null, "province": 901, "district": 601, "zipcode": null, "telephone": "64682289", "posDate": "20070727", "destineTel": null, "togoTel": null, "trafficWay": "\u516c\u4ea443 50 \u5f90\u95f5\u7ebf", "signBuilding": null, "businessArea": null, "selfRoom": null, "businessTime": null, "stall": null, "consume": null, "serviceFei": null, "favourable": null, "shopMemo": null, "appraise": null, "website": null, "memo": null, "payTypes": "\u6749\u5fb7\u5361", "shopTypes": "\u9910\u996e", "consumeTypes": "\u5bb6\u4eba\u56e2\u805a \u597d\u53cb\u5c0f\u805a \u4f11\u95f2\u5c31\u9910", "cookTypes": "\u706b\u9505", "orderNum": 1000, "card4no": null, "card4noAcc": null, "district2": 403, "searchScope": null, "status": 1, "address": "\u8087\u5609\u6d5c\u8def879\u53f7", "name": "\u4e09\u4eba\u884c \u706b\u9505\u5f90\u6c47\u5e97", "id": 141119, "pageNo": 0, "pageCount": null, "pageSize": 10, "ids": null, "endTime": null, "startTime": null}, {"cardNumFive": null, "isSupportYj": null, "cityName": null, "districtName": null, "shopinfo": {"mid": "888888858120146", "good_flag": "2", "new_flag": "1", "short_name": "\u4e09\u4eba\u884c", "short_name_pinyin": "sanrenxing", "status": null, "address": null, "name": null, "id": "32882"}, "mid": "888888858120146", "shopId": "32882", "netid": null, "province": 901, "district": 601, "zipcode": null, "telephone": "59534077", "posDate": "20081128", "destineTel": null, "togoTel": null, "trafficWay": "\u516c\u4ea4\u6caa\u5510\u4e13\u7ebf \u65c5\u6e386A\u7ebf", "signBuilding": null, "businessArea": null, "selfRoom": null, "businessTime": null, "stall": null, "consume": null, "serviceFei": null, "favourable": null, "shopMemo": null, "appraise": null, "website": null, "memo": null, "payTypes": "\u6749\u5fb7\u5361", "shopTypes": "\u9910\u996e", "consumeTypes": null, "cookTypes": null, "orderNum": 1000, "card4no": null, "card4noAcc": null, "district2": 411, "searchScope": null, "status": 1, "address": "\u6e29\u5bbf\u8def78\u53f7", "name": "\u4e09\u4eba\u884c \u65b0\u6982\u5ff5\u5ddd\u83dc\u5609\u5b9a\u5e97", "id": 141120, "pageNo": 0, "pageCount": null, "pageSize": 10, "ids": null, "endTime": null, "startTime": null}, {"cardNumFive": null, "isSupportYj": null, "cityName": null, "districtName": null, "shopinfo": {"mid": "888888858120042", "good_flag": "2", "new_flag": "2", "short_name": "\u4e09\u6cf0\u6cd5\u5f0f\u94c1\u677f\u70e7\uff08Green House\uff09", "short_name_pinyin": "santaifashitiebanshao\uff08greenhouse\uff09", "status": null, "address": null, "name": null, "id": "32884"}, "mid": "888888858120042", "shopId": "32884", "netid": null, "province": 901, "district": 601, "zipcode": "200336", "telephone": "62708889", "posDate": "20061222", "destineTel": "62708889", "togoTel": "62708889", "trafficWay": "\u516c\u4ea473 938 814", "signBuilding": null, "businessArea": null, "selfRoom": "\u6709", "businessTime": "10:00~22:00", "stall": "\u65e0", "consume": "743\u5143", "serviceFei": null, "favourable": null, "shopMemo": "\u677e\u5742\u725b\u8089 \u725b\u5c0f\u6392 \u7eff\u8336 \u9e45\u809d", "appraise": null, "website": null, "memo": null, "payTypes": "\u6749\u5fb7\u5361", "shopTypes": "\u9910\u996e", "consumeTypes": "\u5bb6\u4eba\u56e2\u805a \u597d\u53cb\u5c0f\u805a \u4f11\u95f2\u5c31\u9910 \u6d6a\u6f2b\u7ea6\u4f1a", "cookTypes": "\u6cd5\u5f0f\u897f\u9910,\u70e7\u70e4", "orderNum": 1000, "card4no": null, "card4noAcc": null, "district2": 406, "searchScope": null, "status": 1, "address": "\u4f0a\u7281\u8def135\u53f7", "name": "\u4e09\u6cf0\u6cd5\u5f0f\u94c1\u677f\u70e7\uff08Green House\uff09 \u4f0a\u7281\u8def\u5e97", "id": 141123, "pageNo": 0, "pageCount": null, "pageSize": 10, "ids": null, "endTime": null, "startTime": null}, {"cardNumFive": null, "isSupportYj": null, "cityName": null, "districtName": null, "shopinfo": {"mid": "888002153991204", "good_flag": "1", "new_flag": "1", "short_name": "\u4e09\u9633\u5357\u8d27\u5e97", "short_name_pinyin": "sanyangnanhuodian", "status": null, "address": null, "name": null, "id": "32886"}, "mid": "888002153991204", "shopId": "32886", "netid": null, "province": 901, "district": 601, "zipcode": null, "telephone": null, "posDate": "20091207", "destineTel": null, "togoTel": null, "trafficWay": null, "signBuilding": null, "businessArea": null, "selfRoom": null, "businessTime": null, "stall": null, "consume": null, "serviceFei": null, "favourable": null, "shopMemo": null, "appraise": null, "website": null, "memo": null, "payTypes": "\u6749\u5fb7\u5361", "shopTypes": "\u767e\u8d27", "consumeTypes": null, "cookTypes": null, "orderNum": 1000, "card4no": null, "card4noAcc": null, "district2": 401, "searchScope": null, "status": 1, "address": "\u5357\u4eac\u4e1c\u8def630\u53f7", "name": "\u4e09\u9633\u5357\u8d27\u5e97 \u5357\u4eac\u4e1c\u8def", "id": 141128, "pageNo": 0, "pageCount": null, "pageSize": 10, "ids": null, "endTime": null, "startTime": null}, {"cardNumFive": null, "isSupportYj": null, "cityName": null, "districtName": null, "shopinfo": {"mid": "888002154411169", "good_flag": "2", "new_flag": "1", "short_name": "\u4e09\u9633\u76db\u98df\u54c1", "short_name_pinyin": "sanyangsheng", "status": null, "address": null, "name": null, "id": "32888"}, "mid": "888002154411169", "shopId": "32888", "netid": null, "province": 901, "district": 601, "zipcode": null, "telephone": "32210168", "posDate": "20100610", "destineTel": null, "togoTel": null, "trafficWay": null, "signBuilding": null, "businessArea": null, "selfRoom": null, "businessTime": null, "stall": null, "consume": null, "serviceFei": null, "favourable": null, "shopMemo": null, "appraise": null, "website": null, "memo": null, "payTypes": "\u6749\u5fb7\u5361", "shopTypes": "\u767e\u8d27", "consumeTypes": null, "cookTypes": null, "orderNum": 1000, "card4no": null, "card4noAcc": null, "district2": 404, "searchScope": null, "status": 1, "address": "\u4e07\u822a\u6e21\u8def687\u53f7", "name": "\u4e09\u9633\u76db\u98df\u54c1 \u4e07\u677e\u5546\u884c\u4e07\u822a\u6e21\u8def\u5e97", "id": 141131, "pageNo": 0, "pageCount": null, "pageSize": 10, "ids": null, "endTime": null, "startTime": null}], "pageLimit": 8260, "size": 10}