{"pageCount": 1095, "count": 10942, "pageNo": 829, "subShopInfo": {"cardNumFive": "", "isSupportYj": "", "cityName": null, "districtName": null, "shopinfo": {"mid": null, "good_flag": null, "new_flag": null, "short_name": null, "short_name_pinyin": null, "status": null, "address": "", "name": "", "id": null}, "mid": null, "shopId": null, "netid": null, "province": 901, "district": null, "zipcode": null, "telephone": null, "posDate": null, "destineTel": null, "togoTel": null, "trafficWay": null, "signBuilding": null, "businessArea": null, "selfRoom": null, "businessTime": null, "stall": null, "consume": null, "serviceFei": null, "favourable": null, "shopMemo": "1", "appraise": null, "website": null, "memo": null, "payTypes": "", "shopTypes": "", "consumeTypes": null, "cookTypes": null, "orderNum": null, "card4no": null, "card4noAcc": null, "district2": null, "searchScope": null, "status": null, "address": "", "name": null, "id": null, "pageNo": 828, "pageCount": null, "pageSize": 10, "ids": null, "endTime": null, "startTime": null}, "list": [{"cardNumFive": null, "isSupportYj": null, "cityName": null, "districtName": null, "shopinfo": {"mid": "888888854410129", "good_flag": "2", "new_flag": "1", "short_name": "\u68ee\u8702\u56ed", "short_name_pinyin": "senfengyuan", "status": null, "address": null, "name": null, "id": "32889"}, "mid": "888888854410129", "shopId": "32889", "netid": null, "province": 901, "district": 601, "zipcode": null, "telephone": null, "posDate": "20081128", "destineTel": null, "togoTel": null, "trafficWay": "\u516c\u4ea4952 \u5730\u94c1\u516b\u53f7\u7ebf", "signBuilding": null, "businessArea": null, "selfRoom": null, "businessTime": "08:30~20:30", "stall": null, "consume": null, "serviceFei": null, "favourable": null, "shopMemo": null, "appraise": null, "website": null, "memo": null, "payTypes": "\u6749\u5fb7\u5361", "shopTypes": "\u4e13\u5356", "consumeTypes": null, "cookTypes": null, "orderNum": 1000, "card4no": null, "card4noAcc": null, "district2": 408, "searchScope": null, "status": 1, "address": "\u4e1c\u5b9d\u5174\u8def777\u53f7\u4e09\u697c\u7535\u68af\u8fb9\u4e0a", "name": "\u68ee\u8702\u56ed \u4e1c\u5b9d\u8054\u534e\u5e97", "id": 141143, "pageNo": 0, "pageCount": null, "pageSize": 10, "ids": null, "endTime": null, "startTime": null}, {"cardNumFive": null, "isSupportYj": null, "cityName": null, "districtName": null, "shopinfo": {"mid": "888888854410129", "good_flag": "2", "new_flag": "1", "short_name": "\u68ee\u8702\u56ed", "short_name_pinyin": "senfengyuan", "status": null, "address": null, "name": null, "id": "32889"}, "mid": "888888854410129", "shopId": "32889", "netid": null, "province": 901, "district": 601, "zipcode": null, "telephone": null, "posDate": "20081126", "destineTel": null, "togoTel": null, "trafficWay": "\u516c\u4ea4\u9752\u9ec4\u4e13\u7ebf \u6caa\u9752\u4e13\u7ebf", "signBuilding": null, "businessArea": null, "selfRoom": null, "businessTime": "08:30~20:30", "stall": null, "consume": null, "serviceFei": null, "favourable": null, "shopMemo": null, "appraise": null, "website": null, "memo": null, "payTypes": "\u6749\u5fb7\u5361", "shopTypes": "\u4e13\u5356", "consumeTypes": null, "cookTypes": null, "orderNum": 1000, "card4no": null, "card4noAcc": null, "district2": 417, "searchScope": null, "status": 1, "address": "\u9752\u6d66\u516c\u56ed\u8def666\u5f0429\u53f7\u9760\u8fd1\u76c8\u6e2f\u8def\u5730\u4e0b1\u697c\u51fa\u53e3", "name": "\u68ee\u8702\u56ed \u4e1c\u65b9\u8054\u534e\u5e97", "id": 141144, "pageNo": 0, "pageCount": null, "pageSize": 10, "ids": null, "endTime": null, "startTime": null}, {"cardNumFive": null, "isSupportYj": null, "cityName": null, "districtName": null, "shopinfo": {"mid": "888888854410129", "good_flag": "2", "new_flag": "1", "short_name": "\u68ee\u8702\u56ed", "short_name_pinyin": "senfengyuan", "status": null, "address": null, "name": null, "id": "32889"}, "mid": "888888854410129", "shopId": "32889", "netid": null, "province": 901, "district": 601, "zipcode": null, "telephone": null, "posDate": "200911", "destineTel": null, "togoTel": null, "trafficWay": null, "signBuilding": null, "businessArea": null, "selfRoom": null, "businessTime": "08:30~20:30", "stall": null, "consume": null, "serviceFei": null, "favourable": null, "shopMemo": null, "appraise": null, "website": null, "memo": null, "payTypes": "\u6749\u5fb7\u5361", "shopTypes": "\u4e13\u5356", "consumeTypes": null, "cookTypes": null, "orderNum": 1000, "card4no": null, "card4noAcc": null, "district2": 409, "searchScope": null, "status": 1, "address": "\u7e41\u5174\u8def399\u5f042\u53f7\u5927\u6da6\u53d1\u8d85\u5e02\u5730\u4e0b\u5ba440\u53f7", "name": "\u68ee\u8702\u56ed \u7e41\u5174\u8def\u5e97", "id": 141145, "pageNo": 0, "pageCount": null, "pageSize": 10, "ids": null, "endTime": null, "startTime": null}, {"cardNumFive": null, "isSupportYj": null, "cityName": null, "districtName": null, "shopinfo": {"mid": "888888854410129", "good_flag": "2", "new_flag": "1", "short_name": "\u68ee\u8702\u56ed", "short_name_pinyin": "senfengyuan", "status": null, "address": null, "name": null, "id": "32889"}, "mid": "888888854410129", "shopId": "32889", "netid": null, "province": 901, "district": 601, "zipcode": null, "telephone": null, "posDate": "20081126", "destineTel": null, "togoTel": null, "trafficWay": "\u516c\u4ea4112 69", "signBuilding": null, "businessArea": null, "selfRoom": null, "businessTime": "08:30~20:30", "stall": null, "consume": null, "serviceFei": null, "favourable": null, "shopMemo": null, "appraise": null, "website": null, "memo": null, "payTypes": "\u6749\u5fb7\u5361", "shopTypes": "\u4e13\u5356", "consumeTypes": null, "cookTypes": null, "orderNum": 1000, "card4no": null, "card4noAcc": null, "district2": 405, "searchScope": null, "status": 1, "address": "\u4e2d\u5c71\u5317\u8def1855\u53f71\u697c", "name": "\u68ee\u8702\u56ed \u5149\u65b0\u4e50\u8d2d\u5e97", "id": 141146, "pageNo": 0, "pageCount": null, "pageSize": 10, "ids": null, "endTime": null, "startTime": null}, {"cardNumFive": null, "isSupportYj": null, "cityName": null, "districtName": null, "shopinfo": {"mid": "888888854410129", "good_flag": "2", "new_flag": "1", "short_name": "\u68ee\u8702\u56ed", "short_name_pinyin": "senfengyuan", "status": null, "address": null, "name": null, "id": "32889"}, "mid": "888888854410129", "shopId": "32889", "netid": null, "province": 901, "district": 601, "zipcode": null, "telephone": null, "posDate": "200911", "destineTel": null, "togoTel": null, "trafficWay": null, "signBuilding": null, "businessArea": null, "selfRoom": null, "businessTime": "08:30~20:30", "stall": null, "consume": null, "serviceFei": null, "favourable": null, "shopMemo": null, "appraise": null, "website": null, "memo": null, "payTypes": "\u6749\u5fb7\u5361", "shopTypes": "\u4e13\u5356", "consumeTypes": null, "cookTypes": null, "orderNum": 1000, "card4no": null, "card4noAcc": null, "district2": 418, "searchScope": null, "status": 1, "address": "\u6caa\u5357\u516c\u8def3449\u53f71\u652f\u5f041-8\u53f7\u5730\u4e0b", "name": "\u68ee\u8702\u56ed \u6caa\u5357\u516c\u8def\u5e97", "id": 141149, "pageNo": 0, "pageCount": null, "pageSize": 10, "ids": null, "endTime": null, "startTime": null}, {"cardNumFive": null, "isSupportYj": null, "cityName": null, "districtName": null, "shopinfo": {"mid": "888888854410129", "good_flag": "2", "new_flag": "1", "short_name": "\u68ee\u8702\u56ed", "short_name_pinyin": "senfengyuan", "status": null, "address": null, "name": null, "id": "32889"}, "mid": "888888854410129", "shopId": "32889", "netid": null, "province": 901, "district": 601, "zipcode": null, "telephone": null, "posDate": "20081128", "destineTel": null, "togoTel": null, "trafficWay": "\u516c\u4ea4916 \u5730\u94c1\u4e00\u53f7\u7ebf", "signBuilding": null, "businessArea": null, "selfRoom": null, "businessTime": "08:30~20:30", "stall": null, "consume": null, "serviceFei": null, "favourable": null, "shopMemo": null, "appraise": null, "website": null, "memo": null, "payTypes": "\u6749\u5fb7\u5361", "shopTypes": "\u4e13\u5356", "consumeTypes": null, "cookTypes": null, "orderNum": 1000, "card4no": null, "card4noAcc": null, "district2": 416, "searchScope": null, "status": 1, "address": "\u5171\u6c5f\u8def1208\u53f7", "name": "\u68ee\u8702\u56ed \u5bb6\u4e50\u798f\u5171\u5eb7\u5e97", "id": 141152, "pageNo": 0, "pageCount": null, "pageSize": 10, "ids": null, "endTime": null, "startTime": null}, {"cardNumFive": null, "isSupportYj": null, "cityName": null, "districtName": null, "shopinfo": {"mid": "888888854410129", "good_flag": "2", "new_flag": "1", "short_name": "\u68ee\u8702\u56ed", "short_name_pinyin": "senfengyuan", "status": null, "address": null, "name": null, "id": "32889"}, "mid": "888888854410129", "shopId": "32889", "netid": null, "province": 901, "district": 601, "zipcode": null, "telephone": null, "posDate": "20081203", "destineTel": null, "togoTel": null, "trafficWay": "\u516c\u4ea4822", "signBuilding": null, "businessArea": null, "selfRoom": null, "businessTime": "08:30~20:30", "stall": null, "consume": null, "serviceFei": null, "favourable": null, "shopMemo": null, "appraise": null, "website": null, "memo": null, "payTypes": "\u6749\u5fb7\u5361", "shopTypes": "\u4e13\u5356", "consumeTypes": null, "cookTypes": null, "orderNum": 1000, "card4no": null, "card4noAcc": null, "district2": 411, "searchScope": null, "status": 1, "address": "\u4e30\u7fd4\u8def3168\u53f7", "name": "\u68ee\u8702\u56ed \u5bb6\u4e50\u798f\u5357\u7fd4\u5e97", "id": 141153, "pageNo": 0, "pageCount": null, "pageSize": 10, "ids": null, "endTime": null, "startTime": null}, {"cardNumFive": null, "isSupportYj": null, "cityName": null, "districtName": null, "shopinfo": {"mid": "888888854410129", "good_flag": "2", "new_flag": "1", "short_name": "\u68ee\u8702\u56ed", "short_name_pinyin": "senfengyuan", "status": null, "address": null, "name": null, "id": "32889"}, "mid": "888888854410129", "shopId": "32889", "netid": null, "province": 901, "district": 601, "zipcode": null, "telephone": null, "posDate": "20081128", "destineTel": null, "togoTel": null, "trafficWay": "\u516c\u4ea4\u6caa\u5510\u4e13\u7ebf \u65c5\u6e386A\u7ebf", "signBuilding": null, "businessArea": null, "selfRoom": null, "businessTime": "08:30~20:30", "stall": null, "consume": null, "serviceFei": null, "favourable": null, "shopMemo": null, "appraise": null, "website": null, "memo": null, "payTypes": "\u6749\u5fb7\u5361", "shopTypes": "\u4e13\u5356", "consumeTypes": null, "cookTypes": null, "orderNum": 1000, "card4no": null, "card4noAcc": null, "district2": 411, "searchScope": null, "status": 1, "address": "\u57ce\u4e2d\u8def138\u53f7\u5730\u4e0b1\u697c\u6536\u94f6\u53f0\u5bf9\u9762", "name": "\u68ee\u8702\u56ed \u5609\u5b9a\u8054\u534e\u5e97", "id": 141154, "pageNo": 0, "pageCount": null, "pageSize": 10, "ids": null, "endTime": null, "startTime": null}, {"cardNumFive": null, "isSupportYj": null, "cityName": null, "districtName": null, "shopinfo": {"mid": "888888854410129", "good_flag": "2", "new_flag": "1", "short_name": "\u68ee\u8702\u56ed", "short_name_pinyin": "senfengyuan", "status": null, "address": null, "name": null, "id": "32889"}, "mid": "888888854410129", "shopId": "32889", "netid": null, "province": 901, "district": 601, "zipcode": null, "telephone": null, "posDate": "20081128", "destineTel": null, "togoTel": null, "trafficWay": "\u516c\u4ea4\u6caa\u94b1\u4e13\u7ebf \u6caa\u5510\u4e13\u7ebf", "signBuilding": null, "businessArea": null, "selfRoom": null, "businessTime": "08:30~20:30", "stall": null, "consume": null, "serviceFei": null, "favourable": null, "shopMemo": null, "appraise": null, "website": null, "memo": null, "payTypes": "\u6749\u5fb7\u5361", "shopTypes": "\u4e13\u5356", "consumeTypes": null, "cookTypes": null, "orderNum": 1000, "card4no": null, "card4noAcc": null, "district2": 411, "searchScope": null, "status": 1, "address": "\u535a\u4e50\u8def99\u53f71\u697c\u6536\u94f6\u53f0\u5bf9\u9762", "name": "\u68ee\u8702\u56ed \u5609\u5b9a\u6b27\u5c1a\u5e97", "id": 141155, "pageNo": 0, "pageCount": null, "pageSize": 10, "ids": null, "endTime": null, "startTime": null}, {"cardNumFive": null, "isSupportYj": null, "cityName": null, "districtName": null, "shopinfo": {"mid": "888888854410129", "good_flag": "2", "new_flag": "1", "short_name": "\u68ee\u8702\u56ed", "short_name_pinyin": "senfengyuan", "status": null, "address": null, "name": null, "id": "32889"}, "mid": "888888854410129", "shopId": "32889", "netid": null, "province": 901, "district": 601, "zipcode": null, "telephone": null, "posDate": "20081128", "destineTel": null, "togoTel": null, "trafficWay": "\u516c\u4ea4537 952", "signBuilding": null, "businessArea": null, "selfRoom": null, "businessTime": "08:30~20:30", "stall": null, "consume": null, "serviceFei": null, "favourable": null, "shopMemo": null, "appraise": null, "website": null, "memo": null, "payTypes": "\u6749\u5fb7\u5361", "shopTypes": "\u4e13\u5356", "consumeTypes": null, "cookTypes": null, "orderNum": 1000, "card4no": null, "card4noAcc": null, "district2": 408, "searchScope": null, "status": 1, "address": "\u9038\u4ed9\u8def580\u53f72\u697c\u5356\u573a\u51fa\u53e3\u5904", "name": "\u68ee\u8702\u56ed \u6c5f\u6e7e\u5409\u4e70\u76db\u5e97", "id": 141156, "pageNo": 0, "pageCount": null, "pageSize": 10, "ids": null, "endTime": null, "startTime": null}], "pageLimit": 8280, "size": 10}