{"pageCount": 1095, "count": 10942, "pageNo": 828, "subShopInfo": {"cardNumFive": "", "isSupportYj": "", "cityName": null, "districtName": null, "shopinfo": {"mid": null, "good_flag": null, "new_flag": null, "short_name": null, "short_name_pinyin": null, "status": null, "address": "", "name": "", "id": null}, "mid": null, "shopId": null, "netid": null, "province": 901, "district": null, "zipcode": null, "telephone": null, "posDate": null, "destineTel": null, "togoTel": null, "trafficWay": null, "signBuilding": null, "businessArea": null, "selfRoom": null, "businessTime": null, "stall": null, "consume": null, "serviceFei": null, "favourable": null, "shopMemo": "1", "appraise": null, "website": null, "memo": null, "payTypes": "", "shopTypes": "", "consumeTypes": null, "cookTypes": null, "orderNum": null, "card4no": null, "card4noAcc": null, "district2": null, "searchScope": null, "status": null, "address": "", "name": null, "id": null, "pageNo": 827, "pageCount": null, "pageSize": 10, "ids": null, "endTime": null, "startTime": null}, "list": [{"cardNumFive": null, "isSupportYj": null, "cityName": null, "districtName": null, "shopinfo": {"mid": "888888854410129", "good_flag": "2", "new_flag": "1", "short_name": "\u68ee\u8702\u56ed", "short_name_pinyin": "senfengyuan", "status": null, "address": null, "name": null, "id": "32889"}, "mid": "888888854410129", "shopId": "32889", "netid": null, "province": 901, "district": 601, "zipcode": null, "telephone": null, "posDate": "20081126", "destineTel": null, "togoTel": null, "trafficWay": "\u516c\u4ea4537 \u5730\u94c1\u516b\u53f7\u7ebf", "signBuilding": null, "businessArea": null, "selfRoom": null, "businessTime": "08:30~20:30", "stall": null, "consume": null, "serviceFei": null, "favourable": null, "shopMemo": null, "appraise": null, "website": null, "memo": null, "payTypes": "\u6749\u5fb7\u5361", "shopTypes": "\u4e13\u5356", "consumeTypes": null, "cookTypes": null, "orderNum": 1000, "card4no": null, "card4noAcc": null, "district2": 407, "searchScope": null, "status": 1, "address": "\u56fd\u548c\u8def1000\u53f7\u9760\u8fd1\u4e16\u754c\u8def\u5730\u4e0b\u4e00\u697c\u51fa\u53e3", "name": "\u68ee\u8702\u56ed \u767e\u4f73\u4e2d\u539f\u5e97", "id": 141132, "pageNo": 0, "pageCount": null, "pageSize": 10, "ids": null, "endTime": null, "startTime": null}, {"cardNumFive": null, "isSupportYj": null, "cityName": null, "districtName": null, "shopinfo": {"mid": "888888854410129", "good_flag": "2", "new_flag": "1", "short_name": "\u68ee\u8702\u56ed", "short_name_pinyin": "senfengyuan", "status": null, "address": null, "name": null, "id": "32889"}, "mid": "888888854410129", "shopId": "32889", "netid": null, "province": 901, "district": 601, "zipcode": null, "telephone": null, "posDate": "20100517", "destineTel": null, "togoTel": null, "trafficWay": null, "signBuilding": null, "businessArea": null, "selfRoom": null, "businessTime": null, "stall": null, "consume": null, "serviceFei": null, "favourable": null, "shopMemo": null, "appraise": null, "website": null, "memo": null, "payTypes": "\u6749\u5fb7\u5361", "shopTypes": "\u4e13\u5356", "consumeTypes": null, "cookTypes": null, "orderNum": 1000, "card4no": null, "card4noAcc": null, "district2": 403, "searchScope": null, "status": 1, "address": "\u6f15\u6eaa\u5317\u8def737\u5f041\u53f71901\u5ba4", "name": "\u68ee\u8702\u56ed \u6f15\u6eaa\u5317\u8def\u5e97", "id": 141133, "pageNo": 0, "pageCount": null, "pageSize": 10, "ids": null, "endTime": null, "startTime": null}, {"cardNumFive": null, "isSupportYj": null, "cityName": null, "districtName": null, "shopinfo": {"mid": "888888854410129", "good_flag": "2", "new_flag": "1", "short_name": "\u68ee\u8702\u56ed", "short_name_pinyin": "senfengyuan", "status": null, "address": null, "name": null, "id": "32889"}, "mid": "888888854410129", "shopId": "32889", "netid": null, "province": 901, "district": 601, "zipcode": null, "telephone": null, "posDate": "20081126", "destineTel": null, "togoTel": null, "trafficWay": "\u516c\u4ea4820 718", "signBuilding": null, "businessArea": null, "selfRoom": null, "businessTime": "08:30~20:30", "stall": null, "consume": null, "serviceFei": null, "favourable": null, "shopMemo": null, "appraise": null, "website": null, "memo": null, "payTypes": "\u6749\u5fb7\u5361", "shopTypes": "\u4e13\u5356", "consumeTypes": null, "cookTypes": null, "orderNum": 1000, "card4no": null, "card4noAcc": null, "district2": 403, "searchScope": null, "status": 1, "address": "\u8001\u6caa\u95f5\u8def809\u53f73\u697c", "name": "\u68ee\u8702\u56ed \u957f\u6865\u597d\u53c8\u591a\u5e97", "id": 141135, "pageNo": 0, "pageCount": null, "pageSize": 10, "ids": null, "endTime": null, "startTime": null}, {"cardNumFive": null, "isSupportYj": null, "cityName": null, "districtName": null, "shopinfo": {"mid": "888888854410129", "good_flag": "2", "new_flag": "1", "short_name": "\u68ee\u8702\u56ed", "short_name_pinyin": "senfengyuan", "status": null, "address": null, "name": null, "id": "32889"}, "mid": "888888854410129", "shopId": "32889", "netid": null, "province": 901, "district": 601, "zipcode": null, "telephone": null, "posDate": "20100518", "destineTel": null, "togoTel": null, "trafficWay": null, "signBuilding": null, "businessArea": null, "selfRoom": null, "businessTime": null, "stall": null, "consume": null, "serviceFei": null, "favourable": null, "shopMemo": null, "appraise": null, "website": null, "memo": null, "payTypes": "\u6749\u5fb7\u5361", "shopTypes": "\u4e13\u5356", "consumeTypes": null, "cookTypes": null, "orderNum": 1000, "card4no": null, "card4noAcc": null, "district2": 418, "searchScope": null, "status": 1, "address": "\u957f\u6e05\u8def1200\u53f72\u697c\u51fa\u53e3", "name": "\u68ee\u8702\u56ed \u957f\u6e05\u8def\u5e97", "id": 141136, "pageNo": 0, "pageCount": null, "pageSize": 10, "ids": null, "endTime": null, "startTime": null}, {"cardNumFive": null, "isSupportYj": null, "cityName": null, "districtName": null, "shopinfo": {"mid": "888888854410129", "good_flag": "2", "new_flag": "1", "short_name": "\u68ee\u8702\u56ed", "short_name_pinyin": "senfengyuan", "status": null, "address": null, "name": null, "id": "32889"}, "mid": "888888854410129", "shopId": "32889", "netid": null, "province": 901, "district": 601, "zipcode": null, "telephone": "64382346", "posDate": "20090116", "destineTel": null, "togoTel": null, "trafficWay": "\u516c\u4ea4853874875", "signBuilding": null, "businessArea": null, "selfRoom": null, "businessTime": "08:30~20:30", "stall": null, "consume": null, "serviceFei": null, "favourable": null, "shopMemo": null, "appraise": null, "website": null, "memo": null, "payTypes": "\u6749\u5fb7\u5361", "shopTypes": "\u4e13\u5356", "consumeTypes": null, "cookTypes": null, "orderNum": 1000, "card4no": null, "card4noAcc": null, "district2": 408, "searchScope": null, "status": 1, "address": "\u8f66\u7ad9\u5357\u8def330\u5f04", "name": "\u68ee\u8702\u56ed \u8f66\u7ad9\u5357\u8def\u5e97", "id": 141137, "pageNo": 0, "pageCount": null, "pageSize": 10, "ids": null, "endTime": null, "startTime": null}, {"cardNumFive": null, "isSupportYj": null, "cityName": null, "districtName": null, "shopinfo": {"mid": "888888854410129", "good_flag": "2", "new_flag": "1", "short_name": "\u68ee\u8702\u56ed", "short_name_pinyin": "senfengyuan", "status": null, "address": null, "name": null, "id": "32889"}, "mid": "888888854410129", "shopId": "32889", "netid": null, "province": 901, "district": 601, "zipcode": null, "telephone": null, "posDate": "20081128", "destineTel": null, "togoTel": null, "trafficWay": "\u516c\u4ea4980 583", "signBuilding": null, "businessArea": null, "selfRoom": null, "businessTime": "08:30~20:30", "stall": null, "consume": null, "serviceFei": null, "favourable": null, "shopMemo": null, "appraise": null, "website": null, "memo": null, "payTypes": "\u6749\u5fb7\u5361", "shopTypes": "\u4e13\u5356", "consumeTypes": null, "cookTypes": null, "orderNum": 1000, "card4no": null, "card4noAcc": null, "district2": 418, "searchScope": null, "status": 1, "address": "\u4e91\u53f0\u8def453\u5f041-8\u53f7", "name": "\u68ee\u8702\u56ed \u6210\u5c71\u8054\u534e\u5e97", "id": 141138, "pageNo": 0, "pageCount": null, "pageSize": 10, "ids": null, "endTime": null, "startTime": null}, {"cardNumFive": null, "isSupportYj": null, "cityName": null, "districtName": null, "shopinfo": {"mid": "888888854410129", "good_flag": "2", "new_flag": "1", "short_name": "\u68ee\u8702\u56ed", "short_name_pinyin": "senfengyuan", "status": null, "address": null, "name": null, "id": "32889"}, "mid": "888888854410129", "shopId": "32889", "netid": null, "province": 901, "district": 601, "zipcode": null, "telephone": null, "posDate": "20081125", "destineTel": null, "togoTel": null, "trafficWay": "\u516c\u4ea449 144", "signBuilding": null, "businessArea": null, "selfRoom": null, "businessTime": "08:30~20:30", "stall": null, "consume": null, "serviceFei": null, "favourable": null, "shopMemo": null, "appraise": null, "website": null, "memo": null, "payTypes": "\u6749\u5fb7\u5361", "shopTypes": "\u4e13\u5356", "consumeTypes": null, "cookTypes": null, "orderNum": 1000, "card4no": null, "card4noAcc": null, "district2": 403, "searchScope": null, "status": 1, "address": "\u8239\u5382\u8def178\u53f7\u9760\u8fd1\u4e2d\u5c71\u5357\u4e8c\u8def1\u697c\u51fa\u53e3", "name": "\u68ee\u8702\u56ed \u8239\u5382\u6613\u521d\u5e97", "id": 141139, "pageNo": 0, "pageCount": null, "pageSize": 10, "ids": null, "endTime": null, "startTime": null}, {"cardNumFive": null, "isSupportYj": null, "cityName": null, "districtName": null, "shopinfo": {"mid": "888888854410129", "good_flag": "2", "new_flag": "1", "short_name": "\u68ee\u8702\u56ed", "short_name_pinyin": "senfengyuan", "status": null, "address": null, "name": null, "id": "32889"}, "mid": "888888854410129", "shopId": "32889", "netid": null, "province": 901, "district": 601, "zipcode": null, "telephone": "64382489", "posDate": "20081125", "destineTel": null, "togoTel": null, "trafficWay": "\u516c\u4ea478 112", "signBuilding": null, "businessArea": null, "selfRoom": null, "businessTime": "08:30~20:30", "stall": null, "consume": null, "serviceFei": null, "favourable": null, "shopMemo": null, "appraise": null, "website": null, "memo": null, "payTypes": "\u6749\u5fb7\u5361", "shopTypes": "\u4e13\u5356", "consumeTypes": null, "cookTypes": null, "orderNum": 1000, "card4no": null, "card4noAcc": null, "district2": 416, "searchScope": null, "status": 1, "address": "\u5927\u534e\u8def518\u53f7\u9760\u8fd1\u5927\u534e\u4e8c\u8def2\u697c\u51fa\u53e3\u6536\u94f6\u5bf9\u9762", "name": "\u68ee\u8702\u56ed \u5927\u534e\u4e50\u8d2d\u5e97", "id": 141140, "pageNo": 0, "pageCount": null, "pageSize": 10, "ids": null, "endTime": null, "startTime": null}, {"cardNumFive": null, "isSupportYj": null, "cityName": null, "districtName": null, "shopinfo": {"mid": "888888854410129", "good_flag": "2", "new_flag": "1", "short_name": "\u68ee\u8702\u56ed", "short_name_pinyin": "senfengyuan", "status": null, "address": null, "name": null, "id": "32889"}, "mid": "888888854410129", "shopId": "32889", "netid": null, "province": 901, "district": 601, "zipcode": null, "telephone": null, "posDate": "20081205", "destineTel": null, "togoTel": null, "trafficWay": "\u516c\u4ea4112 78", "signBuilding": null, "businessArea": null, "selfRoom": null, "businessTime": "08:30~20:30", "stall": null, "consume": null, "serviceFei": null, "favourable": null, "shopMemo": null, "appraise": null, "website": null, "memo": null, "payTypes": "\u6749\u5fb7\u5361", "shopTypes": "\u4e13\u5356", "consumeTypes": null, "cookTypes": null, "orderNum": 1000, "card4no": null, "card4noAcc": null, "district2": 416, "searchScope": null, "status": 1, "address": "\u534e\u7075\u8def1051-1067\u53f7", "name": "\u68ee\u8702\u56ed \u5927\u6da6\u53d1\u4e5d\u767e\u5e97", "id": 141141, "pageNo": 0, "pageCount": null, "pageSize": 10, "ids": null, "endTime": null, "startTime": null}, {"cardNumFive": null, "isSupportYj": null, "cityName": null, "districtName": null, "shopinfo": {"mid": "888888854410129", "good_flag": "2", "new_flag": "1", "short_name": "\u68ee\u8702\u56ed", "short_name_pinyin": "senfengyuan", "status": null, "address": null, "name": null, "id": "32889"}, "mid": "888888854410129", "shopId": "32889", "netid": null, "province": 901, "district": 601, "zipcode": null, "telephone": null, "posDate": "20081204", "destineTel": null, "togoTel": null, "trafficWay": "\u516c\u4ea4\u6caa\u677e\u4e13\u7ebf \u6caa\u53e4\u7ebf", "signBuilding": null, "businessArea": null, "selfRoom": null, "businessTime": "08:30~20:30", "stall": null, "consume": null, "serviceFei": null, "favourable": null, "shopMemo": null, "appraise": null, "website": null, "memo": null, "payTypes": "\u6749\u5fb7\u5361", "shopTypes": "\u4e13\u5356", "consumeTypes": null, "cookTypes": null, "orderNum": 1000, "card4no": null, "card4noAcc": null, "district2": 412, "searchScope": null, "status": 1, "address": "\u8363\u4e50\u4e2d\u8def552-652\u53f7", "name": "\u68ee\u8702\u56ed \u5927\u6da6\u53d1\u677e\u6c5f\u5e97", "id": 141142, "pageNo": 0, "pageCount": null, "pageSize": 10, "ids": null, "endTime": null, "startTime": null}], "pageLimit": 8270, "size": 10}