{"pageCount": 1095, "count": 10942, "pageNo": 822, "subShopInfo": {"cardNumFive": "", "isSupportYj": "", "cityName": null, "districtName": null, "shopinfo": {"mid": null, "good_flag": null, "new_flag": null, "short_name": null, "short_name_pinyin": null, "status": null, "address": "", "name": "", "id": null}, "mid": null, "shopId": null, "netid": null, "province": 901, "district": null, "zipcode": null, "telephone": null, "posDate": null, "destineTel": null, "togoTel": null, "trafficWay": null, "signBuilding": null, "businessArea": null, "selfRoom": null, "businessTime": null, "stall": null, "consume": null, "serviceFei": null, "favourable": null, "shopMemo": "1", "appraise": null, "website": null, "memo": null, "payTypes": "", "shopTypes": "", "consumeTypes": null, "cookTypes": null, "orderNum": null, "card4no": null, "card4noAcc": null, "district2": null, "searchScope": null, "status": null, "address": "", "name": null, "id": null, "pageNo": 821, "pageCount": null, "pageSize": 10, "ids": null, "endTime": null, "startTime": null}, "list": [{"cardNumFive": null, "isSupportYj": null, "cityName": null, "districtName": null, "shopinfo": {"mid": "888888856910062", "good_flag": null, "new_flag": null, "short_name": "\u4e09\u67aa", "short_name_pinyin": "sanqiang", "status": null, "address": null, "name": null, "id": "32880"}, "mid": "888888856910062", "shopId": "32880", "netid": null, "province": 901, "district": 601, "zipcode": null, "telephone": "64678110", "posDate": "20080604", "destineTel": null, "togoTel": null, "trafficWay": "\u516c\u4ea443 \u6caa\u677e\u4e13\u7ebf", "signBuilding": null, "businessArea": null, "selfRoom": null, "businessTime": "10:00~22:00", "stall": null, "consume": null, "serviceFei": null, "favourable": null, "shopMemo": null, "appraise": null, "website": null, "memo": null, "payTypes": "\u6749\u5fb7\u5361", "shopTypes": "\u4e13\u5356", "consumeTypes": null, "cookTypes": null, "orderNum": 1000, "card4no": null, "card4noAcc": null, "district2": 401, "searchScope": null, "status": 1, "address": "\u745e\u91d1\u4e8c\u8def201\u53f7", "name": "\u4e09\u67aa \u745e\u91d1\u4e8c\u8def\u5e97", "id": 141085, "pageNo": 0, "pageCount": null, "pageSize": 10, "ids": null, "endTime": null, "startTime": null}, {"cardNumFive": null, "isSupportYj": null, "cityName": null, "districtName": null, "shopinfo": {"mid": "888888856910062", "good_flag": null, "new_flag": null, "short_name": "\u4e09\u67aa", "short_name_pinyin": "sanqiang", "status": null, "address": null, "name": null, "id": "32880"}, "mid": "888888856910062", "shopId": "32880", "netid": null, "province": 901, "district": 601, "zipcode": null, "telephone": "50825033", "posDate": "20070928", "destineTel": null, "togoTel": null, "trafficWay": "\u516c\u4ea4755 973", "signBuilding": null, "businessArea": null, "selfRoom": null, "businessTime": "10:00~22:00", "stall": null, "consume": null, "serviceFei": null, "favourable": null, "shopMemo": null, "appraise": null, "website": null, "memo": null, "payTypes": "\u6749\u5fb7\u5361", "shopTypes": "\u4e13\u5356", "consumeTypes": null, "cookTypes": null, "orderNum": 1000, "card4no": null, "card4noAcc": null, "district2": 418, "searchScope": null, "status": 1, "address": "\u7075\u5ca9\u5357\u8def1112\u53f7", "name": "\u4e09\u67aa \u4e09\u6797\u4e13\u5356", "id": 141086, "pageNo": 0, "pageCount": null, "pageSize": 10, "ids": null, "endTime": null, "startTime": null}, {"cardNumFive": null, "isSupportYj": null, "cityName": null, "districtName": null, "shopinfo": {"mid": "888888856910062", "good_flag": null, "new_flag": null, "short_name": "\u4e09\u67aa", "short_name_pinyin": "sanqiang", "status": null, "address": null, "name": null, "id": "32880"}, "mid": "888888856910062", "shopId": "32880", "netid": null, "province": 901, "district": 601, "zipcode": null, "telephone": "57818592", "posDate": "20080313", "destineTel": null, "togoTel": null, "trafficWay": "\u6caa\u677e\u4e13\u7ebf", "signBuilding": null, "businessArea": null, "selfRoom": null, "businessTime": "10:00~22:00", "stall": null, "consume": null, "serviceFei": null, "favourable": null, "shopMemo": null, "appraise": null, "website": null, "memo": null, "payTypes": "\u6749\u5fb7\u5361", "shopTypes": "\u4e13\u5356", "consumeTypes": null, "cookTypes": null, "orderNum": 1000, "card4no": null, "card4noAcc": null, "district2": 412, "searchScope": null, "status": 1, "address": "\u4e2d\u5c71\u4e1c\u8def541\u53f7", "name": "\u4e09\u67aa \u677e\u6c5f\u534e\u4ead\u8001\u8857\u5e97", "id": 141087, "pageNo": 0, "pageCount": null, "pageSize": 10, "ids": null, "endTime": null, "startTime": null}, {"cardNumFive": null, "isSupportYj": null, "cityName": null, "districtName": null, "shopinfo": {"mid": "888888856910062", "good_flag": null, "new_flag": null, "short_name": "\u4e09\u67aa", "short_name_pinyin": "sanqiang", "status": null, "address": null, "name": null, "id": "32880"}, "mid": "888888856910062", "shopId": "32880", "netid": null, "province": 901, "district": 601, "zipcode": null, "telephone": "57814357", "posDate": "20080604", "destineTel": null, "togoTel": null, "trafficWay": "\u516c\u4ea4\u6caa\u677e\u4e13\u7ebf", "signBuilding": null, "businessArea": null, "selfRoom": null, "businessTime": "10:00~22:00", "stall": null, "consume": null, "serviceFei": null, "favourable": null, "shopMemo": null, "appraise": null, "website": null, "memo": null, "payTypes": "\u6749\u5fb7\u5361", "shopTypes": "\u4e13\u5356", "consumeTypes": null, "cookTypes": null, "orderNum": 1000, "card4no": null, "card4noAcc": null, "district2": 412, "searchScope": null, "status": 1, "address": "\u4eba\u6c11\u5317\u8def185\u53f7", "name": "\u4e09\u67aa \u677e\u6c5f\u4eba\u6c11\u8def\u5e97", "id": 141088, "pageNo": 0, "pageCount": null, "pageSize": 10, "ids": null, "endTime": null, "startTime": null}, {"cardNumFive": null, "isSupportYj": null, "cityName": null, "districtName": null, "shopinfo": {"mid": "888888856910062", "good_flag": null, "new_flag": null, "short_name": "\u4e09\u67aa", "short_name_pinyin": "sanqiang", "status": null, "address": null, "name": null, "id": "32880"}, "mid": "888888856910062", "shopId": "32880", "netid": null, "province": 901, "district": 601, "zipcode": null, "telephone": "52530190", "posDate": "20070924", "destineTel": null, "togoTel": null, "trafficWay": "\u516c\u4ea4224 909 814", "signBuilding": null, "businessArea": null, "selfRoom": null, "businessTime": "10:00~22:00", "stall": null, "consume": null, "serviceFei": null, "favourable": null, "shopMemo": null, "appraise": null, "website": null, "memo": null, "payTypes": "\u6749\u5fb7\u5361", "shopTypes": "\u4e13\u5356", "consumeTypes": null, "cookTypes": null, "orderNum": 1000, "card4no": null, "card4noAcc": null, "district2": 406, "searchScope": null, "status": 1, "address": "\u5929\u5c71\u8def960\u53f7", "name": "\u4e09\u67aa \u5929\u5c71\u4e13\u5356", "id": 141090, "pageNo": 0, "pageCount": null, "pageSize": 10, "ids": null, "endTime": null, "startTime": null}, {"cardNumFive": null, "isSupportYj": null, "cityName": null, "districtName": null, "shopinfo": {"mid": "888888856910062", "good_flag": null, "new_flag": null, "short_name": "\u4e09\u67aa", "short_name_pinyin": "sanqiang", "status": null, "address": null, "name": null, "id": "32880"}, "mid": "888888856910062", "shopId": "32880", "netid": null, "province": 901, "district": 601, "zipcode": null, "telephone": "64088273", "posDate": "20081106", "destineTel": null, "togoTel": null, "trafficWay": "\u516c\u4ea4946 927", "signBuilding": null, "businessArea": null, "selfRoom": null, "businessTime": "10:00~22:00", "stall": null, "consume": null, "serviceFei": null, "favourable": null, "shopMemo": null, "appraise": null, "website": null, "memo": null, "payTypes": "\u6749\u5fb7\u5361", "shopTypes": "\u4e13\u5356", "consumeTypes": null, "cookTypes": null, "orderNum": 1000, "card4no": null, "card4noAcc": null, "district2": 403, "searchScope": null, "status": 1, "address": "\u7530\u6797\u8def76\u53f7", "name": "\u4e09\u67aa \u7530\u6797\u4e8c\u5e97", "id": 141091, "pageNo": 0, "pageCount": null, "pageSize": 10, "ids": null, "endTime": null, "startTime": null}, {"cardNumFive": null, "isSupportYj": null, "cityName": null, "districtName": null, "shopinfo": {"mid": "888888856910062", "good_flag": null, "new_flag": null, "short_name": "\u4e09\u67aa", "short_name_pinyin": "sanqiang", "status": null, "address": null, "name": null, "id": "32880"}, "mid": "888888856910062", "shopId": "32880", "netid": null, "province": 901, "district": 601, "zipcode": null, "telephone": "64833390", "posDate": "20070918", "destineTel": null, "togoTel": null, "trafficWay": "\u516c\u4ea4224 859 953", "signBuilding": null, "businessArea": null, "selfRoom": null, "businessTime": "10:00~22:00", "stall": null, "consume": null, "serviceFei": null, "favourable": null, "shopMemo": null, "appraise": null, "website": null, "memo": null, "payTypes": "\u6749\u5fb7\u5361", "shopTypes": "\u4e13\u5356", "consumeTypes": null, "cookTypes": null, "orderNum": 1000, "card4no": null, "card4noAcc": null, "district2": 403, "searchScope": null, "status": 1, "address": "\u7530\u6797\u8def49\u53f7", "name": "\u4e09\u67aa \u7530\u6797\u4e13\u5356", "id": 141092, "pageNo": 0, "pageCount": null, "pageSize": 10, "ids": null, "endTime": null, "startTime": null}, {"cardNumFive": null, "isSupportYj": null, "cityName": null, "districtName": null, "shopinfo": {"mid": "888888856910062", "good_flag": null, "new_flag": null, "short_name": "\u4e09\u67aa", "short_name_pinyin": "sanqiang", "status": null, "address": null, "name": null, "id": "32880"}, "mid": "888888856910062", "shopId": "32880", "netid": null, "province": 901, "district": 601, "zipcode": null, "telephone": "58465833", "posDate": "20071016", "destineTel": null, "togoTel": null, "trafficWay": "\u516c\u4ea4610 981", "signBuilding": null, "businessArea": null, "selfRoom": null, "businessTime": "10:00~22:30", "stall": null, "consume": null, "serviceFei": null, "favourable": null, "shopMemo": null, "appraise": null, "website": null, "memo": null, "payTypes": "\u6749\u5fb7\u5361", "shopTypes": "\u4e13\u5356", "consumeTypes": null, "cookTypes": null, "orderNum": 1000, "card4no": null, "card4noAcc": null, "district2": 418, "searchScope": null, "status": 1, "address": "\u4e94\u83b2\u8def244\u53f7", "name": "\u4e09\u67aa \u4e94\u83b2\u8def\u5e97", "id": 141093, "pageNo": 0, "pageCount": null, "pageSize": 10, "ids": null, "endTime": null, "startTime": null}, {"cardNumFive": null, "isSupportYj": null, "cityName": null, "districtName": null, "shopinfo": {"mid": "888888856910329", "good_flag": "1", "new_flag": "1", "short_name": "\u4e09\u67aa", "short_name_pinyin": "sanqiang", "status": null, "address": null, "name": null, "id": "32881"}, "mid": "888888856910329", "shopId": "32881", "netid": null, "province": 901, "district": 601, "zipcode": null, "telephone": null, "posDate": "200911", "destineTel": null, "togoTel": null, "trafficWay": null, "signBuilding": null, "businessArea": null, "selfRoom": null, "businessTime": null, "stall": null, "consume": null, "serviceFei": null, "favourable": null, "shopMemo": null, "appraise": null, "website": null, "memo": null, "payTypes": "\u6749\u5fb7\u5361", "shopTypes": "\u4e13\u5356", "consumeTypes": null, "cookTypes": null, "orderNum": 1000, "card4no": null, "card4noAcc": null, "district2": 404, "searchScope": null, "status": 1, "address": "\u6b66\u5b9a\u8def1110\u53f7", "name": "\u4e09\u67aa \u6b66\u5b9a\u8def\u4e13\u5356", "id": 141094, "pageNo": 0, "pageCount": null, "pageSize": 10, "ids": null, "endTime": null, "startTime": null}, {"cardNumFive": null, "isSupportYj": null, "cityName": null, "districtName": null, "shopinfo": {"mid": "888888856910062", "good_flag": null, "new_flag": null, "short_name": "\u4e09\u67aa", "short_name_pinyin": "sanqiang", "status": null, "address": null, "name": null, "id": "32880"}, "mid": "888888856910062", "shopId": "32880", "netid": null, "province": 901, "district": 601, "zipcode": null, "telephone": "52040103", "posDate": "20070920", "destineTel": null, "togoTel": null, "trafficWay": "\u516c\u4ea4224 909 \u5730\u94c1\u4e09\u53f7\u7ebf", "signBuilding": null, "businessArea": null, "selfRoom": null, "businessTime": "10:00~22:00", "stall": null, "consume": null, "serviceFei": null, "favourable": null, "shopMemo": null, "appraise": null, "website": null, "memo": null, "payTypes": "\u6749\u5fb7\u5361", "shopTypes": "\u4e13\u5356", "consumeTypes": null, "cookTypes": null, "orderNum": 1000, "card4no": null, "card4noAcc": null, "district2": 405, "searchScope": null, "status": 1, "address": "\u6b66\u5b81\u8def132\u53f7", "name": "\u4e09\u67aa \u6b66\u5b81\u8def\u5e97", "id": 141095, "pageNo": 0, "pageCount": null, "pageSize": 10, "ids": null, "endTime": null, "startTime": null}], "pageLimit": 8210, "size": 10}