{"pageCount": 1095, "count": 10942, "pageNo": 836, "subShopInfo": {"cardNumFive": "", "isSupportYj": "", "cityName": null, "districtName": null, "shopinfo": {"mid": null, "good_flag": null, "new_flag": null, "short_name": null, "short_name_pinyin": null, "status": null, "address": "", "name": "", "id": null}, "mid": null, "shopId": null, "netid": null, "province": 901, "district": null, "zipcode": null, "telephone": null, "posDate": null, "destineTel": null, "togoTel": null, "trafficWay": null, "signBuilding": null, "businessArea": null, "selfRoom": null, "businessTime": null, "stall": null, "consume": null, "serviceFei": null, "favourable": null, "shopMemo": "1", "appraise": null, "website": null, "memo": null, "payTypes": "", "shopTypes": "", "consumeTypes": null, "cookTypes": null, "orderNum": null, "card4no": null, "card4noAcc": null, "district2": null, "searchScope": null, "status": null, "address": "", "name": null, "id": null, "pageNo": 835, "pageCount": null, "pageSize": 10, "ids": null, "endTime": null, "startTime": null}, "list": [{"cardNumFive": null, "isSupportYj": null, "cityName": null, "districtName": null, "shopinfo": {"mid": "888002189990148", "good_flag": "2", "new_flag": "2", "short_name": "\u751f\u6d3b\u6749\u5fb7\u76d2\u9a6c", "short_name_pinyin": "shenghuoshandehema", "status": null, "address": null, "name": null, "id": "540582603091083264"}, "mid": "888002189990148", "shopId": "540582603091083264", "netid": null, "province": 901, "district": 601, "zipcode": null, "telephone": null, "posDate": null, "destineTel": null, "togoTel": null, "trafficWay": null, "signBuilding": null, "businessArea": null, "selfRoom": null, "businessTime": null, "stall": null, "consume": null, "serviceFei": null, "favourable": null, "shopMemo": null, "appraise": null, "website": null, "memo": null, "payTypes": "\u6749\u5fb7\u5361,", "shopTypes": "\u8d85\u5e02", "consumeTypes": null, "cookTypes": null, "orderNum": null, "card4no": null, "card4noAcc": null, "district2": 403, "searchScope": null, "status": 1, "address": "\u88d5\u5fb7\u8def165\u53f7-\u5357\u6d0b1931\u5e7f\u573aB1\u76d2\u9a6c\u9c9c\u751f", "name": "\u88d5\u5fb7\u5e97", "id": 540582607587377152, "pageNo": 0, "pageCount": null, "pageSize": 10, "ids": null, "endTime": null, "startTime": null}, {"cardNumFive": null, "isSupportYj": null, "cityName": null, "districtName": null, "shopinfo": {"mid": "888002189990148", "good_flag": "2", "new_flag": "2", "short_name": "\u751f\u6d3b\u6749\u5fb7\u76d2\u9a6c", "short_name_pinyin": "shenghuoshandehema", "status": null, "address": null, "name": null, "id": "540582603091083264"}, "mid": "888002189990148", "shopId": "540582603091083264", "netid": null, "province": 901, "district": 601, "zipcode": null, "telephone": null, "posDate": null, "destineTel": null, "togoTel": null, "trafficWay": null, "signBuilding": null, "businessArea": null, "selfRoom": null, "businessTime": null, "stall": null, "consume": null, "serviceFei": null, "favourable": null, "shopMemo": null, "appraise": null, "website": null, "memo": null, "payTypes": "\u6749\u5fb7\u5361,", "shopTypes": "\u8d85\u5e02", "consumeTypes": null, "cookTypes": null, "orderNum": null, "card4no": null, "card4noAcc": null, "district2": 406, "searchScope": null, "status": 1, "address": "\u8679\u6865\u8def1665\u53f7-\u661f\u7a7a\u5e7f\u573aB1\u5c42\u76d2\u9a6c\u9c9c\u751f", "name": "\u661f\u7a7a\u5e97", "id": 540582607969058816, "pageNo": 0, "pageCount": null, "pageSize": 10, "ids": null, "endTime": null, "startTime": null}, {"cardNumFive": null, "isSupportYj": null, "cityName": null, "districtName": null, "shopinfo": {"mid": "888002189990148", "good_flag": "2", "new_flag": "2", "short_name": "\u751f\u6d3b\u6749\u5fb7\u76d2\u9a6c", "short_name_pinyin": "shenghuoshandehema", "status": null, "address": null, "name": null, "id": "540582603091083264"}, "mid": "888002189990148", "shopId": "540582603091083264", "netid": null, "province": 901, "district": 601, "zipcode": null, "telephone": null, "posDate": null, "destineTel": null, "togoTel": null, "trafficWay": null, "signBuilding": null, "businessArea": null, "selfRoom": null, "businessTime": null, "stall": null, "consume": null, "serviceFei": null, "favourable": null, "shopMemo": null, "appraise": null, "website": null, "memo": null, "payTypes": "\u6749\u5fb7\u5361,", "shopTypes": "\u8d85\u5e02", "consumeTypes": null, "cookTypes": null, "orderNum": null, "card4no": null, "card4noAcc": null, "district2": 411, "searchScope": null, "status": 1, "address": "\u94f6\u7fd4\u8def609\u53f7-\u5357\u7fd4\u4e1c\u65b9\u4f1f\u4e1a\u5e7f\u573aB115\u5ba4\u76d2\u9a6c\u9c9c\u751f", "name": "\u5357\u7fd4\u5e97", "id": 540582608338157568, "pageNo": 0, "pageCount": null, "pageSize": 10, "ids": null, "endTime": null, "startTime": null}, {"cardNumFive": null, "isSupportYj": null, "cityName": null, "districtName": null, "shopinfo": {"mid": "888002189990148", "good_flag": "2", "new_flag": "2", "short_name": "\u751f\u6d3b\u6749\u5fb7\u76d2\u9a6c", "short_name_pinyin": "shenghuoshandehema", "status": null, "address": null, "name": null, "id": "540582603091083264"}, "mid": "888002189990148", "shopId": "540582603091083264", "netid": null, "province": 901, "district": 601, "zipcode": null, "telephone": null, "posDate": null, "destineTel": null, "togoTel": null, "trafficWay": null, "signBuilding": null, "businessArea": null, "selfRoom": null, "businessTime": null, "stall": null, "consume": null, "serviceFei": null, "favourable": null, "shopMemo": null, "appraise": null, "website": null, "memo": null, "payTypes": "\u6749\u5fb7\u5361,", "shopTypes": "\u8d85\u5e02", "consumeTypes": null, "cookTypes": null, "orderNum": null, "card4no": null, "card4noAcc": null, "district2": 418, "searchScope": null, "status": 1, "address": "\u4e1c\u660e\u8def2719\u53f7-\u4e09\u6797\u5370\u8c61\u57ce\u4e1c\u533aB1\u5c42\u76d2\u9a6c\u9c9c\u751f", "name": "\u4e09\u6797\u5e97", "id": 540582608719839232, "pageNo": 0, "pageCount": null, "pageSize": 10, "ids": null, "endTime": null, "startTime": null}, {"cardNumFive": null, "isSupportYj": null, "cityName": null, "districtName": null, "shopinfo": {"mid": "888002189990148", "good_flag": "2", "new_flag": "2", "short_name": "\u751f\u6d3b\u6749\u5fb7\u76d2\u9a6c", "short_name_pinyin": "shenghuoshandehema", "status": null, "address": null, "name": null, "id": "540582603091083264"}, "mid": "888002189990148", "shopId": "540582603091083264", "netid": null, "province": 901, "district": 601, "zipcode": null, "telephone": null, "posDate": null, "destineTel": null, "togoTel": null, "trafficWay": null, "signBuilding": null, "businessArea": null, "selfRoom": null, "businessTime": null, "stall": null, "consume": null, "serviceFei": null, "favourable": null, "shopMemo": null, "appraise": null, "website": null, "memo": null, "payTypes": "\u6749\u5fb7\u5361,", "shopTypes": "\u8d85\u5e02", "consumeTypes": null, "cookTypes": null, "orderNum": null, "card4no": null, "card4noAcc": null, "district2": 417, "searchScope": null, "status": 1, "address": "\u76c8\u6e2f\u4e1c\u8def158\u53f7\u5546\u4e1a\u5e7f\u573aR-L110\u76d2\u9a6c\u9c9c\u751f", "name": "\u56fd\u5c55\u4e2d\u5fc3\u5e97", "id": 540582609097326592, "pageNo": 0, "pageCount": null, "pageSize": 10, "ids": null, "endTime": null, "startTime": null}, {"cardNumFive": null, "isSupportYj": null, "cityName": null, "districtName": null, "shopinfo": {"mid": "888002189990148", "good_flag": "2", "new_flag": "2", "short_name": "\u751f\u6d3b\u6749\u5fb7\u76d2\u9a6c", "short_name_pinyin": "shenghuoshandehema", "status": null, "address": null, "name": null, "id": "540582603091083264"}, "mid": "888002189990148", "shopId": "540582603091083264", "netid": null, "province": 901, "district": 601, "zipcode": null, "telephone": null, "posDate": null, "destineTel": null, "togoTel": null, "trafficWay": null, "signBuilding": null, "businessArea": null, "selfRoom": null, "businessTime": null, "stall": null, "consume": null, "serviceFei": null, "favourable": null, "shopMemo": null, "appraise": null, "website": null, "memo": null, "payTypes": "\u6749\u5fb7\u5361,", "shopTypes": "\u8d85\u5e02", "consumeTypes": null, "cookTypes": null, "orderNum": null, "card4no": null, "card4noAcc": null, "district2": 405, "searchScope": null, "status": 1, "address": "\u957f\u5bff\u8def189\u5f04-\u8d2d\u7269\u4e2d\u5fc3B2\u5c42\u76d2\u9a6c\u9c9c\u751f", "name": "189\u5e97", "id": 540582609462231040, "pageNo": 0, "pageCount": null, "pageSize": 10, "ids": null, "endTime": null, "startTime": null}, {"cardNumFive": null, "isSupportYj": null, "cityName": null, "districtName": null, "shopinfo": {"mid": "888002189990148", "good_flag": "2", "new_flag": "2", "short_name": "\u751f\u6d3b\u6749\u5fb7\u76d2\u9a6c", "short_name_pinyin": "shenghuoshandehema", "status": null, "address": null, "name": null, "id": "540582603091083264"}, "mid": "888002189990148", "shopId": "540582603091083264", "netid": null, "province": 901, "district": 601, "zipcode": null, "telephone": null, "posDate": null, "destineTel": null, "togoTel": null, "trafficWay": null, "signBuilding": null, "businessArea": null, "selfRoom": null, "businessTime": null, "stall": null, "consume": null, "serviceFei": null, "favourable": null, "shopMemo": null, "appraise": null, "website": null, "memo": null, "payTypes": "\u6749\u5fb7\u5361,", "shopTypes": "\u8d85\u5e02", "consumeTypes": null, "cookTypes": null, "orderNum": null, "card4no": null, "card4noAcc": null, "district2": 411, "searchScope": null, "status": 1, "address": "\u66f9\u5b89\u516c\u8def1688\u53f7-1\u5c42\u76d2\u9a6c\u9c9c\u751f", "name": "\u76c8\u5609\u5e97", "id": 540582609827135488, "pageNo": 0, "pageCount": null, "pageSize": 10, "ids": null, "endTime": null, "startTime": null}, {"cardNumFive": null, "isSupportYj": null, "cityName": null, "districtName": null, "shopinfo": {"mid": "888002189990148", "good_flag": "2", "new_flag": "2", "short_name": "\u751f\u6d3b\u6749\u5fb7\u76d2\u9a6c", "short_name_pinyin": "shenghuoshandehema", "status": null, "address": null, "name": null, "id": "540582603091083264"}, "mid": "888002189990148", "shopId": "540582603091083264", "netid": null, "province": 901, "district": 601, "zipcode": null, "telephone": null, "posDate": null, "destineTel": null, "togoTel": null, "trafficWay": null, "signBuilding": null, "businessArea": null, "selfRoom": null, "businessTime": null, "stall": null, "consume": null, "serviceFei": null, "favourable": null, "shopMemo": null, "appraise": null, "website": null, "memo": null, "payTypes": "\u6749\u5fb7\u5361,", "shopTypes": "\u8d85\u5e02", "consumeTypes": null, "cookTypes": null, "orderNum": null, "card4no": null, "card4noAcc": null, "district2": 418, "searchScope": null, "status": 1, "address": "\u9ad8\u79d1\u4e1c\u8def515\u5f04-\u6052\u751f\u4e07\u9e42\u5546\u4e1a\u5e7f\u573a\u76d2\u9a6c\u9c9c\u751f", "name": "\u6052\u751f\u4e07\u9e4f\u5e97", "id": 540582610183651328, "pageNo": 0, "pageCount": null, "pageSize": 10, "ids": null, "endTime": null, "startTime": null}, {"cardNumFive": null, "isSupportYj": null, "cityName": null, "districtName": null, "shopinfo": {"mid": "888002189990148", "good_flag": "2", "new_flag": "2", "short_name": "\u751f\u6d3b\u6749\u5fb7\u76d2\u9a6c", "short_name_pinyin": "shenghuoshandehema", "status": null, "address": null, "name": null, "id": "540582603091083264"}, "mid": "888002189990148", "shopId": "540582603091083264", "netid": null, "province": 901, "district": 601, "zipcode": null, "telephone": null, "posDate": null, "destineTel": null, "togoTel": null, "trafficWay": null, "signBuilding": null, "businessArea": null, "selfRoom": null, "businessTime": null, "stall": null, "consume": null, "serviceFei": null, "favourable": null, "shopMemo": null, "appraise": null, "website": null, "memo": null, "payTypes": "\u6749\u5fb7\u5361,", "shopTypes": "\u8d85\u5e02", "consumeTypes": null, "cookTypes": null, "orderNum": null, "card4no": null, "card4noAcc": null, "district2": 418, "searchScope": null, "status": 1, "address": "\u6797\u5c55\u8def298\u53f7\u76d2\u9a6c\u9c9c\u751f", "name": "\u61ff\u5fb7\u57ce\u5e97", "id": 540582610531778560, "pageNo": 0, "pageCount": null, "pageSize": 10, "ids": null, "endTime": null, "startTime": null}, {"cardNumFive": null, "isSupportYj": null, "cityName": null, "districtName": null, "shopinfo": {"mid": "888002189990148", "good_flag": "2", "new_flag": "2", "short_name": "\u751f\u6d3b\u6749\u5fb7\u76d2\u9a6c", "short_name_pinyin": "shenghuoshandehema", "status": null, "address": null, "name": null, "id": "540582603091083264"}, "mid": "888002189990148", "shopId": "540582603091083264", "netid": null, "province": 901, "district": 601, "zipcode": null, "telephone": null, "posDate": null, "destineTel": null, "togoTel": null, "trafficWay": null, "signBuilding": null, "businessArea": null, "selfRoom": null, "businessTime": null, "stall": null, "consume": null, "serviceFei": null, "favourable": null, "shopMemo": null, "appraise": null, "website": null, "memo": null, "payTypes": "\u6749\u5fb7\u5361,", "shopTypes": "\u8d85\u5e02", "consumeTypes": null, "cookTypes": null, "orderNum": null, "card4no": null, "card4noAcc": null, "district2": 401, "searchScope": null, "status": 1, "address": "\u6d77\u6f6e\u8def133\u53f7-B1\u5c42\u76d2\u9a6c\u9c9c\u751f", "name": "\u4e2d\u798f\u57ce\u5e97", "id": 540582610896683008, "pageNo": 0, "pageCount": null, "pageSize": 10, "ids": null, "endTime": null, "startTime": null}], "pageLimit": 8350, "size": 10}