{"pageCount": 1095, "count": 10942, "pageNo": 832, "subShopInfo": {"cardNumFive": "", "isSupportYj": "", "cityName": null, "districtName": null, "shopinfo": {"mid": null, "good_flag": null, "new_flag": null, "short_name": null, "short_name_pinyin": null, "status": null, "address": "", "name": "", "id": null}, "mid": null, "shopId": null, "netid": null, "province": 901, "district": null, "zipcode": null, "telephone": null, "posDate": null, "destineTel": null, "togoTel": null, "trafficWay": null, "signBuilding": null, "businessArea": null, "selfRoom": null, "businessTime": null, "stall": null, "consume": null, "serviceFei": null, "favourable": null, "shopMemo": "1", "appraise": null, "website": null, "memo": null, "payTypes": "", "shopTypes": "", "consumeTypes": null, "cookTypes": null, "orderNum": null, "card4no": null, "card4noAcc": null, "district2": null, "searchScope": null, "status": null, "address": "", "name": null, "id": null, "pageNo": 831, "pageCount": null, "pageSize": 10, "ids": null, "endTime": null, "startTime": null}, "list": [{"cardNumFive": null, "isSupportYj": null, "cityName": null, "districtName": null, "shopinfo": {"mid": "888888854410129", "good_flag": "2", "new_flag": "1", "short_name": "\u68ee\u8702\u56ed", "short_name_pinyin": "senfengyuan", "status": null, "address": null, "name": null, "id": "32889"}, "mid": "888888854410129", "shopId": "32889", "netid": null, "province": 901, "district": 601, "zipcode": null, "telephone": null, "posDate": "20100518", "destineTel": null, "togoTel": null, "trafficWay": null, "signBuilding": null, "businessArea": null, "selfRoom": null, "businessTime": null, "stall": null, "consume": null, "serviceFei": null, "favourable": null, "shopMemo": null, "appraise": null, "website": null, "memo": null, "payTypes": "\u6749\u5fb7\u5361", "shopTypes": "\u4e13\u5356", "consumeTypes": null, "cookTypes": null, "orderNum": 1000, "card4no": null, "card4noAcc": null, "district2": 416, "searchScope": null, "status": 1, "address": "\u8574\u5ddd\u516c\u8def1555\u53f72\u697c", "name": "\u68ee\u8702\u56ed \u8574\u5ddd\u516c\u8def\u5e97", "id": 141203, "pageNo": 0, "pageCount": null, "pageSize": 10, "ids": null, "endTime": null, "startTime": null}, {"cardNumFive": null, "isSupportYj": null, "cityName": null, "districtName": null, "shopinfo": {"mid": "888888854410129", "good_flag": "2", "new_flag": "1", "short_name": "\u68ee\u8702\u56ed", "short_name_pinyin": "senfengyuan", "status": null, "address": null, "name": null, "id": "32889"}, "mid": "888888854410129", "shopId": "32889", "netid": null, "province": 901, "district": 601, "zipcode": null, "telephone": null, "posDate": "20081204", "destineTel": null, "togoTel": null, "trafficWay": "\u516c\u4ea4636 \u4e1c\u5ddd\u4e13\u7ebf", "signBuilding": null, "businessArea": null, "selfRoom": null, "businessTime": "08:30~20:30", "stall": null, "consume": null, "serviceFei": null, "favourable": null, "shopMemo": null, "appraise": null, "website": null, "memo": null, "payTypes": "\u6749\u5fb7\u5361", "shopTypes": "\u4e13\u5356", "consumeTypes": null, "cookTypes": null, "orderNum": 1000, "card4no": null, "card4noAcc": null, "district2": 418, "searchScope": null, "status": 1, "address": "\u5f20\u6c5f\u9ad8\u79d1\u4e2d\u8def2860\u53f7", "name": "\u68ee\u8702\u56ed \u5f20\u6c5f\u5bb6\u4e50\u798f\u5e97", "id": 141204, "pageNo": 0, "pageCount": null, "pageSize": 10, "ids": null, "endTime": null, "startTime": null}, {"cardNumFive": null, "isSupportYj": null, "cityName": null, "districtName": null, "shopinfo": {"mid": "888888854410129", "good_flag": "2", "new_flag": "1", "short_name": "\u68ee\u8702\u56ed", "short_name_pinyin": "senfengyuan", "status": null, "address": null, "name": null, "id": "32889"}, "mid": "888888854410129", "shopId": "32889", "netid": null, "province": 901, "district": 601, "zipcode": null, "telephone": null, "posDate": "20081126", "destineTel": null, "togoTel": null, "trafficWay": "\u516c\u4ea4706 562", "signBuilding": null, "businessArea": null, "selfRoom": null, "businessTime": "08:30~20:30", "stall": null, "consume": null, "serviceFei": null, "favourable": null, "shopMemo": null, "appraise": null, "website": null, "memo": null, "payTypes": "\u6749\u5fb7\u5361", "shopTypes": "\u4e13\u5356", "consumeTypes": null, "cookTypes": null, "orderNum": 1000, "card4no": null, "card4noAcc": null, "district2": 405, "searchScope": null, "status": 1, "address": "\u94dc\u5ddd\u8def1688\u53f7\u4e00\u697c1\u697c\u80af\u5fb7\u57fa\u5bf9\u9762", "name": "\u68ee\u8702\u56ed \u771f\u5317\u4e50\u8d2d\u5e97", "id": 141205, "pageNo": 0, "pageCount": null, "pageSize": 10, "ids": null, "endTime": null, "startTime": null}, {"cardNumFive": null, "isSupportYj": null, "cityName": null, "districtName": null, "shopinfo": {"mid": "888888854410129", "good_flag": "2", "new_flag": "1", "short_name": "\u68ee\u8702\u56ed", "short_name_pinyin": "senfengyuan", "status": null, "address": null, "name": null, "id": "32889"}, "mid": "888888854410129", "shopId": "32889", "netid": null, "province": 901, "district": 601, "zipcode": null, "telephone": null, "posDate": "20081126", "destineTel": null, "togoTel": null, "trafficWay": "\u516c\u4ea4947 948 827", "signBuilding": null, "businessArea": null, "selfRoom": null, "businessTime": "08:30~20:30", "stall": null, "consume": null, "serviceFei": null, "favourable": null, "shopMemo": null, "appraise": null, "website": null, "memo": null, "payTypes": "\u6749\u5fb7\u5361", "shopTypes": "\u4e13\u5356", "consumeTypes": null, "cookTypes": null, "orderNum": 1000, "card4no": null, "card4noAcc": null, "district2": 405, "searchScope": null, "status": 1, "address": "\u771f\u5149\u8def1288\u53f7B1\u5c91\u6536\u94f6\u53f0\u8fb9\u4e0a", "name": "\u68ee\u8702\u56ed \u4e2d\u73af\u767e\u8054\u5e97", "id": 141206, "pageNo": 0, "pageCount": null, "pageSize": 10, "ids": null, "endTime": null, "startTime": null}, {"cardNumFive": null, "isSupportYj": null, "cityName": null, "districtName": null, "shopinfo": {"mid": "888888854410129", "good_flag": "2", "new_flag": "1", "short_name": "\u68ee\u8702\u56ed", "short_name_pinyin": "senfengyuan", "status": null, "address": null, "name": null, "id": "32889"}, "mid": "888888854410129", "shopId": "32889", "netid": null, "province": 901, "district": 601, "zipcode": null, "telephone": null, "posDate": "20100621", "destineTel": null, "togoTel": null, "trafficWay": null, "signBuilding": null, "businessArea": null, "selfRoom": null, "businessTime": null, "stall": null, "consume": null, "serviceFei": null, "favourable": null, "shopMemo": null, "appraise": null, "website": null, "memo": null, "payTypes": "\u6749\u5fb7\u5361", "shopTypes": "\u4e13\u5356", "consumeTypes": null, "cookTypes": null, "orderNum": 1000, "card4no": null, "card4noAcc": null, "district2": 403, "searchScope": null, "status": 1, "address": "\u6f15\u6eaa\u5317\u8def737\u5f041\u53f71901\u5ba4", "name": "\u68ee\u8702\u56ed \u603b\u90e8", "id": 141208, "pageNo": 0, "pageCount": null, "pageSize": 10, "ids": null, "endTime": null, "startTime": null}, {"cardNumFive": null, "isSupportYj": null, "cityName": null, "districtName": null, "shopinfo": {"mid": "888888854410129", "good_flag": "2", "new_flag": "1", "short_name": "\u68ee\u8702\u56ed", "short_name_pinyin": "senfengyuan", "status": null, "address": null, "name": null, "id": "32889"}, "mid": "888888854410129", "shopId": "32889", "netid": null, "province": 901, "district": 601, "zipcode": null, "telephone": null, "posDate": null, "destineTel": null, "togoTel": null, "trafficWay": null, "signBuilding": null, "businessArea": null, "selfRoom": null, "businessTime": null, "stall": null, "consume": null, "serviceFei": null, "favourable": null, "shopMemo": null, "appraise": null, "website": null, "memo": null, "payTypes": "\u6749\u5fb7\u5361", "shopTypes": "\u4e13\u5356", "consumeTypes": null, "cookTypes": null, "orderNum": 1000, "card4no": null, "card4noAcc": null, "district2": 418, "searchScope": null, "status": 1, "address": "\u9ad8\u6e05\u8def2671\u53f7", "name": "\u68ee\u8702\u56ed \u65b0\u91cc\u7a0b\u5bb6\u4e50\u798f\u5e97", "id": 171280, "pageNo": 0, "pageCount": null, "pageSize": 10, "ids": null, "endTime": null, "startTime": null}, {"cardNumFive": null, "isSupportYj": null, "cityName": null, "districtName": null, "shopinfo": {"mid": "888888858120715", "good_flag": "2", "new_flag": "2", "short_name": "\u4e0a\u5c9b\u5496\u5561", "short_name_pinyin": "shangdaokafei", "status": null, "address": null, "name": null, "id": "32900"}, "mid": "888888858120715", "shopId": "32900", "netid": null, "province": 901, "district": 601, "zipcode": null, "telephone": "54776286", "posDate": "200908", "destineTel": null, "togoTel": null, "trafficWay": "\u516c\u4ea4506\u3001737", "signBuilding": null, "businessArea": null, "selfRoom": null, "businessTime": null, "stall": null, "consume": null, "serviceFei": null, "favourable": null, "shopMemo": null, "appraise": null, "website": null, "memo": null, "payTypes": "\u6749\u5fb7\u5361", "shopTypes": "\u9910\u996e,\u4f11\u95f2", "consumeTypes": null, "cookTypes": null, "orderNum": 1000, "card4no": null, "card4noAcc": null, "district2": 409, "searchScope": null, "status": 1, "address": "\u53e4\u7f8a\u8def439\u53f7", "name": "\u4e0a\u5c9b\u5496\u5561 \u53e4\u7f8a\u8def\u5e97", "id": 141226, "pageNo": 0, "pageCount": null, "pageSize": 10, "ids": null, "endTime": null, "startTime": null}, {"cardNumFive": null, "isSupportYj": null, "cityName": null, "districtName": null, "shopinfo": {"mid": "888888873990042", "good_flag": "1", "new_flag": "2", "short_name": "\u4e0a\u6d77\u5927\u5267\u9662", "short_name_pinyin": "shanghaidajuyuan", "status": null, "address": null, "name": null, "id": "32909"}, "mid": "888888873990042", "shopId": "32909", "netid": null, "province": 901, "district": 601, "zipcode": null, "telephone": "63271943", "posDate": null, "destineTel": null, "togoTel": null, "trafficWay": "\u5730\u94c11\u30012\u30018\u53f7\u7ebf", "signBuilding": null, "businessArea": null, "selfRoom": null, "businessTime": null, "stall": null, "consume": null, "serviceFei": null, "favourable": null, "shopMemo": null, "appraise": null, "website": null, "memo": null, "payTypes": "\u6749\u5fb7\u5361", "shopTypes": "\u4f11\u95f2", "consumeTypes": null, "cookTypes": null, "orderNum": 1000, "card4no": null, "card4noAcc": null, "district2": 401, "searchScope": null, "status": 1, "address": "\u4eba\u6c11\u5927\u9053300\u53f7\u897f\u7968\u52a1\u4e2d\u5fc3", "name": "\u4e0a\u6d77\u5927\u5267\u9662 \u4eba\u6c11\u5927\u9053\u6f14\u827a\u4e2d\u5fc3", "id": 141241, "pageNo": 0, "pageCount": null, "pageSize": 10, "ids": null, "endTime": null, "startTime": null}, {"cardNumFive": null, "isSupportYj": null, "cityName": null, "districtName": null, "shopinfo": {"mid": "888888879980002", "good_flag": "1", "new_flag": "2", "short_name": "\u4e0a\u6d77\u6d77\u6d0b\u9986", "short_name_pinyin": "shanghaihaiyangguan", "status": null, "address": null, "name": null, "id": "32911"}, "mid": "888888879980002", "shopId": "32911", "netid": null, "province": 901, "district": 601, "zipcode": null, "telephone": "58779988*351", "posDate": "20070719", "destineTel": null, "togoTel": null, "trafficWay": "\u516c\u4ea482 85 119 792 796", "signBuilding": "\u9646\u5bb6\u5634 \u4e1c\u65b9\u660e\u73e0", "businessArea": "2600\u5e73\u65b9\u7c73", "selfRoom": null, "businessTime": "9:00~18:00", "stall": "\u6709", "consume": null, "serviceFei": null, "favourable": null, "shopMemo": null, "appraise": null, "website": null, "memo": null, "payTypes": "\u6749\u5fb7\u5361", "shopTypes": "\u4f11\u95f2", "consumeTypes": null, "cookTypes": null, "orderNum": 1000, "card4no": null, "card4noAcc": null, "district2": 418, "searchScope": null, "status": 1, "address": "\u9646\u5bb6\u5634\u73af\u8def1388\u53f7", "name": "\u4e0a\u6d77\u6d77\u6d0b\u9986 \u9646\u5bb6\u5634\u73af\u8def\u5e97", "id": 141244, "pageNo": 0, "pageCount": null, "pageSize": 10, "ids": null, "endTime": null, "startTime": null}, {"cardNumFive": null, "isSupportYj": null, "cityName": null, "districtName": null, "shopinfo": {"mid": "888888858120320", "good_flag": "2", "new_flag": "2", "short_name": "\u4e0a\u6d77\u7ea2\u623f\u5b50\u897f\u83dc\u9986", "short_name_pinyin": "shanghaihongfangzixicaiguan", "status": null, "address": null, "name": null, "id": "32912"}, "mid": "888888858120320", "shopId": "32912", "netid": null, "province": 901, "district": 601, "zipcode": null, "telephone": "64313293", "posDate": null, "destineTel": null, "togoTel": null, "trafficWay": null, "signBuilding": null, "businessArea": null, "selfRoom": null, "businessTime": null, "stall": null, "consume": null, "serviceFei": null, "favourable": null, "shopMemo": null, "appraise": null, "website": null, "memo": null, "payTypes": ",\u6749\u5fb7\u5361", "shopTypes": "\u9910\u996e", "consumeTypes": null, "cookTypes": null, "orderNum": 1000, "card4no": null, "card4noAcc": null, "district2": 401, "searchScope": null, "status": 1, "address": "\u6dee\u6d77\u4e2d\u8def845\u53f7", "name": "\u4e0a\u6d77\u7ea2\u623f\u5b50\u897f\u83dc\u9986 \u6dee\u6d77\u5e97", "id": 141245, "pageNo": 0, "pageCount": null, "pageSize": 10, "ids": null, "endTime": null, "startTime": null}], "pageLimit": 8310, "size": 10}