{"pageCount": 1095, "count": 10942, "pageNo": 838, "subShopInfo": {"cardNumFive": "", "isSupportYj": "", "cityName": null, "districtName": null, "shopinfo": {"mid": null, "good_flag": null, "new_flag": null, "short_name": null, "short_name_pinyin": null, "status": null, "address": "", "name": "", "id": null}, "mid": null, "shopId": null, "netid": null, "province": 901, "district": null, "zipcode": null, "telephone": null, "posDate": null, "destineTel": null, "togoTel": null, "trafficWay": null, "signBuilding": null, "businessArea": null, "selfRoom": null, "businessTime": null, "stall": null, "consume": null, "serviceFei": null, "favourable": null, "shopMemo": "1", "appraise": null, "website": null, "memo": null, "payTypes": "", "shopTypes": "", "consumeTypes": null, "cookTypes": null, "orderNum": null, "card4no": null, "card4noAcc": null, "district2": null, "searchScope": null, "status": null, "address": "", "name": null, "id": null, "pageNo": 837, "pageCount": null, "pageSize": 10, "ids": null, "endTime": null, "startTime": null}, "list": [{"cardNumFive": null, "isSupportYj": null, "cityName": null, "districtName": null, "shopinfo": {"mid": "888002153310615", "good_flag": null, "new_flag": null, "short_name": "\u4e16\u535a\u4f1a\u610f\u5927\u5229\u4e2d\u5fc3", "short_name_pinyin": "shibohuiyidalizhongxin", "status": null, "address": null, "name": null, "id": "41409"}, "mid": "888002153310615", "shopId": "41409", "netid": null, "province": 901, "district": 601, "zipcode": null, "telephone": null, "posDate": null, "destineTel": null, "togoTel": null, "trafficWay": null, "signBuilding": null, "businessArea": null, "selfRoom": null, "businessTime": null, "stall": null, "consume": null, "serviceFei": null, "favourable": null, "shopMemo": "1", "appraise": null, "website": null, "memo": null, "payTypes": "\u6749\u5fb7\u5361", "shopTypes": "\u4e13\u5356", "consumeTypes": null, "cookTypes": null, "orderNum": 1000, "card4no": null, "card4noAcc": null, "district2": 418, "searchScope": null, "status": 1, "address": "\u535a\u6210\u8def195\u53f7-1\u5ba4", "name": "\u4e16\u535a\u4f1a\u610f\u5927\u5229\u4e2d\u5fc3 \u65d7\u8230\u5e97", "id": 182386, "pageNo": 0, "pageCount": null, "pageSize": 10, "ids": null, "endTime": null, "startTime": null}, {"cardNumFive": null, "isSupportYj": null, "cityName": null, "districtName": null, "shopinfo": {"mid": "888002153111107", "good_flag": "2", "new_flag": "1", "short_name": "\u65f6\u4ee3\u5e7f\u573a", "short_name_pinyin": "shidaiguangchang", "status": null, "address": null, "name": null, "id": "33321"}, "mid": "888002153111107", "shopId": "33321", "netid": null, "province": 901, "district": 601, "zipcode": null, "telephone": "31228766", "posDate": "20100223", "destineTel": null, "togoTel": null, "trafficWay": null, "signBuilding": null, "businessArea": null, "selfRoom": null, "businessTime": null, "stall": null, "consume": null, "serviceFei": null, "favourable": null, "shopMemo": null, "appraise": null, "website": null, "memo": null, "payTypes": "\u6749\u5fb7\u5361", "shopTypes": "\u8d85\u5e02", "consumeTypes": null, "cookTypes": null, "orderNum": 1000, "card4no": null, "card4noAcc": null, "district2": 401, "searchScope": null, "status": 1, "address": "\u4e0a\u6d77\u5e02\u6dee\u6d77\u4e2d\u8def93-99\u53f7", "name": "\u65f6\u4ee3\u5e7f\u573a \u6dee\u6d77\u4e2d\u8def\u5e97", "id": 142284, "pageNo": 0, "pageCount": null, "pageSize": 10, "ids": null, "endTime": null, "startTime": null}, {"cardNumFive": null, "isSupportYj": null, "cityName": null, "districtName": null, "shopinfo": {"mid": "888888850940029", "good_flag": null, "new_flag": null, "short_name": "\u65bd\u534e\u6d1b\u4e16\u5947", "short_name_pinyin": "shihualuoshiqi", "status": null, "address": null, "name": null, "id": "36506"}, "mid": "888888850940029", "shopId": "36506", "netid": null, "province": 901, "district": 601, "zipcode": null, "telephone": null, "posDate": "20100926", "destineTel": null, "togoTel": null, "trafficWay": null, "signBuilding": null, "businessArea": null, "selfRoom": null, "businessTime": null, "stall": null, "consume": null, "serviceFei": null, "favourable": null, "shopMemo": null, "appraise": null, "website": null, "memo": null, "payTypes": "\u6749\u5fb7\u5361", "shopTypes": "\u4e13\u5356", "consumeTypes": null, "cookTypes": null, "orderNum": 1000, "card4no": null, "card4noAcc": null, "district2": 418, "searchScope": null, "status": 1, "address": "\u4e16\u7eaa\u5927\u90538\u53f7\u4e0a\u6d77\u56fd\u91d1\u4e2d\u5fc3D\u5ea7\u5730\u4e0b\u4e00\u5c42LG1-22\u53f7", "name": "\u65bd\u534e\u6d1b\u4e16\u5947 \u56fd\u91d1\u4e2d\u5fc3\u5e97", "id": 151812, "pageNo": 0, "pageCount": null, "pageSize": 10, "ids": null, "endTime": null, "startTime": null}, {"cardNumFive": null, "isSupportYj": null, "cityName": null, "districtName": null, "shopinfo": {"mid": "888888850940029", "good_flag": null, "new_flag": null, "short_name": "\u65bd\u534e\u6d1b\u4e16\u5947", "short_name_pinyin": "shihualuoshiqi", "status": null, "address": null, "name": null, "id": "33311"}, "mid": "888888850940029", "shopId": "33311", "netid": null, "province": 901, "district": 601, "zipcode": null, "telephone": null, "posDate": null, "destineTel": null, "togoTel": null, "trafficWay": null, "signBuilding": null, "businessArea": null, "selfRoom": null, "businessTime": null, "stall": null, "consume": null, "serviceFei": null, "favourable": null, "shopMemo": null, "appraise": null, "website": null, "memo": null, "payTypes": "\u6749\u5fb7\u5361", "shopTypes": "\u4e13\u5356", "consumeTypes": null, "cookTypes": null, "orderNum": 1000, "card4no": null, "card4noAcc": null, "district2": 407, "searchScope": null, "status": 1, "address": "\u6dde\u6caa\u8def1\u53f71\u697c", "name": "\u65bd\u534e\u6d1b\u4e16\u5947 \u5df4\u9ece\u6625\u5929\u4e94\u89d2\u573a\u5e97", "id": 183303, "pageNo": 0, "pageCount": null, "pageSize": 10, "ids": null, "endTime": null, "startTime": null}, {"cardNumFive": null, "isSupportYj": null, "cityName": null, "districtName": null, "shopinfo": {"mid": "888888850940029", "good_flag": null, "new_flag": null, "short_name": "\u65bd\u534e\u6d1b\u4e16\u5947", "short_name_pinyin": "shihualuoshiqi", "status": null, "address": null, "name": null, "id": "33311"}, "mid": "888888850940029", "shopId": "33311", "netid": null, "province": 901, "district": 601, "zipcode": null, "telephone": null, "posDate": null, "destineTel": null, "togoTel": null, "trafficWay": null, "signBuilding": null, "businessArea": null, "selfRoom": null, "businessTime": null, "stall": null, "consume": null, "serviceFei": null, "favourable": null, "shopMemo": null, "appraise": null, "website": null, "memo": null, "payTypes": "\u6749\u5fb7\u5361", "shopTypes": "\u4e13\u5356", "consumeTypes": null, "cookTypes": null, "orderNum": 1000, "card4no": null, "card4noAcc": null, "district2": 410, "searchScope": null, "status": 1, "address": "\u5171\u548c\u65b0\u8def1978\u53f7101B\u5ba4", "name": "\u65bd\u534e\u6d1b\u4e16\u5947 \u5927\u5b81\u56fd\u9645\u5e97", "id": 183304, "pageNo": 0, "pageCount": null, "pageSize": 10, "ids": null, "endTime": null, "startTime": null}, {"cardNumFive": null, "isSupportYj": null, "cityName": null, "districtName": null, "shopinfo": {"mid": "888002159440015", "good_flag": null, "new_flag": null, "short_name": "\u65f6\u95f4\u5eca", "short_name_pinyin": "shijianlang", "status": null, "address": null, "name": null, "id": "39652"}, "mid": "888002159440015", "shopId": "39652", "netid": null, "province": 901, "district": 601, "zipcode": null, "telephone": "33767533", "posDate": null, "destineTel": null, "togoTel": null, "trafficWay": null, "signBuilding": null, "businessArea": null, "selfRoom": null, "businessTime": null, "stall": null, "consume": null, "serviceFei": null, "favourable": null, "shopMemo": null, "appraise": null, "website": null, "memo": null, "payTypes": "\u6749\u5fb7\u5361", "shopTypes": "\u96f6\u552e", "consumeTypes": null, "cookTypes": null, "orderNum": 1000, "card4no": null, "card4noAcc": null, "district2": 401, "searchScope": null, "status": 1, "address": "\u897f\u85cf\u4e2d\u8def268\u53f72\u697c", "name": "\u65f6\u95f4\u5eca \u6765\u798f\u58eb\u5e97", "id": 170043, "pageNo": 0, "pageCount": null, "pageSize": 10, "ids": null, "endTime": null, "startTime": null}, {"cardNumFive": null, "isSupportYj": null, "cityName": null, "districtName": null, "shopinfo": {"mid": "888888859120124", "good_flag": "2", "new_flag": "2", "short_name": "\u5e02\u6c11\u5927\u836f\u623f", "short_name_pinyin": "shimindayaofang", "status": null, "address": null, "name": null, "id": "33336"}, "mid": "888888859120124", "shopId": "33336", "netid": null, "province": 901, "district": 601, "zipcode": null, "telephone": "65448286*807", "posDate": "20080804", "destineTel": null, "togoTel": null, "trafficWay": "\u516c\u4ea4528 167", "signBuilding": null, "businessArea": null, "selfRoom": null, "businessTime": null, "stall": null, "consume": null, "serviceFei": null, "favourable": null, "shopMemo": null, "appraise": null, "website": null, "memo": null, "payTypes": "\u6749\u5fb7\u5361", "shopTypes": "\u836f\u5e97", "consumeTypes": null, "cookTypes": null, "orderNum": 1000, "card4no": null, "card4noAcc": null, "district2": 407, "searchScope": null, "status": 1, "address": "\u90af\u90f8\u8def50\u53f7", "name": "\u5e02\u6c11\u5927\u836f\u623f \u90af\u90f8\u8def\u5e97", "id": 142311, "pageNo": 0, "pageCount": null, "pageSize": 10, "ids": null, "endTime": null, "startTime": null}, {"cardNumFive": null, "isSupportYj": null, "cityName": null, "districtName": null, "shopinfo": {"mid": "888888872980077", "good_flag": "2", "new_flag": "1", "short_name": "\u8bd7\u6ce5SPA", "short_name_pinyin": "shinihuisuo", "status": null, "address": null, "name": null, "id": "33308"}, "mid": "888888872980077", "shopId": "33308", "netid": null, "province": 901, "district": 601, "zipcode": null, "telephone": null, "posDate": "20100118", "destineTel": null, "togoTel": null, "trafficWay": null, "signBuilding": null, "businessArea": null, "selfRoom": null, "businessTime": null, "stall": null, "consume": null, "serviceFei": null, "favourable": null, "shopMemo": null, "appraise": null, "website": null, "memo": null, "payTypes": "\u6749\u5fb7\u5361", "shopTypes": "\u7f8e\u5bb9\u7f8e\u53d1", "consumeTypes": null, "cookTypes": null, "orderNum": 1000, "card4no": null, "card4noAcc": null, "district2": 405, "searchScope": null, "status": 1, "address": "\u957f\u5bff\u8def155\u53f7504", "name": "\u8bd7\u6ce5SPA \u957f\u5bff\u8def\u5e97", "id": 142262, "pageNo": 0, "pageCount": null, "pageSize": 10, "ids": null, "endTime": null, "startTime": null}, {"cardNumFive": null, "isSupportYj": null, "cityName": null, "districtName": null, "shopinfo": {"mid": "888888872980077", "good_flag": "2", "new_flag": "1", "short_name": "\u8bd7\u6ce5SPA", "short_name_pinyin": "shinihuisuo", "status": null, "address": null, "name": null, "id": "33308"}, "mid": "888888872980077", "shopId": "33308", "netid": null, "province": 901, "district": 601, "zipcode": null, "telephone": null, "posDate": null, "destineTel": null, "togoTel": null, "trafficWay": null, "signBuilding": null, "businessArea": null, "selfRoom": null, "businessTime": null, "stall": null, "consume": null, "serviceFei": null, "favourable": null, "shopMemo": null, "appraise": null, "website": null, "memo": null, "payTypes": "\u6749\u5fb7\u5361", "shopTypes": "\u7f8e\u5bb9\u7f8e\u53d1", "consumeTypes": null, "cookTypes": null, "orderNum": 1000, "card4no": null, "card4noAcc": null, "district2": 406, "searchScope": null, "status": 1, "address": "\u9ec4\u91d1\u57ce\u9053631\u53f7", "name": "\u8bd7\u6ce5SPA \u9ec4\u91d1\u57ce\u9053\u5e97", "id": 142263, "pageNo": 0, "pageCount": null, "pageSize": 10, "ids": null, "endTime": null, "startTime": null}, {"cardNumFive": null, "isSupportYj": null, "cityName": null, "districtName": null, "shopinfo": {"mid": "888888872980077", "good_flag": "2", "new_flag": "1", "short_name": "\u8bd7\u6ce5SPA", "short_name_pinyin": "shinihuisuo", "status": null, "address": null, "name": null, "id": "33308"}, "mid": "888888872980077", "shopId": "33308", "netid": null, "province": 901, "district": 601, "zipcode": null, "telephone": null, "posDate": "20100118", "destineTel": null, "togoTel": null, "trafficWay": null, "signBuilding": null, "businessArea": null, "selfRoom": null, "businessTime": null, "stall": null, "consume": null, "serviceFei": null, "favourable": null, "shopMemo": null, "appraise": null, "website": null, "memo": null, "payTypes": "\u6749\u5fb7\u5361", "shopTypes": "\u7f8e\u5bb9\u7f8e\u53d1", "consumeTypes": null, "cookTypes": null, "orderNum": 1000, "card4no": null, "card4noAcc": null, "district2": 404, "searchScope": null, "status": 1, "address": "\u5357\u4eac\u897f\u8def818\u53f7408", "name": "\u8bd7\u6ce5SPA \u5357\u4eac\u897f\u8def\u5e97", "id": 142266, "pageNo": 0, "pageCount": null, "pageSize": 10, "ids": null, "endTime": null, "startTime": null}], "pageLimit": 8370, "size": 10}