{"pageCount": 1095, "count": 10942, "pageNo": 839, "subShopInfo": {"cardNumFive": "", "isSupportYj": "", "cityName": null, "districtName": null, "shopinfo": {"mid": null, "good_flag": null, "new_flag": null, "short_name": null, "short_name_pinyin": null, "status": null, "address": "", "name": "", "id": null}, "mid": null, "shopId": null, "netid": null, "province": 901, "district": null, "zipcode": null, "telephone": null, "posDate": null, "destineTel": null, "togoTel": null, "trafficWay": null, "signBuilding": null, "businessArea": null, "selfRoom": null, "businessTime": null, "stall": null, "consume": null, "serviceFei": null, "favourable": null, "shopMemo": "1", "appraise": null, "website": null, "memo": null, "payTypes": "", "shopTypes": "", "consumeTypes": null, "cookTypes": null, "orderNum": null, "card4no": null, "card4noAcc": null, "district2": null, "searchScope": null, "status": null, "address": "", "name": null, "id": null, "pageNo": 838, "pageCount": null, "pageSize": 10, "ids": null, "endTime": null, "startTime": null}, "list": [{"cardNumFive": null, "isSupportYj": null, "cityName": null, "districtName": null, "shopinfo": {"mid": "888888872980024", "good_flag": "2", "new_flag": "2", "short_name": "\u8bd7\u6ce5SPA", "short_name_pinyin": "shinispa", "status": null, "address": null, "name": null, "id": "33309"}, "mid": "888888872980024", "shopId": "33309", "netid": null, "province": 901, "district": 601, "zipcode": null, "telephone": null, "posDate": "20090202", "destineTel": null, "togoTel": null, "trafficWay": "\u516c\u4ea4987 \u96a7\u9053\u56db\u7ebf 983", "signBuilding": null, "businessArea": null, "selfRoom": null, "businessTime": null, "stall": null, "consume": null, "serviceFei": null, "favourable": null, "shopMemo": null, "appraise": null, "website": null, "memo": null, "payTypes": "\u6749\u5fb7\u5361", "shopTypes": "\u7f8e\u5bb9\u7f8e\u53d1", "consumeTypes": null, "cookTypes": null, "orderNum": 1000, "card4no": null, "card4noAcc": null, "district2": 418, "searchScope": null, "status": 1, "address": "\u82b3\u7538\u8def300\u53f7\u8054\u6d0b\u5e7f\u573a3\u697c", "name": "\u8bd7\u6ce5SPA \u8054\u6d0b\u5e7f\u573a\u5e97", "id": 142264, "pageNo": 0, "pageCount": null, "pageSize": 10, "ids": null, "endTime": null, "startTime": null}, {"cardNumFive": null, "isSupportYj": null, "cityName": null, "districtName": null, "shopinfo": {"mid": "888888854410109", "good_flag": null, "new_flag": null, "short_name": "\u98df\u54c1\u4e8c\u5e97", "short_name_pinyin": "shipinerdian", "status": null, "address": null, "name": null, "id": "33325"}, "mid": "888888854410109", "shopId": "33325", "netid": null, "province": 901, "district": 601, "zipcode": null, "telephone": "64363620", "posDate": "20080808", "destineTel": null, "togoTel": null, "trafficWay": "\u516c\u4ea493 89 166", "signBuilding": null, "businessArea": null, "selfRoom": null, "businessTime": "10:00~22:00", "stall": "\u6709", "consume": null, "serviceFei": null, "favourable": null, "shopMemo": null, "appraise": null, "website": null, "memo": null, "payTypes": "\u6749\u5fb7\u5361", "shopTypes": "\u767e\u8d27", "consumeTypes": null, "cookTypes": null, "orderNum": 1000, "card4no": null, "card4noAcc": null, "district2": 403, "searchScope": null, "status": 1, "address": "\u7530\u6797\u8def80\u53f7", "name": "\u98df\u54c1\u4e8c\u5e97 \u4e91\u96fe\u5e97", "id": 142291, "pageNo": 0, "pageCount": null, "pageSize": 10, "ids": null, "endTime": null, "startTime": null}, {"cardNumFive": null, "isSupportYj": null, "cityName": null, "districtName": null, "shopinfo": {"mid": "888888854410109", "good_flag": null, "new_flag": null, "short_name": "\u98df\u54c1\u4e8c\u5e97", "short_name_pinyin": "shipinerdian", "status": null, "address": null, "name": null, "id": "33325"}, "mid": "888888854410109", "shopId": "33325", "netid": null, "province": 901, "district": 601, "zipcode": null, "telephone": null, "posDate": null, "destineTel": null, "togoTel": null, "trafficWay": null, "signBuilding": null, "businessArea": null, "selfRoom": null, "businessTime": null, "stall": null, "consume": null, "serviceFei": null, "favourable": null, "shopMemo": null, "appraise": null, "website": null, "memo": null, "payTypes": "\u6749\u5fb7\u5361", "shopTypes": "\u767e\u8d27", "consumeTypes": null, "cookTypes": null, "orderNum": 1000, "card4no": null, "card4noAcc": null, "district2": 401, "searchScope": null, "status": 1, "address": "\u6dee\u6d77\u4e2d\u8def994-996\u53f7", "name": "\u98df\u54c1\u4e8c\u5e97 \u6dee\u6d77\u5e97", "id": 177628, "pageNo": 0, "pageCount": null, "pageSize": 10, "ids": null, "endTime": null, "startTime": null}, {"cardNumFive": null, "isSupportYj": null, "cityName": null, "districtName": null, "shopinfo": {"mid": "888888854410030", "good_flag": "2", "new_flag": "1", "short_name": "\u98df\u54c1\u4e00\u5e97", "short_name_pinyin": "shipinyidian", "status": null, "address": null, "name": null, "id": "33326"}, "mid": "888888854410030", "shopId": "33326", "netid": null, "province": 901, "district": 601, "zipcode": null, "telephone": null, "posDate": "20100622", "destineTel": null, "togoTel": null, "trafficWay": null, "signBuilding": null, "businessArea": null, "selfRoom": null, "businessTime": null, "stall": null, "consume": null, "serviceFei": null, "favourable": null, "shopMemo": null, "appraise": null, "website": null, "memo": null, "payTypes": "\u6749\u5fb7\u5361", "shopTypes": "\u96f6\u552e", "consumeTypes": null, "cookTypes": null, "orderNum": 1000, "card4no": null, "card4noAcc": null, "district2": 401, "searchScope": null, "status": 1, "address": "\u5357\u4eac\u4e1c\u8def720\u53f7", "name": "\u98df\u54c1\u4e00\u5e97 \u5357\u4eac\u4e1c\u8def\u5e97", "id": 142292, "pageNo": 0, "pageCount": null, "pageSize": 10, "ids": null, "endTime": null, "startTime": null}, {"cardNumFive": null, "isSupportYj": null, "cityName": null, "districtName": null, "shopinfo": {"mid": "888888859470025", "good_flag": "2", "new_flag": "2", "short_name": "\u77f3\u5934\u8bb0", "short_name_pinyin": "shitouji", "status": null, "address": null, "name": null, "id": "33319"}, "mid": "888888859470025", "shopId": "33319", "netid": null, "province": 901, "district": 601, "zipcode": null, "telephone": "69615718", "posDate": "20081211", "destineTel": null, "togoTel": null, "trafficWay": "\u516c\u4ea4\u5357\u4e30\u7ebf \u5357\u6d77\u7ebf", "signBuilding": null, "businessArea": null, "selfRoom": null, "businessTime": "10:00~18:00", "stall": null, "consume": null, "serviceFei": null, "favourable": null, "shopMemo": null, "appraise": null, "website": null, "memo": null, "payTypes": "\u6749\u5fb7\u5361", "shopTypes": "\u4e13\u5356", "consumeTypes": null, "cookTypes": null, "orderNum": 1000, "card4no": null, "card4noAcc": null, "district2": 415, "searchScope": null, "status": 1, "address": "\u516b\u4e00\u8def393\u53f7", "name": "\u77f3\u5934\u8bb0 \u516b\u4e00\u8def\u5e97", "id": 142282, "pageNo": 0, "pageCount": null, "pageSize": 10, "ids": null, "endTime": null, "startTime": null}, {"cardNumFive": null, "isSupportYj": null, "cityName": null, "districtName": null, "shopinfo": {"mid": "888888858120274", "good_flag": "2", "new_flag": "2", "short_name": "\u8700\u56fd\u5ddd\u83dc", "short_name_pinyin": "shuguochuancai", "status": null, "address": null, "name": null, "id": "33358"}, "mid": "888888858120274", "shopId": "33358", "netid": null, "province": 901, "district": 601, "zipcode": null, "telephone": "65555036", "posDate": "20080109", "destineTel": null, "togoTel": null, "trafficWay": "\u65c5\u6e3810\u53f7\u7ebf \u516c\u4ea4933 848", "signBuilding": null, "businessArea": "500\u5e73\u65b9\u7c73\u4ee5\u4e0a", "selfRoom": null, "businessTime": "11:00~23:00", "stall": null, "consume": null, "serviceFei": null, "favourable": null, "shopMemo": null, "appraise": null, "website": null, "memo": null, "payTypes": "\u6749\u5fb7\u5361", "shopTypes": "\u9910\u996e", "consumeTypes": "\u5bb6\u4eba\u56e2\u805a \u597d\u53cb\u5c0f\u805a \u5546\u52a1\u5bb4\u8bf7", "cookTypes": "\u5ddd\u83dc", "orderNum": 1000, "card4no": null, "card4noAcc": null, "district2": 408, "searchScope": null, "status": 1, "address": "\u4f0a\u654f\u6cb3\u8def32\u53f7", "name": "\u8700\u56fd\u5ddd\u83dc \u4f0a\u654f\u6cb3\u8def\u5e97", "id": 142342, "pageNo": 0, "pageCount": null, "pageSize": 10, "ids": null, "endTime": null, "startTime": null}, {"cardNumFive": null, "isSupportYj": null, "cityName": null, "districtName": null, "shopinfo": {"mid": "888002154411171", "good_flag": "2", "new_flag": "1", "short_name": "\u85af\u6765\u85af\u8da3", "short_name_pinyin": "shulaishuqu", "status": null, "address": null, "name": null, "id": "33360"}, "mid": "888002154411171", "shopId": "33360", "netid": null, "province": 901, "district": 601, "zipcode": null, "telephone": null, "posDate": "20100625", "destineTel": null, "togoTel": null, "trafficWay": null, "signBuilding": null, "businessArea": null, "selfRoom": null, "businessTime": null, "stall": null, "consume": null, "serviceFei": null, "favourable": null, "shopMemo": null, "appraise": null, "website": null, "memo": null, "payTypes": "\u6749\u5fb7\u5361", "shopTypes": "\u96f6\u552e", "consumeTypes": null, "cookTypes": null, "orderNum": 1000, "card4no": null, "card4noAcc": null, "district2": 418, "searchScope": null, "status": 1, "address": "\u535a\u5c71\u4e1c\u8def78\u53f7\u4e00\u697c", "name": "\u85af\u6765\u85af\u8da3 \u535a\u5c71\u4e1c\u8def\u5e97", "id": 142344, "pageNo": 0, "pageCount": null, "pageSize": 10, "ids": null, "endTime": null, "startTime": null}, {"cardNumFive": null, "isSupportYj": null, "cityName": null, "districtName": null, "shopinfo": {"mid": "888002159490001", "good_flag": "1", "new_flag": "1", "short_name": "\u8212\u7f8e\u5bb6\u9970", "short_name_pinyin": "shumeijiashi", "status": null, "address": null, "name": null, "id": "33341"}, "mid": "888002159490001", "shopId": "33341", "netid": null, "province": 901, "district": 601, "zipcode": null, "telephone": "39541483", "posDate": "200911", "destineTel": null, "togoTel": null, "trafficWay": null, "signBuilding": null, "businessArea": null, "selfRoom": null, "businessTime": null, "stall": null, "consume": null, "serviceFei": null, "favourable": null, "shopMemo": null, "appraise": null, "website": null, "memo": null, "payTypes": "\u6749\u5fb7\u5361", "shopTypes": "\u96f6\u552e", "consumeTypes": null, "cookTypes": null, "orderNum": 1000, "card4no": null, "card4noAcc": null, "district2": 411, "searchScope": null, "status": 1, "address": "\u5b89\u4ead\u9547\u65b0\u6e90\u8def772\u53f7", "name": "\u8212\u7f8e\u5bb6\u9970 \u5b89\u4ead\u5e97", "id": 142317, "pageNo": 0, "pageCount": null, "pageSize": 10, "ids": null, "endTime": null, "startTime": null}, {"cardNumFive": null, "isSupportYj": null, "cityName": null, "districtName": null, "shopinfo": {"mid": "888888857190016", "good_flag": "2", "new_flag": "2", "short_name": "\u8212\u7f8e\u5bb6\u9970", "short_name_pinyin": "shumeijiashi", "status": null, "address": null, "name": null, "id": "33342"}, "mid": "888888857190016", "shopId": "33342", "netid": null, "province": 901, "district": 601, "zipcode": null, "telephone": "57972893", "posDate": "20080115", "destineTel": null, "togoTel": null, "trafficWay": "\u77f3\u6885\u7ebf \u5916\u536b\u7ebf", "signBuilding": null, "businessArea": null, "selfRoom": null, "businessTime": null, "stall": "\u6709", "consume": null, "serviceFei": null, "favourable": null, "shopMemo": null, "appraise": null, "website": null, "memo": null, "payTypes": "\u6749\u5fb7\u5361", "shopTypes": "\u96f6\u552e", "consumeTypes": null, "cookTypes": null, "orderNum": 1000, "card4no": null, "card4noAcc": null, "district2": 414, "searchScope": null, "status": 1, "address": "\u8499\u5c71\u8def932\u53f7", "name": "\u8212\u7f8e\u5bb6\u9970 \u91d1\u5c71\u5e97", "id": 142318, "pageNo": 0, "pageCount": null, "pageSize": 10, "ids": null, "endTime": null, "startTime": null}, {"cardNumFive": null, "isSupportYj": null, "cityName": null, "districtName": null, "shopinfo": {"mid": "888888857190016", "good_flag": "2", "new_flag": "2", "short_name": "\u8212\u7f8e\u5bb6\u9970", "short_name_pinyin": "shumeijiashi", "status": null, "address": null, "name": null, "id": "33342"}, "mid": "888888857190016", "shopId": "33342", "netid": null, "province": 901, "district": 601, "zipcode": null, "telephone": "64620980", "posDate": "20080115", "destineTel": null, "togoTel": null, "trafficWay": "\u5f90\u95f5\u7ebf \u4e1c\u576a\u7ebf \u7533\u95f5\u7ebf", "signBuilding": null, "businessArea": null, "selfRoom": null, "businessTime": null, "stall": "\u6709", "consume": null, "serviceFei": null, "favourable": null, "shopMemo": null, "appraise": null, "website": null, "memo": null, "payTypes": "\u6749\u5fb7\u5361", "shopTypes": "\u96f6\u552e", "consumeTypes": null, "cookTypes": null, "orderNum": 1000, "card4no": null, "card4noAcc": null, "district2": 409, "searchScope": null, "status": 1, "address": "\u9e64\u5e86\u8def309\u53f7-315\u53f7", "name": "\u8212\u7f8e\u5bb6\u9970 \u95f5\u884c\u5e97", "id": 142319, "pageNo": 0, "pageCount": null, "pageSize": 10, "ids": null, "endTime": null, "startTime": null}], "pageLimit": 8380, "size": 10}