{"pageCount": 1095, "count": 10942, "pageNo": 834, "subShopInfo": {"cardNumFive": "", "isSupportYj": "", "cityName": null, "districtName": null, "shopinfo": {"mid": null, "good_flag": null, "new_flag": null, "short_name": null, "short_name_pinyin": null, "status": null, "address": "", "name": "", "id": null}, "mid": null, "shopId": null, "netid": null, "province": 901, "district": null, "zipcode": null, "telephone": null, "posDate": null, "destineTel": null, "togoTel": null, "trafficWay": null, "signBuilding": null, "businessArea": null, "selfRoom": null, "businessTime": null, "stall": null, "consume": null, "serviceFei": null, "favourable": null, "shopMemo": "1", "appraise": null, "website": null, "memo": null, "payTypes": "", "shopTypes": "", "consumeTypes": null, "cookTypes": null, "orderNum": null, "card4no": null, "card4noAcc": null, "district2": null, "searchScope": null, "status": null, "address": "", "name": null, "id": null, "pageNo": 833, "pageCount": null, "pageSize": 10, "ids": null, "endTime": null, "startTime": null}, "list": [{"cardNumFive": null, "isSupportYj": null, "cityName": null, "districtName": null, "shopinfo": {"mid": "888002153311139", "good_flag": "2", "new_flag": "2", "short_name": "\u4e0a\u852c\u6c38\u8f89", "short_name_pinyin": "shangshuyonghui", "status": null, "address": null, "name": null, "id": "503957921650966528"}, "mid": "888002153311139", "shopId": "503957921650966528", "netid": null, "province": 901, "district": 601, "zipcode": null, "telephone": null, "posDate": null, "destineTel": null, "togoTel": null, "trafficWay": null, "signBuilding": null, "businessArea": null, "selfRoom": null, "businessTime": null, "stall": null, "consume": null, "serviceFei": null, "favourable": null, "shopMemo": null, "appraise": null, "website": null, "memo": null, "payTypes": "", "shopTypes": null, "consumeTypes": null, "cookTypes": null, "orderNum": null, "card4no": null, "card4noAcc": null, "district2": 405, "searchScope": null, "status": 1, "address": "\u91d1\u6c99\u6c5f\u8def2239\u5f041\u53f7", "name": "\u91d1\u6c99\u6c5f\u8def\u5e97", "id": 503957920308789248, "pageNo": 0, "pageCount": null, "pageSize": 10, "ids": null, "endTime": null, "startTime": null}, {"cardNumFive": null, "isSupportYj": null, "cityName": null, "districtName": null, "shopinfo": {"mid": "888002153310776", "good_flag": "2", "new_flag": "2", "short_name": "\u5c1a\u4f18\u739b\u7279", "short_name_pinyin": "shangyoumate", "status": null, "address": null, "name": null, "id": "503957917595074560"}, "mid": "888002153310776", "shopId": "503957917595074560", "netid": null, "province": 901, "district": 601, "zipcode": null, "telephone": null, "posDate": null, "destineTel": null, "togoTel": null, "trafficWay": null, "signBuilding": null, "businessArea": null, "selfRoom": null, "businessTime": null, "stall": null, "consume": null, "serviceFei": null, "favourable": null, "shopMemo": null, "appraise": null, "website": null, "memo": null, "payTypes": "", "shopTypes": null, "consumeTypes": null, "cookTypes": null, "orderNum": null, "card4no": null, "card4noAcc": null, "district2": 403, "searchScope": null, "status": 1, "address": "\u534e\u53d1\u8def272\u53f7", "name": "\u5c1a\u4f18\u739b\u7279", "id": 503957916252897280, "pageNo": 0, "pageCount": null, "pageSize": 10, "ids": null, "endTime": null, "startTime": null}, {"cardNumFive": null, "isSupportYj": null, "cityName": null, "districtName": null, "shopinfo": {"mid": "888002154110645", "good_flag": null, "new_flag": null, "short_name": "\u5c71\u59c6\u4f1a\u5458\u5e97", "short_name_pinyin": "shanmuhuiyuandian", "status": null, "address": null, "name": null, "id": "42385"}, "mid": "888002154110645", "shopId": "42385", "netid": null, "province": 901, "district": 601, "zipcode": null, "telephone": null, "posDate": null, "destineTel": null, "togoTel": null, "trafficWay": null, "signBuilding": null, "businessArea": null, "selfRoom": null, "businessTime": null, "stall": null, "consume": null, "serviceFei": null, "favourable": null, "shopMemo": null, "appraise": null, "website": null, "memo": null, "payTypes": "\u6749\u5fb7\u5361", "shopTypes": "\u8d85\u5e02", "consumeTypes": null, "cookTypes": null, "orderNum": 1000, "card4no": null, "card4noAcc": null, "district2": 418, "searchScope": null, "status": 1, "address": "\u4e0a\u6d77\u5e02\u6d66\u4e1c\u65b0\u533a\u9ad8\u79d1\u897f\u8def2110\u53f7\u7531\u7531\u5546\u8d38\u4e2d\u5fc3\u5730\u4e0a\u7b2c\u4e00\u3001\u4e8c\u3001\u4e09\u5c42", "name": "\u5c71\u59c6\u4f1a\u5458\u5e97 \u4e0a\u6d77\u6d66\u4e1c\u9ad8\u79d1\u897f\u8def\u5c71\u59c6\u4f1a\u5458\u5546\u5e97(4807)", "id": 189011, "pageNo": 0, "pageCount": null, "pageSize": 10, "ids": null, "endTime": null, "startTime": null}, {"cardNumFive": null, "isSupportYj": null, "cityName": null, "districtName": null, "shopinfo": {"mid": "888888854410122", "good_flag": "2", "new_flag": "2", "short_name": "\u5c71\u7530\u8702\u4e1a", "short_name_pinyin": "shantianfengye", "status": null, "address": null, "name": null, "id": "32894"}, "mid": "888888854410122", "shopId": "32894", "netid": null, "province": 901, "district": 601, "zipcode": null, "telephone": "53068983", "posDate": "20081023", "destineTel": null, "togoTel": null, "trafficWay": "\u516c\u4ea424 864 \u5730\u94c1\u4e00\u53f7\u7ebf", "signBuilding": null, "businessArea": "100", "selfRoom": null, "businessTime": "08:30~20:30", "stall": "\u65e0", "consume": null, "serviceFei": null, "favourable": null, "shopMemo": null, "appraise": null, "website": null, "memo": null, "payTypes": "\u6749\u5fb7\u5361", "shopTypes": "\u4e13\u5356", "consumeTypes": null, "cookTypes": null, "orderNum": 1000, "card4no": null, "card4noAcc": null, "district2": 401, "searchScope": null, "status": 1, "address": "\u745e\u91d1\u4e8c\u8def99\u53f71\u30012\u5c42", "name": "\u5c71\u7530\u8702\u4e1a \u745e\u91d1\u4e8c\u8def\u5e97", "id": 141220, "pageNo": 0, "pageCount": null, "pageSize": 10, "ids": null, "endTime": null, "startTime": null}, {"cardNumFive": null, "isSupportYj": null, "cityName": null, "districtName": null, "shopinfo": {"mid": "888888859770004", "good_flag": null, "new_flag": null, "short_name": "\u838e\u838e", "short_name_pinyin": "shasha", "status": null, "address": null, "name": null, "id": "41534"}, "mid": "888888859770004", "shopId": "41534", "netid": null, "province": 901, "district": 601, "zipcode": null, "telephone": null, "posDate": null, "destineTel": null, "togoTel": null, "trafficWay": null, "signBuilding": null, "businessArea": null, "selfRoom": null, "businessTime": null, "stall": null, "consume": null, "serviceFei": null, "favourable": null, "shopMemo": null, "appraise": null, "website": null, "memo": null, "payTypes": "\u6749\u5fb7\u5361", "shopTypes": "\u4e13\u5356", "consumeTypes": null, "cookTypes": null, "orderNum": 1000, "card4no": null, "card4noAcc": null, "district2": 418, "searchScope": null, "status": 1, "address": "\u82b1\u6728\u8def1378\u53f7", "name": "\u838e\u838e \u5609\u91cc\u57ce\u5e97", "id": 183265, "pageNo": 0, "pageCount": null, "pageSize": 10, "ids": null, "endTime": null, "startTime": null}, {"cardNumFive": null, "isSupportYj": null, "cityName": null, "districtName": null, "shopinfo": {"mid": "888002189990148", "good_flag": "2", "new_flag": "2", "short_name": "\u751f\u6d3b\u6749\u5fb7\u76d2\u9a6c", "short_name_pinyin": "shenghuoshandehema", "status": null, "address": null, "name": null, "id": "540582603091083264"}, "mid": "888002189990148", "shopId": "540582603091083264", "netid": null, "province": 901, "district": 601, "zipcode": null, "telephone": null, "posDate": null, "destineTel": null, "togoTel": null, "trafficWay": null, "signBuilding": null, "businessArea": null, "selfRoom": null, "businessTime": null, "stall": null, "consume": null, "serviceFei": null, "favourable": null, "shopMemo": null, "appraise": null, "website": null, "memo": null, "payTypes": "\u6749\u5fb7\u5361,", "shopTypes": "\u8d85\u5e02", "consumeTypes": null, "cookTypes": null, "orderNum": null, "card4no": null, "card4noAcc": null, "district2": 418, "searchScope": null, "status": 1, "address": "\u5f20\u6768\u8def3611\u53f7-\u91d1\u6865\u56fd\u9645\u5546\u4e1a\u5e7f\u573a1\u5ea7B1\u5c42\u76d2\u9a6c\u9c9c\u751f", "name": "\u91d1\u6865\u5e97", "id": 540582601136537600, "pageNo": 0, "pageCount": null, "pageSize": 10, "ids": null, "endTime": null, "startTime": null}, {"cardNumFive": null, "isSupportYj": null, "cityName": null, "districtName": null, "shopinfo": {"mid": "888002189990148", "good_flag": "2", "new_flag": "2", "short_name": "\u751f\u6d3b\u6749\u5fb7\u76d2\u9a6c", "short_name_pinyin": "shenghuoshandehema", "status": null, "address": null, "name": null, "id": "540582603091083264"}, "mid": "888002189990148", "shopId": "540582603091083264", "netid": null, "province": 901, "district": 601, "zipcode": null, "telephone": null, "posDate": null, "destineTel": null, "togoTel": null, "trafficWay": null, "signBuilding": null, "businessArea": null, "selfRoom": null, "businessTime": null, "stall": null, "consume": null, "serviceFei": null, "favourable": null, "shopMemo": null, "appraise": null, "website": null, "memo": null, "payTypes": "\u6749\u5fb7\u5361,", "shopTypes": "\u8d85\u5e02", "consumeTypes": null, "cookTypes": null, "orderNum": null, "card4no": null, "card4noAcc": null, "district2": 404, "searchScope": null, "status": 1, "address": "\u4e07\u8363\u8def777\u53f7-\u5927\u5b81\u97f3\u4e50\u5e7f\u573aB1\u5c42\u76d2\u9a6c\u9c9c\u751f", "name": "\u5927\u5b81\u5e97", "id": 540582602000564224, "pageNo": 0, "pageCount": null, "pageSize": 10, "ids": null, "endTime": null, "startTime": null}, {"cardNumFive": null, "isSupportYj": null, "cityName": null, "districtName": null, "shopinfo": {"mid": "888002189990148", "good_flag": "2", "new_flag": "2", "short_name": "\u751f\u6d3b\u6749\u5fb7\u76d2\u9a6c", "short_name_pinyin": "shenghuoshandehema", "status": null, "address": null, "name": null, "id": "540582603091083264"}, "mid": "888002189990148", "shopId": "540582603091083264", "netid": null, "province": 901, "district": 601, "zipcode": null, "telephone": null, "posDate": null, "destineTel": null, "togoTel": null, "trafficWay": null, "signBuilding": null, "businessArea": null, "selfRoom": null, "businessTime": null, "stall": null, "consume": null, "serviceFei": null, "favourable": null, "shopMemo": null, "appraise": null, "website": null, "memo": null, "payTypes": "\u6749\u5fb7\u5361,", "shopTypes": "\u8d85\u5e02", "consumeTypes": null, "cookTypes": null, "orderNum": null, "card4no": null, "card4noAcc": null, "district2": 409, "searchScope": null, "status": 1, "address": "\u91d1\u6c47\u8def538\u53f7-\u91d1\u6c47\u56db\u5b63\u5e7f\u573aB1\u5c42\u76d2\u9a6c\u9c9c\u751f", "name": "\u8679\u6865\u5e97", "id": 540582602399023104, "pageNo": 0, "pageCount": null, "pageSize": 10, "ids": null, "endTime": null, "startTime": null}, {"cardNumFive": null, "isSupportYj": null, "cityName": null, "districtName": null, "shopinfo": {"mid": "888002189990148", "good_flag": "2", "new_flag": "2", "short_name": "\u751f\u6d3b\u6749\u5fb7\u76d2\u9a6c", "short_name_pinyin": "shenghuoshandehema", "status": null, "address": null, "name": null, "id": "540582603091083264"}, "mid": "888002189990148", "shopId": "540582603091083264", "netid": null, "province": 901, "district": 601, "zipcode": null, "telephone": null, "posDate": null, "destineTel": null, "togoTel": null, "trafficWay": null, "signBuilding": null, "businessArea": null, "selfRoom": null, "businessTime": null, "stall": null, "consume": null, "serviceFei": null, "favourable": null, "shopMemo": null, "appraise": null, "website": null, "memo": null, "payTypes": "\u6749\u5fb7\u5361,", "shopTypes": "\u8d85\u5e02", "consumeTypes": null, "cookTypes": null, "orderNum": null, "card4no": null, "card4noAcc": null, "district2": 418, "searchScope": null, "status": 1, "address": "\u6d66\u4e1c\u5357\u8def1138\u53f7-\u4e0a\u6d77\u6e7e\u5e7f\u573aB1\u5c42\u76d2\u9a6c\u9c9c\u751f", "name": "\u4e0a\u6d77\u6e7e\u5e97", "id": 540582602982031360, "pageNo": 0, "pageCount": null, "pageSize": 10, "ids": null, "endTime": null, "startTime": null}, {"cardNumFive": null, "isSupportYj": null, "cityName": null, "districtName": null, "shopinfo": {"mid": "888002189990148", "good_flag": "2", "new_flag": "2", "short_name": "\u751f\u6d3b\u6749\u5fb7\u76d2\u9a6c", "short_name_pinyin": "shenghuoshandehema", "status": null, "address": null, "name": null, "id": "540582603091083264"}, "mid": "888002189990148", "shopId": "540582603091083264", "netid": null, "province": 901, "district": 601, "zipcode": null, "telephone": null, "posDate": null, "destineTel": null, "togoTel": null, "trafficWay": null, "signBuilding": null, "businessArea": null, "selfRoom": null, "businessTime": null, "stall": null, "consume": null, "serviceFei": null, "favourable": null, "shopMemo": null, "appraise": null, "website": null, "memo": null, "payTypes": "\u6749\u5fb7\u5361,", "shopTypes": "\u8d85\u5e02", "consumeTypes": null, "cookTypes": null, "orderNum": null, "card4no": null, "card4noAcc": null, "district2": 407, "searchScope": null, "status": 1, "address": "\u6606\u660e\u8def555\u53f7-\u5b9d\u5730\u5e7f\u573aC\u5ea7B1\u5c42\u76d2\u9a6c\u9c9c\u751f", "name": "\u5b9d\u5730\u5e97", "id": 540582603363713024, "pageNo": 0, "pageCount": null, "pageSize": 10, "ids": null, "endTime": null, "startTime": null}], "pageLimit": 8330, "size": 10}