{"pageCount": 1095, "count": 10942, "pageNo": 833, "subShopInfo": {"cardNumFive": "", "isSupportYj": "", "cityName": null, "districtName": null, "shopinfo": {"mid": null, "good_flag": null, "new_flag": null, "short_name": null, "short_name_pinyin": null, "status": null, "address": "", "name": "", "id": null}, "mid": null, "shopId": null, "netid": null, "province": 901, "district": null, "zipcode": null, "telephone": null, "posDate": null, "destineTel": null, "togoTel": null, "trafficWay": null, "signBuilding": null, "businessArea": null, "selfRoom": null, "businessTime": null, "stall": null, "consume": null, "serviceFei": null, "favourable": null, "shopMemo": "1", "appraise": null, "website": null, "memo": null, "payTypes": "", "shopTypes": "", "consumeTypes": null, "cookTypes": null, "orderNum": null, "card4no": null, "card4noAcc": null, "district2": null, "searchScope": null, "status": null, "address": "", "name": null, "id": null, "pageNo": 832, "pageCount": null, "pageSize": 10, "ids": null, "endTime": null, "startTime": null}, "list": [{"cardNumFive": null, "isSupportYj": null, "cityName": null, "districtName": null, "shopinfo": {"mid": "888888858120754", "good_flag": "2", "new_flag": "2", "short_name": "\u4e0a\u6d77\u4f6c\u4f6c", "short_name_pinyin": "shanghailaolao", "status": null, "address": null, "name": null, "id": "32916"}, "mid": "888888858120754", "shopId": "32916", "netid": null, "province": 901, "district": 601, "zipcode": null, "telephone": "63216613", "posDate": "200910", "destineTel": null, "togoTel": null, "trafficWay": null, "signBuilding": null, "businessArea": null, "selfRoom": null, "businessTime": null, "stall": null, "consume": null, "serviceFei": null, "favourable": null, "shopMemo": null, "appraise": null, "website": null, "memo": null, "payTypes": "\u6749\u5fb7\u5361", "shopTypes": "\u9910\u996e", "consumeTypes": null, "cookTypes": null, "orderNum": 1000, "card4no": null, "card4noAcc": null, "district2": 401, "searchScope": null, "status": 1, "address": "\u798f\u5dde\u8def70\u53f7", "name": "\u4e0a\u6d77\u4f6c\u4f6c \u798f\u5dde\u8def\u5e97", "id": 141254, "pageNo": 0, "pageCount": null, "pageSize": 10, "ids": null, "endTime": null, "startTime": null}, {"cardNumFive": null, "isSupportYj": null, "cityName": null, "districtName": null, "shopinfo": {"mid": "888888853110101", "good_flag": "1", "new_flag": "1", "short_name": "\u4e0a\u6d77\u516d\u767e", "short_name_pinyin": "shanghailiubai", "status": null, "address": null, "name": null, "id": "33262"}, "mid": "888888853110101", "shopId": "33262", "netid": null, "province": 901, "district": 601, "zipcode": null, "telephone": "64071868\uff0d1630", "posDate": null, "destineTel": null, "togoTel": null, "trafficWay": null, "signBuilding": null, "businessArea": null, "selfRoom": null, "businessTime": null, "stall": null, "consume": null, "serviceFei": null, "favourable": null, "shopMemo": null, "appraise": null, "website": null, "memo": null, "payTypes": "\u6749\u5fb7\u5361", "shopTypes": "\u767e\u8d27", "consumeTypes": null, "cookTypes": null, "orderNum": 1000, "card4no": null, "card4noAcc": null, "district2": 403, "searchScope": null, "status": 1, "address": "\u8087\u5609\u6d5c\u8def1068\u53f7", "name": "\u4e0a\u6d77\u516d\u767e \u8087\u5609\u6d5c\u8def\u5e97", "id": 142185, "pageNo": 0, "pageCount": null, "pageSize": 10, "ids": null, "endTime": null, "startTime": null}, {"cardNumFive": null, "isSupportYj": null, "cityName": null, "districtName": null, "shopinfo": {"mid": "888888859410014", "good_flag": "2", "new_flag": "2", "short_name": "\u4e0a\u6d77\u4f53\u80b2\u7528\u54c1\u5546\u5e97", "short_name_pinyin": "shanghaitiyuyongpinshangdian", "status": null, "address": null, "name": null, "id": "33267"}, "mid": "888888859410014", "shopId": "33267", "netid": null, "province": 901, "district": 601, "zipcode": null, "telephone": "51305648", "posDate": "20080620", "destineTel": null, "togoTel": null, "trafficWay": "\u516c\u4ea4584 935 \u96a7\u9053\u516d\u7ebf", "signBuilding": null, "businessArea": null, "selfRoom": null, "businessTime": "13:00~22:00", "stall": null, "consume": null, "serviceFei": null, "favourable": null, "shopMemo": null, "appraise": null, "website": null, "memo": null, "payTypes": "\u6749\u5fb7\u5361", "shopTypes": "\u4e13\u5356", "consumeTypes": null, "cookTypes": null, "orderNum": 1000, "card4no": null, "card4noAcc": null, "district2": 418, "searchScope": null, "status": 1, "address": "\u7fbd\u5c71\u8def48\u53f7", "name": "\u4e0a\u6d77\u4f53\u80b2\u7528\u54c1\u5546\u5e97 \u7fbd\u5c71\u5e97", "id": 142193, "pageNo": 0, "pageCount": null, "pageSize": 10, "ids": null, "endTime": null, "startTime": null}, {"cardNumFive": null, "isSupportYj": null, "cityName": null, "districtName": null, "shopinfo": {"mid": "888888859440004", "good_flag": "2", "new_flag": "2", "short_name": "\u4e0a\u6d77\u6587\u5cf0\u8d2d\u7269\u5e7f\u573a\u6709\u9650\u516c\u53f8", "short_name_pinyin": "shanghaiwenfenggouwuguangchangyouxiangongsi", "status": null, "address": null, "name": null, "id": "33271"}, "mid": "888888859440004", "shopId": "33271", "netid": null, "province": 901, "district": 601, "zipcode": null, "telephone": "63222239*1218", "posDate": "20070620", "destineTel": null, "togoTel": null, "trafficWay": "\u5730\u94c1\u4e00\u53f7\u7ebf", "signBuilding": null, "businessArea": null, "selfRoom": null, "businessTime": null, "stall": null, "consume": null, "serviceFei": null, "favourable": null, "shopMemo": null, "appraise": null, "website": null, "memo": null, "payTypes": "\u6749\u5fb7\u5361", "shopTypes": "\u96f6\u552e,\u4e13\u5356", "consumeTypes": null, "cookTypes": null, "orderNum": 1000, "card4no": null, "card4noAcc": null, "district2": 401, "searchScope": null, "status": 1, "address": "\u5357\u4eac\u4e1c\u8def456\u53f7", "name": "\u4e0a\u6d77\u6587\u5cf0\u8d2d\u7269\u5e7f\u573a\u6709\u9650\u516c\u53f8 \u4ea8\u5f97\u5229\u949f\u8868_\u5357\u4eac\u4e1c\u8def\u603b\u5e97", "id": 142197, "pageNo": 0, "pageCount": null, "pageSize": 10, "ids": null, "endTime": null, "startTime": null}, {"cardNumFive": null, "isSupportYj": null, "cityName": null, "districtName": null, "shopinfo": {"mid": "888888859440004", "good_flag": "2", "new_flag": "2", "short_name": "\u4e0a\u6d77\u6587\u5cf0\u8d2d\u7269\u5e7f\u573a\u6709\u9650\u516c\u53f8", "short_name_pinyin": "shanghaiwenfenggouwuguangchangyouxiangongsi", "status": null, "address": null, "name": null, "id": "33271"}, "mid": "888888859440004", "shopId": "33271", "netid": null, "province": 901, "district": 601, "zipcode": null, "telephone": null, "posDate": "20070620", "destineTel": null, "togoTel": null, "trafficWay": "\u516c\u4ea4942 937 828", "signBuilding": null, "businessArea": null, "selfRoom": null, "businessTime": null, "stall": null, "consume": null, "serviceFei": null, "favourable": null, "shopMemo": null, "appraise": null, "website": null, "memo": null, "payTypes": "\u6749\u5fb7\u5361", "shopTypes": "\u96f6\u552e,\u4e13\u5356", "consumeTypes": null, "cookTypes": null, "orderNum": 1000, "card4no": null, "card4noAcc": null, "district2": 407, "searchScope": null, "status": 1, "address": "\u6dde\u6caa\u8def111\u53f7", "name": "\u4e0a\u6d77\u6587\u5cf0\u8d2d\u7269\u5e7f\u573a\u6709\u9650\u516c\u53f8 \u4ea8\u5f97\u5229\u949f\u8868_\u4e07\u8fbe\u5e97", "id": 142199, "pageNo": 0, "pageCount": null, "pageSize": 10, "ids": null, "endTime": null, "startTime": null}, {"cardNumFive": null, "isSupportYj": null, "cityName": null, "districtName": null, "shopinfo": {"mid": "888888859440004", "good_flag": "2", "new_flag": "2", "short_name": "\u4e0a\u6d77\u6587\u5cf0\u8d2d\u7269\u5e7f\u573a\u6709\u9650\u516c\u53f8", "short_name_pinyin": "shanghaiwenfenggouwuguangchangyouxiangongsi", "status": null, "address": null, "name": null, "id": "33271"}, "mid": "888888859440004", "shopId": "33271", "netid": null, "province": 901, "district": 601, "zipcode": null, "telephone": null, "posDate": "20070620", "destineTel": null, "togoTel": null, "trafficWay": "\u516c\u4ea4836\u8def", "signBuilding": null, "businessArea": null, "selfRoom": null, "businessTime": null, "stall": null, "consume": null, "serviceFei": null, "favourable": null, "shopMemo": null, "appraise": null, "website": null, "memo": null, "payTypes": "\u6749\u5fb7\u5361", "shopTypes": "\u96f6\u552e,\u4e13\u5356", "consumeTypes": null, "cookTypes": null, "orderNum": 1000, "card4no": null, "card4noAcc": null, "district2": 406, "searchScope": null, "status": 1, "address": "\u4ed9\u971e\u897f\u8def88\u53f71\u697c", "name": "\u4e0a\u6d77\u6587\u5cf0\u8d2d\u7269\u5e7f\u573a\u6709\u9650\u516c\u53f8 \u4ea8\u5f97\u5229\u949f\u8868_\u897f\u90ca\u5e97", "id": 142200, "pageNo": 0, "pageCount": null, "pageSize": 10, "ids": null, "endTime": null, "startTime": null}, {"cardNumFive": null, "isSupportYj": null, "cityName": null, "districtName": null, "shopinfo": {"mid": "888888859440004", "good_flag": "2", "new_flag": "2", "short_name": "\u4e0a\u6d77\u6587\u5cf0\u8d2d\u7269\u5e7f\u573a\u6709\u9650\u516c\u53f8", "short_name_pinyin": "shanghaiwenfenggouwuguangchangyouxiangongsi", "status": null, "address": null, "name": null, "id": "33271"}, "mid": "888888859440004", "shopId": "33271", "netid": null, "province": 901, "district": 601, "zipcode": null, "telephone": "58718888*7689", "posDate": "20090204", "destineTel": null, "togoTel": null, "trafficWay": "\u516c\u4ea4455 797 \u5730\u94c1\u516d\u53f7\u7ebf", "signBuilding": null, "businessArea": null, "selfRoom": null, "businessTime": null, "stall": null, "consume": null, "serviceFei": null, "favourable": null, "shopMemo": null, "appraise": null, "website": null, "memo": null, "payTypes": "\u6749\u5fb7\u5361", "shopTypes": "\u7f8e\u5bb9\u7f8e\u53d1", "consumeTypes": null, "cookTypes": null, "orderNum": 1000, "card4no": null, "card4noAcc": null, "district2": 418, "searchScope": null, "status": 1, "address": "\u5f20\u6768\u5317\u8def801\u53f7", "name": "\u4e0a\u6d77\u6587\u5cf0\u8d2d\u7269\u5e7f\u573a\u6709\u9650\u516c\u53f8 \u5f20\u6768\u5317\u8def\u5e97", "id": 142202, "pageNo": 0, "pageCount": null, "pageSize": 10, "ids": null, "endTime": null, "startTime": null}, {"cardNumFive": null, "isSupportYj": null, "cityName": null, "districtName": null, "shopinfo": {"mid": "888002153110313", "good_flag": "2", "new_flag": "2", "short_name": "\u5c1a\u5609\u4e2d\u5fc3", "short_name_pinyin": "shangjiazhongxin", "status": null, "address": null, "name": null, "id": "418057300985511936"}, "mid": "888002153110313", "shopId": "418057300985511936", "netid": null, "province": 901, "district": 601, "zipcode": null, "telephone": null, "posDate": null, "destineTel": null, "togoTel": null, "trafficWay": null, "signBuilding": null, "businessArea": null, "selfRoom": null, "businessTime": null, "stall": null, "consume": null, "serviceFei": null, "favourable": null, "shopMemo": null, "appraise": null, "website": null, "memo": null, "payTypes": "\u6749\u5fb7\u5361,", "shopTypes": "\u767e\u8d27\u5e97", "consumeTypes": null, "cookTypes": null, "orderNum": null, "card4no": null, "card4noAcc": null, "district2": 406, "searchScope": null, "status": 1, "address": "\u4ed9\u971e\u8def99\u53f7", "name": "\u4ed9\u971e\u8def\u5e97", "id": 418057299756580864, "pageNo": 0, "pageCount": null, "pageSize": 10, "ids": null, "endTime": null, "startTime": null}, {"cardNumFive": null, "isSupportYj": null, "cityName": null, "districtName": null, "shopinfo": {"mid": "888002154110817", "good_flag": "2", "new_flag": "2", "short_name": "\u4e0a\u852c\u6c38\u8f89", "short_name_pinyin": "shangshuyonghui", "status": null, "address": null, "name": null, "id": "382852049143857152"}, "mid": "888002154110817", "shopId": "382852049143857152", "netid": null, "province": 901, "district": 601, "zipcode": null, "telephone": null, "posDate": null, "destineTel": null, "togoTel": null, "trafficWay": null, "signBuilding": null, "businessArea": null, "selfRoom": null, "businessTime": null, "stall": null, "consume": null, "serviceFei": null, "favourable": null, "shopMemo": null, "appraise": null, "website": null, "memo": null, "payTypes": "\u6749\u5fb7\u5361,", "shopTypes": "\u8d85\u5e02", "consumeTypes": null, "cookTypes": null, "orderNum": null, "card4no": null, "card4noAcc": null, "district2": 418, "searchScope": null, "status": 1, "address": "\u9756\u6d77\u8def126\u53f7", "name": "\u9756\u6d77\u8def\u5e97", "id": 382852048506322944, "pageNo": 0, "pageCount": null, "pageSize": 10, "ids": null, "endTime": null, "startTime": null}, {"cardNumFive": null, "isSupportYj": null, "cityName": null, "districtName": null, "shopinfo": {"mid": "888002153311032", "good_flag": "2", "new_flag": "2", "short_name": "\u4e0a\u852c\u6c38\u8f89", "short_name_pinyin": "shangshuyonghui", "status": null, "address": null, "name": null, "id": "382852050414731264"}, "mid": "888002153311032", "shopId": "382852050414731264", "netid": null, "province": 901, "district": 601, "zipcode": null, "telephone": null, "posDate": null, "destineTel": null, "togoTel": null, "trafficWay": null, "signBuilding": null, "businessArea": null, "selfRoom": null, "businessTime": null, "stall": null, "consume": null, "serviceFei": null, "favourable": null, "shopMemo": null, "appraise": null, "website": null, "memo": null, "payTypes": "\u6749\u5fb7\u5361,", "shopTypes": "\u8d85\u5e02", "consumeTypes": null, "cookTypes": null, "orderNum": null, "card4no": null, "card4noAcc": null, "district2": 418, "searchScope": null, "status": 1, "address": "\u6e05\u6eaa\u8def128\u53f7", "name": "\u6f7c\u6e2f\u5e97", "id": 382852049781391360, "pageNo": 0, "pageCount": null, "pageSize": 10, "ids": null, "endTime": null, "startTime": null}], "pageLimit": 8320, "size": 10}