{"pageCount": 1095, "count": 10942, "pageNo": 831, "subShopInfo": {"cardNumFive": "", "isSupportYj": "", "cityName": null, "districtName": null, "shopinfo": {"mid": null, "good_flag": null, "new_flag": null, "short_name": null, "short_name_pinyin": null, "status": null, "address": "", "name": "", "id": null}, "mid": null, "shopId": null, "netid": null, "province": 901, "district": null, "zipcode": null, "telephone": null, "posDate": null, "destineTel": null, "togoTel": null, "trafficWay": null, "signBuilding": null, "businessArea": null, "selfRoom": null, "businessTime": null, "stall": null, "consume": null, "serviceFei": null, "favourable": null, "shopMemo": "1", "appraise": null, "website": null, "memo": null, "payTypes": "", "shopTypes": "", "consumeTypes": null, "cookTypes": null, "orderNum": null, "card4no": null, "card4noAcc": null, "district2": null, "searchScope": null, "status": null, "address": "", "name": null, "id": null, "pageNo": 830, "pageCount": null, "pageSize": 10, "ids": null, "endTime": null, "startTime": null}, "list": [{"cardNumFive": null, "isSupportYj": null, "cityName": null, "districtName": null, "shopinfo": {"mid": "888888854410129", "good_flag": "2", "new_flag": "1", "short_name": "\u68ee\u8702\u56ed", "short_name_pinyin": "senfengyuan", "status": null, "address": null, "name": null, "id": "32889"}, "mid": "888888854410129", "shopId": "32889", "netid": null, "province": 901, "district": 601, "zipcode": null, "telephone": null, "posDate": "20081204", "destineTel": null, "togoTel": null, "trafficWay": "\u516c\u4ea4\u5f20\u5ddd\u7ebf \u65b0\u5ddd\u4e13\u7ebf", "signBuilding": null, "businessArea": null, "selfRoom": null, "businessTime": "08:30~20:30", "stall": null, "consume": null, "serviceFei": null, "favourable": null, "shopMemo": null, "appraise": null, "website": null, "memo": null, "payTypes": "\u6749\u5fb7\u5361", "shopTypes": "\u4e13\u5356", "consumeTypes": null, "cookTypes": null, "orderNum": 1000, "card4no": null, "card4noAcc": null, "district2": 418, "searchScope": null, "status": 1, "address": "\u5ddd\u6c99\u57ce\u5357\u8def318\u53f7", "name": "\u68ee\u8702\u56ed \u519c\u5de5\u5546120\u5e97", "id": 141181, "pageNo": 0, "pageCount": null, "pageSize": 10, "ids": null, "endTime": null, "startTime": null}, {"cardNumFive": null, "isSupportYj": null, "cityName": null, "districtName": null, "shopinfo": {"mid": "888888854410129", "good_flag": "2", "new_flag": "1", "short_name": "\u68ee\u8702\u56ed", "short_name_pinyin": "senfengyuan", "status": null, "address": null, "name": null, "id": "32889"}, "mid": "888888854410129", "shopId": "32889", "netid": null, "province": 901, "district": 601, "zipcode": null, "telephone": null, "posDate": "20100518", "destineTel": null, "togoTel": null, "trafficWay": null, "signBuilding": null, "businessArea": null, "selfRoom": null, "businessTime": null, "stall": null, "consume": null, "serviceFei": null, "favourable": null, "shopMemo": null, "appraise": null, "website": null, "memo": null, "payTypes": "\u6749\u5fb7\u5361", "shopTypes": "\u4e13\u5356", "consumeTypes": null, "cookTypes": null, "orderNum": 1000, "card4no": null, "card4noAcc": null, "district2": 418, "searchScope": null, "status": 1, "address": "\u6d66\u7535\u8def357\u53f7\u4e16\u7eaa\u8054\u534e\u5185", "name": "\u68ee\u8702\u56ed \u6d66\u7535\u8def\u5e97", "id": 141183, "pageNo": 0, "pageCount": null, "pageSize": 10, "ids": null, "endTime": null, "startTime": null}, {"cardNumFive": null, "isSupportYj": null, "cityName": null, "districtName": null, "shopinfo": {"mid": "888888854410129", "good_flag": "2", "new_flag": "1", "short_name": "\u68ee\u8702\u56ed", "short_name_pinyin": "senfengyuan", "status": null, "address": null, "name": null, "id": "32889"}, "mid": "888888854410129", "shopId": "32889", "netid": null, "province": 901, "district": 601, "zipcode": null, "telephone": null, "posDate": "20090123", "destineTel": null, "togoTel": null, "trafficWay": "\u516c\u4ea4\u6cf0\u9ad8\u7ebf783\u8def843\u8def", "signBuilding": null, "businessArea": null, "selfRoom": null, "businessTime": "08:30~20:30", "stall": null, "consume": null, "serviceFei": null, "favourable": null, "shopMemo": null, "appraise": null, "website": null, "memo": null, "payTypes": "\u6749\u5fb7\u5361", "shopTypes": "\u4e13\u5356", "consumeTypes": null, "cookTypes": null, "orderNum": 1000, "card4no": null, "card4noAcc": null, "district2": 418, "searchScope": null, "status": 1, "address": "\u91d1\u9ad8\u8def1256\u53f7", "name": "\u68ee\u8702\u56ed \u6d66\u4e1c\u6587\u4e30\u5e97", "id": 141186, "pageNo": 0, "pageCount": null, "pageSize": 10, "ids": null, "endTime": null, "startTime": null}, {"cardNumFive": null, "isSupportYj": null, "cityName": null, "districtName": null, "shopinfo": {"mid": "888888854410129", "good_flag": "2", "new_flag": "1", "short_name": "\u68ee\u8702\u56ed", "short_name_pinyin": "senfengyuan", "status": null, "address": null, "name": null, "id": "32889"}, "mid": "888888854410129", "shopId": "32889", "netid": null, "province": 901, "district": 601, "zipcode": null, "telephone": null, "posDate": "20081126", "destineTel": null, "togoTel": null, "trafficWay": "\u516c\u4ea4\u6caa\u5317\u9752\u4e13\u7ebf \u5317\u9752\u7ebf", "signBuilding": null, "businessArea": null, "selfRoom": null, "businessTime": "08:30~20:30", "stall": null, "consume": null, "serviceFei": null, "favourable": null, "shopMemo": null, "appraise": null, "website": null, "memo": null, "payTypes": "\u6749\u5fb7\u5361", "shopTypes": "\u4e13\u5356", "consumeTypes": null, "cookTypes": null, "orderNum": 1000, "card4no": null, "card4noAcc": null, "district2": 417, "searchScope": null, "status": 1, "address": "\u9752\u6d66\u76c8\u6e2f\u8def555\u53f7\u9760\u8fd1\u516c\u56ed\u8def1\u697c\u8fdb\u53e3", "name": "\u68ee\u8702\u56ed \u4e16\u7eaa\u8054\u534e\u5e97", "id": 141192, "pageNo": 0, "pageCount": null, "pageSize": 10, "ids": null, "endTime": null, "startTime": null}, {"cardNumFive": null, "isSupportYj": null, "cityName": null, "districtName": null, "shopinfo": {"mid": "888888854410129", "good_flag": "2", "new_flag": "1", "short_name": "\u68ee\u8702\u56ed", "short_name_pinyin": "senfengyuan", "status": null, "address": null, "name": null, "id": "32889"}, "mid": "888888854410129", "shopId": "32889", "netid": null, "province": 901, "district": 601, "zipcode": null, "telephone": null, "posDate": "20081126", "destineTel": null, "togoTel": null, "trafficWay": "\u516c\u4ea4803 753", "signBuilding": null, "businessArea": null, "selfRoom": null, "businessTime": "08:30~20:30", "stall": null, "consume": null, "serviceFei": null, "favourable": null, "shopMemo": null, "appraise": null, "website": null, "memo": null, "payTypes": "\u6749\u5fb7\u5361", "shopTypes": "\u4e13\u5356", "consumeTypes": null, "cookTypes": null, "orderNum": 1000, "card4no": null, "card4noAcc": null, "district2": 409, "searchScope": null, "status": 1, "address": "\u6c34\u6e05\u8def1390\u53f71\u697c\u6536\u94f6\u53f0\u5bf9\u9762", "name": "\u68ee\u8702\u56ed \u6c34\u6e05\u5927\u6da6\u53d1\u5e97", "id": 141193, "pageNo": 0, "pageCount": null, "pageSize": 10, "ids": null, "endTime": null, "startTime": null}, {"cardNumFive": null, "isSupportYj": null, "cityName": null, "districtName": null, "shopinfo": {"mid": "888888854410129", "good_flag": "2", "new_flag": "1", "short_name": "\u68ee\u8702\u56ed", "short_name_pinyin": "senfengyuan", "status": null, "address": null, "name": null, "id": "32889"}, "mid": "888888854410129", "shopId": "32889", "netid": null, "province": 901, "district": 601, "zipcode": null, "telephone": null, "posDate": "20081125", "destineTel": null, "togoTel": null, "trafficWay": "\u516c\u4ea4816 \u5f90\u95f5\u7ebf", "signBuilding": null, "businessArea": null, "selfRoom": null, "businessTime": "08:30~20:30", "stall": null, "consume": null, "serviceFei": null, "favourable": null, "shopMemo": null, "appraise": null, "website": null, "memo": null, "payTypes": "\u6749\u5fb7\u5361", "shopTypes": "\u4e13\u5356", "consumeTypes": null, "cookTypes": null, "orderNum": 1000, "card4no": null, "card4noAcc": null, "district2": 405, "searchScope": null, "status": 1, "address": "\u65b0\u6625\u8def1500\u53f7\u9760\u8fd1\u771f\u534e\u8def1\u697c\u536b\u751f\u95f4\u9644\u8fd1", "name": "\u68ee\u8702\u56ed \u4e07\u91cc\u5bb6\u4e50\u798f\u5e97", "id": 141194, "pageNo": 0, "pageCount": null, "pageSize": 10, "ids": null, "endTime": null, "startTime": null}, {"cardNumFive": null, "isSupportYj": null, "cityName": null, "districtName": null, "shopinfo": {"mid": "888888854410129", "good_flag": "2", "new_flag": "1", "short_name": "\u68ee\u8702\u56ed", "short_name_pinyin": "senfengyuan", "status": null, "address": null, "name": null, "id": "32889"}, "mid": "888888854410129", "shopId": "32889", "netid": null, "province": 901, "district": 601, "zipcode": null, "telephone": null, "posDate": "20081128", "destineTel": null, "togoTel": null, "trafficWay": "\u516c\u4ea4974 845", "signBuilding": null, "businessArea": null, "selfRoom": null, "businessTime": "08:30~20:30", "stall": null, "consume": null, "serviceFei": null, "favourable": null, "shopMemo": null, "appraise": null, "website": null, "memo": null, "payTypes": "\u6749\u5fb7\u5361", "shopTypes": "\u4e13\u5356", "consumeTypes": null, "cookTypes": null, "orderNum": 1000, "card4no": null, "card4noAcc": null, "district2": 405, "searchScope": null, "status": 1, "address": "\u6c76\u6c34\u8def886\u53f71\u697c\u6536\u94f6\u53f0\u5bf9\u9762", "name": "\u68ee\u8702\u56ed \u6c76\u6c34\u6613\u521d\u5e97", "id": 141195, "pageNo": 0, "pageCount": null, "pageSize": 10, "ids": null, "endTime": null, "startTime": null}, {"cardNumFive": null, "isSupportYj": null, "cityName": null, "districtName": null, "shopinfo": {"mid": "888888854410129", "good_flag": "2", "new_flag": "1", "short_name": "\u68ee\u8702\u56ed", "short_name_pinyin": "senfengyuan", "status": null, "address": null, "name": null, "id": "32889"}, "mid": "888888854410129", "shopId": "32889", "netid": null, "province": 901, "district": 601, "zipcode": null, "telephone": null, "posDate": "20081126", "destineTel": null, "togoTel": null, "trafficWay": "\u516c\u4ea454 \u5730\u94c1\u4e8c\u53f7\u7ebf", "signBuilding": null, "businessArea": null, "selfRoom": null, "businessTime": "08:30~20:30", "stall": null, "consume": null, "serviceFei": null, "favourable": null, "shopMemo": null, "appraise": null, "website": null, "memo": null, "payTypes": "\u6749\u5fb7\u5361", "shopTypes": "\u4e13\u5356", "consumeTypes": null, "cookTypes": null, "orderNum": 1000, "card4no": null, "card4noAcc": null, "district2": 406, "searchScope": null, "status": 1, "address": "\u4ed9\u971e\u897f\u8def88\u53f73\u697c\u6536\u94f6\u53f0\u5bf9\u9762", "name": "\u68ee\u8702\u56ed \u4ed9\u971e\u8054\u534e\u5e97", "id": 141197, "pageNo": 0, "pageCount": null, "pageSize": 10, "ids": null, "endTime": null, "startTime": null}, {"cardNumFive": null, "isSupportYj": null, "cityName": null, "districtName": null, "shopinfo": {"mid": "888888854410129", "good_flag": "2", "new_flag": "1", "short_name": "\u68ee\u8702\u56ed", "short_name_pinyin": "senfengyuan", "status": null, "address": null, "name": null, "id": "32889"}, "mid": "888888854410129", "shopId": "32889", "netid": null, "province": 901, "district": 601, "zipcode": null, "telephone": null, "posDate": "20081204", "destineTel": null, "togoTel": null, "trafficWay": "\u516c\u4ea4\u65b0\u5ddd\u4e13\u7ebf \u6768\u795d\u7ebf", "signBuilding": null, "businessArea": null, "selfRoom": null, "businessTime": "08:30~20:30", "stall": null, "consume": null, "serviceFei": null, "favourable": null, "shopMemo": null, "appraise": null, "website": null, "memo": null, "payTypes": "\u6749\u5fb7\u5361", "shopTypes": "\u4e13\u5356", "consumeTypes": null, "cookTypes": null, "orderNum": 1000, "card4no": null, "card4noAcc": null, "district2": 418, "searchScope": null, "status": 1, "address": "\u534e\u590f\u4e1c\u8def2239\u53f7", "name": "\u68ee\u8702\u56ed \u6613\u521d\u83b2\u82b1\u5ddd\u6c99\u5e97", "id": 141200, "pageNo": 0, "pageCount": null, "pageSize": 10, "ids": null, "endTime": null, "startTime": null}, {"cardNumFive": null, "isSupportYj": null, "cityName": null, "districtName": null, "shopinfo": {"mid": "888888854410129", "good_flag": "2", "new_flag": "1", "short_name": "\u68ee\u8702\u56ed", "short_name_pinyin": "senfengyuan", "status": null, "address": null, "name": null, "id": "32889"}, "mid": "888888854410129", "shopId": "32889", "netid": null, "province": 901, "district": 601, "zipcode": null, "telephone": null, "posDate": "20081204", "destineTel": null, "togoTel": null, "trafficWay": "\u516c\u4ea4202 \u5730\u94c1\u4e8c\u53f7\u7ebf", "signBuilding": null, "businessArea": null, "selfRoom": null, "businessTime": "08:30~20:30", "stall": null, "consume": null, "serviceFei": null, "favourable": null, "shopMemo": null, "appraise": null, "website": null, "memo": null, "payTypes": "\u6749\u5fb7\u5361", "shopTypes": "\u4e13\u5356", "consumeTypes": null, "cookTypes": null, "orderNum": 1000, "card4no": null, "card4noAcc": null, "district2": 406, "searchScope": null, "status": 1, "address": "\u5929\u5c71\u897f\u8def541\u53f7", "name": "\u68ee\u8702\u56ed \u6613\u521d\u83b2\u82b1\u5929\u5c71\u5e97", "id": 141202, "pageNo": 0, "pageCount": null, "pageSize": 10, "ids": null, "endTime": null, "startTime": null}], "pageLimit": 8300, "size": 10}