{"pageCount": 1095, "count": 10942, "pageNo": 835, "subShopInfo": {"cardNumFive": "", "isSupportYj": "", "cityName": null, "districtName": null, "shopinfo": {"mid": null, "good_flag": null, "new_flag": null, "short_name": null, "short_name_pinyin": null, "status": null, "address": "", "name": "", "id": null}, "mid": null, "shopId": null, "netid": null, "province": 901, "district": null, "zipcode": null, "telephone": null, "posDate": null, "destineTel": null, "togoTel": null, "trafficWay": null, "signBuilding": null, "businessArea": null, "selfRoom": null, "businessTime": null, "stall": null, "consume": null, "serviceFei": null, "favourable": null, "shopMemo": "1", "appraise": null, "website": null, "memo": null, "payTypes": "", "shopTypes": "", "consumeTypes": null, "cookTypes": null, "orderNum": null, "card4no": null, "card4noAcc": null, "district2": null, "searchScope": null, "status": null, "address": "", "name": null, "id": null, "pageNo": 834, "pageCount": null, "pageSize": 10, "ids": null, "endTime": null, "startTime": null}, "list": [{"cardNumFive": null, "isSupportYj": null, "cityName": null, "districtName": null, "shopinfo": {"mid": "888002189990148", "good_flag": "2", "new_flag": "2", "short_name": "\u751f\u6d3b\u6749\u5fb7\u76d2\u9a6c", "short_name_pinyin": "shenghuoshandehema", "status": null, "address": null, "name": null, "id": "540582603091083264"}, "mid": "888002189990148", "shopId": "540582603091083264", "netid": null, "province": 901, "district": 601, "zipcode": null, "telephone": null, "posDate": null, "destineTel": null, "togoTel": null, "trafficWay": null, "signBuilding": null, "businessArea": null, "selfRoom": null, "businessTime": null, "stall": null, "consume": null, "serviceFei": null, "favourable": null, "shopMemo": null, "appraise": null, "website": null, "memo": null, "payTypes": "\u6749\u5fb7\u5361,", "shopTypes": "\u8d85\u5e02", "consumeTypes": null, "cookTypes": null, "orderNum": null, "card4no": null, "card4noAcc": null, "district2": 418, "searchScope": null, "status": 1, "address": "\u5317\u827e\u8def1782\u53f7-\u5927\u534e\u9526\u7ee3\u56fd\u96451\u5c42\u76d2\u9a6c\u9c9c\u751f", "name": "\u6768\u9ad8\u5357\u8def\u5e97", "id": 540582603766366208, "pageNo": 0, "pageCount": null, "pageSize": 10, "ids": null, "endTime": null, "startTime": null}, {"cardNumFive": null, "isSupportYj": null, "cityName": null, "districtName": null, "shopinfo": {"mid": "888002189990148", "good_flag": "2", "new_flag": "2", "short_name": "\u751f\u6d3b\u6749\u5fb7\u76d2\u9a6c", "short_name_pinyin": "shenghuoshandehema", "status": null, "address": null, "name": null, "id": "540582603091083264"}, "mid": "888002189990148", "shopId": "540582603091083264", "netid": null, "province": 901, "district": 601, "zipcode": null, "telephone": null, "posDate": null, "destineTel": null, "togoTel": null, "trafficWay": null, "signBuilding": null, "businessArea": null, "selfRoom": null, "businessTime": null, "stall": null, "consume": null, "serviceFei": null, "favourable": null, "shopMemo": null, "appraise": null, "website": null, "memo": null, "payTypes": "\u6749\u5fb7\u5361,", "shopTypes": "\u8d85\u5e02", "consumeTypes": null, "cookTypes": null, "orderNum": null, "card4no": null, "card4noAcc": null, "district2": 406, "searchScope": null, "status": 1, "address": "\u957f\u5b81\u8def88\u53f7-\u957f\u5b81KING 88 B1\u5c42\u76d2\u9a6c\u9c9c\u751f", "name": "\u66f9\u5bb6\u6e21", "id": 540582604118687744, "pageNo": 0, "pageCount": null, "pageSize": 10, "ids": null, "endTime": null, "startTime": null}, {"cardNumFive": null, "isSupportYj": null, "cityName": null, "districtName": null, "shopinfo": {"mid": "888002189990148", "good_flag": "2", "new_flag": "2", "short_name": "\u751f\u6d3b\u6749\u5fb7\u76d2\u9a6c", "short_name_pinyin": "shenghuoshandehema", "status": null, "address": null, "name": null, "id": "540582603091083264"}, "mid": "888002189990148", "shopId": "540582603091083264", "netid": null, "province": 901, "district": 601, "zipcode": null, "telephone": null, "posDate": null, "destineTel": null, "togoTel": null, "trafficWay": null, "signBuilding": null, "businessArea": null, "selfRoom": null, "businessTime": null, "stall": null, "consume": null, "serviceFei": null, "favourable": null, "shopMemo": null, "appraise": null, "website": null, "memo": null, "payTypes": "\u6749\u5fb7\u5361,", "shopTypes": "\u8d85\u5e02", "consumeTypes": null, "cookTypes": null, "orderNum": null, "card4no": null, "card4noAcc": null, "district2": 403, "searchScope": null, "status": 1, "address": "\u7530\u6797\u4e1c\u8def75\u53f7-\u6c47\u9633\u5e7f\u573aB1\u5c42\u76d2\u9a6c\u9c9c\u751f", "name": "\u6c47\u9633\u5e97", "id": 540582604479397888, "pageNo": 0, "pageCount": null, "pageSize": 10, "ids": null, "endTime": null, "startTime": null}, {"cardNumFive": null, "isSupportYj": null, "cityName": null, "districtName": null, "shopinfo": {"mid": "888002189990148", "good_flag": "2", "new_flag": "2", "short_name": "\u751f\u6d3b\u6749\u5fb7\u76d2\u9a6c", "short_name_pinyin": "shenghuoshandehema", "status": null, "address": null, "name": null, "id": "540582603091083264"}, "mid": "888002189990148", "shopId": "540582603091083264", "netid": null, "province": 901, "district": 601, "zipcode": null, "telephone": null, "posDate": null, "destineTel": null, "togoTel": null, "trafficWay": null, "signBuilding": null, "businessArea": null, "selfRoom": null, "businessTime": null, "stall": null, "consume": null, "serviceFei": null, "favourable": null, "shopMemo": null, "appraise": null, "website": null, "memo": null, "payTypes": "\u6749\u5fb7\u5361,", "shopTypes": "\u8d85\u5e02", "consumeTypes": null, "cookTypes": null, "orderNum": null, "card4no": null, "card4noAcc": null, "district2": 412, "searchScope": null, "status": 1, "address": "\u4e5d\u5cf0\u8def118\u53f7-\u5e73\u9ad8\u5e7f\u573a2\u5c42\u76d2\u9a6c\u9c9c\u751f", "name": "\u5e73\u9ad8\u5e97", "id": 540582604861079552, "pageNo": 0, "pageCount": null, "pageSize": 10, "ids": null, "endTime": null, "startTime": null}, {"cardNumFive": null, "isSupportYj": null, "cityName": null, "districtName": null, "shopinfo": {"mid": "888002189990148", "good_flag": "2", "new_flag": "2", "short_name": "\u751f\u6d3b\u6749\u5fb7\u76d2\u9a6c", "short_name_pinyin": "shenghuoshandehema", "status": null, "address": null, "name": null, "id": "540582603091083264"}, "mid": "888002189990148", "shopId": "540582603091083264", "netid": null, "province": 901, "district": 601, "zipcode": null, "telephone": null, "posDate": null, "destineTel": null, "togoTel": null, "trafficWay": null, "signBuilding": null, "businessArea": null, "selfRoom": null, "businessTime": null, "stall": null, "consume": null, "serviceFei": null, "favourable": null, "shopMemo": null, "appraise": null, "website": null, "memo": null, "payTypes": "\u6749\u5fb7\u5361,", "shopTypes": "\u8d85\u5e02", "consumeTypes": null, "cookTypes": null, "orderNum": null, "card4no": null, "card4noAcc": null, "district2": 407, "searchScope": null, "status": 1, "address": "\u6dde\u6caa\u8def1660\u53f7-\u60a0\u65b9\u8d2d\u7269\u516c\u56edB1\u5c42\u76d2\u9a6c\u9c9c\u751f", "name": "\u65b0\u6c5f\u6e7e\u5e97", "id": 540582605221789696, "pageNo": 0, "pageCount": null, "pageSize": 10, "ids": null, "endTime": null, "startTime": null}, {"cardNumFive": null, "isSupportYj": null, "cityName": null, "districtName": null, "shopinfo": {"mid": "888002189990148", "good_flag": "2", "new_flag": "2", "short_name": "\u751f\u6d3b\u6749\u5fb7\u76d2\u9a6c", "short_name_pinyin": "shenghuoshandehema", "status": null, "address": null, "name": null, "id": "540582603091083264"}, "mid": "888002189990148", "shopId": "540582603091083264", "netid": null, "province": 901, "district": 601, "zipcode": null, "telephone": null, "posDate": null, "destineTel": null, "togoTel": null, "trafficWay": null, "signBuilding": null, "businessArea": null, "selfRoom": null, "businessTime": null, "stall": null, "consume": null, "serviceFei": null, "favourable": null, "shopMemo": null, "appraise": null, "website": null, "memo": null, "payTypes": "\u6749\u5fb7\u5361,", "shopTypes": "\u8d85\u5e02", "consumeTypes": null, "cookTypes": null, "orderNum": null, "card4no": null, "card4noAcc": null, "district2": 409, "searchScope": null, "status": 1, "address": "\u4e03\u8398\u8def1809\u53f7-\u7ea2\u70b9\u57ceB1\u5c42\u76d2\u9a6c\u9c9c\u751f", "name": "\u7ea2\u70b9\u57ce\u5e97", "id": 540582605578305536, "pageNo": 0, "pageCount": null, "pageSize": 10, "ids": null, "endTime": null, "startTime": null}, {"cardNumFive": null, "isSupportYj": null, "cityName": null, "districtName": null, "shopinfo": {"mid": "888002189990148", "good_flag": "2", "new_flag": "2", "short_name": "\u751f\u6d3b\u6749\u5fb7\u76d2\u9a6c", "short_name_pinyin": "shenghuoshandehema", "status": null, "address": null, "name": null, "id": "540582603091083264"}, "mid": "888002189990148", "shopId": "540582603091083264", "netid": null, "province": 901, "district": 601, "zipcode": null, "telephone": null, "posDate": null, "destineTel": null, "togoTel": null, "trafficWay": null, "signBuilding": null, "businessArea": null, "selfRoom": null, "businessTime": null, "stall": null, "consume": null, "serviceFei": null, "favourable": null, "shopMemo": null, "appraise": null, "website": null, "memo": null, "payTypes": "\u6749\u5fb7\u5361,", "shopTypes": "\u8d85\u5e02", "consumeTypes": null, "cookTypes": null, "orderNum": null, "card4no": null, "card4noAcc": null, "district2": 409, "searchScope": null, "status": 1, "address": "\u6f15\u5b9d\u8def1574\u53f7-\u661f\u5b9d\u8d2d\u7269\u4e2d\u5fc3B1\u5c42\u76d2\u9a6c\u9c9c\u751f", "name": "\u661f\u5b9d\u5e97", "id": 540582605955792896, "pageNo": 0, "pageCount": null, "pageSize": 10, "ids": null, "endTime": null, "startTime": null}, {"cardNumFive": null, "isSupportYj": null, "cityName": null, "districtName": null, "shopinfo": {"mid": "888002189990148", "good_flag": "2", "new_flag": "2", "short_name": "\u751f\u6d3b\u6749\u5fb7\u76d2\u9a6c", "short_name_pinyin": "shenghuoshandehema", "status": null, "address": null, "name": null, "id": "540582603091083264"}, "mid": "888002189990148", "shopId": "540582603091083264", "netid": null, "province": 901, "district": 601, "zipcode": null, "telephone": null, "posDate": null, "destineTel": null, "togoTel": null, "trafficWay": null, "signBuilding": null, "businessArea": null, "selfRoom": null, "businessTime": null, "stall": null, "consume": null, "serviceFei": null, "favourable": null, "shopMemo": null, "appraise": null, "website": null, "memo": null, "payTypes": "\u6749\u5fb7\u5361,", "shopTypes": "\u8d85\u5e02", "consumeTypes": null, "cookTypes": null, "orderNum": null, "card4no": null, "card4noAcc": null, "district2": 418, "searchScope": null, "status": 1, "address": "\u91d1\u79d1\u8def2889\u53f7-\u957f\u6cf0\u5e7f\u573aB1\u5c42\u76d2\u9a6c\u9c9c\u751f", "name": "\u957f\u6cf0\u5e97", "id": 540582606295531520, "pageNo": 0, "pageCount": null, "pageSize": 10, "ids": null, "endTime": null, "startTime": null}, {"cardNumFive": null, "isSupportYj": null, "cityName": null, "districtName": null, "shopinfo": {"mid": "888002189990148", "good_flag": "2", "new_flag": "2", "short_name": "\u751f\u6d3b\u6749\u5fb7\u76d2\u9a6c", "short_name_pinyin": "shenghuoshandehema", "status": null, "address": null, "name": null, "id": "540582603091083264"}, "mid": "888002189990148", "shopId": "540582603091083264", "netid": null, "province": 901, "district": 601, "zipcode": null, "telephone": null, "posDate": null, "destineTel": null, "togoTel": null, "trafficWay": null, "signBuilding": null, "businessArea": null, "selfRoom": null, "businessTime": null, "stall": null, "consume": null, "serviceFei": null, "favourable": null, "shopMemo": null, "appraise": null, "website": null, "memo": null, "payTypes": "\u6749\u5fb7\u5361,", "shopTypes": "\u8d85\u5e02", "consumeTypes": null, "cookTypes": null, "orderNum": null, "card4no": null, "card4noAcc": null, "district2": 409, "searchScope": null, "status": 1, "address": "\u83b2\u82b1\u5357\u8def1388\u5f047\u53f7-\u65b0\u835f\u57ce\u8d2d\u7269\u4e2d\u5fc31\u5c42\u76d2\u9a6c\u9c9c\u751f", "name": "\u65b0\u835f\u57ce\u5e97", "id": 540582606652047360, "pageNo": 0, "pageCount": null, "pageSize": 10, "ids": null, "endTime": null, "startTime": null}, {"cardNumFive": null, "isSupportYj": null, "cityName": null, "districtName": null, "shopinfo": {"mid": "888002189990148", "good_flag": "2", "new_flag": "2", "short_name": "\u751f\u6d3b\u6749\u5fb7\u76d2\u9a6c", "short_name_pinyin": "shenghuoshandehema", "status": null, "address": null, "name": null, "id": "540582603091083264"}, "mid": "888002189990148", "shopId": "540582603091083264", "netid": null, "province": 901, "district": 601, "zipcode": null, "telephone": null, "posDate": null, "destineTel": null, "togoTel": null, "trafficWay": null, "signBuilding": null, "businessArea": null, "selfRoom": null, "businessTime": null, "stall": null, "consume": null, "serviceFei": null, "favourable": null, "shopMemo": null, "appraise": null, "website": null, "memo": null, "payTypes": "\u6749\u5fb7\u5361,", "shopTypes": "\u8d85\u5e02", "consumeTypes": null, "cookTypes": null, "orderNum": null, "card4no": null, "card4noAcc": null, "district2": 408, "searchScope": null, "status": 1, "address": "\u5e7f\u7ca4\u8def289\u53f7-\u641c\u4e50\u57ce\u76d2\u4e8c\u5c42\u76d2\u9a6c\u9c9c\u751f", "name": "\u641c\u4e50\u57ce\u5e97", "id": 540582607176335360, "pageNo": 0, "pageCount": null, "pageSize": 10, "ids": null, "endTime": null, "startTime": null}], "pageLimit": 8340, "size": 10}