{"pageCount": 1095, "count": 10942, "pageNo": 837, "subShopInfo": {"cardNumFive": "", "isSupportYj": "", "cityName": null, "districtName": null, "shopinfo": {"mid": null, "good_flag": null, "new_flag": null, "short_name": null, "short_name_pinyin": null, "status": null, "address": "", "name": "", "id": null}, "mid": null, "shopId": null, "netid": null, "province": 901, "district": null, "zipcode": null, "telephone": null, "posDate": null, "destineTel": null, "togoTel": null, "trafficWay": null, "signBuilding": null, "businessArea": null, "selfRoom": null, "businessTime": null, "stall": null, "consume": null, "serviceFei": null, "favourable": null, "shopMemo": "1", "appraise": null, "website": null, "memo": null, "payTypes": "", "shopTypes": "", "consumeTypes": null, "cookTypes": null, "orderNum": null, "card4no": null, "card4noAcc": null, "district2": null, "searchScope": null, "status": null, "address": "", "name": null, "id": null, "pageNo": 836, "pageCount": null, "pageSize": 10, "ids": null, "endTime": null, "startTime": null}, "list": [{"cardNumFive": null, "isSupportYj": null, "cityName": null, "districtName": null, "shopinfo": {"mid": "888002189990148", "good_flag": "2", "new_flag": "2", "short_name": "\u751f\u6d3b\u6749\u5fb7\u76d2\u9a6c", "short_name_pinyin": "shenghuoshandehema", "status": null, "address": null, "name": null, "id": "540582603091083264"}, "mid": "888002189990148", "shopId": "540582603091083264", "netid": null, "province": 901, "district": 601, "zipcode": null, "telephone": null, "posDate": null, "destineTel": null, "togoTel": null, "trafficWay": null, "signBuilding": null, "businessArea": null, "selfRoom": null, "businessTime": null, "stall": null, "consume": null, "serviceFei": null, "favourable": null, "shopMemo": null, "appraise": null, "website": null, "memo": null, "payTypes": "\u6749\u5fb7\u5361,", "shopTypes": "\u8d85\u5e02", "consumeTypes": null, "cookTypes": null, "orderNum": null, "card4no": null, "card4noAcc": null, "district2": 418, "searchScope": null, "status": 1, "address": "\u5eb7\u6865\u9547-\u4e0a\u5357\u8def6717\u53f7\u6c38\u4e50\u5e7f\u573a\u76d2\u9a6c\u9c9c\u751f", "name": "\u5468\u6d66\u5e97", "id": 540582611450331136, "pageNo": 0, "pageCount": null, "pageSize": 10, "ids": null, "endTime": null, "startTime": null}, {"cardNumFive": null, "isSupportYj": null, "cityName": null, "districtName": null, "shopinfo": {"mid": "888002189990148", "good_flag": "2", "new_flag": "2", "short_name": "\u751f\u6d3b\u6749\u5fb7\u76d2\u9a6c", "short_name_pinyin": "shenghuoshandehema", "status": null, "address": null, "name": null, "id": "540582603091083264"}, "mid": "888002189990148", "shopId": "540582603091083264", "netid": null, "province": 901, "district": 601, "zipcode": null, "telephone": null, "posDate": null, "destineTel": null, "togoTel": null, "trafficWay": null, "signBuilding": null, "businessArea": null, "selfRoom": null, "businessTime": null, "stall": null, "consume": null, "serviceFei": null, "favourable": null, "shopMemo": null, "appraise": null, "website": null, "memo": null, "payTypes": "\u6749\u5fb7\u5361,", "shopTypes": null, "consumeTypes": null, "cookTypes": null, "orderNum": null, "card4no": null, "card4noAcc": null, "district2": 404, "searchScope": null, "status": 1, "address": "\u5357\u4eac\u897f\u8def1618\u53f7\u4e45\u5149\u767e\u8d274\u697cY439-1-2", "name": "\u53e4\u68ad\u670d\u9970", "id": 565224385070235648, "pageNo": 0, "pageCount": null, "pageSize": 10, "ids": null, "endTime": null, "startTime": null}, {"cardNumFive": null, "isSupportYj": null, "cityName": null, "districtName": null, "shopinfo": {"mid": "888002189990148", "good_flag": "2", "new_flag": "2", "short_name": "\u751f\u6d3b\u6749\u5fb7\u76d2\u9a6c", "short_name_pinyin": "shenghuoshandehema", "status": null, "address": null, "name": null, "id": "540582603091083264"}, "mid": "888002189990148", "shopId": "540582603091083264", "netid": null, "province": 901, "district": 601, "zipcode": null, "telephone": null, "posDate": null, "destineTel": null, "togoTel": null, "trafficWay": null, "signBuilding": null, "businessArea": null, "selfRoom": null, "businessTime": null, "stall": null, "consume": null, "serviceFei": null, "favourable": null, "shopMemo": null, "appraise": null, "website": null, "memo": null, "payTypes": "\u6749\u5fb7\u5361,", "shopTypes": null, "consumeTypes": null, "cookTypes": null, "orderNum": null, "card4no": null, "card4noAcc": null, "district2": 403, "searchScope": null, "status": 1, "address": "\u745e\u5e73\u8def36\u53f7W\u533aBM\u5c4208\u5ba4\u65c1\u8fb9\u826f\u7389\u516c\u53f8", "name": "\u7eff\u5730\u4f18\u9c9c", "id": 565224385405779968, "pageNo": 0, "pageCount": null, "pageSize": 10, "ids": null, "endTime": null, "startTime": null}, {"cardNumFive": null, "isSupportYj": null, "cityName": null, "districtName": null, "shopinfo": {"mid": "888002189990148", "good_flag": "2", "new_flag": "2", "short_name": "\u751f\u6d3b\u6749\u5fb7\u76d2\u9a6c", "short_name_pinyin": "shenghuoshandehema", "status": null, "address": null, "name": null, "id": "540582603091083264"}, "mid": "888002189990148", "shopId": "540582603091083264", "netid": null, "province": 901, "district": 601, "zipcode": null, "telephone": null, "posDate": null, "destineTel": null, "togoTel": null, "trafficWay": null, "signBuilding": null, "businessArea": null, "selfRoom": null, "businessTime": null, "stall": null, "consume": null, "serviceFei": null, "favourable": null, "shopMemo": null, "appraise": null, "website": null, "memo": null, "payTypes": "\u6749\u5fb7\u5361,", "shopTypes": null, "consumeTypes": null, "cookTypes": null, "orderNum": null, "card4no": null, "card4noAcc": null, "district2": 401, "searchScope": null, "status": 1, "address": "\u9ec4\u9642\u5357\u8def838\u5f04\u4e2d\u6d77\u73af\u5b87\u835f", "name": "JZ\u76d2\u9a6c\u4e0a\u6d77\u4e2d\u6d77\u73af\u5b87\u835f\u5e97", "id": 565224386441773056, "pageNo": 0, "pageCount": null, "pageSize": 10, "ids": null, "endTime": null, "startTime": null}, {"cardNumFive": null, "isSupportYj": null, "cityName": null, "districtName": null, "shopinfo": {"mid": "888002189990148", "good_flag": "2", "new_flag": "2", "short_name": "\u751f\u6d3b\u6749\u5fb7\u76d2\u9a6c", "short_name_pinyin": "shenghuoshandehema", "status": null, "address": null, "name": null, "id": "540582603091083264"}, "mid": "888002189990148", "shopId": "540582603091083264", "netid": null, "province": 901, "district": 601, "zipcode": null, "telephone": null, "posDate": null, "destineTel": null, "togoTel": null, "trafficWay": null, "signBuilding": null, "businessArea": null, "selfRoom": null, "businessTime": null, "stall": null, "consume": null, "serviceFei": null, "favourable": null, "shopMemo": null, "appraise": null, "website": null, "memo": null, "payTypes": "\u6749\u5fb7\u5361,", "shopTypes": null, "consumeTypes": null, "cookTypes": null, "orderNum": null, "card4no": null, "card4noAcc": null, "district2": 401, "searchScope": null, "status": 1, "address": "\u6d77\u6f6e\u8def133\u53f7-B1\u5c42\u76d2\u9a6c\u9c9c\u751f", "name": "JZ\u76d2\u9a6c\u4e0a\u6d77\u4e2d\u798f\u57ce\u5e97", "id": 565224386777317376, "pageNo": 0, "pageCount": null, "pageSize": 10, "ids": null, "endTime": null, "startTime": null}, {"cardNumFive": null, "isSupportYj": null, "cityName": null, "districtName": null, "shopinfo": {"mid": "888002189990148", "good_flag": "2", "new_flag": "2", "short_name": "\u751f\u6d3b\u6749\u5fb7\u76d2\u9a6c", "short_name_pinyin": "shenghuoshandehema", "status": null, "address": null, "name": null, "id": "540582603091083264"}, "mid": "888002189990148", "shopId": "540582603091083264", "netid": null, "province": 901, "district": 601, "zipcode": null, "telephone": null, "posDate": null, "destineTel": null, "togoTel": null, "trafficWay": null, "signBuilding": null, "businessArea": null, "selfRoom": null, "businessTime": null, "stall": null, "consume": null, "serviceFei": null, "favourable": null, "shopMemo": null, "appraise": null, "website": null, "memo": null, "payTypes": "\u6749\u5fb7\u5361,", "shopTypes": null, "consumeTypes": null, "cookTypes": null, "orderNum": null, "card4no": null, "card4noAcc": null, "district2": 412, "searchScope": null, "status": 1, "address": "\u6c5f\u5b66\u8def549-553\u53f7\uff08\u5355\u53f7\uff09\u4e00\u5c42", "name": "\u7f8e\u60e0\u5168\u8d85\u5e02", "id": 565224388610228224, "pageNo": 0, "pageCount": null, "pageSize": 10, "ids": null, "endTime": null, "startTime": null}, {"cardNumFive": null, "isSupportYj": null, "cityName": null, "districtName": null, "shopinfo": {"mid": "888002189990148", "good_flag": "2", "new_flag": "2", "short_name": "\u751f\u6d3b\u6749\u5fb7\u76d2\u9a6c", "short_name_pinyin": "shenghuoshandehema", "status": null, "address": null, "name": null, "id": "540582603091083264"}, "mid": "888002189990148", "shopId": "540582603091083264", "netid": null, "province": 901, "district": 601, "zipcode": null, "telephone": null, "posDate": null, "destineTel": null, "togoTel": null, "trafficWay": null, "signBuilding": null, "businessArea": null, "selfRoom": null, "businessTime": null, "stall": null, "consume": null, "serviceFei": null, "favourable": null, "shopMemo": null, "appraise": null, "website": null, "memo": null, "payTypes": "\u6749\u5fb7\u5361,", "shopTypes": null, "consumeTypes": null, "cookTypes": null, "orderNum": null, "card4no": null, "card4noAcc": null, "district2": 405, "searchScope": null, "status": 1, "address": "\u540c\u666e\u8def428\u53f76\u53f7\u697c", "name": "\u540c\u666e\u8def\u5e97", "id": 565224388970938368, "pageNo": 0, "pageCount": null, "pageSize": 10, "ids": null, "endTime": null, "startTime": null}, {"cardNumFive": null, "isSupportYj": null, "cityName": null, "districtName": null, "shopinfo": {"mid": "888002153311111", "good_flag": "2", "new_flag": "2", "short_name": "\u7533\u6d3b\u9986", "short_name_pinyin": "shenhuoguan", "status": null, "address": null, "name": null, "id": "476799497351987200"}, "mid": "888002153311111", "shopId": "476799497351987200", "netid": null, "province": 901, "district": 601, "zipcode": null, "telephone": null, "posDate": null, "destineTel": null, "togoTel": null, "trafficWay": null, "signBuilding": null, "businessArea": null, "selfRoom": null, "businessTime": null, "stall": null, "consume": null, "serviceFei": null, "favourable": null, "shopMemo": null, "appraise": null, "website": null, "memo": null, "payTypes": "", "shopTypes": null, "consumeTypes": null, "cookTypes": null, "orderNum": null, "card4no": null, "card4noAcc": null, "district2": 401, "searchScope": null, "status": 1, "address": "\u5a01\u6d77\u8def755\u53f7\u6587\u65b0\u62a5\u4e1a\u5927\u53a61\u697c", "name": "\u7533\u6d3b\u9986", "id": 476799495800094720, "pageNo": 0, "pageCount": null, "pageSize": 10, "ids": null, "endTime": null, "startTime": null}, {"cardNumFive": null, "isSupportYj": null, "cityName": null, "districtName": null, "shopinfo": {"mid": "888002153990116", "good_flag": "1", "new_flag": "1", "short_name": "\u795e\u8111\u6570\u7801", "short_name_pinyin": "shennaoshuma", "status": null, "address": null, "name": null, "id": "33291"}, "mid": "888002153990116", "shopId": "33291", "netid": null, "province": 901, "district": 601, "zipcode": null, "telephone": null, "posDate": "20091207", "destineTel": null, "togoTel": null, "trafficWay": null, "signBuilding": null, "businessArea": null, "selfRoom": null, "businessTime": "11:00~21:30", "stall": null, "consume": null, "serviceFei": null, "favourable": null, "shopMemo": null, "appraise": null, "website": null, "memo": null, "payTypes": "\u6749\u5fb7\u5361", "shopTypes": "\u4e13\u5356", "consumeTypes": null, "cookTypes": null, "orderNum": 1000, "card4no": null, "card4noAcc": null, "district2": 403, "searchScope": null, "status": 1, "address": "\u8087\u5609\u6d5c\u8def1111\u53f7", "name": "\u795e\u8111\u6570\u7801 \u8087\u5609\u6d5c\u8def\u5e97", "id": 142233, "pageNo": 0, "pageCount": null, "pageSize": 10, "ids": null, "endTime": null, "startTime": null}, {"cardNumFive": null, "isSupportYj": null, "cityName": null, "districtName": null, "shopinfo": {"mid": "888002173330057", "good_flag": null, "new_flag": null, "short_name": "\u795e\u6ce3\u4e3b\u9898\u6444\u5f71\u9986", "short_name_pinyin": "shenqizhutisheyingguan", "status": null, "address": null, "name": null, "id": "36367"}, "mid": "888002173330057", "shopId": "36367", "netid": null, "province": 901, "district": 601, "zipcode": null, "telephone": null, "posDate": "20100901", "destineTel": null, "togoTel": null, "trafficWay": null, "signBuilding": null, "businessArea": null, "selfRoom": null, "businessTime": null, "stall": null, "consume": null, "serviceFei": null, "favourable": null, "shopMemo": null, "appraise": null, "website": null, "memo": null, "payTypes": "\u6749\u5fb7\u5361", "shopTypes": "\u5176\u4ed6", "consumeTypes": null, "cookTypes": null, "orderNum": 1000, "card4no": null, "card4noAcc": null, "district2": 418, "searchScope": null, "status": 1, "address": "\u4e0a\u5357\u8def3521\u53f7", "name": "\u795e\u6ce3\u4e3b\u9898\u6444\u5f71\u9986 \u4e0a\u5357\u8def\u5e97", "id": 151357, "pageNo": 0, "pageCount": null, "pageSize": 10, "ids": null, "endTime": null, "startTime": null}], "pageLimit": 8360, "size": 10}