{"pageCount": 1095, "count": 10942, "pageNo": 840, "subShopInfo": {"cardNumFive": "", "isSupportYj": "", "cityName": null, "districtName": null, "shopinfo": {"mid": null, "good_flag": null, "new_flag": null, "short_name": null, "short_name_pinyin": null, "status": null, "address": "", "name": "", "id": null}, "mid": null, "shopId": null, "netid": null, "province": 901, "district": null, "zipcode": null, "telephone": null, "posDate": null, "destineTel": null, "togoTel": null, "trafficWay": null, "signBuilding": null, "businessArea": null, "selfRoom": null, "businessTime": null, "stall": null, "consume": null, "serviceFei": null, "favourable": null, "shopMemo": "1", "appraise": null, "website": null, "memo": null, "payTypes": "", "shopTypes": "", "consumeTypes": null, "cookTypes": null, "orderNum": null, "card4no": null, "card4noAcc": null, "district2": null, "searchScope": null, "status": null, "address": "", "name": null, "id": null, "pageNo": 839, "pageCount": null, "pageSize": 10, "ids": null, "endTime": null, "startTime": null}, "list": [{"cardNumFive": null, "isSupportYj": null, "cityName": null, "districtName": null, "shopinfo": {"mid": "888888857190016", "good_flag": "2", "new_flag": "2", "short_name": "\u8212\u7f8e\u5bb6\u9970", "short_name_pinyin": "shumeijiashi", "status": null, "address": null, "name": null, "id": "33342"}, "mid": "888888857190016", "shopId": "33342", "netid": null, "province": 901, "district": 601, "zipcode": null, "telephone": "67731341", "posDate": "20080115", "destineTel": null, "togoTel": null, "trafficWay": "\u6caa\u677e\u7ebf \u677e\u6885\u7ebf \u65c5\u6e381A\u7ebf", "signBuilding": null, "businessArea": null, "selfRoom": null, "businessTime": null, "stall": "\u6709", "consume": null, "serviceFei": null, "favourable": null, "shopMemo": null, "appraise": null, "website": null, "memo": null, "payTypes": "\u6749\u5fb7\u5361", "shopTypes": "\u96f6\u552e", "consumeTypes": null, "cookTypes": null, "orderNum": 1000, "card4no": null, "card4noAcc": null, "district2": 412, "searchScope": null, "status": 1, "address": "\u4e2d\u5c71\u4e8c\u8def166\u53f7", "name": "\u8212\u7f8e\u5bb6\u9970 \u677e\u6c5f\u5e97", "id": 142320, "pageNo": 0, "pageCount": null, "pageSize": 10, "ids": null, "endTime": null, "startTime": null}, {"cardNumFive": null, "isSupportYj": null, "cityName": null, "districtName": null, "shopinfo": {"mid": "888002156910585", "good_flag": "2", "new_flag": "2", "short_name": "\u6dd1\u660e\u5b50", "short_name_pinyin": "shumingzi", "status": null, "address": null, "name": null, "id": "565224362605543424"}, "mid": "888002156910585", "shopId": "565224362605543424", "netid": null, "province": 901, "district": 601, "zipcode": null, "telephone": null, "posDate": null, "destineTel": null, "togoTel": null, "trafficWay": null, "signBuilding": null, "businessArea": null, "selfRoom": null, "businessTime": null, "stall": null, "consume": null, "serviceFei": null, "favourable": null, "shopMemo": null, "appraise": null, "website": null, "memo": null, "payTypes": "\u6749\u5fb7\u5361,", "shopTypes": null, "consumeTypes": null, "cookTypes": null, "orderNum": null, "card4no": null, "card4noAcc": null, "district2": 401, "searchScope": null, "status": 1, "address": "\u8302\u540d\u5357\u8def92\u53f7", "name": "\u8302\u540d\u5357\u8def\u5e97", "id": 565224360676163584, "pageNo": 0, "pageCount": null, "pageSize": 10, "ids": null, "endTime": null, "startTime": null}, {"cardNumFive": null, "isSupportYj": null, "cityName": null, "districtName": null, "shopinfo": {"mid": "888888858120374", "good_flag": null, "new_flag": null, "short_name": "\u987a\u98ce\u5927\u9152\u5e97", "short_name_pinyin": "shunfengdajiudian", "status": null, "address": null, "name": null, "id": "33366"}, "mid": "888888858120374", "shopId": "33366", "netid": null, "province": 901, "district": 601, "zipcode": null, "telephone": "51811317", "posDate": "20080619", "destineTel": null, "togoTel": null, "trafficWay": "\u516c\u4ea4109 \u5730\u94c1\u4e00\u53f7\u7ebf \u96a7\u9053\u4e09\u7ebf", "signBuilding": null, "businessArea": "1600\u5e73\u65b9\u7c73", "selfRoom": null, "businessTime": "10:00~23:00", "stall": "\u6709", "consume": null, "serviceFei": null, "favourable": null, "shopMemo": null, "appraise": null, "website": null, "memo": null, "payTypes": "\u6749\u5fb7\u5361", "shopTypes": "\u9910\u996e", "consumeTypes": null, "cookTypes": null, "orderNum": 1000, "card4no": null, "card4noAcc": null, "district2": 405, "searchScope": null, "status": 1, "address": "\u6052\u4e30\u8def218\u53f7401\u5ba4", "name": "\u987a\u98ce\u5927\u9152\u5e97 \u6052\u4e30\u8def\u5e97", "id": 142366, "pageNo": 0, "pageCount": null, "pageSize": 10, "ids": null, "endTime": null, "startTime": null}, {"cardNumFive": null, "isSupportYj": null, "cityName": null, "districtName": null, "shopinfo": {"mid": "888888858120374", "good_flag": null, "new_flag": null, "short_name": "\u987a\u98ce\u5927\u9152\u5e97", "short_name_pinyin": "shunfengdajiudian", "status": null, "address": null, "name": null, "id": "36502"}, "mid": "888888858120374", "shopId": "36502", "netid": null, "province": 901, "district": 601, "zipcode": null, "telephone": "61189877", "posDate": "20100922", "destineTel": null, "togoTel": null, "trafficWay": null, "signBuilding": null, "businessArea": null, "selfRoom": null, "businessTime": null, "stall": null, "consume": null, "serviceFei": null, "favourable": null, "shopMemo": null, "appraise": null, "website": null, "memo": null, "payTypes": "\u6749\u5fb7\u5361", "shopTypes": "\u9910\u996e", "consumeTypes": null, "cookTypes": null, "orderNum": 1000, "card4no": null, "card4noAcc": null, "district2": 413, "searchScope": null, "status": 1, "address": "\u5357\u6865\u9547\u767e\u9f50\u8def228-288\u53f74\u697c", "name": "\u987a\u98ce\u5927\u9152\u5e97 \u5357\u6865\u5e97", "id": 151794, "pageNo": 0, "pageCount": null, "pageSize": 10, "ids": null, "endTime": null, "startTime": null}, {"cardNumFive": null, "isSupportYj": null, "cityName": null, "districtName": null, "shopinfo": {"mid": "888002158122535", "good_flag": null, "new_flag": null, "short_name": "\u987a\u98ce\u5927\u9152\u5e97", "short_name_pinyin": "shunfengdajiudian", "status": null, "address": null, "name": null, "id": "41401"}, "mid": "888002158122535", "shopId": "41401", "netid": null, "province": 901, "district": 601, "zipcode": null, "telephone": null, "posDate": null, "destineTel": null, "togoTel": null, "trafficWay": null, "signBuilding": null, "businessArea": null, "selfRoom": null, "businessTime": null, "stall": null, "consume": null, "serviceFei": null, "favourable": null, "shopMemo": null, "appraise": null, "website": null, "memo": null, "payTypes": "\u6749\u5fb7\u5361", "shopTypes": "\u9910\u996e", "consumeTypes": null, "cookTypes": null, "orderNum": 1000, "card4no": null, "card4noAcc": null, "district2": 404, "searchScope": null, "status": 1, "address": "\u5434\u6c5f\u8def269\u53f7406\u5355\u5143", "name": "\u987a\u98ce\u5927\u9152\u5e97 \u5434\u6c5f\u5e97", "id": 182362, "pageNo": 0, "pageCount": null, "pageSize": 10, "ids": null, "endTime": null, "startTime": null}, {"cardNumFive": null, "isSupportYj": null, "cityName": null, "districtName": null, "shopinfo": {"mid": "888002158122536", "good_flag": null, "new_flag": null, "short_name": "\u987a\u98ce\u5927\u9152\u5e97", "short_name_pinyin": "shunfengdajiudian", "status": null, "address": null, "name": null, "id": "41402"}, "mid": "888002158122536", "shopId": "41402", "netid": null, "province": 901, "district": 601, "zipcode": null, "telephone": "53960799", "posDate": null, "destineTel": null, "togoTel": null, "trafficWay": null, "signBuilding": null, "businessArea": null, "selfRoom": null, "businessTime": null, "stall": null, "consume": null, "serviceFei": null, "favourable": null, "shopMemo": null, "appraise": null, "website": null, "memo": null, "payTypes": "\u6749\u5fb7\u5361", "shopTypes": "\u9910\u996e", "consumeTypes": null, "cookTypes": null, "orderNum": 1000, "card4no": null, "card4noAcc": null, "district2": 401, "searchScope": null, "status": 1, "address": "\u6253\u6d66\u8def1\u53f7\u91d1\u5170\u5e7f\u573a2\u697c", "name": "\u987a\u98ce\u5927\u9152\u5e97 \u91d1\u7389\u5170\u5e97", "id": 182363, "pageNo": 0, "pageCount": null, "pageSize": 10, "ids": null, "endTime": null, "startTime": null}, {"cardNumFive": null, "isSupportYj": null, "cityName": null, "districtName": null, "shopinfo": {"mid": "888002158122537", "good_flag": null, "new_flag": null, "short_name": "\u987a\u98ce\u5927\u9152\u5e97", "short_name_pinyin": "shunfengdajiudian", "status": null, "address": null, "name": null, "id": "41403"}, "mid": "888002158122537", "shopId": "41403", "netid": null, "province": 901, "district": 601, "zipcode": null, "telephone": "63527017", "posDate": null, "destineTel": null, "togoTel": null, "trafficWay": null, "signBuilding": null, "businessArea": null, "selfRoom": null, "businessTime": null, "stall": null, "consume": null, "serviceFei": null, "favourable": null, "shopMemo": null, "appraise": null, "website": null, "memo": null, "payTypes": "\u6749\u5fb7\u5361", "shopTypes": "\u9910\u996e", "consumeTypes": null, "cookTypes": null, "orderNum": 1000, "card4no": null, "card4noAcc": null, "district2": 401, "searchScope": null, "status": 1, "address": "\u897f\u85cf\u4e2d\u8def500\u53f77\u697c", "name": "\u987a\u98ce\u5927\u9152\u5e97 \u516d\u5408\u5e97", "id": 182364, "pageNo": 0, "pageCount": null, "pageSize": 10, "ids": null, "endTime": null, "startTime": null}, {"cardNumFive": null, "isSupportYj": null, "cityName": null, "districtName": null, "shopinfo": {"mid": "888002158122538", "good_flag": null, "new_flag": null, "short_name": "\u987a\u98ce\u5927\u9152\u5e97", "short_name_pinyin": "shunfengdajiudian", "status": null, "address": null, "name": null, "id": "41404"}, "mid": "888002158122538", "shopId": "41404", "netid": null, "province": 901, "district": 601, "zipcode": null, "telephone": "63759358", "posDate": null, "destineTel": null, "togoTel": null, "trafficWay": null, "signBuilding": null, "businessArea": null, "selfRoom": null, "businessTime": null, "stall": null, "consume": null, "serviceFei": null, "favourable": null, "shopMemo": null, "appraise": null, "website": null, "memo": null, "payTypes": "\u6749\u5fb7\u5361", "shopTypes": "\u9910\u996e", "consumeTypes": null, "cookTypes": null, "orderNum": 1000, "card4no": null, "card4noAcc": null, "district2": 401, "searchScope": null, "status": 1, "address": "\u9ec4\u9642\u5317\u8def227\u53f73\u697c", "name": "\u987a\u98ce\u5927\u9152\u5e97 \u4e2d\u533a\u5e97", "id": 182365, "pageNo": 0, "pageCount": null, "pageSize": 10, "ids": null, "endTime": null, "startTime": null}, {"cardNumFive": null, "isSupportYj": null, "cityName": null, "districtName": null, "shopinfo": {"mid": "888002158122540", "good_flag": null, "new_flag": null, "short_name": "\u987a\u98ce\u5927\u9152\u5e97", "short_name_pinyin": "shunfengdajiudian", "status": null, "address": null, "name": null, "id": "41406"}, "mid": "888002158122540", "shopId": "41406", "netid": null, "province": 901, "district": 601, "zipcode": null, "telephone": "51812107", "posDate": null, "destineTel": null, "togoTel": null, "trafficWay": null, "signBuilding": null, "businessArea": null, "selfRoom": null, "businessTime": null, "stall": null, "consume": null, "serviceFei": null, "favourable": null, "shopMemo": null, "appraise": null, "website": null, "memo": null, "payTypes": "\u6749\u5fb7\u5361", "shopTypes": "\u9910\u996e", "consumeTypes": null, "cookTypes": null, "orderNum": 1000, "card4no": null, "card4noAcc": null, "district2": 408, "searchScope": null, "status": 1, "address": "\u745e\u8679\u8def116\u53f7201\u5355\u5143", "name": "\u987a\u98ce\u5927\u9152\u5e97 \u745e\u8679\u5e97", "id": 182367, "pageNo": 0, "pageCount": null, "pageSize": 10, "ids": null, "endTime": null, "startTime": null}, {"cardNumFive": null, "isSupportYj": null, "cityName": null, "districtName": null, "shopinfo": {"mid": "888002158122577", "good_flag": null, "new_flag": null, "short_name": "\u987a\u98ce\u5927\u9152\u5e97", "short_name_pinyin": "shunfengdajiudian", "status": null, "address": null, "name": null, "id": "42357"}, "mid": "888002158122577", "shopId": "42357", "netid": null, "province": 901, "district": 601, "zipcode": null, "telephone": null, "posDate": null, "destineTel": null, "togoTel": null, "trafficWay": null, "signBuilding": null, "businessArea": null, "selfRoom": null, "businessTime": null, "stall": null, "consume": null, "serviceFei": null, "favourable": null, "shopMemo": null, "appraise": null, "website": null, "memo": null, "payTypes": "\u6749\u5fb7\u5361", "shopTypes": "\u4fbf\u5229\u5e97", "consumeTypes": null, "cookTypes": null, "orderNum": 1000, "card4no": null, "card4noAcc": null, "district2": 404, "searchScope": null, "status": 1, "address": "\u534e\u5c71\u8def2038-2068\u53f75\u697c", "name": "\u987a\u98ce\u5927\u9152\u5e97 \u6c47\u534e\u5e97", "id": 188923, "pageNo": 0, "pageCount": null, "pageSize": 10, "ids": null, "endTime": null, "startTime": null}], "pageLimit": 8390, "size": 10}