{"pageCount": 1095, "count": 10942, "pageNo": 844, "subShopInfo": {"cardNumFive": "", "isSupportYj": "", "cityName": null, "districtName": null, "shopinfo": {"mid": null, "good_flag": null, "new_flag": null, "short_name": null, "short_name_pinyin": null, "status": null, "address": "", "name": "", "id": null}, "mid": null, "shopId": null, "netid": null, "province": 901, "district": null, "zipcode": null, "telephone": null, "posDate": null, "destineTel": null, "togoTel": null, "trafficWay": null, "signBuilding": null, "businessArea": null, "selfRoom": null, "businessTime": null, "stall": null, "consume": null, "serviceFei": null, "favourable": null, "shopMemo": "1", "appraise": null, "website": null, "memo": null, "payTypes": "", "shopTypes": "", "consumeTypes": null, "cookTypes": null, "orderNum": null, "card4no": null, "card4noAcc": null, "district2": null, "searchScope": null, "status": null, "address": "", "name": null, "id": null, "pageNo": 843, "pageCount": null, "pageSize": 10, "ids": null, "endTime": null, "startTime": null}, "list": [{"cardNumFive": null, "isSupportYj": null, "cityName": null, "districtName": null, "shopinfo": {"mid": "888888857220001", "good_flag": null, "new_flag": null, "short_name": "\u82cf\u5b81\u7535\u5668", "short_name_pinyin": "suningdianqi", "status": null, "address": null, "name": null, "id": "33396"}, "mid": "888888857220001", "shopId": "33396", "netid": null, "province": 901, "district": 601, "zipcode": null, "telephone": "\u5ba2\u6237\u670d\u52a1\u7535\u8bdd\uff1a4008365365\u8f6c\u5404\u95e8\u5e97", "posDate": "20061228", "destineTel": "4008365365", "togoTel": "4008365365", "trafficWay": "\u516c\u4ea4909", "signBuilding": null, "businessArea": "\u5747\u4e3a4468\u5e73\u7c73", "selfRoom": "\u65e0", "businessTime": "09:00~21:00", "stall": "\u65e0", "consume": null, "serviceFei": null, "favourable": null, "shopMemo": null, "appraise": null, "website": "www.cnsuning.com", "memo": "\u5e97\u5185\u82f9\u679c\u4e13\u67dc\u5546\u54c1\u6682\u4e0d\u4f7f\u7528\u6749\u5fb7\u5361", "payTypes": "\u6749\u5fb7\u5361", "shopTypes": "\u8d85\u5e02", "consumeTypes": null, "cookTypes": null, "orderNum": 1000, "card4no": null, "card4noAcc": null, "district2": 416, "searchScope": null, "status": 1, "address": "\u534e\u7075\u8def1090\u53f7", "name": "\u82cf\u5b81\u7535\u5668 \u5927\u534e\u5e97", "id": 142419, "pageNo": 0, "pageCount": null, "pageSize": 10, "ids": null, "endTime": null, "startTime": null}, {"cardNumFive": null, "isSupportYj": null, "cityName": null, "districtName": null, "shopinfo": {"mid": "888888857220001", "good_flag": null, "new_flag": null, "short_name": "\u82cf\u5b81\u7535\u5668", "short_name_pinyin": "suningdianqi", "status": null, "address": null, "name": null, "id": "33396"}, "mid": "888888857220001", "shopId": "33396", "netid": null, "province": 901, "district": 601, "zipcode": null, "telephone": null, "posDate": null, "destineTel": null, "togoTel": null, "trafficWay": null, "signBuilding": null, "businessArea": null, "selfRoom": null, "businessTime": null, "stall": null, "consume": null, "serviceFei": null, "favourable": null, "shopMemo": null, "appraise": null, "website": null, "memo": "\u5e97\u5185\u82f9\u679c\u4e13\u67dc\u5546\u54c1\u6682\u4e0d\u4f7f\u7528\u6749\u5fb7\u5361", "payTypes": "\u6749\u5fb7\u5361", "shopTypes": "\u8d85\u5e02", "consumeTypes": null, "cookTypes": null, "orderNum": 1000, "card4no": null, "card4noAcc": null, "district2": 418, "searchScope": null, "status": 1, "address": "\u4e1c\u660e\u8def2719\u53f7\uff08\u8fd1\u6c38\u6cf0\u8def\uff09", "name": "\u82cf\u5b81\u7535\u5668 \u4e1c\u660e\u8def\u5e97", "id": 142420, "pageNo": 0, "pageCount": null, "pageSize": 10, "ids": null, "endTime": null, "startTime": null}, {"cardNumFive": null, "isSupportYj": null, "cityName": null, "districtName": null, "shopinfo": {"mid": "888888857220001", "good_flag": null, "new_flag": null, "short_name": "\u82cf\u5b81\u7535\u5668", "short_name_pinyin": "suningdianqi", "status": null, "address": null, "name": null, "id": "33396"}, "mid": "888888857220001", "shopId": "33396", "netid": null, "province": 901, "district": 601, "zipcode": null, "telephone": "\u5ba2\u6237\u670d\u52a1\u7535\u8bdd\uff1a4008365365\u8f6c\u5404\u95e8\u5e97", "posDate": "20061229", "destineTel": "4008365365", "togoTel": "4008365365", "trafficWay": "\u6caa\u5949\u4e13\u7ebf \u7533\u5357\u4e13\u7ebf \u5357\u6885\u7ebf", "signBuilding": null, "businessArea": "\u5747\u4e3a4468\u5e73\u7c73", "selfRoom": "\u65e0", "businessTime": "09:00~21:00", "stall": "\u65e0", "consume": null, "serviceFei": null, "favourable": null, "shopMemo": null, "appraise": null, "website": "www.cnsuning.com", "memo": "\u5e97\u5185\u82f9\u679c\u4e13\u67dc\u5546\u54c1\u6682\u4e0d\u4f7f\u7528\u6749\u5fb7\u5361", "payTypes": "\u6749\u5fb7\u5361", "shopTypes": "\u8d85\u5e02", "consumeTypes": null, "cookTypes": null, "orderNum": 1000, "card4no": null, "card4noAcc": null, "district2": 413, "searchScope": null, "status": 1, "address": "\u5357\u5949\u516c\u8def9269\u53f7", "name": "\u82cf\u5b81\u7535\u5668 \u5949\u8d24\u5e97", "id": 142421, "pageNo": 0, "pageCount": null, "pageSize": 10, "ids": null, "endTime": null, "startTime": null}, {"cardNumFive": null, "isSupportYj": null, "cityName": null, "districtName": null, "shopinfo": {"mid": "888888857220001", "good_flag": null, "new_flag": null, "short_name": "\u82cf\u5b81\u7535\u5668", "short_name_pinyin": "suningdianqi", "status": null, "address": null, "name": null, "id": "33396"}, "mid": "888888857220001", "shopId": "33396", "netid": null, "province": 901, "district": 601, "zipcode": null, "telephone": "\u5ba2\u6237\u670d\u52a1\u7535\u8bdd\uff1a4008365365\u8f6c\u5404\u95e8\u5e97", "posDate": "20061228", "destineTel": "4008365365", "togoTel": "4008365365", "trafficWay": "\u5730\u94c1\u4e00\u53f7\u7ebf", "signBuilding": null, "businessArea": "\u5747\u4e3a4468\u5e73\u7c73", "selfRoom": "\u65e0", "businessTime": "09:00~21:00", "stall": "\u65e0", "consume": null, "serviceFei": null, "favourable": null, "shopMemo": null, "appraise": null, "website": "www.cnsuning.com", "memo": "\u5e97\u5185\u82f9\u679c\u4e13\u67dc\u5546\u54c1\u6682\u4e0d\u4f7f\u7528\u6749\u5fb7\u5361", "payTypes": "\u6749\u5fb7\u5361", "shopTypes": "\u8d85\u5e02", "consumeTypes": null, "cookTypes": null, "orderNum": 1000, "card4no": null, "card4noAcc": null, "district2": 410, "searchScope": null, "status": 1, "address": "\u5171\u548c\u65b0\u8def4735\u53f7", "name": "\u82cf\u5b81\u7535\u5668 \u5171\u5eb7\u5e97", "id": 142422, "pageNo": 0, "pageCount": null, "pageSize": 10, "ids": null, "endTime": null, "startTime": null}, {"cardNumFive": null, "isSupportYj": null, "cityName": null, "districtName": null, "shopinfo": {"mid": "888888857220001", "good_flag": null, "new_flag": null, "short_name": "\u82cf\u5b81\u7535\u5668", "short_name_pinyin": "suningdianqi", "status": null, "address": null, "name": null, "id": "33396"}, "mid": "888888857220001", "shopId": "33396", "netid": null, "province": 901, "district": 601, "zipcode": null, "telephone": null, "posDate": "200908", "destineTel": null, "togoTel": null, "trafficWay": "\u516c\u4ea446\u3001741", "signBuilding": null, "businessArea": null, "selfRoom": null, "businessTime": null, "stall": null, "consume": null, "serviceFei": null, "favourable": null, "shopMemo": null, "appraise": null, "website": null, "memo": "\u5e97\u5185\u82f9\u679c\u4e13\u67dc\u5546\u54c1\u6682\u4e0d\u4f7f\u7528\u6749\u5fb7\u5361", "payTypes": "\u6749\u5fb7\u5361", "shopTypes": "\u8d85\u5e02", "consumeTypes": null, "cookTypes": null, "orderNum": 1000, "card4no": null, "card4noAcc": null, "district2": 410, "searchScope": null, "status": 1, "address": "\u5171\u548c\u65b0\u8def3230\u53f7", "name": "\u82cf\u5b81\u7535\u5668 \u5171\u5eb7\u4e09\u5e97", "id": 142424, "pageNo": 0, "pageCount": null, "pageSize": 10, "ids": null, "endTime": null, "startTime": null}, {"cardNumFive": null, "isSupportYj": null, "cityName": null, "districtName": null, "shopinfo": {"mid": "888888857220001", "good_flag": null, "new_flag": null, "short_name": "\u82cf\u5b81\u7535\u5668", "short_name_pinyin": "suningdianqi", "status": null, "address": null, "name": null, "id": "33396"}, "mid": "888888857220001", "shopId": "33396", "netid": null, "province": 901, "district": 601, "zipcode": null, "telephone": "\u5ba2\u6237\u670d\u52a1\u7535\u8bdd\uff1a4008365365\u8f6c\u5404\u95e8\u5e97", "posDate": "20061221", "destineTel": "4008365365", "togoTel": "4008365366", "trafficWay": "\u516c\u4ea4939 \u65c5\u6e3810\u53f7\u7ebf \u7533\u5ddd\u7ebf", "signBuilding": null, "businessArea": "\u5747\u4e3a4468\u5e73\u7c73", "selfRoom": "\u65e0", "businessTime": "09:00~21:00", "stall": "\u65e0", "consume": null, "serviceFei": null, "favourable": null, "shopMemo": null, "appraise": null, "website": "www.cnsuning.com", "memo": "\u5e97\u5185\u82f9\u679c\u4e13\u67dc\u5546\u54c1\u6682\u4e0d\u4f7f\u7528\u6749\u5fb7\u5361", "payTypes": "\u6749\u5fb7\u5361", "shopTypes": "\u8d85\u5e02", "consumeTypes": null, "cookTypes": null, "orderNum": 1000, "card4no": null, "card4noAcc": null, "district2": 408, "searchScope": null, "status": 1, "address": "\u6d77\u5b81\u8def358\u53f7", "name": "\u82cf\u5b81\u7535\u5668 \u8679\u53e3\u5e97", "id": 142427, "pageNo": 0, "pageCount": null, "pageSize": 10, "ids": null, "endTime": null, "startTime": null}, {"cardNumFive": null, "isSupportYj": null, "cityName": null, "districtName": null, "shopinfo": {"mid": "888888857220001", "good_flag": null, "new_flag": null, "short_name": "\u82cf\u5b81\u7535\u5668", "short_name_pinyin": "suningdianqi", "status": null, "address": null, "name": null, "id": "33396"}, "mid": "888888857220001", "shopId": "33396", "netid": null, "province": 901, "district": 601, "zipcode": null, "telephone": "23079888", "posDate": "20080619", "destineTel": null, "togoTel": null, "trafficWay": "\u516c\u4ea4218 720", "signBuilding": null, "businessArea": null, "selfRoom": null, "businessTime": null, "stall": null, "consume": null, "serviceFei": null, "favourable": null, "shopMemo": null, "appraise": null, "website": null, "memo": "\u5e97\u5185\u82f9\u679c\u4e13\u67dc\u5546\u54c1\u6682\u4e0d\u4f7f\u7528\u6749\u5fb7\u5361", "payTypes": "\u6749\u5fb7\u5361", "shopTypes": "\u8d85\u5e02", "consumeTypes": null, "cookTypes": null, "orderNum": 1000, "card4no": null, "card4noAcc": null, "district2": 409, "searchScope": null, "status": 1, "address": "\u8679\u6885\u5357\u8def1005\u53f7", "name": "\u82cf\u5b81\u7535\u5668 \u8679\u6885\u5357\u8def\u5e97", "id": 142428, "pageNo": 0, "pageCount": null, "pageSize": 10, "ids": null, "endTime": null, "startTime": null}, {"cardNumFive": null, "isSupportYj": null, "cityName": null, "districtName": null, "shopinfo": {"mid": "888888857220001", "good_flag": null, "new_flag": null, "short_name": "\u82cf\u5b81\u7535\u5668", "short_name_pinyin": "suningdianqi", "status": null, "address": null, "name": null, "id": "33396"}, "mid": "888888857220001", "shopId": "33396", "netid": null, "province": 901, "district": 601, "zipcode": null, "telephone": "\u5ba2\u6237\u670d\u52a1\u7535\u8bdd\uff1a4008365365\u8f6c\u5404\u95e8\u5e97", "posDate": "20061227", "destineTel": "4008365365", "togoTel": "4008365365", "trafficWay": "\u516c\u4ea4147 975 713", "signBuilding": null, "businessArea": "\u5747\u4e3a4468\u5e73\u7c73", "selfRoom": "\u65e0", "businessTime": "09:00~21:00", "stall": "\u65e0", "consume": null, "serviceFei": null, "favourable": null, "shopMemo": null, "appraise": null, "website": "www.cnsuning.com", "memo": "\u5e97\u5185\u82f9\u679c\u4e13\u67dc\u5546\u54c1\u6682\u4e0d\u4f7f\u7528\u6749\u5fb7\u5361", "payTypes": "\u6749\u5fb7\u5361", "shopTypes": "\u8d85\u5e02", "consumeTypes": null, "cookTypes": null, "orderNum": 1000, "card4no": null, "card4noAcc": null, "district2": 407, "searchScope": null, "status": 1, "address": "\u9ec4\u5174\u8def1616\u53f7", "name": "\u82cf\u5b81\u7535\u5668 \u9ec4\u5174\u5546\u573a\u5e97", "id": 142429, "pageNo": 0, "pageCount": null, "pageSize": 10, "ids": null, "endTime": null, "startTime": null}, {"cardNumFive": null, "isSupportYj": null, "cityName": null, "districtName": null, "shopinfo": {"mid": "888888857220001", "good_flag": null, "new_flag": null, "short_name": "\u82cf\u5b81\u7535\u5668", "short_name_pinyin": "suningdianqi", "status": null, "address": null, "name": null, "id": "33396"}, "mid": "888888857220001", "shopId": "33396", "netid": null, "province": 901, "district": 601, "zipcode": null, "telephone": "\u5ba2\u6237\u670d\u52a1\u7535\u8bdd\uff1a4008365365\u8f6c\u5404\u95e8\u5e97", "posDate": "20061227", "destineTel": "4008365365", "togoTel": "4008365365", "trafficWay": "\u516c\u4ea4502 \u5b9d\u6768\u7801\u5934\u4e13\u7ebf 952", "signBuilding": null, "businessArea": "\u5747\u4e3a4468\u5e73\u7c73", "selfRoom": "\u65e0", "businessTime": "09:00~21:00", "stall": "\u65e0", "consume": null, "serviceFei": null, "favourable": null, "shopMemo": null, "appraise": null, "website": "www.cnsuning.com", "memo": "\u5e97\u5185\u82f9\u679c\u4e13\u67dc\u5546\u54c1\u6682\u4e0d\u4f7f\u7528\u6749\u5fb7\u5361", "payTypes": "\u6749\u5fb7\u5361", "shopTypes": "\u8d85\u5e02", "consumeTypes": null, "cookTypes": null, "orderNum": 1000, "card4no": null, "card4noAcc": null, "district2": 407, "searchScope": null, "status": 1, "address": "\u5409\u6d66\u8def521\u53f7", "name": "\u82cf\u5b81\u7535\u5668 \u5409\u6d66\u5e97", "id": 142430, "pageNo": 0, "pageCount": null, "pageSize": 10, "ids": null, "endTime": null, "startTime": null}, {"cardNumFive": null, "isSupportYj": null, "cityName": null, "districtName": null, "shopinfo": {"mid": "888888857220001", "good_flag": null, "new_flag": null, "short_name": "\u82cf\u5b81\u7535\u5668", "short_name_pinyin": "suningdianqi", "status": null, "address": null, "name": null, "id": "33396"}, "mid": "888888857220001", "shopId": "33396", "netid": null, "province": 901, "district": 601, "zipcode": null, "telephone": null, "posDate": "20080828", "destineTel": null, "togoTel": null, "trafficWay": "\u516c\u4ea4\u65c5\u6e386A\u7ebf \u5609\u5510\u534e\u652f\u7ebf \u5609\u7f57\u533a\u95f4\u7ebf", "signBuilding": null, "businessArea": null, "selfRoom": null, "businessTime": null, "stall": null, "consume": null, "serviceFei": null, "favourable": null, "shopMemo": null, "appraise": null, "website": null, "memo": "\u5e97\u5185\u82f9\u679c\u4e13\u67dc\u5546\u54c1\u6682\u4e0d\u4f7f\u7528\u6749\u5fb7\u5361", "payTypes": "\u6749\u5fb7\u5361", "shopTypes": "\u8d85\u5e02", "consumeTypes": null, "cookTypes": null, "orderNum": 1000, "card4no": null, "card4noAcc": null, "district2": 411, "searchScope": null, "status": 1, "address": "\u6e05\u6cb3\u8def4-6\u53f7", "name": "\u82cf\u5b81\u7535\u5668 \u5609\u5b9a\u6e05\u6cb3\u5e97", "id": 142431, "pageNo": 0, "pageCount": null, "pageSize": 10, "ids": null, "endTime": null, "startTime": null}], "pageLimit": 8430, "size": 10}