{"pageCount": 1095, "count": 10942, "pageNo": 845, "subShopInfo": {"cardNumFive": "", "isSupportYj": "", "cityName": null, "districtName": null, "shopinfo": {"mid": null, "good_flag": null, "new_flag": null, "short_name": null, "short_name_pinyin": null, "status": null, "address": "", "name": "", "id": null}, "mid": null, "shopId": null, "netid": null, "province": 901, "district": null, "zipcode": null, "telephone": null, "posDate": null, "destineTel": null, "togoTel": null, "trafficWay": null, "signBuilding": null, "businessArea": null, "selfRoom": null, "businessTime": null, "stall": null, "consume": null, "serviceFei": null, "favourable": null, "shopMemo": "1", "appraise": null, "website": null, "memo": null, "payTypes": "", "shopTypes": "", "consumeTypes": null, "cookTypes": null, "orderNum": null, "card4no": null, "card4noAcc": null, "district2": null, "searchScope": null, "status": null, "address": "", "name": null, "id": null, "pageNo": 844, "pageCount": null, "pageSize": 10, "ids": null, "endTime": null, "startTime": null}, "list": [{"cardNumFive": null, "isSupportYj": null, "cityName": null, "districtName": null, "shopinfo": {"mid": "888888857220001", "good_flag": null, "new_flag": null, "short_name": "\u82cf\u5b81\u7535\u5668", "short_name_pinyin": "suningdianqi", "status": null, "address": null, "name": null, "id": "33396"}, "mid": "888888857220001", "shopId": "33396", "netid": null, "province": 901, "district": 601, "zipcode": null, "telephone": "\u5ba2\u6237\u670d\u52a1\u7535\u8bdd\uff1a4008365365\u8f6c\u5404\u95e8\u5e97", "posDate": "20061226", "destineTel": "4008365365", "togoTel": "4008365365", "trafficWay": "\u65c5\u6e386A\u7ebf", "signBuilding": null, "businessArea": "\u5747\u4e3a4468\u5e73\u7c73", "selfRoom": "\u65e0", "businessTime": "09:00~21:00", "stall": "\u65e0", "consume": null, "serviceFei": null, "favourable": null, "shopMemo": null, "appraise": null, "website": "www.cnsuning.com", "memo": "\u5e97\u5185\u82f9\u679c\u4e13\u67dc\u5546\u54c1\u6682\u4e0d\u4f7f\u7528\u6749\u5fb7\u5361", "payTypes": "\u6749\u5fb7\u5361", "shopTypes": "\u8d85\u5e02", "consumeTypes": null, "cookTypes": null, "orderNum": 1000, "card4no": null, "card4noAcc": null, "district2": 411, "searchScope": null, "status": 1, "address": "\u6caa\u5b9c\u516c\u8def3205\u53f7", "name": "\u82cf\u5b81\u7535\u5668 \u5609\u5b9a\u5546\u573a\u5e97", "id": 142432, "pageNo": 0, "pageCount": null, "pageSize": 10, "ids": null, "endTime": null, "startTime": null}, {"cardNumFive": null, "isSupportYj": null, "cityName": null, "districtName": null, "shopinfo": {"mid": "888888857220001", "good_flag": null, "new_flag": null, "short_name": "\u82cf\u5b81\u7535\u5668", "short_name_pinyin": "suningdianqi", "status": null, "address": null, "name": null, "id": "33396"}, "mid": "888888857220001", "shopId": "33396", "netid": null, "province": 901, "district": 601, "zipcode": null, "telephone": "50757235", "posDate": "20061225", "destineTel": "4008365365", "togoTel": "4008365365", "trafficWay": "\u65b0\u5ddd\u4e13\u7ebf", "signBuilding": null, "businessArea": "\u5747\u4e3a4468\u5e73\u7c73", "selfRoom": "\u65e0", "businessTime": "09:00~21:00", "stall": "\u65e0", "consume": null, "serviceFei": null, "favourable": null, "shopMemo": null, "appraise": null, "website": "www.cnsuning.com", "memo": "\u5e97\u5185\u82f9\u679c\u4e13\u67dc\u5546\u54c1\u6682\u4e0d\u4f7f\u7528\u6749\u5fb7\u5361", "payTypes": "\u6749\u5fb7\u5361", "shopTypes": "\u8d85\u5e02", "consumeTypes": null, "cookTypes": null, "orderNum": 1000, "card4no": null, "card4noAcc": null, "district2": 418, "searchScope": null, "status": 1, "address": "\u91d1\u6768\u8def755\u53f7", "name": "\u82cf\u5b81\u7535\u5668 \u91d1\u6865\u5e97", "id": 142433, "pageNo": 0, "pageCount": null, "pageSize": 10, "ids": null, "endTime": null, "startTime": null}, {"cardNumFive": null, "isSupportYj": null, "cityName": null, "districtName": null, "shopinfo": {"mid": "888888857220001", "good_flag": null, "new_flag": null, "short_name": "\u82cf\u5b81\u7535\u5668", "short_name_pinyin": "suningdianqi", "status": null, "address": null, "name": null, "id": "33396"}, "mid": "888888857220001", "shopId": "33396", "netid": null, "province": 901, "district": 601, "zipcode": null, "telephone": "\u5ba2\u6237\u670d\u52a1\u7535\u8bdd\uff1a4008365365\u8f6c\u5404\u95e8\u5e97", "posDate": "20080418", "destineTel": null, "togoTel": null, "trafficWay": null, "signBuilding": null, "businessArea": "\u5747\u4e3a4468\u5e73\u7c73", "selfRoom": null, "businessTime": "9:00~21:00", "stall": "\u6709", "consume": null, "serviceFei": null, "favourable": null, "shopMemo": null, "appraise": null, "website": null, "memo": "\u5e97\u5185\u82f9\u679c\u4e13\u67dc\u5546\u54c1\u6682\u4e0d\u4f7f\u7528\u6749\u5fb7\u5361", "payTypes": "\u6749\u5fb7\u5361", "shopTypes": "\u8d85\u5e02", "consumeTypes": null, "cookTypes": null, "orderNum": 1000, "card4no": null, "card4noAcc": null, "district2": 414, "searchScope": null, "status": 1, "address": "\u77f3\u5316\u536b\u6e05\u8def325\u53f7", "name": "\u82cf\u5b81\u7535\u5668 \u91d1\u5c71\u5e97", "id": 142434, "pageNo": 0, "pageCount": null, "pageSize": 10, "ids": null, "endTime": null, "startTime": null}, {"cardNumFive": null, "isSupportYj": null, "cityName": null, "districtName": null, "shopinfo": {"mid": "888888857220001", "good_flag": null, "new_flag": null, "short_name": "\u82cf\u5b81\u7535\u5668", "short_name_pinyin": "suningdianqi", "status": null, "address": null, "name": null, "id": "33396"}, "mid": "888888857220001", "shopId": "33396", "netid": null, "province": 901, "district": 601, "zipcode": null, "telephone": "\u5ba2\u6237\u670d\u52a1\u7535\u8bdd\uff1a4008365365\u8f6c\u5404\u95e8\u5e97", "posDate": "20061229", "destineTel": "4008365365", "togoTel": "4008365365", "trafficWay": "\u83b2\u77f3\u4e13\u7ebf", "signBuilding": null, "businessArea": "\u5747\u4e3a4468\u5e73\u7c73", "selfRoom": "\u65e0", "businessTime": "09:00~21:00", "stall": "\u65e0", "consume": null, "serviceFei": null, "favourable": null, "shopMemo": null, "appraise": null, "website": "www.cnsuning.com", "memo": "\u5e97\u5185\u82f9\u679c\u4e13\u67dc\u5546\u54c1\u6682\u4e0d\u4f7f\u7528\u6749\u5fb7\u5361", "payTypes": "\u6749\u5fb7\u5361", "shopTypes": "\u8d85\u5e02", "consumeTypes": null, "cookTypes": null, "orderNum": 1000, "card4no": null, "card4noAcc": null, "district2": 414, "searchScope": null, "status": 1, "address": "\u536b\u7075\u8def136\u53f7", "name": "\u82cf\u5b81\u7535\u5668 \u91d1\u5c71\u536b\u96f6\u8def\u5e97", "id": 142435, "pageNo": 0, "pageCount": null, "pageSize": 10, "ids": null, "endTime": null, "startTime": null}, {"cardNumFive": null, "isSupportYj": null, "cityName": null, "districtName": null, "shopinfo": {"mid": "888888857220001", "good_flag": null, "new_flag": null, "short_name": "\u82cf\u5b81\u7535\u5668", "short_name_pinyin": "suningdianqi", "status": null, "address": null, "name": null, "id": "33396"}, "mid": "888888857220001", "shopId": "33396", "netid": null, "province": 901, "district": 601, "zipcode": null, "telephone": "\u5ba2\u6237\u670d\u52a1\u7535\u8bdd\uff1a4008365365\u8f6c\u5404\u95e8\u5e97", "posDate": "20061226", "destineTel": "4008365365", "togoTel": "4008365365", "trafficWay": "\u516c\u4ea4767B 744", "signBuilding": null, "businessArea": "\u5747\u4e3a4468\u5e73\u7c73", "selfRoom": "\u65e0", "businessTime": "09:00~21:00", "stall": "\u65e0", "consume": null, "serviceFei": null, "favourable": null, "shopMemo": null, "appraise": null, "website": "www.cnsuning.com", "memo": "\u5e97\u5185\u82f9\u679c\u4e13\u67dc\u5546\u54c1\u6682\u4e0d\u4f7f\u7528\u6749\u5fb7\u5361", "payTypes": "\u6749\u5fb7\u5361", "shopTypes": "\u8d85\u5e02", "consumeTypes": null, "cookTypes": null, "orderNum": 1000, "card4no": null, "card4noAcc": null, "district2": 416, "searchScope": null, "status": 1, "address": "\u7941\u8fde\u5c71\u8def2500\u53f7", "name": "\u82cf\u5b81\u7535\u5668 \u805a\u4e30\u56ed\u5e97", "id": 142436, "pageNo": 0, "pageCount": null, "pageSize": 10, "ids": null, "endTime": null, "startTime": null}, {"cardNumFive": null, "isSupportYj": null, "cityName": null, "districtName": null, "shopinfo": {"mid": "888888857220001", "good_flag": null, "new_flag": null, "short_name": "\u82cf\u5b81\u7535\u5668", "short_name_pinyin": "suningdianqi", "status": null, "address": null, "name": null, "id": "33396"}, "mid": "888888857220001", "shopId": "33396", "netid": null, "province": 901, "district": 601, "zipcode": null, "telephone": "23079888", "posDate": "20080818", "destineTel": null, "togoTel": null, "trafficWay": "\u516c\u4ea458 110 767B", "signBuilding": null, "businessArea": null, "selfRoom": null, "businessTime": null, "stall": null, "consume": null, "serviceFei": null, "favourable": null, "shopMemo": null, "appraise": null, "website": null, "memo": "\u5e97\u5185\u82f9\u679c\u4e13\u67dc\u5546\u54c1\u6682\u4e0d\u4f7f\u7528\u6749\u5fb7\u5361", "payTypes": "\u6749\u5fb7\u5361", "shopTypes": "\u8d85\u5e02", "consumeTypes": null, "cookTypes": null, "orderNum": 1000, "card4no": null, "card4noAcc": null, "district2": 416, "searchScope": null, "status": 1, "address": "\u805a\u4e30\u56ed\u8def189\u53f7", "name": "\u82cf\u5b81\u7535\u5668 \u805a\u4e30\u56ed\u4e8c\u5e97", "id": 142437, "pageNo": 0, "pageCount": null, "pageSize": 10, "ids": null, "endTime": null, "startTime": null}, {"cardNumFive": null, "isSupportYj": null, "cityName": null, "districtName": null, "shopinfo": {"mid": "888888857220001", "good_flag": null, "new_flag": null, "short_name": "\u82cf\u5b81\u7535\u5668", "short_name_pinyin": "suningdianqi", "status": null, "address": null, "name": null, "id": "33396"}, "mid": "888888857220001", "shopId": "33396", "netid": null, "province": 901, "district": 601, "zipcode": null, "telephone": "\u5ba2\u6237\u670d\u52a1\u7535\u8bdd\uff1a4008365365\u8f6c\u5404\u95e8\u5e97", "posDate": "20070926", "destineTel": null, "togoTel": null, "trafficWay": "\u5927\u6865\u516d\u7ebf \u673a\u573a\u4e09\u7ebf", "signBuilding": null, "businessArea": null, "selfRoom": null, "businessTime": null, "stall": null, "consume": null, "serviceFei": null, "favourable": null, "shopMemo": null, "appraise": null, "website": null, "memo": "\u5e97\u5185\u82f9\u679c\u4e13\u67dc\u5546\u54c1\u6682\u4e0d\u4f7f\u7528\u6749\u5fb7\u5361", "payTypes": "\u6749\u5fb7\u5361", "shopTypes": "\u8d85\u5e02", "consumeTypes": null, "cookTypes": null, "orderNum": 1000, "card4no": null, "card4noAcc": null, "district2": 418, "searchScope": null, "status": 1, "address": "\u9f99\u9633\u8def2000\u53f7\u4e07\u90a6\u5e7f\u573a110", "name": "\u82cf\u5b81\u7535\u5668 \u9f99\u9633\u5e97", "id": 142439, "pageNo": 0, "pageCount": null, "pageSize": 10, "ids": null, "endTime": null, "startTime": null}, {"cardNumFive": null, "isSupportYj": null, "cityName": null, "districtName": null, "shopinfo": {"mid": "888888857220001", "good_flag": null, "new_flag": null, "short_name": "\u82cf\u5b81\u7535\u5668", "short_name_pinyin": "suningdianqi", "status": null, "address": null, "name": null, "id": "33396"}, "mid": "888888857220001", "shopId": "33396", "netid": null, "province": 901, "district": 601, "zipcode": null, "telephone": "\u5ba2\u6237\u670d\u52a1\u7535\u8bdd\uff1a4008365365\u8f6c\u5404\u95e8\u5e97", "posDate": "20061227", "destineTel": "4008365365", "togoTel": "4008365365", "trafficWay": "\u516c\u4ea4942 61 851", "signBuilding": null, "businessArea": "\u5747\u4e3a4468\u5e73\u7c73", "selfRoom": "\u65e0", "businessTime": "09:00~21:00", "stall": "\u65e0", "consume": null, "serviceFei": null, "favourable": null, "shopMemo": null, "appraise": null, "website": "www.cnsuning.com", "memo": "\u5e97\u5185\u82f9\u679c\u4e13\u67dc\u5546\u54c1\u6682\u4e0d\u4f7f\u7528\u6749\u5fb7\u5361", "payTypes": "\u6749\u5fb7\u5361", "shopTypes": "\u8d85\u5e02", "consumeTypes": null, "cookTypes": null, "orderNum": 1000, "card4no": null, "card4noAcc": null, "district2": 407, "searchScope": null, "status": 1, "address": "\u6c11\u661f\u8def378\u53f7B\u533a", "name": "\u82cf\u5b81\u7535\u5668 \u6c11\u661f\u5e97", "id": 142440, "pageNo": 0, "pageCount": null, "pageSize": 10, "ids": null, "endTime": null, "startTime": null}, {"cardNumFive": null, "isSupportYj": null, "cityName": null, "districtName": null, "shopinfo": {"mid": "888888857220001", "good_flag": null, "new_flag": null, "short_name": "\u82cf\u5b81\u7535\u5668", "short_name_pinyin": "suningdianqi", "status": null, "address": null, "name": null, "id": "33396"}, "mid": "888888857220001", "shopId": "33396", "netid": null, "province": 901, "district": 601, "zipcode": null, "telephone": "\u5ba2\u6237\u670d\u52a1\u7535\u8bdd\uff1a4008365365\u8f6c\u5404\u95e8\u5e97", "posDate": "20061226", "destineTel": "4008365365", "togoTel": "4008365365", "trafficWay": "\u4e1c\u95f5\u7ebf \u4e1c\u576a\u7ebf", "signBuilding": null, "businessArea": "\u5747\u4e3a4468\u5e73\u7c73", "selfRoom": "\u65e0", "businessTime": "09:00~21:00", "stall": "\u65e0", "consume": null, "serviceFei": null, "favourable": null, "shopMemo": null, "appraise": null, "website": "www.cnsuning.com", "memo": "\u5e97\u5185\u82f9\u679c\u4e13\u67dc\u5546\u54c1\u6682\u4e0d\u4f7f\u7528\u6749\u5fb7\u5361", "payTypes": "\u6749\u5fb7\u5361", "shopTypes": "\u8d85\u5e02", "consumeTypes": null, "cookTypes": null, "orderNum": 1000, "card4no": null, "card4noAcc": null, "district2": 409, "searchScope": null, "status": 1, "address": "\u6c5f\u5ddd\u8def287\u53f7", "name": "\u82cf\u5b81\u7535\u5668 \u95f5\u884c\u5e97", "id": 142441, "pageNo": 0, "pageCount": null, "pageSize": 10, "ids": null, "endTime": null, "startTime": null}, {"cardNumFive": null, "isSupportYj": null, "cityName": null, "districtName": null, "shopinfo": {"mid": "888888857220001", "good_flag": null, "new_flag": null, "short_name": "\u82cf\u5b81\u7535\u5668", "short_name_pinyin": "suningdianqi", "status": null, "address": null, "name": null, "id": "33396"}, "mid": "888888857220001", "shopId": "33396", "netid": null, "province": 901, "district": 601, "zipcode": null, "telephone": "\u5ba2\u6237\u670d\u52a1\u7535\u8bdd\uff1a4008365365\u8f6c\u5404\u95e8\u5e97", "posDate": "20070410", "destineTel": null, "togoTel": null, "trafficWay": "\u65c5\u6e38\u4e94\u53f7\u7ebf", "signBuilding": null, "businessArea": "\u5747\u4e3a4468\u5e73\u7c73", "selfRoom": null, "businessTime": "09:00~21:00", "stall": "\u6709", "consume": null, "serviceFei": null, "favourable": null, "shopMemo": null, "appraise": null, "website": "www.cnsuning.com", "memo": "\u5e97\u5185\u82f9\u679c\u4e13\u67dc\u5546\u54c1\u6682\u4e0d\u4f7f\u7528\u6749\u5fb7\u5361", "payTypes": "\u6749\u5fb7\u5361", "shopTypes": "\u8d85\u5e02", "consumeTypes": null, "cookTypes": null, "orderNum": 1000, "card4no": null, "card4noAcc": null, "district2": 416, "searchScope": null, "status": 1, "address": "\u7261\u4e39\u6c5f\u8def1228\u53f7", "name": "\u82cf\u5b81\u7535\u5668 \u7261\u4e39\u6c5f\u8def\u5e97", "id": 142442, "pageNo": 0, "pageCount": null, "pageSize": 10, "ids": null, "endTime": null, "startTime": null}], "pageLimit": 8440, "size": 10}