{"pageCount": 1095, "count": 10942, "pageNo": 847, "subShopInfo": {"cardNumFive": "", "isSupportYj": "", "cityName": null, "districtName": null, "shopinfo": {"mid": null, "good_flag": null, "new_flag": null, "short_name": null, "short_name_pinyin": null, "status": null, "address": "", "name": "", "id": null}, "mid": null, "shopId": null, "netid": null, "province": 901, "district": null, "zipcode": null, "telephone": null, "posDate": null, "destineTel": null, "togoTel": null, "trafficWay": null, "signBuilding": null, "businessArea": null, "selfRoom": null, "businessTime": null, "stall": null, "consume": null, "serviceFei": null, "favourable": null, "shopMemo": "1", "appraise": null, "website": null, "memo": null, "payTypes": "", "shopTypes": "", "consumeTypes": null, "cookTypes": null, "orderNum": null, "card4no": null, "card4noAcc": null, "district2": null, "searchScope": null, "status": null, "address": "", "name": null, "id": null, "pageNo": 846, "pageCount": null, "pageSize": 10, "ids": null, "endTime": null, "startTime": null}, "list": [{"cardNumFive": null, "isSupportYj": null, "cityName": null, "districtName": null, "shopinfo": {"mid": "888888857220001", "good_flag": null, "new_flag": null, "short_name": "\u82cf\u5b81\u7535\u5668", "short_name_pinyin": "suningdianqi", "status": null, "address": null, "name": null, "id": "33396"}, "mid": "888888857220001", "shopId": "33396", "netid": null, "province": 901, "district": 601, "zipcode": null, "telephone": null, "posDate": "20071228", "destineTel": null, "togoTel": null, "trafficWay": null, "signBuilding": null, "businessArea": null, "selfRoom": null, "businessTime": null, "stall": null, "consume": null, "serviceFei": null, "favourable": null, "shopMemo": null, "appraise": null, "website": null, "memo": "\u5e97\u5185\u82f9\u679c\u4e13\u67dc\u5546\u54c1\u6682\u4e0d\u4f7f\u7528\u6749\u5fb7\u5361", "payTypes": "\u6749\u5fb7\u5361", "shopTypes": "\u8d85\u5e02", "consumeTypes": null, "cookTypes": null, "orderNum": 1000, "card4no": null, "card4noAcc": null, "district2": 416, "searchScope": null, "status": 1, "address": "\u6caa\u592a\u8def1801\u53f7", "name": "\u82cf\u5b81\u7535\u5668 \u6c76\u6c34\u8def\u5e97", "id": 142454, "pageNo": 0, "pageCount": null, "pageSize": 10, "ids": null, "endTime": null, "startTime": null}, {"cardNumFive": null, "isSupportYj": null, "cityName": null, "districtName": null, "shopinfo": {"mid": "888888857220001", "good_flag": null, "new_flag": null, "short_name": "\u82cf\u5b81\u7535\u5668", "short_name_pinyin": "suningdianqi", "status": null, "address": null, "name": null, "id": "33396"}, "mid": "888888857220001", "shopId": "33396", "netid": null, "province": 901, "district": 601, "zipcode": null, "telephone": null, "posDate": null, "destineTel": null, "togoTel": null, "trafficWay": null, "signBuilding": null, "businessArea": null, "selfRoom": null, "businessTime": null, "stall": null, "consume": null, "serviceFei": null, "favourable": null, "shopMemo": null, "appraise": null, "website": null, "memo": "\u5e97\u5185\u82f9\u679c\u4e13\u67dc\u5546\u54c1\u6682\u4e0d\u4f7f\u7528\u6749\u5fb7\u5361", "payTypes": "\u6749\u5fb7\u5361", "shopTypes": "\u8d85\u5e02", "consumeTypes": null, "cookTypes": null, "orderNum": 1000, "card4no": null, "card4noAcc": null, "district2": 409, "searchScope": null, "status": 1, "address": "\u94f6\u90fd\u8def2358\u53f7\uff08\u8fd1\u83b2\u82b1\u5357\u8def\uff09", "name": "\u82cf\u5b81\u7535\u5668 \u94f6\u90fd\u8def\u5e97", "id": 142457, "pageNo": 0, "pageCount": null, "pageSize": 10, "ids": null, "endTime": null, "startTime": null}, {"cardNumFive": null, "isSupportYj": null, "cityName": null, "districtName": null, "shopinfo": {"mid": "888888857220001", "good_flag": null, "new_flag": null, "short_name": "\u82cf\u5b81\u7535\u5668", "short_name_pinyin": "suningdianqi", "status": null, "address": null, "name": null, "id": "33396"}, "mid": "888888857220001", "shopId": "33396", "netid": null, "province": 901, "district": 601, "zipcode": null, "telephone": "\u5ba2\u6237\u670d\u52a1\u7535\u8bdd\uff1a4008365365\u8f6c\u5404\u95e8\u5e97", "posDate": "20061225", "destineTel": "4008365365", "togoTel": "4008365365", "trafficWay": "\u516c\u4ea4952B\u7ebf 541", "signBuilding": null, "businessArea": "\u5747\u4e3a4468\u5e73\u7c73", "selfRoom": "\u65e0", "businessTime": "09:00~21:00", "stall": "\u65e0", "consume": null, "serviceFei": null, "favourable": null, "shopMemo": null, "appraise": null, "website": "www.cnsuning.com", "memo": "\u5e97\u5185\u82f9\u679c\u4e13\u67dc\u5546\u54c1\u6682\u4e0d\u4f7f\u7528\u6749\u5fb7\u5361", "payTypes": "\u6749\u5fb7\u5361", "shopTypes": "\u8d85\u5e02", "consumeTypes": null, "cookTypes": null, "orderNum": 1000, "card4no": null, "card4noAcc": null, "district2": 416, "searchScope": null, "status": 1, "address": "\u53cb\u8c0a\u8def199\u53f7", "name": "\u82cf\u5b81\u7535\u5668 \u53cb\u8c0a\u5e97", "id": 142458, "pageNo": 0, "pageCount": null, "pageSize": 10, "ids": null, "endTime": null, "startTime": null}, {"cardNumFive": null, "isSupportYj": null, "cityName": null, "districtName": null, "shopinfo": {"mid": "888888857220001", "good_flag": null, "new_flag": null, "short_name": "\u82cf\u5b81\u7535\u5668", "short_name_pinyin": "suningdianqi", "status": null, "address": null, "name": null, "id": "33396"}, "mid": "888888857220001", "shopId": "33396", "netid": null, "province": 901, "district": 601, "zipcode": null, "telephone": "\u5ba2\u6237\u670d\u52a1\u7535\u8bdd\uff1a4008365365\u8f6c\u5404\u95e8\u5e97", "posDate": "20070927", "destineTel": null, "togoTel": null, "trafficWay": "\u516c\u4ea4454 938 \u5730\u94c1\u4e8c\u53f7\u7ebf", "signBuilding": null, "businessArea": null, "selfRoom": null, "businessTime": null, "stall": null, "consume": null, "serviceFei": null, "favourable": null, "shopMemo": null, "appraise": null, "website": null, "memo": "\u5e97\u5185\u82f9\u679c\u4e13\u67dc\u5546\u54c1\u6682\u4e0d\u4f7f\u7528\u6749\u5fb7\u5361", "payTypes": "\u6749\u5fb7\u5361", "shopTypes": "\u8d85\u5e02", "consumeTypes": null, "cookTypes": null, "orderNum": 1000, "card4no": null, "card4noAcc": null, "district2": 418, "searchScope": null, "status": 1, "address": "\u6d66\u4e1c\u5357\u8def1101\u53f7\u8fdc\u4e1c\u5927\u53a6", "name": "\u82cf\u5b81\u7535\u5668 \u8fdc\u4e1c\u5927\u53a6\u5e97", "id": 142459, "pageNo": 0, "pageCount": null, "pageSize": 10, "ids": null, "endTime": null, "startTime": null}, {"cardNumFive": null, "isSupportYj": null, "cityName": null, "districtName": null, "shopinfo": {"mid": "888888857220001", "good_flag": null, "new_flag": null, "short_name": "\u82cf\u5b81\u7535\u5668", "short_name_pinyin": "suningdianqi", "status": null, "address": null, "name": null, "id": "33396"}, "mid": "888888857220001", "shopId": "33396", "netid": null, "province": 901, "district": 601, "zipcode": null, "telephone": "\u5ba2\u6237\u670d\u52a1\u7535\u8bdd\uff1a4008365365\u8f6c\u5404\u95e8\u5e97", "posDate": "20061222", "destineTel": "4008365365", "togoTel": "4008365365", "trafficWay": null, "signBuilding": null, "businessArea": "\u5747\u4e3a4468\u5e73\u7c73", "selfRoom": "\u65e0", "businessTime": "09:00~21:00", "stall": "\u65e0", "consume": null, "serviceFei": null, "favourable": null, "shopMemo": null, "appraise": null, "website": "www.cnsuning.com", "memo": "\u5e97\u5185\u82f9\u679c\u4e13\u67dc\u5546\u54c1\u6682\u4e0d\u4f7f\u7528\u6749\u5fb7\u5361", "payTypes": "\u6749\u5fb7\u5361", "shopTypes": "\u8d85\u5e02", "consumeTypes": null, "cookTypes": null, "orderNum": 1000, "card4no": null, "card4noAcc": null, "district2": 416, "searchScope": null, "status": 1, "address": "\u8574\u5ddd\u8def1555\u53f7", "name": "\u82cf\u5b81\u7535\u5668 \u8574\u5ddd\u5e97", "id": 142460, "pageNo": 0, "pageCount": null, "pageSize": 10, "ids": null, "endTime": null, "startTime": null}, {"cardNumFive": null, "isSupportYj": null, "cityName": null, "districtName": null, "shopinfo": {"mid": "888888857220001", "good_flag": null, "new_flag": null, "short_name": "\u82cf\u5b81\u7535\u5668", "short_name_pinyin": "suningdianqi", "status": null, "address": null, "name": null, "id": "33396"}, "mid": "888888857220001", "shopId": "33396", "netid": null, "province": 901, "district": 601, "zipcode": "200120", "telephone": "\u5ba2\u6237\u670d\u52a1\u7535\u8bdd\uff1a4008365365\u8f6c\u5404\u95e8\u5e97", "posDate": "20061228", "destineTel": "4008365365", "togoTel": "4008365365", "trafficWay": "\u65b0\u5ddd\u4e13\u7ebf", "signBuilding": null, "businessArea": "\u5747\u4e3a4468\u5e73\u7c73", "selfRoom": "\u65e0", "businessTime": "09:00~21:00", "stall": "\u65e0", "consume": null, "serviceFei": null, "favourable": null, "shopMemo": null, "appraise": null, "website": "www.cnsuning.com", "memo": "\u5e97\u5185\u82f9\u679c\u4e13\u67dc\u5546\u54c1\u6682\u4e0d\u4f7f\u7528\u6749\u5fb7\u5361", "payTypes": "\u6749\u5fb7\u5361", "shopTypes": "\u8d85\u5e02", "consumeTypes": null, "cookTypes": null, "orderNum": 1000, "card4no": null, "card4noAcc": null, "district2": 418, "searchScope": null, "status": 1, "address": "\u5f20\u6768\u5317\u8def5556\u53f7", "name": "\u82cf\u5b81\u7535\u5668 \u5f20\u6768\u5317\u8def\u5e97", "id": 142461, "pageNo": 0, "pageCount": null, "pageSize": 10, "ids": null, "endTime": null, "startTime": null}, {"cardNumFive": null, "isSupportYj": null, "cityName": null, "districtName": null, "shopinfo": {"mid": "888888857220001", "good_flag": null, "new_flag": null, "short_name": "\u82cf\u5b81\u7535\u5668", "short_name_pinyin": "suningdianqi", "status": null, "address": null, "name": null, "id": "33396"}, "mid": "888888857220001", "shopId": "33396", "netid": null, "province": 901, "district": 601, "zipcode": null, "telephone": "\u5ba2\u6237\u670d\u52a1\u7535\u8bdd\uff1a4008365365\u8f6c\u5404\u95e8\u5e97", "posDate": "20070816", "destineTel": null, "togoTel": null, "trafficWay": "\u516c\u4ea4712 \u5730\u94c1\u4e00\u53f7\u7ebf", "signBuilding": null, "businessArea": null, "selfRoom": null, "businessTime": null, "stall": null, "consume": null, "serviceFei": null, "favourable": null, "shopMemo": null, "appraise": null, "website": null, "memo": "\u5e97\u5185\u82f9\u679c\u4e13\u67dc\u5546\u54c1\u6682\u4e0d\u4f7f\u7528\u6749\u5fb7\u5361", "payTypes": "\u6749\u5fb7\u5361", "shopTypes": "\u8d85\u5e02", "consumeTypes": null, "cookTypes": null, "orderNum": 1000, "card4no": null, "card4noAcc": null, "district2": 403, "searchScope": null, "status": 1, "address": "\u8087\u5609\u6d5c\u8def919\u53f7", "name": "\u82cf\u5b81\u7535\u5668 \u8087\u5609\u6d5c\u8def\u5e97", "id": 142462, "pageNo": 0, "pageCount": null, "pageSize": 10, "ids": null, "endTime": null, "startTime": null}, {"cardNumFive": null, "isSupportYj": null, "cityName": null, "districtName": null, "shopinfo": {"mid": "888888857220001", "good_flag": null, "new_flag": null, "short_name": "\u82cf\u5b81\u7535\u5668", "short_name_pinyin": "suningdianqi", "status": null, "address": null, "name": null, "id": "33396"}, "mid": "888888857220001", "shopId": "33396", "netid": null, "province": 901, "district": 601, "zipcode": null, "telephone": "\u5ba2\u6237\u670d\u52a1\u7535\u8bdd\uff1a4008365365\u8f6c\u5404\u95e8\u5e97", "posDate": "20061227", "destineTel": "4008365365", "togoTel": "4008365365", "trafficWay": "\u516c\u4ea4837 948 947", "signBuilding": null, "businessArea": "\u5747\u4e3a4468\u5e73\u7c73", "selfRoom": "\u65e0", "businessTime": "09:00~21:00", "stall": "\u65e0", "consume": null, "serviceFei": null, "favourable": null, "shopMemo": null, "appraise": null, "website": "www.cnsuning.com", "memo": "\u5e97\u5185\u82f9\u679c\u4e13\u67dc\u5546\u54c1\u6682\u4e0d\u4f7f\u7528\u6749\u5fb7\u5361", "payTypes": "\u6749\u5fb7\u5361", "shopTypes": "\u8d85\u5e02", "consumeTypes": null, "cookTypes": null, "orderNum": 1000, "card4no": null, "card4noAcc": null, "district2": 405, "searchScope": null, "status": 1, "address": "\u771f\u5317\u8def1263\u53f7", "name": "\u82cf\u5b81\u7535\u5668 \u771f\u5317\u5e97", "id": 142463, "pageNo": 0, "pageCount": null, "pageSize": 10, "ids": null, "endTime": null, "startTime": null}, {"cardNumFive": null, "isSupportYj": null, "cityName": null, "districtName": null, "shopinfo": {"mid": "888888857220001", "good_flag": null, "new_flag": null, "short_name": "\u82cf\u5b81\u7535\u5668", "short_name_pinyin": "suningdianqi", "status": null, "address": null, "name": null, "id": "33396"}, "mid": "888888857220001", "shopId": "33396", "netid": null, "province": 901, "district": 601, "zipcode": null, "telephone": "\u5ba2\u6237\u670d\u52a1\u7535\u8bdd\uff1a4008365365\u8f6c\u5404\u95e8\u5e97", "posDate": "20061229", "destineTel": "4008365365", "togoTel": "4008365365", "trafficWay": "\u60e0\u677e\u7ebf \u677e\u6885\u7ebf", "signBuilding": null, "businessArea": "\u5747\u4e3a4468\u5e73\u7c73", "selfRoom": "\u65e0", "businessTime": "09:00~21:00", "stall": "\u65e0", "consume": null, "serviceFei": null, "favourable": null, "shopMemo": null, "appraise": null, "website": "www.cnsuning.com", "memo": "\u5e97\u5185\u82f9\u679c\u4e13\u67dc\u5546\u54c1\u6682\u4e0d\u4f7f\u7528\u6749\u5fb7\u5361", "payTypes": "\u6749\u5fb7\u5361", "shopTypes": "\u8d85\u5e02", "consumeTypes": null, "cookTypes": null, "orderNum": 1000, "card4no": null, "card4noAcc": null, "district2": 412, "searchScope": null, "status": 1, "address": "\u4e2d\u5c71\u4e2d\u8def231-245\u53f7", "name": "\u82cf\u5b81\u7535\u5668 \u4e2d\u5c71\u4e2d\u8def\u5e97", "id": 142464, "pageNo": 0, "pageCount": null, "pageSize": 10, "ids": null, "endTime": null, "startTime": null}, {"cardNumFive": null, "isSupportYj": null, "cityName": null, "districtName": null, "shopinfo": {"mid": "888888857220001", "good_flag": null, "new_flag": null, "short_name": "\u82cf\u5b81\u7535\u5668", "short_name_pinyin": "suningdianqi", "status": null, "address": null, "name": null, "id": "33396"}, "mid": "888888857220001", "shopId": "33396", "netid": null, "province": 901, "district": 601, "zipcode": null, "telephone": "23079888", "posDate": "20080710", "destineTel": null, "togoTel": null, "trafficWay": "\u516c\u4ea4\u4e0a\u6731\u7ebf \u6caa\u9752\u7ebf", "signBuilding": null, "businessArea": null, "selfRoom": null, "businessTime": null, "stall": null, "consume": null, "serviceFei": null, "favourable": null, "shopMemo": null, "appraise": null, "website": null, "memo": "\u5e97\u5185\u82f9\u679c\u4e13\u67dc\u5546\u54c1\u6682\u4e0d\u4f7f\u7528\u6749\u5fb7\u5361", "payTypes": "\u6749\u5fb7\u5361", "shopTypes": "\u8d85\u5e02", "consumeTypes": null, "cookTypes": null, "orderNum": 1000, "card4no": null, "card4noAcc": null, "district2": 414, "searchScope": null, "status": 1, "address": "\u6731\u6cfe\u9547\u516c\u56ed\u8def288\u53f7", "name": "\u82cf\u5b81\u7535\u5668 \u6731\u6cfe\u5e97", "id": 142465, "pageNo": 0, "pageCount": null, "pageSize": 10, "ids": null, "endTime": null, "startTime": null}], "pageLimit": 8460, "size": 10}