{"pageCount": 1095, "count": 10942, "pageNo": 841, "subShopInfo": {"cardNumFive": "", "isSupportYj": "", "cityName": null, "districtName": null, "shopinfo": {"mid": null, "good_flag": null, "new_flag": null, "short_name": null, "short_name_pinyin": null, "status": null, "address": "", "name": "", "id": null}, "mid": null, "shopId": null, "netid": null, "province": 901, "district": null, "zipcode": null, "telephone": null, "posDate": null, "destineTel": null, "togoTel": null, "trafficWay": null, "signBuilding": null, "businessArea": null, "selfRoom": null, "businessTime": null, "stall": null, "consume": null, "serviceFei": null, "favourable": null, "shopMemo": "1", "appraise": null, "website": null, "memo": null, "payTypes": "", "shopTypes": "", "consumeTypes": null, "cookTypes": null, "orderNum": null, "card4no": null, "card4noAcc": null, "district2": null, "searchScope": null, "status": null, "address": "", "name": null, "id": null, "pageNo": 840, "pageCount": null, "pageSize": 10, "ids": null, "endTime": null, "startTime": null}, "list": [{"cardNumFive": null, "isSupportYj": null, "cityName": null, "districtName": null, "shopinfo": {"mid": "888002158122578", "good_flag": null, "new_flag": null, "short_name": "\u987a\u98ce\u6e2f\u6e7e", "short_name_pinyin": "shunfenggangwan", "status": null, "address": null, "name": null, "id": "42355"}, "mid": "888002158122578", "shopId": "42355", "netid": null, "province": 901, "district": 601, "zipcode": null, "telephone": null, "posDate": null, "destineTel": null, "togoTel": null, "trafficWay": null, "signBuilding": null, "businessArea": null, "selfRoom": null, "businessTime": null, "stall": null, "consume": null, "serviceFei": null, "favourable": null, "shopMemo": null, "appraise": null, "website": null, "memo": null, "payTypes": "\u6749\u5fb7\u5361", "shopTypes": "\u4fbf\u5229\u5e97", "consumeTypes": null, "cookTypes": null, "orderNum": 1000, "card4no": null, "card4noAcc": null, "district2": 401, "searchScope": null, "status": 1, "address": "\u5357\u4eac\u4e1c\u8def299\u53f7\u7b2c\u4e03\u5c42S", "name": "\u987a\u98ce\u6e2f\u6e7e \u5357\u4eac\u4e1c\u8def\u5e97", "id": 188920, "pageNo": 0, "pageCount": null, "pageSize": 10, "ids": null, "endTime": null, "startTime": null}, {"cardNumFive": null, "isSupportYj": null, "cityName": null, "districtName": null, "shopinfo": {"mid": "888002158122579", "good_flag": null, "new_flag": null, "short_name": "\u987a\u98ce\u6e2f\u6e7e", "short_name_pinyin": "shunfenggangwan", "status": null, "address": null, "name": null, "id": "42356"}, "mid": "888002158122579", "shopId": "42356", "netid": null, "province": 901, "district": 601, "zipcode": null, "telephone": null, "posDate": null, "destineTel": null, "togoTel": null, "trafficWay": null, "signBuilding": null, "businessArea": null, "selfRoom": null, "businessTime": null, "stall": null, "consume": null, "serviceFei": null, "favourable": null, "shopMemo": null, "appraise": null, "website": null, "memo": null, "payTypes": "\u6749\u5fb7\u5361", "shopTypes": "\u4fbf\u5229\u5e97", "consumeTypes": null, "cookTypes": null, "orderNum": 1000, "card4no": null, "card4noAcc": null, "district2": 405, "searchScope": null, "status": 1, "address": "\u4e2d\u5c71\u5317\u8def3300\u53f7\u5730\u4e0a\u4e09\u5c42L3050-L3058", "name": "\u987a\u98ce\u6e2f\u6e7e \u73af\u7403\u6e2f\u5e97", "id": 188921, "pageNo": 0, "pageCount": null, "pageSize": 10, "ids": null, "endTime": null, "startTime": null}, {"cardNumFive": null, "isSupportYj": null, "cityName": null, "districtName": null, "shopinfo": {"mid": "888002159490009", "good_flag": null, "new_flag": null, "short_name": "\u6dd1\u5973\u5c4b\u5e8a\u54c1", "short_name_pinyin": "shunvwuchuangpin", "status": null, "address": null, "name": null, "id": "35665"}, "mid": "888002159490009", "shopId": "35665", "netid": null, "province": 901, "district": 601, "zipcode": null, "telephone": null, "posDate": "20100719", "destineTel": null, "togoTel": null, "trafficWay": null, "signBuilding": null, "businessArea": null, "selfRoom": null, "businessTime": null, "stall": null, "consume": null, "serviceFei": null, "favourable": null, "shopMemo": null, "appraise": null, "website": null, "memo": null, "payTypes": "\u6749\u5fb7\u5361", "shopTypes": "\u670d\u9970\u5bb6\u7eba", "consumeTypes": null, "cookTypes": null, "orderNum": 1000, "card4no": null, "card4noAcc": null, "district2": 403, "searchScope": null, "status": 1, "address": "\u8087\u5609\u6d5c\u8def201\u5f043\u53f7101-01\u5ba4", "name": "\u6dd1\u5973\u5c4b\u5e8a\u54c1 \u8087\u5609\u6d5c\u8def\u5e97", "id": 149183, "pageNo": 0, "pageCount": null, "pageSize": 10, "ids": null, "endTime": null, "startTime": null}, {"cardNumFive": null, "isSupportYj": null, "cityName": null, "districtName": null, "shopinfo": {"mid": "888888872980073", "good_flag": "2", "new_flag": "2", "short_name": "\u8212\u4ed5\u7ea4\u4f53", "short_name_pinyin": "shushixianti", "status": null, "address": null, "name": null, "id": "33343"}, "mid": "888888872980073", "shopId": "33343", "netid": null, "province": 901, "district": 601, "zipcode": null, "telephone": "51194567", "posDate": "20090318", "destineTel": null, "togoTel": null, "trafficWay": null, "signBuilding": null, "businessArea": "500", "selfRoom": null, "businessTime": "10:00~22:00", "stall": null, "consume": null, "serviceFei": null, "favourable": null, "shopMemo": null, "appraise": null, "website": null, "memo": null, "payTypes": "\u6749\u5fb7\u5361", "shopTypes": "\u5065\u8eab\u573a\u6240", "consumeTypes": null, "cookTypes": null, "orderNum": 1000, "card4no": null, "card4noAcc": null, "district2": 404, "searchScope": null, "status": 1, "address": "\u5434\u6c5f\u8def31\u53f7\u4e1c\u65b9\u4f17\u946b708\u5ba4", "name": "\u8212\u4ed5\u7ea4\u4f53 \u5434\u6c5f\u5e97", "id": 142323, "pageNo": 0, "pageCount": null, "pageSize": 10, "ids": null, "endTime": null, "startTime": null}, {"cardNumFive": null, "isSupportYj": null, "cityName": null, "districtName": null, "shopinfo": {"mid": "888002155330003", "good_flag": "2", "new_flag": "2", "short_name": "\u6570\u4ebf\u6c7d\u914d", "short_name_pinyin": "shuyiqipei", "status": null, "address": null, "name": null, "id": "33362"}, "mid": "888002155330003", "shopId": "33362", "netid": null, "province": 901, "district": 601, "zipcode": null, "telephone": "51511260", "posDate": "200911", "destineTel": null, "togoTel": null, "trafficWay": null, "signBuilding": null, "businessArea": null, "selfRoom": null, "businessTime": null, "stall": null, "consume": null, "serviceFei": null, "favourable": null, "shopMemo": null, "appraise": null, "website": null, "memo": null, "payTypes": "\u6749\u5fb7\u5361", "shopTypes": "\u4e13\u5356", "consumeTypes": null, "cookTypes": null, "orderNum": 1000, "card4no": null, "card4noAcc": null, "district2": 409, "searchScope": null, "status": 1, "address": "\u9ece\u5b89\u8def859\u53f7\u897f\u697c3\u53f7", "name": "\u6570\u4ebf\u6c7d\u914d \u9ece\u5b89\u8def\u5e97", "id": 142346, "pageNo": 0, "pageCount": null, "pageSize": 10, "ids": null, "endTime": null, "startTime": null}, {"cardNumFive": null, "isSupportYj": null, "cityName": null, "districtName": null, "shopinfo": {"mid": "888888858120066", "good_flag": "2", "new_flag": "2", "short_name": "\u8212\u53cb\u6d77\u9c9c", "short_name_pinyin": "shuyouhaixian", "status": null, "address": null, "name": null, "id": "33349"}, "mid": "888888858120066", "shopId": "33349", "netid": null, "province": 901, "district": 601, "zipcode": null, "telephone": "63528888", "posDate": null, "destineTel": null, "togoTel": null, "trafficWay": null, "signBuilding": null, "businessArea": null, "selfRoom": null, "businessTime": null, "stall": null, "consume": null, "serviceFei": null, "favourable": null, "shopMemo": null, "appraise": null, "website": null, "memo": null, "payTypes": ",\u6749\u5fb7\u5361", "shopTypes": "\u9910\u996e", "consumeTypes": null, "cookTypes": null, "orderNum": 1000, "card4no": null, "card4noAcc": null, "district2": 404, "searchScope": null, "status": 1, "address": "\u6210\u90fd\u5317\u8def333\u53f7", "name": "\u8212\u53cb\u6d77\u9c9c \u9759\u5b89\u5e97", "id": 142331, "pageNo": 0, "pageCount": null, "pageSize": 10, "ids": null, "endTime": null, "startTime": null}, {"cardNumFive": null, "isSupportYj": null, "cityName": null, "districtName": null, "shopinfo": {"mid": "T00000000000003", "good_flag": "1", "new_flag": "2", "short_name": "\u8212\u53cb\u6d77\u9c9c", "short_name_pinyin": "shuyouhaixian", "status": null, "address": null, "name": null, "id": "33352"}, "mid": "T00000000000003", "shopId": "33352", "netid": null, "province": 901, "district": 601, "zipcode": "200335", "telephone": "62698888", "posDate": "20061102", "destineTel": "62698888", "togoTel": "62698888", "trafficWay": "\u65c5\u6e38\u56db\u53f7\u7ebf", "signBuilding": null, "businessArea": null, "selfRoom": "\u6709", "businessTime": "11:00~~14:00\uff0c17:00~22:30", "stall": "\u6709", "consume": "175\u5143", "serviceFei": null, "favourable": null, "shopMemo": "\u9c7c\u7fc5 \u6591\u8282\u867e \u7247\u76ae\u9e2d", "appraise": null, "website": null, "memo": null, "payTypes": "\u6749\u5fb7\u5361", "shopTypes": "\u9910\u996e", "consumeTypes": "\u597d\u53cb\u5c0f\u805a \u5546\u52a1\u5bb4\u8bf7", "cookTypes": "\u6d77\u9c9c", "orderNum": 1000, "card4no": null, "card4noAcc": null, "district2": 406, "searchScope": null, "status": 1, "address": "\u8679\u6865\u8def2399\u53f7", "name": "\u8212\u53cb\u6d77\u9c9c \u897f\u90ca\u5e97", "id": 142335, "pageNo": 0, "pageCount": null, "pageSize": 10, "ids": null, "endTime": null, "startTime": null}, {"cardNumFive": null, "isSupportYj": null, "cityName": null, "districtName": null, "shopinfo": {"mid": "888002159770079", "good_flag": null, "new_flag": null, "short_name": "\u4e1d\u8299\u5170", "short_name_pinyin": "sifulan", "status": null, "address": null, "name": null, "id": "40026"}, "mid": "888002159770079", "shopId": "40026", "netid": null, "province": 901, "district": 601, "zipcode": null, "telephone": null, "posDate": null, "destineTel": null, "togoTel": null, "trafficWay": null, "signBuilding": null, "businessArea": null, "selfRoom": null, "businessTime": null, "stall": null, "consume": null, "serviceFei": null, "favourable": null, "shopMemo": null, "appraise": null, "website": null, "memo": null, "payTypes": "\u6749\u5fb7\u5361", "shopTypes": "\u4e13\u5356", "consumeTypes": null, "cookTypes": null, "orderNum": 1000, "card4no": null, "card4noAcc": null, "district2": 401, "searchScope": null, "status": 1, "address": "\u5357\u4eac\u897f\u8def993\u53f71-2\u697c", "name": "\u4e1d\u8299\u5170 \u5411\u9633\u5e97", "id": 173096, "pageNo": 0, "pageCount": null, "pageSize": 10, "ids": null, "endTime": null, "startTime": null}, {"cardNumFive": null, "isSupportYj": null, "cityName": null, "districtName": null, "shopinfo": {"mid": "888002159771037", "good_flag": null, "new_flag": "2", "short_name": "\u4e1d\u8299\u5170", "short_name_pinyin": "sifulan", "status": null, "address": null, "name": null, "id": "43441"}, "mid": "888002159771037", "shopId": "43441", "netid": null, "province": 901, "district": 601, "zipcode": null, "telephone": null, "posDate": null, "destineTel": null, "togoTel": null, "trafficWay": null, "signBuilding": null, "businessArea": null, "selfRoom": null, "businessTime": null, "stall": null, "consume": null, "serviceFei": null, "favourable": null, "shopMemo": null, "appraise": null, "website": null, "memo": null, "payTypes": "\u6749\u5fb7\u5361", "shopTypes": "\u4e13\u5356", "consumeTypes": null, "cookTypes": null, "orderNum": 1000, "card4no": null, "card4noAcc": null, "district2": 405, "searchScope": null, "status": 1, "address": "\u4e2d\u5c71\u5317\u8def3300\u53f7\u73af\u7403\u6e2f\u5730\u4e0bB1\u5c42B1026\u53f7\u5546\u94fa", "name": "\u4e1d\u8299\u5170 \u6708\u661f\u73af\u7403\u6e2f\u5e97", "id": 196282, "pageNo": 0, "pageCount": null, "pageSize": 10, "ids": null, "endTime": null, "startTime": null}, {"cardNumFive": null, "isSupportYj": null, "cityName": null, "districtName": null, "shopinfo": {"mid": "888002159771037", "good_flag": null, "new_flag": "2", "short_name": "\u4e1d\u8299\u5170", "short_name_pinyin": "sifulan", "status": null, "address": null, "name": null, "id": "43441"}, "mid": "888002159771037", "shopId": "43441", "netid": null, "province": 901, "district": 601, "zipcode": null, "telephone": null, "posDate": null, "destineTel": null, "togoTel": null, "trafficWay": null, "signBuilding": null, "businessArea": null, "selfRoom": null, "businessTime": null, "stall": null, "consume": null, "serviceFei": null, "favourable": null, "shopMemo": null, "appraise": null, "website": null, "memo": null, "payTypes": "\u6749\u5fb7\u5361,", "shopTypes": "\u4e13\u5356", "consumeTypes": null, "cookTypes": null, "orderNum": null, "card4no": null, "card4noAcc": null, "district2": 416, "searchScope": null, "status": 1, "address": "\u7261\u4e39\u6c5f\u8def1569\u53f7\u5b9d\u4e50\u6c47\u751f\u6d3b\u65f6\u5c1a\u4e2d\u5fc3\u5e7f\u573aF1", "name": "\u5b9d\u5c71\u5b9d\u4e50\u6c47\u5e97", "id": 375966512894181376, "pageNo": 0, "pageCount": null, "pageSize": 10, "ids": null, "endTime": null, "startTime": null}], "pageLimit": 8400, "size": 10}