{"pageCount": 1095, "count": 10942, "pageNo": 842, "subShopInfo": {"cardNumFive": "", "isSupportYj": "", "cityName": null, "districtName": null, "shopinfo": {"mid": null, "good_flag": null, "new_flag": null, "short_name": null, "short_name_pinyin": null, "status": null, "address": "", "name": "", "id": null}, "mid": null, "shopId": null, "netid": null, "province": 901, "district": null, "zipcode": null, "telephone": null, "posDate": null, "destineTel": null, "togoTel": null, "trafficWay": null, "signBuilding": null, "businessArea": null, "selfRoom": null, "businessTime": null, "stall": null, "consume": null, "serviceFei": null, "favourable": null, "shopMemo": "1", "appraise": null, "website": null, "memo": null, "payTypes": "", "shopTypes": "", "consumeTypes": null, "cookTypes": null, "orderNum": null, "card4no": null, "card4noAcc": null, "district2": null, "searchScope": null, "status": null, "address": "", "name": null, "id": null, "pageNo": 841, "pageCount": null, "pageSize": 10, "ids": null, "endTime": null, "startTime": null}, "list": [{"cardNumFive": null, "isSupportYj": null, "cityName": null, "districtName": null, "shopinfo": {"mid": "888002159771037", "good_flag": null, "new_flag": "2", "short_name": "\u4e1d\u8299\u5170", "short_name_pinyin": "sifulan", "status": null, "address": null, "name": null, "id": "43441"}, "mid": "888002159771037", "shopId": "43441", "netid": null, "province": 901, "district": 601, "zipcode": null, "telephone": null, "posDate": null, "destineTel": null, "togoTel": null, "trafficWay": null, "signBuilding": null, "businessArea": null, "selfRoom": null, "businessTime": null, "stall": null, "consume": null, "serviceFei": null, "favourable": null, "shopMemo": null, "appraise": null, "website": null, "memo": null, "payTypes": "\u6749\u5fb7\u5361,", "shopTypes": "\u4e13\u5356", "consumeTypes": null, "cookTypes": null, "orderNum": null, "card4no": null, "card4noAcc": null, "district2": 407, "searchScope": null, "status": 1, "address": "\u56fd\u5bbe\u8def58\u53f71123\u53f7\u94fa\u4f4d", "name": "\u56fd\u5bbe\u8def\u5e97", "id": 418057377556725760, "pageNo": 0, "pageCount": null, "pageSize": 10, "ids": null, "endTime": null, "startTime": null}, {"cardNumFive": null, "isSupportYj": null, "cityName": null, "districtName": null, "shopinfo": {"mid": "888002159771037", "good_flag": null, "new_flag": "2", "short_name": "\u4e1d\u8299\u5170", "short_name_pinyin": "sifulan", "status": null, "address": null, "name": null, "id": "43441"}, "mid": "888002159771037", "shopId": "43441", "netid": null, "province": 901, "district": 601, "zipcode": null, "telephone": null, "posDate": null, "destineTel": null, "togoTel": null, "trafficWay": null, "signBuilding": null, "businessArea": null, "selfRoom": null, "businessTime": null, "stall": null, "consume": null, "serviceFei": null, "favourable": null, "shopMemo": null, "appraise": null, "website": null, "memo": null, "payTypes": "", "shopTypes": null, "consumeTypes": null, "cookTypes": null, "orderNum": null, "card4no": null, "card4noAcc": null, "district2": 408, "searchScope": null, "status": 1, "address": "\u897f\u6c5f\u6e7e\u8def388\u53f7\u51ef\u5fb7\u9f99\u4e4b\u68a601\u5c4225/26/27\u53f7\u94fa\u4f4d", "name": "\u8679\u53e3\u9f99\u4e4b\u68a6\u5e97", "id": 476799490620129280, "pageNo": 0, "pageCount": null, "pageSize": 10, "ids": null, "endTime": null, "startTime": null}, {"cardNumFive": null, "isSupportYj": null, "cityName": null, "districtName": null, "shopinfo": {"mid": "888002159771037", "good_flag": null, "new_flag": "2", "short_name": "\u4e1d\u8299\u5170", "short_name_pinyin": "sifulan", "status": null, "address": null, "name": null, "id": "43441"}, "mid": "888002159771037", "shopId": "43441", "netid": null, "province": 901, "district": 601, "zipcode": null, "telephone": null, "posDate": null, "destineTel": null, "togoTel": null, "trafficWay": null, "signBuilding": null, "businessArea": null, "selfRoom": null, "businessTime": null, "stall": null, "consume": null, "serviceFei": null, "favourable": null, "shopMemo": null, "appraise": null, "website": null, "memo": null, "payTypes": "", "shopTypes": null, "consumeTypes": null, "cookTypes": null, "orderNum": null, "card4no": null, "card4noAcc": null, "district2": 405, "searchScope": null, "status": 1, "address": "\u5927\u6e21\u6cb3\u8def196\u53f7121-02\u3001196\u53f7122-03\u3001196\u53f7124-03\u3001196\u53f7120-01\u53f7\u5546\u94fa", "name": "\u957f\u98ce\u5927\u60a6\u57ce\u5e97", "id": 476799491488350208, "pageNo": 0, "pageCount": null, "pageSize": 10, "ids": null, "endTime": null, "startTime": null}, {"cardNumFive": null, "isSupportYj": null, "cityName": null, "districtName": null, "shopinfo": {"mid": "888888870110059", "good_flag": "2", "new_flag": "2", "short_name": "\u56db\u5b63\u9152\u5e97", "short_name_pinyin": "sijijiudian", "status": null, "address": null, "name": null, "id": "33387"}, "mid": "888888870110059", "shopId": "33387", "netid": null, "province": 901, "district": 601, "zipcode": null, "telephone": "62568888", "posDate": "20081112", "destineTel": null, "togoTel": null, "trafficWay": "\u516c\u4ea449 935 \u5730\u94c1\u4e8c\u53f7\u7ebf", "signBuilding": null, "businessArea": null, "selfRoom": null, "businessTime": null, "stall": null, "consume": null, "serviceFei": null, "favourable": null, "shopMemo": null, "appraise": null, "website": null, "memo": null, "payTypes": "\u6749\u5fb7\u5361", "shopTypes": "\u9910\u996e", "consumeTypes": null, "cookTypes": null, "orderNum": 1000, "card4no": null, "card4noAcc": null, "district2": 404, "searchScope": null, "status": 1, "address": "\u5a01\u6d77\u8def500\u53f7", "name": "\u56db\u5b63\u9152\u5e97 \u5a01\u6d77\u8def\u5e97", "id": 142401, "pageNo": 0, "pageCount": null, "pageSize": 10, "ids": null, "endTime": null, "startTime": null}, {"cardNumFive": null, "isSupportYj": null, "cityName": null, "districtName": null, "shopinfo": {"mid": "888888859920006", "good_flag": "2", "new_flag": "2", "short_name": "\u56db\u5b63\u5ead\u9662\u82b1\u8349", "short_name_pinyin": "sijitingyuanhuacaoliansuochaoshi", "status": null, "address": null, "name": null, "id": "33388"}, "mid": "888888859920006", "shopId": "33388", "netid": null, "province": 901, "district": 601, "zipcode": null, "telephone": "68322216", "posDate": "20090108", "destineTel": null, "togoTel": null, "trafficWay": "\u516c\u4ea4784 980", "signBuilding": null, "businessArea": null, "selfRoom": null, "businessTime": "8:00~20:00", "stall": null, "consume": null, "serviceFei": null, "favourable": null, "shopMemo": null, "appraise": null, "website": null, "memo": null, "payTypes": "\u6749\u5fb7\u5361", "shopTypes": "\u4e13\u5356", "consumeTypes": null, "cookTypes": null, "orderNum": 1000, "card4no": null, "card4noAcc": null, "district2": 418, "searchScope": null, "status": 1, "address": "\u7075\u5ca9\u5357\u8def508\u53f7", "name": "\u56db\u5b63\u5ead\u9662\u82b1\u8349 \u7075\u5ca9\u5357\u8def\u5e97", "id": 142402, "pageNo": 0, "pageCount": null, "pageSize": 10, "ids": null, "endTime": null, "startTime": null}, {"cardNumFive": null, "isSupportYj": null, "cityName": null, "districtName": null, "shopinfo": {"mid": "888888872300014", "good_flag": "2", "new_flag": "1", "short_name": "\u601d\u598d\u4e3d", "short_name_pinyin": "siyanli", "status": null, "address": null, "name": null, "id": "33381"}, "mid": "888888872300014", "shopId": "33381", "netid": null, "province": 901, "district": 601, "zipcode": null, "telephone": "58353580", "posDate": "20080529", "destineTel": null, "togoTel": null, "trafficWay": "\u516c\u4ea4584 \u5730\u94c1\u4e8c\u53f7\u7ebf \u96a7\u9053\u4e09\u7ebf", "signBuilding": null, "businessArea": null, "selfRoom": null, "businessTime": null, "stall": null, "consume": null, "serviceFei": null, "favourable": null, "shopMemo": null, "appraise": null, "website": null, "memo": null, "payTypes": "\u6749\u5fb7\u5361", "shopTypes": "\u7f8e\u5bb9\u7f8e\u53d1", "consumeTypes": null, "cookTypes": null, "orderNum": 1000, "card4no": null, "card4noAcc": null, "district2": 418, "searchScope": null, "status": 1, "address": "\u5f20\u626c\u8def501\u53f7804\u94fa\u4f4d", "name": "\u601d\u598d\u4e3d \u67cf\u59ff\u5e97", "id": 142386, "pageNo": 0, "pageCount": null, "pageSize": 10, "ids": null, "endTime": null, "startTime": null}, {"cardNumFive": null, "isSupportYj": null, "cityName": null, "districtName": null, "shopinfo": {"mid": "888888872300014", "good_flag": "2", "new_flag": "1", "short_name": "\u601d\u598d\u4e3d", "short_name_pinyin": "siyanli", "status": null, "address": null, "name": null, "id": "33381"}, "mid": "888888872300014", "shopId": "33381", "netid": null, "province": 901, "district": 601, "zipcode": null, "telephone": "62797299", "posDate": null, "destineTel": null, "togoTel": null, "trafficWay": null, "signBuilding": null, "businessArea": null, "selfRoom": null, "businessTime": null, "stall": null, "consume": null, "serviceFei": null, "favourable": null, "shopMemo": null, "appraise": null, "website": null, "memo": null, "payTypes": "\u6749\u5fb7\u5361", "shopTypes": "\u7f8e\u5bb9\u7f8e\u53d1", "consumeTypes": null, "cookTypes": null, "orderNum": 1000, "card4no": null, "card4noAcc": null, "district2": 401, "searchScope": null, "status": 1, "address": "\u5357\u4eac\u897f\u8def1376\u53f7425\u5ba4", "name": "\u601d\u598d\u4e3d \u4e0a\u6d77\u5546\u57ce\u5e97", "id": 142388, "pageNo": 0, "pageCount": null, "pageSize": 10, "ids": null, "endTime": null, "startTime": null}, {"cardNumFive": null, "isSupportYj": null, "cityName": null, "districtName": null, "shopinfo": {"mid": "888888872300014", "good_flag": "2", "new_flag": "1", "short_name": "\u601d\u598d\u4e3d", "short_name_pinyin": "siyanli", "status": null, "address": null, "name": null, "id": "33381"}, "mid": "888888872300014", "shopId": "33381", "netid": null, "province": 901, "district": 601, "zipcode": null, "telephone": "58367155", "posDate": "20080529", "destineTel": null, "togoTel": null, "trafficWay": "\u516c\u4ea4584 \u5730\u94c1\u4e8c\u53f7\u7ebf \u96a7\u9053\u4e09\u7ebf", "signBuilding": null, "businessArea": null, "selfRoom": null, "businessTime": null, "stall": null, "consume": null, "serviceFei": null, "favourable": null, "shopMemo": null, "appraise": null, "website": null, "memo": null, "payTypes": "\u6749\u5fb7\u5361", "shopTypes": "\u7f8e\u5bb9\u7f8e\u53d1", "consumeTypes": null, "cookTypes": null, "orderNum": 1000, "card4no": null, "card4noAcc": null, "district2": 418, "searchScope": null, "status": 1, "address": "\u5f20\u6768\u8def500\u53f7\u65f6\u4ee3\u5e7f\u573a317\u5ba4", "name": "\u601d\u598d\u4e3d \u65f6\u4ee3\u5e97", "id": 142389, "pageNo": 0, "pageCount": null, "pageSize": 10, "ids": null, "endTime": null, "startTime": null}, {"cardNumFive": null, "isSupportYj": null, "cityName": null, "districtName": null, "shopinfo": {"mid": "888888872300014", "good_flag": "2", "new_flag": "1", "short_name": "\u601d\u598d\u4e3d", "short_name_pinyin": "siyanli", "status": null, "address": null, "name": null, "id": "33381"}, "mid": "888888872300014", "shopId": "33381", "netid": null, "province": 901, "district": 601, "zipcode": null, "telephone": "54240408", "posDate": "20080606", "destineTel": null, "togoTel": null, "trafficWay": "\u516c\u4ea4167 42 43", "signBuilding": null, "businessArea": null, "selfRoom": null, "businessTime": null, "stall": null, "consume": null, "serviceFei": null, "favourable": null, "shopMemo": null, "appraise": null, "website": null, "memo": null, "payTypes": "\u6749\u5fb7\u5361", "shopTypes": "\u7f8e\u5bb9\u7f8e\u53d1", "consumeTypes": null, "cookTypes": null, "orderNum": 1000, "card4no": null, "card4noAcc": null, "district2": 403, "searchScope": null, "status": 1, "address": "\u5b9b\u5e73\u5357\u8def99\u5f041\u53f72\u697c", "name": "\u601d\u598d\u4e3d \u5b9b\u5e73\u5e97", "id": 142390, "pageNo": 0, "pageCount": null, "pageSize": 10, "ids": null, "endTime": null, "startTime": null}, {"cardNumFive": null, "isSupportYj": null, "cityName": null, "districtName": null, "shopinfo": {"mid": "888888859770006", "good_flag": "2", "new_flag": "2", "short_name": "\u601d\u598d\u4e3d\u5316\u5986\u54c1", "short_name_pinyin": "siyanlihuazhuangpin", "status": null, "address": null, "name": null, "id": "33382"}, "mid": "888888859770006", "shopId": "33382", "netid": null, "province": 901, "district": 601, "zipcode": null, "telephone": "64721155", "posDate": "20080520", "destineTel": null, "togoTel": null, "trafficWay": "\u516c\u4ea4926 \u5730\u94c1\u4e00\u53f7\u7ebf", "signBuilding": null, "businessArea": null, "selfRoom": null, "businessTime": "\u65e5\u591c\u670d\u52a1", "stall": null, "consume": null, "serviceFei": null, "favourable": null, "shopMemo": null, "appraise": null, "website": null, "memo": null, "payTypes": "\u6749\u5fb7\u5361", "shopTypes": "\u4e13\u5356", "consumeTypes": null, "cookTypes": null, "orderNum": 1000, "card4no": null, "card4noAcc": null, "district2": 403, "searchScope": null, "status": 1, "address": "\u957f\u4e50\u8def400\u53f7301-305\u94fa", "name": "\u601d\u598d\u4e3d\u5316\u5986\u54c1 \u8fea\u751f\u5e97", "id": 142392, "pageNo": 0, "pageCount": null, "pageSize": 10, "ids": null, "endTime": null, "startTime": null}], "pageLimit": 8410, "size": 10}