{"pageCount": 1095, "count": 10942, "pageNo": 848, "subShopInfo": {"cardNumFive": "", "isSupportYj": "", "cityName": null, "districtName": null, "shopinfo": {"mid": null, "good_flag": null, "new_flag": null, "short_name": null, "short_name_pinyin": null, "status": null, "address": "", "name": "", "id": null}, "mid": null, "shopId": null, "netid": null, "province": 901, "district": null, "zipcode": null, "telephone": null, "posDate": null, "destineTel": null, "togoTel": null, "trafficWay": null, "signBuilding": null, "businessArea": null, "selfRoom": null, "businessTime": null, "stall": null, "consume": null, "serviceFei": null, "favourable": null, "shopMemo": "1", "appraise": null, "website": null, "memo": null, "payTypes": "", "shopTypes": "", "consumeTypes": null, "cookTypes": null, "orderNum": null, "card4no": null, "card4noAcc": null, "district2": null, "searchScope": null, "status": null, "address": "", "name": null, "id": null, "pageNo": 847, "pageCount": null, "pageSize": 10, "ids": null, "endTime": null, "startTime": null}, "list": [{"cardNumFive": null, "isSupportYj": null, "cityName": null, "districtName": null, "shopinfo": {"mid": "888888857220001", "good_flag": null, "new_flag": null, "short_name": "\u82cf\u5b81\u7535\u5668", "short_name_pinyin": "suningdianqi", "status": null, "address": null, "name": null, "id": "36335"}, "mid": "888888857220001", "shopId": "36335", "netid": null, "province": 901, "district": 601, "zipcode": null, "telephone": null, "posDate": "20100819", "destineTel": null, "togoTel": null, "trafficWay": null, "signBuilding": null, "businessArea": null, "selfRoom": null, "businessTime": null, "stall": null, "consume": null, "serviceFei": null, "favourable": null, "shopMemo": null, "appraise": null, "website": null, "memo": "\u5e97\u5185\u82f9\u679c\u4e13\u67dc\u5546\u54c1\u6682\u4e0d\u4f7f\u7528\u6749\u5fb7\u5361", "payTypes": "\u6749\u5fb7\u5361", "shopTypes": "\u8d85\u5e02", "consumeTypes": null, "cookTypes": null, "orderNum": 1000, "card4no": null, "card4noAcc": null, "district2": 409, "searchScope": null, "status": 1, "address": "\u95f5\u884c\u533a\u9f99\u5434\u8def5485\u53f7", "name": "\u82cf\u5b81\u7535\u5668 \u9f99\u5434\u8def\u5e97", "id": 151250, "pageNo": 0, "pageCount": null, "pageSize": 10, "ids": null, "endTime": null, "startTime": null}, {"cardNumFive": null, "isSupportYj": null, "cityName": null, "districtName": null, "shopinfo": {"mid": "888888857220001", "good_flag": null, "new_flag": null, "short_name": "\u82cf\u5b81\u7535\u5668", "short_name_pinyin": "suningdianqi", "status": null, "address": null, "name": null, "id": "36335"}, "mid": "888888857220001", "shopId": "36335", "netid": null, "province": 901, "district": 601, "zipcode": null, "telephone": null, "posDate": "20100920", "destineTel": null, "togoTel": null, "trafficWay": null, "signBuilding": null, "businessArea": null, "selfRoom": null, "businessTime": null, "stall": null, "consume": null, "serviceFei": null, "favourable": null, "shopMemo": null, "appraise": null, "website": null, "memo": "\u5e97\u5185\u82f9\u679c\u4e13\u67dc\u5546\u54c1\u6682\u4e0d\u4f7f\u7528\u6749\u5fb7\u5361", "payTypes": "\u6749\u5fb7\u5361", "shopTypes": "\u8d85\u5e02", "consumeTypes": null, "cookTypes": null, "orderNum": 1000, "card4no": null, "card4noAcc": null, "district2": 409, "searchScope": null, "status": 1, "address": "\u8679\u8398\u8def3065\u53f7", "name": "\u82cf\u5b81\u7535\u5668 \u8679\u8398\u5e97", "id": 151396, "pageNo": 0, "pageCount": null, "pageSize": 10, "ids": null, "endTime": null, "startTime": null}, {"cardNumFive": null, "isSupportYj": null, "cityName": null, "districtName": null, "shopinfo": {"mid": "888888857220001", "good_flag": null, "new_flag": null, "short_name": "\u82cf\u5b81\u7535\u5668", "short_name_pinyin": "suningdianqi", "status": null, "address": null, "name": null, "id": "37455"}, "mid": "888888857220001", "shopId": "37455", "netid": null, "province": 901, "district": 601, "zipcode": null, "telephone": null, "posDate": null, "destineTel": null, "togoTel": null, "trafficWay": null, "signBuilding": null, "businessArea": null, "selfRoom": null, "businessTime": null, "stall": null, "consume": null, "serviceFei": null, "favourable": null, "shopMemo": null, "appraise": null, "website": null, "memo": "\u5e97\u5185\u82f9\u679c\u4e13\u67dc\u5546\u54c1\u6682\u4e0d\u4f7f\u7528\u6749\u5fb7\u5361", "payTypes": "\u6749\u5fb7\u5361", "shopTypes": "\u8d85\u5e02", "consumeTypes": null, "cookTypes": null, "orderNum": 1000, "card4no": null, "card4noAcc": null, "district2": 405, "searchScope": null, "status": 1, "address": "\u5927\u6e21\u6cb3\u8def2109\u53f7", "name": "\u82cf\u5b81\u7535\u5668 \u5927\u6e21\u6cb3\u8def\u5e97", "id": 158833, "pageNo": 0, "pageCount": null, "pageSize": 10, "ids": null, "endTime": null, "startTime": null}, {"cardNumFive": null, "isSupportYj": null, "cityName": null, "districtName": null, "shopinfo": {"mid": "888888857220001", "good_flag": null, "new_flag": null, "short_name": "\u82cf\u5b81\u7535\u5668", "short_name_pinyin": "suningdianqi", "status": null, "address": null, "name": null, "id": "37455"}, "mid": "888888857220001", "shopId": "37455", "netid": null, "province": 901, "district": 601, "zipcode": null, "telephone": null, "posDate": null, "destineTel": null, "togoTel": null, "trafficWay": null, "signBuilding": null, "businessArea": null, "selfRoom": null, "businessTime": null, "stall": null, "consume": null, "serviceFei": null, "favourable": null, "shopMemo": null, "appraise": null, "website": null, "memo": "\u5e97\u5185\u82f9\u679c\u4e13\u67dc\u5546\u54c1\u6682\u4e0d\u4f7f\u7528\u6749\u5fb7\u5361", "payTypes": "\u6749\u5fb7\u5361", "shopTypes": "\u8d85\u5e02", "consumeTypes": null, "cookTypes": null, "orderNum": 1000, "card4no": null, "card4noAcc": null, "district2": 401, "searchScope": null, "status": 1, "address": "\u9a6c\u5f53\u8def588\u5f04", "name": "\u82cf\u5b81\u7535\u5668 \u9a6c\u5f53\u8def\u5e97", "id": 158835, "pageNo": 0, "pageCount": null, "pageSize": 10, "ids": null, "endTime": null, "startTime": null}, {"cardNumFive": null, "isSupportYj": null, "cityName": null, "districtName": null, "shopinfo": {"mid": "888888857220001", "good_flag": null, "new_flag": null, "short_name": "\u82cf\u5b81\u7535\u5668", "short_name_pinyin": "suningdianqi", "status": null, "address": null, "name": null, "id": "37455"}, "mid": "888888857220001", "shopId": "37455", "netid": null, "province": 901, "district": 601, "zipcode": null, "telephone": null, "posDate": null, "destineTel": null, "togoTel": null, "trafficWay": null, "signBuilding": null, "businessArea": null, "selfRoom": null, "businessTime": null, "stall": null, "consume": null, "serviceFei": null, "favourable": null, "shopMemo": null, "appraise": null, "website": null, "memo": "\u5e97\u5185\u82f9\u679c\u4e13\u67dc\u5546\u54c1\u6682\u4e0d\u4f7f\u7528\u6749\u5fb7\u5361", "payTypes": "\u6749\u5fb7\u5361", "shopTypes": "\u8d85\u5e02", "consumeTypes": null, "cookTypes": null, "orderNum": 1000, "card4no": null, "card4noAcc": null, "district2": 409, "searchScope": null, "status": 1, "address": "\u6d66\u9526\u8def309\u5f04", "name": "\u82cf\u5b81\u7535\u5668 \u6d66\u9526\u8def\u5e97", "id": 158836, "pageNo": 0, "pageCount": null, "pageSize": 10, "ids": null, "endTime": null, "startTime": null}, {"cardNumFive": null, "isSupportYj": null, "cityName": null, "districtName": null, "shopinfo": {"mid": "888888857220001", "good_flag": null, "new_flag": null, "short_name": "\u82cf\u5b81\u7535\u5668", "short_name_pinyin": "suningdianqi", "status": null, "address": null, "name": null, "id": "37716"}, "mid": "888888857220001", "shopId": "37716", "netid": null, "province": 901, "district": 601, "zipcode": null, "telephone": null, "posDate": null, "destineTel": null, "togoTel": null, "trafficWay": null, "signBuilding": null, "businessArea": null, "selfRoom": null, "businessTime": null, "stall": null, "consume": null, "serviceFei": null, "favourable": null, "shopMemo": null, "appraise": null, "website": null, "memo": "\u5e97\u5185\u82f9\u679c\u4e13\u67dc\u5546\u54c1\u6682\u4e0d\u4f7f\u7528\u6749\u5fb7\u5361", "payTypes": "\u6749\u5fb7\u5361", "shopTypes": "\u8d85\u5e02", "consumeTypes": null, "cookTypes": null, "orderNum": 1000, "card4no": null, "card4noAcc": null, "district2": 416, "searchScope": null, "status": 1, "address": "\u6caa\u592a\u8def3633\u53f7", "name": "\u82cf\u5b81\u7535\u5668 \u5927\u573a\u5e97", "id": 159952, "pageNo": 0, "pageCount": null, "pageSize": 10, "ids": null, "endTime": null, "startTime": null}, {"cardNumFive": null, "isSupportYj": null, "cityName": null, "districtName": null, "shopinfo": {"mid": "888888857220001", "good_flag": null, "new_flag": null, "short_name": "\u82cf\u5b81\u7535\u5668", "short_name_pinyin": "suningdianqi", "status": null, "address": null, "name": null, "id": "38244"}, "mid": "888888857220001", "shopId": "38244", "netid": null, "province": 901, "district": 601, "zipcode": null, "telephone": null, "posDate": null, "destineTel": null, "togoTel": null, "trafficWay": null, "signBuilding": null, "businessArea": null, "selfRoom": null, "businessTime": null, "stall": null, "consume": null, "serviceFei": null, "favourable": null, "shopMemo": null, "appraise": null, "website": null, "memo": "\u5e97\u5185\u82f9\u679c\u4e13\u67dc\u5546\u54c1\u6682\u4e0d\u4f7f\u7528\u6749\u5fb7\u5361", "payTypes": "\u6749\u5fb7\u5361", "shopTypes": "\u8d85\u5e02", "consumeTypes": null, "cookTypes": null, "orderNum": 1000, "card4no": null, "card4noAcc": null, "district2": 415, "searchScope": null, "status": 1, "address": "\u5821\u9547\u9547\u5821\u9547\u4e2d\u8def388\u53f7", "name": "\u82cf\u5b81\u7535\u5668 \u5d07\u660e\u5821\u9547\u5e97", "id": 163212, "pageNo": 0, "pageCount": null, "pageSize": 10, "ids": null, "endTime": null, "startTime": null}, {"cardNumFive": null, "isSupportYj": null, "cityName": null, "districtName": null, "shopinfo": {"mid": "888888857220001", "good_flag": null, "new_flag": null, "short_name": "\u82cf\u5b81\u7535\u5668", "short_name_pinyin": "suningdianqi", "status": null, "address": null, "name": null, "id": "38244"}, "mid": "888888857220001", "shopId": "38244", "netid": null, "province": 901, "district": 601, "zipcode": null, "telephone": null, "posDate": null, "destineTel": null, "togoTel": null, "trafficWay": null, "signBuilding": null, "businessArea": null, "selfRoom": null, "businessTime": null, "stall": null, "consume": null, "serviceFei": null, "favourable": null, "shopMemo": null, "appraise": null, "website": null, "memo": "\u5e97\u5185\u82f9\u679c\u4e13\u67dc\u5546\u54c1\u6682\u4e0d\u4f7f\u7528\u6749\u5fb7\u5361", "payTypes": "\u6749\u5fb7\u5361", "shopTypes": "\u8d85\u5e02", "consumeTypes": null, "cookTypes": null, "orderNum": 1000, "card4no": null, "card4noAcc": null, "district2": 411, "searchScope": null, "status": 1, "address": "\u4ed3\u573a\u8def422\u53f7", "name": "\u82cf\u5b81\u7535\u5668 \u4ed3\u573a\u5e97", "id": 163213, "pageNo": 0, "pageCount": null, "pageSize": 10, "ids": null, "endTime": null, "startTime": null}, {"cardNumFive": null, "isSupportYj": null, "cityName": null, "districtName": null, "shopinfo": {"mid": "888888857220001", "good_flag": null, "new_flag": null, "short_name": "\u82cf\u5b81\u7535\u5668", "short_name_pinyin": "suningdianqi", "status": null, "address": null, "name": null, "id": "38244"}, "mid": "888888857220001", "shopId": "38244", "netid": null, "province": 901, "district": 601, "zipcode": null, "telephone": null, "posDate": null, "destineTel": null, "togoTel": null, "trafficWay": null, "signBuilding": null, "businessArea": null, "selfRoom": null, "businessTime": null, "stall": null, "consume": null, "serviceFei": null, "favourable": null, "shopMemo": null, "appraise": null, "website": null, "memo": "\u5e97\u5185\u82f9\u679c\u4e13\u67dc\u5546\u54c1\u6682\u4e0d\u4f7f\u7528\u6749\u5fb7\u5361", "payTypes": "\u6749\u5fb7\u5361", "shopTypes": "\u8d85\u5e02", "consumeTypes": null, "cookTypes": null, "orderNum": 1000, "card4no": null, "card4noAcc": null, "district2": 410, "searchScope": null, "status": 1, "address": "\u6caa\u592a\u8def785\u53f7", "name": "\u82cf\u5b81\u7535\u5668 \u6caa\u592a\u4e8c\u5e97", "id": 163214, "pageNo": 0, "pageCount": null, "pageSize": 10, "ids": null, "endTime": null, "startTime": null}, {"cardNumFive": null, "isSupportYj": null, "cityName": null, "districtName": null, "shopinfo": {"mid": "888888857220001", "good_flag": null, "new_flag": null, "short_name": "\u82cf\u5b81\u7535\u5668", "short_name_pinyin": "suningdianqi", "status": null, "address": null, "name": null, "id": "38244"}, "mid": "888888857220001", "shopId": "38244", "netid": null, "province": 901, "district": 601, "zipcode": null, "telephone": null, "posDate": null, "destineTel": null, "togoTel": null, "trafficWay": null, "signBuilding": null, "businessArea": null, "selfRoom": null, "businessTime": null, "stall": null, "consume": null, "serviceFei": null, "favourable": null, "shopMemo": null, "appraise": null, "website": null, "memo": "\u5e97\u5185\u82f9\u679c\u4e13\u67dc\u5546\u54c1\u6682\u4e0d\u4f7f\u7528\u6749\u5fb7\u5361", "payTypes": "\u6749\u5fb7\u5361", "shopTypes": "\u8d85\u5e02", "consumeTypes": null, "cookTypes": null, "orderNum": 1000, "card4no": null, "card4noAcc": null, "district2": 418, "searchScope": null, "status": 1, "address": "\u82b3\u7538\u8def258\u5f0413-17\u53f7", "name": "\u82cf\u5b81\u7535\u5668 \u8054\u6d0b\u5e7f\u573a\u5e97", "id": 163215, "pageNo": 0, "pageCount": null, "pageSize": 10, "ids": null, "endTime": null, "startTime": null}], "pageLimit": 8470, "size": 10}