{"pageCount": 1095, "count": 10942, "pageNo": 843, "subShopInfo": {"cardNumFive": "", "isSupportYj": "", "cityName": null, "districtName": null, "shopinfo": {"mid": null, "good_flag": null, "new_flag": null, "short_name": null, "short_name_pinyin": null, "status": null, "address": "", "name": "", "id": null}, "mid": null, "shopId": null, "netid": null, "province": 901, "district": null, "zipcode": null, "telephone": null, "posDate": null, "destineTel": null, "togoTel": null, "trafficWay": null, "signBuilding": null, "businessArea": null, "selfRoom": null, "businessTime": null, "stall": null, "consume": null, "serviceFei": null, "favourable": null, "shopMemo": "1", "appraise": null, "website": null, "memo": null, "payTypes": "", "shopTypes": "", "consumeTypes": null, "cookTypes": null, "orderNum": null, "card4no": null, "card4noAcc": null, "district2": null, "searchScope": null, "status": null, "address": "", "name": null, "id": null, "pageNo": 842, "pageCount": null, "pageSize": 10, "ids": null, "endTime": null, "startTime": null}, "list": [{"cardNumFive": null, "isSupportYj": null, "cityName": null, "districtName": null, "shopinfo": {"mid": "888888853110065", "good_flag": null, "new_flag": null, "short_name": "\u677e\u6c5f\u5546\u57ce", "short_name_pinyin": "songjiangshangcheng", "status": null, "address": null, "name": null, "id": "35670"}, "mid": "888888853110065", "shopId": "35670", "netid": null, "province": 901, "district": 601, "zipcode": null, "telephone": "57713546", "posDate": "20100727", "destineTel": null, "togoTel": null, "trafficWay": null, "signBuilding": null, "businessArea": null, "selfRoom": null, "businessTime": null, "stall": null, "consume": null, "serviceFei": null, "favourable": null, "shopMemo": null, "appraise": null, "website": null, "memo": null, "payTypes": "\u6749\u5fb7\u5361", "shopTypes": "\u767e\u8d27", "consumeTypes": null, "cookTypes": null, "orderNum": 1000, "card4no": null, "card4noAcc": null, "district2": 412, "searchScope": null, "status": 1, "address": "\u677e\u6c5f\u4e2d\u5c71\u4e2d\u8def168-188\u53f7", "name": "\u677e\u6c5f\u5546\u57ce \u4e2d\u5c71\u4e2d\u8def\u5e97", "id": 149188, "pageNo": 0, "pageCount": null, "pageSize": 10, "ids": null, "endTime": null, "startTime": null}, {"cardNumFive": null, "isSupportYj": null, "cityName": null, "districtName": null, "shopinfo": {"mid": "888888858120457", "good_flag": "2", "new_flag": "2", "short_name": "SPR\u5496\u5561", "short_name_pinyin": "sprkafei", "status": null, "address": null, "name": null, "id": "31082"}, "mid": "888888858120457", "shopId": "31082", "netid": null, "province": 901, "district": 601, "zipcode": null, "telephone": "50302509", "posDate": "20080815", "destineTel": null, "togoTel": null, "trafficWay": "\u516c\u4ea4984 983", "signBuilding": null, "businessArea": null, "selfRoom": null, "businessTime": "7:00~24:00", "stall": "\u6709", "consume": null, "serviceFei": null, "favourable": null, "shopMemo": null, "appraise": null, "website": null, "memo": null, "payTypes": "\u6749\u5fb7\u5361", "shopTypes": "\u9910\u996e,\u4f11\u95f2", "consumeTypes": null, "cookTypes": null, "orderNum": 1000, "card4no": null, "card4noAcc": null, "district2": 418, "searchScope": null, "status": 1, "address": "\u78a7\u4e91\u8def236\u53f71\u5c42,238\u53f7201\u5ba4", "name": "SPR\u5496\u5561 \u78a7\u4e91\u8def\u5e97", "id": 132105, "pageNo": 0, "pageCount": null, "pageSize": 10, "ids": null, "endTime": null, "startTime": null}, {"cardNumFive": null, "isSupportYj": null, "cityName": null, "districtName": null, "shopinfo": {"mid": "888002153310372", "good_flag": null, "new_flag": null, "short_name": "\u82cf\u679c\u8d85\u5e02", "short_name_pinyin": "suguochaoshi", "status": null, "address": null, "name": null, "id": "39483"}, "mid": "888002153310372", "shopId": "39483", "netid": null, "province": 901, "district": 601, "zipcode": null, "telephone": null, "posDate": null, "destineTel": null, "togoTel": null, "trafficWay": null, "signBuilding": null, "businessArea": null, "selfRoom": null, "businessTime": null, "stall": null, "consume": null, "serviceFei": null, "favourable": null, "shopMemo": null, "appraise": null, "website": null, "memo": null, "payTypes": "\u6749\u5fb7\u5361", "shopTypes": "\u8d85\u5e02", "consumeTypes": null, "cookTypes": null, "orderNum": 1000, "card4no": null, "card4noAcc": null, "district2": 413, "searchScope": null, "status": 1, "address": "\u5357\u6865\u9547\u897f\u6e21\u6caa\u884c\u516c\u8def63\u53f7", "name": "\u82cf\u679c\u8d85\u5e02 \u6caa\u884c\u516c\u8def\u5e97", "id": 169238, "pageNo": 0, "pageCount": null, "pageSize": 10, "ids": null, "endTime": null, "startTime": null}, {"cardNumFive": null, "isSupportYj": null, "cityName": null, "districtName": null, "shopinfo": {"mid": "888002153110168", "good_flag": null, "new_flag": null, "short_name": "\u82cf\u679c\u8d2d\u7269\u5e7f\u573a", "short_name_pinyin": "suguogouwuguangchang", "status": null, "address": null, "name": null, "id": "38786"}, "mid": "888002153110168", "shopId": "38786", "netid": null, "province": 901, "district": 601, "zipcode": null, "telephone": null, "posDate": null, "destineTel": null, "togoTel": null, "trafficWay": null, "signBuilding": null, "businessArea": null, "selfRoom": null, "businessTime": null, "stall": null, "consume": null, "serviceFei": null, "favourable": null, "shopMemo": null, "appraise": null, "website": null, "memo": null, "payTypes": "\u6749\u5fb7\u5361", "shopTypes": "\u767e\u8d27", "consumeTypes": null, "cookTypes": null, "orderNum": 1000, "card4no": null, "card4noAcc": null, "district2": 412, "searchScope": null, "status": 1, "address": "\u53f6\u69ad\u9547\u7af9\u4ead\u8def257\u53f7", "name": "\u82cf\u679c\u8d2d\u7269\u5e7f\u573a \u7af9\u4ead\u5e97", "id": 164435, "pageNo": 0, "pageCount": null, "pageSize": 10, "ids": null, "endTime": null, "startTime": null}, {"cardNumFive": null, "isSupportYj": null, "cityName": null, "districtName": null, "shopinfo": {"mid": "888888857220001", "good_flag": null, "new_flag": null, "short_name": "\u82cf\u5b81\u7535\u5668", "short_name_pinyin": "suningdianqi", "status": null, "address": null, "name": null, "id": "33396"}, "mid": "888888857220001", "shopId": "33396", "netid": null, "province": 901, "district": 601, "zipcode": null, "telephone": "\u5ba2\u6237\u670d\u52a1\u7535\u8bdd\uff1a4008365365\u8f6c\u5404\u95e8\u5e97", "posDate": "20080411", "destineTel": "4008365365", "togoTel": "4008365365", "trafficWay": "\u516c\u4ea4948 950 837", "signBuilding": null, "businessArea": "\u5747\u4e3a4468\u5e73\u7c73", "selfRoom": null, "businessTime": "9:00~21:00", "stall": null, "consume": null, "serviceFei": null, "favourable": null, "shopMemo": null, "appraise": null, "website": null, "memo": "\u5e97\u5185\u82f9\u679c\u4e13\u67dc\u5546\u54c1\u6682\u4e0d\u4f7f\u7528\u6749\u5fb7\u5361", "payTypes": "\u6749\u5fb7\u5361", "shopTypes": "\u8d85\u5e02", "consumeTypes": null, "cookTypes": null, "orderNum": 1000, "card4no": null, "card4noAcc": null, "district2": 405, "searchScope": null, "status": 1, "address": "\u66f9\u5b89\u8def1658\u53f7", "name": "\u82cf\u5b81\u7535\u5668 \u66f9\u5b89\u8def\u5e97", "id": 142411, "pageNo": 0, "pageCount": null, "pageSize": 10, "ids": null, "endTime": null, "startTime": null}, {"cardNumFive": null, "isSupportYj": null, "cityName": null, "districtName": null, "shopinfo": {"mid": "888888857220001", "good_flag": null, "new_flag": null, "short_name": "\u82cf\u5b81\u7535\u5668", "short_name_pinyin": "suningdianqi", "status": null, "address": null, "name": null, "id": "33396"}, "mid": "888888857220001", "shopId": "33396", "netid": null, "province": 901, "district": 601, "zipcode": null, "telephone": "\u5ba2\u6237\u670d\u52a1\u7535\u8bdd\uff1a4008365365\u8f6c\u5404\u95e8\u5e97", "posDate": "20061221", "destineTel": "4008365365", "togoTel": "4008365365", "trafficWay": "\u516c\u4ea473 \u5730\u94c1\u4e8c\u53f7\u7ebf \u5730\u94c1\u56db\u53f7\u7ebf", "signBuilding": null, "businessArea": "\u5747\u4e3a4468\u5e73\u7c73", "selfRoom": "\u65e0", "businessTime": "09:00~21:00", "stall": "\u65e0", "consume": null, "serviceFei": null, "favourable": null, "shopMemo": null, "appraise": null, "website": "www.cnsuning.com", "memo": "\u5e97\u5185\u82f9\u679c\u4e13\u67dc\u5546\u54c1\u6682\u4e0d\u4f7f\u7528\u6749\u5fb7\u5361", "payTypes": "\u6749\u5fb7\u5361", "shopTypes": "\u8d85\u5e02", "consumeTypes": null, "cookTypes": null, "orderNum": 1000, "card4no": null, "card4noAcc": null, "district2": 406, "searchScope": null, "status": 1, "address": "\u957f\u5b81\u8def999\u53f7", "name": "\u82cf\u5b81\u7535\u5668 \u957f\u5b81\u5e97", "id": 142414, "pageNo": 0, "pageCount": null, "pageSize": 10, "ids": null, "endTime": null, "startTime": null}, {"cardNumFive": null, "isSupportYj": null, "cityName": null, "districtName": null, "shopinfo": {"mid": "888888857220001", "good_flag": null, "new_flag": null, "short_name": "\u82cf\u5b81\u7535\u5668", "short_name_pinyin": "suningdianqi", "status": null, "address": null, "name": null, "id": "33396"}, "mid": "888888857220001", "shopId": "33396", "netid": null, "province": 901, "district": 601, "zipcode": null, "telephone": "\u5ba2\u6237\u670d\u52a1\u7535\u8bdd\uff1a4008365365\u8f6c\u5404\u95e8\u5e97", "posDate": "20061227", "destineTel": "4008365365", "togoTel": "4008365365", "trafficWay": "\u516c\u4ea4934 33 137", "signBuilding": null, "businessArea": "\u5747\u4e3a4468\u5e73\u7c73", "selfRoom": "\u65e0", "businessTime": "09:00~21:00", "stall": "\u65e0", "consume": null, "serviceFei": null, "favourable": null, "shopMemo": null, "appraise": null, "website": "www.cnsuning.com", "memo": "\u5e97\u5185\u82f9\u679c\u4e13\u67dc\u5546\u54c1\u6682\u4e0d\u4f7f\u7528\u6749\u5fb7\u5361", "payTypes": "\u6749\u5fb7\u5361", "shopTypes": "\u8d85\u5e02", "consumeTypes": null, "cookTypes": null, "orderNum": 1000, "card4no": null, "card4noAcc": null, "district2": 407, "searchScope": null, "status": 1, "address": "\u957f\u9633\u8def1681\u53f7", "name": "\u82cf\u5b81\u7535\u5668 \u957f\u9633\u5e97", "id": 142415, "pageNo": 0, "pageCount": null, "pageSize": 10, "ids": null, "endTime": null, "startTime": null}, {"cardNumFive": null, "isSupportYj": null, "cityName": null, "districtName": null, "shopinfo": {"mid": "888888857220001", "good_flag": null, "new_flag": null, "short_name": "\u82cf\u5b81\u7535\u5668", "short_name_pinyin": "suningdianqi", "status": null, "address": null, "name": null, "id": "33396"}, "mid": "888888857220001", "shopId": "33396", "netid": null, "province": 901, "district": 601, "zipcode": null, "telephone": "\u5ba2\u6237\u670d\u52a1\u7535\u8bdd\uff1a4008365365\u8f6c\u5404\u95e8\u5e97", "posDate": "20070101", "destineTel": "4008365365", "togoTel": "4008365365", "trafficWay": null, "signBuilding": null, "businessArea": "\u5747\u4e3a4468\u5e73\u7c73", "selfRoom": "\u65e0", "businessTime": "09:00~21:00", "stall": "\u65e0", "consume": null, "serviceFei": null, "favourable": null, "shopMemo": null, "appraise": null, "website": "www.cnsuning.com", "memo": "\u5e97\u5185\u82f9\u679c\u4e13\u67dc\u5546\u54c1\u6682\u4e0d\u4f7f\u7528\u6749\u5fb7\u5361", "payTypes": "\u6749\u5fb7\u5361", "shopTypes": "\u8d85\u5e02", "consumeTypes": null, "cookTypes": null, "orderNum": 1000, "card4no": null, "card4noAcc": null, "district2": 418, "searchScope": null, "status": 1, "address": "\u57ce\u6865\u9547\u5317\u95e8\u8def288\u53f7", "name": "\u82cf\u5b81\u7535\u5668 \u57ce\u6865\u9547\u5e97", "id": 142416, "pageNo": 0, "pageCount": null, "pageSize": 10, "ids": null, "endTime": null, "startTime": null}, {"cardNumFive": null, "isSupportYj": null, "cityName": null, "districtName": null, "shopinfo": {"mid": "888888857220001", "good_flag": null, "new_flag": null, "short_name": "\u82cf\u5b81\u7535\u5668", "short_name_pinyin": "suningdianqi", "status": null, "address": null, "name": null, "id": "33396"}, "mid": "888888857220001", "shopId": "33396", "netid": null, "province": 901, "district": 601, "zipcode": "201200", "telephone": "\u5ba2\u6237\u670d\u52a1\u7535\u8bdd\uff1a4008365365\u8f6c\u5404\u95e8\u5e97", "posDate": "20070322", "destineTel": null, "togoTel": null, "trafficWay": "\u5f90\u5ddd\u4e13\u7ebf", "signBuilding": null, "businessArea": "\u5747\u4e3a4468\u5e73\u7c73", "selfRoom": "\u65e0", "businessTime": "09:00~21:00", "stall": "\u6709", "consume": null, "serviceFei": null, "favourable": null, "shopMemo": null, "appraise": null, "website": "www.cnsuning.com", "memo": "\u5e97\u5185\u82f9\u679c\u4e13\u67dc\u5546\u54c1\u6682\u4e0d\u4f7f\u7528\u6749\u5fb7\u5361", "payTypes": "\u6749\u5fb7\u5361", "shopTypes": "\u8d85\u5e02", "consumeTypes": null, "cookTypes": null, "orderNum": 1000, "card4no": null, "card4noAcc": null, "district2": 418, "searchScope": null, "status": 1, "address": "\u5ddd\u6c99\u8def4825\u53f7", "name": "\u82cf\u5b81\u7535\u5668 \u5ddd\u6c99\u5e97", "id": 142417, "pageNo": 0, "pageCount": null, "pageSize": 10, "ids": null, "endTime": null, "startTime": null}, {"cardNumFive": null, "isSupportYj": null, "cityName": null, "districtName": null, "shopinfo": {"mid": "888888857220001", "good_flag": null, "new_flag": null, "short_name": "\u82cf\u5b81\u7535\u5668", "short_name_pinyin": "suningdianqi", "status": null, "address": null, "name": null, "id": "33396"}, "mid": "888888857220001", "shopId": "33396", "netid": null, "province": 901, "district": 601, "zipcode": null, "telephone": null, "posDate": "20100111", "destineTel": null, "togoTel": null, "trafficWay": null, "signBuilding": null, "businessArea": null, "selfRoom": null, "businessTime": null, "stall": null, "consume": null, "serviceFei": null, "favourable": null, "shopMemo": null, "appraise": null, "website": null, "memo": "\u5e97\u5185\u82f9\u679c\u4e13\u67dc\u5546\u54c1\u6682\u4e0d\u4f7f\u7528\u6749\u5fb7\u5361", "payTypes": "\u6749\u5fb7\u5361", "shopTypes": "\u8d85\u5e02", "consumeTypes": null, "cookTypes": null, "orderNum": 1000, "card4no": null, "card4noAcc": null, "district2": 409, "searchScope": null, "status": 1, "address": "\u6625\u7533\u5e973333\u53f7", "name": "\u82cf\u5b81\u7535\u5668 \u6625\u7533\u5e97", "id": 142418, "pageNo": 0, "pageCount": null, "pageSize": 10, "ids": null, "endTime": null, "startTime": null}], "pageLimit": 8420, "size": 10}