{"pageCount": 1095, "count": 10942, "pageNo": 846, "subShopInfo": {"cardNumFive": "", "isSupportYj": "", "cityName": null, "districtName": null, "shopinfo": {"mid": null, "good_flag": null, "new_flag": null, "short_name": null, "short_name_pinyin": null, "status": null, "address": "", "name": "", "id": null}, "mid": null, "shopId": null, "netid": null, "province": 901, "district": null, "zipcode": null, "telephone": null, "posDate": null, "destineTel": null, "togoTel": null, "trafficWay": null, "signBuilding": null, "businessArea": null, "selfRoom": null, "businessTime": null, "stall": null, "consume": null, "serviceFei": null, "favourable": null, "shopMemo": "1", "appraise": null, "website": null, "memo": null, "payTypes": "", "shopTypes": "", "consumeTypes": null, "cookTypes": null, "orderNum": null, "card4no": null, "card4noAcc": null, "district2": null, "searchScope": null, "status": null, "address": "", "name": null, "id": null, "pageNo": 845, "pageCount": null, "pageSize": 10, "ids": null, "endTime": null, "startTime": null}, "list": [{"cardNumFive": null, "isSupportYj": null, "cityName": null, "districtName": null, "shopinfo": {"mid": "888888857220001", "good_flag": null, "new_flag": null, "short_name": "\u82cf\u5b81\u7535\u5668", "short_name_pinyin": "suningdianqi", "status": null, "address": null, "name": null, "id": "33396"}, "mid": "888888857220001", "shopId": "33396", "netid": null, "province": 901, "district": 601, "zipcode": null, "telephone": "\u5ba2\u6237\u670d\u52a1\u7535\u8bdd\uff1a4008365365\u8f6c\u5404\u95e8\u5e97", "posDate": "20061228", "destineTel": "4008365365", "togoTel": "4008365365", "trafficWay": "\u65c5\u6e382\u53f7\u7ebf", "signBuilding": null, "businessArea": "\u5747\u4e3a4468\u5e73\u7c73", "selfRoom": "\u65e0", "businessTime": "09:00~21:00", "stall": "\u65e0", "consume": null, "serviceFei": null, "favourable": null, "shopMemo": null, "appraise": null, "website": "www.cnsuning.com", "memo": "\u5e97\u5185\u82f9\u679c\u4e13\u67dc\u5546\u54c1\u6682\u4e0d\u4f7f\u7528\u6749\u5fb7\u5361", "payTypes": "\u6749\u5fb7\u5361", "shopTypes": "\u8d85\u5e02", "consumeTypes": null, "cookTypes": null, "orderNum": 1000, "card4no": null, "card4noAcc": null, "district2": 418, "searchScope": null, "status": 1, "address": "\u4e1c\u95e8\u5927\u885712\u5f04", "name": "\u82cf\u5b81\u7535\u5668 \u5357\u6c47\u5e97", "id": 142443, "pageNo": 0, "pageCount": null, "pageSize": 10, "ids": null, "endTime": null, "startTime": null}, {"cardNumFive": null, "isSupportYj": null, "cityName": null, "districtName": null, "shopinfo": {"mid": "888888857220001", "good_flag": null, "new_flag": null, "short_name": "\u82cf\u5b81\u7535\u5668", "short_name_pinyin": "suningdianqi", "status": null, "address": null, "name": null, "id": "33396"}, "mid": "888888857220001", "shopId": "33396", "netid": null, "province": 901, "district": 601, "zipcode": null, "telephone": "\u5ba2\u6237\u670d\u52a1\u7535\u8bdd\uff1a4008365365\u8f6c\u5404\u95e8\u5e97", "posDate": "20061226", "destineTel": "4008365365", "togoTel": "4008365365", "trafficWay": "\u96a7\u9053\u4e00\u7ebf", "signBuilding": null, "businessArea": "\u5747\u4e3a4468\u5e73\u7c73", "selfRoom": "\u65e0", "businessTime": "09:00~21:00", "stall": "\u65e0", "consume": null, "serviceFei": null, "favourable": null, "shopMemo": null, "appraise": null, "website": "www.cnsuning.com", "memo": "\u5e97\u5185\u82f9\u679c\u4e13\u67dc\u5546\u54c1\u6682\u4e0d\u4f7f\u7528\u6749\u5fb7\u5361", "payTypes": "\u6749\u5fb7\u5361", "shopTypes": "\u8d85\u5e02", "consumeTypes": null, "cookTypes": null, "orderNum": 1000, "card4no": null, "card4noAcc": null, "district2": 418, "searchScope": null, "status": 1, "address": "\u6d66\u4e09\u8def3058\u53f7", "name": "\u82cf\u5b81\u7535\u5668 \u6d66\u4e09\u5e97", "id": 142445, "pageNo": 0, "pageCount": null, "pageSize": 10, "ids": null, "endTime": null, "startTime": null}, {"cardNumFive": null, "isSupportYj": null, "cityName": null, "districtName": null, "shopinfo": {"mid": "888888857220001", "good_flag": null, "new_flag": null, "short_name": "\u82cf\u5b81\u7535\u5668", "short_name_pinyin": "suningdianqi", "status": null, "address": null, "name": null, "id": "33396"}, "mid": "888888857220001", "shopId": "33396", "netid": null, "province": 901, "district": 601, "zipcode": null, "telephone": "\u5ba2\u6237\u670d\u52a1\u7535\u8bdd\uff1a4008365365\u8f6c\u5404\u95e8\u5e97", "posDate": "20061230", "destineTel": "4008365365", "togoTel": "4008365365", "trafficWay": "\u65c5\u6e384\u53f7\u7ebf", "signBuilding": null, "businessArea": "\u5747\u4e3a4468\u5e73\u7c73", "selfRoom": "\u65e0", "businessTime": "09:00~21:00", "stall": "\u65e0", "consume": null, "serviceFei": null, "favourable": null, "shopMemo": null, "appraise": null, "website": "www.cnsuning.com", "memo": "\u5e97\u5185\u82f9\u679c\u4e13\u67dc\u5546\u54c1\u6682\u4e0d\u4f7f\u7528\u6749\u5fb7\u5361", "payTypes": "\u6749\u5fb7\u5361", "shopTypes": "\u8d85\u5e02", "consumeTypes": null, "cookTypes": null, "orderNum": 1000, "card4no": null, "card4noAcc": null, "district2": 417, "searchScope": null, "status": 1, "address": "\u57ce\u4e2d\u5357\u8def461\u53f7", "name": "\u82cf\u5b81\u7535\u5668 \u9752\u6d66\u5e97", "id": 142446, "pageNo": 0, "pageCount": null, "pageSize": 10, "ids": null, "endTime": null, "startTime": null}, {"cardNumFive": null, "isSupportYj": null, "cityName": null, "districtName": null, "shopinfo": {"mid": "888888857220001", "good_flag": null, "new_flag": null, "short_name": "\u82cf\u5b81\u7535\u5668", "short_name_pinyin": "suningdianqi", "status": null, "address": null, "name": null, "id": "33396"}, "mid": "888888857220001", "shopId": "33396", "netid": null, "province": 901, "district": 601, "zipcode": null, "telephone": "\u5ba2\u6237\u670d\u52a1\u7535\u8bdd\uff1a4008365365\u8f6c\u5404\u95e8\u5e97", "posDate": "20080124", "destineTel": null, "togoTel": null, "trafficWay": "\u4e0a\u6731\u7ebf \u77f3\u9752\u7ebf", "signBuilding": null, "businessArea": null, "selfRoom": null, "businessTime": "09:00~21:00", "stall": null, "consume": null, "serviceFei": null, "favourable": null, "shopMemo": null, "appraise": null, "website": "www.cnsuning.com", "memo": "\u5e97\u5185\u82f9\u679c\u4e13\u67dc\u5546\u54c1\u6682\u4e0d\u4f7f\u7528\u6749\u5fb7\u5361", "payTypes": "\u6749\u5fb7\u5361", "shopTypes": "\u8d85\u5e02", "consumeTypes": null, "cookTypes": null, "orderNum": 1000, "card4no": null, "card4noAcc": null, "district2": 417, "searchScope": null, "status": 1, "address": "\u516c\u56ed\u8def458\u53f7", "name": "\u82cf\u5b81\u7535\u5668 \u9752\u6d66\u4e8c\u5e97", "id": 142447, "pageNo": 0, "pageCount": null, "pageSize": 10, "ids": null, "endTime": null, "startTime": null}, {"cardNumFive": null, "isSupportYj": null, "cityName": null, "districtName": null, "shopinfo": {"mid": "888888857220001", "good_flag": null, "new_flag": null, "short_name": "\u82cf\u5b81\u7535\u5668", "short_name_pinyin": "suningdianqi", "status": null, "address": null, "name": null, "id": "33396"}, "mid": "888888857220001", "shopId": "33396", "netid": null, "province": 901, "district": 601, "zipcode": null, "telephone": "\u5ba2\u6237\u670d\u52a1\u7535\u8bdd\uff1a4008365365\u8f6c\u5404\u95e8\u5e97?", "posDate": "20071122", "destineTel": null, "togoTel": null, "trafficWay": "\u65c5\u6e3810\u53f7\u7ebf \u516c\u4ea4933 537", "signBuilding": null, "businessArea": null, "selfRoom": null, "businessTime": null, "stall": null, "consume": null, "serviceFei": null, "favourable": null, "shopMemo": null, "appraise": null, "website": null, "memo": "\u5e97\u5185\u82f9\u679c\u4e13\u67dc\u5546\u54c1\u6682\u4e0d\u4f7f\u7528\u6749\u5fb7\u5361", "payTypes": "\u6749\u5fb7\u5361", "shopTypes": "\u8d85\u5e02", "consumeTypes": null, "cookTypes": null, "orderNum": 1000, "card4no": null, "card4noAcc": null, "district2": 408, "searchScope": null, "status": 1, "address": "\u4e2d\u5c71\u5317\u4e8c\u8def1705\u53f7", "name": "\u82cf\u5b81\u7535\u5668 \u66f2\u9633\u5e97", "id": 142448, "pageNo": 0, "pageCount": null, "pageSize": 10, "ids": null, "endTime": null, "startTime": null}, {"cardNumFive": null, "isSupportYj": null, "cityName": null, "districtName": null, "shopinfo": {"mid": "888888857220001", "good_flag": null, "new_flag": null, "short_name": "\u82cf\u5b81\u7535\u5668", "short_name_pinyin": "suningdianqi", "status": null, "address": null, "name": null, "id": "33396"}, "mid": "888888857220001", "shopId": "33396", "netid": null, "province": 901, "district": 601, "zipcode": null, "telephone": "\u5ba2\u6237\u670d\u52a1\u7535\u8bdd\uff1a4008365365\u8f6c\u5404\u95e8\u5e97", "posDate": "20070305", "destineTel": "4008365365", "togoTel": "4008365365", "trafficWay": "\u65c5\u6e381A\u7ebf \u6caa\u677e\u4e13\u7ebf", "signBuilding": null, "businessArea": "\u5747\u4e3a4468\u5e73\u7c73", "selfRoom": "\u65e0", "businessTime": "09:00~21:00", "stall": "\u65e0", "consume": null, "serviceFei": null, "favourable": null, "shopMemo": null, "appraise": null, "website": "www.cnsuning.com", "memo": "\u5e97\u5185\u82f9\u679c\u4e13\u67dc\u5546\u54c1\u6682\u4e0d\u4f7f\u7528\u6749\u5fb7\u5361", "payTypes": "\u6749\u5fb7\u5361", "shopTypes": "\u8d85\u5e02", "consumeTypes": null, "cookTypes": null, "orderNum": 1000, "card4no": null, "card4noAcc": null, "district2": 412, "searchScope": null, "status": 1, "address": "\u8363\u4e50\u4e2d\u8def12\u5f04", "name": "\u82cf\u5b81\u7535\u5668 \u8363\u4e50\u5546\u573a\u5e97", "id": 142449, "pageNo": 0, "pageCount": null, "pageSize": 10, "ids": null, "endTime": null, "startTime": null}, {"cardNumFive": null, "isSupportYj": null, "cityName": null, "districtName": null, "shopinfo": {"mid": "888888857220001", "good_flag": null, "new_flag": null, "short_name": "\u82cf\u5b81\u7535\u5668", "short_name_pinyin": "suningdianqi", "status": null, "address": null, "name": null, "id": "33396"}, "mid": "888888857220001", "shopId": "33396", "netid": null, "province": 901, "district": 601, "zipcode": null, "telephone": "\u5ba2\u6237\u670d\u52a1\u7535\u8bdd\uff1a4008365365\u8f6c\u5404\u95e8\u5e97", "posDate": "20061226", "destineTel": "4008365365", "togoTel": "4008365365", "trafficWay": "\u516c\u4ea4973", "signBuilding": null, "businessArea": "\u5747\u4e3a4468\u5e73\u7c73", "selfRoom": "\u65e0", "businessTime": "09:00~21:00", "stall": "\u65e0", "consume": null, "serviceFei": null, "favourable": null, "shopMemo": null, "appraise": null, "website": "www.cnsuning.com", "memo": "\u5e97\u5185\u82f9\u679c\u4e13\u67dc\u5546\u54c1\u6682\u4e0d\u4f7f\u7528\u6749\u5fb7\u5361", "payTypes": "\u6749\u5fb7\u5361", "shopTypes": "\u8d85\u5e02", "consumeTypes": null, "cookTypes": null, "orderNum": 1000, "card4no": null, "card4noAcc": null, "district2": 418, "searchScope": null, "status": 1, "address": "\u51cc\u5146\u8def445\u53f7", "name": "\u82cf\u5b81\u7535\u5668 \u4e09\u6797\u5858\u5546\u573a\u5e97", "id": 142450, "pageNo": 0, "pageCount": null, "pageSize": 10, "ids": null, "endTime": null, "startTime": null}, {"cardNumFive": null, "isSupportYj": null, "cityName": null, "districtName": null, "shopinfo": {"mid": "888888857220001", "good_flag": null, "new_flag": null, "short_name": "\u82cf\u5b81\u7535\u5668", "short_name_pinyin": "suningdianqi", "status": null, "address": null, "name": null, "id": "33396"}, "mid": "888888857220001", "shopId": "33396", "netid": null, "province": 901, "district": 601, "zipcode": null, "telephone": "\u5ba2\u6237\u670d\u52a1\u7535\u8bdd\uff1a4008365365\u8f6c\u5404\u95e8\u5e97", "posDate": "20061229", "destineTel": "4008365365", "togoTel": "4008365365", "trafficWay": "\u516c\u4ea4973 \u6caa\u5858\u7ebf \u6caa\u6d77\u4e13\u7ebf", "signBuilding": null, "businessArea": "\u5747\u4e3a4468\u5e73\u7c73", "selfRoom": "\u65e0", "businessTime": "09:00~21:00", "stall": "\u65e0", "consume": null, "serviceFei": null, "favourable": null, "shopMemo": null, "appraise": null, "website": "www.cnsuning.com", "memo": "\u5e97\u5185\u82f9\u679c\u4e13\u67dc\u5546\u54c1\u6682\u4e0d\u4f7f\u7528\u6749\u5fb7\u5361", "payTypes": "\u6749\u5fb7\u5361", "shopTypes": "\u8d85\u5e02", "consumeTypes": null, "cookTypes": null, "orderNum": 1000, "card4no": null, "card4noAcc": null, "district2": 418, "searchScope": null, "status": 1, "address": "\u4e0a\u5357\u8def2985\u53f7", "name": "\u82cf\u5b81\u7535\u5668 \u4e0a\u5357\u5e97", "id": 142451, "pageNo": 0, "pageCount": null, "pageSize": 10, "ids": null, "endTime": null, "startTime": null}, {"cardNumFive": null, "isSupportYj": null, "cityName": null, "districtName": null, "shopinfo": {"mid": "888888857220001", "good_flag": null, "new_flag": null, "short_name": "\u82cf\u5b81\u7535\u5668", "short_name_pinyin": "suningdianqi", "status": null, "address": null, "name": null, "id": "33396"}, "mid": "888888857220001", "shopId": "33396", "netid": null, "province": 901, "district": 601, "zipcode": null, "telephone": null, "posDate": "20100618", "destineTel": null, "togoTel": null, "trafficWay": null, "signBuilding": null, "businessArea": null, "selfRoom": null, "businessTime": null, "stall": null, "consume": null, "serviceFei": null, "favourable": null, "shopMemo": null, "appraise": null, "website": null, "memo": "\u5e97\u5185\u82f9\u679c\u4e13\u67dc\u5546\u54c1\u6682\u4e0d\u4f7f\u7528\u6749\u5fb7\u5361", "payTypes": "\u6749\u5fb7\u5361", "shopTypes": "\u8d85\u5e02", "consumeTypes": null, "cookTypes": null, "orderNum": 1000, "card4no": null, "card4noAcc": null, "district2": 412, "searchScope": null, "status": 1, "address": "\u4e50\u90fd\u8def348\u53f7", "name": "\u82cf\u5b81\u7535\u5668 \u677e\u6c5f\u5e97", "id": 142452, "pageNo": 0, "pageCount": null, "pageSize": 10, "ids": null, "endTime": null, "startTime": null}, {"cardNumFive": null, "isSupportYj": null, "cityName": null, "districtName": null, "shopinfo": {"mid": "888888857220001", "good_flag": null, "new_flag": null, "short_name": "\u82cf\u5b81\u7535\u5668", "short_name_pinyin": "suningdianqi", "status": null, "address": null, "name": null, "id": "33396"}, "mid": "888888857220001", "shopId": "33396", "netid": null, "province": 901, "district": 601, "zipcode": null, "telephone": "\u5ba2\u6237\u670d\u52a1\u7535\u8bdd\uff1a4008365365\u8f6c\u5404\u95e8\u5e97", "posDate": "20061226", "destineTel": "4008365365", "togoTel": "4008365365", "trafficWay": "\u516c\u4ea4131 \u5357\u4f58\u4e13\u7ebf", "signBuilding": null, "businessArea": "\u5747\u4e3a4468\u5e73\u7c73", "selfRoom": "\u65e0", "businessTime": "09:00~21:00", "stall": "\u65e0", "consume": null, "serviceFei": null, "favourable": null, "shopMemo": null, "appraise": null, "website": "www.cnsuning.com", "memo": "\u5e97\u5185\u82f9\u679c\u4e13\u67dc\u5546\u54c1\u6682\u4e0d\u4f7f\u7528\u6749\u5fb7\u5361", "payTypes": "\u6749\u5fb7\u5361", "shopTypes": "\u8d85\u5e02", "consumeTypes": null, "cookTypes": null, "orderNum": 1000, "card4no": null, "card4noAcc": null, "district2": 403, "searchScope": null, "status": 1, "address": "\u7530\u6797\u8def103\u53f7", "name": "\u82cf\u5b81\u7535\u5668 \u7530\u6797\u5e97", "id": 142453, "pageNo": 0, "pageCount": null, "pageSize": 10, "ids": null, "endTime": null, "startTime": null}], "pageLimit": 8450, "size": 10}