{"pageCount": 1095, "count": 10942, "pageNo": 856, "subShopInfo": {"cardNumFive": "", "isSupportYj": "", "cityName": null, "districtName": null, "shopinfo": {"mid": null, "good_flag": null, "new_flag": null, "short_name": null, "short_name_pinyin": null, "status": null, "address": "", "name": "", "id": null}, "mid": null, "shopId": null, "netid": null, "province": 901, "district": null, "zipcode": null, "telephone": null, "posDate": null, "destineTel": null, "togoTel": null, "trafficWay": null, "signBuilding": null, "businessArea": null, "selfRoom": null, "businessTime": null, "stall": null, "consume": null, "serviceFei": null, "favourable": null, "shopMemo": "1", "appraise": null, "website": null, "memo": null, "payTypes": "", "shopTypes": "", "consumeTypes": null, "cookTypes": null, "orderNum": null, "card4no": null, "card4noAcc": null, "district2": null, "searchScope": null, "status": null, "address": "", "name": null, "id": null, "pageNo": 855, "pageCount": null, "pageSize": 10, "ids": null, "endTime": null, "startTime": null}, "list": [{"cardNumFive": null, "isSupportYj": null, "cityName": null, "districtName": null, "shopinfo": {"mid": "888002153110027", "good_flag": null, "new_flag": null, "short_name": "\u7279\u529b\u5c4b", "short_name_pinyin": "teliwu", "status": null, "address": null, "name": null, "id": "37343"}, "mid": "888002153110027", "shopId": "37343", "netid": null, "province": 901, "district": 601, "zipcode": null, "telephone": null, "posDate": null, "destineTel": null, "togoTel": null, "trafficWay": null, "signBuilding": null, "businessArea": null, "selfRoom": null, "businessTime": null, "stall": null, "consume": null, "serviceFei": null, "favourable": null, "shopMemo": null, "appraise": null, "website": null, "memo": null, "payTypes": "\u6749\u5fb7\u5361", "shopTypes": "\u767e\u8d27", "consumeTypes": null, "cookTypes": null, "orderNum": 1000, "card4no": null, "card4noAcc": null, "district2": 407, "searchScope": null, "status": 1, "address": "\u653f\u901a\u8def189\u53f73\u697c", "name": "\u7279\u529b\u5c4b \u4e07\u8fbe\u5e7f\u573a\u5e97", "id": 158513, "pageNo": 0, "pageCount": null, "pageSize": 10, "ids": null, "endTime": null, "startTime": null}, {"cardNumFive": null, "isSupportYj": null, "cityName": null, "districtName": null, "shopinfo": {"mid": "888002153110053", "good_flag": null, "new_flag": null, "short_name": "\u7279\u529b\u5c4b", "short_name_pinyin": "teliwu", "status": null, "address": null, "name": null, "id": "37344"}, "mid": "888002153110053", "shopId": "37344", "netid": null, "province": 901, "district": 601, "zipcode": null, "telephone": "50478000", "posDate": null, "destineTel": null, "togoTel": null, "trafficWay": null, "signBuilding": null, "businessArea": null, "selfRoom": null, "businessTime": null, "stall": null, "consume": null, "serviceFei": null, "favourable": null, "shopMemo": null, "appraise": null, "website": null, "memo": null, "payTypes": "\u6749\u5fb7\u5361", "shopTypes": "\u767e\u8d27", "consumeTypes": null, "cookTypes": null, "orderNum": 1000, "card4no": null, "card4noAcc": null, "district2": 418, "searchScope": null, "status": 1, "address": "\u9646\u5bb6\u5634\u897f\u8def168\u53f7B1\u697c", "name": "\u7279\u529b\u5c4b \u6b63\u5927\u5e7f\u573a\u5e97", "id": 158514, "pageNo": 0, "pageCount": null, "pageSize": 10, "ids": null, "endTime": null, "startTime": null}, {"cardNumFive": null, "isSupportYj": null, "cityName": null, "districtName": null, "shopinfo": {"mid": "888002153111093", "good_flag": null, "new_flag": null, "short_name": "\u7279\u529b\u5c4b", "short_name_pinyin": "teliwu", "status": null, "address": null, "name": null, "id": "37346"}, "mid": "888002153111093", "shopId": "37346", "netid": null, "province": 901, "district": 601, "zipcode": null, "telephone": "52788686", "posDate": null, "destineTel": null, "togoTel": null, "trafficWay": null, "signBuilding": null, "businessArea": null, "selfRoom": null, "businessTime": null, "stall": null, "consume": null, "serviceFei": null, "favourable": null, "shopMemo": null, "appraise": null, "website": null, "memo": null, "payTypes": "\u6749\u5fb7\u5361", "shopTypes": "\u767e\u8d27", "consumeTypes": null, "cookTypes": null, "orderNum": 1000, "card4no": null, "card4noAcc": null, "district2": 405, "searchScope": null, "status": 1, "address": "\u771f\u5149\u8def1288\u53f73\u697c", "name": "\u7279\u529b\u5c4b \u4e2d\u73af\u767e\u8054\u5e97", "id": 158516, "pageNo": 0, "pageCount": null, "pageSize": 10, "ids": null, "endTime": null, "startTime": null}, {"cardNumFive": null, "isSupportYj": null, "cityName": null, "districtName": null, "shopinfo": {"mid": "888002153111126", "good_flag": null, "new_flag": null, "short_name": "\u7279\u529b\u5c4b", "short_name_pinyin": "teliwu", "status": null, "address": null, "name": null, "id": "37348"}, "mid": "888002153111126", "shopId": "37348", "netid": null, "province": 901, "district": 601, "zipcode": null, "telephone": "58331313", "posDate": null, "destineTel": null, "togoTel": null, "trafficWay": null, "signBuilding": null, "businessArea": null, "selfRoom": null, "businessTime": null, "stall": null, "consume": null, "serviceFei": null, "favourable": null, "shopMemo": null, "appraise": null, "website": null, "memo": null, "payTypes": "\u6749\u5fb7\u5361", "shopTypes": "\u767e\u8d27", "consumeTypes": null, "cookTypes": null, "orderNum": 1000, "card4no": null, "card4noAcc": null, "district2": 418, "searchScope": null, "status": 1, "address": "\u82b3\u7538\u8def199\u5f0433\u53f7210B", "name": "\u7279\u529b\u5c4b \u5927\u62c7\u6307\u5e7f\u573a\u5e97", "id": 158518, "pageNo": 0, "pageCount": null, "pageSize": 10, "ids": null, "endTime": null, "startTime": null}, {"cardNumFive": null, "isSupportYj": null, "cityName": null, "districtName": null, "shopinfo": {"mid": "888002153111141", "good_flag": null, "new_flag": null, "short_name": "\u7279\u529b\u5c4b", "short_name_pinyin": "teliwu", "status": null, "address": null, "name": null, "id": "37350"}, "mid": "888002153111141", "shopId": "37350", "netid": null, "province": 901, "district": 601, "zipcode": null, "telephone": "62750666", "posDate": null, "destineTel": null, "togoTel": null, "trafficWay": null, "signBuilding": null, "businessArea": null, "selfRoom": null, "businessTime": null, "stall": null, "consume": null, "serviceFei": null, "favourable": null, "shopMemo": null, "appraise": null, "website": null, "memo": null, "payTypes": "\u6749\u5fb7\u5361", "shopTypes": "\u767e\u8d27", "consumeTypes": null, "cookTypes": null, "orderNum": 1000, "card4no": null, "card4noAcc": null, "district2": 406, "searchScope": null, "status": 1, "address": "\u6c34\u57ce\u5357\u8def268\u53f71\u697c", "name": "\u7279\u529b\u5c4b \u53e4\u5317\u5e97", "id": 158520, "pageNo": 0, "pageCount": null, "pageSize": 10, "ids": null, "endTime": null, "startTime": null}, {"cardNumFive": null, "isSupportYj": null, "cityName": null, "districtName": null, "shopinfo": {"mid": "888002157190070", "good_flag": null, "new_flag": null, "short_name": "\u7279\u529b\u5c4b", "short_name_pinyin": "teliwu", "status": null, "address": null, "name": null, "id": "42359"}, "mid": "888002157190070", "shopId": "42359", "netid": null, "province": 901, "district": 601, "zipcode": null, "telephone": null, "posDate": null, "destineTel": null, "togoTel": null, "trafficWay": null, "signBuilding": null, "businessArea": null, "selfRoom": null, "businessTime": null, "stall": null, "consume": null, "serviceFei": null, "favourable": null, "shopMemo": null, "appraise": null, "website": null, "memo": null, "payTypes": "\u6749\u5fb7\u5361", "shopTypes": "\u9910\u996e", "consumeTypes": null, "cookTypes": null, "orderNum": 1000, "card4no": null, "card4noAcc": null, "district2": 418, "searchScope": null, "status": 1, "address": "\u7956\u51b2\u4e4b\u8def1239\u5f047\u53f7\u697cB1", "name": "\u7279\u529b\u5c4b \u7956\u51b2\u4e4b\u8def\u5e97", "id": 188932, "pageNo": 0, "pageCount": null, "pageSize": 10, "ids": null, "endTime": null, "startTime": null}, {"cardNumFive": null, "isSupportYj": null, "cityName": null, "districtName": null, "shopinfo": {"mid": "888888856910337", "good_flag": null, "new_flag": null, "short_name": "T.EN", "short_name_pinyin": "ten", "status": null, "address": null, "name": null, "id": "36471"}, "mid": "888888856910337", "shopId": "36471", "netid": null, "province": 901, "district": 601, "zipcode": null, "telephone": null, "posDate": "20100919", "destineTel": null, "togoTel": null, "trafficWay": null, "signBuilding": null, "businessArea": null, "selfRoom": null, "businessTime": null, "stall": null, "consume": null, "serviceFei": null, "favourable": null, "shopMemo": null, "appraise": null, "website": null, "memo": null, "payTypes": "\u6749\u5fb7\u5361", "shopTypes": "\u670d\u9970\u5bb6\u7eba", "consumeTypes": null, "cookTypes": null, "orderNum": 1000, "card4no": null, "card4noAcc": null, "district2": 412, "searchScope": null, "status": 1, "address": "\u65b0\u677e\u6c5f\u8def905\u53f7\u5f00\u5143\u5730\u4e2d\u6d771\u697c56-57\u53f7", "name": "T.EN \u677e\u6c5f\u5f00\u5143\u5e97", "id": 151682, "pageNo": 0, "pageCount": null, "pageSize": 10, "ids": null, "endTime": null, "startTime": null}, {"cardNumFive": null, "isSupportYj": null, "cityName": null, "districtName": null, "shopinfo": {"mid": "888888856910337", "good_flag": null, "new_flag": null, "short_name": "T.EN", "short_name_pinyin": "ten", "status": null, "address": null, "name": null, "id": "36471"}, "mid": "888888856910337", "shopId": "36471", "netid": null, "province": 901, "district": 601, "zipcode": null, "telephone": null, "posDate": "20100919", "destineTel": null, "togoTel": null, "trafficWay": null, "signBuilding": null, "businessArea": null, "selfRoom": null, "businessTime": null, "stall": null, "consume": null, "serviceFei": null, "favourable": null, "shopMemo": null, "appraise": null, "website": null, "memo": null, "payTypes": "\u6749\u5fb7\u5361", "shopTypes": "\u670d\u9970\u5bb6\u7eba", "consumeTypes": null, "cookTypes": null, "orderNum": 1000, "card4no": null, "card4noAcc": null, "district2": 409, "searchScope": null, "status": 1, "address": "\u6731\u8398\u8def168\u53f7", "name": "T.EN \u4ef2\u76db\u5e97", "id": 151683, "pageNo": 0, "pageCount": null, "pageSize": 10, "ids": null, "endTime": null, "startTime": null}, {"cardNumFive": null, "isSupportYj": null, "cityName": null, "districtName": null, "shopinfo": {"mid": "888888859770035", "good_flag": "2", "new_flag": "1", "short_name": "THE FACE SHOP", "short_name_pinyin": "thefaceshop", "status": null, "address": null, "name": null, "id": "31088"}, "mid": "888888859770035", "shopId": "31088", "netid": null, "province": 901, "district": 601, "zipcode": null, "telephone": null, "posDate": "20081106", "destineTel": null, "togoTel": null, "trafficWay": "\u516c\u4ea449 20 \u5730\u94c1\u4e8c\u53f7\u7ebf", "signBuilding": null, "businessArea": null, "selfRoom": null, "businessTime": "9:00~18:00", "stall": null, "consume": null, "serviceFei": null, "favourable": null, "shopMemo": null, "appraise": null, "website": null, "memo": null, "payTypes": "\u6749\u5fb7\u5361", "shopTypes": "\u4e13\u5356", "consumeTypes": null, "cookTypes": null, "orderNum": 1000, "card4no": null, "card4noAcc": null, "district2": 401, "searchScope": null, "status": 1, "address": "\u5357\u4eac\u4e1c\u8def353\u5e7f\u573a2\u5c42228\u53f7\u5355\u5143", "name": "THE FACE SHOP \u5357\u4eac\u4e1c\u8def\u5e97", "id": 132120, "pageNo": 0, "pageCount": null, "pageSize": 10, "ids": null, "endTime": null, "startTime": null}, {"cardNumFive": null, "isSupportYj": null, "cityName": null, "districtName": null, "shopinfo": {"mid": "888888859770035", "good_flag": "2", "new_flag": "1", "short_name": "THE FACE SHOP", "short_name_pinyin": "thefaceshop", "status": null, "address": null, "name": null, "id": "31088"}, "mid": "888888859770035", "shopId": "31088", "netid": null, "province": 901, "district": 601, "zipcode": null, "telephone": null, "posDate": "20100223", "destineTel": null, "togoTel": null, "trafficWay": null, "signBuilding": null, "businessArea": null, "selfRoom": null, "businessTime": "9:00~18:00", "stall": null, "consume": null, "serviceFei": null, "favourable": null, "shopMemo": null, "appraise": null, "website": null, "memo": null, "payTypes": "\u6749\u5fb7\u5361", "shopTypes": "\u4e13\u5356", "consumeTypes": null, "cookTypes": null, "orderNum": 1000, "card4no": null, "card4noAcc": null, "district2": 418, "searchScope": null, "status": 1, "address": "\u5f20\u626c\u8def3611\u5f047\u53f7125\u5ba4", "name": "THE FACE SHOP \u5f20\u626c\u8def\u5e97", "id": 132123, "pageNo": 0, "pageCount": null, "pageSize": 10, "ids": null, "endTime": null, "startTime": null}], "pageLimit": 8550, "size": 10}