{"pageCount": 1095, "count": 10942, "pageNo": 852, "subShopInfo": {"cardNumFive": "", "isSupportYj": "", "cityName": null, "districtName": null, "shopinfo": {"mid": null, "good_flag": null, "new_flag": null, "short_name": null, "short_name_pinyin": null, "status": null, "address": "", "name": "", "id": null}, "mid": null, "shopId": null, "netid": null, "province": 901, "district": null, "zipcode": null, "telephone": null, "posDate": null, "destineTel": null, "togoTel": null, "trafficWay": null, "signBuilding": null, "businessArea": null, "selfRoom": null, "businessTime": null, "stall": null, "consume": null, "serviceFei": null, "favourable": null, "shopMemo": "1", "appraise": null, "website": null, "memo": null, "payTypes": "", "shopTypes": "", "consumeTypes": null, "cookTypes": null, "orderNum": null, "card4no": null, "card4noAcc": null, "district2": null, "searchScope": null, "status": null, "address": "", "name": null, "id": null, "pageNo": 851, "pageCount": null, "pageSize": 10, "ids": null, "endTime": null, "startTime": null}, "list": [{"cardNumFive": null, "isSupportYj": null, "cityName": null, "districtName": null, "shopinfo": {"mid": "888002158122931", "good_flag": "2", "new_flag": "2", "short_name": "\u592a\u5e73\u6d0b\u5496\u5561", "short_name_pinyin": "taipingyangkafei", "status": null, "address": null, "name": null, "id": "524983300385669120"}, "mid": "888002158122931", "shopId": "524983300385669120", "netid": null, "province": 901, "district": 601, "zipcode": null, "telephone": null, "posDate": null, "destineTel": null, "togoTel": null, "trafficWay": null, "signBuilding": null, "businessArea": null, "selfRoom": null, "businessTime": null, "stall": null, "consume": null, "serviceFei": null, "favourable": null, "shopMemo": null, "appraise": null, "website": null, "memo": null, "payTypes": "\u6749\u5fb7\u5361,", "shopTypes": "\u9910\u996e", "consumeTypes": null, "cookTypes": null, "orderNum": null, "card4no": null, "card4noAcc": null, "district2": 401, "searchScope": null, "status": 1, "address": "\u5174\u4e1a\u8def123\u5f046-7\u53f73F", "name": "\u4e0a\u6d77\u65b0\u5929\u5730\u5e7f\u573a\u5e97", "id": 524983306496770048, "pageNo": 0, "pageCount": null, "pageSize": 10, "ids": null, "endTime": null, "startTime": null}, {"cardNumFive": null, "isSupportYj": null, "cityName": null, "districtName": null, "shopinfo": {"mid": "888002158122931", "good_flag": "2", "new_flag": "2", "short_name": "\u592a\u5e73\u6d0b\u5496\u5561", "short_name_pinyin": "taipingyangkafei", "status": null, "address": null, "name": null, "id": "524983300385669120"}, "mid": "888002158122931", "shopId": "524983300385669120", "netid": null, "province": 901, "district": 601, "zipcode": null, "telephone": null, "posDate": null, "destineTel": null, "togoTel": null, "trafficWay": null, "signBuilding": null, "businessArea": null, "selfRoom": null, "businessTime": null, "stall": null, "consume": null, "serviceFei": null, "favourable": null, "shopMemo": null, "appraise": null, "website": null, "memo": null, "payTypes": "\u6749\u5fb7\u5361,", "shopTypes": "\u9910\u996e", "consumeTypes": null, "cookTypes": null, "orderNum": null, "card4no": null, "card4noAcc": null, "district2": 405, "searchScope": null, "status": 1, "address": "\u5927\u6e21\u6cb3\u8def168\u5f04136\u53f7\u957f\u98ce\u666f\u7554\u5e7f\u573a1\u5c42108\u5ba4", "name": "\u4e0a\u6d77\u957f\u98ce\u666f\u7554\u5e97", "id": 524983306857480192, "pageNo": 0, "pageCount": null, "pageSize": 10, "ids": null, "endTime": null, "startTime": null}, {"cardNumFive": null, "isSupportYj": null, "cityName": null, "districtName": null, "shopinfo": {"mid": "888002158122931", "good_flag": "2", "new_flag": "2", "short_name": "\u592a\u5e73\u6d0b\u5496\u5561", "short_name_pinyin": "taipingyangkafei", "status": null, "address": null, "name": null, "id": "524983300385669120"}, "mid": "888002158122931", "shopId": "524983300385669120", "netid": null, "province": 901, "district": 601, "zipcode": null, "telephone": null, "posDate": null, "destineTel": null, "togoTel": null, "trafficWay": null, "signBuilding": null, "businessArea": null, "selfRoom": null, "businessTime": null, "stall": null, "consume": null, "serviceFei": null, "favourable": null, "shopMemo": null, "appraise": null, "website": null, "memo": null, "payTypes": "\u6749\u5fb7\u5361,", "shopTypes": "\u9910\u996e", "consumeTypes": null, "cookTypes": null, "orderNum": null, "card4no": null, "card4noAcc": null, "district2": 406, "searchScope": null, "status": 1, "address": "\u957f\u5b81\u8def999\u53f7\u5146\u4e30\u5e7f\u573a", "name": "\u4e0a\u6d77\u5146\u4e30\u5e7f\u573a\u5e97", "id": 524983307406934016, "pageNo": 0, "pageCount": null, "pageSize": 10, "ids": null, "endTime": null, "startTime": null}, {"cardNumFive": null, "isSupportYj": null, "cityName": null, "districtName": null, "shopinfo": {"mid": "888002158122931", "good_flag": "2", "new_flag": "2", "short_name": "\u592a\u5e73\u6d0b\u5496\u5561", "short_name_pinyin": "taipingyangkafei", "status": null, "address": null, "name": null, "id": "524983300385669120"}, "mid": "888002158122931", "shopId": "524983300385669120", "netid": null, "province": 901, "district": 601, "zipcode": null, "telephone": null, "posDate": null, "destineTel": null, "togoTel": null, "trafficWay": null, "signBuilding": null, "businessArea": null, "selfRoom": null, "businessTime": null, "stall": null, "consume": null, "serviceFei": null, "favourable": null, "shopMemo": null, "appraise": null, "website": null, "memo": null, "payTypes": "\u6749\u5fb7\u5361,", "shopTypes": "\u9910\u996e", "consumeTypes": null, "cookTypes": null, "orderNum": null, "card4no": null, "card4noAcc": null, "district2": 405, "searchScope": null, "status": 1, "address": "\u666e\u9640\u533a\u6c47\u5ddd\u8def80\u53f7", "name": "\u4e0a\u6d77\u6c47\u5ddd\u8def\u5e97", "id": 524983307767644160, "pageNo": 0, "pageCount": null, "pageSize": 10, "ids": null, "endTime": null, "startTime": null}, {"cardNumFive": null, "isSupportYj": null, "cityName": null, "districtName": null, "shopinfo": {"mid": "888002158122931", "good_flag": "2", "new_flag": "2", "short_name": "\u592a\u5e73\u6d0b\u5496\u5561", "short_name_pinyin": "taipingyangkafei", "status": null, "address": null, "name": null, "id": "524983300385669120"}, "mid": "888002158122931", "shopId": "524983300385669120", "netid": null, "province": 901, "district": 601, "zipcode": null, "telephone": null, "posDate": null, "destineTel": null, "togoTel": null, "trafficWay": null, "signBuilding": null, "businessArea": null, "selfRoom": null, "businessTime": null, "stall": null, "consume": null, "serviceFei": null, "favourable": null, "shopMemo": null, "appraise": null, "website": null, "memo": null, "payTypes": "\u6749\u5fb7\u5361,", "shopTypes": "\u9910\u996e", "consumeTypes": null, "cookTypes": null, "orderNum": null, "card4no": null, "card4noAcc": null, "district2": 404, "searchScope": null, "status": 1, "address": "\u5434\u6c5f\u8def169\u53f71\u5c42123-124\u53f7", "name": "\u4e0a\u6d77\u5434\u6c5f\u8def\u5e97", "id": 524983308212240384, "pageNo": 0, "pageCount": null, "pageSize": 10, "ids": null, "endTime": null, "startTime": null}, {"cardNumFive": null, "isSupportYj": null, "cityName": null, "districtName": null, "shopinfo": {"mid": "888002158122931", "good_flag": "2", "new_flag": "2", "short_name": "\u592a\u5e73\u6d0b\u5496\u5561", "short_name_pinyin": "taipingyangkafei", "status": null, "address": null, "name": null, "id": "524983300385669120"}, "mid": "888002158122931", "shopId": "524983300385669120", "netid": null, "province": 901, "district": 601, "zipcode": null, "telephone": null, "posDate": null, "destineTel": null, "togoTel": null, "trafficWay": null, "signBuilding": null, "businessArea": null, "selfRoom": null, "businessTime": null, "stall": null, "consume": null, "serviceFei": null, "favourable": null, "shopMemo": null, "appraise": null, "website": null, "memo": null, "payTypes": "\u6749\u5fb7\u5361,", "shopTypes": "\u9910\u996e", "consumeTypes": null, "cookTypes": null, "orderNum": null, "card4no": null, "card4noAcc": null, "district2": 404, "searchScope": null, "status": 1, "address": "\u897f\u85cf\u5317\u8def166\u53f7\u5927\u60a6\u57ce5\u697c501-22-24\u5546\u94fa", "name": "\u4e0a\u6d77\u5927\u60a6\u57ce\u8d2d\u7269\u4e2d\u5fc3\u5e97", "id": 524983308564561920, "pageNo": 0, "pageCount": null, "pageSize": 10, "ids": null, "endTime": null, "startTime": null}, {"cardNumFive": null, "isSupportYj": null, "cityName": null, "districtName": null, "shopinfo": {"mid": "888002158122931", "good_flag": "2", "new_flag": "2", "short_name": "\u592a\u5e73\u6d0b\u5496\u5561", "short_name_pinyin": "taipingyangkafei", "status": null, "address": null, "name": null, "id": "524983300385669120"}, "mid": "888002158122931", "shopId": "524983300385669120", "netid": null, "province": 901, "district": 601, "zipcode": null, "telephone": null, "posDate": null, "destineTel": null, "togoTel": null, "trafficWay": null, "signBuilding": null, "businessArea": null, "selfRoom": null, "businessTime": null, "stall": null, "consume": null, "serviceFei": null, "favourable": null, "shopMemo": null, "appraise": null, "website": null, "memo": null, "payTypes": "\u6749\u5fb7\u5361,", "shopTypes": "\u9910\u996e", "consumeTypes": null, "cookTypes": null, "orderNum": null, "card4no": null, "card4noAcc": null, "district2": 406, "searchScope": null, "status": 1, "address": "\u9075\u4e49\u8def100\u53f7\u8679\u6865\u5357\u4e30\u57ce1-LM09\uff08\u8fd1\u7d2b\u4e91\u8def\uff09", "name": "\u4e0a\u6d77\u5357\u4e30\u57ce\u5e97", "id": 524983308925272064, "pageNo": 0, "pageCount": null, "pageSize": 10, "ids": null, "endTime": null, "startTime": null}, {"cardNumFive": null, "isSupportYj": null, "cityName": null, "districtName": null, "shopinfo": {"mid": "888002158122931", "good_flag": "2", "new_flag": "2", "short_name": "\u592a\u5e73\u6d0b\u5496\u5561", "short_name_pinyin": "taipingyangkafei", "status": null, "address": null, "name": null, "id": "524983300385669120"}, "mid": "888002158122931", "shopId": "524983300385669120", "netid": null, "province": 901, "district": 601, "zipcode": null, "telephone": null, "posDate": null, "destineTel": null, "togoTel": null, "trafficWay": null, "signBuilding": null, "businessArea": null, "selfRoom": null, "businessTime": null, "stall": null, "consume": null, "serviceFei": null, "favourable": null, "shopMemo": null, "appraise": null, "website": null, "memo": null, "payTypes": "\u6749\u5fb7\u5361,", "shopTypes": "\u9910\u996e", "consumeTypes": null, "cookTypes": null, "orderNum": null, "card4no": null, "card4noAcc": null, "district2": 409, "searchScope": null, "status": 1, "address": "\u5b9c\u5c71\u8def810\u53f7\u8d1d\u5cad\u5927\u53a61\u697c09\u53f7\u5546\u94fa", "name": "\u4e0a\u6d77\u8d1d\u5cad\u5927\u53a6\u5e97", "id": 524983309277593600, "pageNo": 0, "pageCount": null, "pageSize": 10, "ids": null, "endTime": null, "startTime": null}, {"cardNumFive": null, "isSupportYj": null, "cityName": null, "districtName": null, "shopinfo": {"mid": "888002158122931", "good_flag": "2", "new_flag": "2", "short_name": "\u592a\u5e73\u6d0b\u5496\u5561", "short_name_pinyin": "taipingyangkafei", "status": null, "address": null, "name": null, "id": "524983300385669120"}, "mid": "888002158122931", "shopId": "524983300385669120", "netid": null, "province": 901, "district": 601, "zipcode": null, "telephone": null, "posDate": null, "destineTel": null, "togoTel": null, "trafficWay": null, "signBuilding": null, "businessArea": null, "selfRoom": null, "businessTime": null, "stall": null, "consume": null, "serviceFei": null, "favourable": null, "shopMemo": null, "appraise": null, "website": null, "memo": null, "payTypes": "\u6749\u5fb7\u5361,", "shopTypes": "\u9910\u996e", "consumeTypes": null, "cookTypes": null, "orderNum": null, "card4no": null, "card4noAcc": null, "district2": 403, "searchScope": null, "status": 1, "address": "\u6842\u6797\u8def406\u53f7\u534e\u946b\u4e2d\u5fc3\u9ad8\u5c42\u4e00\u53f7\u697c105\u5ba4", "name": "\u4e0a\u6d77\u5b9c\u5c71\u8def\u5e97", "id": 524983309642498048, "pageNo": 0, "pageCount": null, "pageSize": 10, "ids": null, "endTime": null, "startTime": null}, {"cardNumFive": null, "isSupportYj": null, "cityName": null, "districtName": null, "shopinfo": {"mid": "888002158122931", "good_flag": "2", "new_flag": "2", "short_name": "\u592a\u5e73\u6d0b\u5496\u5561", "short_name_pinyin": "taipingyangkafei", "status": null, "address": null, "name": null, "id": "524983300385669120"}, "mid": "888002158122931", "shopId": "524983300385669120", "netid": null, "province": 901, "district": 601, "zipcode": null, "telephone": null, "posDate": null, "destineTel": null, "togoTel": null, "trafficWay": null, "signBuilding": null, "businessArea": null, "selfRoom": null, "businessTime": null, "stall": null, "consume": null, "serviceFei": null, "favourable": null, "shopMemo": null, "appraise": null, "website": null, "memo": null, "payTypes": "\u6749\u5fb7\u5361,", "shopTypes": "\u9910\u996e", "consumeTypes": null, "cookTypes": null, "orderNum": null, "card4no": null, "card4noAcc": null, "district2": 401, "searchScope": null, "status": 1, "address": "\u6dee\u6d77\u8def93\u53f7\u5927\u4e0a\u6d77\u65f6\u4ee3\u5e7f\u573a1\u697cL130\u5ba4", "name": "\u4e0a\u6d77\u6dee\u6d77\u65f6\u4ee3\u5e7f\u573a\u5e97", "id": 524983310003208192, "pageNo": 0, "pageCount": null, "pageSize": 10, "ids": null, "endTime": null, "startTime": null}], "pageLimit": 8510, "size": 10}