{"pageCount": 1095, "count": 10942, "pageNo": 857, "subShopInfo": {"cardNumFive": "", "isSupportYj": "", "cityName": null, "districtName": null, "shopinfo": {"mid": null, "good_flag": null, "new_flag": null, "short_name": null, "short_name_pinyin": null, "status": null, "address": "", "name": "", "id": null}, "mid": null, "shopId": null, "netid": null, "province": 901, "district": null, "zipcode": null, "telephone": null, "posDate": null, "destineTel": null, "togoTel": null, "trafficWay": null, "signBuilding": null, "businessArea": null, "selfRoom": null, "businessTime": null, "stall": null, "consume": null, "serviceFei": null, "favourable": null, "shopMemo": "1", "appraise": null, "website": null, "memo": null, "payTypes": "", "shopTypes": "", "consumeTypes": null, "cookTypes": null, "orderNum": null, "card4no": null, "card4noAcc": null, "district2": null, "searchScope": null, "status": null, "address": "", "name": null, "id": null, "pageNo": 856, "pageCount": null, "pageSize": 10, "ids": null, "endTime": null, "startTime": null}, "list": [{"cardNumFive": null, "isSupportYj": null, "cityName": null, "districtName": null, "shopinfo": {"mid": "888888859770035", "good_flag": "2", "new_flag": "1", "short_name": "THE FACE SHOP", "short_name_pinyin": "thefaceshop", "status": null, "address": null, "name": null, "id": "31088"}, "mid": "888888859770035", "shopId": "31088", "netid": null, "province": 901, "district": 601, "zipcode": null, "telephone": "52400363", "posDate": "20080805", "destineTel": null, "togoTel": null, "trafficWay": "\u5730\u94c1\u4e8c\u53f7\u7ebf", "signBuilding": null, "businessArea": null, "selfRoom": null, "businessTime": "8:00~22:00", "stall": null, "consume": null, "serviceFei": null, "favourable": null, "shopMemo": null, "appraise": null, "website": null, "memo": null, "payTypes": "\u6749\u5fb7\u5361", "shopTypes": "\u4e13\u5356", "consumeTypes": null, "cookTypes": null, "orderNum": 1000, "card4no": null, "card4noAcc": null, "district2": 418, "searchScope": null, "status": 1, "address": "\u6b63\u5927\u5e7f\u573a5\u697c\u7535\u68af\u53e3", "name": "THE FACE SHOP \u6b63\u5927\u5e7f\u573a\u5e97", "id": 132125, "pageNo": 0, "pageCount": null, "pageSize": 10, "ids": null, "endTime": null, "startTime": null}, {"cardNumFive": null, "isSupportYj": null, "cityName": null, "districtName": null, "shopinfo": {"mid": "888888853110007", "good_flag": "2", "new_flag": "2", "short_name": "\u5929\u5b9d\u91d1\u94f6\u73e0\u5b9d", "short_name_pinyin": "tianbaojinyinzhubao", "status": null, "address": null, "name": null, "id": "33453"}, "mid": "888888853110007", "shopId": "33453", "netid": null, "province": 901, "district": 601, "zipcode": "200020", "telephone": "53834850", "posDate": "20070201", "destineTel": "53834850", "togoTel": "53834850", "trafficWay": "\u6caa\u6606\u7ebf \u516c\u4ea402 945", "signBuilding": null, "businessArea": null, "selfRoom": "\u65e0", "businessTime": "8:00~22:00", "stall": "\u65e0", "consume": null, "serviceFei": null, "favourable": null, "shopMemo": null, "appraise": null, "website": null, "memo": null, "payTypes": "\u6749\u5fb7\u5361", "shopTypes": "\u4e13\u5356", "consumeTypes": null, "cookTypes": null, "orderNum": 1000, "card4no": null, "card4noAcc": null, "district2": 401, "searchScope": null, "status": 1, "address": "\u6dee\u6d77\u4e2d\u8def581-591\u53f7", "name": "\u5929\u5b9d\u91d1\u94f6\u73e0\u5b9d \u6dee\u6d77\u4e2d\u8def\u5e97", "id": 142539, "pageNo": 0, "pageCount": null, "pageSize": 10, "ids": null, "endTime": null, "startTime": null}, {"cardNumFive": null, "isSupportYj": null, "cityName": null, "districtName": null, "shopinfo": {"mid": "888888854410069", "good_flag": "2", "new_flag": "2", "short_name": "\u5929\u6caa\u98df\u54c1\u8d38\u6613", "short_name_pinyin": "tianhushipinmaoyi", "status": null, "address": null, "name": null, "id": "33456"}, "mid": "888888854410069", "shopId": "33456", "netid": null, "province": 901, "district": 601, "zipcode": null, "telephone": "33829430", "posDate": "20080616", "destineTel": null, "togoTel": null, "trafficWay": "\u516c\u4ea4455 797 \u5730\u94c1\u516d\u53f7\u7ebf", "signBuilding": null, "businessArea": null, "selfRoom": null, "businessTime": "08:30~20:30", "stall": null, "consume": null, "serviceFei": null, "favourable": null, "shopMemo": null, "appraise": null, "website": null, "memo": null, "payTypes": "\u6749\u5fb7\u5361", "shopTypes": "\u4e13\u5356", "consumeTypes": null, "cookTypes": null, "orderNum": 1000, "card4no": null, "card4noAcc": null, "district2": 418, "searchScope": null, "status": 1, "address": "\u5de8\u5cf0\u8def239\u53f7\u9760\u8fd1\u5229\u6d25\u8def", "name": "\u5929\u6caa\u98df\u54c1\u8d38\u6613 \u5bb6\u4e50\u798f\u5de8\u5cf0\u5e97", "id": 142547, "pageNo": 0, "pageCount": null, "pageSize": 10, "ids": null, "endTime": null, "startTime": null}, {"cardNumFive": null, "isSupportYj": null, "cityName": null, "districtName": null, "shopinfo": {"mid": "888888854410069", "good_flag": "2", "new_flag": "2", "short_name": "\u5929\u6caa\u98df\u54c1\u8d38\u6613", "short_name_pinyin": "tianhushipinmaoyi", "status": null, "address": null, "name": null, "id": "33456"}, "mid": "888888854410069", "shopId": "33456", "netid": null, "province": 901, "district": 601, "zipcode": null, "telephone": "54039486/50336634", "posDate": "20080115", "destineTel": null, "togoTel": null, "trafficWay": "\u516c\u4ea4984 995 987", "signBuilding": null, "businessArea": null, "selfRoom": null, "businessTime": "08:30~20:30", "stall": "\u6709", "consume": null, "serviceFei": null, "favourable": null, "shopMemo": null, "appraise": null, "website": null, "memo": null, "payTypes": "\u6749\u5fb7\u5361", "shopTypes": "\u4e13\u5356", "consumeTypes": null, "cookTypes": null, "orderNum": 1000, "card4no": null, "card4noAcc": null, "district2": 418, "searchScope": null, "status": 1, "address": "\u82b3\u7538\u8def185\u53f7B1", "name": "\u5929\u6caa\u98df\u54c1\u8d38\u6613 \u5bb6\u4e50\u798f\u8054\u6d0b\u5e97", "id": 142548, "pageNo": 0, "pageCount": null, "pageSize": 10, "ids": null, "endTime": null, "startTime": null}, {"cardNumFive": null, "isSupportYj": null, "cityName": null, "districtName": null, "shopinfo": {"mid": "888888854410069", "good_flag": "2", "new_flag": "2", "short_name": "\u5929\u6caa\u98df\u54c1\u8d38\u6613", "short_name_pinyin": "tianhushipinmaoyi", "status": null, "address": null, "name": null, "id": "33456"}, "mid": "888888854410069", "shopId": "33456", "netid": null, "province": 901, "district": 601, "zipcode": null, "telephone": "54039485/56357944", "posDate": "20080115", "destineTel": null, "togoTel": null, "trafficWay": "\u516c\u4ea4830 737 869", "signBuilding": null, "businessArea": null, "selfRoom": null, "businessTime": "08:30~20:30", "stall": "\u6709", "consume": null, "serviceFei": null, "favourable": null, "shopMemo": null, "appraise": null, "website": null, "memo": null, "payTypes": "\u6749\u5fb7\u5361", "shopTypes": "\u4e13\u5356", "consumeTypes": null, "cookTypes": null, "orderNum": 1000, "card4no": null, "card4noAcc": null, "district2": 405, "searchScope": null, "status": 1, "address": "\u65b0\u6751\u8def1500\u53f71F", "name": "\u5929\u6caa\u98df\u54c1\u8d38\u6613 \u5bb6\u4e50\u798f\u4e07\u91cc\u5e97", "id": 142550, "pageNo": 0, "pageCount": null, "pageSize": 10, "ids": null, "endTime": null, "startTime": null}, {"cardNumFive": null, "isSupportYj": null, "cityName": null, "districtName": null, "shopinfo": {"mid": "888888854410069", "good_flag": "2", "new_flag": "2", "short_name": "\u5929\u6caa\u98df\u54c1\u8d38\u6613", "short_name_pinyin": "tianhushipinmaoyi", "status": null, "address": null, "name": null, "id": "33456"}, "mid": "888888854410069", "shopId": "33456", "netid": null, "province": 901, "district": 601, "zipcode": null, "telephone": "54039480/62312930", "posDate": "20080115", "destineTel": null, "togoTel": null, "trafficWay": "\u516c\u4ea4824 830 94", "signBuilding": null, "businessArea": null, "selfRoom": null, "businessTime": "08:30~20:30", "stall": "\u6709", "consume": null, "serviceFei": null, "favourable": null, "shopMemo": null, "appraise": null, "website": null, "memo": null, "payTypes": "\u6749\u5fb7\u5361", "shopTypes": "\u4e13\u5356", "consumeTypes": null, "cookTypes": null, "orderNum": 1000, "card4no": null, "card4noAcc": null, "district2": 405, "searchScope": null, "status": 1, "address": "\u6b66\u5b81\u8def20\u53f71F", "name": "\u5929\u6caa\u98df\u54c1\u8d38\u6613 \u5bb6\u4e50\u798f\u6b66\u5b81\u5e97", "id": 142551, "pageNo": 0, "pageCount": null, "pageSize": 10, "ids": null, "endTime": null, "startTime": null}, {"cardNumFive": null, "isSupportYj": null, "cityName": null, "districtName": null, "shopinfo": {"mid": "888888854410069", "good_flag": "2", "new_flag": "2", "short_name": "\u5929\u6caa\u98df\u54c1\u8d38\u6613", "short_name_pinyin": "tianhushipinmaoyi", "status": null, "address": null, "name": null, "id": "33456"}, "mid": "888888854410069", "shopId": "33456", "netid": null, "province": 901, "district": 601, "zipcode": null, "telephone": "34633126", "posDate": "20090115", "destineTel": null, "togoTel": null, "trafficWay": null, "signBuilding": null, "businessArea": null, "selfRoom": null, "businessTime": "08:30~20:30", "stall": null, "consume": null, "serviceFei": null, "favourable": null, "shopMemo": null, "appraise": null, "website": null, "memo": null, "payTypes": "\u6749\u5fb7\u5361", "shopTypes": "\u4e13\u5356", "consumeTypes": null, "cookTypes": null, "orderNum": 1000, "card4no": null, "card4noAcc": null, "district2": 409, "searchScope": null, "status": 1, "address": "\u90fd\u5e02\u8def5001\u53f7\u4ef2\u76db\u5e7f\u573aB1\u5bb6\u4e50\u798f\u5185", "name": "\u5929\u6caa\u98df\u54c1\u8d38\u6613 \u5bb6\u4e50\u798f\u8398\u5e84\u5e97", "id": 142553, "pageNo": 0, "pageCount": null, "pageSize": 10, "ids": null, "endTime": null, "startTime": null}, {"cardNumFive": null, "isSupportYj": null, "cityName": null, "districtName": null, "shopinfo": {"mid": "888888854410069", "good_flag": "2", "new_flag": "2", "short_name": "\u5929\u6caa\u98df\u54c1\u8d38\u6613", "short_name_pinyin": "tianhushipinmaoyi", "status": null, "address": null, "name": null, "id": "33456"}, "mid": "888888854410069", "shopId": "33456", "netid": null, "province": 901, "district": 601, "zipcode": null, "telephone": "33833771", "posDate": "20080829", "destineTel": null, "togoTel": null, "trafficWay": "\u516c\u4ea4\u4e1c\u5ddd\u4e13\u7ebf 636", "signBuilding": null, "businessArea": null, "selfRoom": null, "businessTime": "08:30~20:30", "stall": null, "consume": null, "serviceFei": null, "favourable": null, "shopMemo": null, "appraise": null, "website": null, "memo": null, "payTypes": "\u6749\u5fb7\u5361", "shopTypes": "\u4e13\u5356", "consumeTypes": null, "cookTypes": null, "orderNum": 1000, "card4no": null, "card4noAcc": null, "district2": 418, "searchScope": null, "status": 1, "address": "\u9ad8\u79d1\u4e2d\u8def2860\u53f72F", "name": "\u5929\u6caa\u98df\u54c1\u8d38\u6613 \u5bb6\u4e50\u798f\u5f20\u6c5f\u5e97", "id": 142554, "pageNo": 0, "pageCount": null, "pageSize": 10, "ids": null, "endTime": null, "startTime": null}, {"cardNumFive": null, "isSupportYj": null, "cityName": null, "districtName": null, "shopinfo": {"mid": "888888854410069", "good_flag": "2", "new_flag": "2", "short_name": "\u5929\u6caa\u98df\u54c1\u8d38\u6613", "short_name_pinyin": "tianhushipinmaoyi", "status": null, "address": null, "name": null, "id": "33456"}, "mid": "888888854410069", "shopId": "33456", "netid": null, "province": 901, "district": 601, "zipcode": null, "telephone": "69762142", "posDate": "20080829", "destineTel": null, "togoTel": null, "trafficWay": "\u516c\u4ea4\u6caa\u9752\u4e13\u7ebf \u4e0a\u6731\u7ebf\u533a\u95f4 \u6caa\u5546\u7ebf", "signBuilding": null, "businessArea": null, "selfRoom": null, "businessTime": "08:30~20:30", "stall": null, "consume": null, "serviceFei": null, "favourable": null, "shopMemo": null, "appraise": null, "website": null, "memo": null, "payTypes": "\u6749\u5fb7\u5361", "shopTypes": "\u4e13\u5356", "consumeTypes": null, "cookTypes": null, "orderNum": 1000, "card4no": null, "card4noAcc": null, "district2": 417, "searchScope": null, "status": 1, "address": "\u6caa\u9752\u5e73\u516c\u8def1829\u53f73F", "name": "\u5929\u6caa\u98df\u54c1\u8d38\u6613 \u5f90\u6cfe\u5bb6\u4e50\u798f\u5e97", "id": 142557, "pageNo": 0, "pageCount": null, "pageSize": 10, "ids": null, "endTime": null, "startTime": null}, {"cardNumFive": null, "isSupportYj": null, "cityName": null, "districtName": null, "shopinfo": {"mid": "888002153311099", "good_flag": "2", "new_flag": "2", "short_name": "\u5929\u6da6\u53d1\u739b\u7279", "short_name_pinyin": "tianrunfamate", "status": null, "address": null, "name": null, "id": "469523863466672128"}, "mid": "888002153311099", "shopId": "469523863466672128", "netid": null, "province": 901, "district": 601, "zipcode": null, "telephone": null, "posDate": null, "destineTel": null, "togoTel": null, "trafficWay": null, "signBuilding": null, "businessArea": null, "selfRoom": null, "businessTime": null, "stall": null, "consume": null, "serviceFei": null, "favourable": null, "shopMemo": null, "appraise": null, "website": null, "memo": null, "payTypes": "\u6749\u5fb7\u5361,", "shopTypes": "\u8d85\u5e02", "consumeTypes": null, "cookTypes": null, "orderNum": null, "card4no": null, "card4noAcc": null, "district2": 411, "searchScope": null, "status": 1, "address": "\u53f6\u57ce\u8def1500\u5f048\u53f7\u5730\u4e0b\u4e00\u5c42", "name": "\u5929\u6da6\u53d1\u739b\u7279", "id": 469523862237741056, "pageNo": 0, "pageCount": null, "pageSize": 10, "ids": null, "endTime": null, "startTime": null}], "pageLimit": 8560, "size": 10}