{"pageCount": 1095, "count": 10942, "pageNo": 850, "subShopInfo": {"cardNumFive": "", "isSupportYj": "", "cityName": null, "districtName": null, "shopinfo": {"mid": null, "good_flag": null, "new_flag": null, "short_name": null, "short_name_pinyin": null, "status": null, "address": "", "name": "", "id": null}, "mid": null, "shopId": null, "netid": null, "province": 901, "district": null, "zipcode": null, "telephone": null, "posDate": null, "destineTel": null, "togoTel": null, "trafficWay": null, "signBuilding": null, "businessArea": null, "selfRoom": null, "businessTime": null, "stall": null, "consume": null, "serviceFei": null, "favourable": null, "shopMemo": "1", "appraise": null, "website": null, "memo": null, "payTypes": "", "shopTypes": "", "consumeTypes": null, "cookTypes": null, "orderNum": null, "card4no": null, "card4noAcc": null, "district2": null, "searchScope": null, "status": null, "address": "", "name": null, "id": null, "pageNo": 849, "pageCount": null, "pageSize": 10, "ids": null, "endTime": null, "startTime": null}, "list": [{"cardNumFive": null, "isSupportYj": null, "cityName": null, "districtName": null, "shopinfo": {"mid": "888888853110035", "good_flag": "1", "new_flag": "2", "short_name": "\u592a\u5e73\u6d0b\u767e\u8d27", "short_name_pinyin": "taipingyangbaihuo", "status": null, "address": null, "name": null, "id": "33430"}, "mid": "888888853110035", "shopId": "33430", "netid": null, "province": 901, "district": 601, "zipcode": null, "telephone": "64078888*201", "posDate": "20070609", "destineTel": null, "togoTel": null, "trafficWay": "\u5730\u94c1\u4e00\u53f7\u7ebf \u516c\u4ea450 49 43 704 \u5f90\u95f5\u7ebf 830 824", "signBuilding": "\u6e2f\u6c47\u5e7f\u573a", "businessArea": null, "selfRoom": "\u65e0", "businessTime": "10:00~22:00", "stall": "\u6709", "consume": null, "serviceFei": null, "favourable": null, "shopMemo": null, "appraise": null, "website": null, "memo": null, "payTypes": "\u6749\u5fb7\u5361", "shopTypes": "\u767e\u8d27", "consumeTypes": null, "cookTypes": null, "orderNum": 1000, "card4no": null, "card4noAcc": null, "district2": 403, "searchScope": null, "status": 1, "address": "\u8861\u5c71\u8def932\u53f7", "name": "\u592a\u5e73\u6d0b\u767e\u8d27 \u5f90\u6c47\u5e97", "id": 142513, "pageNo": 0, "pageCount": null, "pageSize": 10, "ids": null, "endTime": null, "startTime": null}, {"cardNumFive": null, "isSupportYj": null, "cityName": null, "districtName": null, "shopinfo": {"mid": "888002158122931", "good_flag": "2", "new_flag": "2", "short_name": "\u592a\u5e73\u6d0b\u5496\u5561", "short_name_pinyin": "taipingyangkafei", "status": null, "address": null, "name": null, "id": "524983300385669120"}, "mid": "888002158122931", "shopId": "524983300385669120", "netid": null, "province": 901, "district": 601, "zipcode": null, "telephone": null, "posDate": null, "destineTel": null, "togoTel": null, "trafficWay": null, "signBuilding": null, "businessArea": null, "selfRoom": null, "businessTime": null, "stall": null, "consume": null, "serviceFei": null, "favourable": null, "shopMemo": null, "appraise": null, "website": null, "memo": null, "payTypes": "\u6749\u5fb7\u5361,", "shopTypes": "\u9910\u996e", "consumeTypes": null, "cookTypes": null, "orderNum": null, "card4no": null, "card4noAcc": null, "district2": 418, "searchScope": null, "status": 1, "address": "\u94f6\u57ce\u4e2d\u8def488\u53f7\u592a\u5e73\u91d1\u878d\u5927\u53a61\u697c03\u5546\u94fa", "name": "\u4e0a\u6d77\u592a\u5e73\u91d1\u878d\u5e97", "id": 524983298691170304, "pageNo": 0, "pageCount": null, "pageSize": 10, "ids": null, "endTime": null, "startTime": null}, {"cardNumFive": null, "isSupportYj": null, "cityName": null, "districtName": null, "shopinfo": {"mid": "888002158122931", "good_flag": "2", "new_flag": "2", "short_name": "\u592a\u5e73\u6d0b\u5496\u5561", "short_name_pinyin": "taipingyangkafei", "status": null, "address": null, "name": null, "id": "524983300385669120"}, "mid": "888002158122931", "shopId": "524983300385669120", "netid": null, "province": 901, "district": 601, "zipcode": null, "telephone": null, "posDate": null, "destineTel": null, "togoTel": null, "trafficWay": null, "signBuilding": null, "businessArea": null, "selfRoom": null, "businessTime": null, "stall": null, "consume": null, "serviceFei": null, "favourable": null, "shopMemo": null, "appraise": null, "website": null, "memo": null, "payTypes": "\u6749\u5fb7\u5361,", "shopTypes": "\u9910\u996e", "consumeTypes": null, "cookTypes": null, "orderNum": null, "card4no": null, "card4noAcc": null, "district2": 418, "searchScope": null, "status": 1, "address": "\u4e16\u535a\u5927\u90531368\u53f7L2\u5c421-L2-03", "name": "\u4e0a\u6d77\u4e16\u535a\u5927\u9053\u5e97", "id": 524983299609722880, "pageNo": 0, "pageCount": null, "pageSize": 10, "ids": null, "endTime": null, "startTime": null}, {"cardNumFive": null, "isSupportYj": null, "cityName": null, "districtName": null, "shopinfo": {"mid": "888002158122931", "good_flag": "2", "new_flag": "2", "short_name": "\u592a\u5e73\u6d0b\u5496\u5561", "short_name_pinyin": "taipingyangkafei", "status": null, "address": null, "name": null, "id": "524983300385669120"}, "mid": "888002158122931", "shopId": "524983300385669120", "netid": null, "province": 901, "district": 601, "zipcode": null, "telephone": null, "posDate": null, "destineTel": null, "togoTel": null, "trafficWay": null, "signBuilding": null, "businessArea": null, "selfRoom": null, "businessTime": null, "stall": null, "consume": null, "serviceFei": null, "favourable": null, "shopMemo": null, "appraise": null, "website": null, "memo": null, "payTypes": "\u6749\u5fb7\u5361,", "shopTypes": "\u9910\u996e", "consumeTypes": null, "cookTypes": null, "orderNum": null, "card4no": null, "card4noAcc": null, "district2": 418, "searchScope": null, "status": 1, "address": "\u6d66\u4e1c\u65b0\u533a\u5546\u57ce\u8def665\u53f71\u5e621\u5c42117\u5355\u5143", "name": "\u4e0a\u6d77\u5357\u6cc9\u5317\u8def\u5e97", "id": 524983300003987456, "pageNo": 0, "pageCount": null, "pageSize": 10, "ids": null, "endTime": null, "startTime": null}, {"cardNumFive": null, "isSupportYj": null, "cityName": null, "districtName": null, "shopinfo": {"mid": "888002158122931", "good_flag": "2", "new_flag": "2", "short_name": "\u592a\u5e73\u6d0b\u5496\u5561", "short_name_pinyin": "taipingyangkafei", "status": null, "address": null, "name": null, "id": "524983300385669120"}, "mid": "888002158122931", "shopId": "524983300385669120", "netid": null, "province": 901, "district": 601, "zipcode": null, "telephone": null, "posDate": null, "destineTel": null, "togoTel": null, "trafficWay": null, "signBuilding": null, "businessArea": null, "selfRoom": null, "businessTime": null, "stall": null, "consume": null, "serviceFei": null, "favourable": null, "shopMemo": null, "appraise": null, "website": null, "memo": null, "payTypes": "\u6749\u5fb7\u5361,", "shopTypes": "\u9910\u996e", "consumeTypes": null, "cookTypes": null, "orderNum": null, "card4no": null, "card4noAcc": null, "district2": 418, "searchScope": null, "status": 1, "address": "\u9646\u5bb6\u5634\u73af\u8def333\u53f72\u5c42", "name": "\u4e0a\u6d77\u4e1c\u65b9\u6c47\u7ecf\u5e97", "id": 524983300394057728, "pageNo": 0, "pageCount": null, "pageSize": 10, "ids": null, "endTime": null, "startTime": null}, {"cardNumFive": null, "isSupportYj": null, "cityName": null, "districtName": null, "shopinfo": {"mid": "888002158122931", "good_flag": "2", "new_flag": "2", "short_name": "\u592a\u5e73\u6d0b\u5496\u5561", "short_name_pinyin": "taipingyangkafei", "status": null, "address": null, "name": null, "id": "524983300385669120"}, "mid": "888002158122931", "shopId": "524983300385669120", "netid": null, "province": 901, "district": 601, "zipcode": null, "telephone": null, "posDate": null, "destineTel": null, "togoTel": null, "trafficWay": null, "signBuilding": null, "businessArea": null, "selfRoom": null, "businessTime": null, "stall": null, "consume": null, "serviceFei": null, "favourable": null, "shopMemo": null, "appraise": null, "website": null, "memo": null, "payTypes": "\u6749\u5fb7\u5361,", "shopTypes": "\u9910\u996e", "consumeTypes": null, "cookTypes": null, "orderNum": null, "card4no": null, "card4noAcc": null, "district2": 418, "searchScope": null, "status": 1, "address": "\u6d66\u4e1c\u65b0\u533a\u9646\u5bb6\u5634\u73af\u8def479\u53f7\u4e0a\u6d77\u4e2d\u5fc3\u5927\u53a6B2-9\u53f7\u5546\u94fa", "name": "\u4e0a\u6d77\u4e2d\u5fc3\u5e97", "id": 524983300763156480, "pageNo": 0, "pageCount": null, "pageSize": 10, "ids": null, "endTime": null, "startTime": null}, {"cardNumFive": null, "isSupportYj": null, "cityName": null, "districtName": null, "shopinfo": {"mid": "888002158122931", "good_flag": "2", "new_flag": "2", "short_name": "\u592a\u5e73\u6d0b\u5496\u5561", "short_name_pinyin": "taipingyangkafei", "status": null, "address": null, "name": null, "id": "524983300385669120"}, "mid": "888002158122931", "shopId": "524983300385669120", "netid": null, "province": 901, "district": 601, "zipcode": null, "telephone": null, "posDate": null, "destineTel": null, "togoTel": null, "trafficWay": null, "signBuilding": null, "businessArea": null, "selfRoom": null, "businessTime": null, "stall": null, "consume": null, "serviceFei": null, "favourable": null, "shopMemo": null, "appraise": null, "website": null, "memo": null, "payTypes": "\u6749\u5fb7\u5361,", "shopTypes": "\u9910\u996e", "consumeTypes": null, "cookTypes": null, "orderNum": null, "card4no": null, "card4noAcc": null, "district2": 418, "searchScope": null, "status": 1, "address": "\u6d66\u4e1c\u65b0\u533a\u7956\u51b2\u4e4b\u8def1239\u5f045\u53f7\u957f\u6cf0\u5e7f\u573a9\u53f7\u697c1\u5c4201\u5ba4", "name": "\u4e0a\u6d77\u957f\u6cf0\u5e7f\u573a1\u5e97", "id": 524983301132255232, "pageNo": 0, "pageCount": null, "pageSize": 10, "ids": null, "endTime": null, "startTime": null}, {"cardNumFive": null, "isSupportYj": null, "cityName": null, "districtName": null, "shopinfo": {"mid": "888002158122931", "good_flag": "2", "new_flag": "2", "short_name": "\u592a\u5e73\u6d0b\u5496\u5561", "short_name_pinyin": "taipingyangkafei", "status": null, "address": null, "name": null, "id": "524983300385669120"}, "mid": "888002158122931", "shopId": "524983300385669120", "netid": null, "province": 901, "district": 601, "zipcode": null, "telephone": null, "posDate": null, "destineTel": null, "togoTel": null, "trafficWay": null, "signBuilding": null, "businessArea": null, "selfRoom": null, "businessTime": null, "stall": null, "consume": null, "serviceFei": null, "favourable": null, "shopMemo": null, "appraise": null, "website": null, "memo": null, "payTypes": "\u6749\u5fb7\u5361,", "shopTypes": "\u9910\u996e", "consumeTypes": null, "cookTypes": null, "orderNum": null, "card4no": null, "card4noAcc": null, "district2": 418, "searchScope": null, "status": 1, "address": "\u6d66\u4e1c\u65b0\u533a\u7956\u51b2\u4e4b\u8def1239\u5f042\u53f77\u53f7\u697c1\u5c4216-144\u5ba4", "name": "\u4e0a\u6d77\u957f\u6cf0\u5e7f\u573a2\u5e97", "id": 524983301484576768, "pageNo": 0, "pageCount": null, "pageSize": 10, "ids": null, "endTime": null, "startTime": null}, {"cardNumFive": null, "isSupportYj": null, "cityName": null, "districtName": null, "shopinfo": {"mid": "888002158122931", "good_flag": "2", "new_flag": "2", "short_name": "\u592a\u5e73\u6d0b\u5496\u5561", "short_name_pinyin": "taipingyangkafei", "status": null, "address": null, "name": null, "id": "524983300385669120"}, "mid": "888002158122931", "shopId": "524983300385669120", "netid": null, "province": 901, "district": 601, "zipcode": null, "telephone": null, "posDate": null, "destineTel": null, "togoTel": null, "trafficWay": null, "signBuilding": null, "businessArea": null, "selfRoom": null, "businessTime": null, "stall": null, "consume": null, "serviceFei": null, "favourable": null, "shopMemo": null, "appraise": null, "website": null, "memo": null, "payTypes": "\u6749\u5fb7\u5361,", "shopTypes": "\u9910\u996e", "consumeTypes": null, "cookTypes": null, "orderNum": null, "card4no": null, "card4noAcc": null, "district2": 418, "searchScope": null, "status": 1, "address": "\u6d66\u4e1c\u65b0\u533a\u4e1c\u65b9\u8def1630\u4ec1\u6d4e\u533b\u9662-\u4e1c\u966213\u53f7\u697c1\u5c421\u5355\u5143", "name": "\u4e0a\u6d77\u4e1c\u65b9\u8def\u5e97", "id": 524983301849481216, "pageNo": 0, "pageCount": null, "pageSize": 10, "ids": null, "endTime": null, "startTime": null}, {"cardNumFive": null, "isSupportYj": null, "cityName": null, "districtName": null, "shopinfo": {"mid": "888002158122931", "good_flag": "2", "new_flag": "2", "short_name": "\u592a\u5e73\u6d0b\u5496\u5561", "short_name_pinyin": "taipingyangkafei", "status": null, "address": null, "name": null, "id": "524983300385669120"}, "mid": "888002158122931", "shopId": "524983300385669120", "netid": null, "province": 901, "district": 601, "zipcode": null, "telephone": null, "posDate": null, "destineTel": null, "togoTel": null, "trafficWay": null, "signBuilding": null, "businessArea": null, "selfRoom": null, "businessTime": null, "stall": null, "consume": null, "serviceFei": null, "favourable": null, "shopMemo": null, "appraise": null, "website": null, "memo": null, "payTypes": "\u6749\u5fb7\u5361,", "shopTypes": "\u9910\u996e", "consumeTypes": null, "cookTypes": null, "orderNum": null, "card4no": null, "card4noAcc": null, "district2": 418, "searchScope": null, "status": 1, "address": "\u6f4d\u574a\u897f\u8def55\u53f7\u5927\u53851\u5c42", "name": "\u4e0a\u6d77\u4e16\u8302\u6ee8\u6c5f\u5e97", "id": 524983302205997056, "pageNo": 0, "pageCount": null, "pageSize": 10, "ids": null, "endTime": null, "startTime": null}], "pageLimit": 8490, "size": 10}