{"pageCount": 1095, "count": 10942, "pageNo": 854, "subShopInfo": {"cardNumFive": "", "isSupportYj": "", "cityName": null, "districtName": null, "shopinfo": {"mid": null, "good_flag": null, "new_flag": null, "short_name": null, "short_name_pinyin": null, "status": null, "address": "", "name": "", "id": null}, "mid": null, "shopId": null, "netid": null, "province": 901, "district": null, "zipcode": null, "telephone": null, "posDate": null, "destineTel": null, "togoTel": null, "trafficWay": null, "signBuilding": null, "businessArea": null, "selfRoom": null, "businessTime": null, "stall": null, "consume": null, "serviceFei": null, "favourable": null, "shopMemo": "1", "appraise": null, "website": null, "memo": null, "payTypes": "", "shopTypes": "", "consumeTypes": null, "cookTypes": null, "orderNum": null, "card4no": null, "card4noAcc": null, "district2": null, "searchScope": null, "status": null, "address": "", "name": null, "id": null, "pageNo": 853, "pageCount": null, "pageSize": 10, "ids": null, "endTime": null, "startTime": null}, "list": [{"cardNumFive": null, "isSupportYj": null, "cityName": null, "districtName": null, "shopinfo": {"mid": "888002158122931", "good_flag": "2", "new_flag": "2", "short_name": "\u592a\u5e73\u6d0b\u5496\u5561", "short_name_pinyin": "taipingyangkafei", "status": null, "address": null, "name": null, "id": "524983300385669120"}, "mid": "888002158122931", "shopId": "524983300385669120", "netid": null, "province": 901, "district": 601, "zipcode": null, "telephone": null, "posDate": null, "destineTel": null, "togoTel": null, "trafficWay": null, "signBuilding": null, "businessArea": null, "selfRoom": null, "businessTime": null, "stall": null, "consume": null, "serviceFei": null, "favourable": null, "shopMemo": null, "appraise": null, "website": null, "memo": null, "payTypes": "\u6749\u5fb7\u5361,", "shopTypes": "\u9910\u996e", "consumeTypes": null, "cookTypes": null, "orderNum": null, "card4no": null, "card4noAcc": null, "district2": 417, "searchScope": null, "status": 1, "address": "\u9752\u6d66\u533a\u5609\u677e\u4e2d\u8def5999\u5f042302\u5ba4", "name": "\u4e0a\u6d77\u7c73\u683c\u5929\u5730\u5e97", "id": 524983314415616000, "pageNo": 0, "pageCount": null, "pageSize": 10, "ids": null, "endTime": null, "startTime": null}, {"cardNumFive": null, "isSupportYj": null, "cityName": null, "districtName": null, "shopinfo": {"mid": "888002158122931", "good_flag": "2", "new_flag": "2", "short_name": "\u592a\u5e73\u6d0b\u5496\u5561", "short_name_pinyin": "taipingyangkafei", "status": null, "address": null, "name": null, "id": "524983300385669120"}, "mid": "888002158122931", "shopId": "524983300385669120", "netid": null, "province": 901, "district": 601, "zipcode": null, "telephone": null, "posDate": null, "destineTel": null, "togoTel": null, "trafficWay": null, "signBuilding": null, "businessArea": null, "selfRoom": null, "businessTime": null, "stall": null, "consume": null, "serviceFei": null, "favourable": null, "shopMemo": null, "appraise": null, "website": null, "memo": null, "payTypes": "\u6749\u5fb7\u5361,", "shopTypes": "\u9910\u996e", "consumeTypes": null, "cookTypes": null, "orderNum": null, "card4no": null, "card4noAcc": null, "district2": 417, "searchScope": null, "status": 1, "address": "\u9752\u6d66\u533a\u6731\u5bb6\u89d2\u9547\u65b0\u98ce\u8def258\u5f042\u53f71-2\uff0802\uff09\u5ba4", "name": "\u4e0a\u6d77\u6731\u5bb6\u89d2\u5e97", "id": 524983314797297664, "pageNo": 0, "pageCount": null, "pageSize": 10, "ids": null, "endTime": null, "startTime": null}, {"cardNumFive": null, "isSupportYj": null, "cityName": null, "districtName": null, "shopinfo": {"mid": "888002158122931", "good_flag": "2", "new_flag": "2", "short_name": "\u592a\u5e73\u6d0b\u5496\u5561", "short_name_pinyin": "taipingyangkafei", "status": null, "address": null, "name": null, "id": "524983300385669120"}, "mid": "888002158122931", "shopId": "524983300385669120", "netid": null, "province": 901, "district": 601, "zipcode": null, "telephone": null, "posDate": null, "destineTel": null, "togoTel": null, "trafficWay": null, "signBuilding": null, "businessArea": null, "selfRoom": null, "businessTime": null, "stall": null, "consume": null, "serviceFei": null, "favourable": null, "shopMemo": null, "appraise": null, "website": null, "memo": null, "payTypes": "\u6749\u5fb7\u5361,", "shopTypes": "\u9910\u996e", "consumeTypes": null, "cookTypes": null, "orderNum": null, "card4no": null, "card4noAcc": null, "district2": 404, "searchScope": null, "status": 1, "address": "\u7533\u957f\u8def1588\u5f0416\u53f7\u9996\u5c42101\u5355\u5143", "name": "\u4e0a\u6d77\u4e2d\u9a8f\u5e7f\u573a\u5e97", "id": 524983315195756544, "pageNo": 0, "pageCount": null, "pageSize": 10, "ids": null, "endTime": null, "startTime": null}, {"cardNumFive": null, "isSupportYj": null, "cityName": null, "districtName": null, "shopinfo": {"mid": "888002158122931", "good_flag": "2", "new_flag": "2", "short_name": "\u592a\u5e73\u6d0b\u5496\u5561", "short_name_pinyin": "taipingyangkafei", "status": null, "address": null, "name": null, "id": "524983300385669120"}, "mid": "888002158122931", "shopId": "524983300385669120", "netid": null, "province": 901, "district": 601, "zipcode": null, "telephone": null, "posDate": null, "destineTel": null, "togoTel": null, "trafficWay": null, "signBuilding": null, "businessArea": null, "selfRoom": null, "businessTime": null, "stall": null, "consume": null, "serviceFei": null, "favourable": null, "shopMemo": null, "appraise": null, "website": null, "memo": null, "payTypes": "\u6749\u5fb7\u5361,", "shopTypes": "\u9910\u996e", "consumeTypes": null, "cookTypes": null, "orderNum": null, "card4no": null, "card4noAcc": null, "district2": 404, "searchScope": null, "status": 1, "address": "\u95f8\u5317\u533a\u5929\u76ee\u897f\u8def218\u53f71\u697c01\u533a", "name": "\u4e0a\u6d77\u95f8\u5317\u592a\u5e73\u6d0b\u767e\u8d27\u5e97", "id": 524983315753598976, "pageNo": 0, "pageCount": null, "pageSize": 10, "ids": null, "endTime": null, "startTime": null}, {"cardNumFive": null, "isSupportYj": null, "cityName": null, "districtName": null, "shopinfo": {"mid": "888002158122931", "good_flag": "2", "new_flag": "2", "short_name": "\u592a\u5e73\u6d0b\u5496\u5561", "short_name_pinyin": "taipingyangkafei", "status": null, "address": null, "name": null, "id": "524983300385669120"}, "mid": "888002158122931", "shopId": "524983300385669120", "netid": null, "province": 901, "district": 601, "zipcode": null, "telephone": null, "posDate": null, "destineTel": null, "togoTel": null, "trafficWay": null, "signBuilding": null, "businessArea": null, "selfRoom": null, "businessTime": null, "stall": null, "consume": null, "serviceFei": null, "favourable": null, "shopMemo": null, "appraise": null, "website": null, "memo": null, "payTypes": "\u6749\u5fb7\u5361,", "shopTypes": "\u9910\u996e", "consumeTypes": null, "cookTypes": null, "orderNum": null, "card4no": null, "card4noAcc": null, "district2": 405, "searchScope": null, "status": 1, "address": "\u666e\u9640\u533a\u5149\u590d\u897f\u8def1003\u53f73\u53f7\u697c1\u697c", "name": "\u4e0a\u6d77\u5149\u590d\u897f\u8def\u5e97", "id": 524983316114309120, "pageNo": 0, "pageCount": null, "pageSize": 10, "ids": null, "endTime": null, "startTime": null}, {"cardNumFive": null, "isSupportYj": null, "cityName": null, "districtName": null, "shopinfo": {"mid": "888002158122931", "good_flag": "2", "new_flag": "2", "short_name": "\u592a\u5e73\u6d0b\u5496\u5561", "short_name_pinyin": "taipingyangkafei", "status": null, "address": null, "name": null, "id": "524983300385669120"}, "mid": "888002158122931", "shopId": "524983300385669120", "netid": null, "province": 901, "district": 601, "zipcode": null, "telephone": null, "posDate": null, "destineTel": null, "togoTel": null, "trafficWay": null, "signBuilding": null, "businessArea": null, "selfRoom": null, "businessTime": null, "stall": null, "consume": null, "serviceFei": null, "favourable": null, "shopMemo": null, "appraise": null, "website": null, "memo": null, "payTypes": "\u6749\u5fb7\u5361,", "shopTypes": "\u9910\u996e", "consumeTypes": null, "cookTypes": null, "orderNum": null, "card4no": null, "card4noAcc": null, "district2": 405, "searchScope": null, "status": 1, "address": "\u666e\u9640\u533a\u4e2d\u5c71\u5317\u8def1855\u53f7\u4e50\u8d2d1\u5c42S04", "name": "\u4e0a\u6d77\u5149\u65b0\u4e50\u8d2d\u5e97", "id": 524983316487602176, "pageNo": 0, "pageCount": null, "pageSize": 10, "ids": null, "endTime": null, "startTime": null}, {"cardNumFive": null, "isSupportYj": null, "cityName": null, "districtName": null, "shopinfo": {"mid": "888002158122931", "good_flag": "2", "new_flag": "2", "short_name": "\u592a\u5e73\u6d0b\u5496\u5561", "short_name_pinyin": "taipingyangkafei", "status": null, "address": null, "name": null, "id": "524983300385669120"}, "mid": "888002158122931", "shopId": "524983300385669120", "netid": null, "province": 901, "district": 601, "zipcode": null, "telephone": null, "posDate": null, "destineTel": null, "togoTel": null, "trafficWay": null, "signBuilding": null, "businessArea": null, "selfRoom": null, "businessTime": null, "stall": null, "consume": null, "serviceFei": null, "favourable": null, "shopMemo": null, "appraise": null, "website": null, "memo": null, "payTypes": "\u6749\u5fb7\u5361,", "shopTypes": "\u9910\u996e", "consumeTypes": null, "cookTypes": null, "orderNum": null, "card4no": null, "card4noAcc": null, "district2": 404, "searchScope": null, "status": 1, "address": "\u7075\u77f3\u8def718\u53f7C8\u680b1\u5c42105\u90e8\u4f4d", "name": "\u4e0a\u6d77\u5927\u5b81\u5929\u683c\u5e97", "id": 524983316890255360, "pageNo": 0, "pageCount": null, "pageSize": 10, "ids": null, "endTime": null, "startTime": null}, {"cardNumFive": null, "isSupportYj": null, "cityName": null, "districtName": null, "shopinfo": {"mid": "888002158122931", "good_flag": "2", "new_flag": "2", "short_name": "\u592a\u5e73\u6d0b\u5496\u5561", "short_name_pinyin": "taipingyangkafei", "status": null, "address": null, "name": null, "id": "524983300385669120"}, "mid": "888002158122931", "shopId": "524983300385669120", "netid": null, "province": 901, "district": 601, "zipcode": null, "telephone": null, "posDate": null, "destineTel": null, "togoTel": null, "trafficWay": null, "signBuilding": null, "businessArea": null, "selfRoom": null, "businessTime": null, "stall": null, "consume": null, "serviceFei": null, "favourable": null, "shopMemo": null, "appraise": null, "website": null, "memo": null, "payTypes": "\u6749\u5fb7\u5361,", "shopTypes": "\u9910\u996e", "consumeTypes": null, "cookTypes": null, "orderNum": null, "card4no": null, "card4noAcc": null, "district2": 401, "searchScope": null, "status": 1, "address": "\u6cb3\u5357\u4e2d\u8def88\u53f7101\u5355\u5143", "name": "\u4e0a\u6d77\u5916\u6ee9\u4e2d\u5fc3\u5e97", "id": 524983317271937024, "pageNo": 0, "pageCount": null, "pageSize": 10, "ids": null, "endTime": null, "startTime": null}, {"cardNumFive": null, "isSupportYj": null, "cityName": null, "districtName": null, "shopinfo": {"mid": "888002158122931", "good_flag": "2", "new_flag": "2", "short_name": "\u592a\u5e73\u6d0b\u5496\u5561", "short_name_pinyin": "taipingyangkafei", "status": null, "address": null, "name": null, "id": "524983300385669120"}, "mid": "888002158122931", "shopId": "524983300385669120", "netid": null, "province": 901, "district": 601, "zipcode": null, "telephone": null, "posDate": null, "destineTel": null, "togoTel": null, "trafficWay": null, "signBuilding": null, "businessArea": null, "selfRoom": null, "businessTime": null, "stall": null, "consume": null, "serviceFei": null, "favourable": null, "shopMemo": null, "appraise": null, "website": null, "memo": null, "payTypes": "\u6749\u5fb7\u5361,", "shopTypes": "\u9910\u996e", "consumeTypes": null, "cookTypes": null, "orderNum": null, "card4no": null, "card4noAcc": null, "district2": 404, "searchScope": null, "status": 1, "address": "\u6caa\u592a\u8def1111\u5f0410\u53f71\u53f7\u697c3\u5c42L327-2\u5ba4", "name": "\u4e0a\u6d77\u5927\u878d\u57ce\u5e97", "id": 524983317628452864, "pageNo": 0, "pageCount": null, "pageSize": 10, "ids": null, "endTime": null, "startTime": null}, {"cardNumFive": null, "isSupportYj": null, "cityName": null, "districtName": null, "shopinfo": {"mid": "888002158122931", "good_flag": "2", "new_flag": "2", "short_name": "\u592a\u5e73\u6d0b\u5496\u5561", "short_name_pinyin": "taipingyangkafei", "status": null, "address": null, "name": null, "id": "524983300385669120"}, "mid": "888002158122931", "shopId": "524983300385669120", "netid": null, "province": 901, "district": 601, "zipcode": null, "telephone": null, "posDate": null, "destineTel": null, "togoTel": null, "trafficWay": null, "signBuilding": null, "businessArea": null, "selfRoom": null, "businessTime": null, "stall": null, "consume": null, "serviceFei": null, "favourable": null, "shopMemo": null, "appraise": null, "website": null, "memo": null, "payTypes": "\u6749\u5fb7\u5361,", "shopTypes": "\u9910\u996e", "consumeTypes": null, "cookTypes": null, "orderNum": null, "card4no": null, "card4noAcc": null, "district2": 401, "searchScope": null, "status": 1, "address": "\u6cb3\u5357\u4e2d\u8def88\u53f7\u5916\u6ee9\u4e2d\u5fc35\u697c", "name": "\u4e0a\u6d77\u5fb7\u52e4\u5e97", "id": 524983317989163008, "pageNo": 0, "pageCount": null, "pageSize": 10, "ids": null, "endTime": null, "startTime": null}], "pageLimit": 8530, "size": 10}