{"pageCount": 1095, "count": 10942, "pageNo": 855, "subShopInfo": {"cardNumFive": "", "isSupportYj": "", "cityName": null, "districtName": null, "shopinfo": {"mid": null, "good_flag": null, "new_flag": null, "short_name": null, "short_name_pinyin": null, "status": null, "address": "", "name": "", "id": null}, "mid": null, "shopId": null, "netid": null, "province": 901, "district": null, "zipcode": null, "telephone": null, "posDate": null, "destineTel": null, "togoTel": null, "trafficWay": null, "signBuilding": null, "businessArea": null, "selfRoom": null, "businessTime": null, "stall": null, "consume": null, "serviceFei": null, "favourable": null, "shopMemo": "1", "appraise": null, "website": null, "memo": null, "payTypes": "", "shopTypes": "", "consumeTypes": null, "cookTypes": null, "orderNum": null, "card4no": null, "card4noAcc": null, "district2": null, "searchScope": null, "status": null, "address": "", "name": null, "id": null, "pageNo": 854, "pageCount": null, "pageSize": 10, "ids": null, "endTime": null, "startTime": null}, "list": [{"cardNumFive": null, "isSupportYj": null, "cityName": null, "districtName": null, "shopinfo": {"mid": "888002158122931", "good_flag": "2", "new_flag": "2", "short_name": "\u592a\u5e73\u6d0b\u5496\u5561", "short_name_pinyin": "taipingyangkafei", "status": null, "address": null, "name": null, "id": "524983300385669120"}, "mid": "888002158122931", "shopId": "524983300385669120", "netid": null, "province": 901, "district": 601, "zipcode": null, "telephone": null, "posDate": null, "destineTel": null, "togoTel": null, "trafficWay": null, "signBuilding": null, "businessArea": null, "selfRoom": null, "businessTime": null, "stall": null, "consume": null, "serviceFei": null, "favourable": null, "shopMemo": null, "appraise": null, "website": null, "memo": null, "payTypes": "\u6749\u5fb7\u5361,", "shopTypes": "\u9910\u996e", "consumeTypes": null, "cookTypes": null, "orderNum": null, "card4no": null, "card4noAcc": null, "district2": 405, "searchScope": null, "status": 1, "address": "\u5eb7\u5b9a\u8def1445\u53f7", "name": "\u4e0a\u6d77\u8054\u534e\u8d85\u5e02\u5e97", "id": 524983318383427584, "pageNo": 0, "pageCount": null, "pageSize": 10, "ids": null, "endTime": null, "startTime": null}, {"cardNumFive": null, "isSupportYj": null, "cityName": null, "districtName": null, "shopinfo": {"mid": "888002158122931", "good_flag": "2", "new_flag": "2", "short_name": "\u592a\u5e73\u6d0b\u5496\u5561", "short_name_pinyin": "taipingyangkafei", "status": null, "address": null, "name": null, "id": "524983300385669120"}, "mid": "888002158122931", "shopId": "524983300385669120", "netid": null, "province": 901, "district": 601, "zipcode": null, "telephone": null, "posDate": null, "destineTel": null, "togoTel": null, "trafficWay": null, "signBuilding": null, "businessArea": null, "selfRoom": null, "businessTime": null, "stall": null, "consume": null, "serviceFei": null, "favourable": null, "shopMemo": null, "appraise": null, "website": null, "memo": null, "payTypes": "\u6749\u5fb7\u5361,", "shopTypes": "\u9910\u996e", "consumeTypes": null, "cookTypes": null, "orderNum": null, "card4no": null, "card4noAcc": null, "district2": 409, "searchScope": null, "status": 1, "address": "\u8398\u5e84\u90fd\u5e02\u8def5001\u53f7\u4ef2\u76db\u4e16\u754c3\u697c07\u53f7\u94fa", "name": "\u4e0a\u6d77\u4ef2\u76db\u5e97", "id": 524983318857383936, "pageNo": 0, "pageCount": null, "pageSize": 10, "ids": null, "endTime": null, "startTime": null}, {"cardNumFive": null, "isSupportYj": null, "cityName": null, "districtName": null, "shopinfo": {"mid": "888002158122931", "good_flag": "2", "new_flag": "2", "short_name": "\u592a\u5e73\u6d0b\u5496\u5561", "short_name_pinyin": "taipingyangkafei", "status": null, "address": null, "name": null, "id": "524983300385669120"}, "mid": "888002158122931", "shopId": "524983300385669120", "netid": null, "province": 901, "district": 601, "zipcode": null, "telephone": null, "posDate": null, "destineTel": null, "togoTel": null, "trafficWay": null, "signBuilding": null, "businessArea": null, "selfRoom": null, "businessTime": null, "stall": null, "consume": null, "serviceFei": null, "favourable": null, "shopMemo": null, "appraise": null, "website": null, "memo": null, "payTypes": "\u6749\u5fb7\u5361,", "shopTypes": "\u9910\u996e", "consumeTypes": null, "cookTypes": null, "orderNum": null, "card4no": null, "card4noAcc": null, "district2": 409, "searchScope": null, "status": 1, "address": "\u95f5\u884c\u533a\u5434\u4e2d\u8def1599\u53f7\u7684\u4e0a\u6d77\u4e07\u8c61\u57ceLG143\u5546\u94fa", "name": "\u4e0a\u6d77\u4e07\u8c61\u57ce2\u5e97", "id": 524983319213899776, "pageNo": 0, "pageCount": null, "pageSize": 10, "ids": null, "endTime": null, "startTime": null}, {"cardNumFive": null, "isSupportYj": null, "cityName": null, "districtName": null, "shopinfo": {"mid": "888002158122931", "good_flag": "2", "new_flag": "2", "short_name": "\u592a\u5e73\u6d0b\u5496\u5561", "short_name_pinyin": "taipingyangkafei", "status": null, "address": null, "name": null, "id": "524983300385669120"}, "mid": "888002158122931", "shopId": "524983300385669120", "netid": null, "province": 901, "district": 601, "zipcode": null, "telephone": null, "posDate": null, "destineTel": null, "togoTel": null, "trafficWay": null, "signBuilding": null, "businessArea": null, "selfRoom": null, "businessTime": null, "stall": null, "consume": null, "serviceFei": null, "favourable": null, "shopMemo": null, "appraise": null, "website": null, "memo": null, "payTypes": "\u6749\u5fb7\u5361,", "shopTypes": "\u9910\u996e", "consumeTypes": null, "cookTypes": null, "orderNum": null, "card4no": null, "card4noAcc": null, "district2": 401, "searchScope": null, "status": 1, "address": "\u5357\u4eac\u897f\u8def338\u53f7\u5929\u5b89\u4e2d\u5fc31F104-106\u5355\u5143", "name": "\u4e0a\u6d77\u5929\u5b89\u4e2d\u5fc3\u5e97", "id": 524983319767547904, "pageNo": 0, "pageCount": null, "pageSize": 10, "ids": null, "endTime": null, "startTime": null}, {"cardNumFive": null, "isSupportYj": null, "cityName": null, "districtName": null, "shopinfo": {"mid": "888002158122931", "good_flag": "2", "new_flag": "2", "short_name": "\u592a\u5e73\u6d0b\u5496\u5561", "short_name_pinyin": "taipingyangkafei", "status": null, "address": null, "name": null, "id": "524983300385669120"}, "mid": "888002158122931", "shopId": "524983300385669120", "netid": null, "province": 901, "district": 601, "zipcode": null, "telephone": null, "posDate": null, "destineTel": null, "togoTel": null, "trafficWay": null, "signBuilding": null, "businessArea": null, "selfRoom": null, "businessTime": null, "stall": null, "consume": null, "serviceFei": null, "favourable": null, "shopMemo": null, "appraise": null, "website": null, "memo": null, "payTypes": "\u6749\u5fb7\u5361,", "shopTypes": "\u9910\u996e", "consumeTypes": null, "cookTypes": null, "orderNum": null, "card4no": null, "card4noAcc": null, "district2": 401, "searchScope": null, "status": 1, "address": "\u5916\u6ee9\u8857\u9053\u5357\u4eac\u4e1c\u8def228\u53f7\u5927\u4e38\u767e\u8d273\u697c3E-01", "name": "\u4e0a\u6d77\u5357\u4eac\u4e1c\u8def\u5927\u4e38\u5e97", "id": 524983320124063744, "pageNo": 0, "pageCount": null, "pageSize": 10, "ids": null, "endTime": null, "startTime": null}, {"cardNumFive": null, "isSupportYj": null, "cityName": null, "districtName": null, "shopinfo": {"mid": "888002158122939", "good_flag": "2", "new_flag": "2", "short_name": "\u746d\u65b0\u9910\u5ba4", "short_name_pinyin": "tangxincanshi", "status": null, "address": null, "name": null, "id": "565224394767466496"}, "mid": "888002158122939", "shopId": "565224394767466496", "netid": null, "province": 901, "district": 601, "zipcode": null, "telephone": null, "posDate": null, "destineTel": null, "togoTel": null, "trafficWay": null, "signBuilding": null, "businessArea": null, "selfRoom": null, "businessTime": null, "stall": null, "consume": null, "serviceFei": null, "favourable": null, "shopMemo": null, "appraise": null, "website": null, "memo": null, "payTypes": "\u6749\u5fb7\u5361,", "shopTypes": null, "consumeTypes": null, "cookTypes": null, "orderNum": null, "card4no": null, "card4noAcc": null, "district2": 403, "searchScope": null, "status": 1, "address": "\u4e1c\u5b89\u8def562\u53f7\u7eff\u5730\u7f24\u7eb7\u57ceWB-112b\uff08B1\u98df\u756a\u8857\u5230\u5e95\uff09", "name": "\u9f99\u534e\u4e2d\u8def\u5e97", "id": 565224392829698048, "pageNo": 0, "pageCount": null, "pageSize": 10, "ids": null, "endTime": null, "startTime": null}, {"cardNumFive": null, "isSupportYj": null, "cityName": null, "districtName": null, "shopinfo": {"mid": "888888853990234", "good_flag": "2", "new_flag": "2", "short_name": "\u8c2d\u6728\u5320", "short_name_pinyin": "tanmujiang", "status": null, "address": null, "name": null, "id": "33441"}, "mid": "888888853990234", "shopId": "33441", "netid": null, "province": 901, "district": 601, "zipcode": null, "telephone": "13636677785", "posDate": "200910", "destineTel": null, "togoTel": null, "trafficWay": null, "signBuilding": null, "businessArea": null, "selfRoom": null, "businessTime": "9:00~21:00", "stall": null, "consume": null, "serviceFei": null, "favourable": null, "shopMemo": null, "appraise": null, "website": null, "memo": null, "payTypes": "\u6749\u5fb7\u5361", "shopTypes": "\u4e13\u5356", "consumeTypes": null, "cookTypes": null, "orderNum": 1000, "card4no": null, "card4noAcc": null, "district2": 401, "searchScope": null, "status": 1, "address": "\u5357\u4eac\u897f\u8def169\u53f7BE201\u5ba4", "name": "\u8c2d\u6728\u5320 \u4eba\u6c11\u5e7f\u573a\u5e97", "id": 142526, "pageNo": 0, "pageCount": null, "pageSize": 10, "ids": null, "endTime": null, "startTime": null}, {"cardNumFive": null, "isSupportYj": null, "cityName": null, "districtName": null, "shopinfo": {"mid": "888888854510029", "good_flag": "2", "new_flag": "1", "short_name": "\u5854\u65af\u66fc\u5c3c\u5065\u5eb7\u4fbf\u5229\u8fde\u9501", "short_name_pinyin": "tasimannijiankangbianliliansuo", "status": null, "address": null, "name": null, "id": "33424"}, "mid": "888888854510029", "shopId": "33424", "netid": null, "province": 901, "district": 601, "zipcode": null, "telephone": null, "posDate": null, "destineTel": null, "togoTel": null, "trafficWay": null, "signBuilding": null, "businessArea": null, "selfRoom": null, "businessTime": null, "stall": null, "consume": null, "serviceFei": null, "favourable": null, "shopMemo": null, "appraise": null, "website": null, "memo": null, "payTypes": "\u6749\u5fb7\u5361", "shopTypes": "\u5065\u8eab\u573a\u6240", "consumeTypes": null, "cookTypes": null, "orderNum": 1000, "card4no": null, "card4noAcc": null, "district2": 408, "searchScope": null, "status": 1, "address": "\u66f2\u9633\u8def560\u53f7", "name": "\u5854\u65af\u66fc\u5c3c\u5065\u5eb7\u4fbf\u5229\u8fde\u9501 \u66f2\u9633\u5bb6\u4e50\u798f\u5e97", "id": 142506, "pageNo": 0, "pageCount": null, "pageSize": 10, "ids": null, "endTime": null, "startTime": null}, {"cardNumFive": null, "isSupportYj": null, "cityName": null, "districtName": null, "shopinfo": {"mid": "888002153110014", "good_flag": null, "new_flag": null, "short_name": "\u7279\u529b\u5c4b", "short_name_pinyin": "teliwu", "status": null, "address": null, "name": null, "id": "37341"}, "mid": "888002153110014", "shopId": "37341", "netid": null, "province": 901, "district": 601, "zipcode": null, "telephone": "52191919", "posDate": null, "destineTel": null, "togoTel": null, "trafficWay": null, "signBuilding": null, "businessArea": null, "selfRoom": null, "businessTime": null, "stall": null, "consume": null, "serviceFei": null, "favourable": null, "shopMemo": null, "appraise": null, "website": null, "memo": null, "payTypes": ",\u6749\u5fb7\u5361", "shopTypes": "\u767e\u8d27", "consumeTypes": null, "cookTypes": null, "orderNum": 1000, "card4no": null, "card4noAcc": null, "district2": 406, "searchScope": null, "status": 1, "address": "\u4ed9\u971e\u897f\u8def88\u53f7\u5730\u4e0b\u4e8c\u5c42", "name": "\u7279\u529b\u5c4b \u897f\u90ca\u767e\u8054\u5e97", "id": 158511, "pageNo": 0, "pageCount": null, "pageSize": 10, "ids": null, "endTime": null, "startTime": null}, {"cardNumFive": null, "isSupportYj": null, "cityName": null, "districtName": null, "shopinfo": {"mid": "888002153110013", "good_flag": null, "new_flag": null, "short_name": "\u7279\u529b\u5c4b", "short_name_pinyin": "teliwu", "status": null, "address": null, "name": null, "id": "37342"}, "mid": "888002153110013", "shopId": "37342", "netid": null, "province": 901, "district": 601, "zipcode": null, "telephone": "64938000", "posDate": null, "destineTel": null, "togoTel": null, "trafficWay": null, "signBuilding": null, "businessArea": null, "selfRoom": null, "businessTime": null, "stall": null, "consume": null, "serviceFei": null, "favourable": null, "shopMemo": null, "appraise": null, "website": null, "memo": null, "payTypes": "\u6749\u5fb7\u5361", "shopTypes": "\u767e\u8d27", "consumeTypes": null, "cookTypes": null, "orderNum": 1000, "card4no": null, "card4noAcc": null, "district2": 409, "searchScope": null, "status": 1, "address": "\u8398\u677e\u8def855\u53f71\u697c", "name": "\u7279\u529b\u5c4b \u8398\u677e\u5e97", "id": 158512, "pageNo": 0, "pageCount": null, "pageSize": 10, "ids": null, "endTime": null, "startTime": null}], "pageLimit": 8540, "size": 10}