{"pageCount": 1095, "count": 10942, "pageNo": 853, "subShopInfo": {"cardNumFive": "", "isSupportYj": "", "cityName": null, "districtName": null, "shopinfo": {"mid": null, "good_flag": null, "new_flag": null, "short_name": null, "short_name_pinyin": null, "status": null, "address": "", "name": "", "id": null}, "mid": null, "shopId": null, "netid": null, "province": 901, "district": null, "zipcode": null, "telephone": null, "posDate": null, "destineTel": null, "togoTel": null, "trafficWay": null, "signBuilding": null, "businessArea": null, "selfRoom": null, "businessTime": null, "stall": null, "consume": null, "serviceFei": null, "favourable": null, "shopMemo": "1", "appraise": null, "website": null, "memo": null, "payTypes": "", "shopTypes": "", "consumeTypes": null, "cookTypes": null, "orderNum": null, "card4no": null, "card4noAcc": null, "district2": null, "searchScope": null, "status": null, "address": "", "name": null, "id": null, "pageNo": 852, "pageCount": null, "pageSize": 10, "ids": null, "endTime": null, "startTime": null}, "list": [{"cardNumFive": null, "isSupportYj": null, "cityName": null, "districtName": null, "shopinfo": {"mid": "888002158122931", "good_flag": "2", "new_flag": "2", "short_name": "\u592a\u5e73\u6d0b\u5496\u5561", "short_name_pinyin": "taipingyangkafei", "status": null, "address": null, "name": null, "id": "524983300385669120"}, "mid": "888002158122931", "shopId": "524983300385669120", "netid": null, "province": 901, "district": 601, "zipcode": null, "telephone": null, "posDate": null, "destineTel": null, "togoTel": null, "trafficWay": null, "signBuilding": null, "businessArea": null, "selfRoom": null, "businessTime": null, "stall": null, "consume": null, "serviceFei": null, "favourable": null, "shopMemo": null, "appraise": null, "website": null, "memo": null, "payTypes": "\u6749\u5fb7\u5361,", "shopTypes": "\u9910\u996e", "consumeTypes": null, "cookTypes": null, "orderNum": null, "card4no": null, "card4noAcc": null, "district2": 401, "searchScope": null, "status": 1, "address": "\u6dee\u6d77\u4e2d\u8def795-804\u53f71\u5c4201\uff0c02\u5ba4\uff0c\u91d1\u8fb0\u5927\u9152\u5e97", "name": "\u4e0a\u6d77\u6dee\u6d77\u4e2d\u8def\u4e8c\u5e97", "id": 524983310389084160, "pageNo": 0, "pageCount": null, "pageSize": 10, "ids": null, "endTime": null, "startTime": null}, {"cardNumFive": null, "isSupportYj": null, "cityName": null, "districtName": null, "shopinfo": {"mid": "888002158122931", "good_flag": "2", "new_flag": "2", "short_name": "\u592a\u5e73\u6d0b\u5496\u5561", "short_name_pinyin": "taipingyangkafei", "status": null, "address": null, "name": null, "id": "524983300385669120"}, "mid": "888002158122931", "shopId": "524983300385669120", "netid": null, "province": 901, "district": 601, "zipcode": null, "telephone": null, "posDate": null, "destineTel": null, "togoTel": null, "trafficWay": null, "signBuilding": null, "businessArea": null, "selfRoom": null, "businessTime": null, "stall": null, "consume": null, "serviceFei": null, "favourable": null, "shopMemo": null, "appraise": null, "website": null, "memo": null, "payTypes": "\u6749\u5fb7\u5361,", "shopTypes": "\u9910\u996e", "consumeTypes": null, "cookTypes": null, "orderNum": null, "card4no": null, "card4noAcc": null, "district2": 407, "searchScope": null, "status": 1, "address": "\u4e2d\u539f\u8def102\u53f7", "name": "\u4e0a\u6d77\u6768\u6d66\u4e2d\u539f\u6b27\u5c1a\u5e97", "id": 524983310770765824, "pageNo": 0, "pageCount": null, "pageSize": 10, "ids": null, "endTime": null, "startTime": null}, {"cardNumFive": null, "isSupportYj": null, "cityName": null, "districtName": null, "shopinfo": {"mid": "888002158122931", "good_flag": "2", "new_flag": "2", "short_name": "\u592a\u5e73\u6d0b\u5496\u5561", "short_name_pinyin": "taipingyangkafei", "status": null, "address": null, "name": null, "id": "524983300385669120"}, "mid": "888002158122931", "shopId": "524983300385669120", "netid": null, "province": 901, "district": 601, "zipcode": null, "telephone": null, "posDate": null, "destineTel": null, "togoTel": null, "trafficWay": null, "signBuilding": null, "businessArea": null, "selfRoom": null, "businessTime": null, "stall": null, "consume": null, "serviceFei": null, "favourable": null, "shopMemo": null, "appraise": null, "website": null, "memo": null, "payTypes": "\u6749\u5fb7\u5361,", "shopTypes": "\u9910\u996e", "consumeTypes": null, "cookTypes": null, "orderNum": null, "card4no": null, "card4noAcc": null, "district2": 403, "searchScope": null, "status": 1, "address": "\u5929\u94a5\u6865\u8def333\u53f7\u817e\u98de\u5927\u53a6133\u5355\u5143", "name": "\u4e0a\u6d77\u817e\u98de\u5927\u53a6\u5e97", "id": 524983311341191168, "pageNo": 0, "pageCount": null, "pageSize": 10, "ids": null, "endTime": null, "startTime": null}, {"cardNumFive": null, "isSupportYj": null, "cityName": null, "districtName": null, "shopinfo": {"mid": "888002158122931", "good_flag": "2", "new_flag": "2", "short_name": "\u592a\u5e73\u6d0b\u5496\u5561", "short_name_pinyin": "taipingyangkafei", "status": null, "address": null, "name": null, "id": "524983300385669120"}, "mid": "888002158122931", "shopId": "524983300385669120", "netid": null, "province": 901, "district": 601, "zipcode": null, "telephone": null, "posDate": null, "destineTel": null, "togoTel": null, "trafficWay": null, "signBuilding": null, "businessArea": null, "selfRoom": null, "businessTime": null, "stall": null, "consume": null, "serviceFei": null, "favourable": null, "shopMemo": null, "appraise": null, "website": null, "memo": null, "payTypes": "\u6749\u5fb7\u5361,", "shopTypes": "\u9910\u996e", "consumeTypes": null, "cookTypes": null, "orderNum": null, "card4no": null, "card4noAcc": null, "district2": 401, "searchScope": null, "status": 1, "address": "\u5f90\u5bb6\u6c47\u8def555\u53f7\u5e7f\u53d1\u5927\u53a6\u88d9\u623f\u4e00\u697cA\u94fa\u4f4d\u548cB\u94fa\u4f4d", "name": "\u4e0a\u6d77\u5e7f\u53d1\u94f6\u884c\u5e97", "id": 524983311706095616, "pageNo": 0, "pageCount": null, "pageSize": 10, "ids": null, "endTime": null, "startTime": null}, {"cardNumFive": null, "isSupportYj": null, "cityName": null, "districtName": null, "shopinfo": {"mid": "888002158122931", "good_flag": "2", "new_flag": "2", "short_name": "\u592a\u5e73\u6d0b\u5496\u5561", "short_name_pinyin": "taipingyangkafei", "status": null, "address": null, "name": null, "id": "524983300385669120"}, "mid": "888002158122931", "shopId": "524983300385669120", "netid": null, "province": 901, "district": 601, "zipcode": null, "telephone": null, "posDate": null, "destineTel": null, "togoTel": null, "trafficWay": null, "signBuilding": null, "businessArea": null, "selfRoom": null, "businessTime": null, "stall": null, "consume": null, "serviceFei": null, "favourable": null, "shopMemo": null, "appraise": null, "website": null, "memo": null, "payTypes": "\u6749\u5fb7\u5361,", "shopTypes": "\u9910\u996e", "consumeTypes": null, "cookTypes": null, "orderNum": null, "card4no": null, "card4noAcc": null, "district2": 407, "searchScope": null, "status": 1, "address": "\u56fd\u5b9a\u8def335\u53f7\u4e00\u5c42A102\u5e97\u94fa", "name": "\u4e0a\u6d77\u4e94\u89d2\u573a\u5e97", "id": 524983312091971584, "pageNo": 0, "pageCount": null, "pageSize": 10, "ids": null, "endTime": null, "startTime": null}, {"cardNumFive": null, "isSupportYj": null, "cityName": null, "districtName": null, "shopinfo": {"mid": "888002158122931", "good_flag": "2", "new_flag": "2", "short_name": "\u592a\u5e73\u6d0b\u5496\u5561", "short_name_pinyin": "taipingyangkafei", "status": null, "address": null, "name": null, "id": "524983300385669120"}, "mid": "888002158122931", "shopId": "524983300385669120", "netid": null, "province": 901, "district": 601, "zipcode": null, "telephone": null, "posDate": null, "destineTel": null, "togoTel": null, "trafficWay": null, "signBuilding": null, "businessArea": null, "selfRoom": null, "businessTime": null, "stall": null, "consume": null, "serviceFei": null, "favourable": null, "shopMemo": null, "appraise": null, "website": null, "memo": null, "payTypes": "\u6749\u5fb7\u5361,", "shopTypes": "\u9910\u996e", "consumeTypes": null, "cookTypes": null, "orderNum": null, "card4no": null, "card4noAcc": null, "district2": 416, "searchScope": null, "status": 1, "address": "\u7261\u4e39\u6c5f\u8def1569\u53f7B1F-37&38", "name": "\u4e0a\u6d77\u5b9d\u4e50\u6c47\u5e7f\u573a\u5e97", "id": 524983312503013376, "pageNo": 0, "pageCount": null, "pageSize": 10, "ids": null, "endTime": null, "startTime": null}, {"cardNumFive": null, "isSupportYj": null, "cityName": null, "districtName": null, "shopinfo": {"mid": "888002158122931", "good_flag": "2", "new_flag": "2", "short_name": "\u592a\u5e73\u6d0b\u5496\u5561", "short_name_pinyin": "taipingyangkafei", "status": null, "address": null, "name": null, "id": "524983300385669120"}, "mid": "888002158122931", "shopId": "524983300385669120", "netid": null, "province": 901, "district": 601, "zipcode": null, "telephone": null, "posDate": null, "destineTel": null, "togoTel": null, "trafficWay": null, "signBuilding": null, "businessArea": null, "selfRoom": null, "businessTime": null, "stall": null, "consume": null, "serviceFei": null, "favourable": null, "shopMemo": null, "appraise": null, "website": null, "memo": null, "payTypes": "\u6749\u5fb7\u5361,", "shopTypes": "\u9910\u996e", "consumeTypes": null, "cookTypes": null, "orderNum": null, "card4no": null, "card4noAcc": null, "district2": 408, "searchScope": null, "status": 1, "address": "\u745e\u8679\u8def188\u53f71\u5c42126\u5355\u5143", "name": "\u4e0a\u6d77\u6708\u4eae\u6e7e\u5e97", "id": 524983312884695040, "pageNo": 0, "pageCount": null, "pageSize": 10, "ids": null, "endTime": null, "startTime": null}, {"cardNumFive": null, "isSupportYj": null, "cityName": null, "districtName": null, "shopinfo": {"mid": "888002158122931", "good_flag": "2", "new_flag": "2", "short_name": "\u592a\u5e73\u6d0b\u5496\u5561", "short_name_pinyin": "taipingyangkafei", "status": null, "address": null, "name": null, "id": "524983300385669120"}, "mid": "888002158122931", "shopId": "524983300385669120", "netid": null, "province": 901, "district": 601, "zipcode": null, "telephone": null, "posDate": null, "destineTel": null, "togoTel": null, "trafficWay": null, "signBuilding": null, "businessArea": null, "selfRoom": null, "businessTime": null, "stall": null, "consume": null, "serviceFei": null, "favourable": null, "shopMemo": null, "appraise": null, "website": null, "memo": null, "payTypes": "\u6749\u5fb7\u5361,", "shopTypes": "\u9910\u996e", "consumeTypes": null, "cookTypes": null, "orderNum": null, "card4no": null, "card4noAcc": null, "district2": 416, "searchScope": null, "status": 1, "address": "\u90c1\u6c5f\u5df7\u8def216-218\u5546\u94fa", "name": "\u4e0a\u6d77\u5b9d\u5229\u60a6\u6d3b\u835f\u5e97", "id": 524983313262182400, "pageNo": 0, "pageCount": null, "pageSize": 10, "ids": null, "endTime": null, "startTime": null}, {"cardNumFive": null, "isSupportYj": null, "cityName": null, "districtName": null, "shopinfo": {"mid": "888002158122931", "good_flag": "2", "new_flag": "2", "short_name": "\u592a\u5e73\u6d0b\u5496\u5561", "short_name_pinyin": "taipingyangkafei", "status": null, "address": null, "name": null, "id": "524983300385669120"}, "mid": "888002158122931", "shopId": "524983300385669120", "netid": null, "province": 901, "district": 601, "zipcode": null, "telephone": null, "posDate": null, "destineTel": null, "togoTel": null, "trafficWay": null, "signBuilding": null, "businessArea": null, "selfRoom": null, "businessTime": null, "stall": null, "consume": null, "serviceFei": null, "favourable": null, "shopMemo": null, "appraise": null, "website": null, "memo": null, "payTypes": "\u6749\u5fb7\u5361,", "shopTypes": "\u9910\u996e", "consumeTypes": null, "cookTypes": null, "orderNum": null, "card4no": null, "card4noAcc": null, "district2": 407, "searchScope": null, "status": 1, "address": "\u6606\u660e\u8def555\u53f7\u5b9d\u5730\u5e7f\u573aB\u5e62\u4e00\u5c421-1\u5939\u5c4202\u5355\u5143", "name": "\u4e0a\u6d77\u5b9d\u5730\u5e7f\u573a2\u5e97", "id": 524983313643864064, "pageNo": 0, "pageCount": null, "pageSize": 10, "ids": null, "endTime": null, "startTime": null}, {"cardNumFive": null, "isSupportYj": null, "cityName": null, "districtName": null, "shopinfo": {"mid": "888002158122931", "good_flag": "2", "new_flag": "2", "short_name": "\u592a\u5e73\u6d0b\u5496\u5561", "short_name_pinyin": "taipingyangkafei", "status": null, "address": null, "name": null, "id": "524983300385669120"}, "mid": "888002158122931", "shopId": "524983300385669120", "netid": null, "province": 901, "district": 601, "zipcode": null, "telephone": null, "posDate": null, "destineTel": null, "togoTel": null, "trafficWay": null, "signBuilding": null, "businessArea": null, "selfRoom": null, "businessTime": null, "stall": null, "consume": null, "serviceFei": null, "favourable": null, "shopMemo": null, "appraise": null, "website": null, "memo": null, "payTypes": "\u6749\u5fb7\u5361,", "shopTypes": "\u9910\u996e", "consumeTypes": null, "cookTypes": null, "orderNum": null, "card4no": null, "card4noAcc": null, "district2": 417, "searchScope": null, "status": 1, "address": "\u76c8\u6e2f\u4e1c\u8def158\u53f7D-L112\u94fa", "name": "\u4e0a\u6d77\u56fd\u5c55\u4e2d\u5fc3\u5e97", "id": 524983314033934336, "pageNo": 0, "pageCount": null, "pageSize": 10, "ids": null, "endTime": null, "startTime": null}], "pageLimit": 8520, "size": 10}