{"pageCount": 1095, "count": 10942, "pageNo": 865, "subShopInfo": {"cardNumFive": "", "isSupportYj": "", "cityName": null, "districtName": null, "shopinfo": {"mid": null, "good_flag": null, "new_flag": null, "short_name": null, "short_name_pinyin": null, "status": null, "address": "", "name": "", "id": null}, "mid": null, "shopId": null, "netid": null, "province": 901, "district": null, "zipcode": null, "telephone": null, "posDate": null, "destineTel": null, "togoTel": null, "trafficWay": null, "signBuilding": null, "businessArea": null, "selfRoom": null, "businessTime": null, "stall": null, "consume": null, "serviceFei": null, "favourable": null, "shopMemo": "1", "appraise": null, "website": null, "memo": null, "payTypes": "", "shopTypes": "", "consumeTypes": null, "cookTypes": null, "orderNum": null, "card4no": null, "card4noAcc": null, "district2": null, "searchScope": null, "status": null, "address": "", "name": null, "id": null, "pageNo": 864, "pageCount": null, "pageSize": 10, "ids": null, "endTime": null, "startTime": null}, "list": [{"cardNumFive": null, "isSupportYj": null, "cityName": null, "districtName": null, "shopinfo": {"mid": "888888854110023", "good_flag": null, "new_flag": null, "short_name": "\u8fea\u4e9a\u5929\u5929", "short_name_pinyin": "tiyatiantian", "status": null, "address": null, "name": null, "id": "43123"}, "mid": "888888854110023", "shopId": "43123", "netid": null, "province": 901, "district": 601, "zipcode": null, "telephone": "68514404/13361897533", "posDate": null, "destineTel": null, "togoTel": null, "trafficWay": null, "signBuilding": null, "businessArea": null, "selfRoom": null, "businessTime": null, "stall": null, "consume": null, "serviceFei": null, "favourable": null, "shopMemo": null, "appraise": null, "website": null, "memo": null, "payTypes": "\u6749\u5fb7\u5361", "shopTypes": "\u4fbf\u5229\u5e97", "consumeTypes": null, "cookTypes": null, "orderNum": 1000, "card4no": null, "card4noAcc": null, "district2": 418, "searchScope": null, "status": 1, "address": "\u51cc\u6cb3\u8def487-491\u53f7", "name": "\u8fea\u4e9a\u5929\u5929 \u8fea\u4e9a\u5929\u5929\u51cc\u6cb3\u5e97", "id": 192811, "pageNo": 0, "pageCount": null, "pageSize": 10, "ids": null, "endTime": null, "startTime": null}, {"cardNumFive": null, "isSupportYj": null, "cityName": null, "districtName": null, "shopinfo": {"mid": "888888854110023", "good_flag": null, "new_flag": null, "short_name": "\u8fea\u4e9a\u5929\u5929", "short_name_pinyin": "tiyatiantian", "status": null, "address": null, "name": null, "id": "43123"}, "mid": "888888854110023", "shopId": "43123", "netid": null, "province": 901, "district": 601, "zipcode": null, "telephone": "56881784/13052030167", "posDate": null, "destineTel": null, "togoTel": null, "trafficWay": null, "signBuilding": null, "businessArea": null, "selfRoom": null, "businessTime": null, "stall": null, "consume": null, "serviceFei": null, "favourable": null, "shopMemo": null, "appraise": null, "website": null, "memo": null, "payTypes": "\u6749\u5fb7\u5361", "shopTypes": "\u4fbf\u5229\u5e97", "consumeTypes": null, "cookTypes": null, "orderNum": 1000, "card4no": null, "card4noAcc": null, "district2": 410, "searchScope": null, "status": 1, "address": "\u6c7e\u897f\u8def620\u53f7", "name": "\u8fea\u4e9a\u5929\u5929 \u8fea\u4e9a\u5929\u5929\u6c7e\u897f\u5e97", "id": 192812, "pageNo": 0, "pageCount": null, "pageSize": 10, "ids": null, "endTime": null, "startTime": null}, {"cardNumFive": null, "isSupportYj": null, "cityName": null, "districtName": null, "shopinfo": {"mid": "888888854110023", "good_flag": null, "new_flag": null, "short_name": "\u8fea\u4e9a\u5929\u5929", "short_name_pinyin": "tiyatiantian", "status": null, "address": null, "name": null, "id": "43123"}, "mid": "888888854110023", "shopId": "43123", "netid": null, "province": 901, "district": 601, "zipcode": null, "telephone": "65337748/13918951922", "posDate": null, "destineTel": null, "togoTel": null, "trafficWay": null, "signBuilding": null, "businessArea": null, "selfRoom": null, "businessTime": null, "stall": null, "consume": null, "serviceFei": null, "favourable": null, "shopMemo": null, "appraise": null, "website": null, "memo": null, "payTypes": "\u6749\u5fb7\u5361", "shopTypes": "\u4fbf\u5229\u5e97", "consumeTypes": null, "cookTypes": null, "orderNum": 1000, "card4no": null, "card4noAcc": null, "district2": 407, "searchScope": null, "status": 1, "address": "\u53cc\u9633\u8def663\u53f7", "name": "\u8fea\u4e9a\u5929\u5929 \u8fea\u4e9a\u5929\u5929\u53cc\u9633\u5e97", "id": 192813, "pageNo": 0, "pageCount": null, "pageSize": 10, "ids": null, "endTime": null, "startTime": null}, {"cardNumFive": null, "isSupportYj": null, "cityName": null, "districtName": null, "shopinfo": {"mid": "888888854110023", "good_flag": null, "new_flag": null, "short_name": "\u8fea\u4e9a\u5929\u5929", "short_name_pinyin": "tiyatiantian", "status": null, "address": null, "name": null, "id": "43123"}, "mid": "888888854110023", "shopId": "43123", "netid": null, "province": 901, "district": 601, "zipcode": null, "telephone": "67186367/13918277146", "posDate": null, "destineTel": null, "togoTel": null, "trafficWay": null, "signBuilding": null, "businessArea": null, "selfRoom": null, "businessTime": null, "stall": null, "consume": null, "serviceFei": null, "favourable": null, "shopMemo": null, "appraise": null, "website": null, "memo": null, "payTypes": "\u6749\u5fb7\u5361", "shopTypes": "\u4fbf\u5229\u5e97", "consumeTypes": null, "cookTypes": null, "orderNum": 1000, "card4no": null, "card4noAcc": null, "district2": 413, "searchScope": null, "status": 1, "address": "\u65b0\u5efa\u4e1c\u8def480\u53f7", "name": "\u8fea\u4e9a\u5929\u5929 \u8fea\u4e9a\u5929\u5929\u65b0\u5efa\u4e1c\u5e97", "id": 192814, "pageNo": 0, "pageCount": null, "pageSize": 10, "ids": null, "endTime": null, "startTime": null}, {"cardNumFive": null, "isSupportYj": null, "cityName": null, "districtName": null, "shopinfo": {"mid": "888888854110023", "good_flag": null, "new_flag": null, "short_name": "\u8fea\u4e9a\u5929\u5929", "short_name_pinyin": "tiyatiantian", "status": null, "address": null, "name": null, "id": "43123"}, "mid": "888888854110023", "shopId": "43123", "netid": null, "province": 901, "district": 601, "zipcode": null, "telephone": "64352420/13918277146", "posDate": null, "destineTel": null, "togoTel": null, "trafficWay": null, "signBuilding": null, "businessArea": null, "selfRoom": null, "businessTime": null, "stall": null, "consume": null, "serviceFei": null, "favourable": null, "shopMemo": null, "appraise": null, "website": null, "memo": null, "payTypes": "\u6749\u5fb7\u5361", "shopTypes": "\u4fbf\u5229\u5e97", "consumeTypes": null, "cookTypes": null, "orderNum": 1000, "card4no": null, "card4noAcc": null, "district2": 409, "searchScope": null, "status": 1, "address": "\u6ca7\u6e90\u8def770\u5f04117\u53f7\u7532", "name": "\u8fea\u4e9a\u5929\u5929 \u8fea\u4e9a\u5929\u5929\u6ca7\u6e90\u5e97", "id": 192815, "pageNo": 0, "pageCount": null, "pageSize": 10, "ids": null, "endTime": null, "startTime": null}, {"cardNumFive": null, "isSupportYj": null, "cityName": null, "districtName": null, "shopinfo": {"mid": "888888854110023", "good_flag": null, "new_flag": null, "short_name": "\u8fea\u4e9a\u5929\u5929", "short_name_pinyin": "tiyatiantian", "status": null, "address": null, "name": null, "id": "43123"}, "mid": "888888854110023", "shopId": "43123", "netid": null, "province": 901, "district": 601, "zipcode": null, "telephone": "65184558/13918307258", "posDate": null, "destineTel": null, "togoTel": null, "trafficWay": null, "signBuilding": null, "businessArea": null, "selfRoom": null, "businessTime": null, "stall": null, "consume": null, "serviceFei": null, "favourable": null, "shopMemo": null, "appraise": null, "website": null, "memo": null, "payTypes": "\u6749\u5fb7\u5361", "shopTypes": "\u4fbf\u5229\u5e97", "consumeTypes": null, "cookTypes": null, "orderNum": 1000, "card4no": null, "card4noAcc": null, "district2": 407, "searchScope": null, "status": 1, "address": "\u5e73\u51c9\u8def1848-1850\u53f7", "name": "\u8fea\u4e9a\u5929\u5929 \u8fea\u4e9a\u5929\u5929\u5e73\u51c9\u5e97", "id": 192816, "pageNo": 0, "pageCount": null, "pageSize": 10, "ids": null, "endTime": null, "startTime": null}, {"cardNumFive": null, "isSupportYj": null, "cityName": null, "districtName": null, "shopinfo": {"mid": "888888854110023", "good_flag": null, "new_flag": null, "short_name": "\u8fea\u4e9a\u5929\u5929", "short_name_pinyin": "tiyatiantian", "status": null, "address": null, "name": null, "id": "43123"}, "mid": "888888854110023", "shopId": "43123", "netid": null, "province": 901, "district": 601, "zipcode": null, "telephone": "68560084/13381920472", "posDate": null, "destineTel": null, "togoTel": null, "trafficWay": null, "signBuilding": null, "businessArea": null, "selfRoom": null, "businessTime": null, "stall": null, "consume": null, "serviceFei": null, "favourable": null, "shopMemo": null, "appraise": null, "website": null, "memo": null, "payTypes": "\u6749\u5fb7\u5361", "shopTypes": "\u4fbf\u5229\u5e97", "consumeTypes": null, "cookTypes": null, "orderNum": 1000, "card4no": null, "card4noAcc": null, "district2": 418, "searchScope": null, "status": 1, "address": "\u5fb7\u5e73\u8def1130\u53f7", "name": "\u8fea\u4e9a\u5929\u5929 \u8fea\u4e9a\u5929\u5929\u5fb7\u5e73\u5e97", "id": 192817, "pageNo": 0, "pageCount": null, "pageSize": 10, "ids": null, "endTime": null, "startTime": null}, {"cardNumFive": null, "isSupportYj": null, "cityName": null, "districtName": null, "shopinfo": {"mid": "888888854110023", "good_flag": null, "new_flag": null, "short_name": "\u8fea\u4e9a\u5929\u5929", "short_name_pinyin": "tiyatiantian", "status": null, "address": null, "name": null, "id": "43123"}, "mid": "888888854110023", "shopId": "43123", "netid": null, "province": 901, "district": 601, "zipcode": null, "telephone": "52769164/13371810928", "posDate": null, "destineTel": null, "togoTel": null, "trafficWay": null, "signBuilding": null, "businessArea": null, "selfRoom": null, "businessTime": null, "stall": null, "consume": null, "serviceFei": null, "favourable": null, "shopMemo": null, "appraise": null, "website": null, "memo": null, "payTypes": "\u6749\u5fb7\u5361", "shopTypes": "\u4fbf\u5229\u5e97", "consumeTypes": null, "cookTypes": null, "orderNum": 1000, "card4no": null, "card4noAcc": null, "district2": 405, "searchScope": null, "status": 1, "address": "\u5ef6\u5ddd\u8def9\u53f7", "name": "\u8fea\u4e9a\u5929\u5929 \u8fea\u4e9a\u5929\u5929\u5ef6\u5ddd\u5e97", "id": 192818, "pageNo": 0, "pageCount": null, "pageSize": 10, "ids": null, "endTime": null, "startTime": null}, {"cardNumFive": null, "isSupportYj": null, "cityName": null, "districtName": null, "shopinfo": {"mid": "888888854110023", "good_flag": null, "new_flag": null, "short_name": "\u8fea\u4e9a\u5929\u5929", "short_name_pinyin": "tiyatiantian", "status": null, "address": null, "name": null, "id": "43123"}, "mid": "888888854110023", "shopId": "43123", "netid": null, "province": 901, "district": 601, "zipcode": null, "telephone": "50387780/13361897533", "posDate": null, "destineTel": null, "togoTel": null, "trafficWay": null, "signBuilding": null, "businessArea": null, "selfRoom": null, "businessTime": null, "stall": null, "consume": null, "serviceFei": null, "favourable": null, "shopMemo": null, "appraise": null, "website": null, "memo": null, "payTypes": "\u6749\u5fb7\u5361", "shopTypes": "\u4fbf\u5229\u5e97", "consumeTypes": null, "cookTypes": null, "orderNum": 1000, "card4no": null, "card4noAcc": null, "district2": 418, "searchScope": null, "status": 1, "address": "\u6caa\u4e1c\u8def500\u53f7", "name": "\u8fea\u4e9a\u5929\u5929 \u8fea\u4e9a\u5929\u5929\u6caa\u4e1c\u5e97", "id": 192820, "pageNo": 0, "pageCount": null, "pageSize": 10, "ids": null, "endTime": null, "startTime": null}, {"cardNumFive": null, "isSupportYj": null, "cityName": null, "districtName": null, "shopinfo": {"mid": "888888854110023", "good_flag": null, "new_flag": null, "short_name": "\u8fea\u4e9a\u5929\u5929", "short_name_pinyin": "tiyatiantian", "status": null, "address": null, "name": null, "id": "43123"}, "mid": "888888854110023", "shopId": "43123", "netid": null, "province": 901, "district": 601, "zipcode": null, "telephone": "57106267/13918277146", "posDate": null, "destineTel": null, "togoTel": null, "trafficWay": null, "signBuilding": null, "businessArea": null, "selfRoom": null, "businessTime": null, "stall": null, "consume": null, "serviceFei": null, "favourable": null, "shopMemo": null, "appraise": null, "website": null, "memo": null, "payTypes": "\u6749\u5fb7\u5361", "shopTypes": "\u4fbf\u5229\u5e97", "consumeTypes": null, "cookTypes": null, "orderNum": 1000, "card4no": null, "card4noAcc": null, "district2": 413, "searchScope": null, "status": 1, "address": "\u89e3\u653e\u897f\u8def360-388\u53f7", "name": "\u8fea\u4e9a\u5929\u5929 \u8fea\u4e9a\u5929\u5929\u89e3\u653e\u897f\u5e97", "id": 192822, "pageNo": 0, "pageCount": null, "pageSize": 10, "ids": null, "endTime": null, "startTime": null}], "pageLimit": 8640, "size": 10}