{"pageCount": 1095, "count": 10942, "pageNo": 863, "subShopInfo": {"cardNumFive": "", "isSupportYj": "", "cityName": null, "districtName": null, "shopinfo": {"mid": null, "good_flag": null, "new_flag": null, "short_name": null, "short_name_pinyin": null, "status": null, "address": "", "name": "", "id": null}, "mid": null, "shopId": null, "netid": null, "province": 901, "district": null, "zipcode": null, "telephone": null, "posDate": null, "destineTel": null, "togoTel": null, "trafficWay": null, "signBuilding": null, "businessArea": null, "selfRoom": null, "businessTime": null, "stall": null, "consume": null, "serviceFei": null, "favourable": null, "shopMemo": "1", "appraise": null, "website": null, "memo": null, "payTypes": "", "shopTypes": "", "consumeTypes": null, "cookTypes": null, "orderNum": null, "card4no": null, "card4noAcc": null, "district2": null, "searchScope": null, "status": null, "address": "", "name": null, "id": null, "pageNo": 862, "pageCount": null, "pageSize": 10, "ids": null, "endTime": null, "startTime": null}, "list": [{"cardNumFive": null, "isSupportYj": null, "cityName": null, "districtName": null, "shopinfo": {"mid": "888888854110023", "good_flag": null, "new_flag": null, "short_name": "\u8fea\u4e9a\u5929\u5929", "short_name_pinyin": "tiyatiantian", "status": null, "address": null, "name": null, "id": "43123"}, "mid": "888888854110023", "shopId": "43123", "netid": null, "province": 901, "district": 601, "zipcode": null, "telephone": "59761253/27724479", "posDate": null, "destineTel": null, "togoTel": null, "trafficWay": null, "signBuilding": null, "businessArea": null, "selfRoom": null, "businessTime": null, "stall": null, "consume": null, "serviceFei": null, "favourable": null, "shopMemo": null, "appraise": null, "website": null, "memo": null, "payTypes": "\u6749\u5fb7\u5361", "shopTypes": "\u4fbf\u5229\u5e97", "consumeTypes": null, "cookTypes": null, "orderNum": 1000, "card4no": null, "card4noAcc": null, "district2": 417, "searchScope": null, "status": 1, "address": "\u5f90\u6cfe\u4e2d\u8def1008-1012\u53f7", "name": "\u8fea\u4e9a\u5929\u5929 \u8fea\u4e9a\u5929\u5929\u5f90\u6cfe\u5e97", "id": 192790, "pageNo": 0, "pageCount": null, "pageSize": 10, "ids": null, "endTime": null, "startTime": null}, {"cardNumFive": null, "isSupportYj": null, "cityName": null, "districtName": null, "shopinfo": {"mid": "888888854110023", "good_flag": null, "new_flag": null, "short_name": "\u8fea\u4e9a\u5929\u5929", "short_name_pinyin": "tiyatiantian", "status": null, "address": null, "name": null, "id": "43123"}, "mid": "888888854110023", "shopId": "43123", "netid": null, "province": 901, "district": 601, "zipcode": null, "telephone": "64307214/13918277146", "posDate": null, "destineTel": null, "togoTel": null, "trafficWay": null, "signBuilding": null, "businessArea": null, "selfRoom": null, "businessTime": null, "stall": null, "consume": null, "serviceFei": null, "favourable": null, "shopMemo": null, "appraise": null, "website": null, "memo": null, "payTypes": "\u6749\u5fb7\u5361", "shopTypes": "\u4fbf\u5229\u5e97", "consumeTypes": null, "cookTypes": null, "orderNum": 1000, "card4no": null, "card4noAcc": null, "district2": 409, "searchScope": null, "status": 1, "address": "\u9e64\u5e86\u8def315\u53f7", "name": "\u8fea\u4e9a\u5929\u5929 \u8fea\u4e9a\u5929\u5929\u9e64\u5e86\u5e97", "id": 192791, "pageNo": 0, "pageCount": null, "pageSize": 10, "ids": null, "endTime": null, "startTime": null}, {"cardNumFive": null, "isSupportYj": null, "cityName": null, "districtName": null, "shopinfo": {"mid": "888888854110023", "good_flag": null, "new_flag": null, "short_name": "\u8fea\u4e9a\u5929\u5929", "short_name_pinyin": "tiyatiantian", "status": null, "address": null, "name": null, "id": "43123"}, "mid": "888888854110023", "shopId": "43123", "netid": null, "province": 901, "district": 601, "zipcode": null, "telephone": "65186591/13918951922", "posDate": null, "destineTel": null, "togoTel": null, "trafficWay": null, "signBuilding": null, "businessArea": null, "selfRoom": null, "businessTime": null, "stall": null, "consume": null, "serviceFei": null, "favourable": null, "shopMemo": null, "appraise": null, "website": null, "memo": null, "payTypes": "\u6749\u5fb7\u5361", "shopTypes": "\u4fbf\u5229\u5e97", "consumeTypes": null, "cookTypes": null, "orderNum": 1000, "card4no": null, "card4noAcc": null, "district2": 407, "searchScope": null, "status": 1, "address": "\u9ec4\u5174\u8def1100\u53f7", "name": "\u8fea\u4e9a\u5929\u5929 \u8fea\u4e9a\u5929\u5929\u9ec4\u5174\u5e97", "id": 192792, "pageNo": 0, "pageCount": null, "pageSize": 10, "ids": null, "endTime": null, "startTime": null}, {"cardNumFive": null, "isSupportYj": null, "cityName": null, "districtName": null, "shopinfo": {"mid": "888888854110023", "good_flag": null, "new_flag": null, "short_name": "\u8fea\u4e9a\u5929\u5929", "short_name_pinyin": "tiyatiantian", "status": null, "address": null, "name": null, "id": "43123"}, "mid": "888888854110023", "shopId": "43123", "netid": null, "province": 901, "district": 601, "zipcode": null, "telephone": "56163024/13816323732", "posDate": null, "destineTel": null, "togoTel": null, "trafficWay": null, "signBuilding": null, "businessArea": null, "selfRoom": null, "businessTime": null, "stall": null, "consume": null, "serviceFei": null, "favourable": null, "shopMemo": null, "appraise": null, "website": null, "memo": null, "payTypes": "\u6749\u5fb7\u5361", "shopTypes": "\u4fbf\u5229\u5e97", "consumeTypes": null, "cookTypes": null, "orderNum": 1000, "card4no": null, "card4noAcc": null, "district2": 416, "searchScope": null, "status": 1, "address": "\u540c\u6cf0\u5317\u8def451\u53f7", "name": "\u8fea\u4e9a\u5929\u5929 \u8fea\u4e9a\u5929\u5929\u540c\u6cf0\u5317\u8def\u5e97", "id": 192793, "pageNo": 0, "pageCount": null, "pageSize": 10, "ids": null, "endTime": null, "startTime": null}, {"cardNumFive": null, "isSupportYj": null, "cityName": null, "districtName": null, "shopinfo": {"mid": "888888854110023", "good_flag": null, "new_flag": null, "short_name": "\u8fea\u4e9a\u5929\u5929", "short_name_pinyin": "tiyatiantian", "status": null, "address": null, "name": null, "id": "43123"}, "mid": "888888854110023", "shopId": "43123", "netid": null, "province": 901, "district": 601, "zipcode": null, "telephone": "56734112/13818166908", "posDate": null, "destineTel": null, "togoTel": null, "trafficWay": null, "signBuilding": null, "businessArea": null, "selfRoom": null, "businessTime": null, "stall": null, "consume": null, "serviceFei": null, "favourable": null, "shopMemo": null, "appraise": null, "website": null, "memo": null, "payTypes": "\u6749\u5fb7\u5361", "shopTypes": "\u4fbf\u5229\u5e97", "consumeTypes": null, "cookTypes": null, "orderNum": 1000, "card4no": null, "card4noAcc": null, "district2": 416, "searchScope": null, "status": 1, "address": "\u864e\u6797\u8def275\u53f7", "name": "\u8fea\u4e9a\u5929\u5929 \u8fea\u4e9a\u5929\u5929\u864e\u6797\u5e97", "id": 192794, "pageNo": 0, "pageCount": null, "pageSize": 10, "ids": null, "endTime": null, "startTime": null}, {"cardNumFive": null, "isSupportYj": null, "cityName": null, "districtName": null, "shopinfo": {"mid": "888888854110023", "good_flag": null, "new_flag": null, "short_name": "\u8fea\u4e9a\u5929\u5929", "short_name_pinyin": "tiyatiantian", "status": null, "address": null, "name": null, "id": "43123"}, "mid": "888888854110023", "shopId": "43123", "netid": null, "province": 901, "district": 601, "zipcode": null, "telephone": "68306860/13816799660", "posDate": null, "destineTel": null, "togoTel": null, "trafficWay": null, "signBuilding": null, "businessArea": null, "selfRoom": null, "businessTime": null, "stall": null, "consume": null, "serviceFei": null, "favourable": null, "shopMemo": null, "appraise": null, "website": null, "memo": null, "payTypes": "\u6749\u5fb7\u5361", "shopTypes": "\u4fbf\u5229\u5e97", "consumeTypes": null, "cookTypes": null, "orderNum": 1000, "card4no": null, "card4noAcc": null, "district2": 418, "searchScope": null, "status": 1, "address": "\u7075\u5ca9\u5357\u8def1133\u53f7", "name": "\u8fea\u4e9a\u5929\u5929 \u8fea\u4e9a\u5929\u5929\u7075\u5ca9\u5e97", "id": 192795, "pageNo": 0, "pageCount": null, "pageSize": 10, "ids": null, "endTime": null, "startTime": null}, {"cardNumFive": null, "isSupportYj": null, "cityName": null, "districtName": null, "shopinfo": {"mid": "888888854110023", "good_flag": null, "new_flag": null, "short_name": "\u8fea\u4e9a\u5929\u5929", "short_name_pinyin": "tiyatiantian", "status": null, "address": null, "name": null, "id": "43123"}, "mid": "888888854110023", "shopId": "43123", "netid": null, "province": 901, "district": 601, "zipcode": null, "telephone": "63779074/13918104007", "posDate": null, "destineTel": null, "togoTel": null, "trafficWay": null, "signBuilding": null, "businessArea": null, "selfRoom": null, "businessTime": null, "stall": null, "consume": null, "serviceFei": null, "favourable": null, "shopMemo": null, "appraise": null, "website": null, "memo": null, "payTypes": "\u6749\u5fb7\u5361", "shopTypes": "\u4fbf\u5229\u5e97", "consumeTypes": null, "cookTypes": null, "orderNum": 1000, "card4no": null, "card4noAcc": null, "district2": 401, "searchScope": null, "status": 1, "address": "\u4e2d\u534e\u8def1009\u53f7", "name": "\u8fea\u4e9a\u5929\u5929 \u8fea\u4e9a\u5929\u5929\u4e2d\u534e\u5e97", "id": 192796, "pageNo": 0, "pageCount": null, "pageSize": 10, "ids": null, "endTime": null, "startTime": null}, {"cardNumFive": null, "isSupportYj": null, "cityName": null, "districtName": null, "shopinfo": {"mid": "888888854110023", "good_flag": null, "new_flag": null, "short_name": "\u8fea\u4e9a\u5929\u5929", "short_name_pinyin": "tiyatiantian", "status": null, "address": null, "name": null, "id": "43123"}, "mid": "888888854110023", "shopId": "43123", "netid": null, "province": 901, "district": 601, "zipcode": null, "telephone": "56883000/13052030167", "posDate": null, "destineTel": null, "togoTel": null, "trafficWay": null, "signBuilding": null, "businessArea": null, "selfRoom": null, "businessTime": null, "stall": null, "consume": null, "serviceFei": null, "favourable": null, "shopMemo": null, "appraise": null, "website": null, "memo": null, "payTypes": "\u6749\u5fb7\u5361", "shopTypes": "\u4fbf\u5229\u5e97", "consumeTypes": null, "cookTypes": null, "orderNum": 1000, "card4no": null, "card4noAcc": null, "district2": 410, "searchScope": null, "status": 1, "address": "\u4fdd\u5fb7\u8def418-432\u53f7", "name": "\u8fea\u4e9a\u5929\u5929 \u8fea\u4e9a\u5929\u5929\u9633\u66f2\u5e97", "id": 192797, "pageNo": 0, "pageCount": null, "pageSize": 10, "ids": null, "endTime": null, "startTime": null}, {"cardNumFive": null, "isSupportYj": null, "cityName": null, "districtName": null, "shopinfo": {"mid": "888888854110023", "good_flag": null, "new_flag": null, "short_name": "\u8fea\u4e9a\u5929\u5929", "short_name_pinyin": "tiyatiantian", "status": null, "address": null, "name": null, "id": "43123"}, "mid": "888888854110023", "shopId": "43123", "netid": null, "province": 901, "district": 601, "zipcode": null, "telephone": "55824898/13918951922", "posDate": null, "destineTel": null, "togoTel": null, "trafficWay": null, "signBuilding": null, "businessArea": null, "selfRoom": null, "businessTime": null, "stall": null, "consume": null, "serviceFei": null, "favourable": null, "shopMemo": null, "appraise": null, "website": null, "memo": null, "payTypes": "\u6749\u5fb7\u5361", "shopTypes": "\u4fbf\u5229\u5e97", "consumeTypes": null, "cookTypes": null, "orderNum": 1000, "card4no": null, "card4noAcc": null, "district2": 407, "searchScope": null, "status": 1, "address": "\u5ef6\u5409\u4e1c\u8def317\u53f7", "name": "\u8fea\u4e9a\u5929\u5929 \u8fea\u4e9a\u5929\u5929\u5ef6\u5409\u4e1c\u8def", "id": 192798, "pageNo": 0, "pageCount": null, "pageSize": 10, "ids": null, "endTime": null, "startTime": null}, {"cardNumFive": null, "isSupportYj": null, "cityName": null, "districtName": null, "shopinfo": {"mid": "888888854110023", "good_flag": null, "new_flag": null, "short_name": "\u8fea\u4e9a\u5929\u5929", "short_name_pinyin": "tiyatiantian", "status": null, "address": null, "name": null, "id": "43123"}, "mid": "888888854110023", "shopId": "43123", "netid": null, "province": 901, "district": 601, "zipcode": null, "telephone": "54990342/13311876010", "posDate": null, "destineTel": null, "togoTel": null, "trafficWay": null, "signBuilding": null, "businessArea": null, "selfRoom": null, "businessTime": null, "stall": null, "consume": null, "serviceFei": null, "favourable": null, "shopMemo": null, "appraise": null, "website": null, "memo": null, "payTypes": "\u6749\u5fb7\u5361", "shopTypes": "\u4fbf\u5229\u5e97", "consumeTypes": null, "cookTypes": null, "orderNum": 1000, "card4no": null, "card4noAcc": null, "district2": 409, "searchScope": null, "status": 1, "address": "\u7f57\u9526\u8def939\u53f7", "name": "\u8fea\u4e9a\u5929\u5929 \u8fea\u4e9a\u5929\u5929\u7f57\u9526\u5e97", "id": 192800, "pageNo": 0, "pageCount": null, "pageSize": 10, "ids": null, "endTime": null, "startTime": null}], "pageLimit": 8620, "size": 10}