{"pageCount": 1095, "count": 10942, "pageNo": 874, "subShopInfo": {"cardNumFive": "", "isSupportYj": "", "cityName": null, "districtName": null, "shopinfo": {"mid": null, "good_flag": null, "new_flag": null, "short_name": null, "short_name_pinyin": null, "status": null, "address": "", "name": "", "id": null}, "mid": null, "shopId": null, "netid": null, "province": 901, "district": null, "zipcode": null, "telephone": null, "posDate": null, "destineTel": null, "togoTel": null, "trafficWay": null, "signBuilding": null, "businessArea": null, "selfRoom": null, "businessTime": null, "stall": null, "consume": null, "serviceFei": null, "favourable": null, "shopMemo": "1", "appraise": null, "website": null, "memo": null, "payTypes": "", "shopTypes": "", "consumeTypes": null, "cookTypes": null, "orderNum": null, "card4no": null, "card4noAcc": null, "district2": null, "searchScope": null, "status": null, "address": "", "name": null, "id": null, "pageNo": 873, "pageCount": null, "pageSize": 10, "ids": null, "endTime": null, "startTime": null}, "list": [{"cardNumFive": null, "isSupportYj": null, "cityName": null, "districtName": null, "shopinfo": {"mid": "888888854110023", "good_flag": null, "new_flag": null, "short_name": "\u8fea\u4e9a\u5929\u5929", "short_name_pinyin": "tiyatiantian", "status": null, "address": null, "name": null, "id": "43123"}, "mid": "888888854110023", "shopId": "43123", "netid": null, "province": 901, "district": 601, "zipcode": null, "telephone": "50368282*226", "posDate": null, "destineTel": null, "togoTel": null, "trafficWay": null, "signBuilding": null, "businessArea": null, "selfRoom": null, "businessTime": null, "stall": null, "consume": null, "serviceFei": null, "favourable": null, "shopMemo": null, "appraise": null, "website": null, "memo": null, "payTypes": "\u6749\u5fb7\u5361", "shopTypes": "\u4fbf\u5229\u5e97", "consumeTypes": null, "cookTypes": null, "orderNum": 1000, "card4no": null, "card4noAcc": null, "district2": 418, "searchScope": null, "status": 1, "address": "\u83b2\u6eaa\u8def156\u53f7(\u8fd1\u5317\u4e2d\u8def)", "name": "\u8fea\u4e9a\u5929\u5929 \u4e0a\u6d77\u8fea\u4e9a\u8054\u534e\u96f6\u552e\u6709\u9650\u516c\u53f8(\u8fea\u4e9a\u5929\u5929\u83b2\u6eaa\u5e97)", "id": 192907, "pageNo": 0, "pageCount": null, "pageSize": 10, "ids": null, "endTime": null, "startTime": null}, {"cardNumFive": null, "isSupportYj": null, "cityName": null, "districtName": null, "shopinfo": {"mid": "888888854110023", "good_flag": null, "new_flag": null, "short_name": "\u8fea\u4e9a\u5929\u5929", "short_name_pinyin": "tiyatiantian", "status": null, "address": null, "name": null, "id": "43123"}, "mid": "888888854110023", "shopId": "43123", "netid": null, "province": 901, "district": 601, "zipcode": null, "telephone": "50368282*226", "posDate": null, "destineTel": null, "togoTel": null, "trafficWay": null, "signBuilding": null, "businessArea": null, "selfRoom": null, "businessTime": null, "stall": null, "consume": null, "serviceFei": null, "favourable": null, "shopMemo": null, "appraise": null, "website": null, "memo": null, "payTypes": "\u6749\u5fb7\u5361", "shopTypes": "\u4fbf\u5229\u5e97", "consumeTypes": null, "cookTypes": null, "orderNum": 1000, "card4no": null, "card4noAcc": null, "district2": 418, "searchScope": null, "status": 1, "address": "\u6768\u5357\u8def649-659\uff08980\u516c\u4ea4\u7ec8\u70b9\u7ad9\u659c\u5bf9\u9762\uff09", "name": "\u8fea\u4e9a\u5929\u5929 \u4e0a\u6d77\u8fea\u4e9a\u8054\u534e\u96f6\u552e\u6709\u9650\u516c\u53f8(\u8fea\u4e9a\u5929\u5929\u6768\u5357\u5e97)", "id": 192908, "pageNo": 0, "pageCount": null, "pageSize": 10, "ids": null, "endTime": null, "startTime": null}, {"cardNumFive": null, "isSupportYj": null, "cityName": null, "districtName": null, "shopinfo": {"mid": "888888854110023", "good_flag": null, "new_flag": null, "short_name": "\u8fea\u4e9a\u5929\u5929", "short_name_pinyin": "tiyatiantian", "status": null, "address": null, "name": null, "id": "43123"}, "mid": "888888854110023", "shopId": "43123", "netid": null, "province": 901, "district": 601, "zipcode": null, "telephone": "50368282*226", "posDate": null, "destineTel": null, "togoTel": null, "trafficWay": null, "signBuilding": null, "businessArea": null, "selfRoom": null, "businessTime": null, "stall": null, "consume": null, "serviceFei": null, "favourable": null, "shopMemo": null, "appraise": null, "website": null, "memo": null, "payTypes": "\u6749\u5fb7\u5361", "shopTypes": "\u4fbf\u5229\u5e97", "consumeTypes": null, "cookTypes": null, "orderNum": 1000, "card4no": null, "card4noAcc": null, "district2": 401, "searchScope": null, "status": 1, "address": "\u77bf\u6eaa\u8def887\u53f7", "name": "\u8fea\u4e9a\u5929\u5929 \u8fea\u4e9a\u5929\u5929\u77bf\u6eaa\u4e8c\u5e97", "id": 192909, "pageNo": 0, "pageCount": null, "pageSize": 10, "ids": null, "endTime": null, "startTime": null}, {"cardNumFive": null, "isSupportYj": null, "cityName": null, "districtName": null, "shopinfo": {"mid": "888888854110023", "good_flag": null, "new_flag": null, "short_name": "\u8fea\u4e9a\u5929\u5929", "short_name_pinyin": "tiyatiantian", "status": null, "address": null, "name": null, "id": "43123"}, "mid": "888888854110023", "shopId": "43123", "netid": null, "province": 901, "district": 601, "zipcode": null, "telephone": "50368282*226", "posDate": null, "destineTel": null, "togoTel": null, "trafficWay": null, "signBuilding": null, "businessArea": null, "selfRoom": null, "businessTime": null, "stall": null, "consume": null, "serviceFei": null, "favourable": null, "shopMemo": null, "appraise": null, "website": null, "memo": null, "payTypes": "\u6749\u5fb7\u5361", "shopTypes": "\u4fbf\u5229\u5e97", "consumeTypes": null, "cookTypes": null, "orderNum": 1000, "card4no": null, "card4noAcc": null, "district2": 418, "searchScope": null, "status": 1, "address": "\u5468\u6d66\u9547\u5eb7\u6c88\u516c\u8def1418\u53f7", "name": "\u8fea\u4e9a\u5929\u5929 \u4e0a\u6d77\u8fea\u4e9a\u8054\u534e\u96f6\u552e\u6709\u9650\u516c\u53f8(\u8fea\u4e9a\u5929\u5929\u5eb7\u6c88\u516c\u8def\u5e97)", "id": 192910, "pageNo": 0, "pageCount": null, "pageSize": 10, "ids": null, "endTime": null, "startTime": null}, {"cardNumFive": null, "isSupportYj": null, "cityName": null, "districtName": null, "shopinfo": {"mid": "888888854110023", "good_flag": null, "new_flag": null, "short_name": "\u8fea\u4e9a\u5929\u5929", "short_name_pinyin": "tiyatiantian", "status": null, "address": null, "name": null, "id": "43123"}, "mid": "888888854110023", "shopId": "43123", "netid": null, "province": 901, "district": 601, "zipcode": null, "telephone": "50368282*226", "posDate": null, "destineTel": null, "togoTel": null, "trafficWay": null, "signBuilding": null, "businessArea": null, "selfRoom": null, "businessTime": null, "stall": null, "consume": null, "serviceFei": null, "favourable": null, "shopMemo": null, "appraise": null, "website": null, "memo": null, "payTypes": "\u6749\u5fb7\u5361", "shopTypes": "\u4fbf\u5229\u5e97", "consumeTypes": null, "cookTypes": null, "orderNum": 1000, "card4no": null, "card4noAcc": null, "district2": 408, "searchScope": null, "status": 1, "address": "\u5409\u7965\u8def69\u53f7", "name": "\u8fea\u4e9a\u5929\u5929 \u8fea\u4e9a\u5929\u5929\u5409\u7965\u5e97", "id": 192911, "pageNo": 0, "pageCount": null, "pageSize": 10, "ids": null, "endTime": null, "startTime": null}, {"cardNumFive": null, "isSupportYj": null, "cityName": null, "districtName": null, "shopinfo": {"mid": "888888854110023", "good_flag": null, "new_flag": null, "short_name": "\u8fea\u4e9a\u5929\u5929", "short_name_pinyin": "tiyatiantian", "status": null, "address": null, "name": null, "id": "43123"}, "mid": "888888854110023", "shopId": "43123", "netid": null, "province": 901, "district": 601, "zipcode": null, "telephone": "50368282*226", "posDate": null, "destineTel": null, "togoTel": null, "trafficWay": null, "signBuilding": null, "businessArea": null, "selfRoom": null, "businessTime": null, "stall": null, "consume": null, "serviceFei": null, "favourable": null, "shopMemo": null, "appraise": null, "website": null, "memo": null, "payTypes": "\u6749\u5fb7\u5361", "shopTypes": "\u4fbf\u5229\u5e97", "consumeTypes": null, "cookTypes": null, "orderNum": 1000, "card4no": null, "card4noAcc": null, "district2": 416, "searchScope": null, "status": 1, "address": "\u5171\u5eb7\u4e1c\u8def129\u53f7", "name": "\u8fea\u4e9a\u5929\u5929 \u4e0a\u6d77\u8fea\u4e9a\u8054\u534e\u96f6\u552e\u6709\u9650\u516c\u53f8(\u8fea\u4e9a\u5929\u5929\u5171\u5eb7\u4e1c\u5e97)", "id": 192912, "pageNo": 0, "pageCount": null, "pageSize": 10, "ids": null, "endTime": null, "startTime": null}, {"cardNumFive": null, "isSupportYj": null, "cityName": null, "districtName": null, "shopinfo": {"mid": "888888854110023", "good_flag": null, "new_flag": null, "short_name": "\u8fea\u4e9a\u5929\u5929", "short_name_pinyin": "tiyatiantian", "status": null, "address": null, "name": null, "id": "43123"}, "mid": "888888854110023", "shopId": "43123", "netid": null, "province": 901, "district": 601, "zipcode": null, "telephone": "50368282*226", "posDate": null, "destineTel": null, "togoTel": null, "trafficWay": null, "signBuilding": null, "businessArea": null, "selfRoom": null, "businessTime": null, "stall": null, "consume": null, "serviceFei": null, "favourable": null, "shopMemo": null, "appraise": null, "website": null, "memo": null, "payTypes": "\u6749\u5fb7\u5361", "shopTypes": "\u4fbf\u5229\u5e97", "consumeTypes": null, "cookTypes": null, "orderNum": 1000, "card4no": null, "card4noAcc": null, "district2": 416, "searchScope": null, "status": 1, "address": "\u771f\u91d1\u8def1041\u53f7", "name": "\u8fea\u4e9a\u5929\u5929 \u8fea\u4e9a\u5929\u5929\u771f\u91d1\u5e97", "id": 192913, "pageNo": 0, "pageCount": null, "pageSize": 10, "ids": null, "endTime": null, "startTime": null}, {"cardNumFive": null, "isSupportYj": null, "cityName": null, "districtName": null, "shopinfo": {"mid": "888888854110023", "good_flag": null, "new_flag": null, "short_name": "\u8fea\u4e9a\u5929\u5929", "short_name_pinyin": "tiyatiantian", "status": null, "address": null, "name": null, "id": "43123"}, "mid": "888888854110023", "shopId": "43123", "netid": null, "province": 901, "district": 601, "zipcode": null, "telephone": "50368282*226", "posDate": null, "destineTel": null, "togoTel": null, "trafficWay": null, "signBuilding": null, "businessArea": null, "selfRoom": null, "businessTime": null, "stall": null, "consume": null, "serviceFei": null, "favourable": null, "shopMemo": null, "appraise": null, "website": null, "memo": null, "payTypes": "\u6749\u5fb7\u5361", "shopTypes": "\u4fbf\u5229\u5e97", "consumeTypes": null, "cookTypes": null, "orderNum": 1000, "card4no": null, "card4noAcc": null, "district2": 409, "searchScope": null, "status": 1, "address": "\u94f6\u90fd\u8def3260-3268\u53f7", "name": "\u8fea\u4e9a\u5929\u5929 \u8fea\u4e9a\u5929\u5929\u94f6\u90fd\u5e97", "id": 192914, "pageNo": 0, "pageCount": null, "pageSize": 10, "ids": null, "endTime": null, "startTime": null}, {"cardNumFive": null, "isSupportYj": null, "cityName": null, "districtName": null, "shopinfo": {"mid": "888888854110023", "good_flag": null, "new_flag": null, "short_name": "\u8fea\u4e9a\u5929\u5929", "short_name_pinyin": "tiyatiantian", "status": null, "address": null, "name": null, "id": "43123"}, "mid": "888888854110023", "shopId": "43123", "netid": null, "province": 901, "district": 601, "zipcode": null, "telephone": "50368282*226", "posDate": null, "destineTel": null, "togoTel": null, "trafficWay": null, "signBuilding": null, "businessArea": null, "selfRoom": null, "businessTime": null, "stall": null, "consume": null, "serviceFei": null, "favourable": null, "shopMemo": null, "appraise": null, "website": null, "memo": null, "payTypes": "\u6749\u5fb7\u5361", "shopTypes": "\u4fbf\u5229\u5e97", "consumeTypes": null, "cookTypes": null, "orderNum": 1000, "card4no": null, "card4noAcc": null, "district2": 416, "searchScope": null, "status": 1, "address": "\u6dde\u5357\u8def459-7\u53f7", "name": "\u8fea\u4e9a\u5929\u5929 \u4e0a\u6d77\u8fea\u4e9a\u8054\u534e\u96f6\u552e\u6709\u9650\u516c\u53f8(\u8fea\u4e9a\u5929\u5929\u6dde\u5357\u5e97)", "id": 192915, "pageNo": 0, "pageCount": null, "pageSize": 10, "ids": null, "endTime": null, "startTime": null}, {"cardNumFive": null, "isSupportYj": null, "cityName": null, "districtName": null, "shopinfo": {"mid": "888888854110023", "good_flag": null, "new_flag": null, "short_name": "\u8fea\u4e9a\u5929\u5929", "short_name_pinyin": "tiyatiantian", "status": null, "address": null, "name": null, "id": "43123"}, "mid": "888888854110023", "shopId": "43123", "netid": null, "province": 901, "district": 601, "zipcode": null, "telephone": "50368282*226", "posDate": null, "destineTel": null, "togoTel": null, "trafficWay": null, "signBuilding": null, "businessArea": null, "selfRoom": null, "businessTime": null, "stall": null, "consume": null, "serviceFei": null, "favourable": null, "shopMemo": null, "appraise": null, "website": null, "memo": null, "payTypes": "\u6749\u5fb7\u5361", "shopTypes": "\u4fbf\u5229\u5e97", "consumeTypes": null, "cookTypes": null, "orderNum": 1000, "card4no": null, "card4noAcc": null, "district2": 409, "searchScope": null, "status": 1, "address": "\u9752\u6749\u8def369\u53f7", "name": "\u8fea\u4e9a\u5929\u5929 \u4e0a\u6d77\u8fea\u4e9a\u8054\u534e\u96f6\u552e\u6709\u9650\u516c\u53f8(\u8fea\u4e9a\u5929\u5929\u9752\u6749\u8def\u5e97)", "id": 192916, "pageNo": 0, "pageCount": null, "pageSize": 10, "ids": null, "endTime": null, "startTime": null}], "pageLimit": 8730, "size": 10}