{"pageCount": 1095, "count": 10942, "pageNo": 881, "subShopInfo": {"cardNumFive": "", "isSupportYj": "", "cityName": null, "districtName": null, "shopinfo": {"mid": null, "good_flag": null, "new_flag": null, "short_name": null, "short_name_pinyin": null, "status": null, "address": "", "name": "", "id": null}, "mid": null, "shopId": null, "netid": null, "province": 901, "district": null, "zipcode": null, "telephone": null, "posDate": null, "destineTel": null, "togoTel": null, "trafficWay": null, "signBuilding": null, "businessArea": null, "selfRoom": null, "businessTime": null, "stall": null, "consume": null, "serviceFei": null, "favourable": null, "shopMemo": "1", "appraise": null, "website": null, "memo": null, "payTypes": "", "shopTypes": "", "consumeTypes": null, "cookTypes": null, "orderNum": null, "card4no": null, "card4noAcc": null, "district2": null, "searchScope": null, "status": null, "address": "", "name": null, "id": null, "pageNo": 880, "pageCount": null, "pageSize": 10, "ids": null, "endTime": null, "startTime": null}, "list": [{"cardNumFive": null, "isSupportYj": null, "cityName": null, "districtName": null, "shopinfo": {"mid": "888002154110013", "good_flag": null, "new_flag": "2", "short_name": "\u8fea\u4e9a\u5929\u5929", "short_name_pinyin": "tiyatiantian", "status": null, "address": null, "name": null, "id": "43124"}, "mid": "888002154110013", "shopId": "43124", "netid": null, "province": 901, "district": 601, "zipcode": null, "telephone": "50368282-293", "posDate": null, "destineTel": null, "togoTel": null, "trafficWay": null, "signBuilding": null, "businessArea": null, "selfRoom": null, "businessTime": null, "stall": null, "consume": null, "serviceFei": null, "favourable": null, "shopMemo": null, "appraise": null, "website": null, "memo": null, "payTypes": "\u6749\u5fb7\u5361", "shopTypes": "\u4fbf\u5229\u5e97", "consumeTypes": null, "cookTypes": null, "orderNum": 1000, "card4no": null, "card4noAcc": null, "district2": 411, "searchScope": null, "status": 1, "address": "\u9756\u8fdc\u8def721\u53f7", "name": "\u8fea\u4e9a\u5929\u5929 \u8fea\u4e9a\u5929\u5929\u9756\u8fdc\u5e97", "id": 192982, "pageNo": 0, "pageCount": null, "pageSize": 10, "ids": null, "endTime": null, "startTime": null}, {"cardNumFive": null, "isSupportYj": null, "cityName": null, "districtName": null, "shopinfo": {"mid": "888002154110013", "good_flag": null, "new_flag": "2", "short_name": "\u8fea\u4e9a\u5929\u5929", "short_name_pinyin": "tiyatiantian", "status": null, "address": null, "name": null, "id": "43124"}, "mid": "888002154110013", "shopId": "43124", "netid": null, "province": 901, "district": 601, "zipcode": null, "telephone": "50368282/50368282*203", "posDate": null, "destineTel": null, "togoTel": null, "trafficWay": null, "signBuilding": null, "businessArea": null, "selfRoom": null, "businessTime": null, "stall": null, "consume": null, "serviceFei": null, "favourable": null, "shopMemo": null, "appraise": null, "website": null, "memo": null, "payTypes": "\u6749\u5fb7\u5361", "shopTypes": "\u4fbf\u5229\u5e97", "consumeTypes": null, "cookTypes": null, "orderNum": 1000, "card4no": null, "card4noAcc": null, "district2": 409, "searchScope": null, "status": 1, "address": "\u95f5\u884c\u533a\u6d66\u96ea\u8def269\u53f7\u5e95\u5c42\u897f\u4fa7", "name": "\u8fea\u4e9a\u5929\u5929 \u8fea\u4e9a\u5929\u5929\u6c5f\u56ed\u5e97", "id": 192983, "pageNo": 0, "pageCount": null, "pageSize": 10, "ids": null, "endTime": null, "startTime": null}, {"cardNumFive": null, "isSupportYj": null, "cityName": null, "districtName": null, "shopinfo": {"mid": "888002154110013", "good_flag": null, "new_flag": "2", "short_name": "\u8fea\u4e9a\u5929\u5929", "short_name_pinyin": "tiyatiantian", "status": null, "address": null, "name": null, "id": "43124"}, "mid": "888002154110013", "shopId": "43124", "netid": null, "province": 901, "district": 601, "zipcode": null, "telephone": "50368282/50368282*203", "posDate": null, "destineTel": null, "togoTel": null, "trafficWay": null, "signBuilding": null, "businessArea": null, "selfRoom": null, "businessTime": null, "stall": null, "consume": null, "serviceFei": null, "favourable": null, "shopMemo": null, "appraise": null, "website": null, "memo": null, "payTypes": "\u6749\u5fb7\u5361", "shopTypes": "\u4fbf\u5229\u5e97", "consumeTypes": null, "cookTypes": null, "orderNum": 1000, "card4no": null, "card4noAcc": null, "district2": 403, "searchScope": null, "status": 1, "address": "\u5f90\u6c47\u533a\u6842\u5e73\u8def188\u53f71\u697c101\u5ba4", "name": "\u8fea\u4e9a\u5929\u5929 \u8fea\u4e9a\u5929\u5929\u6842\u5e73\u5e97", "id": 192984, "pageNo": 0, "pageCount": null, "pageSize": 10, "ids": null, "endTime": null, "startTime": null}, {"cardNumFive": null, "isSupportYj": null, "cityName": null, "districtName": null, "shopinfo": {"mid": "888002154110013", "good_flag": null, "new_flag": "2", "short_name": "\u8fea\u4e9a\u5929\u5929", "short_name_pinyin": "tiyatiantian", "status": null, "address": null, "name": null, "id": "43124"}, "mid": "888002154110013", "shopId": "43124", "netid": null, "province": 901, "district": 601, "zipcode": null, "telephone": "55610607/50368282*203", "posDate": null, "destineTel": null, "togoTel": null, "trafficWay": null, "signBuilding": null, "businessArea": null, "selfRoom": null, "businessTime": null, "stall": null, "consume": null, "serviceFei": null, "favourable": null, "shopMemo": null, "appraise": null, "website": null, "memo": null, "payTypes": "\u6749\u5fb7\u5361", "shopTypes": "\u4fbf\u5229\u5e97", "consumeTypes": null, "cookTypes": null, "orderNum": 1000, "card4no": null, "card4noAcc": null, "district2": 407, "searchScope": null, "status": 1, "address": "\u6768\u6d66\u533a\u6052\u4ec1\u8def41-43\u53f7", "name": "\u8fea\u4e9a\u5929\u5929 \u8fea\u4e9a\u5929\u5929\u6052\u4ec1\u5e97", "id": 192985, "pageNo": 0, "pageCount": null, "pageSize": 10, "ids": null, "endTime": null, "startTime": null}, {"cardNumFive": null, "isSupportYj": null, "cityName": null, "districtName": null, "shopinfo": {"mid": "888002154110013", "good_flag": null, "new_flag": "2", "short_name": "\u8fea\u4e9a\u5929\u5929", "short_name_pinyin": "tiyatiantian", "status": null, "address": null, "name": null, "id": "43124"}, "mid": "888002154110013", "shopId": "43124", "netid": null, "province": 901, "district": 601, "zipcode": null, "telephone": "50368282-203", "posDate": null, "destineTel": null, "togoTel": null, "trafficWay": null, "signBuilding": null, "businessArea": null, "selfRoom": null, "businessTime": null, "stall": null, "consume": null, "serviceFei": null, "favourable": null, "shopMemo": null, "appraise": null, "website": null, "memo": null, "payTypes": "\u6749\u5fb7\u5361", "shopTypes": "\u4fbf\u5229\u5e97", "consumeTypes": null, "cookTypes": null, "orderNum": 1000, "card4no": null, "card4noAcc": null, "district2": 407, "searchScope": null, "status": 1, "address": "\u6768\u6d66\u533a\u5409\u6d66\u8def329\u53f7\u4e00\u5c42\u5357\u4fa7", "name": "\u8fea\u4e9a\u5929\u5929 \u8fea\u4e9a\u5929\u5929\u5409\u6d66\u5e97", "id": 192986, "pageNo": 0, "pageCount": null, "pageSize": 10, "ids": null, "endTime": null, "startTime": null}, {"cardNumFive": null, "isSupportYj": null, "cityName": null, "districtName": null, "shopinfo": {"mid": "888002154110013", "good_flag": null, "new_flag": "2", "short_name": "\u8fea\u4e9a\u5929\u5929", "short_name_pinyin": "tiyatiantian", "status": null, "address": null, "name": null, "id": "43124"}, "mid": "888002154110013", "shopId": "43124", "netid": null, "province": 901, "district": 601, "zipcode": null, "telephone": "50368282-203", "posDate": null, "destineTel": null, "togoTel": null, "trafficWay": null, "signBuilding": null, "businessArea": null, "selfRoom": null, "businessTime": null, "stall": null, "consume": null, "serviceFei": null, "favourable": null, "shopMemo": null, "appraise": null, "website": null, "memo": null, "payTypes": "\u6749\u5fb7\u5361", "shopTypes": "\u4fbf\u5229\u5e97", "consumeTypes": null, "cookTypes": null, "orderNum": 1000, "card4no": null, "card4noAcc": null, "district2": 407, "searchScope": null, "status": 1, "address": "\u6768\u6d66\u533a\u978d\u5c71\u8def220\u53f7\u5e95\u5c42\u4e2d\u95f4\u90e8\u5206", "name": "\u8fea\u4e9a\u5929\u5929 \u8fea\u4e9a\u5929\u5929\u978d\u5c71\u5e97", "id": 192987, "pageNo": 0, "pageCount": null, "pageSize": 10, "ids": null, "endTime": null, "startTime": null}, {"cardNumFive": null, "isSupportYj": null, "cityName": null, "districtName": null, "shopinfo": {"mid": "888002154110013", "good_flag": null, "new_flag": "2", "short_name": "\u8fea\u4e9a\u5929\u5929", "short_name_pinyin": "tiyatiantian", "status": null, "address": null, "name": null, "id": "43124"}, "mid": "888002154110013", "shopId": "43124", "netid": null, "province": 901, "district": 601, "zipcode": null, "telephone": "50368282-203", "posDate": null, "destineTel": null, "togoTel": null, "trafficWay": null, "signBuilding": null, "businessArea": null, "selfRoom": null, "businessTime": null, "stall": null, "consume": null, "serviceFei": null, "favourable": null, "shopMemo": null, "appraise": null, "website": null, "memo": null, "payTypes": "\u6749\u5fb7\u5361", "shopTypes": "\u4fbf\u5229\u5e97", "consumeTypes": null, "cookTypes": null, "orderNum": 1000, "card4no": null, "card4noAcc": null, "district2": 401, "searchScope": null, "status": 1, "address": "\u9ec4\u6d66\u533a\u5236\u9020\u5c40\u8def71-1\u53f7", "name": "\u8fea\u4e9a\u5929\u5929 \u8fea\u4e9a\u5929\u5929\u5236\u9020\u5c40\u5e97", "id": 192988, "pageNo": 0, "pageCount": null, "pageSize": 10, "ids": null, "endTime": null, "startTime": null}, {"cardNumFive": null, "isSupportYj": null, "cityName": null, "districtName": null, "shopinfo": {"mid": "888002154110013", "good_flag": null, "new_flag": "2", "short_name": "\u8fea\u4e9a\u5929\u5929", "short_name_pinyin": "tiyatiantian", "status": null, "address": null, "name": null, "id": "43124"}, "mid": "888002154110013", "shopId": "43124", "netid": null, "province": 901, "district": 601, "zipcode": null, "telephone": "50368282-203", "posDate": null, "destineTel": null, "togoTel": null, "trafficWay": null, "signBuilding": null, "businessArea": null, "selfRoom": null, "businessTime": null, "stall": null, "consume": null, "serviceFei": null, "favourable": null, "shopMemo": null, "appraise": null, "website": null, "memo": null, "payTypes": "\u6749\u5fb7\u5361", "shopTypes": "\u4fbf\u5229\u5e97", "consumeTypes": null, "cookTypes": null, "orderNum": 1000, "card4no": null, "card4noAcc": null, "district2": 407, "searchScope": null, "status": 1, "address": "\u6768\u6d66\u533a\u56fd\u4f1f\u8def100\u5f043\u53f7", "name": "\u8fea\u4e9a\u5929\u5929 \u8fea\u4e9a\u5929\u5929\u56fd\u4f1f\u5e97", "id": 192989, "pageNo": 0, "pageCount": null, "pageSize": 10, "ids": null, "endTime": null, "startTime": null}, {"cardNumFive": null, "isSupportYj": null, "cityName": null, "districtName": null, "shopinfo": {"mid": "888002154110013", "good_flag": null, "new_flag": "2", "short_name": "\u8fea\u4e9a\u5929\u5929", "short_name_pinyin": "tiyatiantian", "status": null, "address": null, "name": null, "id": "43124"}, "mid": "888002154110013", "shopId": "43124", "netid": null, "province": 901, "district": 601, "zipcode": null, "telephone": "50368282-203", "posDate": null, "destineTel": null, "togoTel": null, "trafficWay": null, "signBuilding": null, "businessArea": null, "selfRoom": null, "businessTime": null, "stall": null, "consume": null, "serviceFei": null, "favourable": null, "shopMemo": null, "appraise": null, "website": null, "memo": null, "payTypes": "\u6749\u5fb7\u5361", "shopTypes": "\u4fbf\u5229\u5e97", "consumeTypes": null, "cookTypes": null, "orderNum": 1000, "card4no": null, "card4noAcc": null, "district2": 408, "searchScope": null, "status": 1, "address": "\u8679\u53e3\u533a\u8f66\u7ad9\u5317\u8def458\u53f7101\u5ba4", "name": "\u8fea\u4e9a\u5929\u5929 \u8fea\u4e9a\u5929\u5929\u8f66\u7ad9\u5317\u8def\u4e8c\u5e97", "id": 192990, "pageNo": 0, "pageCount": null, "pageSize": 10, "ids": null, "endTime": null, "startTime": null}, {"cardNumFive": null, "isSupportYj": null, "cityName": null, "districtName": null, "shopinfo": {"mid": "888002154110013", "good_flag": null, "new_flag": "2", "short_name": "\u8fea\u4e9a\u5929\u5929", "short_name_pinyin": "tiyatiantian", "status": null, "address": null, "name": null, "id": "43124"}, "mid": "888002154110013", "shopId": "43124", "netid": null, "province": 901, "district": 601, "zipcode": null, "telephone": "50368282-203", "posDate": null, "destineTel": null, "togoTel": null, "trafficWay": null, "signBuilding": null, "businessArea": null, "selfRoom": null, "businessTime": null, "stall": null, "consume": null, "serviceFei": null, "favourable": null, "shopMemo": null, "appraise": null, "website": null, "memo": null, "payTypes": "\u6749\u5fb7\u5361", "shopTypes": "\u4fbf\u5229\u5e97", "consumeTypes": null, "cookTypes": null, "orderNum": 1000, "card4no": null, "card4noAcc": null, "district2": 408, "searchScope": null, "status": 1, "address": "\u8679\u53e3\u533a\u56db\u5e73\u8def781\u53f77\u5e62\u5e95\u5c42\u4e2d\u90e8", "name": "\u8fea\u4e9a\u5929\u5929 \u8fea\u4e9a\u5929\u5929\u56db\u5e73\u5e97", "id": 192991, "pageNo": 0, "pageCount": null, "pageSize": 10, "ids": null, "endTime": null, "startTime": null}], "pageLimit": 8800, "size": 10}