{"pageCount": 1095, "count": 10942, "pageNo": 897, "subShopInfo": {"cardNumFive": "", "isSupportYj": "", "cityName": null, "districtName": null, "shopinfo": {"mid": null, "good_flag": null, "new_flag": null, "short_name": null, "short_name_pinyin": null, "status": null, "address": "", "name": "", "id": null}, "mid": null, "shopId": null, "netid": null, "province": 901, "district": null, "zipcode": null, "telephone": null, "posDate": null, "destineTel": null, "togoTel": null, "trafficWay": null, "signBuilding": null, "businessArea": null, "selfRoom": null, "businessTime": null, "stall": null, "consume": null, "serviceFei": null, "favourable": null, "shopMemo": "1", "appraise": null, "website": null, "memo": null, "payTypes": "", "shopTypes": "", "consumeTypes": null, "cookTypes": null, "orderNum": null, "card4no": null, "card4noAcc": null, "district2": null, "searchScope": null, "status": null, "address": "", "name": null, "id": null, "pageNo": 896, "pageCount": null, "pageSize": 10, "ids": null, "endTime": null, "startTime": null}, "list": [{"cardNumFive": null, "isSupportYj": null, "cityName": null, "districtName": null, "shopinfo": {"mid": "888888853990137", "good_flag": "2", "new_flag": "2", "short_name": "\u901a\u751f\u767e\u8d27", "short_name_pinyin": "tongshengbaihuo", "status": null, "address": null, "name": null, "id": "33484"}, "mid": "888888853990137", "shopId": "33484", "netid": null, "province": 901, "district": 601, "zipcode": null, "telephone": "62661268", "posDate": "20080918", "destineTel": null, "togoTel": null, "trafficWay": "\u516c\u4ea4819 \u96a7\u9053\u516d\u7ebf \u65b0\u5ddd\u4e13\u7ebf", "signBuilding": null, "businessArea": null, "selfRoom": null, "businessTime": "10:00~20:00", "stall": null, "consume": null, "serviceFei": null, "favourable": null, "shopMemo": null, "appraise": null, "website": null, "memo": null, "payTypes": "\u6749\u5fb7\u5361", "shopTypes": "\u4e13\u5356", "consumeTypes": null, "cookTypes": null, "orderNum": 1000, "card4no": null, "card4noAcc": null, "district2": 418, "searchScope": null, "status": 1, "address": "\u82d7\u5703\u8def123\u53f7", "name": "\u901a\u751f\u767e\u8d27 \u82d7\u5703\u8def\u5e97", "id": 142687, "pageNo": 0, "pageCount": null, "pageSize": 10, "ids": null, "endTime": null, "startTime": null}, {"cardNumFive": null, "isSupportYj": null, "cityName": null, "districtName": null, "shopinfo": {"mid": "888888853990137", "good_flag": "2", "new_flag": "2", "short_name": "\u901a\u751f\u767e\u8d27", "short_name_pinyin": "tongshengbaihuo", "status": null, "address": null, "name": null, "id": "33484"}, "mid": "888888853990137", "shopId": "33484", "netid": null, "province": 901, "district": 601, "zipcode": null, "telephone": "58771571", "posDate": "20080918", "destineTel": null, "togoTel": null, "trafficWay": "\u516c\u4ea4584 \u96a7\u9053\u4e09\u7ebf \u5730\u94c1\u4e8c\u53f7\u7ebf", "signBuilding": null, "businessArea": null, "selfRoom": null, "businessTime": "10:00~20:00", "stall": null, "consume": null, "serviceFei": null, "favourable": null, "shopMemo": null, "appraise": null, "website": null, "memo": null, "payTypes": "\u6749\u5fb7\u5361", "shopTypes": "\u4e13\u5356", "consumeTypes": null, "cookTypes": null, "orderNum": 1000, "card4no": null, "card4noAcc": null, "district2": 418, "searchScope": null, "status": 1, "address": "\u6f4d\u574a\u897f\u8def80\u53f7-2", "name": "\u901a\u751f\u767e\u8d27 \u6f4d\u574a\u897f\u8def\u5e97", "id": 142688, "pageNo": 0, "pageCount": null, "pageSize": 10, "ids": null, "endTime": null, "startTime": null}, {"cardNumFive": null, "isSupportYj": null, "cityName": null, "districtName": null, "shopinfo": {"mid": "888002156910429", "good_flag": null, "new_flag": null, "short_name": "Tony Wear", "short_name_pinyin": "tonywear", "status": null, "address": null, "name": null, "id": "39648"}, "mid": "888002156910429", "shopId": "39648", "netid": null, "province": 901, "district": 601, "zipcode": null, "telephone": null, "posDate": null, "destineTel": null, "togoTel": null, "trafficWay": null, "signBuilding": null, "businessArea": null, "selfRoom": null, "businessTime": null, "stall": null, "consume": null, "serviceFei": null, "favourable": null, "shopMemo": null, "appraise": null, "website": null, "memo": null, "payTypes": "\u6749\u5fb7\u5361", "shopTypes": "\u4e13\u5356", "consumeTypes": null, "cookTypes": null, "orderNum": 1000, "card4no": null, "card4noAcc": null, "district2": 401, "searchScope": null, "status": 1, "address": "\u6dee\u6d77\u4e2d\u8def915\u53f7", "name": "Tony Wear \u6dee\u6d77\u4e2d\u8def\u5e97", "id": 170037, "pageNo": 0, "pageCount": null, "pageSize": 10, "ids": null, "endTime": null, "startTime": null}, {"cardNumFive": null, "isSupportYj": null, "cityName": null, "districtName": null, "shopinfo": {"mid": "888002156911397", "good_flag": "2", "new_flag": "2", "short_name": "TOTOANNA", "short_name_pinyin": "totoanna", "status": null, "address": null, "name": null, "id": "31096"}, "mid": "888002156911397", "shopId": "31096", "netid": null, "province": 901, "district": 601, "zipcode": null, "telephone": null, "posDate": null, "destineTel": null, "togoTel": null, "trafficWay": null, "signBuilding": null, "businessArea": null, "selfRoom": null, "businessTime": null, "stall": null, "consume": null, "serviceFei": null, "favourable": null, "shopMemo": null, "appraise": null, "website": null, "memo": null, "payTypes": "", "shopTypes": "\u670d\u9970\u5bb6\u7eba", "consumeTypes": null, "cookTypes": null, "orderNum": 1000, "card4no": null, "card4noAcc": null, "district2": 403, "searchScope": null, "status": 1, "address": "\u8087\u5609\u6d5c\u8def1111\u53f7", "name": "TOTOANNA \u7f8e\u7f57\u57ce\u5e97", "id": 132137, "pageNo": 0, "pageCount": null, "pageSize": 10, "ids": null, "endTime": null, "startTime": null}, {"cardNumFive": null, "isSupportYj": null, "cityName": null, "districtName": null, "shopinfo": {"mid": "888002154119893", "good_flag": "2", "new_flag": "2", "short_name": "Touch Bread", "short_name_pinyin": "Touchbread", "status": null, "address": null, "name": null, "id": "33998"}, "mid": "888002154119893", "shopId": "33998", "netid": null, "province": 901, "district": 601, "zipcode": null, "telephone": "58907025", "posDate": "200911", "destineTel": null, "togoTel": null, "trafficWay": null, "signBuilding": null, "businessArea": null, "selfRoom": null, "businessTime": null, "stall": null, "consume": null, "serviceFei": null, "favourable": null, "shopMemo": null, "appraise": null, "website": null, "memo": null, "payTypes": "\u6749\u5fb7\u5361", "shopTypes": "\u8d85\u5e02", "consumeTypes": null, "cookTypes": null, "orderNum": 1000, "card4no": null, "card4noAcc": null, "district2": 413, "searchScope": null, "status": 1, "address": "\u5357\u6865\u8def715\u53f7", "name": "Touch Bread \u5357\u6865\u8def\u5e97", "id": 144642, "pageNo": 0, "pageCount": null, "pageSize": 10, "ids": null, "endTime": null, "startTime": null}, {"cardNumFive": null, "isSupportYj": null, "cityName": null, "districtName": null, "shopinfo": {"mid": "888002154119893", "good_flag": "2", "new_flag": "2", "short_name": "Touch Bread", "short_name_pinyin": "Touchbread", "status": null, "address": null, "name": null, "id": "33998"}, "mid": "888002154119893", "shopId": "33998", "netid": null, "province": 901, "district": 601, "zipcode": null, "telephone": "61059578", "posDate": "200909", "destineTel": null, "togoTel": null, "trafficWay": "\u516c\u4ea4996\u3001453", "signBuilding": null, "businessArea": null, "selfRoom": null, "businessTime": null, "stall": null, "consume": null, "serviceFei": null, "favourable": null, "shopMemo": null, "appraise": null, "website": null, "memo": null, "payTypes": "\u6749\u5fb7\u5361", "shopTypes": "\u8d85\u5e02", "consumeTypes": null, "cookTypes": null, "orderNum": 1000, "card4no": null, "card4noAcc": null, "district2": 418, "searchScope": null, "status": 1, "address": "\u5916\u9ad8\u6865\u590f\u78a7\u8def83\u53f7", "name": "Touch Bread \u590f\u78a7\u8def\u5e97", "id": 144643, "pageNo": 0, "pageCount": null, "pageSize": 10, "ids": null, "endTime": null, "startTime": null}, {"cardNumFive": null, "isSupportYj": null, "cityName": null, "districtName": null, "shopinfo": {"mid": "888002154119893", "good_flag": null, "new_flag": null, "short_name": "Touch Bread", "short_name_pinyin": "touchbread", "status": null, "address": null, "name": null, "id": "38717"}, "mid": "888002154119893", "shopId": "38717", "netid": null, "province": 901, "district": 601, "zipcode": null, "telephone": "67111722", "posDate": null, "destineTel": null, "togoTel": null, "trafficWay": null, "signBuilding": null, "businessArea": null, "selfRoom": null, "businessTime": null, "stall": null, "consume": null, "serviceFei": null, "favourable": null, "shopMemo": null, "appraise": null, "website": null, "memo": null, "payTypes": "\u6749\u5fb7\u5361", "shopTypes": "\u9762\u5305\u897f\u997c", "consumeTypes": null, "cookTypes": null, "orderNum": 1000, "card4no": null, "card4noAcc": null, "district2": 413, "searchScope": null, "status": 1, "address": "\u73af\u57ce\u4e1c\u8def1436\u53f7", "name": "Touch Bread \u5949\u8d24\u4e8c\u5e97", "id": 164189, "pageNo": 0, "pageCount": null, "pageSize": 10, "ids": null, "endTime": null, "startTime": null}, {"cardNumFive": null, "isSupportYj": null, "cityName": null, "districtName": null, "shopinfo": {"mid": "888002154119893", "good_flag": null, "new_flag": null, "short_name": "Touch Bread", "short_name_pinyin": "touchbread", "status": null, "address": null, "name": null, "id": "38717"}, "mid": "888002154119893", "shopId": "38717", "netid": null, "province": 901, "district": 601, "zipcode": null, "telephone": "67187900", "posDate": null, "destineTel": null, "togoTel": null, "trafficWay": null, "signBuilding": null, "businessArea": null, "selfRoom": null, "businessTime": null, "stall": null, "consume": null, "serviceFei": null, "favourable": null, "shopMemo": null, "appraise": null, "website": null, "memo": null, "payTypes": "\u6749\u5fb7\u5361", "shopTypes": "\u9762\u5305\u897f\u997c", "consumeTypes": null, "cookTypes": null, "orderNum": 1000, "card4no": null, "card4noAcc": null, "district2": 413, "searchScope": null, "status": 1, "address": "\u5357\u5949\u516c\u8def8891\u53f7", "name": "Touch Bread \u5949\u8d24\u4e94\u5e97", "id": 164190, "pageNo": 0, "pageCount": null, "pageSize": 10, "ids": null, "endTime": null, "startTime": null}, {"cardNumFive": null, "isSupportYj": null, "cityName": null, "districtName": null, "shopinfo": {"mid": "888002154119893", "good_flag": null, "new_flag": null, "short_name": "Touch Bread", "short_name_pinyin": "touchbread", "status": null, "address": null, "name": null, "id": "38717"}, "mid": "888002154119893", "shopId": "38717", "netid": null, "province": 901, "district": 601, "zipcode": null, "telephone": "67196001", "posDate": null, "destineTel": null, "togoTel": null, "trafficWay": null, "signBuilding": null, "businessArea": null, "selfRoom": null, "businessTime": null, "stall": null, "consume": null, "serviceFei": null, "favourable": null, "shopMemo": null, "appraise": null, "website": null, "memo": null, "payTypes": "\u6749\u5fb7\u5361", "shopTypes": "\u9762\u5305\u897f\u997c", "consumeTypes": null, "cookTypes": null, "orderNum": 1000, "card4no": null, "card4noAcc": null, "district2": 413, "searchScope": null, "status": 1, "address": "\u80b2\u79c0\u8def1288\u5f041290\u53f7", "name": "Touch Bread \u5949\u8d24\u56db\u5e97", "id": 164191, "pageNo": 0, "pageCount": null, "pageSize": 10, "ids": null, "endTime": null, "startTime": null}, {"cardNumFive": null, "isSupportYj": null, "cityName": null, "districtName": null, "shopinfo": {"mid": "888002154119893", "good_flag": null, "new_flag": null, "short_name": "Touch Bread", "short_name_pinyin": "touchbread", "status": null, "address": null, "name": null, "id": "38717"}, "mid": "888002154119893", "shopId": "38717", "netid": null, "province": 901, "district": 601, "zipcode": null, "telephone": "68796100", "posDate": null, "destineTel": null, "togoTel": null, "trafficWay": null, "signBuilding": null, "businessArea": null, "selfRoom": null, "businessTime": null, "stall": null, "consume": null, "serviceFei": null, "favourable": null, "shopMemo": null, "appraise": null, "website": null, "memo": null, "payTypes": "\u6749\u5fb7\u5361", "shopTypes": "\u9762\u5305\u897f\u997c", "consumeTypes": null, "cookTypes": null, "orderNum": 1000, "card4no": null, "card4noAcc": null, "district2": 418, "searchScope": null, "status": 1, "address": "\u5ddd\u6c99\u9547\u65b0\u5ddd\u8def708\u53f7", "name": "Touch Bread \u5ddd\u6c99\u4e8c\u5e97", "id": 164192, "pageNo": 0, "pageCount": null, "pageSize": 10, "ids": null, "endTime": null, "startTime": null}], "pageLimit": 8960, "size": 10}