{"pageCount": 1095, "count": 10942, "pageNo": 898, "subShopInfo": {"cardNumFive": "", "isSupportYj": "", "cityName": null, "districtName": null, "shopinfo": {"mid": null, "good_flag": null, "new_flag": null, "short_name": null, "short_name_pinyin": null, "status": null, "address": "", "name": "", "id": null}, "mid": null, "shopId": null, "netid": null, "province": 901, "district": null, "zipcode": null, "telephone": null, "posDate": null, "destineTel": null, "togoTel": null, "trafficWay": null, "signBuilding": null, "businessArea": null, "selfRoom": null, "businessTime": null, "stall": null, "consume": null, "serviceFei": null, "favourable": null, "shopMemo": "1", "appraise": null, "website": null, "memo": null, "payTypes": "", "shopTypes": "", "consumeTypes": null, "cookTypes": null, "orderNum": null, "card4no": null, "card4noAcc": null, "district2": null, "searchScope": null, "status": null, "address": "", "name": null, "id": null, "pageNo": 897, "pageCount": null, "pageSize": 10, "ids": null, "endTime": null, "startTime": null}, "list": [{"cardNumFive": null, "isSupportYj": null, "cityName": null, "districtName": null, "shopinfo": {"mid": "888002154620065", "good_flag": null, "new_flag": null, "short_name": "\u9014\u5c1a", "short_name_pinyin": "tushang", "status": null, "address": null, "name": null, "id": "43125"}, "mid": "888002154620065", "shopId": "43125", "netid": null, "province": 901, "district": 601, "zipcode": null, "telephone": null, "posDate": null, "destineTel": null, "togoTel": null, "trafficWay": null, "signBuilding": null, "businessArea": null, "selfRoom": null, "businessTime": null, "stall": null, "consume": null, "serviceFei": null, "favourable": null, "shopMemo": null, "appraise": null, "website": null, "memo": null, "payTypes": "\u6749\u5fb7\u5361", "shopTypes": "\u9910\u996e", "consumeTypes": null, "cookTypes": null, "orderNum": 1000, "card4no": null, "card4noAcc": null, "district2": 404, "searchScope": null, "status": 1, "address": "\u5357\u4eac\u897f\u8def1717\u53f7101\u53f7\u5546\u94fa", "name": "\u9014\u5c1a \u5357\u4eac\u897f\u8def\u4e8c\u5e97", "id": 193129, "pageNo": 0, "pageCount": null, "pageSize": 10, "ids": null, "endTime": null, "startTime": null}, {"cardNumFive": null, "isSupportYj": null, "cityName": null, "districtName": null, "shopinfo": {"mid": "888002154620074", "good_flag": null, "new_flag": null, "short_name": "\u9014\u5c1a", "short_name_pinyin": "tushang", "status": null, "address": null, "name": null, "id": "43236"}, "mid": "888002154620074", "shopId": "43236", "netid": null, "province": 901, "district": 601, "zipcode": null, "telephone": null, "posDate": null, "destineTel": null, "togoTel": null, "trafficWay": null, "signBuilding": null, "businessArea": null, "selfRoom": null, "businessTime": null, "stall": null, "consume": null, "serviceFei": null, "favourable": null, "shopMemo": null, "appraise": null, "website": null, "memo": null, "payTypes": "\u6749\u5fb7\u5361", "shopTypes": "\u9910\u996e", "consumeTypes": null, "cookTypes": null, "orderNum": 1000, "card4no": null, "card4noAcc": null, "district2": 406, "searchScope": null, "status": 1, "address": "\u9075\u4e49\u8def100\u53f71-L113\u30012-L112", "name": "\u9014\u5c1a \u9075\u4e49\u8def\u5e97", "id": 193551, "pageNo": 0, "pageCount": null, "pageSize": 10, "ids": null, "endTime": null, "startTime": null}, {"cardNumFive": null, "isSupportYj": null, "cityName": null, "districtName": null, "shopinfo": {"mid": "888002154620125", "good_flag": null, "new_flag": null, "short_name": "\u9014\u5c1a", "short_name_pinyin": "tushang", "status": null, "address": null, "name": null, "id": "43892"}, "mid": "888002154620125", "shopId": "43892", "netid": null, "province": 901, "district": 601, "zipcode": null, "telephone": null, "posDate": null, "destineTel": null, "togoTel": null, "trafficWay": null, "signBuilding": null, "businessArea": null, "selfRoom": null, "businessTime": null, "stall": null, "consume": null, "serviceFei": null, "favourable": null, "shopMemo": null, "appraise": null, "website": null, "memo": null, "payTypes": "\u6749\u5fb7\u5361", "shopTypes": "\u9762\u5305\u897f\u997c", "consumeTypes": null, "cookTypes": null, "orderNum": 1000, "card4no": null, "card4noAcc": null, "district2": 409, "searchScope": null, "status": 1, "address": "\u7533\u957f\u8def869\u53f7\u9f99\u6e56\u5929\u8857F1\u697c1016\u94fa\u4f4d", "name": "\u9014\u5c1a \u7533\u957f\u8def\u5e97", "id": 202208, "pageNo": 0, "pageCount": null, "pageSize": 10, "ids": null, "endTime": null, "startTime": null}, {"cardNumFive": null, "isSupportYj": null, "cityName": null, "districtName": null, "shopinfo": {"mid": "888002154620061", "good_flag": null, "new_flag": null, "short_name": "\u9014\u5c1a\u5496\u5561", "short_name_pinyin": "tushangkafei", "status": null, "address": null, "name": null, "id": "43101"}, "mid": "888002154620061", "shopId": "43101", "netid": null, "province": 901, "district": 601, "zipcode": null, "telephone": null, "posDate": null, "destineTel": null, "togoTel": null, "trafficWay": null, "signBuilding": null, "businessArea": null, "selfRoom": null, "businessTime": null, "stall": null, "consume": null, "serviceFei": null, "favourable": null, "shopMemo": null, "appraise": null, "website": null, "memo": null, "payTypes": "\u6749\u5fb7\u5361", "shopTypes": "\u9910\u996e", "consumeTypes": null, "cookTypes": null, "orderNum": 1000, "card4no": null, "card4noAcc": null, "district2": 404, "searchScope": null, "status": 1, "address": "\u5357\u4eac\u897f\u8def931\u53f71\u697cA\u5ba4", "name": "\u9014\u5c1a\u5496\u5561 \u5357\u4eac\u897f\u8def\u4e00\u5e97", "id": 190993, "pageNo": 0, "pageCount": null, "pageSize": 10, "ids": null, "endTime": null, "startTime": null}, {"cardNumFive": null, "isSupportYj": null, "cityName": null, "districtName": null, "shopinfo": {"mid": "888002153111139", "good_flag": "2", "new_flag": "2", "short_name": "VIGORLIVING", "short_name_pinyin": "vigorliving", "status": null, "address": null, "name": null, "id": "31280"}, "mid": "888002153111139", "shopId": "31280", "netid": null, "province": 901, "district": 601, "zipcode": null, "telephone": null, "posDate": null, "destineTel": null, "togoTel": null, "trafficWay": null, "signBuilding": null, "businessArea": null, "selfRoom": null, "businessTime": null, "stall": null, "consume": null, "serviceFei": null, "favourable": null, "shopMemo": null, "appraise": null, "website": null, "memo": null, "payTypes": "", "shopTypes": "\u4e13\u5356", "consumeTypes": null, "cookTypes": null, "orderNum": 1000, "card4no": null, "card4noAcc": null, "district2": 403, "searchScope": null, "status": 1, "address": "\u8087\u5609\u6d5c\u8def1111\u53f7", "name": "VIGORLIVING \u7f8e\u7f57\u57ce\u5e97", "id": 132868, "pageNo": 0, "pageCount": null, "pageSize": 10, "ids": null, "endTime": null, "startTime": null}, {"cardNumFive": null, "isSupportYj": null, "cityName": null, "districtName": null, "shopinfo": {"mid": "888888858120500", "good_flag": "2", "new_flag": "2", "short_name": "\u5916\u6ee9\u82b1\u56ed\u9152\u5e97", "short_name_pinyin": "waitanhuayuanjiudian", "status": null, "address": null, "name": null, "id": "33496"}, "mid": "888888858120500", "shopId": "33496", "netid": null, "province": 901, "district": 601, "zipcode": null, "telephone": "63298800*33\u300163218715", "posDate": "20081111", "destineTel": null, "togoTel": null, "trafficWay": "\u516c\u4ea448 946 925", "signBuilding": null, "businessArea": "8000", "selfRoom": null, "businessTime": "10:00~21:00", "stall": "\u6709", "consume": null, "serviceFei": null, "favourable": null, "shopMemo": null, "appraise": null, "website": null, "memo": null, "payTypes": "\u6749\u5fb7\u5361", "shopTypes": "\u9910\u996e", "consumeTypes": null, "cookTypes": null, "orderNum": 1000, "card4no": null, "card4noAcc": null, "district2": 406, "searchScope": null, "status": 1, "address": "\u65b0\u534e\u8def179\u53f7", "name": "\u5916\u6ee9\u82b1\u56ed\u9152\u5e97 \u65b0\u534e\u8def\u5e97", "id": 142733, "pageNo": 0, "pageCount": null, "pageSize": 10, "ids": null, "endTime": null, "startTime": null}, {"cardNumFive": null, "isSupportYj": null, "cityName": null, "districtName": null, "shopinfo": {"mid": "888888872300079", "good_flag": "2", "new_flag": "2", "short_name": "\u738b\u78ca\u5f62\u8c61\u516c\u793e", "short_name_pinyin": "wangleixingxianggongshe", "status": null, "address": null, "name": null, "id": "33500"}, "mid": "888888872300079", "shopId": "33500", "netid": null, "province": 901, "district": 601, "zipcode": null, "telephone": null, "posDate": "20070820", "destineTel": null, "togoTel": null, "trafficWay": "\u5730\u94c1\u4e8c\u53f7 \u516c\u4ea413 23", "signBuilding": "\u6885\u9f99\u9547\u5e7f\u573a", "businessArea": "200\u5e73\u65b9\u7c73", "selfRoom": null, "businessTime": "10:00~22:00", "stall": "\u6709", "consume": null, "serviceFei": null, "favourable": "\u53ef\u4eab\u53d79\u6298\u4f18\u60e0", "shopMemo": null, "appraise": null, "website": null, "memo": null, "payTypes": "\u6749\u5fb7\u5361", "shopTypes": "\u7f8e\u5bb9\u7f8e\u53d1", "consumeTypes": null, "cookTypes": null, "orderNum": 1000, "card4no": null, "card4noAcc": null, "district2": 404, "searchScope": null, "status": 1, "address": "\u5357\u4eac\u897f\u8def1038\u53f7\u6885\u9f99\u9547\u5e7f\u573a801C\u5ea7", "name": "\u738b\u78ca\u5f62\u8c61\u516c\u793e \u6885\u9f99\u9547\u5e7f\u573a\u4e8c\u5e97", "id": 142738, "pageNo": 0, "pageCount": null, "pageSize": 10, "ids": null, "endTime": null, "startTime": null}, {"cardNumFive": null, "isSupportYj": null, "cityName": null, "districtName": null, "shopinfo": {"mid": "888888872300079", "good_flag": "2", "new_flag": "2", "short_name": "\u738b\u78ca\u5f62\u8c61\u516c\u793e", "short_name_pinyin": "wangleixingxianggongshe", "status": null, "address": null, "name": null, "id": "33500"}, "mid": "888888872300079", "shopId": "33500", "netid": null, "province": 901, "district": 601, "zipcode": null, "telephone": null, "posDate": "20070820", "destineTel": null, "togoTel": null, "trafficWay": "\u5730\u94c1\u4e00\u53f7\u7ebf \u516c\u4ea4945", "signBuilding": null, "businessArea": null, "selfRoom": null, "businessTime": "10:00~22:00", "stall": "\u6709", "consume": null, "serviceFei": null, "favourable": "\u53ef\u4eab\u53d79\u6298\u4f18\u60e0", "shopMemo": null, "appraise": null, "website": null, "memo": null, "payTypes": "\u6749\u5fb7\u5361", "shopTypes": "\u7f8e\u5bb9\u7f8e\u53d1", "consumeTypes": null, "cookTypes": null, "orderNum": 1000, "card4no": null, "card4noAcc": null, "district2": 401, "searchScope": null, "status": 1, "address": "\u6dee\u6d77\u4e2d\u8def381\u53f7\u4e2d\u73af\u5e7f\u573a223\u5ea7", "name": "\u738b\u78ca\u5f62\u8c61\u516c\u793e \u4e2d\u73af\u5e7f\u573a\u5e97", "id": 142739, "pageNo": 0, "pageCount": null, "pageSize": 10, "ids": null, "endTime": null, "startTime": null}, {"cardNumFive": null, "isSupportYj": null, "cityName": null, "districtName": null, "shopinfo": {"mid": "888002159990016", "good_flag": "2", "new_flag": "2", "short_name": "\u738b\u4ed5\u97f3\u54cd", "short_name_pinyin": "wangshiyinxiang", "status": null, "address": null, "name": null, "id": "33504"}, "mid": "888002159990016", "shopId": "33504", "netid": null, "province": 901, "district": 601, "zipcode": null, "telephone": null, "posDate": null, "destineTel": null, "togoTel": null, "trafficWay": null, "signBuilding": null, "businessArea": null, "selfRoom": null, "businessTime": null, "stall": null, "consume": null, "serviceFei": null, "favourable": null, "shopMemo": null, "appraise": null, "website": null, "memo": null, "payTypes": "", "shopTypes": "\u4e13\u5356", "consumeTypes": null, "cookTypes": null, "orderNum": 1000, "card4no": null, "card4noAcc": null, "district2": 403, "searchScope": null, "status": 1, "address": "\u8087\u5609\u6d5c\u8def1111\u53f74\u697c\u7f8e\u7f57\u97f3\u54cd\u5e7f\u573a4-4c", "name": "\u738b\u4ed5\u97f3\u54cd \u7f8e\u7f57\u57ce\u5e97", "id": 142744, "pageNo": 0, "pageCount": null, "pageSize": 10, "ids": null, "endTime": null, "startTime": null}, {"cardNumFive": null, "isSupportYj": null, "cityName": null, "districtName": null, "shopinfo": {"mid": "888002180990014", "good_flag": "2", "new_flag": "1", "short_name": "\u738b\u5ef6\u5b89\u53e3\u8154\u8bca\u6240", "short_name_pinyin": "wangyanankouqiangzhensuo", "status": null, "address": null, "name": null, "id": "33506"}, "mid": "888002180990014", "shopId": "33506", "netid": null, "province": 901, "district": 601, "zipcode": null, "telephone": "33683168", "posDate": "20100111", "destineTel": null, "togoTel": null, "trafficWay": null, "signBuilding": null, "businessArea": null, "selfRoom": null, "businessTime": null, "stall": null, "consume": null, "serviceFei": null, "favourable": null, "shopMemo": null, "appraise": null, "website": null, "memo": null, "payTypes": "\u6749\u5fb7\u5361", "shopTypes": "\u5176\u4ed6", "consumeTypes": null, "cookTypes": null, "orderNum": 1000, "card4no": null, "card4noAcc": null, "district2": 403, "searchScope": null, "status": 1, "address": "\u5eb7\u5065\u8def66\u53f7", "name": "\u738b\u5ef6\u5b89\u53e3\u8154\u8bca\u6240 \u5eb7\u5065\u8def\u8bca\u6240", "id": 142746, "pageNo": 0, "pageCount": null, "pageSize": 10, "ids": null, "endTime": null, "startTime": null}], "pageLimit": 8970, "size": 10}