{"pageCount": 1095, "count": 10942, "pageNo": 895, "subShopInfo": {"cardNumFive": "", "isSupportYj": "", "cityName": null, "districtName": null, "shopinfo": {"mid": null, "good_flag": null, "new_flag": null, "short_name": null, "short_name_pinyin": null, "status": null, "address": "", "name": "", "id": null}, "mid": null, "shopId": null, "netid": null, "province": 901, "district": null, "zipcode": null, "telephone": null, "posDate": null, "destineTel": null, "togoTel": null, "trafficWay": null, "signBuilding": null, "businessArea": null, "selfRoom": null, "businessTime": null, "stall": null, "consume": null, "serviceFei": null, "favourable": null, "shopMemo": "1", "appraise": null, "website": null, "memo": null, "payTypes": "", "shopTypes": "", "consumeTypes": null, "cookTypes": null, "orderNum": null, "card4no": null, "card4noAcc": null, "district2": null, "searchScope": null, "status": null, "address": "", "name": null, "id": null, "pageNo": 894, "pageCount": null, "pageSize": 10, "ids": null, "endTime": null, "startTime": null}, "list": [{"cardNumFive": null, "isSupportYj": null, "cityName": null, "districtName": null, "shopinfo": {"mid": "888002154110013", "good_flag": null, "new_flag": "2", "short_name": "\u8fea\u4e9a\u5929\u5929", "short_name_pinyin": "tiyatiantian", "status": null, "address": null, "name": null, "id": "43124"}, "mid": "888002154110013", "shopId": "43124", "netid": null, "province": 901, "district": 601, "zipcode": null, "telephone": null, "posDate": null, "destineTel": null, "togoTel": null, "trafficWay": null, "signBuilding": null, "businessArea": null, "selfRoom": null, "businessTime": null, "stall": null, "consume": null, "serviceFei": null, "favourable": null, "shopMemo": null, "appraise": null, "website": null, "memo": null, "payTypes": "\u6749\u5fb7\u5361", "shopTypes": "\u8d85\u5e02", "consumeTypes": null, "cookTypes": null, "orderNum": 1000, "card4no": null, "card4noAcc": null, "district2": 405, "searchScope": null, "status": 1, "address": "\u4e2d\u6f6d\u8def36\u53f7101A\u3001102\u5ba4", "name": "\u8fea\u4e9a\u5929\u5929 \u4e2d\u6f6d\u8def\u5e97", "id": 198136, "pageNo": 0, "pageCount": null, "pageSize": 10, "ids": null, "endTime": null, "startTime": null}, {"cardNumFive": null, "isSupportYj": null, "cityName": null, "districtName": null, "shopinfo": {"mid": "888002154110013", "good_flag": null, "new_flag": "2", "short_name": "\u8fea\u4e9a\u5929\u5929", "short_name_pinyin": "tiyatiantian", "status": null, "address": null, "name": null, "id": "43124"}, "mid": "888002154110013", "shopId": "43124", "netid": null, "province": 901, "district": 601, "zipcode": null, "telephone": null, "posDate": null, "destineTel": null, "togoTel": null, "trafficWay": null, "signBuilding": null, "businessArea": null, "selfRoom": null, "businessTime": null, "stall": null, "consume": null, "serviceFei": null, "favourable": null, "shopMemo": null, "appraise": null, "website": null, "memo": null, "payTypes": "\u6749\u5fb7\u5361", "shopTypes": "\u8d85\u5e02", "consumeTypes": null, "cookTypes": null, "orderNum": 1000, "card4no": null, "card4noAcc": null, "district2": 407, "searchScope": null, "status": 1, "address": "\u56fd\u987a\u4e1c\u8def229\u53f7", "name": "\u8fea\u4e9a\u5929\u5929 \u56fd\u987a\u4e1c\u8def\u5e97", "id": 198169, "pageNo": 0, "pageCount": null, "pageSize": 10, "ids": null, "endTime": null, "startTime": null}, {"cardNumFive": null, "isSupportYj": null, "cityName": null, "districtName": null, "shopinfo": {"mid": "888002154110013", "good_flag": null, "new_flag": "2", "short_name": "\u8fea\u4e9a\u5929\u5929", "short_name_pinyin": "tiyatiantian", "status": null, "address": null, "name": null, "id": "43124"}, "mid": "888002154110013", "shopId": "43124", "netid": null, "province": 901, "district": 601, "zipcode": null, "telephone": null, "posDate": null, "destineTel": null, "togoTel": null, "trafficWay": null, "signBuilding": null, "businessArea": null, "selfRoom": null, "businessTime": null, "stall": null, "consume": null, "serviceFei": null, "favourable": null, "shopMemo": null, "appraise": null, "website": null, "memo": null, "payTypes": "\u6749\u5fb7\u5361", "shopTypes": "\u8d85\u5e02", "consumeTypes": null, "cookTypes": null, "orderNum": 1000, "card4no": null, "card4noAcc": null, "district2": 409, "searchScope": null, "status": 1, "address": "\u79c0\u6587\u8def347\u53f7", "name": "\u8fea\u4e9a\u5929\u5929 \u79c0\u6587\u8def\u5e97", "id": 198566, "pageNo": 0, "pageCount": null, "pageSize": 10, "ids": null, "endTime": null, "startTime": null}, {"cardNumFive": null, "isSupportYj": null, "cityName": null, "districtName": null, "shopinfo": {"mid": "888002154110013", "good_flag": null, "new_flag": "2", "short_name": "\u8fea\u4e9a\u5929\u5929", "short_name_pinyin": "tiyatiantian", "status": null, "address": null, "name": null, "id": "43124"}, "mid": "888002154110013", "shopId": "43124", "netid": null, "province": 901, "district": 601, "zipcode": null, "telephone": null, "posDate": null, "destineTel": null, "togoTel": null, "trafficWay": null, "signBuilding": null, "businessArea": null, "selfRoom": null, "businessTime": null, "stall": null, "consume": null, "serviceFei": null, "favourable": null, "shopMemo": null, "appraise": null, "website": null, "memo": null, "payTypes": "\u6749\u5fb7\u5361", "shopTypes": "\u8d85\u5e02", "consumeTypes": null, "cookTypes": null, "orderNum": 1000, "card4no": null, "card4noAcc": null, "district2": 409, "searchScope": null, "status": 1, "address": "\u6c5f\u5ddd\u4e1c\u8def927\u53f7", "name": "\u8fea\u4e9a\u5929\u5929 \u6c5f\u5ddd\u4e1c\u8def\u5e97", "id": 198567, "pageNo": 0, "pageCount": null, "pageSize": 10, "ids": null, "endTime": null, "startTime": null}, {"cardNumFive": null, "isSupportYj": null, "cityName": null, "districtName": null, "shopinfo": {"mid": "888002154110013", "good_flag": null, "new_flag": "2", "short_name": "\u8fea\u4e9a\u5929\u5929", "short_name_pinyin": "tiyatiantian", "status": null, "address": null, "name": null, "id": "43124"}, "mid": "888002154110013", "shopId": "43124", "netid": null, "province": 901, "district": 601, "zipcode": null, "telephone": null, "posDate": null, "destineTel": null, "togoTel": null, "trafficWay": null, "signBuilding": null, "businessArea": null, "selfRoom": null, "businessTime": null, "stall": null, "consume": null, "serviceFei": null, "favourable": null, "shopMemo": null, "appraise": null, "website": null, "memo": null, "payTypes": "\u6749\u5fb7\u5361", "shopTypes": "\u8d85\u5e02", "consumeTypes": null, "cookTypes": null, "orderNum": 1000, "card4no": null, "card4noAcc": null, "district2": 409, "searchScope": null, "status": 1, "address": "\u9f99\u8317\u8def1764\u53f7", "name": "\u8fea\u4e9a\u5929\u5929 \u9f99\u8317\u8def\u5e97", "id": 198795, "pageNo": 0, "pageCount": null, "pageSize": 10, "ids": null, "endTime": null, "startTime": null}, {"cardNumFive": null, "isSupportYj": null, "cityName": null, "districtName": null, "shopinfo": {"mid": "888002154110013", "good_flag": null, "new_flag": "2", "short_name": "\u8fea\u4e9a\u5929\u5929", "short_name_pinyin": "tiyatiantian", "status": null, "address": null, "name": null, "id": "43124"}, "mid": "888002154110013", "shopId": "43124", "netid": null, "province": 901, "district": 601, "zipcode": null, "telephone": null, "posDate": null, "destineTel": null, "togoTel": null, "trafficWay": null, "signBuilding": null, "businessArea": null, "selfRoom": null, "businessTime": null, "stall": null, "consume": null, "serviceFei": null, "favourable": null, "shopMemo": null, "appraise": null, "website": null, "memo": null, "payTypes": "\u6749\u5fb7\u5361", "shopTypes": "\u8d85\u5e02", "consumeTypes": null, "cookTypes": null, "orderNum": 1000, "card4no": null, "card4noAcc": null, "district2": 410, "searchScope": null, "status": 1, "address": "\u9633\u66f2\u8def104-106\u53f7", "name": "\u8fea\u4e9a\u5929\u5929 \u9633\u66f2\u8def\u5e97", "id": 198796, "pageNo": 0, "pageCount": null, "pageSize": 10, "ids": null, "endTime": null, "startTime": null}, {"cardNumFive": null, "isSupportYj": null, "cityName": null, "districtName": null, "shopinfo": {"mid": "888002154110013", "good_flag": null, "new_flag": "2", "short_name": "\u8fea\u4e9a\u5929\u5929", "short_name_pinyin": "tiyatiantian", "status": null, "address": null, "name": null, "id": "43124"}, "mid": "888002154110013", "shopId": "43124", "netid": null, "province": 901, "district": 601, "zipcode": null, "telephone": null, "posDate": null, "destineTel": null, "togoTel": null, "trafficWay": null, "signBuilding": null, "businessArea": null, "selfRoom": null, "businessTime": null, "stall": null, "consume": null, "serviceFei": null, "favourable": null, "shopMemo": null, "appraise": null, "website": null, "memo": null, "payTypes": "\u6749\u5fb7\u5361", "shopTypes": "\u8d85\u5e02", "consumeTypes": null, "cookTypes": null, "orderNum": 1000, "card4no": null, "card4noAcc": null, "district2": 409, "searchScope": null, "status": 1, "address": "\u5251\u5ddd\u8def127\u53f7", "name": "\u8fea\u4e9a\u5929\u5929 \u5251\u5ddd\u8def\u5e97", "id": 198836, "pageNo": 0, "pageCount": null, "pageSize": 10, "ids": null, "endTime": null, "startTime": null}, {"cardNumFive": null, "isSupportYj": null, "cityName": null, "districtName": null, "shopinfo": {"mid": "888002154110013", "good_flag": null, "new_flag": "2", "short_name": "\u8fea\u4e9a\u5929\u5929", "short_name_pinyin": "tiyatiantian", "status": null, "address": null, "name": null, "id": "43124"}, "mid": "888002154110013", "shopId": "43124", "netid": null, "province": 901, "district": 601, "zipcode": null, "telephone": null, "posDate": null, "destineTel": null, "togoTel": null, "trafficWay": null, "signBuilding": null, "businessArea": null, "selfRoom": null, "businessTime": null, "stall": null, "consume": null, "serviceFei": null, "favourable": null, "shopMemo": null, "appraise": null, "website": null, "memo": null, "payTypes": "\u6749\u5fb7\u5361", "shopTypes": "\u8d85\u5e02", "consumeTypes": null, "cookTypes": null, "orderNum": 1000, "card4no": null, "card4noAcc": null, "district2": 410, "searchScope": null, "status": 1, "address": "\u573a\u4e2d\u8def2951\u53f7", "name": "\u8fea\u4e9a\u5929\u5929 \u573a\u4e2d\u5e97", "id": 199089, "pageNo": 0, "pageCount": null, "pageSize": 10, "ids": null, "endTime": null, "startTime": null}, {"cardNumFive": null, "isSupportYj": null, "cityName": null, "districtName": null, "shopinfo": {"mid": "888002154110013", "good_flag": null, "new_flag": "2", "short_name": "\u8fea\u4e9a\u5929\u5929", "short_name_pinyin": "tiyatiantian", "status": null, "address": null, "name": null, "id": "43124"}, "mid": "888002154110013", "shopId": "43124", "netid": null, "province": 901, "district": 601, "zipcode": null, "telephone": null, "posDate": null, "destineTel": null, "togoTel": null, "trafficWay": null, "signBuilding": null, "businessArea": null, "selfRoom": null, "businessTime": null, "stall": null, "consume": null, "serviceFei": null, "favourable": null, "shopMemo": null, "appraise": null, "website": null, "memo": null, "payTypes": "\u6749\u5fb7\u5361", "shopTypes": "\u8d85\u5e02", "consumeTypes": null, "cookTypes": null, "orderNum": 1000, "card4no": null, "card4noAcc": null, "district2": 409, "searchScope": null, "status": 1, "address": "\u9e64\u5761\u8def39-41\u53f7", "name": "\u8fea\u4e9a\u5929\u5929 \u9e64\u5761\u5e97", "id": 199091, "pageNo": 0, "pageCount": null, "pageSize": 10, "ids": null, "endTime": null, "startTime": null}, {"cardNumFive": null, "isSupportYj": null, "cityName": null, "districtName": null, "shopinfo": {"mid": "888002154110013", "good_flag": null, "new_flag": "2", "short_name": "\u8fea\u4e9a\u5929\u5929", "short_name_pinyin": "tiyatiantian", "status": null, "address": null, "name": null, "id": "43124"}, "mid": "888002154110013", "shopId": "43124", "netid": null, "province": 901, "district": 601, "zipcode": null, "telephone": null, "posDate": null, "destineTel": null, "togoTel": null, "trafficWay": null, "signBuilding": null, "businessArea": null, "selfRoom": null, "businessTime": null, "stall": null, "consume": null, "serviceFei": null, "favourable": null, "shopMemo": null, "appraise": null, "website": null, "memo": null, "payTypes": "\u6749\u5fb7\u5361", "shopTypes": "\u8d85\u5e02", "consumeTypes": null, "cookTypes": null, "orderNum": 1000, "card4no": null, "card4noAcc": null, "district2": 416, "searchScope": null, "status": 1, "address": "\u6dde\u5357\u8def459-7\u53f7", "name": "\u8fea\u4e9a\u5929\u5929 \u6dde\u5357\u5e97", "id": 199107, "pageNo": 0, "pageCount": null, "pageSize": 10, "ids": null, "endTime": null, "startTime": null}], "pageLimit": 8940, "size": 10}