{"pageCount": 1095, "count": 10942, "pageNo": 904, "subShopInfo": {"cardNumFive": "", "isSupportYj": "", "cityName": null, "districtName": null, "shopinfo": {"mid": null, "good_flag": null, "new_flag": null, "short_name": null, "short_name_pinyin": null, "status": null, "address": "", "name": "", "id": null}, "mid": null, "shopId": null, "netid": null, "province": 901, "district": null, "zipcode": null, "telephone": null, "posDate": null, "destineTel": null, "togoTel": null, "trafficWay": null, "signBuilding": null, "businessArea": null, "selfRoom": null, "businessTime": null, "stall": null, "consume": null, "serviceFei": null, "favourable": null, "shopMemo": "1", "appraise": null, "website": null, "memo": null, "payTypes": "", "shopTypes": "", "consumeTypes": null, "cookTypes": null, "orderNum": null, "card4no": null, "card4noAcc": null, "district2": null, "searchScope": null, "status": null, "address": "", "name": null, "id": null, "pageNo": 903, "pageCount": null, "pageSize": 10, "ids": null, "endTime": null, "startTime": null}, "list": [{"cardNumFive": null, "isSupportYj": null, "cityName": null, "districtName": null, "shopinfo": {"mid": "888888880430008", "good_flag": "2", "new_flag": "2", "short_name": "\u5434\u826f\u6750\u773c\u955c", "short_name_pinyin": "wuliangcaiyanjing", "status": null, "address": null, "name": null, "id": "33545"}, "mid": "888888880430008", "shopId": "33545", "netid": null, "province": 901, "district": 601, "zipcode": null, "telephone": "63222113/63222239*1218/1217", "posDate": "20090422", "destineTel": null, "togoTel": null, "trafficWay": null, "signBuilding": null, "businessArea": null, "selfRoom": null, "businessTime": null, "stall": null, "consume": null, "serviceFei": null, "favourable": null, "shopMemo": null, "appraise": null, "website": null, "memo": null, "payTypes": "\u6749\u5fb7\u5361", "shopTypes": "\u96f6\u552e,\u4e13\u5356", "consumeTypes": null, "cookTypes": null, "orderNum": 1000, "card4no": null, "card4noAcc": null, "district2": 401, "searchScope": null, "status": 1, "address": "\u5357\u4eac\u4e1c\u8def456\u53f7", "name": "\u5434\u826f\u6750\u773c\u955c \u5357\u4eac\u4e1c\u8def\u5e97", "id": 143002, "pageNo": 0, "pageCount": null, "pageSize": 10, "ids": null, "endTime": null, "startTime": null}, {"cardNumFive": null, "isSupportYj": null, "cityName": null, "districtName": null, "shopinfo": {"mid": "888888880430008", "good_flag": "2", "new_flag": "2", "short_name": "\u5434\u826f\u6750\u773c\u955c", "short_name_pinyin": "wuliangcaiyanjing", "status": null, "address": null, "name": null, "id": "33545"}, "mid": "888888880430008", "shopId": "33545", "netid": null, "province": 901, "district": 601, "zipcode": null, "telephone": "63522500", "posDate": "20080123", "destineTel": null, "togoTel": null, "trafficWay": null, "signBuilding": null, "businessArea": null, "selfRoom": null, "businessTime": null, "stall": null, "consume": null, "serviceFei": null, "favourable": null, "shopMemo": null, "appraise": null, "website": null, "memo": null, "payTypes": "\u6749\u5fb7\u5361", "shopTypes": "\u96f6\u552e,\u4e13\u5356", "consumeTypes": null, "cookTypes": null, "orderNum": 1000, "card4no": null, "card4noAcc": null, "district2": 401, "searchScope": null, "status": 1, "address": "\u5357\u4eac\u4e1c\u8def456\u53f7", "name": "\u5434\u826f\u6750\u773c\u955c \u5357\u4eac\u4e1c\u8def\u603b\u5e97", "id": 143003, "pageNo": 0, "pageCount": null, "pageSize": 10, "ids": null, "endTime": null, "startTime": null}, {"cardNumFive": null, "isSupportYj": null, "cityName": null, "districtName": null, "shopinfo": {"mid": "888888880430002", "good_flag": "2", "new_flag": "2", "short_name": "\u5434\u826f\u6750\u773c\u955c", "short_name_pinyin": "wuliangcaiyanjing", "status": null, "address": null, "name": null, "id": "33544"}, "mid": "888888880430002", "shopId": "33544", "netid": null, "province": 901, "district": 601, "zipcode": "200090", "telephone": "35120982", "posDate": "20061219", "destineTel": "35120982", "togoTel": "35120982", "trafficWay": "\u7533\u5ddd\u7ebf 868", "signBuilding": null, "businessArea": null, "selfRoom": "\u65e0", "businessTime": null, "stall": "\u65e0", "consume": null, "serviceFei": null, "favourable": null, "shopMemo": null, "appraise": null, "website": null, "memo": null, "payTypes": "\u6749\u5fb7\u5361", "shopTypes": "\u96f6\u552e,\u4e13\u5356", "consumeTypes": null, "cookTypes": null, "orderNum": 1000, "card4no": null, "card4noAcc": null, "district2": 407, "searchScope": null, "status": 1, "address": "\u6768\u6d66\u5e73\u51c9\u8def1489\u53f7", "name": "\u5434\u826f\u6750\u773c\u955c \u5e73\u51c9\u5e97", "id": 143004, "pageNo": 0, "pageCount": null, "pageSize": 10, "ids": null, "endTime": null, "startTime": null}, {"cardNumFive": null, "isSupportYj": null, "cityName": null, "districtName": null, "shopinfo": {"mid": "888888880430008", "good_flag": "2", "new_flag": "2", "short_name": "\u5434\u826f\u6750\u773c\u955c", "short_name_pinyin": "wuliangcaiyanjing", "status": null, "address": null, "name": null, "id": "33545"}, "mid": "888888880430008", "shopId": "33545", "netid": null, "province": 901, "district": 601, "zipcode": null, "telephone": "50395890", "posDate": "20070716", "destineTel": null, "togoTel": null, "trafficWay": "\u516c\u4ea4984 955 \u5927\u6865\u4e00\u7ebf", "signBuilding": null, "businessArea": null, "selfRoom": null, "businessTime": null, "stall": null, "consume": null, "serviceFei": null, "favourable": null, "shopMemo": null, "appraise": null, "website": null, "memo": null, "payTypes": "\u6749\u5fb7\u5361", "shopTypes": "\u96f6\u552e,\u4e13\u5356", "consumeTypes": null, "cookTypes": null, "orderNum": 1000, "card4no": null, "card4noAcc": null, "district2": 418, "searchScope": null, "status": 1, "address": "\u6d66\u4e09\u8def75\u53f7", "name": "\u5434\u826f\u6750\u773c\u955c \u6d66\u4e09\u5e97", "id": 143005, "pageNo": 0, "pageCount": null, "pageSize": 10, "ids": null, "endTime": null, "startTime": null}, {"cardNumFive": null, "isSupportYj": null, "cityName": null, "districtName": null, "shopinfo": {"mid": "888888880430047", "good_flag": "2", "new_flag": "2", "short_name": "\u5434\u826f\u6750\u773c\u955c", "short_name_pinyin": "wuliangcaiyanjing", "status": null, "address": null, "name": null, "id": "33546"}, "mid": "888888880430047", "shopId": "33546", "netid": null, "province": 901, "district": 601, "zipcode": null, "telephone": "64597873", "posDate": "20080229", "destineTel": null, "togoTel": null, "trafficWay": "\u6caa\u677e\u7ebf \u5357\u4f58\u7ebf", "signBuilding": null, "businessArea": null, "selfRoom": null, "businessTime": null, "stall": null, "consume": null, "serviceFei": null, "favourable": null, "shopMemo": null, "appraise": null, "website": null, "memo": null, "payTypes": "\u6749\u5fb7\u5361", "shopTypes": "\u96f6\u552e,\u4e13\u5356", "consumeTypes": null, "cookTypes": null, "orderNum": 1000, "card4no": null, "card4noAcc": null, "district2": 409, "searchScope": null, "status": 1, "address": "\u4e03\u8398\u8def3068\u53f7", "name": "\u5434\u826f\u6750\u773c\u955c \u4e03\u5b9d\u5e97", "id": 143006, "pageNo": 0, "pageCount": null, "pageSize": 10, "ids": null, "endTime": null, "startTime": null}, {"cardNumFive": null, "isSupportYj": null, "cityName": null, "districtName": null, "shopinfo": {"mid": "888888880430008", "good_flag": "2", "new_flag": "2", "short_name": "\u5434\u826f\u6750\u773c\u955c", "short_name_pinyin": "wuliangcaiyanjing", "status": null, "address": null, "name": null, "id": "33545"}, "mid": "888888880430008", "shopId": "33545", "netid": null, "province": 901, "district": 601, "zipcode": null, "telephone": "69711291", "posDate": "20070716", "destineTel": null, "togoTel": null, "trafficWay": "\u4e0a\u6731\u7ebf\u533a\u95f4", "signBuilding": null, "businessArea": null, "selfRoom": null, "businessTime": null, "stall": null, "consume": null, "serviceFei": null, "favourable": null, "shopMemo": null, "appraise": null, "website": null, "memo": null, "payTypes": "\u6749\u5fb7\u5361", "shopTypes": "\u96f6\u552e,\u4e13\u5356", "consumeTypes": null, "cookTypes": null, "orderNum": 1000, "card4no": null, "card4noAcc": null, "district2": 417, "searchScope": null, "status": 1, "address": "\u767e\u8054\u6865\u6893\u6e7e\u516c\u56ed\u8def666\u5f04135\u53f7", "name": "\u5434\u826f\u6750\u773c\u955c \u9752\u6d66\u5e97", "id": 143007, "pageNo": 0, "pageCount": null, "pageSize": 10, "ids": null, "endTime": null, "startTime": null}, {"cardNumFive": null, "isSupportYj": null, "cityName": null, "districtName": null, "shopinfo": {"mid": "888888880430002", "good_flag": "2", "new_flag": "2", "short_name": "\u5434\u826f\u6750\u773c\u955c", "short_name_pinyin": "wuliangcaiyanjing", "status": null, "address": null, "name": null, "id": "33544"}, "mid": "888888880430002", "shopId": "33544", "netid": null, "province": 901, "district": 601, "zipcode": null, "telephone": null, "posDate": "20080526", "destineTel": null, "togoTel": null, "trafficWay": "\u516c\u4ea420 37 \u5730\u94c1\u4e8c\u53f7\u7ebf", "signBuilding": null, "businessArea": null, "selfRoom": null, "businessTime": null, "stall": null, "consume": null, "serviceFei": null, "favourable": null, "shopMemo": null, "appraise": null, "website": null, "memo": null, "payTypes": "\u6749\u5fb7\u5361", "shopTypes": "\u96f6\u552e,\u4e13\u5356", "consumeTypes": null, "cookTypes": null, "orderNum": 1000, "card4no": null, "card4noAcc": null, "district2": 401, "searchScope": null, "status": 1, "address": "\u5929\u6d25\u8def297\u53f7", "name": "\u5434\u826f\u6750\u773c\u955c \u5929\u6d25\u8def\u5e97", "id": 143008, "pageNo": 0, "pageCount": null, "pageSize": 10, "ids": null, "endTime": null, "startTime": null}, {"cardNumFive": null, "isSupportYj": null, "cityName": null, "districtName": null, "shopinfo": {"mid": "888888880430002", "good_flag": "2", "new_flag": "2", "short_name": "\u5434\u826f\u6750\u773c\u955c", "short_name_pinyin": "wuliangcaiyanjing", "status": null, "address": null, "name": null, "id": "33544"}, "mid": "888888880430002", "shopId": "33544", "netid": null, "province": 901, "district": 601, "zipcode": "200051", "telephone": "62591194", "posDate": "20061225", "destineTel": "62591194", "togoTel": "62591194", "trafficWay": "855 808", "signBuilding": null, "businessArea": null, "selfRoom": "\u65e0", "businessTime": null, "stall": "\u65e0", "consume": null, "serviceFei": null, "favourable": null, "shopMemo": null, "appraise": null, "website": null, "memo": null, "payTypes": "\u6749\u5fb7\u5361", "shopTypes": "\u96f6\u552e,\u4e13\u5356", "consumeTypes": null, "cookTypes": null, "orderNum": 1000, "card4no": null, "card4noAcc": null, "district2": 406, "searchScope": null, "status": 1, "address": "\u957f\u5b81\u5929\u5c71\u8def940\u53f7", "name": "\u5434\u826f\u6750\u773c\u955c \u5929\u5c71\u5e97", "id": 143009, "pageNo": 0, "pageCount": null, "pageSize": 10, "ids": null, "endTime": null, "startTime": null}, {"cardNumFive": null, "isSupportYj": null, "cityName": null, "districtName": null, "shopinfo": {"mid": "888888880430008", "good_flag": "2", "new_flag": "2", "short_name": "\u5434\u826f\u6750\u773c\u955c", "short_name_pinyin": "wuliangcaiyanjing", "status": null, "address": null, "name": null, "id": "33545"}, "mid": "888888880430008", "shopId": "33545", "netid": null, "province": 901, "district": 601, "zipcode": null, "telephone": "33686776", "posDate": "20090427", "destineTel": null, "togoTel": null, "trafficWay": null, "signBuilding": null, "businessArea": null, "selfRoom": null, "businessTime": null, "stall": null, "consume": null, "serviceFei": null, "favourable": null, "shopMemo": null, "appraise": null, "website": null, "memo": null, "payTypes": "\u6749\u5fb7\u5361", "shopTypes": "\u96f6\u552e,\u4e13\u5356", "consumeTypes": null, "cookTypes": null, "orderNum": 1000, "card4no": null, "card4noAcc": null, "district2": 403, "searchScope": null, "status": 1, "address": "\u5929\u94a5\u6865\u8def135\u53f7", "name": "\u5434\u826f\u6750\u773c\u955c \u5929\u94a5\u6865\u8def\u5e97", "id": 143010, "pageNo": 0, "pageCount": null, "pageSize": 10, "ids": null, "endTime": null, "startTime": null}, {"cardNumFive": null, "isSupportYj": null, "cityName": null, "districtName": null, "shopinfo": {"mid": "888888880430002", "good_flag": "2", "new_flag": "2", "short_name": "\u5434\u826f\u6750\u773c\u955c", "short_name_pinyin": "wuliangcaiyanjing", "status": null, "address": null, "name": null, "id": "33544"}, "mid": "888888880430002", "shopId": "33544", "netid": null, "province": 901, "district": 601, "zipcode": "200233", "telephone": "64700935", "posDate": "20061219", "destineTel": "64700935", "togoTel": "64700935", "trafficWay": "809 953", "signBuilding": null, "businessArea": null, "selfRoom": "\u65e0", "businessTime": null, "stall": "\u65e0", "consume": null, "serviceFei": null, "favourable": null, "shopMemo": null, "appraise": null, "website": null, "memo": null, "payTypes": "\u6749\u5fb7\u5361", "shopTypes": "\u96f6\u552e,\u4e13\u5356", "consumeTypes": null, "cookTypes": null, "orderNum": 1000, "card4no": null, "card4noAcc": null, "district2": 403, "searchScope": null, "status": 1, "address": "\u5f90\u6c47\u7530\u6797\u8def30\u53f7", "name": "\u5434\u826f\u6750\u773c\u955c \u7530\u6797\u5e97", "id": 143011, "pageNo": 0, "pageCount": null, "pageSize": 10, "ids": null, "endTime": null, "startTime": null}], "pageLimit": 9030, "size": 10}