{"pageCount": 1095, "count": 10942, "pageNo": 905, "subShopInfo": {"cardNumFive": "", "isSupportYj": "", "cityName": null, "districtName": null, "shopinfo": {"mid": null, "good_flag": null, "new_flag": null, "short_name": null, "short_name_pinyin": null, "status": null, "address": "", "name": "", "id": null}, "mid": null, "shopId": null, "netid": null, "province": 901, "district": null, "zipcode": null, "telephone": null, "posDate": null, "destineTel": null, "togoTel": null, "trafficWay": null, "signBuilding": null, "businessArea": null, "selfRoom": null, "businessTime": null, "stall": null, "consume": null, "serviceFei": null, "favourable": null, "shopMemo": "1", "appraise": null, "website": null, "memo": null, "payTypes": "", "shopTypes": "", "consumeTypes": null, "cookTypes": null, "orderNum": null, "card4no": null, "card4noAcc": null, "district2": null, "searchScope": null, "status": null, "address": "", "name": null, "id": null, "pageNo": 904, "pageCount": null, "pageSize": 10, "ids": null, "endTime": null, "startTime": null}, "list": [{"cardNumFive": null, "isSupportYj": null, "cityName": null, "districtName": null, "shopinfo": {"mid": "888888880430008", "good_flag": "2", "new_flag": "2", "short_name": "\u5434\u826f\u6750\u773c\u955c", "short_name_pinyin": "wuliangcaiyanjing", "status": null, "address": null, "name": null, "id": "33545"}, "mid": "888888880430008", "shopId": "33545", "netid": null, "province": 901, "district": 601, "zipcode": null, "telephone": "65102704", "posDate": "20070720", "destineTel": null, "togoTel": null, "trafficWay": "\u516c\u4ea4942 828 937", "signBuilding": null, "businessArea": null, "selfRoom": null, "businessTime": null, "stall": "\u65e0", "consume": null, "serviceFei": null, "favourable": null, "shopMemo": null, "appraise": null, "website": null, "memo": null, "payTypes": "\u6749\u5fb7\u5361", "shopTypes": "\u4e13\u5356,\u96f6\u552e", "consumeTypes": null, "cookTypes": null, "orderNum": 1000, "card4no": null, "card4noAcc": null, "district2": 407, "searchScope": null, "status": 1, "address": "\u6dde\u6caa\u8def111\u53f7", "name": "\u5434\u826f\u6750\u773c\u955c \u4e07\u8fbe\u5e97", "id": 143012, "pageNo": 0, "pageCount": null, "pageSize": 10, "ids": null, "endTime": null, "startTime": null}, {"cardNumFive": null, "isSupportYj": null, "cityName": null, "districtName": null, "shopinfo": {"mid": "888888880430002", "good_flag": "2", "new_flag": "2", "short_name": "\u5434\u826f\u6750\u773c\u955c", "short_name_pinyin": "wuliangcaiyanjing", "status": null, "address": null, "name": null, "id": "33544"}, "mid": "888888880430002", "shopId": "33544", "netid": null, "province": 901, "district": 601, "zipcode": "200063", "telephone": "52919206", "posDate": "20061219", "destineTel": "52919206", "togoTel": "52919206", "trafficWay": "\u516c\u4ea444", "signBuilding": null, "businessArea": null, "selfRoom": "\u65e0", "businessTime": null, "stall": "\u65e0", "consume": null, "serviceFei": null, "favourable": null, "shopMemo": null, "appraise": null, "website": null, "memo": null, "payTypes": "\u6749\u5fb7\u5361", "shopTypes": "\u96f6\u552e,\u4e13\u5356", "consumeTypes": null, "cookTypes": null, "orderNum": 1000, "card4no": null, "card4noAcc": null, "district2": 405, "searchScope": null, "status": 1, "address": "\u666e\u9640\u6b66\u5b81\u8def98\u53f7", "name": "\u5434\u826f\u6750\u773c\u955c \u6b66\u5b81\u5e97", "id": 143013, "pageNo": 0, "pageCount": null, "pageSize": 10, "ids": null, "endTime": null, "startTime": null}, {"cardNumFive": null, "isSupportYj": null, "cityName": null, "districtName": null, "shopinfo": {"mid": "888888880430008", "good_flag": null, "new_flag": null, "short_name": "\u5434\u826f\u6750\u773c\u955c", "short_name_pinyin": "wuliangcaiyanjing", "status": null, "address": null, "name": null, "id": "38953"}, "mid": "888888880430008", "shopId": "38953", "netid": null, "province": 901, "district": 601, "zipcode": null, "telephone": "56352972", "posDate": null, "destineTel": null, "togoTel": null, "trafficWay": null, "signBuilding": null, "businessArea": null, "selfRoom": null, "businessTime": null, "stall": null, "consume": null, "serviceFei": null, "favourable": null, "shopMemo": null, "appraise": null, "website": null, "memo": null, "payTypes": "\u6749\u5fb7\u5361", "shopTypes": "\u4e13\u5356", "consumeTypes": null, "cookTypes": null, "orderNum": 1000, "card4no": null, "card4noAcc": null, "district2": 408, "searchScope": null, "status": 1, "address": "\u897f\u6c5f\u6e7e\u8def388\u53f7\u5730\u4e0b\u4e8c\u5c42", "name": "\u5434\u826f\u6750\u773c\u955c \u8679\u53e3\u9f99\u4e4b\u68a6\u5e97", "id": 164892, "pageNo": 0, "pageCount": null, "pageSize": 10, "ids": null, "endTime": null, "startTime": null}, {"cardNumFive": null, "isSupportYj": null, "cityName": null, "districtName": null, "shopinfo": {"mid": "888888880430008", "good_flag": "2", "new_flag": "2", "short_name": "\u5434\u826f\u6750\u773c\u955c", "short_name_pinyin": "wuliangcaiyanjing", "status": null, "address": null, "name": null, "id": "33545"}, "mid": "888888880430008", "shopId": "33545", "netid": null, "province": 901, "district": 601, "zipcode": null, "telephone": null, "posDate": null, "destineTel": null, "togoTel": null, "trafficWay": null, "signBuilding": null, "businessArea": null, "selfRoom": null, "businessTime": null, "stall": null, "consume": null, "serviceFei": null, "favourable": null, "shopMemo": null, "appraise": null, "website": null, "memo": null, "payTypes": "\u6749\u5fb7\u5361", "shopTypes": "\u4e13\u5356", "consumeTypes": null, "cookTypes": null, "orderNum": 1000, "card4no": null, "card4noAcc": null, "district2": 406, "searchScope": null, "status": 1, "address": "\u5b9a\u897f\u8def1313\u53f7\u4e5902\u5ba4", "name": "\u5434\u826f\u6750\u773c\u955c \u5b9a\u897f\u5e97", "id": 170082, "pageNo": 0, "pageCount": null, "pageSize": 10, "ids": null, "endTime": null, "startTime": null}, {"cardNumFive": null, "isSupportYj": null, "cityName": null, "districtName": null, "shopinfo": {"mid": "888888880430008", "good_flag": "2", "new_flag": "2", "short_name": "\u5434\u826f\u6750\u773c\u955c", "short_name_pinyin": "wuliangcaiyanjing", "status": null, "address": null, "name": null, "id": "33545"}, "mid": "888888880430008", "shopId": "33545", "netid": null, "province": 901, "district": 601, "zipcode": null, "telephone": null, "posDate": null, "destineTel": null, "togoTel": null, "trafficWay": null, "signBuilding": null, "businessArea": null, "selfRoom": null, "businessTime": null, "stall": null, "consume": null, "serviceFei": null, "favourable": null, "shopMemo": null, "appraise": null, "website": null, "memo": null, "payTypes": "\u6749\u5fb7\u5361", "shopTypes": "\u4e13\u5356", "consumeTypes": null, "cookTypes": null, "orderNum": 1000, "card4no": null, "card4noAcc": null, "district2": 408, "searchScope": null, "status": 1, "address": "\u56db\u5ddd\u5317\u8def1594-1596\u53f7", "name": "\u5434\u826f\u6750\u773c\u955c \u56db\u5ddd\u5317\u8def\u5e97", "id": 170083, "pageNo": 0, "pageCount": null, "pageSize": 10, "ids": null, "endTime": null, "startTime": null}, {"cardNumFive": null, "isSupportYj": null, "cityName": null, "districtName": null, "shopinfo": {"mid": "888002180430012", "good_flag": "2", "new_flag": "2", "short_name": "\u5434\u826f\u6750\u773c\u955c", "short_name_pinyin": "wuliangcaiyanjing", "status": null, "address": null, "name": null, "id": "382852033612349440"}, "mid": "888002180430012", "shopId": "382852033612349440", "netid": null, "province": 901, "district": 601, "zipcode": null, "telephone": null, "posDate": null, "destineTel": null, "togoTel": null, "trafficWay": null, "signBuilding": null, "businessArea": null, "selfRoom": null, "businessTime": null, "stall": null, "consume": null, "serviceFei": null, "favourable": null, "shopMemo": null, "appraise": null, "website": null, "memo": null, "payTypes": "\u6749\u5fb7\u5361,", "shopTypes": "\u4e13\u5356", "consumeTypes": null, "cookTypes": null, "orderNum": null, "card4no": null, "card4noAcc": null, "district2": 407, "searchScope": null, "status": 1, "address": "\u7fd4\u6bb7\u8def1099\u53f7B2-39", "name": "\u5408\u751f\u56fd\u9645\u5e97", "id": 382852032987398144, "pageNo": 0, "pageCount": null, "pageSize": 10, "ids": null, "endTime": null, "startTime": null}, {"cardNumFive": null, "isSupportYj": null, "cityName": null, "districtName": null, "shopinfo": {"mid": "888002180430012", "good_flag": "2", "new_flag": "2", "short_name": "\u5434\u826f\u6750\u773c\u955c", "short_name_pinyin": "wuliangcaiyanjing", "status": null, "address": null, "name": null, "id": "382852033612349440"}, "mid": "888002180430012", "shopId": "382852033612349440", "netid": null, "province": 901, "district": 601, "zipcode": null, "telephone": null, "posDate": null, "destineTel": null, "togoTel": null, "trafficWay": null, "signBuilding": null, "businessArea": null, "selfRoom": null, "businessTime": null, "stall": null, "consume": null, "serviceFei": null, "favourable": null, "shopMemo": null, "appraise": null, "website": null, "memo": null, "payTypes": "\u6749\u5fb7\u5361,", "shopTypes": "\u4e13\u5356", "consumeTypes": null, "cookTypes": null, "orderNum": null, "card4no": null, "card4noAcc": null, "district2": 401, "searchScope": null, "status": 1, "address": "\u6dee\u6d77\u4e2d\u8def614\u53f7", "name": "\u6dee\u6d77\u4e2d\u8def\u5e97", "id": 382852036888100864, "pageNo": 0, "pageCount": null, "pageSize": 10, "ids": null, "endTime": null, "startTime": null}, {"cardNumFive": null, "isSupportYj": null, "cityName": null, "districtName": null, "shopinfo": {"mid": "888002180430012", "good_flag": "2", "new_flag": "2", "short_name": "\u5434\u826f\u6750\u773c\u955c", "short_name_pinyin": "wuliangcaiyanjing", "status": null, "address": null, "name": null, "id": "382852033612349440"}, "mid": "888002180430012", "shopId": "382852033612349440", "netid": null, "province": 901, "district": 601, "zipcode": null, "telephone": null, "posDate": null, "destineTel": null, "togoTel": null, "trafficWay": null, "signBuilding": null, "businessArea": null, "selfRoom": null, "businessTime": null, "stall": null, "consume": null, "serviceFei": null, "favourable": null, "shopMemo": null, "appraise": null, "website": null, "memo": null, "payTypes": "", "shopTypes": null, "consumeTypes": null, "cookTypes": null, "orderNum": null, "card4no": null, "card4noAcc": null, "district2": 406, "searchScope": null, "status": 1, "address": "\u611a\u56ed\u8def68\u53f7\u6676\u54c1\u5546\u53a6\u5730\u4e0b\u4e00\u5c4216\u5ba4", "name": "\u611a\u56ed\u8def\u5e97", "id": 503957929544646656, "pageNo": 0, "pageCount": null, "pageSize": 10, "ids": null, "endTime": null, "startTime": null}, {"cardNumFive": null, "isSupportYj": null, "cityName": null, "districtName": null, "shopinfo": {"mid": "888002153111096", "good_flag": "2", "new_flag": "2", "short_name": "\u7269\u7f8e\u5927\u5356\u573a", "short_name_pinyin": "wumeidamaichang", "status": null, "address": null, "name": null, "id": "33691"}, "mid": "888002153111096", "shopId": "33691", "netid": null, "province": 901, "district": 601, "zipcode": null, "telephone": null, "posDate": "200911", "destineTel": null, "togoTel": null, "trafficWay": null, "signBuilding": null, "businessArea": null, "selfRoom": null, "businessTime": null, "stall": null, "consume": null, "serviceFei": null, "favourable": null, "shopMemo": null, "appraise": null, "website": null, "memo": null, "payTypes": "\u6749\u5fb7\u5361", "shopTypes": "\u8d85\u5e02", "consumeTypes": null, "cookTypes": null, "orderNum": 1000, "card4no": null, "card4noAcc": null, "district2": 408, "searchScope": null, "status": 1, "address": "\u901a\u5dde\u8def300\u53f7", "name": "\u7269\u7f8e\u5927\u5356\u573a \u901a\u5dde\u8def\u5e97", "id": 143579, "pageNo": 0, "pageCount": null, "pageSize": 10, "ids": null, "endTime": null, "startTime": null}, {"cardNumFive": null, "isSupportYj": null, "cityName": null, "districtName": null, "shopinfo": {"mid": "888888858120664", "good_flag": "2", "new_flag": "2", "short_name": "\u5c4b\u4f01\u6c64\u9986", "short_name_pinyin": "wuqitangguan", "status": null, "address": null, "name": null, "id": "33538"}, "mid": "888888858120664", "shopId": "33538", "netid": null, "province": 901, "district": 601, "zipcode": null, "telephone": null, "posDate": null, "destineTel": null, "togoTel": null, "trafficWay": "\u5730\u94c1\u4e00\u53f7\u7ebf", "signBuilding": null, "businessArea": null, "selfRoom": null, "businessTime": null, "stall": null, "consume": null, "serviceFei": null, "favourable": null, "shopMemo": null, "appraise": null, "website": null, "memo": null, "payTypes": "\u6749\u5fb7\u5361", "shopTypes": "\u9910\u996e", "consumeTypes": null, "cookTypes": null, "orderNum": 1000, "card4no": null, "card4noAcc": null, "district2": 401, "searchScope": null, "status": 1, "address": "\u6dee\u6d77\u4e2d\u8def438-443\u53f72\u697c", "name": "\u5c4b\u4f01\u6c64\u9986 \u6dee\u6d77\u4e2d\u8def\u5e97", "id": 142987, "pageNo": 0, "pageCount": null, "pageSize": 10, "ids": null, "endTime": null, "startTime": null}], "pageLimit": 9040, "size": 10}