{"pageCount": 1095, "count": 10942, "pageNo": 902, "subShopInfo": {"cardNumFive": "", "isSupportYj": "", "cityName": null, "districtName": null, "shopinfo": {"mid": null, "good_flag": null, "new_flag": null, "short_name": null, "short_name_pinyin": null, "status": null, "address": "", "name": "", "id": null}, "mid": null, "shopId": null, "netid": null, "province": 901, "district": null, "zipcode": null, "telephone": null, "posDate": null, "destineTel": null, "togoTel": null, "trafficWay": null, "signBuilding": null, "businessArea": null, "selfRoom": null, "businessTime": null, "stall": null, "consume": null, "serviceFei": null, "favourable": null, "shopMemo": "1", "appraise": null, "website": null, "memo": null, "payTypes": "", "shopTypes": "", "consumeTypes": null, "cookTypes": null, "orderNum": null, "card4no": null, "card4noAcc": null, "district2": null, "searchScope": null, "status": null, "address": "", "name": null, "id": null, "pageNo": 901, "pageCount": null, "pageSize": 10, "ids": null, "endTime": null, "startTime": null}, "list": [{"cardNumFive": null, "isSupportYj": null, "cityName": null, "districtName": null, "shopinfo": {"mid": "888888854110004", "good_flag": "1", "new_flag": "2", "short_name": "\u6587\u5cf0\u5343\u5bb6\u60e0\u8d2d\u7269\u4e2d\u5fc3", "short_name_pinyin": "wenfengqianjiahuigouwuzhongxin", "status": null, "address": null, "name": null, "id": "33529"}, "mid": "888888854110004", "shopId": "33529", "netid": null, "province": 901, "district": 601, "zipcode": "200129", "telephone": "021-58718888", "posDate": "20061107", "destineTel": "021-58718888", "togoTel": "021-58718888", "trafficWay": null, "signBuilding": null, "businessArea": null, "selfRoom": "\u65e0", "businessTime": null, "stall": "\u6709", "consume": null, "serviceFei": null, "favourable": null, "shopMemo": null, "appraise": null, "website": null, "memo": null, "payTypes": "\u6749\u5fb7\u5361", "shopTypes": "\u767e\u8d27", "consumeTypes": null, "cookTypes": null, "orderNum": 1000, "card4no": null, "card4noAcc": null, "district2": 418, "searchScope": null, "status": 1, "address": "\u6d66\u5174\u8def801\u53f7", "name": "\u6587\u5cf0\u5343\u5bb6\u60e0\u8d2d\u7269\u4e2d\u5fc3 \u6d66\u5174\u8def_\u6d66\u5174\u8def\u5e97", "id": 142978, "pageNo": 0, "pageCount": null, "pageSize": 10, "ids": null, "endTime": null, "startTime": null}, {"cardNumFive": null, "isSupportYj": null, "cityName": null, "districtName": null, "shopinfo": {"mid": "888002172990037", "good_flag": null, "new_flag": null, "short_name": "\u6587\u5316\u5e7f\u573a", "short_name_pinyin": "wenhuaguangchang", "status": null, "address": null, "name": null, "id": "39654"}, "mid": "888002172990037", "shopId": "39654", "netid": null, "province": 901, "district": 601, "zipcode": null, "telephone": "54619961", "posDate": null, "destineTel": null, "togoTel": null, "trafficWay": null, "signBuilding": null, "businessArea": null, "selfRoom": null, "businessTime": null, "stall": null, "consume": null, "serviceFei": null, "favourable": null, "shopMemo": null, "appraise": null, "website": null, "memo": null, "payTypes": "\u6749\u5fb7\u5361", "shopTypes": "\u5176\u4ed6", "consumeTypes": null, "cookTypes": null, "orderNum": 1000, "card4no": null, "card4noAcc": null, "district2": 401, "searchScope": null, "status": 1, "address": "\u9655\u897f\u5357\u8def225\u53f7", "name": "\u6587\u5316\u5e7f\u573a \u7968\u52a1\u4e2d\u5fc3", "id": 170059, "pageNo": 0, "pageCount": null, "pageSize": 10, "ids": null, "endTime": null, "startTime": null}, {"cardNumFive": null, "isSupportYj": null, "cityName": null, "districtName": null, "shopinfo": {"mid": "888002154110646", "good_flag": null, "new_flag": null, "short_name": "\u6c83\u5c14\u739b", "short_name_pinyin": "woerma", "status": null, "address": null, "name": null, "id": "42373"}, "mid": "888002154110646", "shopId": "42373", "netid": null, "province": 901, "district": 601, "zipcode": null, "telephone": null, "posDate": null, "destineTel": null, "togoTel": null, "trafficWay": null, "signBuilding": null, "businessArea": null, "selfRoom": null, "businessTime": null, "stall": null, "consume": null, "serviceFei": null, "favourable": null, "shopMemo": null, "appraise": null, "website": null, "memo": null, "payTypes": "\u6749\u5fb7\u5361", "shopTypes": "\u8d85\u5e02", "consumeTypes": null, "cookTypes": null, "orderNum": 1000, "card4no": null, "card4noAcc": null, "district2": 401, "searchScope": null, "status": 1, "address": "\u6d66\u4e1c\u65b0\u533a\u4e34\u6c82\u5317\u8def252-262\u53f7\u7531\u7531-\u6c83\u5c14\u739b\u8d2d\u7269\u5e7f\u573a\u5730\u4e0a\u4e00\u5c42\u548c\u5730\u4e0a\u4e8c\u5c42", "name": "\u6c83\u5c14\u739b \u6c83\u5c14\u739b\u8d2d\u7269\u5e7f\u573a\u4e0a\u6d77\u5357\u6d66\u5927\u6865\u5e97(1014)", "id": 188999, "pageNo": 0, "pageCount": null, "pageSize": 10, "ids": null, "endTime": null, "startTime": null}, {"cardNumFive": null, "isSupportYj": null, "cityName": null, "districtName": null, "shopinfo": {"mid": "888002154110647", "good_flag": null, "new_flag": null, "short_name": "\u6c83\u5c14\u739b", "short_name_pinyin": "woerma", "status": null, "address": null, "name": null, "id": "42374"}, "mid": "888002154110647", "shopId": "42374", "netid": null, "province": 901, "district": 601, "zipcode": null, "telephone": null, "posDate": null, "destineTel": null, "togoTel": null, "trafficWay": null, "signBuilding": null, "businessArea": null, "selfRoom": null, "businessTime": null, "stall": null, "consume": null, "serviceFei": null, "favourable": null, "shopMemo": null, "appraise": null, "website": null, "memo": null, "payTypes": "\u6749\u5fb7\u5361", "shopTypes": "\u8d85\u5e02", "consumeTypes": null, "cookTypes": null, "orderNum": 1000, "card4no": null, "card4noAcc": null, "district2": 407, "searchScope": null, "status": 1, "address": "\u4e0a\u6d77\u5e02\u6768\u6d66\u533a\u677e\u6caa\u8def125\u53f7", "name": "\u6c83\u5c14\u739b \u6c83\u5c14\u739b\u8d2d\u7269\u5e7f\u573a\u4e0a\u6d77\u4e94\u89d2\u573a\u5206\u5e97(1017)", "id": 189000, "pageNo": 0, "pageCount": null, "pageSize": 10, "ids": null, "endTime": null, "startTime": null}, {"cardNumFive": null, "isSupportYj": null, "cityName": null, "districtName": null, "shopinfo": {"mid": "888002154110650", "good_flag": null, "new_flag": null, "short_name": "\u6c83\u5c14\u739b", "short_name_pinyin": "woerma", "status": null, "address": null, "name": null, "id": "42375"}, "mid": "888002154110650", "shopId": "42375", "netid": null, "province": 901, "district": 601, "zipcode": null, "telephone": null, "posDate": null, "destineTel": null, "togoTel": null, "trafficWay": null, "signBuilding": null, "businessArea": null, "selfRoom": null, "businessTime": null, "stall": null, "consume": null, "serviceFei": null, "favourable": null, "shopMemo": null, "appraise": null, "website": null, "memo": null, "payTypes": "\u6749\u5fb7\u5361", "shopTypes": "\u8d85\u5e02", "consumeTypes": null, "cookTypes": null, "orderNum": 1000, "card4no": null, "card4noAcc": null, "district2": 411, "searchScope": null, "status": 1, "address": "\u5609\u5b9a\u533a\u66f9\u5b89\u516c\u8def2200\u53f7\u5609\u83b2\u534e\u56fd\u9645\u5546\u4e1a\u5e7f\u573a\u5730\u4e0a\u7b2c\u4e8c\u3001\u4e09\u5c42", "name": "\u6c83\u5c14\u739b \u6c83\u5c14\u739b\u8d2d\u7269\u5e7f\u573a\u4e0a\u6d77\u6c5f\u6865\u5206\u5e97(1072)", "id": 189001, "pageNo": 0, "pageCount": null, "pageSize": 10, "ids": null, "endTime": null, "startTime": null}, {"cardNumFive": null, "isSupportYj": null, "cityName": null, "districtName": null, "shopinfo": {"mid": "888002154110651", "good_flag": null, "new_flag": null, "short_name": "\u6c83\u5c14\u739b", "short_name_pinyin": "woerma", "status": null, "address": null, "name": null, "id": "42376"}, "mid": "888002154110651", "shopId": "42376", "netid": null, "province": 901, "district": 601, "zipcode": null, "telephone": null, "posDate": null, "destineTel": null, "togoTel": null, "trafficWay": null, "signBuilding": null, "businessArea": null, "selfRoom": null, "businessTime": null, "stall": null, "consume": null, "serviceFei": null, "favourable": null, "shopMemo": null, "appraise": null, "website": null, "memo": null, "payTypes": "\u6749\u5fb7\u5361", "shopTypes": "\u8d85\u5e02", "consumeTypes": null, "cookTypes": null, "orderNum": 1000, "card4no": null, "card4noAcc": null, "district2": 412, "searchScope": null, "status": 1, "address": "\u4e0a\u6d77\u5e02\u677e\u6c5f\u533a\u7af9\u7aff\u6c47\u677e\u6c47\u4e2d\u8def568\u53f7", "name": "\u6c83\u5c14\u739b \u6c83\u5c14\u739b\u8d2d\u7269\u5e7f\u573a\u4e0a\u6d77\u677e\u6c5f\u677e\u6c47\u8def\u5206\u5e97(1080)", "id": 189002, "pageNo": 0, "pageCount": null, "pageSize": 10, "ids": null, "endTime": null, "startTime": null}, {"cardNumFive": null, "isSupportYj": null, "cityName": null, "districtName": null, "shopinfo": {"mid": "888002154110652", "good_flag": null, "new_flag": null, "short_name": "\u6c83\u5c14\u739b", "short_name_pinyin": "woerma", "status": null, "address": null, "name": null, "id": "42377"}, "mid": "888002154110652", "shopId": "42377", "netid": null, "province": 901, "district": 601, "zipcode": null, "telephone": null, "posDate": null, "destineTel": null, "togoTel": null, "trafficWay": null, "signBuilding": null, "businessArea": null, "selfRoom": null, "businessTime": null, "stall": null, "consume": null, "serviceFei": null, "favourable": null, "shopMemo": null, "appraise": null, "website": null, "memo": null, "payTypes": "\u6749\u5fb7\u5361", "shopTypes": "\u8d85\u5e02", "consumeTypes": null, "cookTypes": null, "orderNum": 1000, "card4no": null, "card4noAcc": null, "district2": 418, "searchScope": null, "status": 1, "address": "\u4e0a\u6d77\u5e02\u6d66\u4e1c\u65b0\u533a\u4e1c\u9756\u8def1881\u53f7\u4e07\u5609\u5546\u4e1a\u5e7f\u573a\u5730\u4e0a\u7b2c\u4e8c\u3001\u4e09\u5c42", "name": "\u6c83\u5c14\u739b \u6c83\u5c14\u739b\u8d2d\u7269\u5e7f\u573a\u4e0a\u6d77\u9ad8\u884c\u5206\u5e97(2056)", "id": 189003, "pageNo": 0, "pageCount": null, "pageSize": 10, "ids": null, "endTime": null, "startTime": null}, {"cardNumFive": null, "isSupportYj": null, "cityName": null, "districtName": null, "shopinfo": {"mid": "888002154110653", "good_flag": null, "new_flag": null, "short_name": "\u6c83\u5c14\u739b", "short_name_pinyin": "woerma", "status": null, "address": null, "name": null, "id": "42378"}, "mid": "888002154110653", "shopId": "42378", "netid": null, "province": 901, "district": 601, "zipcode": null, "telephone": null, "posDate": null, "destineTel": null, "togoTel": null, "trafficWay": null, "signBuilding": null, "businessArea": null, "selfRoom": null, "businessTime": null, "stall": null, "consume": null, "serviceFei": null, "favourable": null, "shopMemo": null, "appraise": null, "website": null, "memo": null, "payTypes": "\u6749\u5fb7\u5361", "shopTypes": "\u8d85\u5e02", "consumeTypes": null, "cookTypes": null, "orderNum": 1000, "card4no": null, "card4noAcc": null, "district2": 405, "searchScope": null, "status": 1, "address": "\u4e0a\u6d77\u5e02\u666e\u9640\u533a\u6843\u6d66\u9547\u6b66\u5a01\u8def1178\u53f7", "name": "\u6c83\u5c14\u739b \u6c83\u5c14\u739b\u8d2d\u7269\u5e7f\u573a\u4e0a\u6d77\u6843\u6d66\u5206\u5e97(2076)", "id": 189004, "pageNo": 0, "pageCount": null, "pageSize": 10, "ids": null, "endTime": null, "startTime": null}, {"cardNumFive": null, "isSupportYj": null, "cityName": null, "districtName": null, "shopinfo": {"mid": "888002154110655", "good_flag": null, "new_flag": null, "short_name": "\u6c83\u5c14\u739b", "short_name_pinyin": "woerma", "status": null, "address": null, "name": null, "id": "42380"}, "mid": "888002154110655", "shopId": "42380", "netid": null, "province": 901, "district": 601, "zipcode": null, "telephone": null, "posDate": null, "destineTel": null, "togoTel": null, "trafficWay": null, "signBuilding": null, "businessArea": null, "selfRoom": null, "businessTime": null, "stall": null, "consume": null, "serviceFei": null, "favourable": null, "shopMemo": null, "appraise": null, "website": null, "memo": null, "payTypes": "\u6749\u5fb7\u5361", "shopTypes": "\u8d85\u5e02", "consumeTypes": null, "cookTypes": null, "orderNum": 1000, "card4no": null, "card4noAcc": null, "district2": 409, "searchScope": null, "status": 1, "address": "\u4e0a\u6d77\u5e02\u95f5\u884c\u533a\u6d66\u9526\u8def309\u5f046\u53f7\u7eff\u5730\u6c83\u5c14\u739b\u5546\u4e1a\u5e7f\u573a\u5730\u4e0b\u7b2c\u4e00\u5c42", "name": "\u6c83\u5c14\u739b \u6c83\u5c14\u739b\u8d2d\u7269\u5e7f\u573a\u4e0a\u6d77\u6d66\u6c5f\u5206\u5e97(2140)", "id": 189006, "pageNo": 0, "pageCount": null, "pageSize": 10, "ids": null, "endTime": null, "startTime": null}, {"cardNumFive": null, "isSupportYj": null, "cityName": null, "districtName": null, "shopinfo": {"mid": "888002154110656", "good_flag": null, "new_flag": null, "short_name": "\u6c83\u5c14\u739b", "short_name_pinyin": "woerma", "status": null, "address": null, "name": null, "id": "42381"}, "mid": "888002154110656", "shopId": "42381", "netid": null, "province": 901, "district": 601, "zipcode": null, "telephone": null, "posDate": null, "destineTel": null, "togoTel": null, "trafficWay": null, "signBuilding": null, "businessArea": null, "selfRoom": null, "businessTime": null, "stall": null, "consume": null, "serviceFei": null, "favourable": null, "shopMemo": null, "appraise": null, "website": null, "memo": null, "payTypes": "\u6749\u5fb7\u5361", "shopTypes": "\u8d85\u5e02", "consumeTypes": null, "cookTypes": null, "orderNum": 1000, "card4no": null, "card4noAcc": null, "district2": 416, "searchScope": null, "status": 1, "address": "\u4e0a\u6d77\u5e02\u5b9d\u5c71\u533a\u6c34\u4ea7\u8def2599\u53f7\u5730\u4e0b\u4e00\u5c42", "name": "\u6c83\u5c14\u739b \u6c83\u5c14\u739b\u8d2d\u7269\u5e7f\u573a\u4e0a\u6d77\u6768\u884c\u5206\u5e97(2184)", "id": 189007, "pageNo": 0, "pageCount": null, "pageSize": 10, "ids": null, "endTime": null, "startTime": null}], "pageLimit": 9010, "size": 10}