{"pageCount": 1095, "count": 10942, "pageNo": 903, "subShopInfo": {"cardNumFive": "", "isSupportYj": "", "cityName": null, "districtName": null, "shopinfo": {"mid": null, "good_flag": null, "new_flag": null, "short_name": null, "short_name_pinyin": null, "status": null, "address": "", "name": "", "id": null}, "mid": null, "shopId": null, "netid": null, "province": 901, "district": null, "zipcode": null, "telephone": null, "posDate": null, "destineTel": null, "togoTel": null, "trafficWay": null, "signBuilding": null, "businessArea": null, "selfRoom": null, "businessTime": null, "stall": null, "consume": null, "serviceFei": null, "favourable": null, "shopMemo": "1", "appraise": null, "website": null, "memo": null, "payTypes": "", "shopTypes": "", "consumeTypes": null, "cookTypes": null, "orderNum": null, "card4no": null, "card4noAcc": null, "district2": null, "searchScope": null, "status": null, "address": "", "name": null, "id": null, "pageNo": 902, "pageCount": null, "pageSize": 10, "ids": null, "endTime": null, "startTime": null}, "list": [{"cardNumFive": null, "isSupportYj": null, "cityName": null, "districtName": null, "shopinfo": {"mid": "888002154110658", "good_flag": null, "new_flag": null, "short_name": "\u6c83\u5c14\u739b", "short_name_pinyin": "woerma", "status": null, "address": null, "name": null, "id": "42383"}, "mid": "888002154110658", "shopId": "42383", "netid": null, "province": 901, "district": 601, "zipcode": null, "telephone": null, "posDate": null, "destineTel": null, "togoTel": null, "trafficWay": null, "signBuilding": null, "businessArea": null, "selfRoom": null, "businessTime": null, "stall": null, "consume": null, "serviceFei": null, "favourable": null, "shopMemo": null, "appraise": null, "website": null, "memo": null, "payTypes": "\u6749\u5fb7\u5361", "shopTypes": "\u8d85\u5e02", "consumeTypes": null, "cookTypes": null, "orderNum": 1000, "card4no": null, "card4noAcc": null, "district2": 416, "searchScope": null, "status": 1, "address": "\u4e0a\u6d77\u5e02\u5b9d\u5c71\u533a\u4e00\u4e8c\u516b\u7eaa\u5ff5\u8def988\u5f042\u53f7", "name": "\u6c83\u5c14\u739b \u6c83\u5c14\u739b\u8d2d\u7269\u5e7f\u573a\u4e0a\u6d77\u5b9d\u5c71\u4e00\u4e8c\u516b\u7eaa\u5ff5\u8def\u5206\u5e97(2398)", "id": 189009, "pageNo": 0, "pageCount": null, "pageSize": 10, "ids": null, "endTime": null, "startTime": null}, {"cardNumFive": null, "isSupportYj": null, "cityName": null, "districtName": null, "shopinfo": {"mid": "888002154110659", "good_flag": null, "new_flag": null, "short_name": "\u6c83\u5c14\u739b", "short_name_pinyin": "woerma", "status": null, "address": null, "name": null, "id": "42384"}, "mid": "888002154110659", "shopId": "42384", "netid": null, "province": 901, "district": 601, "zipcode": null, "telephone": null, "posDate": null, "destineTel": null, "togoTel": null, "trafficWay": null, "signBuilding": null, "businessArea": null, "selfRoom": null, "businessTime": null, "stall": null, "consume": null, "serviceFei": null, "favourable": null, "shopMemo": null, "appraise": null, "website": null, "memo": null, "payTypes": "\u6749\u5fb7\u5361", "shopTypes": "\u8d85\u5e02", "consumeTypes": null, "cookTypes": null, "orderNum": 1000, "card4no": null, "card4noAcc": null, "district2": 418, "searchScope": null, "status": 1, "address": "\u4e0a\u6d77\u6d66\u4e1c\u65b0\u533a\u65bd\u9547\u8def256\u5f041\u53f7B1\u5c42101-108\u53ca\u7b2c\u4e00\u5c42\u81f3\u7b2c\u4e8c\u5c42", "name": "\u6c83\u5c14\u739b \u4e0a\u6d77\u65bd\u6e7e\u5206\u5e97(2475)", "id": 189010, "pageNo": 0, "pageCount": null, "pageSize": 10, "ids": null, "endTime": null, "startTime": null}, {"cardNumFive": null, "isSupportYj": null, "cityName": null, "districtName": null, "shopinfo": {"mid": "888888154119908", "good_flag": null, "new_flag": null, "short_name": "\u5434\u6c5f\u5927\u6da6\u53d1", "short_name_pinyin": "wujiangdarunfa", "status": null, "address": null, "name": null, "id": "41659"}, "mid": "888888154119908", "shopId": "41659", "netid": null, "province": 901, "district": 601, "zipcode": null, "telephone": null, "posDate": null, "destineTel": null, "togoTel": null, "trafficWay": null, "signBuilding": null, "businessArea": null, "selfRoom": null, "businessTime": null, "stall": null, "consume": null, "serviceFei": null, "favourable": null, "shopMemo": null, "appraise": null, "website": null, "memo": null, "payTypes": "\u6749\u5fb7\u5361", "shopTypes": "\u8d85\u5e02", "consumeTypes": null, "cookTypes": null, "orderNum": 1000, "card4no": null, "card4noAcc": null, "district2": 2062, "searchScope": null, "status": 1, "address": "\u65e0\u9521\u5e02\u65b0\u533a\u6885\u6751\u65b0\u534e\u8def108\u53f7", "name": "\u5434\u6c5f\u5927\u6da6\u53d1 \u6885\u6751\u5e97", "id": 184245, "pageNo": 0, "pageCount": null, "pageSize": 10, "ids": null, "endTime": null, "startTime": null}, {"cardNumFive": null, "isSupportYj": null, "cityName": null, "districtName": null, "shopinfo": {"mid": "888888880430068", "good_flag": "2", "new_flag": "2", "short_name": "\u5434\u826f\u624d\u773c\u955c", "short_name_pinyin": "wuliangcaiyanjing", "status": null, "address": null, "name": null, "id": "33543"}, "mid": "888888880430068", "shopId": "33543", "netid": null, "province": 901, "district": 601, "zipcode": null, "telephone": "58430828", "posDate": "20081118", "destineTel": null, "togoTel": null, "trafficWay": "\u516c\u4ea4451 \u9f99\u6ee8\u7ebf", "signBuilding": null, "businessArea": "200", "selfRoom": null, "businessTime": "9:00~21:00", "stall": null, "consume": null, "serviceFei": null, "favourable": null, "shopMemo": null, "appraise": null, "website": null, "memo": null, "payTypes": "\u6749\u5fb7\u5361", "shopTypes": "\u96f6\u552e,\u4e13\u5356", "consumeTypes": null, "cookTypes": null, "orderNum": 1000, "card4no": null, "card4noAcc": null, "district2": 418, "searchScope": null, "status": 1, "address": "\u5317\u8521\u9547\u5317\u4e2d\u8def387-395\u53f7", "name": "\u5434\u826f\u624d\u773c\u955c \u5317\u4e2d\u8def\u5e97", "id": 142992, "pageNo": 0, "pageCount": null, "pageSize": 10, "ids": null, "endTime": null, "startTime": null}, {"cardNumFive": null, "isSupportYj": null, "cityName": null, "districtName": null, "shopinfo": {"mid": "888888880430002", "good_flag": "2", "new_flag": "2", "short_name": "\u5434\u826f\u6750\u773c\u955c", "short_name_pinyin": "wuliangcaiyanjing", "status": null, "address": null, "name": null, "id": "33544"}, "mid": "888888880430002", "shopId": "33544", "netid": null, "province": 901, "district": 601, "zipcode": "201200", "telephone": "58922287", "posDate": "20061219", "destineTel": "58922287", "togoTel": "58922287", "trafficWay": "\u5f90\u5ddd\u4e13\u7ebf", "signBuilding": null, "businessArea": null, "selfRoom": "\u65e0", "businessTime": null, "stall": "\u65e0", "consume": null, "serviceFei": null, "favourable": null, "shopMemo": null, "appraise": null, "website": null, "memo": null, "payTypes": "\u6749\u5fb7\u5361", "shopTypes": "\u96f6\u552e,\u4e13\u5356", "consumeTypes": null, "cookTypes": null, "orderNum": 1000, "card4no": null, "card4noAcc": null, "district2": 418, "searchScope": null, "status": 1, "address": "\u6d66\u4e1c\u5ddd\u6c99\u8def227-231\u53f7", "name": "\u5434\u826f\u6750\u773c\u955c \u5ddd\u4e8c\u5e97", "id": 142993, "pageNo": 0, "pageCount": null, "pageSize": 10, "ids": null, "endTime": null, "startTime": null}, {"cardNumFive": null, "isSupportYj": null, "cityName": null, "districtName": null, "shopinfo": {"mid": "888888880430002", "good_flag": "2", "new_flag": "2", "short_name": "\u5434\u826f\u6750\u773c\u955c", "short_name_pinyin": "wuliangcaiyanjing", "status": null, "address": null, "name": null, "id": "33544"}, "mid": "888888880430002", "shopId": "33544", "netid": null, "province": 901, "district": 601, "zipcode": "201200", "telephone": "58982164", "posDate": "20061219", "destineTel": "58982164", "togoTel": "58982164", "trafficWay": "\u5f90\u5ddd\u4e13\u7ebf", "signBuilding": null, "businessArea": null, "selfRoom": "\u65e0", "businessTime": null, "stall": "\u65e0", "consume": null, "serviceFei": null, "favourable": null, "shopMemo": null, "appraise": null, "website": null, "memo": null, "payTypes": "\u6749\u5fb7\u5361", "shopTypes": "\u96f6\u552e,\u4e13\u5356", "consumeTypes": null, "cookTypes": null, "orderNum": 1000, "card4no": null, "card4noAcc": null, "district2": 418, "searchScope": null, "status": 1, "address": "\u6d66\u4e1c\u5ddd\u6c99\u8def4642\u53f7", "name": "\u5434\u826f\u6750\u773c\u955c \u5ddd\u4e00\u5e97", "id": 142994, "pageNo": 0, "pageCount": null, "pageSize": 10, "ids": null, "endTime": null, "startTime": null}, {"cardNumFive": null, "isSupportYj": null, "cityName": null, "districtName": null, "shopinfo": {"mid": "888888880430002", "good_flag": "2", "new_flag": "2", "short_name": "\u5434\u826f\u6750\u773c\u955c", "short_name_pinyin": "wuliangcaiyanjing", "status": null, "address": null, "name": null, "id": "33544"}, "mid": "888888880430002", "shopId": "33544", "netid": null, "province": 901, "district": 601, "zipcode": "201800", "telephone": "59530206", "posDate": "20061219", "destineTel": "59530206", "togoTel": "59530206", "trafficWay": "\u516c\u4ea4\u8398\u56e2\u7ebf \u4e0a\u90b5\u7ebf", "signBuilding": null, "businessArea": null, "selfRoom": "\u65e0", "businessTime": null, "stall": "\u65e0", "consume": null, "serviceFei": null, "favourable": null, "shopMemo": null, "appraise": null, "website": null, "memo": null, "payTypes": "\u6749\u5fb7\u5361", "shopTypes": "\u96f6\u552e,\u4e13\u5356", "consumeTypes": null, "cookTypes": null, "orderNum": 1000, "card4no": null, "card4noAcc": null, "district2": 411, "searchScope": null, "status": 1, "address": "\u5609\u5b9a\u57ce\u4e2d\u8def151\u53f7", "name": "\u5434\u826f\u6750\u773c\u955c \u5609\u5b9a\u5e97", "id": 142997, "pageNo": 0, "pageCount": null, "pageSize": 10, "ids": null, "endTime": null, "startTime": null}, {"cardNumFive": null, "isSupportYj": null, "cityName": null, "districtName": null, "shopinfo": {"mid": "888888880430047", "good_flag": "2", "new_flag": "2", "short_name": "\u5434\u826f\u6750\u773c\u955c", "short_name_pinyin": "wuliangcaiyanjing", "status": null, "address": null, "name": null, "id": "33546"}, "mid": "888888880430047", "shopId": "33546", "netid": null, "province": 901, "district": 601, "zipcode": null, "telephone": "64597873", "posDate": "20080229", "destineTel": null, "togoTel": null, "trafficWay": "\u516c\u4ea450 957 157", "signBuilding": null, "businessArea": null, "selfRoom": null, "businessTime": null, "stall": null, "consume": null, "serviceFei": null, "favourable": null, "shopMemo": null, "appraise": null, "website": null, "memo": null, "payTypes": "\u6749\u5fb7\u5361", "shopTypes": "\u96f6\u552e,\u4e13\u5356", "consumeTypes": null, "cookTypes": null, "orderNum": 1000, "card4no": null, "card4noAcc": null, "district2": 403, "searchScope": null, "status": 1, "address": "\u6885\u9647\u8def255\u53f71-3", "name": "\u5434\u826f\u6750\u773c\u955c \u6885\u82b1\u9647\u5e97", "id": 142998, "pageNo": 0, "pageCount": null, "pageSize": 10, "ids": null, "endTime": null, "startTime": null}, {"cardNumFive": null, "isSupportYj": null, "cityName": null, "districtName": null, "shopinfo": {"mid": "888888880430008", "good_flag": "2", "new_flag": "2", "short_name": "\u5434\u826f\u6750\u773c\u955c", "short_name_pinyin": "wuliangcaiyanjing", "status": null, "address": null, "name": null, "id": "33545"}, "mid": "888888880430008", "shopId": "33545", "netid": null, "province": 901, "district": 601, "zipcode": "200030", "telephone": "64267026", "posDate": "20070428", "destineTel": "64267026", "togoTel": "64267026", "trafficWay": "\u5730\u94c1\u4e00\u53f7\u7ebf 43\u533a\u95f4 572 50 73", "signBuilding": null, "businessArea": null, "selfRoom": "\u65e0", "businessTime": null, "stall": "\u65e0", "consume": null, "serviceFei": null, "favourable": null, "shopMemo": null, "appraise": null, "website": null, "memo": null, "payTypes": "\u6749\u5fb7\u5361", "shopTypes": "\u96f6\u552e,\u4e13\u5356", "consumeTypes": null, "cookTypes": null, "orderNum": 1000, "card4no": null, "card4noAcc": null, "district2": 403, "searchScope": null, "status": 1, "address": "\u8087\u5609\u6d5c\u8def1111\u53f71-5\u5355\u5143", "name": "\u5434\u826f\u6750\u773c\u955c \u7f8e\u7f57\u57ce\u5e97", "id": 143000, "pageNo": 0, "pageCount": null, "pageSize": 10, "ids": null, "endTime": null, "startTime": null}, {"cardNumFive": null, "isSupportYj": null, "cityName": null, "districtName": null, "shopinfo": {"mid": "888888880430002", "good_flag": "2", "new_flag": "2", "short_name": "\u5434\u826f\u6750\u773c\u955c", "short_name_pinyin": "wuliangcaiyanjing", "status": null, "address": null, "name": null, "id": "33544"}, "mid": "888888880430002", "shopId": "33544", "netid": null, "province": 901, "district": 601, "zipcode": "201300", "telephone": "58019359", "posDate": "20061219", "destineTel": "58019359", "togoTel": "58019359", "trafficWay": "\u65c5\u6e382\u53f7\u7ebf", "signBuilding": null, "businessArea": null, "selfRoom": "\u65e0", "businessTime": null, "stall": "\u65e0", "consume": null, "serviceFei": null, "favourable": null, "shopMemo": null, "appraise": null, "website": null, "memo": null, "payTypes": "\u6749\u5fb7\u5361", "shopTypes": "\u96f6\u552e,\u4e13\u5356", "consumeTypes": null, "cookTypes": null, "orderNum": 1000, "card4no": null, "card4noAcc": null, "district2": 418, "searchScope": null, "status": 1, "address": "\u5357\u6c47\u60e0\u5357\u9547\u4e1c\u95e8\u5927\u8857462-464\u53f7", "name": "\u5434\u826f\u6750\u773c\u955c \u5357\u6c47\u5e97", "id": 143001, "pageNo": 0, "pageCount": null, "pageSize": 10, "ids": null, "endTime": null, "startTime": null}], "pageLimit": 9020, "size": 10}