{"pageCount": 1095, "count": 10942, "pageNo": 918, "subShopInfo": {"cardNumFive": "", "isSupportYj": "", "cityName": null, "districtName": null, "shopinfo": {"mid": null, "good_flag": null, "new_flag": null, "short_name": null, "short_name_pinyin": null, "status": null, "address": "", "name": "", "id": null}, "mid": null, "shopId": null, "netid": null, "province": 901, "district": null, "zipcode": null, "telephone": null, "posDate": null, "destineTel": null, "togoTel": null, "trafficWay": null, "signBuilding": null, "businessArea": null, "selfRoom": null, "businessTime": null, "stall": null, "consume": null, "serviceFei": null, "favourable": null, "shopMemo": "1", "appraise": null, "website": null, "memo": null, "payTypes": "", "shopTypes": "", "consumeTypes": null, "cookTypes": null, "orderNum": null, "card4no": null, "card4noAcc": null, "district2": null, "searchScope": null, "status": null, "address": "", "name": null, "id": null, "pageNo": 917, "pageCount": null, "pageSize": 10, "ids": null, "endTime": null, "startTime": null}, "list": [{"cardNumFive": null, "isSupportYj": null, "cityName": null, "districtName": null, "shopinfo": {"mid": "888002154119991", "good_flag": "2", "new_flag": "2", "short_name": "\u4f0d\u7f18\u6298\u6263", "short_name_pinyin": "wuyuanzhekou", "status": null, "address": null, "name": null, "id": "37198"}, "mid": "888002154119991", "shopId": "37198", "netid": null, "province": 901, "district": 601, "zipcode": null, "telephone": "33705820", "posDate": "20101011", "destineTel": null, "togoTel": null, "trafficWay": null, "signBuilding": null, "businessArea": null, "selfRoom": null, "businessTime": null, "stall": null, "consume": null, "serviceFei": null, "favourable": null, "shopMemo": null, "appraise": null, "website": null, "memo": null, "payTypes": "\u6749\u5fb7\u5361", "shopTypes": "\u8d85\u5e02", "consumeTypes": null, "cookTypes": null, "orderNum": 1000, "card4no": null, "card4noAcc": null, "district2": 416, "searchScope": null, "status": 1, "address": "\u5171\u5bcc\u8def156\u5f0420\u53f7", "name": "\u4f0d\u7f18\u6298\u6263 \u5171\u5bcc\u4e8c\u5e97", "id": 156557, "pageNo": 0, "pageCount": null, "pageSize": 10, "ids": null, "endTime": null, "startTime": null}, {"cardNumFive": null, "isSupportYj": null, "cityName": null, "districtName": null, "shopinfo": {"mid": "888002154119991", "good_flag": "2", "new_flag": "2", "short_name": "\u4f0d\u7f18\u6298\u6263", "short_name_pinyin": "wuyuanzhekou", "status": null, "address": null, "name": null, "id": "37198"}, "mid": "888002154119991", "shopId": "37198", "netid": null, "province": 901, "district": 601, "zipcode": null, "telephone": "56730848", "posDate": "20101011", "destineTel": null, "togoTel": null, "trafficWay": null, "signBuilding": null, "businessArea": null, "selfRoom": null, "businessTime": null, "stall": null, "consume": null, "serviceFei": null, "favourable": null, "shopMemo": null, "appraise": null, "website": null, "memo": null, "payTypes": "\u6749\u5fb7\u5361", "shopTypes": "\u8d85\u5e02", "consumeTypes": null, "cookTypes": null, "orderNum": 1000, "card4no": null, "card4noAcc": null, "district2": 416, "searchScope": null, "status": 1, "address": "\u5171\u6c5f\u8def830\u53f7", "name": "\u4f0d\u7f18\u6298\u6263 \u5171\u6c5f\u5e97", "id": 156559, "pageNo": 0, "pageCount": null, "pageSize": 10, "ids": null, "endTime": null, "startTime": null}, {"cardNumFive": null, "isSupportYj": null, "cityName": null, "districtName": null, "shopinfo": {"mid": "888002154119991", "good_flag": "2", "new_flag": "2", "short_name": "\u4f0d\u7f18\u6298\u6263", "short_name_pinyin": "wuyuanzhekou", "status": null, "address": null, "name": null, "id": "37198"}, "mid": "888002154119991", "shopId": "37198", "netid": null, "province": 901, "district": 601, "zipcode": null, "telephone": "36040201", "posDate": "20101011", "destineTel": null, "togoTel": null, "trafficWay": null, "signBuilding": null, "businessArea": null, "selfRoom": null, "businessTime": null, "stall": null, "consume": null, "serviceFei": null, "favourable": null, "shopMemo": null, "appraise": null, "website": null, "memo": null, "payTypes": "\u6749\u5fb7\u5361", "shopTypes": "\u8d85\u5e02", "consumeTypes": null, "cookTypes": null, "orderNum": 1000, "card4no": null, "card4noAcc": null, "district2": 416, "searchScope": null, "status": 1, "address": "\u987e\u5317\u4e1c\u8def492-494\u53f7", "name": "\u4f0d\u7f18\u6298\u6263 \u987e\u5317\u5e97", "id": 156562, "pageNo": 0, "pageCount": null, "pageSize": 10, "ids": null, "endTime": null, "startTime": null}, {"cardNumFive": null, "isSupportYj": null, "cityName": null, "districtName": null, "shopinfo": {"mid": "888002154119991", "good_flag": "2", "new_flag": "2", "short_name": "\u4f0d\u7f18\u6298\u6263", "short_name_pinyin": "wuyuanzhekou", "status": null, "address": null, "name": null, "id": "37198"}, "mid": "888002154119991", "shopId": "37198", "netid": null, "province": 901, "district": 601, "zipcode": null, "telephone": "56043115", "posDate": "20101011", "destineTel": null, "togoTel": null, "trafficWay": null, "signBuilding": null, "businessArea": null, "selfRoom": null, "businessTime": null, "stall": null, "consume": null, "serviceFei": null, "favourable": null, "shopMemo": null, "appraise": null, "website": null, "memo": null, "payTypes": "\u6749\u5fb7\u5361", "shopTypes": "\u8d85\u5e02", "consumeTypes": null, "cookTypes": null, "orderNum": 1000, "card4no": null, "card4noAcc": null, "district2": 416, "searchScope": null, "status": 1, "address": "\u987e\u65b0\u8def25\u53f7", "name": "\u4f0d\u7f18\u6298\u6263 \u987e\u65b0\u5e97", "id": 156563, "pageNo": 0, "pageCount": null, "pageSize": 10, "ids": null, "endTime": null, "startTime": null}, {"cardNumFive": null, "isSupportYj": null, "cityName": null, "districtName": null, "shopinfo": {"mid": "888002154119991", "good_flag": "2", "new_flag": "2", "short_name": "\u4f0d\u7f18\u6298\u6263", "short_name_pinyin": "wuyuanzhekou", "status": null, "address": null, "name": null, "id": "37198"}, "mid": "888002154119991", "shopId": "37198", "netid": null, "province": 901, "district": 601, "zipcode": null, "telephone": "55051492", "posDate": "20101017", "destineTel": null, "togoTel": null, "trafficWay": null, "signBuilding": null, "businessArea": null, "selfRoom": null, "businessTime": null, "stall": null, "consume": null, "serviceFei": null, "favourable": null, "shopMemo": null, "appraise": null, "website": null, "memo": null, "payTypes": "\u6749\u5fb7\u5361", "shopTypes": "\u8d85\u5e02", "consumeTypes": null, "cookTypes": null, "orderNum": 1000, "card4no": null, "card4noAcc": null, "district2": 407, "searchScope": null, "status": 1, "address": "\u56fd\u5b9a\u8def38\u53f7", "name": "\u4f0d\u7f18\u6298\u6263 \u56fd\u5b9a\u5e97", "id": 156565, "pageNo": 0, "pageCount": null, "pageSize": 10, "ids": null, "endTime": null, "startTime": null}, {"cardNumFive": null, "isSupportYj": null, "cityName": null, "districtName": null, "shopinfo": {"mid": "888002154119991", "good_flag": "2", "new_flag": "2", "short_name": "\u4f0d\u7f18\u6298\u6263", "short_name_pinyin": "wuyuanzhekou", "status": null, "address": null, "name": null, "id": "37198"}, "mid": "888002154119991", "shopId": "37198", "netid": null, "province": 901, "district": 601, "zipcode": null, "telephone": "65481842", "posDate": "20101016", "destineTel": null, "togoTel": null, "trafficWay": null, "signBuilding": null, "businessArea": null, "selfRoom": null, "businessTime": null, "stall": null, "consume": null, "serviceFei": null, "favourable": null, "shopMemo": null, "appraise": null, "website": null, "memo": null, "payTypes": "\u6749\u5fb7\u5361", "shopTypes": "\u8d85\u5e02", "consumeTypes": null, "cookTypes": null, "orderNum": 1000, "card4no": null, "card4noAcc": null, "district2": 407, "searchScope": null, "status": 1, "address": "\u56fd\u987a\u4e1c\u8def246\u53f7", "name": "\u4f0d\u7f18\u6298\u6263 \u56fd\u987a\u4e8c\u5e97", "id": 156566, "pageNo": 0, "pageCount": null, "pageSize": 10, "ids": null, "endTime": null, "startTime": null}, {"cardNumFive": null, "isSupportYj": null, "cityName": null, "districtName": null, "shopinfo": {"mid": "888002154119991", "good_flag": "2", "new_flag": "2", "short_name": "\u4f0d\u7f18\u6298\u6263", "short_name_pinyin": "wuyuanzhekou", "status": null, "address": null, "name": null, "id": "37198"}, "mid": "888002154119991", "shopId": "37198", "netid": null, "province": 901, "district": 601, "zipcode": null, "telephone": "68324244", "posDate": "20101016", "destineTel": null, "togoTel": null, "trafficWay": null, "signBuilding": null, "businessArea": null, "selfRoom": null, "businessTime": null, "stall": null, "consume": null, "serviceFei": null, "favourable": null, "shopMemo": null, "appraise": null, "website": null, "memo": null, "payTypes": "\u6749\u5fb7\u5361", "shopTypes": "\u8d85\u5e02", "consumeTypes": null, "cookTypes": null, "orderNum": 1000, "card4no": null, "card4noAcc": null, "district2": 418, "searchScope": null, "status": 1, "address": "\u6d77\u9633\u8def427\u53f7", "name": "\u4f0d\u7f18\u6298\u6263 \u6d77\u9633\u5e97", "id": 156568, "pageNo": 0, "pageCount": null, "pageSize": 10, "ids": null, "endTime": null, "startTime": null}, {"cardNumFive": null, "isSupportYj": null, "cityName": null, "districtName": null, "shopinfo": {"mid": "888002154119991", "good_flag": "2", "new_flag": "2", "short_name": "\u4f0d\u7f18\u6298\u6263", "short_name_pinyin": "wuyuanzhekou", "status": null, "address": null, "name": null, "id": "37198"}, "mid": "888002154119991", "shopId": "37198", "netid": null, "province": 901, "district": 601, "zipcode": null, "telephone": "64203622", "posDate": "20101017", "destineTel": null, "togoTel": null, "trafficWay": null, "signBuilding": null, "businessArea": null, "selfRoom": null, "businessTime": null, "stall": null, "consume": null, "serviceFei": null, "favourable": null, "shopMemo": null, "appraise": null, "website": null, "memo": null, "payTypes": "\u6749\u5fb7\u5361", "shopTypes": "\u8d85\u5e02", "consumeTypes": null, "cookTypes": null, "orderNum": 1000, "card4no": null, "card4noAcc": null, "district2": 409, "searchScope": null, "status": 1, "address": "\u822a\u4e1c\u8def370\u53f7", "name": "\u4f0d\u7f18\u6298\u6263 \u822a\u4e1c\u4e8c\u5e97", "id": 156569, "pageNo": 0, "pageCount": null, "pageSize": 10, "ids": null, "endTime": null, "startTime": null}, {"cardNumFive": null, "isSupportYj": null, "cityName": null, "districtName": null, "shopinfo": {"mid": "888002154119991", "good_flag": "2", "new_flag": "2", "short_name": "\u4f0d\u7f18\u6298\u6263", "short_name_pinyin": "wuyuanzhekou", "status": null, "address": null, "name": null, "id": "37198"}, "mid": "888002154119991", "shopId": "37198", "netid": null, "province": 901, "district": 601, "zipcode": null, "telephone": "64217324", "posDate": "20101017", "destineTel": null, "togoTel": null, "trafficWay": null, "signBuilding": null, "businessArea": null, "selfRoom": null, "businessTime": null, "stall": null, "consume": null, "serviceFei": null, "favourable": null, "shopMemo": null, "appraise": null, "website": null, "memo": null, "payTypes": "\u6749\u5fb7\u5361", "shopTypes": "\u8d85\u5e02", "consumeTypes": null, "cookTypes": null, "orderNum": 1000, "card4no": null, "card4noAcc": null, "district2": 409, "searchScope": null, "status": 1, "address": "\u822a\u4e1c\u8def528\u5f0496\u53f7", "name": "\u4f0d\u7f18\u6298\u6263 \u822a\u4e1c\u5e97", "id": 156570, "pageNo": 0, "pageCount": null, "pageSize": 10, "ids": null, "endTime": null, "startTime": null}, {"cardNumFive": null, "isSupportYj": null, "cityName": null, "districtName": null, "shopinfo": {"mid": "888002154119991", "good_flag": "2", "new_flag": "2", "short_name": "\u4f0d\u7f18\u6298\u6263", "short_name_pinyin": "wuyuanzhekou", "status": null, "address": null, "name": null, "id": "37198"}, "mid": "888002154119991", "shopId": "37198", "netid": null, "province": 901, "district": 601, "zipcode": null, "telephone": "64212105", "posDate": "20101017", "destineTel": null, "togoTel": null, "trafficWay": null, "signBuilding": null, "businessArea": null, "selfRoom": null, "businessTime": null, "stall": null, "consume": null, "serviceFei": null, "favourable": null, "shopMemo": null, "appraise": null, "website": null, "memo": null, "payTypes": "\u6749\u5fb7\u5361", "shopTypes": "\u8d85\u5e02", "consumeTypes": null, "cookTypes": null, "orderNum": 1000, "card4no": null, "card4noAcc": null, "district2": 409, "searchScope": null, "status": 1, "address": "\u822a\u65b0\u8def\u822a\u534e\u4e8c\u6751200\u53f7", "name": "\u4f0d\u7f18\u6298\u6263 \u822a\u65b0\u5e97", "id": 156571, "pageNo": 0, "pageCount": null, "pageSize": 10, "ids": null, "endTime": null, "startTime": null}], "pageLimit": 9170, "size": 10}