{"pageCount": 1095, "count": 10942, "pageNo": 929, "subShopInfo": {"cardNumFive": "", "isSupportYj": "", "cityName": null, "districtName": null, "shopinfo": {"mid": null, "good_flag": null, "new_flag": null, "short_name": null, "short_name_pinyin": null, "status": null, "address": "", "name": "", "id": null}, "mid": null, "shopId": null, "netid": null, "province": 901, "district": null, "zipcode": null, "telephone": null, "posDate": null, "destineTel": null, "togoTel": null, "trafficWay": null, "signBuilding": null, "businessArea": null, "selfRoom": null, "businessTime": null, "stall": null, "consume": null, "serviceFei": null, "favourable": null, "shopMemo": "1", "appraise": null, "website": null, "memo": null, "payTypes": "", "shopTypes": "", "consumeTypes": null, "cookTypes": null, "orderNum": null, "card4no": null, "card4noAcc": null, "district2": null, "searchScope": null, "status": null, "address": "", "name": null, "id": null, "pageNo": 928, "pageCount": null, "pageSize": 10, "ids": null, "endTime": null, "startTime": null}, "list": [{"cardNumFive": null, "isSupportYj": null, "cityName": null, "districtName": null, "shopinfo": {"mid": "888002154119991", "good_flag": "2", "new_flag": "2", "short_name": "\u4f0d\u7f18\u6298\u6263", "short_name_pinyin": "wuyuanzhekou", "status": null, "address": null, "name": null, "id": "37198"}, "mid": "888002154119991", "shopId": "37198", "netid": null, "province": 901, "district": 601, "zipcode": null, "telephone": "67722294", "posDate": "20101017", "destineTel": null, "togoTel": null, "trafficWay": null, "signBuilding": null, "businessArea": null, "selfRoom": null, "businessTime": null, "stall": null, "consume": null, "serviceFei": null, "favourable": null, "shopMemo": null, "appraise": null, "website": null, "memo": null, "payTypes": "\u6749\u5fb7\u5361", "shopTypes": "\u8d85\u5e02", "consumeTypes": null, "cookTypes": null, "orderNum": 1000, "card4no": null, "card4noAcc": null, "district2": 412, "searchScope": null, "status": 1, "address": "\u4e2d\u5c71\u4e8c\u8def601-603\u53f7", "name": "\u4f0d\u7f18\u6298\u6263 \u4e2d\u5c71\u5e97", "id": 156680, "pageNo": 0, "pageCount": null, "pageSize": 10, "ids": null, "endTime": null, "startTime": null}, {"cardNumFive": null, "isSupportYj": null, "cityName": null, "districtName": null, "shopinfo": {"mid": "888002154119991", "good_flag": "2", "new_flag": "2", "short_name": "\u4f0d\u7f18\u6298\u6263", "short_name_pinyin": "wuyuanzhekou", "status": null, "address": null, "name": null, "id": "37198"}, "mid": "888002154119991", "shopId": "37198", "netid": null, "province": 901, "district": 601, "zipcode": null, "telephone": "52909857", "posDate": "20101017", "destineTel": null, "togoTel": null, "trafficWay": null, "signBuilding": null, "businessArea": null, "selfRoom": null, "businessTime": null, "stall": null, "consume": null, "serviceFei": null, "favourable": null, "shopMemo": null, "appraise": null, "website": null, "memo": null, "payTypes": "\u6749\u5fb7\u5361", "shopTypes": "\u8d85\u5e02", "consumeTypes": null, "cookTypes": null, "orderNum": 1000, "card4no": null, "card4noAcc": null, "district2": 405, "searchScope": null, "status": 1, "address": "\u5c9a\u768b\u897f\u8def51-61\u53f7", "name": "\u4f0d\u7f18\u6298\u6263 \u5c9a\u768b\u5e97", "id": 156681, "pageNo": 0, "pageCount": null, "pageSize": 10, "ids": null, "endTime": null, "startTime": null}, {"cardNumFive": null, "isSupportYj": null, "cityName": null, "districtName": null, "shopinfo": {"mid": "888002154119991", "good_flag": "2", "new_flag": "2", "short_name": "\u4f0d\u7f18\u6298\u6263", "short_name_pinyin": "wuyuanzhekou", "status": null, "address": null, "name": null, "id": "37198"}, "mid": "888002154119991", "shopId": "37198", "netid": null, "province": 901, "district": 601, "zipcode": null, "telephone": "56983141", "posDate": "20101017", "destineTel": null, "togoTel": null, "trafficWay": null, "signBuilding": null, "businessArea": null, "selfRoom": null, "businessTime": null, "stall": null, "consume": null, "serviceFei": null, "favourable": null, "shopMemo": null, "appraise": null, "website": null, "memo": null, "payTypes": "\u6749\u5fb7\u5361", "shopTypes": "\u8d85\u5e02", "consumeTypes": null, "cookTypes": null, "orderNum": 1000, "card4no": null, "card4noAcc": null, "district2": 410, "searchScope": null, "status": 1, "address": "\u866c\u6c5f\u8def1036\u53f7", "name": "\u4f0d\u7f18\u6298\u6263 \u866c\u6c5f\u4e09\u5e97", "id": 156684, "pageNo": 0, "pageCount": null, "pageSize": 10, "ids": null, "endTime": null, "startTime": null}, {"cardNumFive": null, "isSupportYj": null, "cityName": null, "districtName": null, "shopinfo": {"mid": "888002154119991", "good_flag": "2", "new_flag": "2", "short_name": "\u4f0d\u7f18\u6298\u6263", "short_name_pinyin": "wuyuanzhekou", "status": null, "address": null, "name": null, "id": "37198"}, "mid": "888002154119991", "shopId": "37198", "netid": null, "province": 901, "district": 601, "zipcode": null, "telephone": "64774010", "posDate": "20101008", "destineTel": null, "togoTel": null, "trafficWay": null, "signBuilding": null, "businessArea": null, "selfRoom": null, "businessTime": null, "stall": null, "consume": null, "serviceFei": null, "favourable": null, "shopMemo": null, "appraise": null, "website": null, "memo": null, "payTypes": "\u6749\u5fb7\u5361", "shopTypes": "\u8d85\u5e02", "consumeTypes": null, "cookTypes": null, "orderNum": 1000, "card4no": null, "card4noAcc": null, "district2": 403, "searchScope": null, "status": 1, "address": "\u9f99\u5ddd\u8def110\u53f7", "name": "\u4f0d\u7f18\u6298\u6263 \u9f99\u5ddd\u5e97", "id": 156685, "pageNo": 0, "pageCount": null, "pageSize": 10, "ids": null, "endTime": null, "startTime": null}, {"cardNumFive": null, "isSupportYj": null, "cityName": null, "districtName": null, "shopinfo": {"mid": "888002154119991", "good_flag": "2", "new_flag": "2", "short_name": "\u4f0d\u7f18\u6298\u6263", "short_name_pinyin": "wuyuanzhekou", "status": null, "address": null, "name": null, "id": "37198"}, "mid": "888002154119991", "shopId": "37198", "netid": null, "province": 901, "district": 601, "zipcode": null, "telephone": "64667624", "posDate": "20101008", "destineTel": null, "togoTel": null, "trafficWay": null, "signBuilding": null, "businessArea": null, "selfRoom": null, "businessTime": null, "stall": null, "consume": null, "serviceFei": null, "favourable": null, "shopMemo": null, "appraise": null, "website": null, "memo": null, "payTypes": "\u6749\u5fb7\u5361", "shopTypes": "\u8d85\u5e02", "consumeTypes": null, "cookTypes": null, "orderNum": 1000, "card4no": null, "card4noAcc": null, "district2": 403, "searchScope": null, "status": 1, "address": "\u5434\u5174\u8def31\u53f7", "name": "\u4f0d\u7f18\u6298\u6263 \u5434\u5174\u5e97", "id": 156686, "pageNo": 0, "pageCount": null, "pageSize": 10, "ids": null, "endTime": null, "startTime": null}, {"cardNumFive": null, "isSupportYj": null, "cityName": null, "districtName": null, "shopinfo": {"mid": "888002154119991", "good_flag": "2", "new_flag": "2", "short_name": "\u4f0d\u7f18\u6298\u6263", "short_name_pinyin": "wuyuanzhekou", "status": null, "address": null, "name": null, "id": "37198"}, "mid": "888002154119991", "shopId": "37198", "netid": null, "province": 901, "district": 601, "zipcode": null, "telephone": "56740914", "posDate": "20101009", "destineTel": null, "togoTel": null, "trafficWay": null, "signBuilding": null, "businessArea": null, "selfRoom": null, "businessTime": null, "stall": null, "consume": null, "serviceFei": null, "favourable": null, "shopMemo": null, "appraise": null, "website": null, "memo": null, "payTypes": "\u6749\u5fb7\u5361", "shopTypes": "\u8d85\u5e02", "consumeTypes": null, "cookTypes": null, "orderNum": 1000, "card4no": null, "card4noAcc": null, "district2": 416, "searchScope": null, "status": 1, "address": "\u7231\u8f89\u8def39\u53f7-41\u53f7", "name": "\u4f0d\u7f18\u6298\u6263 \u7231\u8f89\u5e97", "id": 156687, "pageNo": 0, "pageCount": null, "pageSize": 10, "ids": null, "endTime": null, "startTime": null}, {"cardNumFive": null, "isSupportYj": null, "cityName": null, "districtName": null, "shopinfo": {"mid": "888002154119991", "good_flag": "2", "new_flag": "2", "short_name": "\u4f0d\u7f18\u6298\u6263", "short_name_pinyin": "wuyuanzhekou", "status": null, "address": null, "name": null, "id": "37198"}, "mid": "888002154119991", "shopId": "37198", "netid": null, "province": 901, "district": 601, "zipcode": null, "telephone": "56144448", "posDate": "20101009", "destineTel": null, "togoTel": null, "trafficWay": null, "signBuilding": null, "businessArea": null, "selfRoom": null, "businessTime": null, "stall": null, "consume": null, "serviceFei": null, "favourable": null, "shopMemo": null, "appraise": null, "website": null, "memo": null, "payTypes": "\u6749\u5fb7\u5361", "shopTypes": "\u8d85\u5e02", "consumeTypes": null, "cookTypes": null, "orderNum": 1000, "card4no": null, "card4noAcc": null, "district2": 416, "searchScope": null, "status": 1, "address": "\u957f\u9038\u8def379\u53f7", "name": "\u4f0d\u7f18\u6298\u6263 \u957f\u9038\u5e97", "id": 156688, "pageNo": 0, "pageCount": null, "pageSize": 10, "ids": null, "endTime": null, "startTime": null}, {"cardNumFive": null, "isSupportYj": null, "cityName": null, "districtName": null, "shopinfo": {"mid": "888002154119991", "good_flag": "2", "new_flag": "2", "short_name": "\u4f0d\u7f18\u6298\u6263", "short_name_pinyin": "wuyuanzhekou", "status": null, "address": null, "name": null, "id": "37198"}, "mid": "888002154119991", "shopId": "37198", "netid": null, "province": 901, "district": 601, "zipcode": null, "telephone": "54034261", "posDate": "20101009", "destineTel": null, "togoTel": null, "trafficWay": null, "signBuilding": null, "businessArea": null, "selfRoom": null, "businessTime": null, "stall": null, "consume": null, "serviceFei": null, "favourable": null, "shopMemo": null, "appraise": null, "website": null, "memo": null, "payTypes": "\u6749\u5fb7\u5361", "shopTypes": "\u8d85\u5e02", "consumeTypes": null, "cookTypes": null, "orderNum": 1000, "card4no": null, "card4noAcc": null, "district2": 404, "searchScope": null, "status": 1, "address": "\u5bcc\u6c11\u8def191\u53f7", "name": "\u4f0d\u7f18\u6298\u6263 \u5bcc\u6c11\u5e97", "id": 156689, "pageNo": 0, "pageCount": null, "pageSize": 10, "ids": null, "endTime": null, "startTime": null}, {"cardNumFive": null, "isSupportYj": null, "cityName": null, "districtName": null, "shopinfo": {"mid": "888002154119991", "good_flag": "2", "new_flag": "2", "short_name": "\u4f0d\u7f18\u6298\u6263", "short_name_pinyin": "wuyuanzhekou", "status": null, "address": null, "name": null, "id": "37198"}, "mid": "888002154119991", "shopId": "37198", "netid": null, "province": 901, "district": 601, "zipcode": null, "telephone": "56732979", "posDate": "20101009", "destineTel": null, "togoTel": null, "trafficWay": null, "signBuilding": null, "businessArea": null, "selfRoom": null, "businessTime": null, "stall": null, "consume": null, "serviceFei": null, "favourable": null, "shopMemo": null, "appraise": null, "website": null, "memo": null, "payTypes": "\u6749\u5fb7\u5361", "shopTypes": "\u8d85\u5e02", "consumeTypes": null, "cookTypes": null, "orderNum": 1000, "card4no": null, "card4noAcc": null, "district2": 416, "searchScope": null, "status": 1, "address": "\u547c\u5170\u8def975\u53f7-981\u53f7", "name": "\u4f0d\u7f18\u6298\u6263 \u547c\u5170\u4e8c\u5e97", "id": 156690, "pageNo": 0, "pageCount": null, "pageSize": 10, "ids": null, "endTime": null, "startTime": null}, {"cardNumFive": null, "isSupportYj": null, "cityName": null, "districtName": null, "shopinfo": {"mid": "888002154119991", "good_flag": "2", "new_flag": "2", "short_name": "\u4f0d\u7f18\u6298\u6263", "short_name_pinyin": "wuyuanzhekou", "status": null, "address": null, "name": null, "id": "37198"}, "mid": "888002154119991", "shopId": "37198", "netid": null, "province": 901, "district": 601, "zipcode": null, "telephone": "56737405", "posDate": "20101009", "destineTel": null, "togoTel": null, "trafficWay": null, "signBuilding": null, "businessArea": null, "selfRoom": null, "businessTime": null, "stall": null, "consume": null, "serviceFei": null, "favourable": null, "shopMemo": null, "appraise": null, "website": null, "memo": null, "payTypes": "\u6749\u5fb7\u5361", "shopTypes": "\u8d85\u5e02", "consumeTypes": null, "cookTypes": null, "orderNum": 1000, "card4no": null, "card4noAcc": null, "district2": 416, "searchScope": null, "status": 1, "address": "\u547c\u5170\u8def631\u53f7-615\u53f7", "name": "\u4f0d\u7f18\u6298\u6263 \u547c\u5170\u5e97", "id": 156691, "pageNo": 0, "pageCount": null, "pageSize": 10, "ids": null, "endTime": null, "startTime": null}], "pageLimit": 9280, "size": 10}