{"pageCount": 1095, "count": 10942, "pageNo": 926, "subShopInfo": {"cardNumFive": "", "isSupportYj": "", "cityName": null, "districtName": null, "shopinfo": {"mid": null, "good_flag": null, "new_flag": null, "short_name": null, "short_name_pinyin": null, "status": null, "address": "", "name": "", "id": null}, "mid": null, "shopId": null, "netid": null, "province": 901, "district": null, "zipcode": null, "telephone": null, "posDate": null, "destineTel": null, "togoTel": null, "trafficWay": null, "signBuilding": null, "businessArea": null, "selfRoom": null, "businessTime": null, "stall": null, "consume": null, "serviceFei": null, "favourable": null, "shopMemo": "1", "appraise": null, "website": null, "memo": null, "payTypes": "", "shopTypes": "", "consumeTypes": null, "cookTypes": null, "orderNum": null, "card4no": null, "card4noAcc": null, "district2": null, "searchScope": null, "status": null, "address": "", "name": null, "id": null, "pageNo": 925, "pageCount": null, "pageSize": 10, "ids": null, "endTime": null, "startTime": null}, "list": [{"cardNumFive": null, "isSupportYj": null, "cityName": null, "districtName": null, "shopinfo": {"mid": "888002154119991", "good_flag": "2", "new_flag": "2", "short_name": "\u4f0d\u7f18\u6298\u6263", "short_name_pinyin": "wuyuanzhekou", "status": null, "address": null, "name": null, "id": "37198"}, "mid": "888002154119991", "shopId": "37198", "netid": null, "province": 901, "district": 601, "zipcode": null, "telephone": "58156120", "posDate": "20101016", "destineTel": null, "togoTel": null, "trafficWay": null, "signBuilding": null, "businessArea": null, "selfRoom": null, "businessTime": null, "stall": null, "consume": null, "serviceFei": null, "favourable": null, "shopMemo": null, "appraise": null, "website": null, "memo": null, "payTypes": "\u6749\u5fb7\u5361", "shopTypes": "\u8d85\u5e02", "consumeTypes": null, "cookTypes": null, "orderNum": 1000, "card4no": null, "card4noAcc": null, "district2": 418, "searchScope": null, "status": 1, "address": "\u5468\u6d66\u9547\u74e6\u5c51\u5efa\u8bbe\u5927\u6865\u5357\u4fa7\u74e6\u5c51\u4f9b\u9500\u697c\u4e8c\u697c", "name": "\u4f0d\u7f18\u6298\u6263 \u74e6\u5c51\u5e97", "id": 156648, "pageNo": 0, "pageCount": null, "pageSize": 10, "ids": null, "endTime": null, "startTime": null}, {"cardNumFive": null, "isSupportYj": null, "cityName": null, "districtName": null, "shopinfo": {"mid": "888002154119991", "good_flag": "2", "new_flag": "2", "short_name": "\u4f0d\u7f18\u6298\u6263", "short_name_pinyin": "wuyuanzhekou", "status": null, "address": null, "name": null, "id": "37198"}, "mid": "888002154119991", "shopId": "37198", "netid": null, "province": 901, "district": 601, "zipcode": null, "telephone": "62900426", "posDate": "20101017", "destineTel": null, "togoTel": null, "trafficWay": null, "signBuilding": null, "businessArea": null, "selfRoom": null, "businessTime": null, "stall": null, "consume": null, "serviceFei": null, "favourable": null, "shopMemo": null, "appraise": null, "website": null, "memo": null, "payTypes": "\u6749\u5fb7\u5361", "shopTypes": "\u8d85\u5e02", "consumeTypes": null, "cookTypes": null, "orderNum": 1000, "card4no": null, "card4noAcc": null, "district2": 406, "searchScope": null, "status": 1, "address": "\u8305\u53f0\u8def836\u53f7", "name": "\u4f0d\u7f18\u6298\u6263 \u5a01\u5b81\u5e97", "id": 156649, "pageNo": 0, "pageCount": null, "pageSize": 10, "ids": null, "endTime": null, "startTime": null}, {"cardNumFive": null, "isSupportYj": null, "cityName": null, "districtName": null, "shopinfo": {"mid": "888002154119991", "good_flag": "2", "new_flag": "2", "short_name": "\u4f0d\u7f18\u6298\u6263", "short_name_pinyin": "wuyuanzhekou", "status": null, "address": null, "name": null, "id": "37198"}, "mid": "888002154119991", "shopId": "37198", "netid": null, "province": 901, "district": 601, "zipcode": null, "telephone": "56831549", "posDate": "20101016", "destineTel": null, "togoTel": null, "trafficWay": null, "signBuilding": null, "businessArea": null, "selfRoom": null, "businessTime": null, "stall": null, "consume": null, "serviceFei": null, "favourable": null, "shopMemo": null, "appraise": null, "website": null, "memo": null, "payTypes": "\u6749\u5fb7\u5361", "shopTypes": "\u8d85\u5e02", "consumeTypes": null, "cookTypes": null, "orderNum": 1000, "card4no": null, "card4noAcc": null, "district2": 410, "searchScope": null, "status": 1, "address": "\u95fb\u559c\u8def681\u53f7", "name": "\u4f0d\u7f18\u6298\u6263 \u95fb\u559c\u4e8c\u5e97", "id": 156650, "pageNo": 0, "pageCount": null, "pageSize": 10, "ids": null, "endTime": null, "startTime": null}, {"cardNumFive": null, "isSupportYj": null, "cityName": null, "districtName": null, "shopinfo": {"mid": "888002154119991", "good_flag": "2", "new_flag": "2", "short_name": "\u4f0d\u7f18\u6298\u6263", "short_name_pinyin": "wuyuanzhekou", "status": null, "address": null, "name": null, "id": "37198"}, "mid": "888002154119991", "shopId": "37198", "netid": null, "province": 901, "district": 601, "zipcode": null, "telephone": "65451034", "posDate": "20101011", "destineTel": null, "togoTel": null, "trafficWay": null, "signBuilding": null, "businessArea": null, "selfRoom": null, "businessTime": null, "stall": null, "consume": null, "serviceFei": null, "favourable": null, "shopMemo": null, "appraise": null, "website": null, "memo": null, "payTypes": "\u6749\u5fb7\u5361", "shopTypes": "\u8d85\u5e02", "consumeTypes": null, "cookTypes": null, "orderNum": 1000, "card4no": null, "card4noAcc": null, "district2": 408, "searchScope": null, "status": 1, "address": "\u68a7\u5dde\u8def120\u53f7", "name": "\u4f0d\u7f18\u6298\u6263 \u68a7\u5dde\u5e97", "id": 156651, "pageNo": 0, "pageCount": null, "pageSize": 10, "ids": null, "endTime": null, "startTime": null}, {"cardNumFive": null, "isSupportYj": null, "cityName": null, "districtName": null, "shopinfo": {"mid": "888002154119991", "good_flag": "2", "new_flag": "2", "short_name": "\u4f0d\u7f18\u6298\u6263", "short_name_pinyin": "wuyuanzhekou", "status": null, "address": null, "name": null, "id": "37198"}, "mid": "888002154119991", "shopId": "37198", "netid": null, "province": 901, "district": 601, "zipcode": null, "telephone": "62644192", "posDate": "20101013", "destineTel": null, "togoTel": null, "trafficWay": null, "signBuilding": null, "businessArea": null, "selfRoom": null, "businessTime": null, "stall": null, "consume": null, "serviceFei": null, "favourable": null, "shopMemo": null, "appraise": null, "website": null, "memo": null, "payTypes": "\u6749\u5fb7\u5361", "shopTypes": "\u8d85\u5e02", "consumeTypes": null, "cookTypes": null, "orderNum": 1000, "card4no": null, "card4noAcc": null, "district2": 405, "searchScope": null, "status": 1, "address": "\u6b66\u5b81\u8def2112\u53f7", "name": "\u4f0d\u7f18\u6298\u6263 \u6b66\u5b81\u5e97", "id": 156652, "pageNo": 0, "pageCount": null, "pageSize": 10, "ids": null, "endTime": null, "startTime": null}, {"cardNumFive": null, "isSupportYj": null, "cityName": null, "districtName": null, "shopinfo": {"mid": "888002154119991", "good_flag": "2", "new_flag": "2", "short_name": "\u4f0d\u7f18\u6298\u6263", "short_name_pinyin": "wuyuanzhekou", "status": null, "address": null, "name": null, "id": "37198"}, "mid": "888002154119991", "shopId": "37198", "netid": null, "province": 901, "district": 601, "zipcode": null, "telephone": "58715393", "posDate": "20101016", "destineTel": null, "togoTel": null, "trafficWay": null, "signBuilding": null, "businessArea": null, "selfRoom": null, "businessTime": null, "stall": null, "consume": null, "serviceFei": null, "favourable": null, "shopMemo": null, "appraise": null, "website": null, "memo": null, "payTypes": "\u6749\u5fb7\u5361", "shopTypes": "\u8d85\u5e02", "consumeTypes": null, "cookTypes": null, "orderNum": 1000, "card4no": null, "card4noAcc": null, "district2": 418, "searchScope": null, "status": 1, "address": "\u4e94\u83b2\u8def208\u53f7", "name": "\u4f0d\u7f18\u6298\u6263 \u4e94\u83b2\u5e97", "id": 156653, "pageNo": 0, "pageCount": null, "pageSize": 10, "ids": null, "endTime": null, "startTime": null}, {"cardNumFive": null, "isSupportYj": null, "cityName": null, "districtName": null, "shopinfo": {"mid": "888002154119991", "good_flag": "2", "new_flag": "2", "short_name": "\u4f0d\u7f18\u6298\u6263", "short_name_pinyin": "wuyuanzhekou", "status": null, "address": null, "name": null, "id": "37198"}, "mid": "888002154119991", "shopId": "37198", "netid": null, "province": 901, "district": 601, "zipcode": null, "telephone": "62397174", "posDate": "20101017", "destineTel": null, "togoTel": null, "trafficWay": null, "signBuilding": null, "businessArea": null, "selfRoom": null, "businessTime": null, "stall": null, "consume": null, "serviceFei": null, "favourable": null, "shopMemo": null, "appraise": null, "website": null, "memo": null, "payTypes": "\u6749\u5fb7\u5361", "shopTypes": "\u8d85\u5e02", "consumeTypes": null, "cookTypes": null, "orderNum": 1000, "card4no": null, "card4noAcc": null, "district2": 406, "searchScope": null, "status": 1, "address": "\u4ed9\u971e\u897f\u8def617\u53f7", "name": "\u4f0d\u7f18\u6298\u6263 \u4ed9\u971e\u4e8c\u5e97", "id": 156654, "pageNo": 0, "pageCount": null, "pageSize": 10, "ids": null, "endTime": null, "startTime": null}, {"cardNumFive": null, "isSupportYj": null, "cityName": null, "districtName": null, "shopinfo": {"mid": "888002154119991", "good_flag": "2", "new_flag": "2", "short_name": "\u4f0d\u7f18\u6298\u6263", "short_name_pinyin": "wuyuanzhekou", "status": null, "address": null, "name": null, "id": "37198"}, "mid": "888002154119991", "shopId": "37198", "netid": null, "province": 901, "district": 601, "zipcode": null, "telephone": "65401367", "posDate": "20101012", "destineTel": null, "togoTel": null, "trafficWay": null, "signBuilding": null, "businessArea": null, "selfRoom": null, "businessTime": null, "stall": null, "consume": null, "serviceFei": null, "favourable": null, "shopMemo": null, "appraise": null, "website": null, "memo": null, "payTypes": "\u6749\u5fb7\u5361", "shopTypes": "\u8d85\u5e02", "consumeTypes": null, "cookTypes": null, "orderNum": 1000, "card4no": null, "card4noAcc": null, "district2": 408, "searchScope": null, "status": 1, "address": "\u7965\u5fb7\u8def55\u53f7", "name": "\u4f0d\u7f18\u6298\u6263 \u7965\u5fb7\u4e8c\u5e97", "id": 156655, "pageNo": 0, "pageCount": null, "pageSize": 10, "ids": null, "endTime": null, "startTime": null}, {"cardNumFive": null, "isSupportYj": null, "cityName": null, "districtName": null, "shopinfo": {"mid": "888002154119991", "good_flag": "2", "new_flag": "2", "short_name": "\u4f0d\u7f18\u6298\u6263", "short_name_pinyin": "wuyuanzhekou", "status": null, "address": null, "name": null, "id": "37198"}, "mid": "888002154119991", "shopId": "37198", "netid": null, "province": 901, "district": 601, "zipcode": null, "telephone": "58904704", "posDate": "20101016", "destineTel": null, "togoTel": null, "trafficWay": null, "signBuilding": null, "businessArea": null, "selfRoom": null, "businessTime": null, "stall": null, "consume": null, "serviceFei": null, "favourable": null, "shopMemo": null, "appraise": null, "website": null, "memo": null, "payTypes": "\u6749\u5fb7\u5361", "shopTypes": "\u8d85\u5e02", "consumeTypes": null, "cookTypes": null, "orderNum": 1000, "card4no": null, "card4noAcc": null, "district2": 418, "searchScope": null, "status": 1, "address": "\u5ddd\u6c99\u9547\u65b0\u5ddd\u8def213\u53f7", "name": "\u4f0d\u7f18\u6298\u6263 \u65b0\u5ddd\u5e97", "id": 156656, "pageNo": 0, "pageCount": null, "pageSize": 10, "ids": null, "endTime": null, "startTime": null}, {"cardNumFive": null, "isSupportYj": null, "cityName": null, "districtName": null, "shopinfo": {"mid": "888002154119991", "good_flag": "2", "new_flag": "2", "short_name": "\u4f0d\u7f18\u6298\u6263", "short_name_pinyin": "wuyuanzhekou", "status": null, "address": null, "name": null, "id": "37198"}, "mid": "888002154119991", "shopId": "37198", "netid": null, "province": 901, "district": 601, "zipcode": null, "telephone": "56610523", "posDate": "20101017", "destineTel": null, "togoTel": null, "trafficWay": null, "signBuilding": null, "businessArea": null, "selfRoom": null, "businessTime": null, "stall": null, "consume": null, "serviceFei": null, "favourable": null, "shopMemo": null, "appraise": null, "website": null, "memo": null, "payTypes": "\u6749\u5fb7\u5361", "shopTypes": "\u8d85\u5e02", "consumeTypes": null, "cookTypes": null, "orderNum": 1000, "card4no": null, "card4noAcc": null, "district2": 405, "searchScope": null, "status": 1, "address": "\u65b0\u6751\u8def445\u53f7", "name": "\u4f0d\u7f18\u6298\u6263 \u65b0\u6751\u4e8c\u5e97", "id": 156657, "pageNo": 0, "pageCount": null, "pageSize": 10, "ids": null, "endTime": null, "startTime": null}], "pageLimit": 9250, "size": 10}