{"pageCount": 1095, "count": 10942, "pageNo": 922, "subShopInfo": {"cardNumFive": "", "isSupportYj": "", "cityName": null, "districtName": null, "shopinfo": {"mid": null, "good_flag": null, "new_flag": null, "short_name": null, "short_name_pinyin": null, "status": null, "address": "", "name": "", "id": null}, "mid": null, "shopId": null, "netid": null, "province": 901, "district": null, "zipcode": null, "telephone": null, "posDate": null, "destineTel": null, "togoTel": null, "trafficWay": null, "signBuilding": null, "businessArea": null, "selfRoom": null, "businessTime": null, "stall": null, "consume": null, "serviceFei": null, "favourable": null, "shopMemo": "1", "appraise": null, "website": null, "memo": null, "payTypes": "", "shopTypes": "", "consumeTypes": null, "cookTypes": null, "orderNum": null, "card4no": null, "card4noAcc": null, "district2": null, "searchScope": null, "status": null, "address": "", "name": null, "id": null, "pageNo": 921, "pageCount": null, "pageSize": 10, "ids": null, "endTime": null, "startTime": null}, "list": [{"cardNumFive": null, "isSupportYj": null, "cityName": null, "districtName": null, "shopinfo": {"mid": "888002154119991", "good_flag": "2", "new_flag": "2", "short_name": "\u4f0d\u7f18\u6298\u6263", "short_name_pinyin": "wuyuanzhekou", "status": null, "address": null, "name": null, "id": "37198"}, "mid": "888002154119991", "shopId": "37198", "netid": null, "province": 901, "district": 601, "zipcode": null, "telephone": "56082481", "posDate": "20101017", "destineTel": null, "togoTel": null, "trafficWay": null, "signBuilding": null, "businessArea": null, "selfRoom": null, "businessTime": null, "stall": null, "consume": null, "serviceFei": null, "favourable": null, "shopMemo": null, "appraise": null, "website": null, "memo": null, "payTypes": "\u6749\u5fb7\u5361", "shopTypes": "\u8d85\u5e02", "consumeTypes": null, "cookTypes": null, "orderNum": 1000, "card4no": null, "card4noAcc": null, "district2": 410, "searchScope": null, "status": 1, "address": "\u6d1b\u5ddd\u4e2d\u8def1100\u5f0461\u53f7", "name": "\u4f0d\u7f18\u6298\u6263 \u6d1b\u5ddd\u4e2d\u5e97", "id": 156604, "pageNo": 0, "pageCount": null, "pageSize": 10, "ids": null, "endTime": null, "startTime": null}, {"cardNumFive": null, "isSupportYj": null, "cityName": null, "districtName": null, "shopinfo": {"mid": "888002154119991", "good_flag": "2", "new_flag": "2", "short_name": "\u4f0d\u7f18\u6298\u6263", "short_name_pinyin": "wuyuanzhekou", "status": null, "address": null, "name": null, "id": "37198"}, "mid": "888002154119991", "shopId": "37198", "netid": null, "province": 901, "district": 601, "zipcode": null, "telephone": "54387654", "posDate": "20101016", "destineTel": null, "togoTel": null, "trafficWay": null, "signBuilding": null, "businessArea": null, "selfRoom": null, "businessTime": null, "stall": null, "consume": null, "serviceFei": null, "favourable": null, "shopMemo": null, "appraise": null, "website": null, "memo": null, "payTypes": "\u6749\u5fb7\u5361", "shopTypes": "\u8d85\u5e02", "consumeTypes": null, "cookTypes": null, "orderNum": 1000, "card4no": null, "card4noAcc": null, "district2": 409, "searchScope": null, "status": 1, "address": "\u6885\u5bcc\u8def888\u53f7", "name": "\u4f0d\u7f18\u6298\u6263 \u6885\u5bcc\u5e97", "id": 156606, "pageNo": 0, "pageCount": null, "pageSize": 10, "ids": null, "endTime": null, "startTime": null}, {"cardNumFive": null, "isSupportYj": null, "cityName": null, "districtName": null, "shopinfo": {"mid": "888002154119991", "good_flag": "2", "new_flag": "2", "short_name": "\u4f0d\u7f18\u6298\u6263", "short_name_pinyin": "wuyuanzhekou", "status": null, "address": null, "name": null, "id": "37198"}, "mid": "888002154119991", "shopId": "37198", "netid": null, "province": 901, "district": 601, "zipcode": null, "telephone": "62644950", "posDate": "20101013", "destineTel": null, "togoTel": null, "trafficWay": null, "signBuilding": null, "businessArea": null, "selfRoom": null, "businessTime": null, "stall": null, "consume": null, "serviceFei": null, "favourable": null, "shopMemo": null, "appraise": null, "website": null, "memo": null, "payTypes": "\u6749\u5fb7\u5361", "shopTypes": "\u8d85\u5e02", "consumeTypes": null, "cookTypes": null, "orderNum": 1000, "card4no": null, "card4noAcc": null, "district2": 405, "searchScope": null, "status": 1, "address": "\u6885\u5cad\u5317\u8def998\u53f7", "name": "\u4f0d\u7f18\u6298\u6263 \u6885\u5cad\u4e8c\u5e97", "id": 156607, "pageNo": 0, "pageCount": null, "pageSize": 10, "ids": null, "endTime": null, "startTime": null}, {"cardNumFive": null, "isSupportYj": null, "cityName": null, "districtName": null, "shopinfo": {"mid": "888002154119991", "good_flag": "2", "new_flag": "2", "short_name": "\u4f0d\u7f18\u6298\u6263", "short_name_pinyin": "wuyuanzhekou", "status": null, "address": null, "name": null, "id": "37198"}, "mid": "888002154119991", "shopId": "37198", "netid": null, "province": 901, "district": 601, "zipcode": null, "telephone": "52810063", "posDate": "20101013", "destineTel": null, "togoTel": null, "trafficWay": null, "signBuilding": null, "businessArea": null, "selfRoom": null, "businessTime": null, "stall": null, "consume": null, "serviceFei": null, "favourable": null, "shopMemo": null, "appraise": null, "website": null, "memo": null, "payTypes": "\u6749\u5fb7\u5361", "shopTypes": "\u8d85\u5e02", "consumeTypes": null, "cookTypes": null, "orderNum": 1000, "card4no": null, "card4noAcc": null, "district2": 405, "searchScope": null, "status": 1, "address": "\u6885\u5cad\u5317\u8def1217-1223\u53f7", "name": "\u4f0d\u7f18\u6298\u6263 \u6885\u5cad\u4e09\u5e97", "id": 156608, "pageNo": 0, "pageCount": null, "pageSize": 10, "ids": null, "endTime": null, "startTime": null}, {"cardNumFive": null, "isSupportYj": null, "cityName": null, "districtName": null, "shopinfo": {"mid": "888002154119991", "good_flag": "2", "new_flag": "2", "short_name": "\u4f0d\u7f18\u6298\u6263", "short_name_pinyin": "wuyuanzhekou", "status": null, "address": null, "name": null, "id": "37198"}, "mid": "888002154119991", "shopId": "37198", "netid": null, "province": 901, "district": 601, "zipcode": null, "telephone": "68951259", "posDate": "20101016", "destineTel": null, "togoTel": null, "trafficWay": null, "signBuilding": null, "businessArea": null, "selfRoom": null, "businessTime": null, "stall": null, "consume": null, "serviceFei": null, "favourable": null, "shopMemo": null, "appraise": null, "website": null, "memo": null, "payTypes": "\u6749\u5fb7\u5361", "shopTypes": "\u8d85\u5e02", "consumeTypes": null, "cookTypes": null, "orderNum": 1000, "card4no": null, "card4noAcc": null, "district2": 418, "searchScope": null, "status": 1, "address": "\u725f\u5e73\u8def5\u53f7", "name": "\u4f0d\u7f18\u6298\u6263 \u725f\u5e73\u4e8c\u5e97", "id": 156609, "pageNo": 0, "pageCount": null, "pageSize": 10, "ids": null, "endTime": null, "startTime": null}, {"cardNumFive": null, "isSupportYj": null, "cityName": null, "districtName": null, "shopinfo": {"mid": "888002154119991", "good_flag": "2", "new_flag": "2", "short_name": "\u4f0d\u7f18\u6298\u6263", "short_name_pinyin": "wuyuanzhekou", "status": null, "address": null, "name": null, "id": "37198"}, "mid": "888002154119991", "shopId": "37198", "netid": null, "province": 901, "district": 601, "zipcode": null, "telephone": "68510440", "posDate": "20101016", "destineTel": null, "togoTel": null, "trafficWay": null, "signBuilding": null, "businessArea": null, "selfRoom": null, "businessTime": null, "stall": null, "consume": null, "serviceFei": null, "favourable": null, "shopMemo": null, "appraise": null, "website": null, "memo": null, "payTypes": "\u6749\u5fb7\u5361", "shopTypes": "\u8d85\u5e02", "consumeTypes": null, "cookTypes": null, "orderNum": 1000, "card4no": null, "card4noAcc": null, "district2": 418, "searchScope": null, "status": 1, "address": "\u725f\u5e73\u8def339\u53f7", "name": "\u4f0d\u7f18\u6298\u6263 \u725f\u5e73\u5e97", "id": 156610, "pageNo": 0, "pageCount": null, "pageSize": 10, "ids": null, "endTime": null, "startTime": null}, {"cardNumFive": null, "isSupportYj": null, "cityName": null, "districtName": null, "shopinfo": {"mid": "888002154119991", "good_flag": "2", "new_flag": "2", "short_name": "\u4f0d\u7f18\u6298\u6263", "short_name_pinyin": "wuyuanzhekou", "status": null, "address": null, "name": null, "id": "37198"}, "mid": "888002154119991", "shopId": "37198", "netid": null, "province": 901, "district": 601, "zipcode": null, "telephone": "62604627", "posDate": "20101014", "destineTel": null, "togoTel": null, "trafficWay": null, "signBuilding": null, "businessArea": null, "selfRoom": null, "businessTime": null, "stall": null, "consume": null, "serviceFei": null, "favourable": null, "shopMemo": null, "appraise": null, "website": null, "memo": null, "payTypes": "\u6749\u5fb7\u5361", "shopTypes": "\u8d85\u5e02", "consumeTypes": null, "cookTypes": null, "orderNum": 1000, "card4no": null, "card4noAcc": null, "district2": 405, "searchScope": null, "status": 1, "address": "\u5357\u5927\u885721\u53f7", "name": "\u4f0d\u7f18\u6298\u6263 \u5357\u5927\u8857\u5e97", "id": 156611, "pageNo": 0, "pageCount": null, "pageSize": 10, "ids": null, "endTime": null, "startTime": null}, {"cardNumFive": null, "isSupportYj": null, "cityName": null, "districtName": null, "shopinfo": {"mid": "888002154119991", "good_flag": "2", "new_flag": "2", "short_name": "\u4f0d\u7f18\u6298\u6263", "short_name_pinyin": "wuyuanzhekou", "status": null, "address": null, "name": null, "id": "37198"}, "mid": "888002154119991", "shopId": "37198", "netid": null, "province": 901, "district": 601, "zipcode": null, "telephone": "66378774", "posDate": "20101011", "destineTel": null, "togoTel": null, "trafficWay": null, "signBuilding": null, "businessArea": null, "selfRoom": null, "businessTime": null, "stall": null, "consume": null, "serviceFei": null, "favourable": null, "shopMemo": null, "appraise": null, "website": null, "memo": null, "payTypes": "\u6749\u5fb7\u5361", "shopTypes": "\u8d85\u5e02", "consumeTypes": null, "cookTypes": null, "orderNum": 1000, "card4no": null, "card4noAcc": null, "district2": 416, "searchScope": null, "status": 1, "address": "\u5357\u534e\u82d1\u8def137-141\u53f7", "name": "\u4f0d\u7f18\u6298\u6263 \u5357\u534e\u82d1\u5e97", "id": 156612, "pageNo": 0, "pageCount": null, "pageSize": 10, "ids": null, "endTime": null, "startTime": null}, {"cardNumFive": null, "isSupportYj": null, "cityName": null, "districtName": null, "shopinfo": {"mid": "888002154119991", "good_flag": "2", "new_flag": "2", "short_name": "\u4f0d\u7f18\u6298\u6263", "short_name_pinyin": "wuyuanzhekou", "status": null, "address": null, "name": null, "id": "37198"}, "mid": "888002154119991", "shopId": "37198", "netid": null, "province": 901, "district": 601, "zipcode": null, "telephone": "58286037", "posDate": "20101016", "destineTel": null, "togoTel": null, "trafficWay": null, "signBuilding": null, "businessArea": null, "selfRoom": null, "businessTime": null, "stall": null, "consume": null, "serviceFei": null, "favourable": null, "shopMemo": null, "appraise": null, "website": null, "memo": null, "payTypes": "\u6749\u5fb7\u5361", "shopTypes": "\u8d85\u5e02", "consumeTypes": null, "cookTypes": null, "orderNum": 1000, "card4no": null, "card4noAcc": null, "district2": 418, "searchScope": null, "status": 1, "address": "\u82a6\u6f6e\u6e2f\u9547\u6e14\u6e2f\u8def515\u53f7", "name": "\u4f0d\u7f18\u6298\u6263 \u5357\u6c47\u82a6\u6f6e\u6e2f\u5e97", "id": 156613, "pageNo": 0, "pageCount": null, "pageSize": 10, "ids": null, "endTime": null, "startTime": null}, {"cardNumFive": null, "isSupportYj": null, "cityName": null, "districtName": null, "shopinfo": {"mid": "888002154119991", "good_flag": "2", "new_flag": "2", "short_name": "\u4f0d\u7f18\u6298\u6263", "short_name_pinyin": "wuyuanzhekou", "status": null, "address": null, "name": null, "id": "37198"}, "mid": "888002154119991", "shopId": "37198", "netid": null, "province": 901, "district": 601, "zipcode": null, "telephone": "58735304", "posDate": "20101017", "destineTel": null, "togoTel": null, "trafficWay": null, "signBuilding": null, "businessArea": null, "selfRoom": null, "businessTime": null, "stall": null, "consume": null, "serviceFei": null, "favourable": null, "shopMemo": null, "appraise": null, "website": null, "memo": null, "payTypes": "\u6749\u5fb7\u5361", "shopTypes": "\u8d85\u5e02", "consumeTypes": null, "cookTypes": null, "orderNum": 1000, "card4no": null, "card4noAcc": null, "district2": 418, "searchScope": null, "status": 1, "address": "\u5357\u7801\u5934\u8def169\u53f7", "name": "\u4f0d\u7f18\u6298\u6263 \u5357\u7801\u5934\u5e97", "id": 156614, "pageNo": 0, "pageCount": null, "pageSize": 10, "ids": null, "endTime": null, "startTime": null}], "pageLimit": 9210, "size": 10}