{"pageCount": 1095, "count": 10942, "pageNo": 930, "subShopInfo": {"cardNumFive": "", "isSupportYj": "", "cityName": null, "districtName": null, "shopinfo": {"mid": null, "good_flag": null, "new_flag": null, "short_name": null, "short_name_pinyin": null, "status": null, "address": "", "name": "", "id": null}, "mid": null, "shopId": null, "netid": null, "province": 901, "district": null, "zipcode": null, "telephone": null, "posDate": null, "destineTel": null, "togoTel": null, "trafficWay": null, "signBuilding": null, "businessArea": null, "selfRoom": null, "businessTime": null, "stall": null, "consume": null, "serviceFei": null, "favourable": null, "shopMemo": "1", "appraise": null, "website": null, "memo": null, "payTypes": "", "shopTypes": "", "consumeTypes": null, "cookTypes": null, "orderNum": null, "card4no": null, "card4noAcc": null, "district2": null, "searchScope": null, "status": null, "address": "", "name": null, "id": null, "pageNo": 929, "pageCount": null, "pageSize": 10, "ids": null, "endTime": null, "startTime": null}, "list": [{"cardNumFive": null, "isSupportYj": null, "cityName": null, "districtName": null, "shopinfo": {"mid": "888002154119991", "good_flag": "2", "new_flag": "2", "short_name": "\u4f0d\u7f18\u6298\u6263", "short_name_pinyin": "wuyuanzhekou", "status": null, "address": null, "name": null, "id": "37198"}, "mid": "888002154119991", "shopId": "37198", "netid": null, "province": 901, "district": 601, "zipcode": null, "telephone": "56751656", "posDate": "20101009", "destineTel": null, "togoTel": null, "trafficWay": null, "signBuilding": null, "businessArea": null, "selfRoom": null, "businessTime": null, "stall": null, "consume": null, "serviceFei": null, "favourable": null, "shopMemo": null, "appraise": null, "website": null, "memo": null, "payTypes": "\u6749\u5fb7\u5361", "shopTypes": "\u8d85\u5e02", "consumeTypes": null, "cookTypes": null, "orderNum": 1000, "card4no": null, "card4noAcc": null, "district2": 416, "searchScope": null, "status": 1, "address": "\u547c\u739b\u8def445\uff0d453\u53f7", "name": "\u4f0d\u7f18\u6298\u6263 \u547c\u739b\u4e8c\u5e97", "id": 156692, "pageNo": 0, "pageCount": null, "pageSize": 10, "ids": null, "endTime": null, "startTime": null}, {"cardNumFive": null, "isSupportYj": null, "cityName": null, "districtName": null, "shopinfo": {"mid": "888002154119991", "good_flag": "2", "new_flag": "2", "short_name": "\u4f0d\u7f18\u6298\u6263", "short_name_pinyin": "wuyuanzhekou", "status": null, "address": null, "name": null, "id": "37198"}, "mid": "888002154119991", "shopId": "37198", "netid": null, "province": 901, "district": 601, "zipcode": null, "telephone": "56757614", "posDate": "20101009", "destineTel": null, "togoTel": null, "trafficWay": null, "signBuilding": null, "businessArea": null, "selfRoom": null, "businessTime": null, "stall": null, "consume": null, "serviceFei": null, "favourable": null, "shopMemo": null, "appraise": null, "website": null, "memo": null, "payTypes": "\u6749\u5fb7\u5361", "shopTypes": "\u8d85\u5e02", "consumeTypes": null, "cookTypes": null, "orderNum": 1000, "card4no": null, "card4noAcc": null, "district2": 416, "searchScope": null, "status": 1, "address": "\u547c\u739b\u8def575\u53f7", "name": "\u4f0d\u7f18\u6298\u6263 \u547c\u739b\u5e97", "id": 156693, "pageNo": 0, "pageCount": null, "pageSize": 10, "ids": null, "endTime": null, "startTime": null}, {"cardNumFive": null, "isSupportYj": null, "cityName": null, "districtName": null, "shopinfo": {"mid": "888002154119991", "good_flag": "2", "new_flag": "2", "short_name": "\u4f0d\u7f18\u6298\u6263", "short_name_pinyin": "wuyuanzhekou", "status": null, "address": null, "name": null, "id": "37198"}, "mid": "888002154119991", "shopId": "37198", "netid": null, "province": 901, "district": 601, "zipcode": null, "telephone": "62534327", "posDate": "20101009", "destineTel": null, "togoTel": null, "trafficWay": null, "signBuilding": null, "businessArea": null, "selfRoom": null, "businessTime": null, "stall": null, "consume": null, "serviceFei": null, "favourable": null, "shopMemo": null, "appraise": null, "website": null, "memo": null, "payTypes": "\u6749\u5fb7\u5361", "shopTypes": "\u8d85\u5e02", "consumeTypes": null, "cookTypes": null, "orderNum": 1000, "card4no": null, "card4noAcc": null, "district2": 404, "searchScope": null, "status": 1, "address": "\u6cf0\u5174\u8def555\u53f7", "name": "\u4f0d\u7f18\u6298\u6263 \u6cf0\u5174\u5e97", "id": 156694, "pageNo": 0, "pageCount": null, "pageSize": 10, "ids": null, "endTime": null, "startTime": null}, {"cardNumFive": null, "isSupportYj": null, "cityName": null, "districtName": null, "shopinfo": {"mid": "888002154119991", "good_flag": "2", "new_flag": "2", "short_name": "\u4f0d\u7f18\u6298\u6263", "short_name_pinyin": "wuyuanzhekou", "status": null, "address": null, "name": null, "id": "37198"}, "mid": "888002154119991", "shopId": "37198", "netid": null, "province": 901, "district": 601, "zipcode": null, "telephone": "56141478", "posDate": "20101009", "destineTel": null, "togoTel": null, "trafficWay": null, "signBuilding": null, "businessArea": null, "selfRoom": null, "businessTime": null, "stall": null, "consume": null, "serviceFei": null, "favourable": null, "shopMemo": null, "appraise": null, "website": null, "memo": null, "payTypes": "\u6749\u5fb7\u5361", "shopTypes": "\u8d85\u5e02", "consumeTypes": null, "cookTypes": null, "orderNum": 1000, "card4no": null, "card4noAcc": null, "district2": 416, "searchScope": null, "status": 1, "address": "\u65b0\u4e8c\u8def1001\u5f046-7\u53f7", "name": "\u4f0d\u7f18\u6298\u6263 \u65b0\u4e8c\u5e97", "id": 156695, "pageNo": 0, "pageCount": null, "pageSize": 10, "ids": null, "endTime": null, "startTime": null}, {"cardNumFive": null, "isSupportYj": null, "cityName": null, "districtName": null, "shopinfo": {"mid": "888002154119991", "good_flag": "2", "new_flag": "2", "short_name": "\u4f0d\u7f18\u6298\u6263", "short_name_pinyin": "wuyuanzhekou", "status": null, "address": null, "name": null, "id": "37198"}, "mid": "888002154119991", "shopId": "37198", "netid": null, "province": 901, "district": 601, "zipcode": null, "telephone": "65913648", "posDate": "20101009", "destineTel": null, "togoTel": null, "trafficWay": null, "signBuilding": null, "businessArea": null, "selfRoom": null, "businessTime": null, "stall": null, "consume": null, "serviceFei": null, "favourable": null, "shopMemo": null, "appraise": null, "website": null, "memo": null, "payTypes": "\u6749\u5fb7\u5361", "shopTypes": "\u8d85\u5e02", "consumeTypes": null, "cookTypes": null, "orderNum": 1000, "card4no": null, "card4noAcc": null, "district2": 416, "searchScope": null, "status": 1, "address": "\u9038\u4ed9\u8def1321\u5f0466\u53f7", "name": "\u4f0d\u7f18\u6298\u6263 \u9038\u4ed9\u5e97", "id": 156696, "pageNo": 0, "pageCount": null, "pageSize": 10, "ids": null, "endTime": null, "startTime": null}, {"cardNumFive": null, "isSupportYj": null, "cityName": null, "districtName": null, "shopinfo": {"mid": "888002154119991", "good_flag": "2", "new_flag": "2", "short_name": "\u4f0d\u7f18\u6298\u6263", "short_name_pinyin": "wuyuanzhekou", "status": null, "address": null, "name": null, "id": "37198"}, "mid": "888002154119991", "shopId": "37198", "netid": null, "province": 901, "district": 601, "zipcode": null, "telephone": "64863855", "posDate": "20101009", "destineTel": null, "togoTel": null, "trafficWay": null, "signBuilding": null, "businessArea": null, "selfRoom": null, "businessTime": null, "stall": null, "consume": null, "serviceFei": null, "favourable": null, "shopMemo": null, "appraise": null, "website": null, "memo": null, "payTypes": "\u6749\u5fb7\u5361", "shopTypes": "\u8d85\u5e02", "consumeTypes": null, "cookTypes": null, "orderNum": 1000, "card4no": null, "card4noAcc": null, "district2": 403, "searchScope": null, "status": 1, "address": "\u4e2d\u5c71\u5357\u4e8c\u8def916-918\u53f7", "name": "\u4f0d\u7f18\u6298\u6263 \u4e2d\u5c71\u5357\u4e8c\u5e97", "id": 156697, "pageNo": 0, "pageCount": null, "pageSize": 10, "ids": null, "endTime": null, "startTime": null}, {"cardNumFive": null, "isSupportYj": null, "cityName": null, "districtName": null, "shopinfo": {"mid": "888002154119991", "good_flag": "2", "new_flag": "2", "short_name": "\u4f0d\u7f18\u6298\u6263", "short_name_pinyin": "wuyuanzhekou", "status": null, "address": null, "name": null, "id": "37198"}, "mid": "888002154119991", "shopId": "37198", "netid": null, "province": 901, "district": 601, "zipcode": null, "telephone": "56821594", "posDate": "20101009", "destineTel": null, "togoTel": null, "trafficWay": null, "signBuilding": null, "businessArea": null, "selfRoom": null, "businessTime": null, "stall": null, "consume": null, "serviceFei": null, "favourable": null, "shopMemo": null, "appraise": null, "website": null, "memo": null, "payTypes": "\u6749\u5fb7\u5361", "shopTypes": "\u8d85\u5e02", "consumeTypes": null, "cookTypes": null, "orderNum": 1000, "card4no": null, "card4noAcc": null, "district2": 416, "searchScope": null, "status": 1, "address": "\u6dde\u5357\u4e5d\u6751\u65b0\u4e8c\u8def1299\u53f7", "name": "\u4f0d\u7f18\u6298\u6263 \u51c7\u5357\u5e97", "id": 156698, "pageNo": 0, "pageCount": null, "pageSize": 10, "ids": null, "endTime": null, "startTime": null}, {"cardNumFive": null, "isSupportYj": null, "cityName": null, "districtName": null, "shopinfo": {"mid": "888002154119991", "good_flag": "2", "new_flag": "2", "short_name": "\u4f0d\u7f18\u6298\u6263", "short_name_pinyin": "wuyuanzhekou", "status": null, "address": null, "name": null, "id": "37198"}, "mid": "888002154119991", "shopId": "37198", "netid": null, "province": 901, "district": 601, "zipcode": null, "telephone": "56147511", "posDate": "20101009", "destineTel": null, "togoTel": null, "trafficWay": null, "signBuilding": null, "businessArea": null, "selfRoom": null, "businessTime": null, "stall": null, "consume": null, "serviceFei": null, "favourable": null, "shopMemo": null, "appraise": null, "website": null, "memo": null, "payTypes": "\u6749\u5fb7\u5361", "shopTypes": "\u8d85\u5e02", "consumeTypes": null, "cookTypes": null, "orderNum": 1000, "card4no": null, "card4noAcc": null, "district2": 416, "searchScope": null, "status": 1, "address": "\u6dde\u826f\u8def525\u53f7", "name": "\u4f0d\u7f18\u6298\u6263 \u6dde\u826f\u5e97", "id": 156699, "pageNo": 0, "pageCount": null, "pageSize": 10, "ids": null, "endTime": null, "startTime": null}, {"cardNumFive": null, "isSupportYj": null, "cityName": null, "districtName": null, "shopinfo": {"mid": "888002154119991", "good_flag": "2", "new_flag": "2", "short_name": "\u4f0d\u7f18\u6298\u6263", "short_name_pinyin": "wuyuanzhekou", "status": null, "address": null, "name": null, "id": "37198"}, "mid": "888002154119991", "shopId": "37198", "netid": null, "province": 901, "district": 601, "zipcode": null, "telephone": "56143256", "posDate": "20101009", "destineTel": null, "togoTel": null, "trafficWay": null, "signBuilding": null, "businessArea": null, "selfRoom": null, "businessTime": null, "stall": null, "consume": null, "serviceFei": null, "favourable": null, "shopMemo": null, "appraise": null, "website": null, "memo": null, "payTypes": "\u6749\u5fb7\u5361", "shopTypes": "\u8d85\u5e02", "consumeTypes": null, "cookTypes": null, "orderNum": 1000, "card4no": null, "card4noAcc": null, "district2": 416, "searchScope": null, "status": 1, "address": "\u6dde\u5357\u8def459\u53f7", "name": "\u4f0d\u7f18\u6298\u6263 \u6dde\u5357\u4e8c\u5e97", "id": 156700, "pageNo": 0, "pageCount": null, "pageSize": 10, "ids": null, "endTime": null, "startTime": null}, {"cardNumFive": null, "isSupportYj": null, "cityName": null, "districtName": null, "shopinfo": {"mid": "888002154119991", "good_flag": "2", "new_flag": "2", "short_name": "\u4f0d\u7f18\u6298\u6263", "short_name_pinyin": "wuyuanzhekou", "status": null, "address": null, "name": null, "id": "37198"}, "mid": "888002154119991", "shopId": "37198", "netid": null, "province": 901, "district": 601, "zipcode": null, "telephone": "56671623", "posDate": "20101009", "destineTel": null, "togoTel": null, "trafficWay": null, "signBuilding": null, "businessArea": null, "selfRoom": null, "businessTime": null, "stall": null, "consume": null, "serviceFei": null, "favourable": null, "shopMemo": null, "appraise": null, "website": null, "memo": null, "payTypes": "\u6749\u5fb7\u5361", "shopTypes": "\u8d85\u5e02", "consumeTypes": null, "cookTypes": null, "orderNum": 1000, "card4no": null, "card4noAcc": null, "district2": 416, "searchScope": null, "status": 1, "address": "\u6dde\u5174\u897f\u8def47-49\u53f7", "name": "\u4f0d\u7f18\u6298\u6263 \u6dde\u5174\u5e97", "id": 156701, "pageNo": 0, "pageCount": null, "pageSize": 10, "ids": null, "endTime": null, "startTime": null}], "pageLimit": 9290, "size": 10}