{"pageCount": 1095, "count": 10942, "pageNo": 944, "subShopInfo": {"cardNumFive": "", "isSupportYj": "", "cityName": null, "districtName": null, "shopinfo": {"mid": null, "good_flag": null, "new_flag": null, "short_name": null, "short_name_pinyin": null, "status": null, "address": "", "name": "", "id": null}, "mid": null, "shopId": null, "netid": null, "province": 901, "district": null, "zipcode": null, "telephone": null, "posDate": null, "destineTel": null, "togoTel": null, "trafficWay": null, "signBuilding": null, "businessArea": null, "selfRoom": null, "businessTime": null, "stall": null, "consume": null, "serviceFei": null, "favourable": null, "shopMemo": "1", "appraise": null, "website": null, "memo": null, "payTypes": "", "shopTypes": "", "consumeTypes": null, "cookTypes": null, "orderNum": null, "card4no": null, "card4noAcc": null, "district2": null, "searchScope": null, "status": null, "address": "", "name": null, "id": null, "pageNo": 943, "pageCount": null, "pageSize": 10, "ids": null, "endTime": null, "startTime": null}, "list": [{"cardNumFive": null, "isSupportYj": null, "cityName": null, "districtName": null, "shopinfo": {"mid": "888002158122765", "good_flag": null, "new_flag": null, "short_name": "\u5c0f\u5357\u56fd", "short_name_pinyin": "xiaonanguo", "status": null, "address": null, "name": null, "id": "43617"}, "mid": "888002158122765", "shopId": "43617", "netid": null, "province": 901, "district": 601, "zipcode": null, "telephone": null, "posDate": null, "destineTel": null, "togoTel": null, "trafficWay": null, "signBuilding": null, "businessArea": null, "selfRoom": null, "businessTime": null, "stall": null, "consume": null, "serviceFei": null, "favourable": null, "shopMemo": null, "appraise": null, "website": null, "memo": null, "payTypes": "\u6749\u5fb7\u5361", "shopTypes": "\u9910\u996e", "consumeTypes": null, "cookTypes": null, "orderNum": 1000, "card4no": null, "card4noAcc": null, "district2": 418, "searchScope": null, "status": 1, "address": "\u7533\u8fea\u897f\u8def255\u5f04795\u53f7", "name": "\u5c0f\u5357\u56fd WolfgangPuck\u8fea\u58eb\u5c3c", "id": 199140, "pageNo": 0, "pageCount": null, "pageSize": 10, "ids": null, "endTime": null, "startTime": null}, {"cardNumFive": null, "isSupportYj": null, "cityName": null, "districtName": null, "shopinfo": {"mid": "888002158122766", "good_flag": null, "new_flag": null, "short_name": "\u5c0f\u5357\u56fd", "short_name_pinyin": "xiaonanguo", "status": null, "address": null, "name": null, "id": "43618"}, "mid": "888002158122766", "shopId": "43618", "netid": null, "province": 901, "district": 601, "zipcode": null, "telephone": null, "posDate": null, "destineTel": null, "togoTel": null, "trafficWay": null, "signBuilding": null, "businessArea": null, "selfRoom": null, "businessTime": null, "stall": null, "consume": null, "serviceFei": null, "favourable": null, "shopMemo": null, "appraise": null, "website": null, "memo": null, "payTypes": "\u6749\u5fb7\u5361", "shopTypes": "\u9910\u996e", "consumeTypes": null, "cookTypes": null, "orderNum": 1000, "card4no": null, "card4noAcc": null, "district2": 418, "searchScope": null, "status": 1, "address": "\u7533\u8fea\u897f\u8def255\u5f04825\u53f7", "name": "\u5c0f\u5357\u56fd The boathouse", "id": 199141, "pageNo": 0, "pageCount": null, "pageSize": 10, "ids": null, "endTime": null, "startTime": null}, {"cardNumFive": null, "isSupportYj": null, "cityName": null, "districtName": null, "shopinfo": {"mid": "888002158122767", "good_flag": null, "new_flag": null, "short_name": "\u5c0f\u5357\u56fd", "short_name_pinyin": "xiaonanguo", "status": null, "address": null, "name": null, "id": "43619"}, "mid": "888002158122767", "shopId": "43619", "netid": null, "province": 901, "district": 601, "zipcode": null, "telephone": null, "posDate": null, "destineTel": null, "togoTel": null, "trafficWay": null, "signBuilding": null, "businessArea": null, "selfRoom": null, "businessTime": null, "stall": null, "consume": null, "serviceFei": null, "favourable": null, "shopMemo": null, "appraise": null, "website": null, "memo": null, "payTypes": "\u6749\u5fb7\u5361", "shopTypes": "\u9910\u996e", "consumeTypes": null, "cookTypes": null, "orderNum": 1000, "card4no": null, "card4noAcc": null, "district2": 418, "searchScope": null, "status": 1, "address": "\u6d66\u5efa\u8def118\u53f7\u5df4\u9ece\u6625\u59295\u5c4210A\uff08\u8fd1\u5357\u6cc9\u8def\uff09", "name": "\u5c0f\u5357\u56fd \u5858\u6865\u5e97", "id": 199142, "pageNo": 0, "pageCount": null, "pageSize": 10, "ids": null, "endTime": null, "startTime": null}, {"cardNumFive": null, "isSupportYj": null, "cityName": null, "districtName": null, "shopinfo": {"mid": "888002158122768", "good_flag": null, "new_flag": null, "short_name": "\u5c0f\u5357\u56fd", "short_name_pinyin": "xiaonanguo", "status": null, "address": null, "name": null, "id": "43620"}, "mid": "888002158122768", "shopId": "43620", "netid": null, "province": 901, "district": 601, "zipcode": null, "telephone": null, "posDate": null, "destineTel": null, "togoTel": null, "trafficWay": null, "signBuilding": null, "businessArea": null, "selfRoom": null, "businessTime": null, "stall": null, "consume": null, "serviceFei": null, "favourable": null, "shopMemo": null, "appraise": null, "website": null, "memo": null, "payTypes": "\u6749\u5fb7\u5361", "shopTypes": "\u9910\u996e", "consumeTypes": null, "cookTypes": null, "orderNum": 1000, "card4no": null, "card4noAcc": null, "district2": 408, "searchScope": null, "status": 1, "address": "\u56db\u5ddd\u5317\u8def1350\u53f7\u7b2c\u4e09\u5c42304\u5355\u5143", "name": "\u5c0f\u5357\u56fd \u5229\u901a\u5e97", "id": 199143, "pageNo": 0, "pageCount": null, "pageSize": 10, "ids": null, "endTime": null, "startTime": null}, {"cardNumFive": null, "isSupportYj": null, "cityName": null, "districtName": null, "shopinfo": {"mid": "888002158122769", "good_flag": null, "new_flag": null, "short_name": "\u5c0f\u5357\u56fd", "short_name_pinyin": "xiaonanguo", "status": null, "address": null, "name": null, "id": "43621"}, "mid": "888002158122769", "shopId": "43621", "netid": null, "province": 901, "district": 601, "zipcode": null, "telephone": null, "posDate": null, "destineTel": null, "togoTel": null, "trafficWay": null, "signBuilding": null, "businessArea": null, "selfRoom": null, "businessTime": null, "stall": null, "consume": null, "serviceFei": null, "favourable": null, "shopMemo": null, "appraise": null, "website": null, "memo": null, "payTypes": "\u6749\u5fb7\u5361", "shopTypes": "\u9910\u996e", "consumeTypes": null, "cookTypes": null, "orderNum": 1000, "card4no": null, "card4noAcc": null, "district2": 418, "searchScope": null, "status": 1, "address": "\u6f4d\u574a\u897f\u8def1\u5f0418\u53f7\u4e16\u8302\u6ee8\u6c5f\u5185", "name": "\u5c0f\u5357\u56fd \u4e16\u8d38\u5e97", "id": 199144, "pageNo": 0, "pageCount": null, "pageSize": 10, "ids": null, "endTime": null, "startTime": null}, {"cardNumFive": null, "isSupportYj": null, "cityName": null, "districtName": null, "shopinfo": {"mid": "888002158122770", "good_flag": null, "new_flag": null, "short_name": "\u5c0f\u5357\u56fd", "short_name_pinyin": "xiaonanguo", "status": null, "address": null, "name": null, "id": "43622"}, "mid": "888002158122770", "shopId": "43622", "netid": null, "province": 901, "district": 601, "zipcode": null, "telephone": null, "posDate": null, "destineTel": null, "togoTel": null, "trafficWay": null, "signBuilding": null, "businessArea": null, "selfRoom": null, "businessTime": null, "stall": null, "consume": null, "serviceFei": null, "favourable": null, "shopMemo": null, "appraise": null, "website": null, "memo": null, "payTypes": "\u6749\u5fb7\u5361", "shopTypes": "\u9910\u996e", "consumeTypes": null, "cookTypes": null, "orderNum": 1000, "card4no": null, "card4noAcc": null, "district2": 404, "searchScope": null, "status": 1, "address": "\u6885\u56ed\u8def228\u53f7\u4f01\u4e1a\u5e7f\u573a2\u697c", "name": "\u5c0f\u5357\u56fd \u4e0d\u591c\u57ce\u5e97", "id": 199145, "pageNo": 0, "pageCount": null, "pageSize": 10, "ids": null, "endTime": null, "startTime": null}, {"cardNumFive": null, "isSupportYj": null, "cityName": null, "districtName": null, "shopinfo": {"mid": "888002158122771", "good_flag": null, "new_flag": null, "short_name": "\u5c0f\u5357\u56fd", "short_name_pinyin": "xiaonanguo", "status": null, "address": null, "name": null, "id": "43623"}, "mid": "888002158122771", "shopId": "43623", "netid": null, "province": 901, "district": 601, "zipcode": null, "telephone": null, "posDate": null, "destineTel": null, "togoTel": null, "trafficWay": null, "signBuilding": null, "businessArea": null, "selfRoom": null, "businessTime": null, "stall": null, "consume": null, "serviceFei": null, "favourable": null, "shopMemo": null, "appraise": null, "website": null, "memo": null, "payTypes": "\u6749\u5fb7\u5361", "shopTypes": "\u9910\u996e", "consumeTypes": null, "cookTypes": null, "orderNum": 1000, "card4no": null, "card4noAcc": null, "district2": 403, "searchScope": null, "status": 1, "address": "\u8087\u5609\u6d5c\u8def789\u53f7\u5747\u7476\u56fd\u9645\u5e7f\u573a5\u697c", "name": "\u5c0f\u5357\u56fd \u5747\u7476\u5e97", "id": 199146, "pageNo": 0, "pageCount": null, "pageSize": 10, "ids": null, "endTime": null, "startTime": null}, {"cardNumFive": null, "isSupportYj": null, "cityName": null, "districtName": null, "shopinfo": {"mid": "888002158122772", "good_flag": null, "new_flag": null, "short_name": "\u5c0f\u5357\u56fd", "short_name_pinyin": "xiaonanguo", "status": null, "address": null, "name": null, "id": "43624"}, "mid": "888002158122772", "shopId": "43624", "netid": null, "province": 901, "district": 601, "zipcode": null, "telephone": null, "posDate": null, "destineTel": null, "togoTel": null, "trafficWay": null, "signBuilding": null, "businessArea": null, "selfRoom": null, "businessTime": null, "stall": null, "consume": null, "serviceFei": null, "favourable": null, "shopMemo": null, "appraise": null, "website": null, "memo": null, "payTypes": "\u6749\u5fb7\u5361", "shopTypes": "\u9910\u996e", "consumeTypes": null, "cookTypes": null, "orderNum": 1000, "card4no": null, "card4noAcc": null, "district2": 401, "searchScope": null, "status": 1, "address": "\u5916\u9a6c\u8def579\u53f72\u53f7\u697c4\u697c", "name": "\u5c0f\u5357\u56fd \u7801\u5934\u5e97", "id": 199147, "pageNo": 0, "pageCount": null, "pageSize": 10, "ids": null, "endTime": null, "startTime": null}, {"cardNumFive": null, "isSupportYj": null, "cityName": null, "districtName": null, "shopinfo": {"mid": "888002158122773", "good_flag": null, "new_flag": null, "short_name": "\u5c0f\u5357\u56fd", "short_name_pinyin": "xiaonanguo", "status": null, "address": null, "name": null, "id": "43625"}, "mid": "888002158122773", "shopId": "43625", "netid": null, "province": 901, "district": 601, "zipcode": null, "telephone": null, "posDate": null, "destineTel": null, "togoTel": null, "trafficWay": null, "signBuilding": null, "businessArea": null, "selfRoom": null, "businessTime": null, "stall": null, "consume": null, "serviceFei": null, "favourable": null, "shopMemo": null, "appraise": null, "website": null, "memo": null, "payTypes": "\u6749\u5fb7\u5361", "shopTypes": "\u9910\u996e", "consumeTypes": null, "cookTypes": null, "orderNum": 1000, "card4no": null, "card4noAcc": null, "district2": 403, "searchScope": null, "status": 1, "address": "\u8679\u6865\u8def1\u53f7\u6e2f\u6c47\u5e7f\u573a6\u697c", "name": "\u5c0f\u5357\u56fd \u6e2f\u6c47\u5e97", "id": 199148, "pageNo": 0, "pageCount": null, "pageSize": 10, "ids": null, "endTime": null, "startTime": null}, {"cardNumFive": null, "isSupportYj": null, "cityName": null, "districtName": null, "shopinfo": {"mid": "888002158122774", "good_flag": null, "new_flag": null, "short_name": "\u5c0f\u5357\u56fd", "short_name_pinyin": "xiaonanguo", "status": null, "address": null, "name": null, "id": "43626"}, "mid": "888002158122774", "shopId": "43626", "netid": null, "province": 901, "district": 601, "zipcode": null, "telephone": null, "posDate": null, "destineTel": null, "togoTel": null, "trafficWay": null, "signBuilding": null, "businessArea": null, "selfRoom": null, "businessTime": null, "stall": null, "consume": null, "serviceFei": null, "favourable": null, "shopMemo": null, "appraise": null, "website": null, "memo": null, "payTypes": "\u6749\u5fb7\u5361", "shopTypes": "\u9910\u996e", "consumeTypes": null, "cookTypes": null, "orderNum": 1000, "card4no": null, "card4noAcc": null, "district2": 404, "searchScope": null, "status": 1, "address": "\u5357\u4eac\u897f\u8def699\u53f7\u4e1c\u65b9\u6709\u7ebf\u5927\u53a62-5\u697c\uff08\u8fd1\u5434\u6c5f\u8def31\u53f7\uff09", "name": "\u5c0f\u5357\u56fd \u4f17\u946b\u5e97", "id": 199149, "pageNo": 0, "pageCount": null, "pageSize": 10, "ids": null, "endTime": null, "startTime": null}], "pageLimit": 9430, "size": 10}