{"pageCount": 1095, "count": 10942, "pageNo": 949, "subShopInfo": {"cardNumFive": "", "isSupportYj": "", "cityName": null, "districtName": null, "shopinfo": {"mid": null, "good_flag": null, "new_flag": null, "short_name": null, "short_name_pinyin": null, "status": null, "address": "", "name": "", "id": null}, "mid": null, "shopId": null, "netid": null, "province": 901, "district": null, "zipcode": null, "telephone": null, "posDate": null, "destineTel": null, "togoTel": null, "trafficWay": null, "signBuilding": null, "businessArea": null, "selfRoom": null, "businessTime": null, "stall": null, "consume": null, "serviceFei": null, "favourable": null, "shopMemo": "1", "appraise": null, "website": null, "memo": null, "payTypes": "", "shopTypes": "", "consumeTypes": null, "cookTypes": null, "orderNum": null, "card4no": null, "card4noAcc": null, "district2": null, "searchScope": null, "status": null, "address": "", "name": null, "id": null, "pageNo": 948, "pageCount": null, "pageSize": 10, "ids": null, "endTime": null, "startTime": null}, "list": [{"cardNumFive": null, "isSupportYj": null, "cityName": null, "districtName": null, "shopinfo": {"mid": "888002156610032", "good_flag": null, "new_flag": "2", "short_name": "\u978b\u67dc", "short_name_pinyin": "xiegui", "status": null, "address": null, "name": null, "id": "40720"}, "mid": "888002156610032", "shopId": "40720", "netid": null, "province": 901, "district": 601, "zipcode": null, "telephone": null, "posDate": "67765126", "destineTel": null, "togoTel": null, "trafficWay": null, "signBuilding": null, "businessArea": null, "selfRoom": null, "businessTime": null, "stall": null, "consume": null, "serviceFei": null, "favourable": null, "shopMemo": null, "appraise": null, "website": null, "memo": null, "payTypes": "\u6749\u5fb7\u5361", "shopTypes": "\u4e13\u5356", "consumeTypes": null, "cookTypes": null, "orderNum": 1000, "card4no": null, "card4noAcc": null, "district2": 412, "searchScope": null, "status": 1, "address": "\u4e5d\u4ead\u5927\u8857577\u53f7", "name": "\u978b\u67dc \u4e5d\u4ead\u5927\u8857\u5e97", "id": 177028, "pageNo": 0, "pageCount": null, "pageSize": 10, "ids": null, "endTime": null, "startTime": null}, {"cardNumFive": null, "isSupportYj": null, "cityName": null, "districtName": null, "shopinfo": {"mid": "888002156610032", "good_flag": null, "new_flag": "2", "short_name": "\u978b\u67dc", "short_name_pinyin": "xiegui", "status": null, "address": null, "name": null, "id": "40720"}, "mid": "888002156610032", "shopId": "40720", "netid": null, "province": 901, "district": 601, "zipcode": null, "telephone": null, "posDate": "59766455", "destineTel": null, "togoTel": null, "trafficWay": null, "signBuilding": null, "businessArea": null, "selfRoom": null, "businessTime": null, "stall": null, "consume": null, "serviceFei": null, "favourable": null, "shopMemo": null, "appraise": null, "website": null, "memo": null, "payTypes": "\u6749\u5fb7\u5361", "shopTypes": "\u4e13\u5356", "consumeTypes": null, "cookTypes": null, "orderNum": 1000, "card4no": null, "card4noAcc": null, "district2": 417, "searchScope": null, "status": 1, "address": "\u6caa\u9752\u5e73\u516c\u8def1829\u53f7", "name": "\u978b\u67dc \u5f90\u6cfe\u5e97", "id": 177029, "pageNo": 0, "pageCount": null, "pageSize": 10, "ids": null, "endTime": null, "startTime": null}, {"cardNumFive": null, "isSupportYj": null, "cityName": null, "districtName": null, "shopinfo": {"mid": "888002156610032", "good_flag": null, "new_flag": "2", "short_name": "\u978b\u67dc", "short_name_pinyin": "xiegui", "status": null, "address": null, "name": null, "id": "40720"}, "mid": "888002156610032", "shopId": "40720", "netid": null, "province": 901, "district": 601, "zipcode": null, "telephone": null, "posDate": "56423637", "destineTel": null, "togoTel": null, "trafficWay": null, "signBuilding": null, "businessArea": null, "selfRoom": null, "businessTime": null, "stall": null, "consume": null, "serviceFei": null, "favourable": null, "shopMemo": null, "appraise": null, "website": null, "memo": null, "payTypes": "\u6749\u5fb7\u5361", "shopTypes": "\u4e13\u5356", "consumeTypes": null, "cookTypes": null, "orderNum": 1000, "card4no": null, "card4noAcc": null, "district2": 410, "searchScope": null, "status": 1, "address": "\u5ef6\u957f\u8def130\u53f7", "name": "\u978b\u67dc \u5ef6\u957f\u4e8c\u5e97", "id": 177032, "pageNo": 0, "pageCount": null, "pageSize": 10, "ids": null, "endTime": null, "startTime": null}, {"cardNumFive": null, "isSupportYj": null, "cityName": null, "districtName": null, "shopinfo": {"mid": "888002156610032", "good_flag": null, "new_flag": "2", "short_name": "\u978b\u67dc", "short_name_pinyin": "xiegui", "status": null, "address": null, "name": null, "id": "40720"}, "mid": "888002156610032", "shopId": "40720", "netid": null, "province": 901, "district": 601, "zipcode": null, "telephone": null, "posDate": "56478390", "destineTel": null, "togoTel": null, "trafficWay": null, "signBuilding": null, "businessArea": null, "selfRoom": null, "businessTime": null, "stall": null, "consume": null, "serviceFei": null, "favourable": null, "shopMemo": null, "appraise": null, "website": null, "memo": null, "payTypes": "\u6749\u5fb7\u5361", "shopTypes": "\u4e13\u5356", "consumeTypes": null, "cookTypes": null, "orderNum": 1000, "card4no": null, "card4noAcc": null, "district2": 410, "searchScope": null, "status": 1, "address": "\u82b7\u6c5f\u897f\u8def488\u53f7\u5730\u4e0b1\u697c", "name": "\u978b\u67dc \u4e94\u6708\u82b1\u5e97", "id": 177033, "pageNo": 0, "pageCount": null, "pageSize": 10, "ids": null, "endTime": null, "startTime": null}, {"cardNumFive": null, "isSupportYj": null, "cityName": null, "districtName": null, "shopinfo": {"mid": "888002156610032", "good_flag": null, "new_flag": "2", "short_name": "\u978b\u67dc", "short_name_pinyin": "xiegui", "status": null, "address": null, "name": null, "id": "40720"}, "mid": "888002156610032", "shopId": "40720", "netid": null, "province": 901, "district": 601, "zipcode": null, "telephone": null, "posDate": "55137620", "destineTel": null, "togoTel": null, "trafficWay": null, "signBuilding": null, "businessArea": null, "selfRoom": null, "businessTime": null, "stall": null, "consume": null, "serviceFei": null, "favourable": null, "shopMemo": null, "appraise": null, "website": null, "memo": null, "payTypes": "\u6749\u5fb7\u5361", "shopTypes": "\u4e13\u5356", "consumeTypes": null, "cookTypes": null, "orderNum": 1000, "card4no": null, "card4noAcc": null, "district2": 407, "searchScope": null, "status": 1, "address": "\u9756\u5b87\u4e1c\u8def270\u53f7102", "name": "\u978b\u67dc \u5c0f\u4e16\u754c\u5e97", "id": 177036, "pageNo": 0, "pageCount": null, "pageSize": 10, "ids": null, "endTime": null, "startTime": null}, {"cardNumFive": null, "isSupportYj": null, "cityName": null, "districtName": null, "shopinfo": {"mid": "888002156610032", "good_flag": null, "new_flag": "2", "short_name": "\u978b\u67dc", "short_name_pinyin": "xiegui", "status": null, "address": null, "name": null, "id": "40720"}, "mid": "888002156610032", "shopId": "40720", "netid": null, "province": 901, "district": 601, "zipcode": null, "telephone": null, "posDate": "36362819", "destineTel": null, "togoTel": null, "trafficWay": null, "signBuilding": null, "businessArea": null, "selfRoom": null, "businessTime": null, "stall": null, "consume": null, "serviceFei": null, "favourable": null, "shopMemo": null, "appraise": null, "website": null, "memo": null, "payTypes": "\u6749\u5fb7\u5361", "shopTypes": "\u4e13\u5356", "consumeTypes": null, "cookTypes": null, "orderNum": 1000, "card4no": null, "card4noAcc": null, "district2": 403, "searchScope": null, "status": 1, "address": "\u659c\u571f\u8def1393\u53f7", "name": "\u978b\u67dc \u5927\u6728\u6865\u8def\u5e97", "id": 177037, "pageNo": 0, "pageCount": null, "pageSize": 10, "ids": null, "endTime": null, "startTime": null}, {"cardNumFive": null, "isSupportYj": null, "cityName": null, "districtName": null, "shopinfo": {"mid": "888002156610032", "good_flag": null, "new_flag": "2", "short_name": "\u978b\u67dc", "short_name_pinyin": "xiegui", "status": null, "address": null, "name": null, "id": "40720"}, "mid": "888002156610032", "shopId": "40720", "netid": null, "province": 901, "district": 601, "zipcode": null, "telephone": null, "posDate": "55511637", "destineTel": null, "togoTel": null, "trafficWay": null, "signBuilding": null, "businessArea": null, "selfRoom": null, "businessTime": null, "stall": null, "consume": null, "serviceFei": null, "favourable": null, "shopMemo": null, "appraise": null, "website": null, "memo": null, "payTypes": "\u6749\u5fb7\u5361", "shopTypes": "\u4e13\u5356", "consumeTypes": null, "cookTypes": null, "orderNum": 1000, "card4no": null, "card4noAcc": null, "district2": 408, "searchScope": null, "status": 1, "address": "\u5510\u5c71\u8def1018\u53f7", "name": "\u978b\u67dc \u5927\u8fde\u8def\u4e50\u8d2d\u5e97", "id": 177039, "pageNo": 0, "pageCount": null, "pageSize": 10, "ids": null, "endTime": null, "startTime": null}, {"cardNumFive": null, "isSupportYj": null, "cityName": null, "districtName": null, "shopinfo": {"mid": "888002156610032", "good_flag": null, "new_flag": "2", "short_name": "\u978b\u67dc", "short_name_pinyin": "xiegui", "status": null, "address": null, "name": null, "id": "40720"}, "mid": "888002156610032", "shopId": "40720", "netid": null, "province": 901, "district": 601, "zipcode": null, "telephone": null, "posDate": "54851386", "destineTel": null, "togoTel": null, "trafficWay": null, "signBuilding": null, "businessArea": null, "selfRoom": null, "businessTime": null, "stall": null, "consume": null, "serviceFei": null, "favourable": null, "shopMemo": null, "appraise": null, "website": null, "memo": null, "payTypes": "\u6749\u5fb7\u5361", "shopTypes": "\u4e13\u5356", "consumeTypes": null, "cookTypes": null, "orderNum": 1000, "card4no": null, "card4noAcc": null, "district2": 409, "searchScope": null, "status": 1, "address": "\u4e1c\u5ddd\u8def2092\u53f71\u697c", "name": "\u978b\u67dc \u4e1c\u5ddd\u6b27\u5c1a\u5e97", "id": 177040, "pageNo": 0, "pageCount": null, "pageSize": 10, "ids": null, "endTime": null, "startTime": null}, {"cardNumFive": null, "isSupportYj": null, "cityName": null, "districtName": null, "shopinfo": {"mid": "888002156610032", "good_flag": null, "new_flag": "2", "short_name": "\u978b\u67dc", "short_name_pinyin": "xiegui", "status": null, "address": null, "name": null, "id": "40720"}, "mid": "888002156610032", "shopId": "40720", "netid": null, "province": 901, "district": 601, "zipcode": null, "telephone": null, "posDate": "37701525", "destineTel": null, "togoTel": null, "trafficWay": null, "signBuilding": null, "businessArea": null, "selfRoom": null, "businessTime": null, "stall": null, "consume": null, "serviceFei": null, "favourable": null, "shopMemo": null, "appraise": null, "website": null, "memo": null, "payTypes": "\u6749\u5fb7\u5361", "shopTypes": "\u4e13\u5356", "consumeTypes": null, "cookTypes": null, "orderNum": 1000, "card4no": null, "card4noAcc": null, "district2": 412, "searchScope": null, "status": 1, "address": "\u65b0\u5357\u8857405\u53f7", "name": "\u978b\u67dc \u65b0\u5357\u5e97", "id": 177041, "pageNo": 0, "pageCount": null, "pageSize": 10, "ids": null, "endTime": null, "startTime": null}, {"cardNumFive": null, "isSupportYj": null, "cityName": null, "districtName": null, "shopinfo": {"mid": "888002156610032", "good_flag": null, "new_flag": "2", "short_name": "\u978b\u67dc", "short_name_pinyin": "xiegui", "status": null, "address": null, "name": null, "id": "40720"}, "mid": "888002156610032", "shopId": "40720", "netid": null, "province": 901, "district": 601, "zipcode": null, "telephone": null, "posDate": "28971069", "destineTel": null, "togoTel": null, "trafficWay": null, "signBuilding": null, "businessArea": null, "selfRoom": null, "businessTime": null, "stall": null, "consume": null, "serviceFei": null, "favourable": null, "shopMemo": null, "appraise": null, "website": null, "memo": null, "payTypes": "\u6749\u5fb7\u5361", "shopTypes": "\u4e13\u5356", "consumeTypes": null, "cookTypes": null, "orderNum": 1000, "card4no": null, "card4noAcc": null, "district2": 418, "searchScope": null, "status": 1, "address": "\u660c\u91cc\u8def143\u53f7", "name": "\u978b\u67dc \u660c\u91cc\u5e97", "id": 177042, "pageNo": 0, "pageCount": null, "pageSize": 10, "ids": null, "endTime": null, "startTime": null}], "pageLimit": 9480, "size": 10}