{"pageCount": 1095, "count": 10942, "pageNo": 947, "subShopInfo": {"cardNumFive": "", "isSupportYj": "", "cityName": null, "districtName": null, "shopinfo": {"mid": null, "good_flag": null, "new_flag": null, "short_name": null, "short_name_pinyin": null, "status": null, "address": "", "name": "", "id": null}, "mid": null, "shopId": null, "netid": null, "province": 901, "district": null, "zipcode": null, "telephone": null, "posDate": null, "destineTel": null, "togoTel": null, "trafficWay": null, "signBuilding": null, "businessArea": null, "selfRoom": null, "businessTime": null, "stall": null, "consume": null, "serviceFei": null, "favourable": null, "shopMemo": "1", "appraise": null, "website": null, "memo": null, "payTypes": "", "shopTypes": "", "consumeTypes": null, "cookTypes": null, "orderNum": null, "card4no": null, "card4noAcc": null, "district2": null, "searchScope": null, "status": null, "address": "", "name": null, "id": null, "pageNo": 946, "pageCount": null, "pageSize": 10, "ids": null, "endTime": null, "startTime": null}, "list": [{"cardNumFive": null, "isSupportYj": null, "cityName": null, "districtName": null, "shopinfo": {"mid": "888002156610032", "good_flag": null, "new_flag": "2", "short_name": "\u978b\u67dc", "short_name_pinyin": "xiegui", "status": null, "address": null, "name": null, "id": "40720"}, "mid": "888002156610032", "shopId": "40720", "netid": null, "province": 901, "district": 601, "zipcode": null, "telephone": null, "posDate": "56039062", "destineTel": null, "togoTel": null, "trafficWay": null, "signBuilding": null, "businessArea": null, "selfRoom": null, "businessTime": null, "stall": null, "consume": null, "serviceFei": null, "favourable": null, "shopMemo": null, "appraise": null, "website": null, "memo": null, "payTypes": "\u6749\u5fb7\u5361", "shopTypes": "\u4e13\u5356", "consumeTypes": null, "cookTypes": null, "orderNum": 1000, "card4no": null, "card4noAcc": null, "district2": 416, "searchScope": null, "status": 1, "address": "\u65b0\u6751\u8def1500\u53f71\u697c", "name": "\u978b\u67dc \u4e07\u91cc\u5bb6\u4e50\u798f\u5e97", "id": 176998, "pageNo": 0, "pageCount": null, "pageSize": 10, "ids": null, "endTime": null, "startTime": null}, {"cardNumFive": null, "isSupportYj": null, "cityName": null, "districtName": null, "shopinfo": {"mid": "888002156610032", "good_flag": null, "new_flag": "2", "short_name": "\u978b\u67dc", "short_name_pinyin": "xiegui", "status": null, "address": null, "name": null, "id": "40720"}, "mid": "888002156610032", "shopId": "40720", "netid": null, "province": 901, "district": 601, "zipcode": null, "telephone": null, "posDate": "56387972", "destineTel": null, "togoTel": null, "trafficWay": null, "signBuilding": null, "businessArea": null, "selfRoom": null, "businessTime": null, "stall": null, "consume": null, "serviceFei": null, "favourable": null, "shopMemo": null, "appraise": null, "website": null, "memo": null, "payTypes": "\u6749\u5fb7\u5361", "shopTypes": "\u4e13\u5356", "consumeTypes": null, "cookTypes": null, "orderNum": 1000, "card4no": null, "card4noAcc": null, "district2": 416, "searchScope": null, "status": 1, "address": "\u957f\u6c5f\u897f\u8def2211\u53f7", "name": "\u978b\u67dc \u957f\u6c5f\u6613\u4e70\u5f97\u5e97", "id": 176999, "pageNo": 0, "pageCount": null, "pageSize": 10, "ids": null, "endTime": null, "startTime": null}, {"cardNumFive": null, "isSupportYj": null, "cityName": null, "districtName": null, "shopinfo": {"mid": "888002156610032", "good_flag": null, "new_flag": "2", "short_name": "\u978b\u67dc", "short_name_pinyin": "xiegui", "status": null, "address": null, "name": null, "id": "40720"}, "mid": "888002156610032", "shopId": "40720", "netid": null, "province": 901, "district": 601, "zipcode": null, "telephone": null, "posDate": "69608004", "destineTel": null, "togoTel": null, "trafficWay": null, "signBuilding": null, "businessArea": null, "selfRoom": null, "businessTime": null, "stall": null, "consume": null, "serviceFei": null, "favourable": null, "shopMemo": null, "appraise": null, "website": null, "memo": null, "payTypes": "\u6749\u5fb7\u5361", "shopTypes": "\u4e13\u5356", "consumeTypes": null, "cookTypes": null, "orderNum": 1000, "card4no": null, "card4noAcc": null, "district2": 415, "searchScope": null, "status": 1, "address": "\u516b\u4e00\u8def183\u53f71\u697c", "name": "\u978b\u67dc \u5d07\u660e\u516b\u4e00\u4e09\u5e97", "id": 177001, "pageNo": 0, "pageCount": null, "pageSize": 10, "ids": null, "endTime": null, "startTime": null}, {"cardNumFive": null, "isSupportYj": null, "cityName": null, "districtName": null, "shopinfo": {"mid": "888002156610032", "good_flag": null, "new_flag": "2", "short_name": "\u978b\u67dc", "short_name_pinyin": "xiegui", "status": null, "address": null, "name": null, "id": "40720"}, "mid": "888002156610032", "shopId": "40720", "netid": null, "province": 901, "district": 601, "zipcode": null, "telephone": null, "posDate": "52845018", "destineTel": null, "togoTel": null, "trafficWay": null, "signBuilding": null, "businessArea": null, "selfRoom": null, "businessTime": null, "stall": null, "consume": null, "serviceFei": null, "favourable": null, "shopMemo": null, "appraise": null, "website": null, "memo": null, "payTypes": "\u6749\u5fb7\u5361", "shopTypes": "\u4e13\u5356", "consumeTypes": null, "cookTypes": null, "orderNum": 1000, "card4no": null, "card4noAcc": null, "district2": 408, "searchScope": null, "status": 1, "address": "\u56db\u5ddd\u5317\u8def1882-1884\u53f7", "name": "\u978b\u67dc \u56db\u4e94\u5e97", "id": 177004, "pageNo": 0, "pageCount": null, "pageSize": 10, "ids": null, "endTime": null, "startTime": null}, {"cardNumFive": null, "isSupportYj": null, "cityName": null, "districtName": null, "shopinfo": {"mid": "888002156610032", "good_flag": null, "new_flag": "2", "short_name": "\u978b\u67dc", "short_name_pinyin": "xiegui", "status": null, "address": null, "name": null, "id": "40720"}, "mid": "888002156610032", "shopId": "40720", "netid": null, "province": 901, "district": 601, "zipcode": null, "telephone": null, "posDate": "52847387", "destineTel": null, "togoTel": null, "trafficWay": null, "signBuilding": null, "businessArea": null, "selfRoom": null, "businessTime": null, "stall": null, "consume": null, "serviceFei": null, "favourable": null, "shopMemo": null, "appraise": null, "website": null, "memo": null, "payTypes": "\u6749\u5fb7\u5361", "shopTypes": "\u4e13\u5356", "consumeTypes": null, "cookTypes": null, "orderNum": 1000, "card4no": null, "card4noAcc": null, "district2": 416, "searchScope": null, "status": 1, "address": "\u573a\u4e2d\u8def4048\u53f7", "name": "\u978b\u67dc \u5927\u573a\u5bb6\u4e50\u798f", "id": 177005, "pageNo": 0, "pageCount": null, "pageSize": 10, "ids": null, "endTime": null, "startTime": null}, {"cardNumFive": null, "isSupportYj": null, "cityName": null, "districtName": null, "shopinfo": {"mid": "888002156610032", "good_flag": null, "new_flag": "2", "short_name": "\u978b\u67dc", "short_name_pinyin": "xiegui", "status": null, "address": null, "name": null, "id": "40720"}, "mid": "888002156610032", "shopId": "40720", "netid": null, "province": 901, "district": 601, "zipcode": null, "telephone": null, "posDate": "59980275", "destineTel": null, "togoTel": null, "trafficWay": null, "signBuilding": null, "businessArea": null, "selfRoom": null, "businessTime": null, "stall": null, "consume": null, "serviceFei": null, "favourable": null, "shopMemo": null, "appraise": null, "website": null, "memo": null, "payTypes": "\u6749\u5fb7\u5361", "shopTypes": "\u4e13\u5356", "consumeTypes": null, "cookTypes": null, "orderNum": 1000, "card4no": null, "card4noAcc": null, "district2": 411, "searchScope": null, "status": 1, "address": "\u4ed3\u573a\u8def365\u53f7", "name": "\u978b\u67dc \u5b9a\u4e50\u5929\u9a6c\u7279\u5e97", "id": 177006, "pageNo": 0, "pageCount": null, "pageSize": 10, "ids": null, "endTime": null, "startTime": null}, {"cardNumFive": null, "isSupportYj": null, "cityName": null, "districtName": null, "shopinfo": {"mid": "888002156610032", "good_flag": null, "new_flag": "2", "short_name": "\u978b\u67dc", "short_name_pinyin": "xiegui", "status": null, "address": null, "name": null, "id": "40720"}, "mid": "888002156610032", "shopId": "40720", "netid": null, "province": 901, "district": 601, "zipcode": null, "telephone": null, "posDate": "39553760", "destineTel": null, "togoTel": null, "trafficWay": null, "signBuilding": null, "businessArea": null, "selfRoom": null, "businessTime": null, "stall": null, "consume": null, "serviceFei": null, "favourable": null, "shopMemo": null, "appraise": null, "website": null, "memo": null, "payTypes": "\u6749\u5fb7\u5361", "shopTypes": "\u4e13\u5356", "consumeTypes": null, "cookTypes": null, "orderNum": 1000, "card4no": null, "card4noAcc": null, "district2": 411, "searchScope": null, "status": 1, "address": "\u4e30\u5e84\u8def412\u53f7", "name": "\u978b\u67dc \u4e30\u5e84\u5e97", "id": 177007, "pageNo": 0, "pageCount": null, "pageSize": 10, "ids": null, "endTime": null, "startTime": null}, {"cardNumFive": null, "isSupportYj": null, "cityName": null, "districtName": null, "shopinfo": {"mid": "888002156610032", "good_flag": null, "new_flag": "2", "short_name": "\u978b\u67dc", "short_name_pinyin": "xiegui", "status": null, "address": null, "name": null, "id": "40720"}, "mid": "888002156610032", "shopId": "40720", "netid": null, "province": 901, "district": 601, "zipcode": null, "telephone": null, "posDate": "39586311", "destineTel": null, "togoTel": null, "trafficWay": null, "signBuilding": null, "businessArea": null, "selfRoom": null, "businessTime": null, "stall": null, "consume": null, "serviceFei": null, "favourable": null, "shopMemo": null, "appraise": null, "website": null, "memo": null, "payTypes": "\u6749\u5fb7\u5361", "shopTypes": "\u4e13\u5356", "consumeTypes": null, "cookTypes": null, "orderNum": 1000, "card4no": null, "card4noAcc": null, "district2": 411, "searchScope": null, "status": 1, "address": "\u6c11\u4e30\u8def568\u53f7", "name": "\u978b\u67dc \u5b89\u4ead\u4e16\u7eaa\u8054\u534e\u5e97", "id": 177008, "pageNo": 0, "pageCount": null, "pageSize": 10, "ids": null, "endTime": null, "startTime": null}, {"cardNumFive": null, "isSupportYj": null, "cityName": null, "districtName": null, "shopinfo": {"mid": "888002156610032", "good_flag": null, "new_flag": "2", "short_name": "\u978b\u67dc", "short_name_pinyin": "xiegui", "status": null, "address": null, "name": null, "id": "40720"}, "mid": "888002156610032", "shopId": "40720", "netid": null, "province": 901, "district": 601, "zipcode": null, "telephone": null, "posDate": "69895601", "destineTel": null, "togoTel": null, "trafficWay": null, "signBuilding": null, "businessArea": null, "selfRoom": null, "businessTime": null, "stall": null, "consume": null, "serviceFei": null, "favourable": null, "shopMemo": null, "appraise": null, "website": null, "memo": null, "payTypes": "\u6749\u5fb7\u5361", "shopTypes": "\u4e13\u5356", "consumeTypes": null, "cookTypes": null, "orderNum": 1000, "card4no": null, "card4noAcc": null, "district2": 411, "searchScope": null, "status": 1, "address": "\u5357\u7fd4\u9547\u6c11\u4e3b\u8857279\u53f7", "name": "\u978b\u67dc \u5357\u7fd4\u6c11\u4e3b\u5e97\u4e8c\u5e97", "id": 177009, "pageNo": 0, "pageCount": null, "pageSize": 10, "ids": null, "endTime": null, "startTime": null}, {"cardNumFive": null, "isSupportYj": null, "cityName": null, "districtName": null, "shopinfo": {"mid": "888002156610032", "good_flag": null, "new_flag": "2", "short_name": "\u978b\u67dc", "short_name_pinyin": "xiegui", "status": null, "address": null, "name": null, "id": "40720"}, "mid": "888002156610032", "shopId": "40720", "netid": null, "province": 901, "district": 601, "zipcode": null, "telephone": null, "posDate": "37906037", "destineTel": null, "togoTel": null, "trafficWay": null, "signBuilding": null, "businessArea": null, "selfRoom": null, "businessTime": null, "stall": null, "consume": null, "serviceFei": null, "favourable": null, "shopMemo": null, "appraise": null, "website": null, "memo": null, "payTypes": "\u6749\u5fb7\u5361", "shopTypes": "\u4e13\u5356", "consumeTypes": null, "cookTypes": null, "orderNum": 1000, "card4no": null, "card4noAcc": null, "district2": 414, "searchScope": null, "status": 1, "address": "\u536b\u96f6\u8def129\u53f7", "name": "\u978b\u67dc \u91d1\u5c71\u536b\u96f6\u5e97", "id": 177011, "pageNo": 0, "pageCount": null, "pageSize": 10, "ids": null, "endTime": null, "startTime": null}], "pageLimit": 9460, "size": 10}