{"pageCount": 1095, "count": 10942, "pageNo": 948, "subShopInfo": {"cardNumFive": "", "isSupportYj": "", "cityName": null, "districtName": null, "shopinfo": {"mid": null, "good_flag": null, "new_flag": null, "short_name": null, "short_name_pinyin": null, "status": null, "address": "", "name": "", "id": null}, "mid": null, "shopId": null, "netid": null, "province": 901, "district": null, "zipcode": null, "telephone": null, "posDate": null, "destineTel": null, "togoTel": null, "trafficWay": null, "signBuilding": null, "businessArea": null, "selfRoom": null, "businessTime": null, "stall": null, "consume": null, "serviceFei": null, "favourable": null, "shopMemo": "1", "appraise": null, "website": null, "memo": null, "payTypes": "", "shopTypes": "", "consumeTypes": null, "cookTypes": null, "orderNum": null, "card4no": null, "card4noAcc": null, "district2": null, "searchScope": null, "status": null, "address": "", "name": null, "id": null, "pageNo": 947, "pageCount": null, "pageSize": 10, "ids": null, "endTime": null, "startTime": null}, "list": [{"cardNumFive": null, "isSupportYj": null, "cityName": null, "districtName": null, "shopinfo": {"mid": "888002156610032", "good_flag": null, "new_flag": "2", "short_name": "\u978b\u67dc", "short_name_pinyin": "xiegui", "status": null, "address": null, "name": null, "id": "40720"}, "mid": "888002156610032", "shopId": "40720", "netid": null, "province": 901, "district": 601, "zipcode": null, "telephone": null, "posDate": "37021782", "destineTel": null, "togoTel": null, "trafficWay": null, "signBuilding": null, "businessArea": null, "selfRoom": null, "businessTime": null, "stall": null, "consume": null, "serviceFei": null, "favourable": null, "shopMemo": null, "appraise": null, "website": null, "memo": null, "payTypes": "\u6749\u5fb7\u5361", "shopTypes": "\u4e13\u5356", "consumeTypes": null, "cookTypes": null, "orderNum": 1000, "card4no": null, "card4noAcc": null, "district2": 412, "searchScope": null, "status": 1, "address": "\u6d9e\u574a\u8def417\u53f7", "name": "\u978b\u67dc \u6d9e\u574a\u5e97", "id": 177013, "pageNo": 0, "pageCount": null, "pageSize": 10, "ids": null, "endTime": null, "startTime": null}, {"cardNumFive": null, "isSupportYj": null, "cityName": null, "districtName": null, "shopinfo": {"mid": "888002156610032", "good_flag": null, "new_flag": "2", "short_name": "\u978b\u67dc", "short_name_pinyin": "xiegui", "status": null, "address": null, "name": null, "id": "40720"}, "mid": "888002156610032", "shopId": "40720", "netid": null, "province": 901, "district": 601, "zipcode": null, "telephone": null, "posDate": "50156963", "destineTel": null, "togoTel": null, "trafficWay": null, "signBuilding": null, "businessArea": null, "selfRoom": null, "businessTime": null, "stall": null, "consume": null, "serviceFei": null, "favourable": null, "shopMemo": null, "appraise": null, "website": null, "memo": null, "payTypes": "\u6749\u5fb7\u5361", "shopTypes": "\u4e13\u5356", "consumeTypes": null, "cookTypes": null, "orderNum": 1000, "card4no": null, "card4noAcc": null, "district2": 418, "searchScope": null, "status": 1, "address": "\u5317\u4e2d\u8def361-2\u53f7", "name": "\u978b\u67dc \u5317\u4e2d\u5e97", "id": 177018, "pageNo": 0, "pageCount": null, "pageSize": 10, "ids": null, "endTime": null, "startTime": null}, {"cardNumFive": null, "isSupportYj": null, "cityName": null, "districtName": null, "shopinfo": {"mid": "888002156610032", "good_flag": null, "new_flag": "2", "short_name": "\u978b\u67dc", "short_name_pinyin": "xiegui", "status": null, "address": null, "name": null, "id": "40720"}, "mid": "888002156610032", "shopId": "40720", "netid": null, "province": 901, "district": 601, "zipcode": null, "telephone": null, "posDate": "52708522", "destineTel": null, "togoTel": null, "trafficWay": null, "signBuilding": null, "businessArea": null, "selfRoom": null, "businessTime": null, "stall": null, "consume": null, "serviceFei": null, "favourable": null, "shopMemo": null, "appraise": null, "website": null, "memo": null, "payTypes": "\u6749\u5fb7\u5361", "shopTypes": "\u4e13\u5356", "consumeTypes": null, "cookTypes": null, "orderNum": 1000, "card4no": null, "card4noAcc": null, "district2": 405, "searchScope": null, "status": 1, "address": "\u5927\u6e21\u6cb3\u8def168\u53f71\u697c", "name": "\u978b\u67dc \u5927\u6e21\u6cb3\u5e97", "id": 177020, "pageNo": 0, "pageCount": null, "pageSize": 10, "ids": null, "endTime": null, "startTime": null}, {"cardNumFive": null, "isSupportYj": null, "cityName": null, "districtName": null, "shopinfo": {"mid": "888002156610032", "good_flag": null, "new_flag": "2", "short_name": "\u978b\u67dc", "short_name_pinyin": "xiegui", "status": null, "address": null, "name": null, "id": "40720"}, "mid": "888002156610032", "shopId": "40720", "netid": null, "province": 901, "district": 601, "zipcode": null, "telephone": null, "posDate": "52120907", "destineTel": null, "togoTel": null, "trafficWay": null, "signBuilding": null, "businessArea": null, "selfRoom": null, "businessTime": null, "stall": null, "consume": null, "serviceFei": null, "favourable": null, "shopMemo": null, "appraise": null, "website": null, "memo": null, "payTypes": "\u6749\u5fb7\u5361", "shopTypes": "\u4e13\u5356", "consumeTypes": null, "cookTypes": null, "orderNum": 1000, "card4no": null, "card4noAcc": null, "district2": 405, "searchScope": null, "status": 1, "address": "\u4e1c\u65b0\u8def368\u53f7", "name": "\u978b\u67dc \u4e1c\u65b0\u8def\u5e97", "id": 177021, "pageNo": 0, "pageCount": null, "pageSize": 10, "ids": null, "endTime": null, "startTime": null}, {"cardNumFive": null, "isSupportYj": null, "cityName": null, "districtName": null, "shopinfo": {"mid": "888002156610032", "good_flag": null, "new_flag": "2", "short_name": "\u978b\u67dc", "short_name_pinyin": "xiegui", "status": null, "address": null, "name": null, "id": "40720"}, "mid": "888002156610032", "shopId": "40720", "netid": null, "province": 901, "district": 601, "zipcode": null, "telephone": null, "posDate": "59713035", "destineTel": null, "togoTel": null, "trafficWay": null, "signBuilding": null, "businessArea": null, "selfRoom": null, "businessTime": null, "stall": null, "consume": null, "serviceFei": null, "favourable": null, "shopMemo": null, "appraise": null, "website": null, "memo": null, "payTypes": "\u6749\u5fb7\u5361", "shopTypes": "\u4e13\u5356", "consumeTypes": null, "cookTypes": null, "orderNum": 1000, "card4no": null, "card4noAcc": null, "district2": 417, "searchScope": null, "status": 1, "address": "\u9752\u5b89\u8def77\u53f7", "name": "\u978b\u67dc \u9752\u5b89\u5e97", "id": 177022, "pageNo": 0, "pageCount": null, "pageSize": 10, "ids": null, "endTime": null, "startTime": null}, {"cardNumFive": null, "isSupportYj": null, "cityName": null, "districtName": null, "shopinfo": {"mid": "888002156610032", "good_flag": null, "new_flag": "2", "short_name": "\u978b\u67dc", "short_name_pinyin": "xiegui", "status": null, "address": null, "name": null, "id": "40720"}, "mid": "888002156610032", "shopId": "40720", "netid": null, "province": 901, "district": 601, "zipcode": null, "telephone": null, "posDate": "57321272", "destineTel": null, "togoTel": null, "trafficWay": null, "signBuilding": null, "businessArea": null, "selfRoom": null, "businessTime": null, "stall": null, "consume": null, "serviceFei": null, "favourable": null, "shopMemo": null, "appraise": null, "website": null, "memo": null, "payTypes": "\u6749\u5fb7\u5361", "shopTypes": "\u4e13\u5356", "consumeTypes": null, "cookTypes": null, "orderNum": 1000, "card4no": null, "card4noAcc": null, "district2": 414, "searchScope": null, "status": 1, "address": "\u6731\u6cfe\u9547\u4e07\u5b89\u8def268\u53f7", "name": "\u978b\u67dc \u4e07\u5b89\u5e97", "id": 177023, "pageNo": 0, "pageCount": null, "pageSize": 10, "ids": null, "endTime": null, "startTime": null}, {"cardNumFive": null, "isSupportYj": null, "cityName": null, "districtName": null, "shopinfo": {"mid": "888002156610032", "good_flag": null, "new_flag": "2", "short_name": "\u978b\u67dc", "short_name_pinyin": "xiegui", "status": null, "address": null, "name": null, "id": "40720"}, "mid": "888002156610032", "shopId": "40720", "netid": null, "province": 901, "district": 601, "zipcode": null, "telephone": null, "posDate": "59857252", "destineTel": null, "togoTel": null, "trafficWay": null, "signBuilding": null, "businessArea": null, "selfRoom": null, "businessTime": null, "stall": null, "consume": null, "serviceFei": null, "favourable": null, "shopMemo": null, "appraise": null, "website": null, "memo": null, "payTypes": "\u6749\u5fb7\u5361", "shopTypes": "\u4e13\u5356", "consumeTypes": null, "cookTypes": null, "orderNum": 1000, "card4no": null, "card4noAcc": null, "district2": 417, "searchScope": null, "status": 1, "address": "\u57ce\u4e2d\u4e1c\u8def383\u53f7", "name": "\u978b\u67dc \u57ce\u4e2d\u5e97", "id": 177024, "pageNo": 0, "pageCount": null, "pageSize": 10, "ids": null, "endTime": null, "startTime": null}, {"cardNumFive": null, "isSupportYj": null, "cityName": null, "districtName": null, "shopinfo": {"mid": "888002156610032", "good_flag": null, "new_flag": "2", "short_name": "\u978b\u67dc", "short_name_pinyin": "xiegui", "status": null, "address": null, "name": null, "id": "40720"}, "mid": "888002156610032", "shopId": "40720", "netid": null, "province": 901, "district": 601, "zipcode": null, "telephone": null, "posDate": "55030141", "destineTel": null, "togoTel": null, "trafficWay": null, "signBuilding": null, "businessArea": null, "selfRoom": null, "businessTime": null, "stall": null, "consume": null, "serviceFei": null, "favourable": null, "shopMemo": null, "appraise": null, "website": null, "memo": null, "payTypes": "\u6749\u5fb7\u5361", "shopTypes": "\u4e13\u5356", "consumeTypes": null, "cookTypes": null, "orderNum": 1000, "card4no": null, "card4noAcc": null, "district2": 416, "searchScope": null, "status": 1, "address": "\u4e09\u95e8\u8def501\u53f7", "name": "\u978b\u67dc \u4e09\u95e8\u5e97", "id": 177025, "pageNo": 0, "pageCount": null, "pageSize": 10, "ids": null, "endTime": null, "startTime": null}, {"cardNumFive": null, "isSupportYj": null, "cityName": null, "districtName": null, "shopinfo": {"mid": "888002156610032", "good_flag": null, "new_flag": "2", "short_name": "\u978b\u67dc", "short_name_pinyin": "xiegui", "status": null, "address": null, "name": null, "id": "40720"}, "mid": "888002156610032", "shopId": "40720", "netid": null, "province": 901, "district": 601, "zipcode": null, "telephone": null, "posDate": "56676150", "destineTel": null, "togoTel": null, "trafficWay": null, "signBuilding": null, "businessArea": null, "selfRoom": null, "businessTime": null, "stall": null, "consume": null, "serviceFei": null, "favourable": null, "shopMemo": null, "appraise": null, "website": null, "memo": null, "payTypes": "\u6749\u5fb7\u5361", "shopTypes": "\u4e13\u5356", "consumeTypes": null, "cookTypes": null, "orderNum": 1000, "card4no": null, "card4noAcc": null, "district2": 416, "searchScope": null, "status": 1, "address": "\u6c34\u4ea7\u8def1234\u53f7", "name": "\u978b\u67dc \u6c34\u4ea7\u4e16\u7eaa\u8054\u534e\u5e97", "id": 177026, "pageNo": 0, "pageCount": null, "pageSize": 10, "ids": null, "endTime": null, "startTime": null}, {"cardNumFive": null, "isSupportYj": null, "cityName": null, "districtName": null, "shopinfo": {"mid": "888002156610032", "good_flag": null, "new_flag": "2", "short_name": "\u978b\u67dc", "short_name_pinyin": "xiegui", "status": null, "address": null, "name": null, "id": "40720"}, "mid": "888002156610032", "shopId": "40720", "netid": null, "province": 901, "district": 601, "zipcode": null, "telephone": null, "posDate": "65112963", "destineTel": null, "togoTel": null, "trafficWay": null, "signBuilding": null, "businessArea": null, "selfRoom": null, "businessTime": null, "stall": null, "consume": null, "serviceFei": null, "favourable": null, "shopMemo": null, "appraise": null, "website": null, "memo": null, "payTypes": "\u6749\u5fb7\u5361", "shopTypes": "\u4e13\u5356", "consumeTypes": null, "cookTypes": null, "orderNum": 1000, "card4no": null, "card4noAcc": null, "district2": 407, "searchScope": null, "status": 1, "address": "\u56db\u5e73\u8def2567\u53f7", "name": "\u978b\u67dc \u56db\u5e73\u5e97", "id": 177027, "pageNo": 0, "pageCount": null, "pageSize": 10, "ids": null, "endTime": null, "startTime": null}], "pageLimit": 9470, "size": 10}