{"pageCount": 1095, "count": 10942, "pageNo": 942, "subShopInfo": {"cardNumFive": "", "isSupportYj": "", "cityName": null, "districtName": null, "shopinfo": {"mid": null, "good_flag": null, "new_flag": null, "short_name": null, "short_name_pinyin": null, "status": null, "address": "", "name": "", "id": null}, "mid": null, "shopId": null, "netid": null, "province": 901, "district": null, "zipcode": null, "telephone": null, "posDate": null, "destineTel": null, "togoTel": null, "trafficWay": null, "signBuilding": null, "businessArea": null, "selfRoom": null, "businessTime": null, "stall": null, "consume": null, "serviceFei": null, "favourable": null, "shopMemo": "1", "appraise": null, "website": null, "memo": null, "payTypes": "", "shopTypes": "", "consumeTypes": null, "cookTypes": null, "orderNum": null, "card4no": null, "card4noAcc": null, "district2": null, "searchScope": null, "status": null, "address": "", "name": null, "id": null, "pageNo": 941, "pageCount": null, "pageSize": 10, "ids": null, "endTime": null, "startTime": null}, "list": [{"cardNumFive": null, "isSupportYj": null, "cityName": null, "districtName": null, "shopinfo": {"mid": "888002159121187", "good_flag": "2", "new_flag": "2", "short_name": "\u4e94\u6d32\u5927\u836f\u623f", "short_name_pinyin": "wuzhoudayaofang", "status": null, "address": null, "name": null, "id": "33687"}, "mid": "888002159121187", "shopId": "33687", "netid": null, "province": 901, "district": 601, "zipcode": null, "telephone": "54146605", "posDate": "200911", "destineTel": null, "togoTel": null, "trafficWay": null, "signBuilding": null, "businessArea": null, "selfRoom": null, "businessTime": "10:00~22:00", "stall": null, "consume": null, "serviceFei": null, "favourable": null, "shopMemo": null, "appraise": null, "website": null, "memo": null, "payTypes": "\u6749\u5fb7\u5361", "shopTypes": "\u836f\u5e97", "consumeTypes": null, "cookTypes": null, "orderNum": 1000, "card4no": null, "card4noAcc": null, "district2": 409, "searchScope": null, "status": 1, "address": "\u987e\u6234\u8def1132\u53f7", "name": "\u4e94\u6d32\u5927\u836f\u623f \u4e94\u6d32\u5e97", "id": 143574, "pageNo": 0, "pageCount": null, "pageSize": 10, "ids": null, "endTime": null, "startTime": null}, {"cardNumFive": null, "isSupportYj": null, "cityName": null, "districtName": null, "shopinfo": {"mid": "888888858120127", "good_flag": "2", "new_flag": "2", "short_name": "\u590f\u9762\u9986", "short_name_pinyin": "xiamianguan", "status": null, "address": null, "name": null, "id": "33712"}, "mid": "888888858120127", "shopId": "33712", "netid": null, "province": 901, "district": 601, "zipcode": "200060", "telephone": "62998766", "posDate": "20070321", "destineTel": null, "togoTel": null, "trafficWay": "\u516c\u4ea4830", "signBuilding": null, "businessArea": null, "selfRoom": "\u6709", "businessTime": null, "stall": null, "consume": "40\u5143", "serviceFei": null, "favourable": null, "shopMemo": "\u6c99\u9505\u72ee\u5b50\u5934\u9762 \u87f9\u7c89\u867e\u4ec1\u62cc\u9762 \u9152\u9999\u8349\u5934 \u7ea2\u8c46\u62c9\u7cd5", "appraise": null, "website": null, "memo": null, "payTypes": "\u6749\u5fb7\u5361", "shopTypes": "\u9910\u996e", "consumeTypes": "\u597d\u53cb\u5c0f\u805a,\u4f11\u95f2\u5c31\u9910", "cookTypes": null, "orderNum": 1000, "card4no": null, "card4noAcc": null, "district2": 405, "searchScope": null, "status": 1, "address": "\u6fb3\u95e8\u8def337\u53f7", "name": "\u590f\u9762\u9986 \u6fb3\u95e8\u5e97", "id": 143729, "pageNo": 0, "pageCount": null, "pageSize": 10, "ids": null, "endTime": null, "startTime": null}, {"cardNumFive": null, "isSupportYj": null, "cityName": null, "districtName": null, "shopinfo": {"mid": "888002153110195", "good_flag": null, "new_flag": null, "short_name": "\u73b0\u4ee3\u57ce\u5e02\u8d2d\u7269\u5e7f\u573a", "short_name_pinyin": "xiandaichengshigouwuguangchang", "status": null, "address": null, "name": null, "id": "41197"}, "mid": "888002153110195", "shopId": "41197", "netid": null, "province": 901, "district": 601, "zipcode": null, "telephone": null, "posDate": null, "destineTel": null, "togoTel": null, "trafficWay": null, "signBuilding": null, "businessArea": null, "selfRoom": null, "businessTime": null, "stall": null, "consume": null, "serviceFei": null, "favourable": null, "shopMemo": null, "appraise": null, "website": null, "memo": null, "payTypes": "\u6749\u5fb7\u5361", "shopTypes": "\u767e\u8d27", "consumeTypes": null, "cookTypes": null, "orderNum": 1000, "card4no": null, "card4noAcc": null, "district2": 405, "searchScope": null, "status": 1, "address": "\u7ee5\u5fb7\u8def379\u5f0417\u53f71\u697c", "name": "\u73b0\u4ee3\u57ce\u5e02\u8d2d\u7269\u5e7f\u573a \u666e\u9640\u5e97", "id": 180400, "pageNo": 0, "pageCount": null, "pageSize": 10, "ids": null, "endTime": null, "startTime": null}, {"cardNumFive": null, "isSupportYj": null, "cityName": null, "districtName": null, "shopinfo": {"mid": "888002153310137", "good_flag": null, "new_flag": null, "short_name": "\u9c9c\u5fb7\u5b9d", "short_name_pinyin": "xiandebao", "status": null, "address": null, "name": null, "id": "41465"}, "mid": "888002153310137", "shopId": "41465", "netid": null, "province": 901, "district": 601, "zipcode": null, "telephone": null, "posDate": null, "destineTel": null, "togoTel": null, "trafficWay": null, "signBuilding": null, "businessArea": null, "selfRoom": null, "businessTime": null, "stall": null, "consume": null, "serviceFei": null, "favourable": null, "shopMemo": null, "appraise": null, "website": null, "memo": null, "payTypes": "\u6749\u5fb7\u5361", "shopTypes": "\u8d85\u5e02", "consumeTypes": null, "cookTypes": null, "orderNum": 1000, "card4no": null, "card4noAcc": null, "district2": 410, "searchScope": null, "status": 1, "address": "\u573a\u4e2d\u8def666-668\u53f7", "name": "\u9c9c\u5fb7\u5b9d \u573a\u4e2d\u5e97", "id": 182687, "pageNo": 0, "pageCount": null, "pageSize": 10, "ids": null, "endTime": null, "startTime": null}, {"cardNumFive": null, "isSupportYj": null, "cityName": null, "districtName": null, "shopinfo": {"mid": "888002153310137", "good_flag": null, "new_flag": null, "short_name": "\u9c9c\u5fb7\u5b9d", "short_name_pinyin": "xiandebao", "status": null, "address": null, "name": null, "id": "41465"}, "mid": "888002153310137", "shopId": "41465", "netid": null, "province": 901, "district": 601, "zipcode": null, "telephone": null, "posDate": null, "destineTel": null, "togoTel": null, "trafficWay": null, "signBuilding": null, "businessArea": null, "selfRoom": null, "businessTime": null, "stall": null, "consume": null, "serviceFei": null, "favourable": null, "shopMemo": null, "appraise": null, "website": null, "memo": null, "payTypes": "\u6749\u5fb7\u5361", "shopTypes": "\u8d85\u5e02", "consumeTypes": null, "cookTypes": null, "orderNum": 1000, "card4no": null, "card4noAcc": null, "district2": 416, "searchScope": null, "status": 1, "address": "\u957f\u4e34\u8def1368\u53f7", "name": "\u9c9c\u5fb7\u5b9d \u957f\u4e34\u5e97", "id": 182688, "pageNo": 0, "pageCount": null, "pageSize": 10, "ids": null, "endTime": null, "startTime": null}, {"cardNumFive": null, "isSupportYj": null, "cityName": null, "districtName": null, "shopinfo": {"mid": "888002153111125", "good_flag": null, "new_flag": null, "short_name": "\u9999\u8377\u8d38\u6613", "short_name_pinyin": "xianghemaoyi", "status": null, "address": null, "name": null, "id": "36337"}, "mid": "888002153111125", "shopId": "36337", "netid": null, "province": 901, "district": 601, "zipcode": null, "telephone": null, "posDate": "20100819", "destineTel": null, "togoTel": null, "trafficWay": null, "signBuilding": null, "businessArea": null, "selfRoom": null, "businessTime": null, "stall": null, "consume": null, "serviceFei": null, "favourable": null, "shopMemo": null, "appraise": null, "website": null, "memo": null, "payTypes": "\u6749\u5fb7\u5361", "shopTypes": "\u96f6\u552e", "consumeTypes": null, "cookTypes": null, "orderNum": 1000, "card4no": null, "card4noAcc": null, "district2": 401, "searchScope": null, "status": 1, "address": "\u6c49\u53e3\u8def839\u53f7", "name": "\u9999\u8377\u8d38\u6613 \u6c49\u53e3\u8def\u5e97", "id": 151254, "pageNo": 0, "pageCount": null, "pageSize": 10, "ids": null, "endTime": null, "startTime": null}, {"cardNumFive": null, "isSupportYj": null, "cityName": null, "districtName": null, "shopinfo": {"mid": "888888872980002", "good_flag": "2", "new_flag": "2", "short_name": "\u9999\u5c71\u7626\u8eab", "short_name_pinyin": "xiangshanshoushen", "status": null, "address": null, "name": null, "id": "33731"}, "mid": "888888872980002", "shopId": "33731", "netid": null, "province": 901, "district": 601, "zipcode": "200125", "telephone": "58519885", "posDate": "20070205", "destineTel": "58519885", "togoTel": "58519885", "trafficWay": "\u516c\u4ea4935 814", "signBuilding": null, "businessArea": "180\u5e73\u65b9\u5de6\u53f3", "selfRoom": "\u65e0", "businessTime": null, "stall": "\u65e0", "consume": null, "serviceFei": null, "favourable": null, "shopMemo": null, "appraise": null, "website": null, "memo": null, "payTypes": "\u6749\u5fb7\u5361", "shopTypes": "\u7f8e\u5bb9\u7f8e\u53d1,\u5065\u8eab\u573a\u6240", "consumeTypes": null, "cookTypes": null, "orderNum": 1000, "card4no": null, "card4noAcc": null, "district2": 418, "searchScope": null, "status": 1, "address": "\u6c11\u751f\u8def658\u53f7", "name": "\u9999\u5c71\u7626\u8eab \u6d66\u4e1c\u6c11\u751f\u5e97", "id": 143784, "pageNo": 0, "pageCount": null, "pageSize": 10, "ids": null, "endTime": null, "startTime": null}, {"cardNumFive": null, "isSupportYj": null, "cityName": null, "districtName": null, "shopinfo": {"mid": "888888854410025", "good_flag": null, "new_flag": null, "short_name": "\u9999\u7279\u8389", "short_name_pinyin": "xiangteli", "status": null, "address": null, "name": null, "id": "33733"}, "mid": "888888854410025", "shopId": "33733", "netid": null, "province": 901, "district": 601, "zipcode": null, "telephone": null, "posDate": null, "destineTel": null, "togoTel": null, "trafficWay": "26\u3001911\u3001926", "signBuilding": null, "businessArea": null, "selfRoom": null, "businessTime": null, "stall": null, "consume": null, "serviceFei": null, "favourable": null, "shopMemo": null, "appraise": null, "website": null, "memo": null, "payTypes": "\u6749\u5fb7\u5361", "shopTypes": "\u9762\u5305\u897f\u997c", "consumeTypes": null, "cookTypes": null, "orderNum": 1000, "card4no": null, "card4noAcc": null, "district2": 403, "searchScope": null, "status": 1, "address": "\u6dee\u6d77\u4e2d\u8def1668\u53f7", "name": "\u9999\u7279\u8389 \u6dee\u6d77\u4e2d\u8def\u5e97", "id": 143816, "pageNo": 0, "pageCount": null, "pageSize": 10, "ids": null, "endTime": null, "startTime": null}, {"cardNumFive": null, "isSupportYj": null, "cityName": null, "districtName": null, "shopinfo": {"mid": "888002158122915", "good_flag": "2", "new_flag": "2", "short_name": "\u5c0f\u8f89\u54e5", "short_name_pinyin": "xiaohuige", "status": null, "address": null, "name": null, "id": "507553496287936512"}, "mid": "888002158122915", "shopId": "507553496287936512", "netid": null, "province": 901, "district": 601, "zipcode": null, "telephone": null, "posDate": null, "destineTel": null, "togoTel": null, "trafficWay": null, "signBuilding": null, "businessArea": null, "selfRoom": null, "businessTime": null, "stall": null, "consume": null, "serviceFei": null, "favourable": null, "shopMemo": null, "appraise": null, "website": null, "memo": null, "payTypes": "\u6749\u5fb7\u5361,", "shopTypes": "\u9910\u996e", "consumeTypes": null, "cookTypes": null, "orderNum": null, "card4no": null, "card4noAcc": null, "district2": 404, "searchScope": null, "status": 1, "address": "\u5357\u4eac\u897f\u8def1038\u53f7\u6885\u9f99\u9547\u5e7f\u573a7F701-709", "name": "\u6885\u9f99\u9547\u5e97", "id": 507553494991896576, "pageNo": 0, "pageCount": null, "pageSize": 10, "ids": null, "endTime": null, "startTime": null}, {"cardNumFive": null, "isSupportYj": null, "cityName": null, "districtName": null, "shopinfo": {"mid": "888002158122915", "good_flag": "2", "new_flag": "2", "short_name": "\u5c0f\u8f89\u54e5", "short_name_pinyin": "xiaohuige", "status": null, "address": null, "name": null, "id": "507553496287936512"}, "mid": "888002158122915", "shopId": "507553496287936512", "netid": null, "province": 901, "district": 601, "zipcode": null, "telephone": null, "posDate": null, "destineTel": null, "togoTel": null, "trafficWay": null, "signBuilding": null, "businessArea": null, "selfRoom": null, "businessTime": null, "stall": null, "consume": null, "serviceFei": null, "favourable": null, "shopMemo": null, "appraise": null, "website": null, "memo": null, "payTypes": "\u6749\u5fb7\u5361,", "shopTypes": "\u9910\u996e", "consumeTypes": null, "cookTypes": null, "orderNum": null, "card4no": null, "card4noAcc": null, "district2": 404, "searchScope": null, "status": 1, "address": "\u5171\u548c\u65b0\u8def1988\u53f711\u5ea7502\u5ba4", "name": "\u5927\u5b81\u56fd\u9645\u5e97", "id": 507553495939809280, "pageNo": 0, "pageCount": null, "pageSize": 10, "ids": null, "endTime": null, "startTime": null}], "pageLimit": 9410, "size": 10}