{"pageCount": 1095, "count": 10942, "pageNo": 943, "subShopInfo": {"cardNumFive": "", "isSupportYj": "", "cityName": null, "districtName": null, "shopinfo": {"mid": null, "good_flag": null, "new_flag": null, "short_name": null, "short_name_pinyin": null, "status": null, "address": "", "name": "", "id": null}, "mid": null, "shopId": null, "netid": null, "province": 901, "district": null, "zipcode": null, "telephone": null, "posDate": null, "destineTel": null, "togoTel": null, "trafficWay": null, "signBuilding": null, "businessArea": null, "selfRoom": null, "businessTime": null, "stall": null, "consume": null, "serviceFei": null, "favourable": null, "shopMemo": "1", "appraise": null, "website": null, "memo": null, "payTypes": "", "shopTypes": "", "consumeTypes": null, "cookTypes": null, "orderNum": null, "card4no": null, "card4noAcc": null, "district2": null, "searchScope": null, "status": null, "address": "", "name": null, "id": null, "pageNo": 942, "pageCount": null, "pageSize": 10, "ids": null, "endTime": null, "startTime": null}, "list": [{"cardNumFive": null, "isSupportYj": null, "cityName": null, "districtName": null, "shopinfo": {"mid": "888002158122915", "good_flag": "2", "new_flag": "2", "short_name": "\u5c0f\u8f89\u54e5", "short_name_pinyin": "xiaohuige", "status": null, "address": null, "name": null, "id": "507553496287936512"}, "mid": "888002158122915", "shopId": "507553496287936512", "netid": null, "province": 901, "district": 601, "zipcode": null, "telephone": null, "posDate": null, "destineTel": null, "togoTel": null, "trafficWay": null, "signBuilding": null, "businessArea": null, "selfRoom": null, "businessTime": null, "stall": null, "consume": null, "serviceFei": null, "favourable": null, "shopMemo": null, "appraise": null, "website": null, "memo": null, "payTypes": "\u6749\u5fb7\u5361,", "shopTypes": "\u9910\u996e", "consumeTypes": null, "cookTypes": null, "orderNum": null, "card4no": null, "card4noAcc": null, "district2": 406, "searchScope": null, "status": 1, "address": "\u957f\u5b81\u8def1018\u53f77F7045\u30017047\u30017049", "name": "\u4e2d\u5c71\u516c\u56ed\u5e97\uff08\u957f\u5b81\u9f99\u4e4b\u68a6\uff09", "id": 507553496313102336, "pageNo": 0, "pageCount": null, "pageSize": 10, "ids": null, "endTime": null, "startTime": null}, {"cardNumFive": null, "isSupportYj": null, "cityName": null, "districtName": null, "shopinfo": {"mid": "888002158122915", "good_flag": "2", "new_flag": "2", "short_name": "\u5c0f\u8f89\u54e5", "short_name_pinyin": "xiaohuige", "status": null, "address": null, "name": null, "id": "507553496287936512"}, "mid": "888002158122915", "shopId": "507553496287936512", "netid": null, "province": 901, "district": 601, "zipcode": null, "telephone": null, "posDate": null, "destineTel": null, "togoTel": null, "trafficWay": null, "signBuilding": null, "businessArea": null, "selfRoom": null, "businessTime": null, "stall": null, "consume": null, "serviceFei": null, "favourable": null, "shopMemo": null, "appraise": null, "website": null, "memo": null, "payTypes": "\u6749\u5fb7\u5361,", "shopTypes": "\u9910\u996e", "consumeTypes": null, "cookTypes": null, "orderNum": null, "card4no": null, "card4noAcc": null, "district2": 401, "searchScope": null, "status": 1, "address": "\u5357\u4eac\u897f\u8def2-68\u53f7\u65b0\u4e16\u754c\u57ce9\u697cL\u533a", "name": "\u65b0\u4e16\u754c\u5e97", "id": 507553496724144128, "pageNo": 0, "pageCount": null, "pageSize": 10, "ids": null, "endTime": null, "startTime": null}, {"cardNumFive": null, "isSupportYj": null, "cityName": null, "districtName": null, "shopinfo": {"mid": "888002158122915", "good_flag": "2", "new_flag": "2", "short_name": "\u5c0f\u8f89\u54e5", "short_name_pinyin": "xiaohuige", "status": null, "address": null, "name": null, "id": "507553496287936512"}, "mid": "888002158122915", "shopId": "507553496287936512", "netid": null, "province": 901, "district": 601, "zipcode": null, "telephone": null, "posDate": null, "destineTel": null, "togoTel": null, "trafficWay": null, "signBuilding": null, "businessArea": null, "selfRoom": null, "businessTime": null, "stall": null, "consume": null, "serviceFei": null, "favourable": null, "shopMemo": null, "appraise": null, "website": null, "memo": null, "payTypes": "\u6749\u5fb7\u5361,", "shopTypes": "\u9910\u996e", "consumeTypes": null, "cookTypes": null, "orderNum": null, "card4no": null, "card4noAcc": null, "district2": 401, "searchScope": null, "status": 1, "address": "\u5357\u4eac\u4e1c\u8def300\u53f7\u6052\u57fa\u540d\u4eba\u8d2d\u7269\u4e2d\u5fc3\u4e94\u697cL518-520\u5ba4", "name": "\u6052\u57fa\u540d\u4eba\u5e97", "id": 507553497110020096, "pageNo": 0, "pageCount": null, "pageSize": 10, "ids": null, "endTime": null, "startTime": null}, {"cardNumFive": null, "isSupportYj": null, "cityName": null, "districtName": null, "shopinfo": {"mid": "888002158122915", "good_flag": "2", "new_flag": "2", "short_name": "\u5c0f\u8f89\u54e5", "short_name_pinyin": "xiaohuige", "status": null, "address": null, "name": null, "id": "507553496287936512"}, "mid": "888002158122915", "shopId": "507553496287936512", "netid": null, "province": 901, "district": 601, "zipcode": null, "telephone": null, "posDate": null, "destineTel": null, "togoTel": null, "trafficWay": null, "signBuilding": null, "businessArea": null, "selfRoom": null, "businessTime": null, "stall": null, "consume": null, "serviceFei": null, "favourable": null, "shopMemo": null, "appraise": null, "website": null, "memo": null, "payTypes": "\u6749\u5fb7\u5361,", "shopTypes": "\u9910\u996e", "consumeTypes": null, "cookTypes": null, "orderNum": null, "card4no": null, "card4noAcc": null, "district2": 418, "searchScope": null, "status": 1, "address": "\u7956\u51b2\u4e4b\u8def1239\u5f04\u957f\u6cf0\u5e7f\u573a5\u53f7\u697c2E02\u5ba4", "name": "\u957f\u6cf0\u5e7f\u573a\u5e97", "id": 507553497487507456, "pageNo": 0, "pageCount": null, "pageSize": 10, "ids": null, "endTime": null, "startTime": null}, {"cardNumFive": null, "isSupportYj": null, "cityName": null, "districtName": null, "shopinfo": {"mid": "888002158122915", "good_flag": "2", "new_flag": "2", "short_name": "\u5c0f\u8f89\u54e5", "short_name_pinyin": "xiaohuige", "status": null, "address": null, "name": null, "id": "507553496287936512"}, "mid": "888002158122915", "shopId": "507553496287936512", "netid": null, "province": 901, "district": 601, "zipcode": null, "telephone": null, "posDate": null, "destineTel": null, "togoTel": null, "trafficWay": null, "signBuilding": null, "businessArea": null, "selfRoom": null, "businessTime": null, "stall": null, "consume": null, "serviceFei": null, "favourable": null, "shopMemo": null, "appraise": null, "website": null, "memo": null, "payTypes": "\u6749\u5fb7\u5361,", "shopTypes": "\u9910\u996e", "consumeTypes": null, "cookTypes": null, "orderNum": null, "card4no": null, "card4noAcc": null, "district2": 418, "searchScope": null, "status": 1, "address": "\u4e1c\u65b9\u8def796\u53f796\u5e7f\u573a2\u5c42250+251+252+253+255\u5355\u5143", "name": "96\u5e7f\u573a\u5e97", "id": 507553497881772032, "pageNo": 0, "pageCount": null, "pageSize": 10, "ids": null, "endTime": null, "startTime": null}, {"cardNumFive": null, "isSupportYj": null, "cityName": null, "districtName": null, "shopinfo": {"mid": "888002158122915", "good_flag": "2", "new_flag": "2", "short_name": "\u5c0f\u8f89\u54e5", "short_name_pinyin": "xiaohuige", "status": null, "address": null, "name": null, "id": "507553496287936512"}, "mid": "888002158122915", "shopId": "507553496287936512", "netid": null, "province": 901, "district": 601, "zipcode": null, "telephone": null, "posDate": null, "destineTel": null, "togoTel": null, "trafficWay": null, "signBuilding": null, "businessArea": null, "selfRoom": null, "businessTime": null, "stall": null, "consume": null, "serviceFei": null, "favourable": null, "shopMemo": null, "appraise": null, "website": null, "memo": null, "payTypes": "\u6749\u5fb7\u5361,", "shopTypes": "\u9910\u996e", "consumeTypes": null, "cookTypes": null, "orderNum": null, "card4no": null, "card4noAcc": null, "district2": 403, "searchScope": null, "status": 1, "address": "\u5b9c\u5c71\u8def455\u53f7\u4e94\u5c42501\u3001502", "name": "\u5149\u542f\u57ce\u5e97", "id": 507553498301202432, "pageNo": 0, "pageCount": null, "pageSize": 10, "ids": null, "endTime": null, "startTime": null}, {"cardNumFive": null, "isSupportYj": null, "cityName": null, "districtName": null, "shopinfo": {"mid": "888002158122915", "good_flag": "2", "new_flag": "2", "short_name": "\u5c0f\u8f89\u54e5", "short_name_pinyin": "xiaohuige", "status": null, "address": null, "name": null, "id": "507553496287936512"}, "mid": "888002158122915", "shopId": "507553496287936512", "netid": null, "province": 901, "district": 601, "zipcode": null, "telephone": null, "posDate": null, "destineTel": null, "togoTel": null, "trafficWay": null, "signBuilding": null, "businessArea": null, "selfRoom": null, "businessTime": null, "stall": null, "consume": null, "serviceFei": null, "favourable": null, "shopMemo": null, "appraise": null, "website": null, "memo": null, "payTypes": "\u6749\u5fb7\u5361,", "shopTypes": "\u9910\u996e", "consumeTypes": null, "cookTypes": null, "orderNum": null, "card4no": null, "card4noAcc": null, "district2": 406, "searchScope": null, "status": 1, "address": "\u8679\u6865\u8def1665\u53f7\uff08\u8fd1\u6c34\u57ce\u8def\uff09\u661f\u7a7a\u8d2d\u72695\u697c", "name": "\u661f\u7a7a\u8d2d\u7269\u5e97", "id": 507553498678689792, "pageNo": 0, "pageCount": null, "pageSize": 10, "ids": null, "endTime": null, "startTime": null}, {"cardNumFive": null, "isSupportYj": null, "cityName": null, "districtName": null, "shopinfo": {"mid": "888002158122915", "good_flag": "2", "new_flag": "2", "short_name": "\u5c0f\u8f89\u54e5", "short_name_pinyin": "xiaohuige", "status": null, "address": null, "name": null, "id": "507553496287936512"}, "mid": "888002158122915", "shopId": "507553496287936512", "netid": null, "province": 901, "district": 601, "zipcode": null, "telephone": null, "posDate": null, "destineTel": null, "togoTel": null, "trafficWay": null, "signBuilding": null, "businessArea": null, "selfRoom": null, "businessTime": null, "stall": null, "consume": null, "serviceFei": null, "favourable": null, "shopMemo": null, "appraise": null, "website": null, "memo": null, "payTypes": "\u6749\u5fb7\u5361,", "shopTypes": "\u9910\u996e", "consumeTypes": null, "cookTypes": null, "orderNum": null, "card4no": null, "card4noAcc": null, "district2": 403, "searchScope": null, "status": 1, "address": "\u5609\u6d5c\u8def1111\u53f7\u7f8e\u7f57\u57ce\u7b2c[4]\u5c42B\u533a[4-12B\uff0c4-12C\uff0c4-12BC(out\uff09\u5355\u5143", "name": "\u7f8e\u7f57\u57ce\u5e97", "id": 507553499077148672, "pageNo": 0, "pageCount": null, "pageSize": 10, "ids": null, "endTime": null, "startTime": null}, {"cardNumFive": null, "isSupportYj": null, "cityName": null, "districtName": null, "shopinfo": {"mid": "888002158122763", "good_flag": null, "new_flag": null, "short_name": "\u5c0f\u5357\u56fd", "short_name_pinyin": "xiaonanguo", "status": null, "address": null, "name": null, "id": "43615"}, "mid": "888002158122763", "shopId": "43615", "netid": null, "province": 901, "district": 601, "zipcode": null, "telephone": null, "posDate": null, "destineTel": null, "togoTel": null, "trafficWay": null, "signBuilding": null, "businessArea": null, "selfRoom": null, "businessTime": null, "stall": null, "consume": null, "serviceFei": null, "favourable": null, "shopMemo": null, "appraise": null, "website": null, "memo": null, "payTypes": "\u6749\u5fb7\u5361", "shopTypes": "\u9910\u996e", "consumeTypes": null, "cookTypes": null, "orderNum": 1000, "card4no": null, "card4noAcc": null, "district2": 406, "searchScope": null, "status": 1, "address": "\u957f\u5b81\u8def999\u53f7\u591a\u5a92\u4f53\u5e7f\u573a4\u697c", "name": "\u5c0f\u5357\u56fd \u4e2d\u5c71\u516c\u56ed\u5e97", "id": 199138, "pageNo": 0, "pageCount": null, "pageSize": 10, "ids": null, "endTime": null, "startTime": null}, {"cardNumFive": null, "isSupportYj": null, "cityName": null, "districtName": null, "shopinfo": {"mid": "888002158122764", "good_flag": null, "new_flag": null, "short_name": "\u5c0f\u5357\u56fd", "short_name_pinyin": "xiaonanguo", "status": null, "address": null, "name": null, "id": "43616"}, "mid": "888002158122764", "shopId": "43616", "netid": null, "province": 901, "district": 601, "zipcode": null, "telephone": null, "posDate": null, "destineTel": null, "togoTel": null, "trafficWay": null, "signBuilding": null, "businessArea": null, "selfRoom": null, "businessTime": null, "stall": null, "consume": null, "serviceFei": null, "favourable": null, "shopMemo": null, "appraise": null, "website": null, "memo": null, "payTypes": "\u6749\u5fb7\u5361", "shopTypes": "\u9910\u996e", "consumeTypes": null, "cookTypes": null, "orderNum": 1000, "card4no": null, "card4noAcc": null, "district2": 418, "searchScope": null, "status": 1, "address": "\u7533\u8fea\u897f\u8def225\u5f04\u8fea\u58eb\u5c3c\u5c0f\u9547790\u53f7", "name": "\u5c0f\u5357\u56fd \u8fea\u58eb\u5c3c\u5e97", "id": 199139, "pageNo": 0, "pageCount": null, "pageSize": 10, "ids": null, "endTime": null, "startTime": null}], "pageLimit": 9420, "size": 10}