{"pageCount": 1095, "count": 10942, "pageNo": 945, "subShopInfo": {"cardNumFive": "", "isSupportYj": "", "cityName": null, "districtName": null, "shopinfo": {"mid": null, "good_flag": null, "new_flag": null, "short_name": null, "short_name_pinyin": null, "status": null, "address": "", "name": "", "id": null}, "mid": null, "shopId": null, "netid": null, "province": 901, "district": null, "zipcode": null, "telephone": null, "posDate": null, "destineTel": null, "togoTel": null, "trafficWay": null, "signBuilding": null, "businessArea": null, "selfRoom": null, "businessTime": null, "stall": null, "consume": null, "serviceFei": null, "favourable": null, "shopMemo": "1", "appraise": null, "website": null, "memo": null, "payTypes": "", "shopTypes": "", "consumeTypes": null, "cookTypes": null, "orderNum": null, "card4no": null, "card4noAcc": null, "district2": null, "searchScope": null, "status": null, "address": "", "name": null, "id": null, "pageNo": 944, "pageCount": null, "pageSize": 10, "ids": null, "endTime": null, "startTime": null}, "list": [{"cardNumFive": null, "isSupportYj": null, "cityName": null, "districtName": null, "shopinfo": {"mid": "888002158122775", "good_flag": null, "new_flag": null, "short_name": "\u5c0f\u5357\u56fd", "short_name_pinyin": "xiaonanguo", "status": null, "address": null, "name": null, "id": "43627"}, "mid": "888002158122775", "shopId": "43627", "netid": null, "province": 901, "district": 601, "zipcode": null, "telephone": null, "posDate": null, "destineTel": null, "togoTel": null, "trafficWay": null, "signBuilding": null, "businessArea": null, "selfRoom": null, "businessTime": null, "stall": null, "consume": null, "serviceFei": null, "favourable": null, "shopMemo": null, "appraise": null, "website": null, "memo": null, "payTypes": "\u6749\u5fb7\u5361", "shopTypes": "\u9910\u996e", "consumeTypes": null, "cookTypes": null, "orderNum": 1000, "card4no": null, "card4noAcc": null, "district2": 401, "searchScope": null, "status": 1, "address": "\u5174\u4e1a\u8def123\u5f04\u65b0\u5929\u5730\u5357\u91cc\u5546\u573a2\u697c", "name": "\u5c0f\u5357\u56fd \u65b0\u5929\u5730\u5e97", "id": 199150, "pageNo": 0, "pageCount": null, "pageSize": 10, "ids": null, "endTime": null, "startTime": null}, {"cardNumFive": null, "isSupportYj": null, "cityName": null, "districtName": null, "shopinfo": {"mid": "888002158122776", "good_flag": null, "new_flag": null, "short_name": "\u5c0f\u5357\u56fd", "short_name_pinyin": "xiaonanguo", "status": null, "address": null, "name": null, "id": "43628"}, "mid": "888002158122776", "shopId": "43628", "netid": null, "province": 901, "district": 601, "zipcode": null, "telephone": null, "posDate": null, "destineTel": null, "togoTel": null, "trafficWay": null, "signBuilding": null, "businessArea": null, "selfRoom": null, "businessTime": null, "stall": null, "consume": null, "serviceFei": null, "favourable": null, "shopMemo": null, "appraise": null, "website": null, "memo": null, "payTypes": "\u6749\u5fb7\u5361", "shopTypes": "\u9910\u996e", "consumeTypes": null, "cookTypes": null, "orderNum": 1000, "card4no": null, "card4noAcc": null, "district2": 418, "searchScope": null, "status": 1, "address": "\u4e16\u535a\u5927\u90531368\u53f71\u533a2\u697c", "name": "\u5c0f\u5357\u56fd \u4e16\u535a\u6e90\u5e97", "id": 199151, "pageNo": 0, "pageCount": null, "pageSize": 10, "ids": null, "endTime": null, "startTime": null}, {"cardNumFive": null, "isSupportYj": null, "cityName": null, "districtName": null, "shopinfo": {"mid": "888002158122778", "good_flag": null, "new_flag": null, "short_name": "\u5c0f\u5357\u56fd", "short_name_pinyin": "xiaonanguo", "status": null, "address": null, "name": null, "id": "43630"}, "mid": "888002158122778", "shopId": "43630", "netid": null, "province": 901, "district": 601, "zipcode": null, "telephone": null, "posDate": null, "destineTel": null, "togoTel": null, "trafficWay": null, "signBuilding": null, "businessArea": null, "selfRoom": null, "businessTime": null, "stall": null, "consume": null, "serviceFei": null, "favourable": null, "shopMemo": null, "appraise": null, "website": null, "memo": null, "payTypes": "\u6749\u5fb7\u5361", "shopTypes": "\u9910\u996e", "consumeTypes": null, "cookTypes": null, "orderNum": 1000, "card4no": null, "card4noAcc": null, "district2": 403, "searchScope": null, "status": 1, "address": "\u96f6\u9675\u8def899\u53f7\u98de\u6d32\u56fd\u9645\u5e7f\u573a5\u697c", "name": "\u5c0f\u5357\u56fd \u4e07\u4f53\u9986\u5e97", "id": 199153, "pageNo": 0, "pageCount": null, "pageSize": 10, "ids": null, "endTime": null, "startTime": null}, {"cardNumFive": null, "isSupportYj": null, "cityName": null, "districtName": null, "shopinfo": {"mid": "888002158122779", "good_flag": null, "new_flag": null, "short_name": "\u5c0f\u5357\u56fd", "short_name_pinyin": "xiaonanguo", "status": null, "address": null, "name": null, "id": "43631"}, "mid": "888002158122779", "shopId": "43631", "netid": null, "province": 901, "district": 601, "zipcode": null, "telephone": null, "posDate": null, "destineTel": null, "togoTel": null, "trafficWay": null, "signBuilding": null, "businessArea": null, "selfRoom": null, "businessTime": null, "stall": null, "consume": null, "serviceFei": null, "favourable": null, "shopMemo": null, "appraise": null, "website": null, "memo": null, "payTypes": "\u6749\u5fb7\u5361", "shopTypes": "\u9910\u996e", "consumeTypes": null, "cookTypes": null, "orderNum": 1000, "card4no": null, "card4noAcc": null, "district2": 409, "searchScope": null, "status": 1, "address": "\u90fd\u5e02\u8def5001\u53f7\u4ef2\u76db\u4e16\u754c\u5546\u57ce5\u697c20A/B/C\uff08\u8fd1\u8398\u5e84\u5730\u94c1\u5357\u5e7f\u573a\uff09", "name": "\u5c0f\u5357\u56fd \u4ef2\u76db\u5e97", "id": 199154, "pageNo": 0, "pageCount": null, "pageSize": 10, "ids": null, "endTime": null, "startTime": null}, {"cardNumFive": null, "isSupportYj": null, "cityName": null, "districtName": null, "shopinfo": {"mid": "888002158122780", "good_flag": null, "new_flag": null, "short_name": "\u5c0f\u5357\u56fd", "short_name_pinyin": "xiaonanguo", "status": null, "address": null, "name": null, "id": "43632"}, "mid": "888002158122780", "shopId": "43632", "netid": null, "province": 901, "district": 601, "zipcode": null, "telephone": null, "posDate": null, "destineTel": null, "togoTel": null, "trafficWay": null, "signBuilding": null, "businessArea": null, "selfRoom": null, "businessTime": null, "stall": null, "consume": null, "serviceFei": null, "favourable": null, "shopMemo": null, "appraise": null, "website": null, "memo": null, "payTypes": "\u6749\u5fb7\u5361", "shopTypes": "\u9910\u996e", "consumeTypes": null, "cookTypes": null, "orderNum": 1000, "card4no": null, "card4noAcc": null, "district2": 404, "searchScope": null, "status": 1, "address": "\u5927\u534e\u4e00\u8def198\u53f7\u5927\u534e\u864e\u57ce\u5609\u5e74\u534eA\u680b3\u697c", "name": "\u5c0f\u5357\u56fd \u5927\u534e\u5e97", "id": 199155, "pageNo": 0, "pageCount": null, "pageSize": 10, "ids": null, "endTime": null, "startTime": null}, {"cardNumFive": null, "isSupportYj": null, "cityName": null, "districtName": null, "shopinfo": {"mid": "888002158122781", "good_flag": null, "new_flag": null, "short_name": "\u5c0f\u5357\u56fd", "short_name_pinyin": "xiaonanguo", "status": null, "address": null, "name": null, "id": "43633"}, "mid": "888002158122781", "shopId": "43633", "netid": null, "province": 901, "district": 601, "zipcode": null, "telephone": null, "posDate": null, "destineTel": null, "togoTel": null, "trafficWay": null, "signBuilding": null, "businessArea": null, "selfRoom": null, "businessTime": null, "stall": null, "consume": null, "serviceFei": null, "favourable": null, "shopMemo": null, "appraise": null, "website": null, "memo": null, "payTypes": "\u6749\u5fb7\u5361", "shopTypes": "\u9910\u996e", "consumeTypes": null, "cookTypes": null, "orderNum": 1000, "card4no": null, "card4noAcc": null, "district2": 403, "searchScope": null, "status": 1, "address": "\u6d66\u5317\u8def9\u53f7\u4e2d\u661f\u57ce\u5546\u573a4\u697c", "name": "\u5c0f\u5357\u56fd \u4e2d\u661f\u57ce\u5e97", "id": 199156, "pageNo": 0, "pageCount": null, "pageSize": 10, "ids": null, "endTime": null, "startTime": null}, {"cardNumFive": null, "isSupportYj": null, "cityName": null, "districtName": null, "shopinfo": {"mid": "888002158122782", "good_flag": null, "new_flag": null, "short_name": "\u5c0f\u5357\u56fd", "short_name_pinyin": "xiaonanguo", "status": null, "address": null, "name": null, "id": "43634"}, "mid": "888002158122782", "shopId": "43634", "netid": null, "province": 901, "district": 601, "zipcode": null, "telephone": null, "posDate": null, "destineTel": null, "togoTel": null, "trafficWay": null, "signBuilding": null, "businessArea": null, "selfRoom": null, "businessTime": null, "stall": null, "consume": null, "serviceFei": null, "favourable": null, "shopMemo": null, "appraise": null, "website": null, "memo": null, "payTypes": "\u6749\u5fb7\u5361", "shopTypes": "\u9910\u996e", "consumeTypes": null, "cookTypes": null, "orderNum": 1000, "card4no": null, "card4noAcc": null, "district2": 418, "searchScope": null, "status": 1, "address": "\u91d1\u79d1\u8def3057\u53f7\u6c47\u667a\u56fd\u9645\u5546\u4e1a\u4e2d\u5fc34LC4-1\u3001C4-2\u3001L4-10\u5ba4", "name": "\u5c0f\u5357\u56fd \u5f20\u6c5f\u5e97", "id": 199157, "pageNo": 0, "pageCount": null, "pageSize": 10, "ids": null, "endTime": null, "startTime": null}, {"cardNumFive": null, "isSupportYj": null, "cityName": null, "districtName": null, "shopinfo": {"mid": "888002158122783", "good_flag": null, "new_flag": null, "short_name": "\u5c0f\u5357\u56fd", "short_name_pinyin": "xiaonanguo", "status": null, "address": null, "name": null, "id": "43635"}, "mid": "888002158122783", "shopId": "43635", "netid": null, "province": 901, "district": 601, "zipcode": null, "telephone": null, "posDate": null, "destineTel": null, "togoTel": null, "trafficWay": null, "signBuilding": null, "businessArea": null, "selfRoom": null, "businessTime": null, "stall": null, "consume": null, "serviceFei": null, "favourable": null, "shopMemo": null, "appraise": null, "website": null, "memo": null, "payTypes": "\u6749\u5fb7\u5361", "shopTypes": "\u9910\u996e", "consumeTypes": null, "cookTypes": null, "orderNum": 1000, "card4no": null, "card4noAcc": null, "district2": 404, "searchScope": null, "status": 1, "address": "\u5171\u548c\u65b0\u8def1968\u53f7\u5927\u5b81\u56fd\u9645\u5546\u4e1a\u5e7f\u573a8\u5ea73\u697c\uff08\u8fd1\u5927\u5b81\u8def\uff09", "name": "\u5c0f\u5357\u56fd \u5927\u5b81\u56fd\u9645\u5e97", "id": 199158, "pageNo": 0, "pageCount": null, "pageSize": 10, "ids": null, "endTime": null, "startTime": null}, {"cardNumFive": null, "isSupportYj": null, "cityName": null, "districtName": null, "shopinfo": {"mid": "888002158122784", "good_flag": null, "new_flag": null, "short_name": "\u5c0f\u5357\u56fd", "short_name_pinyin": "xiaonanguo", "status": null, "address": null, "name": null, "id": "43636"}, "mid": "888002158122784", "shopId": "43636", "netid": null, "province": 901, "district": 601, "zipcode": null, "telephone": null, "posDate": null, "destineTel": null, "togoTel": null, "trafficWay": null, "signBuilding": null, "businessArea": null, "selfRoom": null, "businessTime": null, "stall": null, "consume": null, "serviceFei": null, "favourable": null, "shopMemo": null, "appraise": null, "website": null, "memo": null, "payTypes": "\u6749\u5fb7\u5361", "shopTypes": "\u9910\u996e", "consumeTypes": null, "cookTypes": null, "orderNum": 1000, "card4no": null, "card4noAcc": null, "district2": 418, "searchScope": null, "status": 1, "address": "\u5f20\u6768\u8def3611\u5f04\u91d1\u6865\u56fd\u9645\u5546\u4e1a\u5e7f\u573a6\u5ea72\u697c\uff08\u8fd1\u91d1\u6865\u8def\uff09", "name": "\u5c0f\u5357\u56fd \u91d1\u6865\u5e97", "id": 199159, "pageNo": 0, "pageCount": null, "pageSize": 10, "ids": null, "endTime": null, "startTime": null}, {"cardNumFive": null, "isSupportYj": null, "cityName": null, "districtName": null, "shopinfo": {"mid": "888002158122787", "good_flag": null, "new_flag": null, "short_name": "\u5c0f\u5357\u56fd", "short_name_pinyin": "xiaonanguo", "status": null, "address": null, "name": null, "id": "43637"}, "mid": "888002158122787", "shopId": "43637", "netid": null, "province": 901, "district": 601, "zipcode": null, "telephone": null, "posDate": null, "destineTel": null, "togoTel": null, "trafficWay": null, "signBuilding": null, "businessArea": null, "selfRoom": null, "businessTime": null, "stall": null, "consume": null, "serviceFei": null, "favourable": null, "shopMemo": null, "appraise": null, "website": null, "memo": null, "payTypes": "\u6749\u5fb7\u5361", "shopTypes": "\u9910\u996e", "consumeTypes": null, "cookTypes": null, "orderNum": 1000, "card4no": null, "card4noAcc": null, "district2": 406, "searchScope": null, "status": 1, "address": "\u4ed9\u971e\u8def99\u53f7\u5c1a\u5609\u4e2d\u5fc35\u697c", "name": "\u5c0f\u5357\u56fd \u5c1a\u5609\u5e97", "id": 199160, "pageNo": 0, "pageCount": null, "pageSize": 10, "ids": null, "endTime": null, "startTime": null}], "pageLimit": 9440, "size": 10}