{"pageCount": 1095, "count": 10942, "pageNo": 946, "subShopInfo": {"cardNumFive": "", "isSupportYj": "", "cityName": null, "districtName": null, "shopinfo": {"mid": null, "good_flag": null, "new_flag": null, "short_name": null, "short_name_pinyin": null, "status": null, "address": "", "name": "", "id": null}, "mid": null, "shopId": null, "netid": null, "province": 901, "district": null, "zipcode": null, "telephone": null, "posDate": null, "destineTel": null, "togoTel": null, "trafficWay": null, "signBuilding": null, "businessArea": null, "selfRoom": null, "businessTime": null, "stall": null, "consume": null, "serviceFei": null, "favourable": null, "shopMemo": "1", "appraise": null, "website": null, "memo": null, "payTypes": "", "shopTypes": "", "consumeTypes": null, "cookTypes": null, "orderNum": null, "card4no": null, "card4noAcc": null, "district2": null, "searchScope": null, "status": null, "address": "", "name": null, "id": null, "pageNo": 945, "pageCount": null, "pageSize": 10, "ids": null, "endTime": null, "startTime": null}, "list": [{"cardNumFive": null, "isSupportYj": null, "cityName": null, "districtName": null, "shopinfo": {"mid": "888002158122788", "good_flag": null, "new_flag": null, "short_name": "\u5c0f\u5357\u56fd", "short_name_pinyin": "xiaonanguo", "status": null, "address": null, "name": null, "id": "43638"}, "mid": "888002158122788", "shopId": "43638", "netid": null, "province": 901, "district": 601, "zipcode": null, "telephone": null, "posDate": null, "destineTel": null, "togoTel": null, "trafficWay": null, "signBuilding": null, "businessArea": null, "selfRoom": null, "businessTime": null, "stall": null, "consume": null, "serviceFei": null, "favourable": null, "shopMemo": null, "appraise": null, "website": null, "memo": null, "payTypes": "\u6749\u5fb7\u5361", "shopTypes": "\u9910\u996e", "consumeTypes": null, "cookTypes": null, "orderNum": 1000, "card4no": null, "card4noAcc": null, "district2": 408, "searchScope": null, "status": 1, "address": "\u5927\u8fde\u8def588\u53f7\u5b9d\u5730\u5e7f\u573a4\u697c", "name": "\u5c0f\u5357\u56fd \u5b9d\u5730\u5e97", "id": 199161, "pageNo": 0, "pageCount": null, "pageSize": 10, "ids": null, "endTime": null, "startTime": null}, {"cardNumFive": null, "isSupportYj": null, "cityName": null, "districtName": null, "shopinfo": {"mid": "888002158122789", "good_flag": null, "new_flag": null, "short_name": "\u5c0f\u5357\u56fd", "short_name_pinyin": "xiaonanguo", "status": null, "address": null, "name": null, "id": "43639"}, "mid": "888002158122789", "shopId": "43639", "netid": null, "province": 901, "district": 601, "zipcode": null, "telephone": null, "posDate": null, "destineTel": null, "togoTel": null, "trafficWay": null, "signBuilding": null, "businessArea": null, "selfRoom": null, "businessTime": null, "stall": null, "consume": null, "serviceFei": null, "favourable": null, "shopMemo": null, "appraise": null, "website": null, "memo": null, "payTypes": "\u6749\u5fb7\u5361", "shopTypes": "\u9910\u996e", "consumeTypes": null, "cookTypes": null, "orderNum": 1000, "card4no": null, "card4noAcc": null, "district2": 403, "searchScope": null, "status": 1, "address": "\u5b9c\u5c71\u8def700\u53f7\u65b0\u5b9c\u88572\u53f7\u697c3\u697c", "name": "\u5c0f\u5357\u56fd \u5b9c\u5c71\u5e97", "id": 199162, "pageNo": 0, "pageCount": null, "pageSize": 10, "ids": null, "endTime": null, "startTime": null}, {"cardNumFive": null, "isSupportYj": null, "cityName": null, "districtName": null, "shopinfo": {"mid": "888002158122790", "good_flag": null, "new_flag": null, "short_name": "\u5c0f\u5357\u56fd", "short_name_pinyin": "xiaonanguo", "status": null, "address": null, "name": null, "id": "43640"}, "mid": "888002158122790", "shopId": "43640", "netid": null, "province": 901, "district": 601, "zipcode": null, "telephone": null, "posDate": null, "destineTel": null, "togoTel": null, "trafficWay": null, "signBuilding": null, "businessArea": null, "selfRoom": null, "businessTime": null, "stall": null, "consume": null, "serviceFei": null, "favourable": null, "shopMemo": null, "appraise": null, "website": null, "memo": null, "payTypes": "\u6749\u5fb7\u5361", "shopTypes": "\u9910\u996e", "consumeTypes": null, "cookTypes": null, "orderNum": 1000, "card4no": null, "card4noAcc": null, "district2": 405, "searchScope": null, "status": 1, "address": "\u91d1\u6c99\u6c5f\u8def1759\u53f7\u5723\u8bfa\u4e9a\u5927\u53a6A\u5ea71\u697c103\u5ba4", "name": "\u5c0f\u5357\u56fd \u91d1\u6c99\u6c5f\u8def\u5e97", "id": 199163, "pageNo": 0, "pageCount": null, "pageSize": 10, "ids": null, "endTime": null, "startTime": null}, {"cardNumFive": null, "isSupportYj": null, "cityName": null, "districtName": null, "shopinfo": {"mid": "888002158122792", "good_flag": null, "new_flag": null, "short_name": "\u5c0f\u5357\u56fd", "short_name_pinyin": "xiaonanguo", "status": null, "address": null, "name": null, "id": "43642"}, "mid": "888002158122792", "shopId": "43642", "netid": null, "province": 901, "district": 601, "zipcode": null, "telephone": null, "posDate": null, "destineTel": null, "togoTel": null, "trafficWay": null, "signBuilding": null, "businessArea": null, "selfRoom": null, "businessTime": null, "stall": null, "consume": null, "serviceFei": null, "favourable": null, "shopMemo": null, "appraise": null, "website": null, "memo": null, "payTypes": "\u6749\u5fb7\u5361", "shopTypes": "\u9910\u996e", "consumeTypes": null, "cookTypes": null, "orderNum": 1000, "card4no": null, "card4noAcc": null, "district2": 412, "searchScope": null, "status": 1, "address": "\u4e2d\u5c71\u4e2d\u8def77\u53f7\u5e73\u9ad8\u4e16\u8d38\u4e2d\u5fc36\u30018\u697c", "name": "\u5c0f\u5357\u56fd \u677e\u6c5f\u57ce\u4e2d\u5e97", "id": 199165, "pageNo": 0, "pageCount": null, "pageSize": 10, "ids": null, "endTime": null, "startTime": null}, {"cardNumFive": null, "isSupportYj": null, "cityName": null, "districtName": null, "shopinfo": {"mid": "888002158122793", "good_flag": null, "new_flag": null, "short_name": "\u5c0f\u5357\u56fd", "short_name_pinyin": "xiaonanguo", "status": null, "address": null, "name": null, "id": "43643"}, "mid": "888002158122793", "shopId": "43643", "netid": null, "province": 901, "district": 601, "zipcode": null, "telephone": null, "posDate": null, "destineTel": null, "togoTel": null, "trafficWay": null, "signBuilding": null, "businessArea": null, "selfRoom": null, "businessTime": null, "stall": null, "consume": null, "serviceFei": null, "favourable": null, "shopMemo": null, "appraise": null, "website": null, "memo": null, "payTypes": "\u6749\u5fb7\u5361", "shopTypes": "\u9910\u996e", "consumeTypes": null, "cookTypes": null, "orderNum": 1000, "card4no": null, "card4noAcc": null, "district2": 411, "searchScope": null, "status": 1, "address": "\u58a8\u7389\u5357\u8def1033\u53f7201\u5ba4", "name": "\u5c0f\u5357\u56fd \u5b89\u4ead\u5e97", "id": 199166, "pageNo": 0, "pageCount": null, "pageSize": 10, "ids": null, "endTime": null, "startTime": null}, {"cardNumFive": null, "isSupportYj": null, "cityName": null, "districtName": null, "shopinfo": {"mid": "888002158122794", "good_flag": null, "new_flag": null, "short_name": "\u5c0f\u5357\u56fd", "short_name_pinyin": "xiaonanguo", "status": null, "address": null, "name": null, "id": "43644"}, "mid": "888002158122794", "shopId": "43644", "netid": null, "province": 901, "district": 601, "zipcode": null, "telephone": null, "posDate": null, "destineTel": null, "togoTel": null, "trafficWay": null, "signBuilding": null, "businessArea": null, "selfRoom": null, "businessTime": null, "stall": null, "consume": null, "serviceFei": null, "favourable": null, "shopMemo": null, "appraise": null, "website": null, "memo": null, "payTypes": "\u6749\u5fb7\u5361", "shopTypes": "\u9910\u996e", "consumeTypes": null, "cookTypes": null, "orderNum": 1000, "card4no": null, "card4noAcc": null, "district2": 401, "searchScope": null, "status": 1, "address": "\u6dee\u6d77\u4e2d\u8def939\u53f7\u5df4\u9ece\u6625\u59296\u5c42(\u6dee\u6d77\u4e2d\u8def\u5df4\u9ece\u6625\u5929)", "name": "\u5c0f\u5357\u56fd \u6dee\u6d77\u8def\u5e97", "id": 199167, "pageNo": 0, "pageCount": null, "pageSize": 10, "ids": null, "endTime": null, "startTime": null}, {"cardNumFive": null, "isSupportYj": null, "cityName": null, "districtName": null, "shopinfo": {"mid": "888002158122795", "good_flag": null, "new_flag": null, "short_name": "\u5c0f\u5357\u56fd", "short_name_pinyin": "xiaonanguo", "status": null, "address": null, "name": null, "id": "43645"}, "mid": "888002158122795", "shopId": "43645", "netid": null, "province": 901, "district": 601, "zipcode": null, "telephone": null, "posDate": null, "destineTel": null, "togoTel": null, "trafficWay": null, "signBuilding": null, "businessArea": null, "selfRoom": null, "businessTime": null, "stall": null, "consume": null, "serviceFei": null, "favourable": null, "shopMemo": null, "appraise": null, "website": null, "memo": null, "payTypes": "\u6749\u5fb7\u5361", "shopTypes": "\u9910\u996e", "consumeTypes": null, "cookTypes": null, "orderNum": 1000, "card4no": null, "card4noAcc": null, "district2": 401, "searchScope": null, "status": 1, "address": "\u65b0\u5929\u5730\u5317\u91cc(\u592a\u4ed3\u8def181\u5f0416\u53f701a,01d\u5355\u5143)", "name": "\u5c0f\u5357\u56fd Wolfgang Puck", "id": 199168, "pageNo": 0, "pageCount": null, "pageSize": 10, "ids": null, "endTime": null, "startTime": null}, {"cardNumFive": null, "isSupportYj": null, "cityName": null, "districtName": null, "shopinfo": {"mid": "888002158122796", "good_flag": null, "new_flag": null, "short_name": "\u5c0f\u5357\u56fd", "short_name_pinyin": "xiaonanguo", "status": null, "address": null, "name": null, "id": "43646"}, "mid": "888002158122796", "shopId": "43646", "netid": null, "province": 901, "district": 601, "zipcode": null, "telephone": null, "posDate": null, "destineTel": null, "togoTel": null, "trafficWay": null, "signBuilding": null, "businessArea": null, "selfRoom": null, "businessTime": null, "stall": null, "consume": null, "serviceFei": null, "favourable": null, "shopMemo": null, "appraise": null, "website": null, "memo": null, "payTypes": "\u6749\u5fb7\u5361", "shopTypes": "\u9910\u996e", "consumeTypes": null, "cookTypes": null, "orderNum": 1000, "card4no": null, "card4noAcc": null, "district2": 401, "searchScope": null, "status": 1, "address": "\u592a\u4ed3\u8def181\u5f04\u65b0\u5929\u5730\u5317\u91cc16\u53f7", "name": "\u5c0f\u5357\u56fd Oreno", "id": 199169, "pageNo": 0, "pageCount": null, "pageSize": 10, "ids": null, "endTime": null, "startTime": null}, {"cardNumFive": null, "isSupportYj": null, "cityName": null, "districtName": null, "shopinfo": {"mid": "888888858120367", "good_flag": "2", "new_flag": "2", "short_name": "\u5c0f\u7ecd\u5174", "short_name_pinyin": "xiaoshaoxing", "status": null, "address": null, "name": null, "id": "33761"}, "mid": "888888858120367", "shopId": "33761", "netid": null, "province": 901, "district": 601, "zipcode": null, "telephone": "63281826", "posDate": null, "destineTel": null, "togoTel": null, "trafficWay": null, "signBuilding": null, "businessArea": null, "selfRoom": null, "businessTime": null, "stall": null, "consume": null, "serviceFei": null, "favourable": null, "shopMemo": null, "appraise": null, "website": null, "memo": null, "payTypes": ",\u6749\u5fb7\u5361", "shopTypes": "\u9910\u996e", "consumeTypes": null, "cookTypes": null, "orderNum": 1000, "card4no": null, "card4noAcc": null, "district2": 401, "searchScope": null, "status": 1, "address": "\u4e91\u5357\u5357\u8def75\u53f7", "name": "\u5c0f\u7ecd\u5174 \u4e91\u5357\u5357\u8def\u5927\u9152\u5e97", "id": 143894, "pageNo": 0, "pageCount": null, "pageSize": 10, "ids": null, "endTime": null, "startTime": null}, {"cardNumFive": null, "isSupportYj": null, "cityName": null, "districtName": null, "shopinfo": {"mid": "888888858120125", "good_flag": "2", "new_flag": "2", "short_name": "\u590f\u5473\u9986", "short_name_pinyin": "xiaweiguan", "status": null, "address": null, "name": null, "id": "33714"}, "mid": "888888858120125", "shopId": "33714", "netid": null, "province": 901, "district": 601, "zipcode": "200050", "telephone": "62120617", "posDate": "20070321", "destineTel": null, "togoTel": null, "trafficWay": "\u516c\u4ea4845 96", "signBuilding": "\u4e0a\u6d77\u5f71\u57ce", "businessArea": null, "selfRoom": "\u6709", "businessTime": null, "stall": null, "consume": "200\u5143", "serviceFei": null, "favourable": null, "shopMemo": "\u7cd6\u918b\u5c0f\u6392 \u54c6?\u54aa \u51b0\u7cd6\u7532\u9c7c \u7ea2\u70e7\u8089", "appraise": null, "website": null, "memo": null, "payTypes": "\u6749\u5fb7\u5361", "shopTypes": "\u9910\u996e", "consumeTypes": "\u597d\u53cb\u5c0f\u805a \u4f11\u95f2\u5c31\u9910", "cookTypes": null, "orderNum": 1000, "card4no": null, "card4noAcc": null, "district2": 406, "searchScope": null, "status": 1, "address": "\u9547\u5b81\u8def9\u53f71\u697c103", "name": "\u590f\u5473\u9986 \u9547\u5b81\u5e97", "id": 143731, "pageNo": 0, "pageCount": null, "pageSize": 10, "ids": null, "endTime": null, "startTime": null}], "pageLimit": 9450, "size": 10}