{"pageCount": 1095, "count": 10942, "pageNo": 968, "subShopInfo": {"cardNumFive": "", "isSupportYj": "", "cityName": null, "districtName": null, "shopinfo": {"mid": null, "good_flag": null, "new_flag": null, "short_name": null, "short_name_pinyin": null, "status": null, "address": "", "name": "", "id": null}, "mid": null, "shopId": null, "netid": null, "province": 901, "district": null, "zipcode": null, "telephone": null, "posDate": null, "destineTel": null, "togoTel": null, "trafficWay": null, "signBuilding": null, "businessArea": null, "selfRoom": null, "businessTime": null, "stall": null, "consume": null, "serviceFei": null, "favourable": null, "shopMemo": "1", "appraise": null, "website": null, "memo": null, "payTypes": "", "shopTypes": "", "consumeTypes": null, "cookTypes": null, "orderNum": null, "card4no": null, "card4noAcc": null, "district2": null, "searchScope": null, "status": null, "address": "", "name": null, "id": null, "pageNo": 967, "pageCount": null, "pageSize": 10, "ids": null, "endTime": null, "startTime": null}, "list": [{"cardNumFive": null, "isSupportYj": null, "cityName": null, "districtName": null, "shopinfo": {"mid": "888002154510001", "good_flag": "2", "new_flag": "2", "short_name": "\u661f\u5df4\u514b", "short_name_pinyin": "xingbake", "status": null, "address": null, "name": null, "id": "454317286832996352"}, "mid": "888002154510001", "shopId": "454317286832996352", "netid": null, "province": 901, "district": 601, "zipcode": null, "telephone": null, "posDate": null, "destineTel": null, "togoTel": null, "trafficWay": null, "signBuilding": null, "businessArea": null, "selfRoom": null, "businessTime": null, "stall": null, "consume": null, "serviceFei": null, "favourable": null, "shopMemo": null, "appraise": null, "website": null, "memo": null, "payTypes": "\u6749\u5fb7\u5361", "shopTypes": "\u9910\u996e", "consumeTypes": null, "cookTypes": null, "orderNum": 1000, "card4no": null, "card4noAcc": null, "district2": 418, "searchScope": null, "status": 1, "address": "\u6d66\u4e1c\u5357\u8def1138\u53f7", "name": "\u661f\u5df4\u514b \u4e0a\u6d77\u6e7e\u5e97", "id": 172390, "pageNo": 0, "pageCount": null, "pageSize": 10, "ids": null, "endTime": null, "startTime": null}, {"cardNumFive": null, "isSupportYj": null, "cityName": null, "districtName": null, "shopinfo": {"mid": "888002154510001", "good_flag": "2", "new_flag": "2", "short_name": "\u661f\u5df4\u514b", "short_name_pinyin": "xingbake", "status": null, "address": null, "name": null, "id": "454317286832996352"}, "mid": "888002154510001", "shopId": "454317286832996352", "netid": null, "province": 901, "district": 601, "zipcode": null, "telephone": null, "posDate": null, "destineTel": null, "togoTel": null, "trafficWay": null, "signBuilding": null, "businessArea": null, "selfRoom": null, "businessTime": null, "stall": null, "consume": null, "serviceFei": null, "favourable": null, "shopMemo": null, "appraise": null, "website": null, "memo": null, "payTypes": "\u6749\u5fb7\u5361", "shopTypes": "\u9910\u996e", "consumeTypes": null, "cookTypes": null, "orderNum": 1000, "card4no": null, "card4noAcc": null, "district2": 408, "searchScope": null, "status": 1, "address": "\u4e1c\u5927\u540d\u8def358\u53f71\u697c", "name": "\u661f\u5df4\u514b \u56fd\u9645\u6e2f\u52a1\u5927\u53a6\u5e97", "id": 173073, "pageNo": 0, "pageCount": null, "pageSize": 10, "ids": null, "endTime": null, "startTime": null}, {"cardNumFive": null, "isSupportYj": null, "cityName": null, "districtName": null, "shopinfo": {"mid": "888002154510001", "good_flag": "2", "new_flag": "2", "short_name": "\u661f\u5df4\u514b", "short_name_pinyin": "xingbake", "status": null, "address": null, "name": null, "id": "454317286832996352"}, "mid": "888002154510001", "shopId": "454317286832996352", "netid": null, "province": 901, "district": 601, "zipcode": null, "telephone": "50871017", "posDate": null, "destineTel": null, "togoTel": null, "trafficWay": null, "signBuilding": null, "businessArea": null, "selfRoom": null, "businessTime": null, "stall": null, "consume": null, "serviceFei": null, "favourable": null, "shopMemo": null, "appraise": null, "website": null, "memo": null, "payTypes": "\u6749\u5fb7\u5361", "shopTypes": "\u9910\u996e", "consumeTypes": null, "cookTypes": null, "orderNum": 1000, "card4no": null, "card4noAcc": null, "district2": 409, "searchScope": null, "status": 1, "address": "\u6caa\u5357\u8def2420\u53f71\u697c", "name": "\u661f\u5df4\u514b \u4e1c\u90ca\u767e\u8054\u5e97", "id": 173074, "pageNo": 0, "pageCount": null, "pageSize": 10, "ids": null, "endTime": null, "startTime": null}, {"cardNumFive": null, "isSupportYj": null, "cityName": null, "districtName": null, "shopinfo": {"mid": "888002154510001", "good_flag": "2", "new_flag": "2", "short_name": "\u661f\u5df4\u514b", "short_name_pinyin": "xingbake", "status": null, "address": null, "name": null, "id": "454317286832996352"}, "mid": "888002154510001", "shopId": "454317286832996352", "netid": null, "province": 901, "district": 601, "zipcode": null, "telephone": null, "posDate": null, "destineTel": null, "togoTel": null, "trafficWay": null, "signBuilding": null, "businessArea": null, "selfRoom": null, "businessTime": null, "stall": null, "consume": null, "serviceFei": null, "favourable": null, "shopMemo": null, "appraise": null, "website": null, "memo": null, "payTypes": "\u6749\u5fb7\u5361", "shopTypes": "\u9910\u996e", "consumeTypes": null, "cookTypes": null, "orderNum": 1000, "card4no": null, "card4noAcc": null, "district2": 418, "searchScope": null, "status": 1, "address": "\u5730\u94c1\u4e8c\u53f7\u7ebf\u79d1\u6280\u9986\u7ad93\u53f7\u51fa\u53e3", "name": "\u661f\u5df4\u514b \u4e0a\u6d77\u79d1\u6280\u9986\u7ad9\u5e97", "id": 173075, "pageNo": 0, "pageCount": null, "pageSize": 10, "ids": null, "endTime": null, "startTime": null}, {"cardNumFive": null, "isSupportYj": null, "cityName": null, "districtName": null, "shopinfo": {"mid": "888002154510001", "good_flag": "2", "new_flag": "2", "short_name": "\u661f\u5df4\u514b", "short_name_pinyin": "xingbake", "status": null, "address": null, "name": null, "id": "454317286832996352"}, "mid": "888002154510001", "shopId": "454317286832996352", "netid": null, "province": 901, "district": 601, "zipcode": null, "telephone": "59961015", "posDate": null, "destineTel": null, "togoTel": null, "trafficWay": null, "signBuilding": null, "businessArea": null, "selfRoom": null, "businessTime": null, "stall": null, "consume": null, "serviceFei": null, "favourable": null, "shopMemo": null, "appraise": null, "website": null, "memo": null, "payTypes": "\u6749\u5fb7\u5361", "shopTypes": "\u9910\u996e", "consumeTypes": null, "cookTypes": null, "orderNum": 1000, "card4no": null, "card4noAcc": null, "district2": 411, "searchScope": null, "status": 1, "address": "\u4f73\u901a\u8def31\u5f043\u53f7", "name": "\u661f\u5df4\u514b \u7965\u817e\u5e7f\u573a\u5e97", "id": 173076, "pageNo": 0, "pageCount": null, "pageSize": 10, "ids": null, "endTime": null, "startTime": null}, {"cardNumFive": null, "isSupportYj": null, "cityName": null, "districtName": null, "shopinfo": {"mid": "888002154510001", "good_flag": "2", "new_flag": "2", "short_name": "\u661f\u5df4\u514b", "short_name_pinyin": "xingbake", "status": null, "address": null, "name": null, "id": "454317286832996352"}, "mid": "888002154510001", "shopId": "454317286832996352", "netid": null, "province": 901, "district": 601, "zipcode": null, "telephone": "57181250", "posDate": null, "destineTel": null, "togoTel": null, "trafficWay": null, "signBuilding": null, "businessArea": null, "selfRoom": null, "businessTime": null, "stall": null, "consume": null, "serviceFei": null, "favourable": null, "shopMemo": null, "appraise": null, "website": null, "memo": null, "payTypes": "\u6749\u5fb7\u5361", "shopTypes": "\u9910\u996e", "consumeTypes": null, "cookTypes": null, "orderNum": 1000, "card4no": null, "card4noAcc": null, "district2": 413, "searchScope": null, "status": 1, "address": "\u767e\u9f50\u8def588\u53f71\u697c", "name": "\u661f\u5df4\u514b \u5357\u6865\u767e\u8054\u5e97", "id": 173077, "pageNo": 0, "pageCount": null, "pageSize": 10, "ids": null, "endTime": null, "startTime": null}, {"cardNumFive": null, "isSupportYj": null, "cityName": null, "districtName": null, "shopinfo": {"mid": "888002154510001", "good_flag": "2", "new_flag": "2", "short_name": "\u661f\u5df4\u514b", "short_name_pinyin": "xingbake", "status": null, "address": null, "name": null, "id": "454317286832996352"}, "mid": "888002154510001", "shopId": "454317286832996352", "netid": null, "province": 901, "district": 601, "zipcode": null, "telephone": null, "posDate": null, "destineTel": null, "togoTel": null, "trafficWay": null, "signBuilding": null, "businessArea": null, "selfRoom": null, "businessTime": null, "stall": null, "consume": null, "serviceFei": null, "favourable": null, "shopMemo": null, "appraise": null, "website": null, "memo": null, "payTypes": "\u6749\u5fb7\u5361", "shopTypes": "\u9910\u996e", "consumeTypes": null, "cookTypes": null, "orderNum": 1000, "card4no": null, "card4noAcc": null, "district2": 410, "searchScope": null, "status": 1, "address": "\u5b9d\u5c71\u8def202\u53f7", "name": "\u661f\u5df4\u514b \u5b9d\u5c71\u8def\u5e97", "id": 173078, "pageNo": 0, "pageCount": null, "pageSize": 10, "ids": null, "endTime": null, "startTime": null}, {"cardNumFive": null, "isSupportYj": null, "cityName": null, "districtName": null, "shopinfo": {"mid": "888002154510001", "good_flag": "2", "new_flag": "2", "short_name": "\u661f\u5df4\u514b", "short_name_pinyin": "xingbake", "status": null, "address": null, "name": null, "id": "454317286832996352"}, "mid": "888002154510001", "shopId": "454317286832996352", "netid": null, "province": 901, "district": 601, "zipcode": null, "telephone": null, "posDate": null, "destineTel": null, "togoTel": null, "trafficWay": null, "signBuilding": null, "businessArea": null, "selfRoom": null, "businessTime": null, "stall": null, "consume": null, "serviceFei": null, "favourable": null, "shopMemo": null, "appraise": null, "website": null, "memo": null, "payTypes": "\u6749\u5fb7\u5361", "shopTypes": "\u9910\u996e", "consumeTypes": null, "cookTypes": null, "orderNum": 1000, "card4no": null, "card4noAcc": null, "district2": 405, "searchScope": null, "status": 1, "address": "\u7941\u8fde\u5c71\u5357\u8def619\u53f7", "name": "\u661f\u5df4\u514b \u91d1\u6c99\u5e7f\u573a\u5e97", "id": 173079, "pageNo": 0, "pageCount": null, "pageSize": 10, "ids": null, "endTime": null, "startTime": null}, {"cardNumFive": null, "isSupportYj": null, "cityName": null, "districtName": null, "shopinfo": {"mid": "888002154510001", "good_flag": "2", "new_flag": "2", "short_name": "\u661f\u5df4\u514b", "short_name_pinyin": "xingbake", "status": null, "address": null, "name": null, "id": "454317286832996352"}, "mid": "888002154510001", "shopId": "454317286832996352", "netid": null, "province": 901, "district": 601, "zipcode": null, "telephone": null, "posDate": null, "destineTel": null, "togoTel": null, "trafficWay": null, "signBuilding": null, "businessArea": null, "selfRoom": null, "businessTime": null, "stall": null, "consume": null, "serviceFei": null, "favourable": null, "shopMemo": null, "appraise": null, "website": null, "memo": null, "payTypes": "\u6749\u5fb7\u5361", "shopTypes": "\u9910\u996e", "consumeTypes": null, "cookTypes": null, "orderNum": 1000, "card4no": null, "card4noAcc": null, "district2": 401, "searchScope": null, "status": 1, "address": "\u5357\u4eac\u4e1c\u8def800\u53f7", "name": "\u661f\u5df4\u514b \u516d\u5408\u8def\u5e97", "id": 173080, "pageNo": 0, "pageCount": null, "pageSize": 10, "ids": null, "endTime": null, "startTime": null}, {"cardNumFive": null, "isSupportYj": null, "cityName": null, "districtName": null, "shopinfo": {"mid": "888002154510001", "good_flag": "2", "new_flag": "2", "short_name": "\u661f\u5df4\u514b", "short_name_pinyin": "xingbake", "status": null, "address": null, "name": null, "id": "454317286832996352"}, "mid": "888002154510001", "shopId": "454317286832996352", "netid": null, "province": 901, "district": 601, "zipcode": null, "telephone": "50713213", "posDate": null, "destineTel": null, "togoTel": null, "trafficWay": null, "signBuilding": null, "businessArea": null, "selfRoom": null, "businessTime": null, "stall": null, "consume": null, "serviceFei": null, "favourable": null, "shopMemo": null, "appraise": null, "website": null, "memo": null, "payTypes": "\u6749\u5fb7\u5361", "shopTypes": "\u9910\u996e", "consumeTypes": null, "cookTypes": null, "orderNum": 1000, "card4no": null, "card4noAcc": null, "district2": 418, "searchScope": null, "status": 1, "address": "\u4e1c\u65b9\u8def1217\u53f71\u697c", "name": "\u661f\u5df4\u514b \u9646\u5bb6\u5634\u8f6f\u4ef6\u56ed2\u5e97", "id": 173081, "pageNo": 0, "pageCount": null, "pageSize": 10, "ids": null, "endTime": null, "startTime": null}], "pageLimit": 9670, "size": 10}