{"pageCount": 1095, "count": 10942, "pageNo": 985, "subShopInfo": {"cardNumFive": "", "isSupportYj": "", "cityName": null, "districtName": null, "shopinfo": {"mid": null, "good_flag": null, "new_flag": null, "short_name": null, "short_name_pinyin": null, "status": null, "address": "", "name": "", "id": null}, "mid": null, "shopId": null, "netid": null, "province": 901, "district": null, "zipcode": null, "telephone": null, "posDate": null, "destineTel": null, "togoTel": null, "trafficWay": null, "signBuilding": null, "businessArea": null, "selfRoom": null, "businessTime": null, "stall": null, "consume": null, "serviceFei": null, "favourable": null, "shopMemo": "1", "appraise": null, "website": null, "memo": null, "payTypes": "", "shopTypes": "", "consumeTypes": null, "cookTypes": null, "orderNum": null, "card4no": null, "card4noAcc": null, "district2": null, "searchScope": null, "status": null, "address": "", "name": null, "id": null, "pageNo": 984, "pageCount": null, "pageSize": 10, "ids": null, "endTime": null, "startTime": null}, "list": [{"cardNumFive": null, "isSupportYj": null, "cityName": null, "districtName": null, "shopinfo": {"mid": "888002154510001", "good_flag": "2", "new_flag": "2", "short_name": "\u661f\u5df4\u514b", "short_name_pinyin": "xingbake", "status": null, "address": null, "name": null, "id": "454317286832996352"}, "mid": "888002154510001", "shopId": "454317286832996352", "netid": null, "province": 901, "district": 601, "zipcode": null, "telephone": null, "posDate": null, "destineTel": null, "togoTel": null, "trafficWay": null, "signBuilding": null, "businessArea": null, "selfRoom": null, "businessTime": null, "stall": null, "consume": null, "serviceFei": null, "favourable": null, "shopMemo": null, "appraise": null, "website": null, "memo": null, "payTypes": "\u6749\u5fb7\u5361", "shopTypes": "\u9910\u996e", "consumeTypes": null, "cookTypes": null, "orderNum": 1000, "card4no": null, "card4noAcc": null, "district2": 406, "searchScope": null, "status": 1, "address": "\u5929\u5c71\u897f\u8def138\u53f71\u697c35\u5ba4", "name": "\u661f\u5df4\u514b \u5317\u65b0\u6cfe\u5e97", "id": 194537, "pageNo": 0, "pageCount": null, "pageSize": 10, "ids": null, "endTime": null, "startTime": null}, {"cardNumFive": null, "isSupportYj": null, "cityName": null, "districtName": null, "shopinfo": {"mid": "888002154510001", "good_flag": "2", "new_flag": "2", "short_name": "\u661f\u5df4\u514b", "short_name_pinyin": "xingbake", "status": null, "address": null, "name": null, "id": "454317286832996352"}, "mid": "888002154510001", "shopId": "454317286832996352", "netid": null, "province": 901, "district": 601, "zipcode": null, "telephone": null, "posDate": null, "destineTel": null, "togoTel": null, "trafficWay": null, "signBuilding": null, "businessArea": null, "selfRoom": null, "businessTime": null, "stall": null, "consume": null, "serviceFei": null, "favourable": null, "shopMemo": null, "appraise": null, "website": null, "memo": null, "payTypes": "\u6749\u5fb7\u5361", "shopTypes": "\u9910\u996e", "consumeTypes": null, "cookTypes": null, "orderNum": 1000, "card4no": null, "card4noAcc": null, "district2": 411, "searchScope": null, "status": 1, "address": "\u4e8e\u7530\u8def7\u53f72\u53f7\u697c1F-1\u5355\u5143", "name": "\u661f\u5df4\u514b \u5927\u4f17\u6c7d\u8f66\u603b\u90e8\u5e97", "id": 195226, "pageNo": 0, "pageCount": null, "pageSize": 10, "ids": null, "endTime": null, "startTime": null}, {"cardNumFive": null, "isSupportYj": null, "cityName": null, "districtName": null, "shopinfo": {"mid": "888002154510001", "good_flag": "2", "new_flag": "2", "short_name": "\u661f\u5df4\u514b", "short_name_pinyin": "xingbake", "status": null, "address": null, "name": null, "id": "454317286832996352"}, "mid": "888002154510001", "shopId": "454317286832996352", "netid": null, "province": 901, "district": 601, "zipcode": null, "telephone": null, "posDate": null, "destineTel": null, "togoTel": null, "trafficWay": null, "signBuilding": null, "businessArea": null, "selfRoom": null, "businessTime": null, "stall": null, "consume": null, "serviceFei": null, "favourable": null, "shopMemo": null, "appraise": null, "website": null, "memo": null, "payTypes": "\u6749\u5fb7\u5361", "shopTypes": "\u9910\u996e", "consumeTypes": null, "cookTypes": null, "orderNum": 1000, "card4no": null, "card4noAcc": null, "district2": 416, "searchScope": null, "status": 1, "address": "\u6c5f\u573a\u4e8c\u8def77\u300179\u53f7", "name": "\u661f\u5df4\u514b \u6c5f\u573a\u4e8c\u8def\u5e97", "id": 195232, "pageNo": 0, "pageCount": null, "pageSize": 10, "ids": null, "endTime": null, "startTime": null}, {"cardNumFive": null, "isSupportYj": null, "cityName": null, "districtName": null, "shopinfo": {"mid": "888002154510001", "good_flag": "2", "new_flag": "2", "short_name": "\u661f\u5df4\u514b", "short_name_pinyin": "xingbake", "status": null, "address": null, "name": null, "id": "454317286832996352"}, "mid": "888002154510001", "shopId": "454317286832996352", "netid": null, "province": 901, "district": 601, "zipcode": null, "telephone": null, "posDate": null, "destineTel": null, "togoTel": null, "trafficWay": null, "signBuilding": null, "businessArea": null, "selfRoom": null, "businessTime": null, "stall": null, "consume": null, "serviceFei": null, "favourable": null, "shopMemo": null, "appraise": null, "website": null, "memo": null, "payTypes": "\u6749\u5fb7\u5361", "shopTypes": "\u9910\u996e", "consumeTypes": null, "cookTypes": null, "orderNum": 1000, "card4no": null, "card4noAcc": null, "district2": 418, "searchScope": null, "status": 1, "address": "\u5fa1\u6865\u8def1949\u53f71\u5c42106\u5355\u5143", "name": "\u661f\u5df4\u514b \u5730\u6770\u56fd\u9645\u57ce\u5e97", "id": 195262, "pageNo": 0, "pageCount": null, "pageSize": 10, "ids": null, "endTime": null, "startTime": null}, {"cardNumFive": null, "isSupportYj": null, "cityName": null, "districtName": null, "shopinfo": {"mid": "888002154510001", "good_flag": "2", "new_flag": "2", "short_name": "\u661f\u5df4\u514b", "short_name_pinyin": "xingbake", "status": null, "address": null, "name": null, "id": "454317286832996352"}, "mid": "888002154510001", "shopId": "454317286832996352", "netid": null, "province": 901, "district": 601, "zipcode": null, "telephone": null, "posDate": null, "destineTel": null, "togoTel": null, "trafficWay": null, "signBuilding": null, "businessArea": null, "selfRoom": null, "businessTime": null, "stall": null, "consume": null, "serviceFei": null, "favourable": null, "shopMemo": null, "appraise": null, "website": null, "memo": null, "payTypes": "\u6749\u5fb7\u5361", "shopTypes": "\u9910\u996e", "consumeTypes": null, "cookTypes": null, "orderNum": 1000, "card4no": null, "card4noAcc": null, "district2": 408, "searchScope": null, "status": 1, "address": "\u4e1c\u5b9d\u5174\u8def777\u53f7\u4e16\u7eaa\u8054\u534e1\u5c421017F01002\u5355\u5143", "name": "\u661f\u5df4\u514b \u4e1c\u5b9d\u5174\u8def\u5e97", "id": 195263, "pageNo": 0, "pageCount": null, "pageSize": 10, "ids": null, "endTime": null, "startTime": null}, {"cardNumFive": null, "isSupportYj": null, "cityName": null, "districtName": null, "shopinfo": {"mid": "888002154510001", "good_flag": "2", "new_flag": "2", "short_name": "\u661f\u5df4\u514b", "short_name_pinyin": "xingbake", "status": null, "address": null, "name": null, "id": "454317286832996352"}, "mid": "888002154510001", "shopId": "454317286832996352", "netid": null, "province": 901, "district": 601, "zipcode": null, "telephone": null, "posDate": null, "destineTel": null, "togoTel": null, "trafficWay": null, "signBuilding": null, "businessArea": null, "selfRoom": null, "businessTime": null, "stall": null, "consume": null, "serviceFei": null, "favourable": null, "shopMemo": null, "appraise": null, "website": null, "memo": null, "payTypes": "\u6749\u5fb7\u5361", "shopTypes": "\u9910\u996e", "consumeTypes": null, "cookTypes": null, "orderNum": 1000, "card4no": null, "card4noAcc": null, "district2": 407, "searchScope": null, "status": 1, "address": "\u9686\u660c\u8def586\u53f7", "name": "\u661f\u5df4\u514b \u590d\u65e6\u8f6f\u4ef6\u56ed\u5e97", "id": 195276, "pageNo": 0, "pageCount": null, "pageSize": 10, "ids": null, "endTime": null, "startTime": null}, {"cardNumFive": null, "isSupportYj": null, "cityName": null, "districtName": null, "shopinfo": {"mid": "888002154510001", "good_flag": "2", "new_flag": "2", "short_name": "\u661f\u5df4\u514b", "short_name_pinyin": "xingbake", "status": null, "address": null, "name": null, "id": "454317286832996352"}, "mid": "888002154510001", "shopId": "454317286832996352", "netid": null, "province": 901, "district": 601, "zipcode": null, "telephone": null, "posDate": null, "destineTel": null, "togoTel": null, "trafficWay": null, "signBuilding": null, "businessArea": null, "selfRoom": null, "businessTime": null, "stall": null, "consume": null, "serviceFei": null, "favourable": null, "shopMemo": null, "appraise": null, "website": null, "memo": null, "payTypes": "\u6749\u5fb7\u5361", "shopTypes": "\u9910\u996e", "consumeTypes": null, "cookTypes": null, "orderNum": 1000, "card4no": null, "card4noAcc": null, "district2": 418, "searchScope": null, "status": 1, "address": "\u7533\u8fea\u897f\u8def255\u5f04218\u53f71\u697c", "name": "\u661f\u5df4\u514b \u8fea\u58eb\u5c3cPAB\u5199\u5b57\u697c\u5e97", "id": 195278, "pageNo": 0, "pageCount": null, "pageSize": 10, "ids": null, "endTime": null, "startTime": null}, {"cardNumFive": null, "isSupportYj": null, "cityName": null, "districtName": null, "shopinfo": {"mid": "888002154510001", "good_flag": "2", "new_flag": "2", "short_name": "\u661f\u5df4\u514b", "short_name_pinyin": "xingbake", "status": null, "address": null, "name": null, "id": "454317286832996352"}, "mid": "888002154510001", "shopId": "454317286832996352", "netid": null, "province": 901, "district": 601, "zipcode": null, "telephone": null, "posDate": null, "destineTel": null, "togoTel": null, "trafficWay": null, "signBuilding": null, "businessArea": null, "selfRoom": null, "businessTime": null, "stall": null, "consume": null, "serviceFei": null, "favourable": null, "shopMemo": null, "appraise": null, "website": null, "memo": null, "payTypes": "\u6749\u5fb7\u5361", "shopTypes": "\u9910\u996e", "consumeTypes": null, "cookTypes": null, "orderNum": 1000, "card4no": null, "card4noAcc": null, "district2": 414, "searchScope": null, "status": 1, "address": "\u9f99\u7693\u8def1088\u53f7\u91d1\u5c71\u4e07\u8fbe\u5e7f\u573a1\u5c421002\u94fa\u4f4d", "name": "\u661f\u5df4\u514b \u91d1\u5c71\u4e07\u8fbe\u5e97", "id": 195280, "pageNo": 0, "pageCount": null, "pageSize": 10, "ids": null, "endTime": null, "startTime": null}, {"cardNumFive": null, "isSupportYj": null, "cityName": null, "districtName": null, "shopinfo": {"mid": "888002154510001", "good_flag": "2", "new_flag": "2", "short_name": "\u661f\u5df4\u514b", "short_name_pinyin": "xingbake", "status": null, "address": null, "name": null, "id": "454317286832996352"}, "mid": "888002154510001", "shopId": "454317286832996352", "netid": null, "province": 901, "district": 601, "zipcode": null, "telephone": null, "posDate": null, "destineTel": null, "togoTel": null, "trafficWay": null, "signBuilding": null, "businessArea": null, "selfRoom": null, "businessTime": null, "stall": null, "consume": null, "serviceFei": null, "favourable": null, "shopMemo": null, "appraise": null, "website": null, "memo": null, "payTypes": "\u6749\u5fb7\u5361", "shopTypes": "\u9910\u996e", "consumeTypes": null, "cookTypes": null, "orderNum": 1000, "card4no": null, "card4noAcc": null, "district2": 416, "searchScope": null, "status": 1, "address": "\u5b9d\u6768\u8def1\u53f7\u5ba2\u8fd0\u5927\u697c1F", "name": "\u661f\u5df4\u514b \u5434\u6dde\u53e3\u56fd\u9645\u90ae\u8f6e\u6e2f\u5e97", "id": 195281, "pageNo": 0, "pageCount": null, "pageSize": 10, "ids": null, "endTime": null, "startTime": null}, {"cardNumFive": null, "isSupportYj": null, "cityName": null, "districtName": null, "shopinfo": {"mid": "888002154510001", "good_flag": "2", "new_flag": "2", "short_name": "\u661f\u5df4\u514b", "short_name_pinyin": "xingbake", "status": null, "address": null, "name": null, "id": "454317286832996352"}, "mid": "888002154510001", "shopId": "454317286832996352", "netid": null, "province": 901, "district": 601, "zipcode": null, "telephone": null, "posDate": null, "destineTel": null, "togoTel": null, "trafficWay": null, "signBuilding": null, "businessArea": null, "selfRoom": null, "businessTime": null, "stall": null, "consume": null, "serviceFei": null, "favourable": null, "shopMemo": null, "appraise": null, "website": null, "memo": null, "payTypes": "\u6749\u5fb7\u5361", "shopTypes": "\u9910\u996e", "consumeTypes": null, "cookTypes": null, "orderNum": 1000, "card4no": null, "card4noAcc": null, "district2": 405, "searchScope": null, "status": 1, "address": "\u5927\u6e21\u6cb3\u8def196\u53f7204\u5355\u5143", "name": "\u661f\u5df4\u514b \u957f\u98ce\u666f\u7554\u5e7f\u573a2\u5e97", "id": 195282, "pageNo": 0, "pageCount": null, "pageSize": 10, "ids": null, "endTime": null, "startTime": null}], "pageLimit": 9840, "size": 10}