{"pageCount": 1095, "count": 10942, "pageNo": 995, "subShopInfo": {"cardNumFive": "", "isSupportYj": "", "cityName": null, "districtName": null, "shopinfo": {"mid": null, "good_flag": null, "new_flag": null, "short_name": null, "short_name_pinyin": null, "status": null, "address": "", "name": "", "id": null}, "mid": null, "shopId": null, "netid": null, "province": 901, "district": null, "zipcode": null, "telephone": null, "posDate": null, "destineTel": null, "togoTel": null, "trafficWay": null, "signBuilding": null, "businessArea": null, "selfRoom": null, "businessTime": null, "stall": null, "consume": null, "serviceFei": null, "favourable": null, "shopMemo": "1", "appraise": null, "website": null, "memo": null, "payTypes": "", "shopTypes": "", "consumeTypes": null, "cookTypes": null, "orderNum": null, "card4no": null, "card4noAcc": null, "district2": null, "searchScope": null, "status": null, "address": "", "name": null, "id": null, "pageNo": 994, "pageCount": null, "pageSize": 10, "ids": null, "endTime": null, "startTime": null}, "list": [{"cardNumFive": null, "isSupportYj": null, "cityName": null, "districtName": null, "shopinfo": {"mid": "888002154510001", "good_flag": "2", "new_flag": "2", "short_name": "\u661f\u5df4\u514b", "short_name_pinyin": "xingbake", "status": null, "address": null, "name": null, "id": "454317286832996352"}, "mid": "888002154510001", "shopId": "454317286832996352", "netid": null, "province": 901, "district": 601, "zipcode": null, "telephone": null, "posDate": null, "destineTel": null, "togoTel": null, "trafficWay": null, "signBuilding": null, "businessArea": null, "selfRoom": null, "businessTime": null, "stall": null, "consume": null, "serviceFei": null, "favourable": null, "shopMemo": null, "appraise": null, "website": null, "memo": null, "payTypes": "\u6749\u5fb7\u5361", "shopTypes": "\u9910\u996e", "consumeTypes": null, "cookTypes": null, "orderNum": 1000, "card4no": null, "card4noAcc": null, "district2": 401, "searchScope": null, "status": 1, "address": "\u6dee\u6d77\u4e2d\u8def138\u53f7\u4e0a\u6d77\u5e7f\u573a\u5546\u573a\u4e00\u697c106\u5ba4", "name": "\u661f\u5df4\u514b \u4e0a\u6d77\u5e7f\u573a\u5e97", "id": 197836, "pageNo": 0, "pageCount": null, "pageSize": 10, "ids": null, "endTime": null, "startTime": null}, {"cardNumFive": null, "isSupportYj": null, "cityName": null, "districtName": null, "shopinfo": {"mid": "888002154510001", "good_flag": "2", "new_flag": "2", "short_name": "\u661f\u5df4\u514b", "short_name_pinyin": "xingbake", "status": null, "address": null, "name": null, "id": "454317286832996352"}, "mid": "888002154510001", "shopId": "454317286832996352", "netid": null, "province": 901, "district": 601, "zipcode": null, "telephone": null, "posDate": null, "destineTel": null, "togoTel": null, "trafficWay": null, "signBuilding": null, "businessArea": null, "selfRoom": null, "businessTime": null, "stall": null, "consume": null, "serviceFei": null, "favourable": null, "shopMemo": null, "appraise": null, "website": null, "memo": null, "payTypes": "\u6749\u5fb7\u5361", "shopTypes": "\u9910\u996e", "consumeTypes": null, "cookTypes": null, "orderNum": 1000, "card4no": null, "card4noAcc": null, "district2": 414, "searchScope": null, "status": 1, "address": "\u67ab\u6cfe\u9547\u5317\u5927\u8857256\u53f7", "name": "\u661f\u5df4\u514b \u91d1\u5c71\u67ab\u6cfe\u53e4\u9547\u5e97", "id": 197839, "pageNo": 0, "pageCount": null, "pageSize": 10, "ids": null, "endTime": null, "startTime": null}, {"cardNumFive": null, "isSupportYj": null, "cityName": null, "districtName": null, "shopinfo": {"mid": "888002154510001", "good_flag": "2", "new_flag": "2", "short_name": "\u661f\u5df4\u514b", "short_name_pinyin": "xingbake", "status": null, "address": null, "name": null, "id": "454317286832996352"}, "mid": "888002154510001", "shopId": "454317286832996352", "netid": null, "province": 901, "district": 601, "zipcode": null, "telephone": null, "posDate": null, "destineTel": null, "togoTel": null, "trafficWay": null, "signBuilding": null, "businessArea": null, "selfRoom": null, "businessTime": null, "stall": null, "consume": null, "serviceFei": null, "favourable": null, "shopMemo": null, "appraise": null, "website": null, "memo": null, "payTypes": "\u6749\u5fb7\u5361", "shopTypes": "\u9910\u996e", "consumeTypes": null, "cookTypes": null, "orderNum": 1000, "card4no": null, "card4noAcc": null, "district2": 412, "searchScope": null, "status": 1, "address": "\u6587\u8bda\u8def1480\u53f7121-124\u5ba4", "name": "\u661f\u5df4\u514b \u677e\u6c5f\u6cf0\u6664\u58eb\u5c0f\u9547\u5e97", "id": 197841, "pageNo": 0, "pageCount": null, "pageSize": 10, "ids": null, "endTime": null, "startTime": null}, {"cardNumFive": null, "isSupportYj": null, "cityName": null, "districtName": null, "shopinfo": {"mid": "888002154510001", "good_flag": "2", "new_flag": "2", "short_name": "\u661f\u5df4\u514b", "short_name_pinyin": "xingbake", "status": null, "address": null, "name": null, "id": "454317286832996352"}, "mid": "888002154510001", "shopId": "454317286832996352", "netid": null, "province": 901, "district": 601, "zipcode": null, "telephone": null, "posDate": null, "destineTel": null, "togoTel": null, "trafficWay": null, "signBuilding": null, "businessArea": null, "selfRoom": null, "businessTime": null, "stall": null, "consume": null, "serviceFei": null, "favourable": null, "shopMemo": null, "appraise": null, "website": null, "memo": null, "payTypes": "\u6749\u5fb7\u5361", "shopTypes": "\u9910\u996e", "consumeTypes": null, "cookTypes": null, "orderNum": 1000, "card4no": null, "card4noAcc": null, "district2": 418, "searchScope": null, "status": 1, "address": "\u6a31\u82b1\u8def80\u5f041\u53f7", "name": "\u661f\u5df4\u514b \u5bcc\u835f\u5546\u4e1a\u5e7f\u573a\u5e97", "id": 197963, "pageNo": 0, "pageCount": null, "pageSize": 10, "ids": null, "endTime": null, "startTime": null}, {"cardNumFive": null, "isSupportYj": null, "cityName": null, "districtName": null, "shopinfo": {"mid": "888002154510001", "good_flag": "2", "new_flag": "2", "short_name": "\u661f\u5df4\u514b", "short_name_pinyin": "xingbake", "status": null, "address": null, "name": null, "id": "454317286832996352"}, "mid": "888002154510001", "shopId": "454317286832996352", "netid": null, "province": 901, "district": 601, "zipcode": null, "telephone": null, "posDate": null, "destineTel": null, "togoTel": null, "trafficWay": null, "signBuilding": null, "businessArea": null, "selfRoom": null, "businessTime": null, "stall": null, "consume": null, "serviceFei": null, "favourable": null, "shopMemo": null, "appraise": null, "website": null, "memo": null, "payTypes": "\u6749\u5fb7\u5361", "shopTypes": "\u9910\u996e", "consumeTypes": null, "cookTypes": null, "orderNum": 1000, "card4no": null, "card4noAcc": null, "district2": 408, "searchScope": null, "status": 1, "address": "\u682a\u6d32\u8def329\u53f71-2\u5c42", "name": "\u661f\u5df4\u514b \u682a\u6d32\u8def\u5e97", "id": 197965, "pageNo": 0, "pageCount": null, "pageSize": 10, "ids": null, "endTime": null, "startTime": null}, {"cardNumFive": null, "isSupportYj": null, "cityName": null, "districtName": null, "shopinfo": {"mid": "888002154510001", "good_flag": "2", "new_flag": "2", "short_name": "\u661f\u5df4\u514b", "short_name_pinyin": "xingbake", "status": null, "address": null, "name": null, "id": "454317286832996352"}, "mid": "888002154510001", "shopId": "454317286832996352", "netid": null, "province": 901, "district": 601, "zipcode": null, "telephone": null, "posDate": null, "destineTel": null, "togoTel": null, "trafficWay": null, "signBuilding": null, "businessArea": null, "selfRoom": null, "businessTime": null, "stall": null, "consume": null, "serviceFei": null, "favourable": null, "shopMemo": null, "appraise": null, "website": null, "memo": null, "payTypes": "\u6749\u5fb7\u5361", "shopTypes": "\u9910\u996e", "consumeTypes": null, "cookTypes": null, "orderNum": 1000, "card4no": null, "card4noAcc": null, "district2": 403, "searchScope": null, "status": 1, "address": "\u5b9c\u5c71\u8def675-1\u5355\u5143", "name": "\u661f\u5df4\u514b \u5b9c\u5c71\u8def\u5e97", "id": 197974, "pageNo": 0, "pageCount": null, "pageSize": 10, "ids": null, "endTime": null, "startTime": null}, {"cardNumFive": null, "isSupportYj": null, "cityName": null, "districtName": null, "shopinfo": {"mid": "888002154510001", "good_flag": "2", "new_flag": "2", "short_name": "\u661f\u5df4\u514b", "short_name_pinyin": "xingbake", "status": null, "address": null, "name": null, "id": "454317286832996352"}, "mid": "888002154510001", "shopId": "454317286832996352", "netid": null, "province": 901, "district": 601, "zipcode": null, "telephone": null, "posDate": null, "destineTel": null, "togoTel": null, "trafficWay": null, "signBuilding": null, "businessArea": null, "selfRoom": null, "businessTime": null, "stall": null, "consume": null, "serviceFei": null, "favourable": null, "shopMemo": null, "appraise": null, "website": null, "memo": null, "payTypes": "\u6749\u5fb7\u5361", "shopTypes": "\u9910\u996e", "consumeTypes": null, "cookTypes": null, "orderNum": 1000, "card4no": null, "card4noAcc": null, "district2": 404, "searchScope": null, "status": 1, "address": "\u4e07\u8363\u8def777\u5f042\u53f7101\u5ba4", "name": "\u661f\u5df4\u514b \u5927\u5b81\u4e2d\u5fc3\u5e7f\u573a\u5e97", "id": 197976, "pageNo": 0, "pageCount": null, "pageSize": 10, "ids": null, "endTime": null, "startTime": null}, {"cardNumFive": null, "isSupportYj": null, "cityName": null, "districtName": null, "shopinfo": {"mid": "888002154510001", "good_flag": "2", "new_flag": "2", "short_name": "\u661f\u5df4\u514b", "short_name_pinyin": "xingbake", "status": null, "address": null, "name": null, "id": "454317286832996352"}, "mid": "888002154510001", "shopId": "454317286832996352", "netid": null, "province": 901, "district": 601, "zipcode": null, "telephone": null, "posDate": null, "destineTel": null, "togoTel": null, "trafficWay": null, "signBuilding": null, "businessArea": null, "selfRoom": null, "businessTime": null, "stall": null, "consume": null, "serviceFei": null, "favourable": null, "shopMemo": null, "appraise": null, "website": null, "memo": null, "payTypes": "\u6749\u5fb7\u5361", "shopTypes": "\u9910\u996e", "consumeTypes": null, "cookTypes": null, "orderNum": 1000, "card4no": null, "card4noAcc": null, "district2": 418, "searchScope": null, "status": 1, "address": "\u7533\u8fea\u897f\u8def255\u5f04602\u53f7", "name": "\u661f\u5df4\u514b \u8fea\u58eb\u5c3c\u5c0f\u9547\u5e97", "id": 197982, "pageNo": 0, "pageCount": null, "pageSize": 10, "ids": null, "endTime": null, "startTime": null}, {"cardNumFive": null, "isSupportYj": null, "cityName": null, "districtName": null, "shopinfo": {"mid": "888002154510001", "good_flag": "2", "new_flag": "2", "short_name": "\u661f\u5df4\u514b", "short_name_pinyin": "xingbake", "status": null, "address": null, "name": null, "id": "454317286832996352"}, "mid": "888002154510001", "shopId": "454317286832996352", "netid": null, "province": 901, "district": 601, "zipcode": null, "telephone": null, "posDate": null, "destineTel": null, "togoTel": null, "trafficWay": null, "signBuilding": null, "businessArea": null, "selfRoom": null, "businessTime": null, "stall": null, "consume": null, "serviceFei": null, "favourable": null, "shopMemo": null, "appraise": null, "website": null, "memo": null, "payTypes": "\u6749\u5fb7\u5361", "shopTypes": "\u9910\u996e", "consumeTypes": null, "cookTypes": null, "orderNum": 1000, "card4no": null, "card4noAcc": null, "district2": 405, "searchScope": null, "status": 1, "address": "\u5b89\u8fdc\u8def108\u53f71F-01\u5ba4", "name": "\u661f\u5df4\u514b \u5e73\u9ad8\u56fd\u9645\u5e7f\u573a\u5e97", "id": 197983, "pageNo": 0, "pageCount": null, "pageSize": 10, "ids": null, "endTime": null, "startTime": null}, {"cardNumFive": null, "isSupportYj": null, "cityName": null, "districtName": null, "shopinfo": {"mid": "888002154510001", "good_flag": "2", "new_flag": "2", "short_name": "\u661f\u5df4\u514b", "short_name_pinyin": "xingbake", "status": null, "address": null, "name": null, "id": "454317286832996352"}, "mid": "888002154510001", "shopId": "454317286832996352", "netid": null, "province": 901, "district": 601, "zipcode": null, "telephone": null, "posDate": null, "destineTel": null, "togoTel": null, "trafficWay": null, "signBuilding": null, "businessArea": null, "selfRoom": null, "businessTime": null, "stall": null, "consume": null, "serviceFei": null, "favourable": null, "shopMemo": null, "appraise": null, "website": null, "memo": null, "payTypes": "\u6749\u5fb7\u5361", "shopTypes": "\u9910\u996e", "consumeTypes": null, "cookTypes": null, "orderNum": 1000, "card4no": null, "card4noAcc": null, "district2": 411, "searchScope": null, "status": 1, "address": "\u5b9d\u5b89\u516c\u8def3386\u53f7131\u5ba4", "name": "\u661f\u5df4\u514b \u5609\u5b9a\u5927\u878d\u57ce\u5e97", "id": 197993, "pageNo": 0, "pageCount": null, "pageSize": 10, "ids": null, "endTime": null, "startTime": null}], "pageLimit": 9940, "size": 10}