{"pageCount": 1095, "count": 10942, "pageNo": 1001, "subShopInfo": {"cardNumFive": "", "isSupportYj": "", "cityName": null, "districtName": null, "shopinfo": {"mid": null, "good_flag": null, "new_flag": null, "short_name": null, "short_name_pinyin": null, "status": null, "address": "", "name": "", "id": null}, "mid": null, "shopId": null, "netid": null, "province": 901, "district": null, "zipcode": null, "telephone": null, "posDate": null, "destineTel": null, "togoTel": null, "trafficWay": null, "signBuilding": null, "businessArea": null, "selfRoom": null, "businessTime": null, "stall": null, "consume": null, "serviceFei": null, "favourable": null, "shopMemo": "1", "appraise": null, "website": null, "memo": null, "payTypes": "", "shopTypes": "", "consumeTypes": null, "cookTypes": null, "orderNum": null, "card4no": null, "card4noAcc": null, "district2": null, "searchScope": null, "status": null, "address": "", "name": null, "id": null, "pageNo": 1000, "pageCount": null, "pageSize": 10, "ids": null, "endTime": null, "startTime": null}, "list": [{"cardNumFive": null, "isSupportYj": null, "cityName": null, "districtName": null, "shopinfo": {"mid": "888002154510001", "good_flag": "2", "new_flag": "2", "short_name": "\u661f\u5df4\u514b", "short_name_pinyin": "xingbake", "status": null, "address": null, "name": null, "id": "454317286832996352"}, "mid": "888002154510001", "shopId": "454317286832996352", "netid": null, "province": 901, "district": 601, "zipcode": null, "telephone": null, "posDate": null, "destineTel": null, "togoTel": null, "trafficWay": null, "signBuilding": null, "businessArea": null, "selfRoom": null, "businessTime": null, "stall": null, "consume": null, "serviceFei": null, "favourable": null, "shopMemo": null, "appraise": null, "website": null, "memo": null, "payTypes": "\u6749\u5fb7\u5361", "shopTypes": "\u9910\u996e", "consumeTypes": null, "cookTypes": null, "orderNum": 1000, "card4no": null, "card4noAcc": null, "district2": 413, "searchScope": null, "status": 1, "address": "\u5357\u4e2d\u8def80\u53f71\u5c421F06", "name": "\u661f\u5df4\u514b \u5949\u8d24\u91d1\u53f6\u5546\u53a6\u5e97", "id": 202027, "pageNo": 0, "pageCount": null, "pageSize": 10, "ids": null, "endTime": null, "startTime": null}, {"cardNumFive": null, "isSupportYj": null, "cityName": null, "districtName": null, "shopinfo": {"mid": "888002154510001", "good_flag": "2", "new_flag": "2", "short_name": "\u661f\u5df4\u514b", "short_name_pinyin": "xingbake", "status": null, "address": null, "name": null, "id": "454317286832996352"}, "mid": "888002154510001", "shopId": "454317286832996352", "netid": null, "province": 901, "district": 601, "zipcode": null, "telephone": null, "posDate": null, "destineTel": null, "togoTel": null, "trafficWay": null, "signBuilding": null, "businessArea": null, "selfRoom": null, "businessTime": null, "stall": null, "consume": null, "serviceFei": null, "favourable": null, "shopMemo": null, "appraise": null, "website": null, "memo": null, "payTypes": "\u6749\u5fb7\u5361", "shopTypes": "\u9910\u996e", "consumeTypes": null, "cookTypes": null, "orderNum": 1000, "card4no": null, "card4noAcc": null, "district2": 408, "searchScope": null, "status": 1, "address": "\u8f66\u7ad9\u5357\u8def330\u5f042\u53f7\u30016\u53f7\u7b2c\u4e00\u3001\u4e8c\u5c42\u76844839F01059\u3001483902002\u5355\u5143", "name": "\u661f\u5df4\u514b \u51c9\u57ce\u4e16\u7eaa\u8054\u534e\u5e97", "id": 202039, "pageNo": 0, "pageCount": null, "pageSize": 10, "ids": null, "endTime": null, "startTime": null}, {"cardNumFive": null, "isSupportYj": null, "cityName": null, "districtName": null, "shopinfo": {"mid": "888002154510001", "good_flag": "2", "new_flag": "2", "short_name": "\u661f\u5df4\u514b", "short_name_pinyin": "xingbake", "status": null, "address": null, "name": null, "id": "454317286832996352"}, "mid": "888002154510001", "shopId": "454317286832996352", "netid": null, "province": 901, "district": 601, "zipcode": null, "telephone": null, "posDate": null, "destineTel": null, "togoTel": null, "trafficWay": null, "signBuilding": null, "businessArea": null, "selfRoom": null, "businessTime": null, "stall": null, "consume": null, "serviceFei": null, "favourable": null, "shopMemo": null, "appraise": null, "website": null, "memo": null, "payTypes": "\u6749\u5fb7\u5361", "shopTypes": "\u9910\u996e", "consumeTypes": null, "cookTypes": null, "orderNum": 1000, "card4no": null, "card4noAcc": null, "district2": 409, "searchScope": null, "status": 1, "address": "\u94f6\u6625\u8def2152\u53f71\u697c2-105\u5ba4", "name": "\u661f\u5df4\u514b \u65b0\u58f9\u574a\u5e97", "id": 202040, "pageNo": 0, "pageCount": null, "pageSize": 10, "ids": null, "endTime": null, "startTime": null}, {"cardNumFive": null, "isSupportYj": null, "cityName": null, "districtName": null, "shopinfo": {"mid": "888002154510001", "good_flag": "2", "new_flag": "2", "short_name": "\u661f\u5df4\u514b", "short_name_pinyin": "xingbake", "status": null, "address": null, "name": null, "id": "454317286832996352"}, "mid": "888002154510001", "shopId": "454317286832996352", "netid": null, "province": 901, "district": 601, "zipcode": null, "telephone": null, "posDate": null, "destineTel": null, "togoTel": null, "trafficWay": null, "signBuilding": null, "businessArea": null, "selfRoom": null, "businessTime": null, "stall": null, "consume": null, "serviceFei": null, "favourable": null, "shopMemo": null, "appraise": null, "website": null, "memo": null, "payTypes": "\u6749\u5fb7\u5361", "shopTypes": "\u9910\u996e", "consumeTypes": null, "cookTypes": null, "orderNum": 1000, "card4no": null, "card4noAcc": null, "district2": 414, "searchScope": null, "status": 1, "address": "\u9f99\u822a\u8def1508\u53f7\u95e8\u8bca\u5927\u53851F101", "name": "\u661f\u5df4\u514b \u91d1\u5c71\u533b\u9662\u5e97", "id": 202044, "pageNo": 0, "pageCount": null, "pageSize": 10, "ids": null, "endTime": null, "startTime": null}, {"cardNumFive": null, "isSupportYj": null, "cityName": null, "districtName": null, "shopinfo": {"mid": "888002154510001", "good_flag": "2", "new_flag": "2", "short_name": "\u661f\u5df4\u514b", "short_name_pinyin": "xingbake", "status": null, "address": null, "name": null, "id": "454317286832996352"}, "mid": "888002154510001", "shopId": "454317286832996352", "netid": null, "province": 901, "district": 601, "zipcode": null, "telephone": null, "posDate": null, "destineTel": null, "togoTel": null, "trafficWay": null, "signBuilding": null, "businessArea": null, "selfRoom": null, "businessTime": null, "stall": null, "consume": null, "serviceFei": null, "favourable": null, "shopMemo": null, "appraise": null, "website": null, "memo": null, "payTypes": "\u6749\u5fb7\u5361", "shopTypes": "\u9910\u996e", "consumeTypes": null, "cookTypes": null, "orderNum": 1000, "card4no": null, "card4noAcc": null, "district2": 403, "searchScope": null, "status": 1, "address": "\u671b\u6708\u8def885\u53f7", "name": "\u661f\u5df4\u514b \u671b\u6708\u8def\u5e97", "id": 202045, "pageNo": 0, "pageCount": null, "pageSize": 10, "ids": null, "endTime": null, "startTime": null}, {"cardNumFive": null, "isSupportYj": null, "cityName": null, "districtName": null, "shopinfo": {"mid": "888002154510001", "good_flag": "2", "new_flag": "2", "short_name": "\u661f\u5df4\u514b", "short_name_pinyin": "xingbake", "status": null, "address": null, "name": null, "id": "454317286832996352"}, "mid": "888002154510001", "shopId": "454317286832996352", "netid": null, "province": 901, "district": 601, "zipcode": null, "telephone": null, "posDate": null, "destineTel": null, "togoTel": null, "trafficWay": null, "signBuilding": null, "businessArea": null, "selfRoom": null, "businessTime": null, "stall": null, "consume": null, "serviceFei": null, "favourable": null, "shopMemo": null, "appraise": null, "website": null, "memo": null, "payTypes": "\u6749\u5fb7\u5361", "shopTypes": "\u9910\u996e", "consumeTypes": null, "cookTypes": null, "orderNum": 1000, "card4no": null, "card4noAcc": null, "district2": 409, "searchScope": null, "status": 1, "address": "\u6c38\u5fb7\u8def419\u53f7109\u5ba4", "name": "\u661f\u5df4\u514b \u6c38\u5fb7\u5f18\u57fa\u5e7f\u573a\u5e97", "id": 202063, "pageNo": 0, "pageCount": null, "pageSize": 10, "ids": null, "endTime": null, "startTime": null}, {"cardNumFive": null, "isSupportYj": null, "cityName": null, "districtName": null, "shopinfo": {"mid": "888002154510001", "good_flag": "2", "new_flag": "2", "short_name": "\u661f\u5df4\u514b", "short_name_pinyin": "xingbake", "status": null, "address": null, "name": null, "id": "454317286832996352"}, "mid": "888002154510001", "shopId": "454317286832996352", "netid": null, "province": 901, "district": 601, "zipcode": null, "telephone": null, "posDate": null, "destineTel": null, "togoTel": null, "trafficWay": null, "signBuilding": null, "businessArea": null, "selfRoom": null, "businessTime": null, "stall": null, "consume": null, "serviceFei": null, "favourable": null, "shopMemo": null, "appraise": null, "website": null, "memo": null, "payTypes": "\u6749\u5fb7\u5361", "shopTypes": "\u9910\u996e", "consumeTypes": null, "cookTypes": null, "orderNum": 1000, "card4no": null, "card4noAcc": null, "district2": 416, "searchScope": null, "status": 1, "address": "\u5171\u6c5f\u8def1208\u53f71F-N1A", "name": "\u661f\u5df4\u514b \u5b9d\u5c71\u5bb6\u4e50\u798f\u5e97", "id": 202075, "pageNo": 0, "pageCount": null, "pageSize": 10, "ids": null, "endTime": null, "startTime": null}, {"cardNumFive": null, "isSupportYj": null, "cityName": null, "districtName": null, "shopinfo": {"mid": "888002154510001", "good_flag": "2", "new_flag": "2", "short_name": "\u661f\u5df4\u514b", "short_name_pinyin": "xingbake", "status": null, "address": null, "name": null, "id": "454317286832996352"}, "mid": "888002154510001", "shopId": "454317286832996352", "netid": null, "province": 901, "district": 601, "zipcode": null, "telephone": null, "posDate": null, "destineTel": null, "togoTel": null, "trafficWay": null, "signBuilding": null, "businessArea": null, "selfRoom": null, "businessTime": null, "stall": null, "consume": null, "serviceFei": null, "favourable": null, "shopMemo": null, "appraise": null, "website": null, "memo": null, "payTypes": "\u6749\u5fb7\u5361", "shopTypes": "\u9910\u996e", "consumeTypes": null, "cookTypes": null, "orderNum": 1000, "card4no": null, "card4noAcc": null, "district2": 409, "searchScope": null, "status": 1, "address": "\u6f15\u5b9d\u8def3366\u53f7\u5546\u573aL1\u5c42151B\u53f7\u5355\u5143", "name": "\u661f\u5df4\u514b \u4e03\u5b9d\u4e07\u79d1\u5e7f\u573a1F\u5e97", "id": 202079, "pageNo": 0, "pageCount": null, "pageSize": 10, "ids": null, "endTime": null, "startTime": null}, {"cardNumFive": null, "isSupportYj": null, "cityName": null, "districtName": null, "shopinfo": {"mid": "888002154510001", "good_flag": "2", "new_flag": "2", "short_name": "\u661f\u5df4\u514b", "short_name_pinyin": "xingbake", "status": null, "address": null, "name": null, "id": "454317286832996352"}, "mid": "888002154510001", "shopId": "454317286832996352", "netid": null, "province": 901, "district": 601, "zipcode": null, "telephone": null, "posDate": null, "destineTel": null, "togoTel": null, "trafficWay": null, "signBuilding": null, "businessArea": null, "selfRoom": null, "businessTime": null, "stall": null, "consume": null, "serviceFei": null, "favourable": null, "shopMemo": null, "appraise": null, "website": null, "memo": null, "payTypes": "\u6749\u5fb7\u5361", "shopTypes": "\u9910\u996e", "consumeTypes": null, "cookTypes": null, "orderNum": 1000, "card4no": null, "card4noAcc": null, "district2": 404, "searchScope": null, "status": 1, "address": "\u5171\u548c\u65b0\u8def4750\u53f7", "name": "\u661f\u5df4\u514b \u5b8f\u6167\u65b0\u6c47\u56ed\u5e97", "id": 202083, "pageNo": 0, "pageCount": null, "pageSize": 10, "ids": null, "endTime": null, "startTime": null}, {"cardNumFive": null, "isSupportYj": null, "cityName": null, "districtName": null, "shopinfo": {"mid": "888002154510001", "good_flag": "2", "new_flag": "2", "short_name": "\u661f\u5df4\u514b", "short_name_pinyin": "xingbake", "status": null, "address": null, "name": null, "id": "454317286832996352"}, "mid": "888002154510001", "shopId": "454317286832996352", "netid": null, "province": 901, "district": 601, "zipcode": null, "telephone": null, "posDate": null, "destineTel": null, "togoTel": null, "trafficWay": null, "signBuilding": null, "businessArea": null, "selfRoom": null, "businessTime": null, "stall": null, "consume": null, "serviceFei": null, "favourable": null, "shopMemo": null, "appraise": null, "website": null, "memo": null, "payTypes": "\u6749\u5fb7\u5361", "shopTypes": "\u9910\u996e", "consumeTypes": null, "cookTypes": null, "orderNum": 1000, "card4no": null, "card4noAcc": null, "district2": 409, "searchScope": null, "status": 1, "address": "\u7533\u957f\u8def799\u53f71\u5c42SHHQTJ-B-1F-23\u300124\u53f7\u5546\u94fa", "name": "\u661f\u5df4\u514b \u9f99\u6e56\u8679\u6865\u5929\u88571F\u5e97", "id": 202084, "pageNo": 0, "pageCount": null, "pageSize": 10, "ids": null, "endTime": null, "startTime": null}], "pageLimit": 10000, "size": 10}