{"pageCount": 1095, "count": 10942, "pageNo": 1020, "subShopInfo": {"cardNumFive": "", "isSupportYj": "", "cityName": null, "districtName": null, "shopinfo": {"mid": null, "good_flag": null, "new_flag": null, "short_name": null, "short_name_pinyin": null, "status": null, "address": "", "name": "", "id": null}, "mid": null, "shopId": null, "netid": null, "province": 901, "district": null, "zipcode": null, "telephone": null, "posDate": null, "destineTel": null, "togoTel": null, "trafficWay": null, "signBuilding": null, "businessArea": null, "selfRoom": null, "businessTime": null, "stall": null, "consume": null, "serviceFei": null, "favourable": null, "shopMemo": "1", "appraise": null, "website": null, "memo": null, "payTypes": "", "shopTypes": "", "consumeTypes": null, "cookTypes": null, "orderNum": null, "card4no": null, "card4noAcc": null, "district2": null, "searchScope": null, "status": null, "address": "", "name": null, "id": null, "pageNo": 1019, "pageCount": null, "pageSize": 10, "ids": null, "endTime": null, "startTime": null}, "list": [{"cardNumFive": null, "isSupportYj": null, "cityName": null, "districtName": null, "shopinfo": {"mid": "888002154510001", "good_flag": "2", "new_flag": "2", "short_name": "\u661f\u5df4\u514b", "short_name_pinyin": "xingbake", "status": null, "address": null, "name": null, "id": "454317286832996352"}, "mid": "888002154510001", "shopId": "454317286832996352", "netid": null, "province": 901, "district": 601, "zipcode": null, "telephone": null, "posDate": null, "destineTel": null, "togoTel": null, "trafficWay": null, "signBuilding": null, "businessArea": null, "selfRoom": null, "businessTime": null, "stall": null, "consume": null, "serviceFei": null, "favourable": null, "shopMemo": null, "appraise": null, "website": null, "memo": null, "payTypes": "\u6749\u5fb7\u5361,", "shopTypes": "\u9910\u996e", "consumeTypes": null, "cookTypes": null, "orderNum": null, "card4no": null, "card4noAcc": null, "district2": 409, "searchScope": null, "status": 1, "address": "\u8679\u6865\u706b\u8f66\u7ad9\u51fa\u53d1\u533a\u8679\u6865\u51fa\u53d1\u5c422F-\u53171\uff0c3F-C4", "name": "\u8679\u6865\u706b\u8f66\u7ad9\u51fa\u53d1\u533a\u5e97", "id": 423171630886289408, "pageNo": 0, "pageCount": null, "pageSize": 10, "ids": null, "endTime": null, "startTime": null}, {"cardNumFive": null, "isSupportYj": null, "cityName": null, "districtName": null, "shopinfo": {"mid": "888002154510001", "good_flag": "2", "new_flag": "2", "short_name": "\u661f\u5df4\u514b", "short_name_pinyin": "xingbake", "status": null, "address": null, "name": null, "id": "454317286832996352"}, "mid": "888002154510001", "shopId": "454317286832996352", "netid": null, "province": 901, "district": 601, "zipcode": null, "telephone": null, "posDate": null, "destineTel": null, "togoTel": null, "trafficWay": null, "signBuilding": null, "businessArea": null, "selfRoom": null, "businessTime": null, "stall": null, "consume": null, "serviceFei": null, "favourable": null, "shopMemo": null, "appraise": null, "website": null, "memo": null, "payTypes": "\u6749\u5fb7\u5361,", "shopTypes": "\u9910\u996e", "consumeTypes": null, "cookTypes": null, "orderNum": null, "card4no": null, "card4noAcc": null, "district2": 418, "searchScope": null, "status": 1, "address": "\u4e34\u6c82\u8def140\u53f7", "name": "\u767e\u8054\u4e34\u6c82\u8d2d\u7269\u4e2d\u5fc3\u5e97", "id": 423171631410577408, "pageNo": 0, "pageCount": null, "pageSize": 10, "ids": null, "endTime": null, "startTime": null}, {"cardNumFive": null, "isSupportYj": null, "cityName": null, "districtName": null, "shopinfo": {"mid": "888002154510001", "good_flag": "2", "new_flag": "2", "short_name": "\u661f\u5df4\u514b", "short_name_pinyin": "xingbake", "status": null, "address": null, "name": null, "id": "454317286832996352"}, "mid": "888002154510001", "shopId": "454317286832996352", "netid": null, "province": 901, "district": 601, "zipcode": null, "telephone": null, "posDate": null, "destineTel": null, "togoTel": null, "trafficWay": null, "signBuilding": null, "businessArea": null, "selfRoom": null, "businessTime": null, "stall": null, "consume": null, "serviceFei": null, "favourable": null, "shopMemo": null, "appraise": null, "website": null, "memo": null, "payTypes": "\u6749\u5fb7\u5361,", "shopTypes": "\u9910\u996e", "consumeTypes": null, "cookTypes": null, "orderNum": null, "card4no": null, "card4noAcc": null, "district2": 418, "searchScope": null, "status": 1, "address": "\u4e34\u6c82\u5317\u8def150\u5f042\u53f7111\u3001112\u3001113\u5ba4", "name": "\u4e1c\u5357\u534e\u5ead\u5e97", "id": 423171632090054656, "pageNo": 0, "pageCount": null, "pageSize": 10, "ids": null, "endTime": null, "startTime": null}, {"cardNumFive": null, "isSupportYj": null, "cityName": null, "districtName": null, "shopinfo": {"mid": "888002154510001", "good_flag": "2", "new_flag": "2", "short_name": "\u661f\u5df4\u514b", "short_name_pinyin": "xingbake", "status": null, "address": null, "name": null, "id": "454317286832996352"}, "mid": "888002154510001", "shopId": "454317286832996352", "netid": null, "province": 901, "district": 601, "zipcode": null, "telephone": null, "posDate": null, "destineTel": null, "togoTel": null, "trafficWay": null, "signBuilding": null, "businessArea": null, "selfRoom": null, "businessTime": null, "stall": null, "consume": null, "serviceFei": null, "favourable": null, "shopMemo": null, "appraise": null, "website": null, "memo": null, "payTypes": "\u6749\u5fb7\u5361,", "shopTypes": "\u9910\u996e", "consumeTypes": null, "cookTypes": null, "orderNum": null, "card4no": null, "card4noAcc": null, "district2": 413, "searchScope": null, "status": 1, "address": "\u91d1\u6d77\u516c\u8def6055\u53f729\u53f7\u697c\u7b2c\u4e00\u5c42\u7684\u4e1c\u4e8c\u5355\u5143", "name": "\u5949\u8d24\u6f15\u6cb3\u6cfe\u5e97", "id": 423171638519922688, "pageNo": 0, "pageCount": null, "pageSize": 10, "ids": null, "endTime": null, "startTime": null}, {"cardNumFive": null, "isSupportYj": null, "cityName": null, "districtName": null, "shopinfo": {"mid": "888002154510001", "good_flag": "2", "new_flag": "2", "short_name": "\u661f\u5df4\u514b", "short_name_pinyin": "xingbake", "status": null, "address": null, "name": null, "id": "454317286832996352"}, "mid": "888002154510001", "shopId": "454317286832996352", "netid": null, "province": 901, "district": 601, "zipcode": null, "telephone": null, "posDate": null, "destineTel": null, "togoTel": null, "trafficWay": null, "signBuilding": null, "businessArea": null, "selfRoom": null, "businessTime": null, "stall": null, "consume": null, "serviceFei": null, "favourable": null, "shopMemo": null, "appraise": null, "website": null, "memo": null, "payTypes": "\u6749\u5fb7\u5361,", "shopTypes": "\u9910\u996e", "consumeTypes": null, "cookTypes": null, "orderNum": null, "card4no": null, "card4noAcc": null, "district2": 409, "searchScope": null, "status": 1, "address": "\u8679\u4e95\u8def120\u5f04-6\u53f7F160\u3001F161\u5ba4", "name": "\u514b\u7231\u7434\u6d77\u8d2d\u7269\u516c\u56ed\u5e97", "id": 423171638998073344, "pageNo": 0, "pageCount": null, "pageSize": 10, "ids": null, "endTime": null, "startTime": null}, {"cardNumFive": null, "isSupportYj": null, "cityName": null, "districtName": null, "shopinfo": {"mid": "888002154510001", "good_flag": "2", "new_flag": "2", "short_name": "\u661f\u5df4\u514b", "short_name_pinyin": "xingbake", "status": null, "address": null, "name": null, "id": "454317286832996352"}, "mid": "888002154510001", "shopId": "454317286832996352", "netid": null, "province": 901, "district": 601, "zipcode": null, "telephone": null, "posDate": null, "destineTel": null, "togoTel": null, "trafficWay": null, "signBuilding": null, "businessArea": null, "selfRoom": null, "businessTime": null, "stall": null, "consume": null, "serviceFei": null, "favourable": null, "shopMemo": null, "appraise": null, "website": null, "memo": null, "payTypes": "\u6749\u5fb7\u5361,", "shopTypes": "\u9910\u996e", "consumeTypes": null, "cookTypes": null, "orderNum": null, "card4no": null, "card4noAcc": null, "district2": 418, "searchScope": null, "status": 1, "address": "\u5468\u6d66\u9547\u5e74\u5bb6\u6d5c\u8def518\u53f7\u5468\u6d66\u4e07\u8fbe\u5e7f\u573a157\u5546\u94fa", "name": "\u5468\u6d66\u4e07\u8fbe\u5e97", "id": 423171641527238656, "pageNo": 0, "pageCount": null, "pageSize": 10, "ids": null, "endTime": null, "startTime": null}, {"cardNumFive": null, "isSupportYj": null, "cityName": null, "districtName": null, "shopinfo": {"mid": "888002154510001", "good_flag": "2", "new_flag": "2", "short_name": "\u661f\u5df4\u514b", "short_name_pinyin": "xingbake", "status": null, "address": null, "name": null, "id": "454317286832996352"}, "mid": "888002154510001", "shopId": "454317286832996352", "netid": null, "province": 901, "district": 601, "zipcode": null, "telephone": null, "posDate": null, "destineTel": null, "togoTel": null, "trafficWay": null, "signBuilding": null, "businessArea": null, "selfRoom": null, "businessTime": null, "stall": null, "consume": null, "serviceFei": null, "favourable": null, "shopMemo": null, "appraise": null, "website": null, "memo": null, "payTypes": "\u6749\u5fb7\u5361,", "shopTypes": "\u9910\u996e", "consumeTypes": null, "cookTypes": null, "orderNum": null, "card4no": null, "card4noAcc": null, "district2": 408, "searchScope": null, "status": 1, "address": "\u8679\u53e3\u9f99\u4e4b\u68a6\u897f\u6c5f\u6e7e\u8def388\u53f7 (A)01\u5c4210/55\u53f7", "name": "\u8679\u53e3\u9f99\u4e4b\u68a61\u5e97", "id": 423171642366099456, "pageNo": 0, "pageCount": null, "pageSize": 10, "ids": null, "endTime": null, "startTime": null}, {"cardNumFive": null, "isSupportYj": null, "cityName": null, "districtName": null, "shopinfo": {"mid": "888002154510001", "good_flag": "2", "new_flag": "2", "short_name": "\u661f\u5df4\u514b", "short_name_pinyin": "xingbake", "status": null, "address": null, "name": null, "id": "454317286832996352"}, "mid": "888002154510001", "shopId": "454317286832996352", "netid": null, "province": 901, "district": 601, "zipcode": null, "telephone": null, "posDate": null, "destineTel": null, "togoTel": null, "trafficWay": null, "signBuilding": null, "businessArea": null, "selfRoom": null, "businessTime": null, "stall": null, "consume": null, "serviceFei": null, "favourable": null, "shopMemo": null, "appraise": null, "website": null, "memo": null, "payTypes": "\u6749\u5fb7\u5361,", "shopTypes": "\u9910\u996e", "consumeTypes": null, "cookTypes": null, "orderNum": null, "card4no": null, "card4noAcc": null, "district2": 418, "searchScope": null, "status": 1, "address": "\u9646\u5bb6\u5634\u897f\u8def168\u53f73F", "name": "\u6b63\u59273F\u5e97", "id": 423171643720859648, "pageNo": 0, "pageCount": null, "pageSize": 10, "ids": null, "endTime": null, "startTime": null}, {"cardNumFive": null, "isSupportYj": null, "cityName": null, "districtName": null, "shopinfo": {"mid": "888002154510001", "good_flag": "2", "new_flag": "2", "short_name": "\u661f\u5df4\u514b", "short_name_pinyin": "xingbake", "status": null, "address": null, "name": null, "id": "454317286832996352"}, "mid": "888002154510001", "shopId": "454317286832996352", "netid": null, "province": 901, "district": 601, "zipcode": null, "telephone": null, "posDate": null, "destineTel": null, "togoTel": null, "trafficWay": null, "signBuilding": null, "businessArea": null, "selfRoom": null, "businessTime": null, "stall": null, "consume": null, "serviceFei": null, "favourable": null, "shopMemo": null, "appraise": null, "website": null, "memo": null, "payTypes": "\u6749\u5fb7\u5361,", "shopTypes": "\u9910\u996e", "consumeTypes": null, "cookTypes": null, "orderNum": null, "card4no": null, "card4noAcc": null, "district2": 403, "searchScope": null, "status": 1, "address": "\u6f15\u5b9d\u8def33\u53f7L1\u5c4230\u94fa\u4f4d", "name": "\u5f90\u6c47\u65e5\u6708\u5149\u5e97", "id": 423171644329033728, "pageNo": 0, "pageCount": null, "pageSize": 10, "ids": null, "endTime": null, "startTime": null}, {"cardNumFive": null, "isSupportYj": null, "cityName": null, "districtName": null, "shopinfo": {"mid": "888002154510001", "good_flag": "2", "new_flag": "2", "short_name": "\u661f\u5df4\u514b", "short_name_pinyin": "xingbake", "status": null, "address": null, "name": null, "id": "454317286832996352"}, "mid": "888002154510001", "shopId": "454317286832996352", "netid": null, "province": 901, "district": 601, "zipcode": null, "telephone": null, "posDate": null, "destineTel": null, "togoTel": null, "trafficWay": null, "signBuilding": null, "businessArea": null, "selfRoom": null, "businessTime": null, "stall": null, "consume": null, "serviceFei": null, "favourable": null, "shopMemo": null, "appraise": null, "website": null, "memo": null, "payTypes": "\u6749\u5fb7\u5361,", "shopTypes": "\u9910\u996e", "consumeTypes": null, "cookTypes": null, "orderNum": null, "card4no": null, "card4noAcc": null, "district2": 401, "searchScope": null, "status": 1, "address": "\u4e3d\u6c34\u8def88\u53f71F116\u5355\u5143", "name": "\u57ce\u968d\u73e0\u5b9d\u5e97", "id": 435789025744257024, "pageNo": 0, "pageCount": null, "pageSize": 10, "ids": null, "endTime": null, "startTime": null}], "pageLimit": 10190, "size": 10}