{"pageCount": 1095, "count": 10942, "pageNo": 1028, "subShopInfo": {"cardNumFive": "", "isSupportYj": "", "cityName": null, "districtName": null, "shopinfo": {"mid": null, "good_flag": null, "new_flag": null, "short_name": null, "short_name_pinyin": null, "status": null, "address": "", "name": "", "id": null}, "mid": null, "shopId": null, "netid": null, "province": 901, "district": null, "zipcode": null, "telephone": null, "posDate": null, "destineTel": null, "togoTel": null, "trafficWay": null, "signBuilding": null, "businessArea": null, "selfRoom": null, "businessTime": null, "stall": null, "consume": null, "serviceFei": null, "favourable": null, "shopMemo": "1", "appraise": null, "website": null, "memo": null, "payTypes": "", "shopTypes": "", "consumeTypes": null, "cookTypes": null, "orderNum": null, "card4no": null, "card4noAcc": null, "district2": null, "searchScope": null, "status": null, "address": "", "name": null, "id": null, "pageNo": 1027, "pageCount": null, "pageSize": 10, "ids": null, "endTime": null, "startTime": null}, "list": [{"cardNumFive": null, "isSupportYj": null, "cityName": null, "districtName": null, "shopinfo": {"mid": "888002158120327", "good_flag": null, "new_flag": null, "short_name": "\u65b0\u4e9a\u5927\u5305", "short_name_pinyin": "xinyadabao", "status": null, "address": null, "name": null, "id": "38111"}, "mid": "888002158120327", "shopId": "38111", "netid": null, "province": 901, "district": 601, "zipcode": null, "telephone": null, "posDate": null, "destineTel": null, "togoTel": null, "trafficWay": null, "signBuilding": null, "businessArea": null, "selfRoom": null, "businessTime": null, "stall": null, "consume": null, "serviceFei": null, "favourable": null, "shopMemo": null, "appraise": null, "website": null, "memo": null, "payTypes": "\u6749\u5fb7\u5361", "shopTypes": "\u9910\u996e", "consumeTypes": null, "cookTypes": null, "orderNum": 1000, "card4no": null, "card4noAcc": null, "district2": 405, "searchScope": null, "status": 1, "address": "\u94dc\u5ddd\u8def1688\u53f7", "name": "\u65b0\u4e9a\u5927\u5305 \u94dc\u5ddd\u5e97", "id": 162182, "pageNo": 0, "pageCount": null, "pageSize": 10, "ids": null, "endTime": null, "startTime": null}, {"cardNumFive": null, "isSupportYj": null, "cityName": null, "districtName": null, "shopinfo": {"mid": "888002158120327", "good_flag": null, "new_flag": null, "short_name": "\u65b0\u4e9a\u5927\u5305", "short_name_pinyin": "xinyadabao", "status": null, "address": null, "name": null, "id": "38111"}, "mid": "888002158120327", "shopId": "38111", "netid": null, "province": 901, "district": 601, "zipcode": null, "telephone": null, "posDate": null, "destineTel": null, "togoTel": null, "trafficWay": null, "signBuilding": null, "businessArea": null, "selfRoom": null, "businessTime": null, "stall": null, "consume": null, "serviceFei": null, "favourable": null, "shopMemo": null, "appraise": null, "website": null, "memo": null, "payTypes": "\u6749\u5fb7\u5361", "shopTypes": "\u9910\u996e", "consumeTypes": null, "cookTypes": null, "orderNum": 1000, "card4no": null, "card4noAcc": null, "district2": 401, "searchScope": null, "status": 1, "address": "\u897f\u85cf\u5357\u8def1313\u53f7", "name": "\u65b0\u4e9a\u5927\u5305 \u897f\u85cf\u5e97", "id": 162183, "pageNo": 0, "pageCount": null, "pageSize": 10, "ids": null, "endTime": null, "startTime": null}, {"cardNumFive": null, "isSupportYj": null, "cityName": null, "districtName": null, "shopinfo": {"mid": "888002158120327", "good_flag": null, "new_flag": null, "short_name": "\u65b0\u4e9a\u5927\u5305", "short_name_pinyin": "xinyadabao", "status": null, "address": null, "name": null, "id": "37457"}, "mid": "888002158120327", "shopId": "37457", "netid": null, "province": 901, "district": 601, "zipcode": null, "telephone": null, "posDate": null, "destineTel": null, "togoTel": null, "trafficWay": null, "signBuilding": null, "businessArea": null, "selfRoom": null, "businessTime": null, "stall": null, "consume": null, "serviceFei": null, "favourable": null, "shopMemo": null, "appraise": null, "website": null, "memo": null, "payTypes": "\u6749\u5fb7\u5361", "shopTypes": "\u9910\u996e", "consumeTypes": null, "cookTypes": null, "orderNum": 1000, "card4no": null, "card4noAcc": null, "district2": 418, "searchScope": null, "status": 1, "address": "\u6d66\u7535\u8def57\u53f7", "name": "\u65b0\u4e9a\u5927\u5305 \u6d66\u7535\u5e97", "id": 169273, "pageNo": 0, "pageCount": null, "pageSize": 10, "ids": null, "endTime": null, "startTime": null}, {"cardNumFive": null, "isSupportYj": null, "cityName": null, "districtName": null, "shopinfo": {"mid": "888002158120327", "good_flag": null, "new_flag": null, "short_name": "\u65b0\u4e9a\u5927\u5305", "short_name_pinyin": "xinyadabao", "status": null, "address": null, "name": null, "id": "37457"}, "mid": "888002158120327", "shopId": "37457", "netid": null, "province": 901, "district": 601, "zipcode": null, "telephone": "63642712", "posDate": null, "destineTel": null, "togoTel": null, "trafficWay": null, "signBuilding": null, "businessArea": null, "selfRoom": null, "businessTime": null, "stall": null, "consume": null, "serviceFei": null, "favourable": null, "shopMemo": null, "appraise": null, "website": null, "memo": null, "payTypes": "\u6749\u5fb7\u5361", "shopTypes": "\u9910\u996e", "consumeTypes": null, "cookTypes": null, "orderNum": 1000, "card4no": null, "card4noAcc": null, "district2": 408, "searchScope": null, "status": 1, "address": "\u6d77\u5b81\u8def6-8\u53f7", "name": "\u65b0\u4e9a\u5927\u5305 \u6d77\u5b81\u5e97", "id": 180421, "pageNo": 0, "pageCount": null, "pageSize": 10, "ids": null, "endTime": null, "startTime": null}, {"cardNumFive": null, "isSupportYj": null, "cityName": null, "districtName": null, "shopinfo": {"mid": "888002158120327", "good_flag": null, "new_flag": null, "short_name": "\u65b0\u4e9a\u5927\u5305", "short_name_pinyin": "xinyadabao", "status": null, "address": null, "name": null, "id": "37457"}, "mid": "888002158120327", "shopId": "37457", "netid": null, "province": 901, "district": 601, "zipcode": null, "telephone": null, "posDate": null, "destineTel": null, "togoTel": null, "trafficWay": null, "signBuilding": null, "businessArea": null, "selfRoom": null, "businessTime": null, "stall": null, "consume": null, "serviceFei": null, "favourable": null, "shopMemo": null, "appraise": null, "website": null, "memo": null, "payTypes": "\u6749\u5fb7\u5361", "shopTypes": "\u9910\u996e", "consumeTypes": null, "cookTypes": null, "orderNum": 1000, "card4no": null, "card4noAcc": null, "district2": 416, "searchScope": null, "status": 1, "address": "\u957f\u9038\u8def258\u53f7", "name": "\u65b0\u4e9a\u5927\u5305 \u957f\u9038\u5e97", "id": 180422, "pageNo": 0, "pageCount": null, "pageSize": 10, "ids": null, "endTime": null, "startTime": null}, {"cardNumFive": null, "isSupportYj": null, "cityName": null, "districtName": null, "shopinfo": {"mid": "888002158120327", "good_flag": null, "new_flag": null, "short_name": "\u65b0\u4e9a\u5927\u5305", "short_name_pinyin": "xinyadabao", "status": null, "address": null, "name": null, "id": "37457"}, "mid": "888002158120327", "shopId": "37457", "netid": null, "province": 901, "district": 601, "zipcode": null, "telephone": "62589952", "posDate": null, "destineTel": null, "togoTel": null, "trafficWay": null, "signBuilding": null, "businessArea": null, "selfRoom": null, "businessTime": null, "stall": null, "consume": null, "serviceFei": null, "favourable": null, "shopMemo": null, "appraise": null, "website": null, "memo": null, "payTypes": "\u6749\u5fb7\u5361", "shopTypes": "\u9910\u996e", "consumeTypes": null, "cookTypes": null, "orderNum": 1000, "card4no": null, "card4noAcc": null, "district2": 404, "searchScope": null, "status": 1, "address": "\u6b66\u5b9a\u8def1105\u53f7", "name": "\u65b0\u4e9a\u5927\u5305 \u6b66\u5b9a\u5e97", "id": 180423, "pageNo": 0, "pageCount": null, "pageSize": 10, "ids": null, "endTime": null, "startTime": null}, {"cardNumFive": null, "isSupportYj": null, "cityName": null, "districtName": null, "shopinfo": {"mid": "888002158120327", "good_flag": null, "new_flag": null, "short_name": "\u65b0\u4e9a\u5927\u5305", "short_name_pinyin": "xinyadabao", "status": null, "address": null, "name": null, "id": "37457"}, "mid": "888002158120327", "shopId": "37457", "netid": null, "province": 901, "district": 601, "zipcode": null, "telephone": null, "posDate": null, "destineTel": null, "togoTel": null, "trafficWay": null, "signBuilding": null, "businessArea": null, "selfRoom": null, "businessTime": null, "stall": null, "consume": null, "serviceFei": null, "favourable": null, "shopMemo": null, "appraise": null, "website": null, "memo": null, "payTypes": "\u6749\u5fb7\u5361", "shopTypes": "\u9910\u996e", "consumeTypes": null, "cookTypes": null, "orderNum": 1000, "card4no": null, "card4noAcc": null, "district2": 407, "searchScope": null, "status": 1, "address": "\u5f00\u9c81\u8def496\u53f7", "name": "\u65b0\u4e9a\u5927\u5305 \u5f00\u9c81\u5e97", "id": 180424, "pageNo": 0, "pageCount": null, "pageSize": 10, "ids": null, "endTime": null, "startTime": null}, {"cardNumFive": null, "isSupportYj": null, "cityName": null, "districtName": null, "shopinfo": {"mid": "888002158120327", "good_flag": null, "new_flag": null, "short_name": "\u65b0\u4e9a\u5927\u5305", "short_name_pinyin": "xinyadabao", "status": null, "address": null, "name": null, "id": "37457"}, "mid": "888002158120327", "shopId": "37457", "netid": null, "province": 901, "district": 601, "zipcode": null, "telephone": null, "posDate": null, "destineTel": null, "togoTel": null, "trafficWay": null, "signBuilding": null, "businessArea": null, "selfRoom": null, "businessTime": null, "stall": null, "consume": null, "serviceFei": null, "favourable": null, "shopMemo": null, "appraise": null, "website": null, "memo": null, "payTypes": "\u6749\u5fb7\u5361", "shopTypes": "\u9910\u996e", "consumeTypes": null, "cookTypes": null, "orderNum": 1000, "card4no": null, "card4noAcc": null, "district2": 407, "searchScope": null, "status": 1, "address": "\u53cc\u9633\u8def301\u53f7", "name": "\u65b0\u4e9a\u5927\u5305 \u53cc\u9633\u5e97", "id": 180425, "pageNo": 0, "pageCount": null, "pageSize": 10, "ids": null, "endTime": null, "startTime": null}, {"cardNumFive": null, "isSupportYj": null, "cityName": null, "districtName": null, "shopinfo": {"mid": "888002158120327", "good_flag": null, "new_flag": null, "short_name": "\u65b0\u4e9a\u5927\u5305", "short_name_pinyin": "xinyadabao", "status": null, "address": null, "name": null, "id": "37457"}, "mid": "888002158120327", "shopId": "37457", "netid": null, "province": 901, "district": 601, "zipcode": null, "telephone": "58392151", "posDate": null, "destineTel": null, "togoTel": null, "trafficWay": null, "signBuilding": null, "businessArea": null, "selfRoom": null, "businessTime": null, "stall": null, "consume": null, "serviceFei": null, "favourable": null, "shopMemo": null, "appraise": null, "website": null, "memo": null, "payTypes": "\u6749\u5fb7\u5361", "shopTypes": "\u9910\u996e", "consumeTypes": null, "cookTypes": null, "orderNum": 1000, "card4no": null, "card4noAcc": null, "district2": 418, "searchScope": null, "status": 1, "address": "\u5858\u6865\u65b0\u8def190\u53f7", "name": "\u65b0\u4e9a\u5927\u5305 \u5858\u6865\u5e97", "id": 180426, "pageNo": 0, "pageCount": null, "pageSize": 10, "ids": null, "endTime": null, "startTime": null}, {"cardNumFive": null, "isSupportYj": null, "cityName": null, "districtName": null, "shopinfo": {"mid": "888888856910308", "good_flag": "2", "new_flag": "2", "short_name": "\u946b\u83ba\u670d\u88c5\u5e97\uff08\u83ba\u83ba\uff09", "short_name_pinyin": "xinyingfuzhuangdian\uff08yingying\uff09", "status": null, "address": null, "name": null, "id": "33798"}, "mid": "888888856910308", "shopId": "33798", "netid": null, "province": 901, "district": 601, "zipcode": null, "telephone": "62757356", "posDate": null, "destineTel": null, "togoTel": null, "trafficWay": "48\u3001945", "signBuilding": null, "businessArea": null, "selfRoom": null, "businessTime": null, "stall": null, "consume": null, "serviceFei": null, "favourable": null, "shopMemo": null, "appraise": null, "website": null, "memo": null, "payTypes": "\u6749\u5fb7\u5361", "shopTypes": "\u670d\u9970\u5bb6\u7eba", "consumeTypes": null, "cookTypes": null, "orderNum": 1000, "card4no": null, "card4noAcc": null, "district2": 406, "searchScope": null, "status": 1, "address": "\u5b89\u987a\u8def274\u53f7", "name": "\u946b\u83ba\u670d\u88c5\u5e97\uff08\u83ba\u83ba\uff09 \u5b89\u987a\u8def\u5e97", "id": 143971, "pageNo": 0, "pageCount": null, "pageSize": 10, "ids": null, "endTime": null, "startTime": null}], "pageLimit": 10270, "size": 10}