{"pageCount": 1095, "count": 10942, "pageNo": 1023, "subShopInfo": {"cardNumFive": "", "isSupportYj": "", "cityName": null, "districtName": null, "shopinfo": {"mid": null, "good_flag": null, "new_flag": null, "short_name": null, "short_name_pinyin": null, "status": null, "address": "", "name": "", "id": null}, "mid": null, "shopId": null, "netid": null, "province": 901, "district": null, "zipcode": null, "telephone": null, "posDate": null, "destineTel": null, "togoTel": null, "trafficWay": null, "signBuilding": null, "businessArea": null, "selfRoom": null, "businessTime": null, "stall": null, "consume": null, "serviceFei": null, "favourable": null, "shopMemo": "1", "appraise": null, "website": null, "memo": null, "payTypes": "", "shopTypes": "", "consumeTypes": null, "cookTypes": null, "orderNum": null, "card4no": null, "card4noAcc": null, "district2": null, "searchScope": null, "status": null, "address": "", "name": null, "id": null, "pageNo": 1022, "pageCount": null, "pageSize": 10, "ids": null, "endTime": null, "startTime": null}, "list": [{"cardNumFive": null, "isSupportYj": null, "cityName": null, "districtName": null, "shopinfo": {"mid": "888002178321006", "good_flag": null, "new_flag": null, "short_name": "\u65b0\u4e16\u754c\u7535\u5f71\u57ce", "short_name_pinyin": "xinshijiedianyingcheng", "status": null, "address": null, "name": null, "id": "38113"}, "mid": "888002178321006", "shopId": "38113", "netid": null, "province": 901, "district": 601, "zipcode": null, "telephone": "63594933", "posDate": null, "destineTel": null, "togoTel": null, "trafficWay": null, "signBuilding": null, "businessArea": null, "selfRoom": null, "businessTime": null, "stall": null, "consume": null, "serviceFei": null, "favourable": null, "shopMemo": null, "appraise": null, "website": null, "memo": null, "payTypes": "\u6749\u5fb7\u5361", "shopTypes": "\u65c5\u6e38\u5f71\u9662", "consumeTypes": null, "cookTypes": null, "orderNum": 1000, "card4no": null, "card4noAcc": null, "district2": 401, "searchScope": null, "status": 1, "address": "\u5357\u4eac\u897f\u8def2-68\u53f7\u65b0\u4e16\u754c\u57ce12\u697c", "name": "\u65b0\u4e16\u754c\u7535\u5f71\u57ce \u9ec4\u6d66\u5e97", "id": 162193, "pageNo": 0, "pageCount": null, "pageSize": 10, "ids": null, "endTime": null, "startTime": null}, {"cardNumFive": null, "isSupportYj": null, "cityName": null, "districtName": null, "shopinfo": {"mid": "888888880430043", "good_flag": "2", "new_flag": "2", "short_name": "\u65b0\u89c6\u7ebf\u773c\u955c", "short_name_pinyin": "xinshixianyanjing", "status": null, "address": null, "name": null, "id": "33787"}, "mid": "888888880430043", "shopId": "33787", "netid": null, "province": 901, "district": 601, "zipcode": null, "telephone": "57966639", "posDate": "20080130", "destineTel": null, "togoTel": null, "trafficWay": "\u536b\u6885\u7ebf \u83b2\u77f3\u7ebf", "signBuilding": null, "businessArea": null, "selfRoom": null, "businessTime": null, "stall": null, "consume": null, "serviceFei": null, "favourable": null, "shopMemo": null, "appraise": null, "website": null, "memo": null, "payTypes": "\u6749\u5fb7\u5361", "shopTypes": "\u96f6\u552e,\u4e13\u5356", "consumeTypes": null, "cookTypes": null, "orderNum": 1000, "card4no": null, "card4noAcc": null, "district2": 414, "searchScope": null, "status": 1, "address": "\u77f3\u5316\u536b\u96f6\u8def534-536\u53f7", "name": "\u65b0\u89c6\u7ebf\u773c\u955c \u77f3\u5316\u536b\u96f6\u8def\u5e97", "id": 143955, "pageNo": 0, "pageCount": null, "pageSize": 10, "ids": null, "endTime": null, "startTime": null}, {"cardNumFive": null, "isSupportYj": null, "cityName": null, "districtName": null, "shopinfo": {"mid": "888002107630003", "good_flag": null, "new_flag": null, "short_name": "\u65b0\u96c5\u534a\u6210\u54c1", "short_name_pinyin": "xinyabanchengpin", "status": null, "address": null, "name": null, "id": "37447"}, "mid": "888002107630003", "shopId": "37447", "netid": null, "province": 901, "district": 601, "zipcode": null, "telephone": null, "posDate": null, "destineTel": null, "togoTel": null, "trafficWay": null, "signBuilding": null, "businessArea": null, "selfRoom": null, "businessTime": null, "stall": null, "consume": null, "serviceFei": null, "favourable": null, "shopMemo": null, "appraise": null, "website": null, "memo": null, "payTypes": "\u6749\u5fb7\u5361", "shopTypes": "\u96f6\u552e", "consumeTypes": null, "cookTypes": null, "orderNum": 1000, "card4no": null, "card4noAcc": null, "district2": 405, "searchScope": null, "status": 1, "address": "\u5927\u6e21\u6cb3\u8def839\u53f7", "name": "\u65b0\u96c5\u534a\u6210\u54c1 \u957f\u98ce\u96c6\u8d38\u5e02\u573a\u5e97", "id": 158786, "pageNo": 0, "pageCount": null, "pageSize": 10, "ids": null, "endTime": null, "startTime": null}, {"cardNumFive": null, "isSupportYj": null, "cityName": null, "districtName": null, "shopinfo": {"mid": "888002107630003", "good_flag": null, "new_flag": null, "short_name": "\u65b0\u96c5\u534a\u6210\u54c1", "short_name_pinyin": "xinyabanchengpin", "status": null, "address": null, "name": null, "id": "37447"}, "mid": "888002107630003", "shopId": "37447", "netid": null, "province": 901, "district": 601, "zipcode": null, "telephone": null, "posDate": null, "destineTel": null, "togoTel": null, "trafficWay": null, "signBuilding": null, "businessArea": null, "selfRoom": null, "businessTime": null, "stall": null, "consume": null, "serviceFei": null, "favourable": null, "shopMemo": null, "appraise": null, "website": null, "memo": null, "payTypes": "\u6749\u5fb7\u5361", "shopTypes": "\u96f6\u552e", "consumeTypes": null, "cookTypes": null, "orderNum": 1000, "card4no": null, "card4noAcc": null, "district2": 407, "searchScope": null, "status": 1, "address": "\u970d\u5c71\u8def111\u53f7333\u644a\u4f4d", "name": "\u65b0\u96c5\u534a\u6210\u54c1 \u970d\u5c71\u83dc\u573a\u5e97", "id": 158788, "pageNo": 0, "pageCount": null, "pageSize": 10, "ids": null, "endTime": null, "startTime": null}, {"cardNumFive": null, "isSupportYj": null, "cityName": null, "districtName": null, "shopinfo": {"mid": "888002107630003", "good_flag": null, "new_flag": null, "short_name": "\u65b0\u96c5\u534a\u6210\u54c1", "short_name_pinyin": "xinyabanchengpin", "status": null, "address": null, "name": null, "id": "37447"}, "mid": "888002107630003", "shopId": "37447", "netid": null, "province": 901, "district": 601, "zipcode": null, "telephone": null, "posDate": null, "destineTel": null, "togoTel": null, "trafficWay": null, "signBuilding": null, "businessArea": null, "selfRoom": null, "businessTime": null, "stall": null, "consume": null, "serviceFei": null, "favourable": null, "shopMemo": null, "appraise": null, "website": null, "memo": null, "payTypes": "\u6749\u5fb7\u5361", "shopTypes": "\u96f6\u552e", "consumeTypes": null, "cookTypes": null, "orderNum": 1000, "card4no": null, "card4noAcc": null, "district2": 407, "searchScope": null, "status": 1, "address": "\u53cc\u8fbd\u652f\u8def35\u53f721\u53f7\u644a\u4f4d", "name": "\u65b0\u96c5\u534a\u6210\u54c1 \u53cc\u8fbd\u83dc\u573a\u5e97", "id": 158789, "pageNo": 0, "pageCount": null, "pageSize": 10, "ids": null, "endTime": null, "startTime": null}, {"cardNumFive": null, "isSupportYj": null, "cityName": null, "districtName": null, "shopinfo": {"mid": "888002107630003", "good_flag": null, "new_flag": null, "short_name": "\u65b0\u96c5\u534a\u6210\u54c1", "short_name_pinyin": "xinyabanchengpin", "status": null, "address": null, "name": null, "id": "37447"}, "mid": "888002107630003", "shopId": "37447", "netid": null, "province": 901, "district": 601, "zipcode": null, "telephone": null, "posDate": null, "destineTel": null, "togoTel": null, "trafficWay": null, "signBuilding": null, "businessArea": null, "selfRoom": null, "businessTime": null, "stall": null, "consume": null, "serviceFei": null, "favourable": null, "shopMemo": null, "appraise": null, "website": null, "memo": null, "payTypes": "\u6749\u5fb7\u5361", "shopTypes": "\u96f6\u552e", "consumeTypes": null, "cookTypes": null, "orderNum": 1000, "card4no": null, "card4noAcc": null, "district2": 405, "searchScope": null, "status": 1, "address": "\u6885\u5ddd\u8def1481\u53f7", "name": "\u65b0\u96c5\u534a\u6210\u54c1 \u4e07\u80dc\u83dc\u573a\u5e97", "id": 158790, "pageNo": 0, "pageCount": null, "pageSize": 10, "ids": null, "endTime": null, "startTime": null}, {"cardNumFive": null, "isSupportYj": null, "cityName": null, "districtName": null, "shopinfo": {"mid": "888002107630003", "good_flag": null, "new_flag": null, "short_name": "\u65b0\u96c5\u534a\u6210\u54c1", "short_name_pinyin": "xinyabanchengpin", "status": null, "address": null, "name": null, "id": "37447"}, "mid": "888002107630003", "shopId": "37447", "netid": null, "province": 901, "district": 601, "zipcode": null, "telephone": null, "posDate": null, "destineTel": null, "togoTel": null, "trafficWay": null, "signBuilding": null, "businessArea": null, "selfRoom": null, "businessTime": null, "stall": null, "consume": null, "serviceFei": null, "favourable": null, "shopMemo": null, "appraise": null, "website": null, "memo": null, "payTypes": "\u6749\u5fb7\u5361", "shopTypes": "\u96f6\u552e", "consumeTypes": null, "cookTypes": null, "orderNum": 1000, "card4no": null, "card4noAcc": null, "district2": 403, "searchScope": null, "status": 1, "address": "\u5b9c\u5c71\u8def\u7530\u6797\u5341\u67512\u697c094\u644a\u4f4d", "name": "\u65b0\u96c5\u534a\u6210\u54c1 \u5b9c\u5c71\u83dc\u573a\u5e97", "id": 158791, "pageNo": 0, "pageCount": null, "pageSize": 10, "ids": null, "endTime": null, "startTime": null}, {"cardNumFive": null, "isSupportYj": null, "cityName": null, "districtName": null, "shopinfo": {"mid": "888002107630003", "good_flag": null, "new_flag": null, "short_name": "\u65b0\u96c5\u534a\u6210\u54c1", "short_name_pinyin": "xinyabanchengpin", "status": null, "address": null, "name": null, "id": "37447"}, "mid": "888002107630003", "shopId": "37447", "netid": null, "province": 901, "district": 601, "zipcode": null, "telephone": null, "posDate": null, "destineTel": null, "togoTel": null, "trafficWay": null, "signBuilding": null, "businessArea": null, "selfRoom": null, "businessTime": null, "stall": null, "consume": null, "serviceFei": null, "favourable": null, "shopMemo": null, "appraise": null, "website": null, "memo": null, "payTypes": "\u6749\u5fb7\u5361", "shopTypes": "\u96f6\u552e", "consumeTypes": null, "cookTypes": null, "orderNum": 1000, "card4no": null, "card4noAcc": null, "district2": 418, "searchScope": null, "status": 1, "address": "\u660c\u91cc\u4e1c\u8def738\u53f7", "name": "\u65b0\u96c5\u534a\u6210\u54c1 \u4e91\u83b2\u83dc\u573a\u5e97", "id": 158792, "pageNo": 0, "pageCount": null, "pageSize": 10, "ids": null, "endTime": null, "startTime": null}, {"cardNumFive": null, "isSupportYj": null, "cityName": null, "districtName": null, "shopinfo": {"mid": "888002107630003", "good_flag": null, "new_flag": null, "short_name": "\u65b0\u96c5\u534a\u6210\u54c1", "short_name_pinyin": "xinyabanchengpin", "status": null, "address": null, "name": null, "id": "37447"}, "mid": "888002107630003", "shopId": "37447", "netid": null, "province": 901, "district": 601, "zipcode": null, "telephone": null, "posDate": null, "destineTel": null, "togoTel": null, "trafficWay": null, "signBuilding": null, "businessArea": null, "selfRoom": null, "businessTime": null, "stall": null, "consume": null, "serviceFei": null, "favourable": null, "shopMemo": null, "appraise": null, "website": null, "memo": null, "payTypes": "\u6749\u5fb7\u5361", "shopTypes": "\u96f6\u552e", "consumeTypes": null, "cookTypes": null, "orderNum": 1000, "card4no": null, "card4noAcc": null, "district2": 406, "searchScope": null, "status": 1, "address": "\u6b66\u5937\u8def304\u53f7", "name": "\u65b0\u96c5\u534a\u6210\u54c1 \u5468\u6b27\u83dc\u573a\u5e97", "id": 158793, "pageNo": 0, "pageCount": null, "pageSize": 10, "ids": null, "endTime": null, "startTime": null}, {"cardNumFive": null, "isSupportYj": null, "cityName": null, "districtName": null, "shopinfo": {"mid": "888002107630003", "good_flag": null, "new_flag": null, "short_name": "\u65b0\u96c5\u534a\u6210\u54c1", "short_name_pinyin": "xinyabanchengpin", "status": null, "address": null, "name": null, "id": "37447"}, "mid": "888002107630003", "shopId": "37447", "netid": null, "province": 901, "district": 601, "zipcode": null, "telephone": null, "posDate": null, "destineTel": null, "togoTel": null, "trafficWay": null, "signBuilding": null, "businessArea": null, "selfRoom": null, "businessTime": null, "stall": null, "consume": null, "serviceFei": null, "favourable": null, "shopMemo": null, "appraise": null, "website": null, "memo": null, "payTypes": "\u6749\u5fb7\u5361", "shopTypes": "\u96f6\u552e", "consumeTypes": null, "cookTypes": null, "orderNum": 1000, "card4no": null, "card4noAcc": null, "district2": 418, "searchScope": null, "status": 1, "address": "\u798f\u5c71\u8def307\u53f7", "name": "\u65b0\u96c5\u534a\u6210\u54c1 \u7af9\u56ed\u83dc\u573a\u5e97", "id": 158794, "pageNo": 0, "pageCount": null, "pageSize": 10, "ids": null, "endTime": null, "startTime": null}], "pageLimit": 10220, "size": 10}