{"pageCount": 1095, "count": 10942, "pageNo": 1049, "subShopInfo": {"cardNumFive": "", "isSupportYj": "", "cityName": null, "districtName": null, "shopinfo": {"mid": null, "good_flag": null, "new_flag": null, "short_name": null, "short_name_pinyin": null, "status": null, "address": "", "name": "", "id": null}, "mid": null, "shopId": null, "netid": null, "province": 901, "district": null, "zipcode": null, "telephone": null, "posDate": null, "destineTel": null, "togoTel": null, "trafficWay": null, "signBuilding": null, "businessArea": null, "selfRoom": null, "businessTime": null, "stall": null, "consume": null, "serviceFei": null, "favourable": null, "shopMemo": "1", "appraise": null, "website": null, "memo": null, "payTypes": "", "shopTypes": "", "consumeTypes": null, "cookTypes": null, "orderNum": null, "card4no": null, "card4noAcc": null, "district2": null, "searchScope": null, "status": null, "address": "", "name": null, "id": null, "pageNo": 1048, "pageCount": null, "pageSize": 10, "ids": null, "endTime": null, "startTime": null}, "list": [{"cardNumFive": null, "isSupportYj": null, "cityName": null, "districtName": null, "shopinfo": {"mid": "888002154110279", "good_flag": null, "new_flag": "2", "short_name": "\u559c\u58eb\u591a", "short_name_pinyin": "xishiduo", "status": null, "address": null, "name": null, "id": "43104"}, "mid": "888002154110279", "shopId": "43104", "netid": null, "province": 901, "district": 601, "zipcode": null, "telephone": null, "posDate": null, "destineTel": null, "togoTel": null, "trafficWay": null, "signBuilding": null, "businessArea": null, "selfRoom": null, "businessTime": null, "stall": null, "consume": null, "serviceFei": null, "favourable": null, "shopMemo": null, "appraise": null, "website": null, "memo": null, "payTypes": "\u6749\u5fb7\u5361,", "shopTypes": "\u4fbf\u5229\u5e97", "consumeTypes": null, "cookTypes": null, "orderNum": null, "card4no": null, "card4noAcc": null, "district2": 409, "searchScope": null, "status": 1, "address": "\u8679\u4e95\u8def188\u53f71\u53f7\u697cC\u680b1\u5c42112.113\u5ba4", "name": "\u534e\u80fd\u95e8\u5e02", "id": 418057310510776320, "pageNo": 0, "pageCount": null, "pageSize": 10, "ids": null, "endTime": null, "startTime": null}, {"cardNumFive": null, "isSupportYj": null, "cityName": null, "districtName": null, "shopinfo": {"mid": "888002154110279", "good_flag": null, "new_flag": "2", "short_name": "\u559c\u58eb\u591a", "short_name_pinyin": "xishiduo", "status": null, "address": null, "name": null, "id": "43104"}, "mid": "888002154110279", "shopId": "43104", "netid": null, "province": 901, "district": 601, "zipcode": null, "telephone": null, "posDate": null, "destineTel": null, "togoTel": null, "trafficWay": null, "signBuilding": null, "businessArea": null, "selfRoom": null, "businessTime": null, "stall": null, "consume": null, "serviceFei": null, "favourable": null, "shopMemo": null, "appraise": null, "website": null, "memo": null, "payTypes": "\u6749\u5fb7\u5361,", "shopTypes": "\u4fbf\u5229\u5e97", "consumeTypes": null, "cookTypes": null, "orderNum": null, "card4no": null, "card4noAcc": null, "district2": 413, "searchScope": null, "status": 1, "address": "\u516b\u5b57\u6865459-461\u53f7\uff08\u9760\u8fd1\u73af\u57ce\u4e1c\u8def\uff09", "name": "\u516b\u5b57\u6865\u95e8\u5e02", "id": 418057328328179712, "pageNo": 0, "pageCount": null, "pageSize": 10, "ids": null, "endTime": null, "startTime": null}, {"cardNumFive": null, "isSupportYj": null, "cityName": null, "districtName": null, "shopinfo": {"mid": "888002154110279", "good_flag": null, "new_flag": "2", "short_name": "\u559c\u58eb\u591a", "short_name_pinyin": "xishiduo", "status": null, "address": null, "name": null, "id": "43104"}, "mid": "888002154110279", "shopId": "43104", "netid": null, "province": 901, "district": 601, "zipcode": null, "telephone": null, "posDate": null, "destineTel": null, "togoTel": null, "trafficWay": null, "signBuilding": null, "businessArea": null, "selfRoom": null, "businessTime": null, "stall": null, "consume": null, "serviceFei": null, "favourable": null, "shopMemo": null, "appraise": null, "website": null, "memo": null, "payTypes": "\u6749\u5fb7\u5361,", "shopTypes": "\u4fbf\u5229\u5e97", "consumeTypes": null, "cookTypes": null, "orderNum": null, "card4no": null, "card4noAcc": null, "district2": 405, "searchScope": null, "status": 1, "address": "\u6c34\u6cc9\u8def25\u53f7", "name": "\u6c34\u6cc9\u95e8\u5e02", "id": 418057328877633536, "pageNo": 0, "pageCount": null, "pageSize": 10, "ids": null, "endTime": null, "startTime": null}, {"cardNumFive": null, "isSupportYj": null, "cityName": null, "districtName": null, "shopinfo": {"mid": "888002154110279", "good_flag": null, "new_flag": "2", "short_name": "\u559c\u58eb\u591a", "short_name_pinyin": "xishiduo", "status": null, "address": null, "name": null, "id": "43104"}, "mid": "888002154110279", "shopId": "43104", "netid": null, "province": 901, "district": 601, "zipcode": null, "telephone": null, "posDate": null, "destineTel": null, "togoTel": null, "trafficWay": null, "signBuilding": null, "businessArea": null, "selfRoom": null, "businessTime": null, "stall": null, "consume": null, "serviceFei": null, "favourable": null, "shopMemo": null, "appraise": null, "website": null, "memo": null, "payTypes": "\u6749\u5fb7\u5361,", "shopTypes": "\u4fbf\u5229\u5e97", "consumeTypes": null, "cookTypes": null, "orderNum": null, "card4no": null, "card4noAcc": null, "district2": 404, "searchScope": null, "status": 1, "address": "\u7075\u77f3\u8def658\u53f7", "name": "\u7075\u77f3\u95e8\u5e02", "id": 418057329229955072, "pageNo": 0, "pageCount": null, "pageSize": 10, "ids": null, "endTime": null, "startTime": null}, {"cardNumFive": null, "isSupportYj": null, "cityName": null, "districtName": null, "shopinfo": {"mid": "888002154110279", "good_flag": null, "new_flag": "2", "short_name": "\u559c\u58eb\u591a", "short_name_pinyin": "xishiduo", "status": null, "address": null, "name": null, "id": "43104"}, "mid": "888002154110279", "shopId": "43104", "netid": null, "province": 901, "district": 601, "zipcode": null, "telephone": null, "posDate": null, "destineTel": null, "togoTel": null, "trafficWay": null, "signBuilding": null, "businessArea": null, "selfRoom": null, "businessTime": null, "stall": null, "consume": null, "serviceFei": null, "favourable": null, "shopMemo": null, "appraise": null, "website": null, "memo": null, "payTypes": "\u6749\u5fb7\u5361,", "shopTypes": "\u4fbf\u5229\u5e97", "consumeTypes": null, "cookTypes": null, "orderNum": null, "card4no": null, "card4noAcc": null, "district2": 405, "searchScope": null, "status": 1, "address": "\u4e2d\u5c71\u5317\u8def3018\u53f7\u957f\u57ce\u5927\u53a6B1\u697cA\u533aA40", "name": "\u51ef\u65cb2\u95e8\u5e02", "id": 418057329632608256, "pageNo": 0, "pageCount": null, "pageSize": 10, "ids": null, "endTime": null, "startTime": null}, {"cardNumFive": null, "isSupportYj": null, "cityName": null, "districtName": null, "shopinfo": {"mid": "888002154110279", "good_flag": null, "new_flag": "2", "short_name": "\u559c\u58eb\u591a", "short_name_pinyin": "xishiduo", "status": null, "address": null, "name": null, "id": "43104"}, "mid": "888002154110279", "shopId": "43104", "netid": null, "province": 901, "district": 601, "zipcode": null, "telephone": null, "posDate": null, "destineTel": null, "togoTel": null, "trafficWay": null, "signBuilding": null, "businessArea": null, "selfRoom": null, "businessTime": null, "stall": null, "consume": null, "serviceFei": null, "favourable": null, "shopMemo": null, "appraise": null, "website": null, "memo": null, "payTypes": "\u6749\u5fb7\u5361,", "shopTypes": "\u4fbf\u5229\u5e97", "consumeTypes": null, "cookTypes": null, "orderNum": null, "card4no": null, "card4noAcc": null, "district2": 401, "searchScope": null, "status": 1, "address": "\u897f\u85cf\u5357\u8def1743\u53f7(\u8000\u6c5f\u82b1\u56ed\u6821\u533a\u6b63\u95e8\u65c1)", "name": "\u897f\u85cf\u5357\u95e8\u5e02", "id": 418057331796869120, "pageNo": 0, "pageCount": null, "pageSize": 10, "ids": null, "endTime": null, "startTime": null}, {"cardNumFive": null, "isSupportYj": null, "cityName": null, "districtName": null, "shopinfo": {"mid": "888002154110279", "good_flag": null, "new_flag": "2", "short_name": "\u559c\u58eb\u591a", "short_name_pinyin": "xishiduo", "status": null, "address": null, "name": null, "id": "43104"}, "mid": "888002154110279", "shopId": "43104", "netid": null, "province": 901, "district": 601, "zipcode": null, "telephone": null, "posDate": null, "destineTel": null, "togoTel": null, "trafficWay": null, "signBuilding": null, "businessArea": null, "selfRoom": null, "businessTime": null, "stall": null, "consume": null, "serviceFei": null, "favourable": null, "shopMemo": null, "appraise": null, "website": null, "memo": null, "payTypes": "\u6749\u5fb7\u5361,", "shopTypes": "\u4fbf\u5229\u5e97", "consumeTypes": null, "cookTypes": null, "orderNum": null, "card4no": null, "card4noAcc": null, "district2": 409, "searchScope": null, "status": 1, "address": "\u4e03\u8398\u8def3599\u5f041\u53f7\uff08\u534e\u5546\u65f6\u4ee3\u5e7f\u573a\uff09", "name": "\u534e\u5546\u95e8\u5e02", "id": 418057366219522048, "pageNo": 0, "pageCount": null, "pageSize": 10, "ids": null, "endTime": null, "startTime": null}, {"cardNumFive": null, "isSupportYj": null, "cityName": null, "districtName": null, "shopinfo": {"mid": "888002154110279", "good_flag": null, "new_flag": "2", "short_name": "\u559c\u58eb\u591a", "short_name_pinyin": "xishiduo", "status": null, "address": null, "name": null, "id": "43104"}, "mid": "888002154110279", "shopId": "43104", "netid": null, "province": 901, "district": 601, "zipcode": null, "telephone": null, "posDate": null, "destineTel": null, "togoTel": null, "trafficWay": null, "signBuilding": null, "businessArea": null, "selfRoom": null, "businessTime": null, "stall": null, "consume": null, "serviceFei": null, "favourable": null, "shopMemo": null, "appraise": null, "website": null, "memo": null, "payTypes": "\u6749\u5fb7\u5361,", "shopTypes": "\u4fbf\u5229\u5e97", "consumeTypes": null, "cookTypes": null, "orderNum": null, "card4no": null, "card4noAcc": null, "district2": 417, "searchScope": null, "status": 1, "address": "\u6c47\u91d1\u8def588\u5f0470\u53f7\u5546\u94fa", "name": "\u9752\u5b9d\u95e8\u5e02", "id": 418057366903193600, "pageNo": 0, "pageCount": null, "pageSize": 10, "ids": null, "endTime": null, "startTime": null}, {"cardNumFive": null, "isSupportYj": null, "cityName": null, "districtName": null, "shopinfo": {"mid": "888002154110279", "good_flag": null, "new_flag": "2", "short_name": "\u559c\u58eb\u591a", "short_name_pinyin": "xishiduo", "status": null, "address": null, "name": null, "id": "43104"}, "mid": "888002154110279", "shopId": "43104", "netid": null, "province": 901, "district": 601, "zipcode": null, "telephone": null, "posDate": null, "destineTel": null, "togoTel": null, "trafficWay": null, "signBuilding": null, "businessArea": null, "selfRoom": null, "businessTime": null, "stall": null, "consume": null, "serviceFei": null, "favourable": null, "shopMemo": null, "appraise": null, "website": null, "memo": null, "payTypes": "\u6749\u5fb7\u5361,", "shopTypes": "\u4fbf\u5229\u5e97", "consumeTypes": null, "cookTypes": null, "orderNum": null, "card4no": null, "card4noAcc": null, "district2": 407, "searchScope": null, "status": 1, "address": "\u653f\u6c11\u8def510\u53f7", "name": "\u653f\u6c112\u95e8\u5e02", "id": 418057370254442496, "pageNo": 0, "pageCount": null, "pageSize": 10, "ids": null, "endTime": null, "startTime": null}, {"cardNumFive": null, "isSupportYj": null, "cityName": null, "districtName": null, "shopinfo": {"mid": "888002154110279", "good_flag": null, "new_flag": "2", "short_name": "\u559c\u58eb\u591a", "short_name_pinyin": "xishiduo", "status": null, "address": null, "name": null, "id": "43104"}, "mid": "888002154110279", "shopId": "43104", "netid": null, "province": 901, "district": 601, "zipcode": null, "telephone": null, "posDate": null, "destineTel": null, "togoTel": null, "trafficWay": null, "signBuilding": null, "businessArea": null, "selfRoom": null, "businessTime": null, "stall": null, "consume": null, "serviceFei": null, "favourable": null, "shopMemo": null, "appraise": null, "website": null, "memo": null, "payTypes": "\u6749\u5fb7\u5361,", "shopTypes": "\u4fbf\u5229\u5e97", "consumeTypes": null, "cookTypes": null, "orderNum": null, "card4no": null, "card4noAcc": null, "district2": 418, "searchScope": null, "status": 1, "address": "\u822a\u90fd\u8def18\u53f7\uff08\u4e07\u9999\u521b\u65b0\u65b0\u6e2f\u56ed\u533a\uff09", "name": "\u822a\u90fd\u95e8\u5e02", "id": 418057370954891264, "pageNo": 0, "pageCount": null, "pageSize": 10, "ids": null, "endTime": null, "startTime": null}], "pageLimit": 10480, "size": 10}