{"pageCount": 1095, "count": 10942, "pageNo": 1059, "subShopInfo": {"cardNumFive": "", "isSupportYj": "", "cityName": null, "districtName": null, "shopinfo": {"mid": null, "good_flag": null, "new_flag": null, "short_name": null, "short_name_pinyin": null, "status": null, "address": "", "name": "", "id": null}, "mid": null, "shopId": null, "netid": null, "province": 901, "district": null, "zipcode": null, "telephone": null, "posDate": null, "destineTel": null, "togoTel": null, "trafficWay": null, "signBuilding": null, "businessArea": null, "selfRoom": null, "businessTime": null, "stall": null, "consume": null, "serviceFei": null, "favourable": null, "shopMemo": "1", "appraise": null, "website": null, "memo": null, "payTypes": "", "shopTypes": "", "consumeTypes": null, "cookTypes": null, "orderNum": null, "card4no": null, "card4noAcc": null, "district2": null, "searchScope": null, "status": null, "address": "", "name": null, "id": null, "pageNo": 1058, "pageCount": null, "pageSize": 10, "ids": null, "endTime": null, "startTime": null}, "list": [{"cardNumFive": null, "isSupportYj": null, "cityName": null, "districtName": null, "shopinfo": {"mid": "888002158120156", "good_flag": null, "new_flag": null, "short_name": "\u4e00\u8336\u4e00\u5750", "short_name_pinyin": "yichayizuo", "status": null, "address": null, "name": null, "id": "43232"}, "mid": "888002158120156", "shopId": "43232", "netid": null, "province": 901, "district": 601, "zipcode": null, "telephone": null, "posDate": null, "destineTel": null, "togoTel": null, "trafficWay": null, "signBuilding": null, "businessArea": null, "selfRoom": null, "businessTime": null, "stall": null, "consume": null, "serviceFei": null, "favourable": null, "shopMemo": null, "appraise": null, "website": null, "memo": null, "payTypes": "\u6749\u5fb7\u5361", "shopTypes": "\u9910\u996e", "consumeTypes": null, "cookTypes": null, "orderNum": 1000, "card4no": null, "card4noAcc": null, "district2": 407, "searchScope": null, "status": 1, "address": "\u63a7\u6c5f\u8def1628\u53f7\u7d2b\u8346\u5e7f\u573a\u4e09\u697c3-15\u53f7\uff08\u65b0\u534e\u533b\u9662\u5bf9\u9762\uff09", "name": "\u4e00\u8336\u4e00\u5750 \u63a7\u6c5f\u8def\u5e97", "id": 196870, "pageNo": 0, "pageCount": null, "pageSize": 10, "ids": null, "endTime": null, "startTime": null}, {"cardNumFive": null, "isSupportYj": null, "cityName": null, "districtName": null, "shopinfo": {"mid": "888002158120156", "good_flag": null, "new_flag": null, "short_name": "\u4e00\u8336\u4e00\u5750", "short_name_pinyin": "yichayizuo", "status": null, "address": null, "name": null, "id": "43232"}, "mid": "888002158120156", "shopId": "43232", "netid": null, "province": 901, "district": 601, "zipcode": null, "telephone": null, "posDate": null, "destineTel": null, "togoTel": null, "trafficWay": null, "signBuilding": null, "businessArea": null, "selfRoom": null, "businessTime": null, "stall": null, "consume": null, "serviceFei": null, "favourable": null, "shopMemo": null, "appraise": null, "website": null, "memo": null, "payTypes": "\u6749\u5fb7\u5361", "shopTypes": "\u9910\u996e", "consumeTypes": null, "cookTypes": null, "orderNum": 1000, "card4no": null, "card4noAcc": null, "district2": 401, "searchScope": null, "status": 1, "address": "\u6dee\u6d77\u4e2d\u8def939-949\u53f71\u53f7\u697c\u5df4\u9ece\u6625\u5929\u6dee\u6d77\u5e975\u5c42\u5341\u4e00~\u5341\u4e94\u53f7\u5546\u94fa", "name": "\u4e00\u8336\u4e00\u5750 \u6dee\u5df4\u5e97", "id": 199083, "pageNo": 0, "pageCount": null, "pageSize": 10, "ids": null, "endTime": null, "startTime": null}, {"cardNumFive": null, "isSupportYj": null, "cityName": null, "districtName": null, "shopinfo": {"mid": "888002158122175", "good_flag": "2", "new_flag": "2", "short_name": "\u9038\u81e3\u9910\u996e", "short_name_pinyin": "yichencanyin", "status": null, "address": null, "name": null, "id": "33959"}, "mid": "888002158122175", "shopId": "33959", "netid": null, "province": 901, "district": 601, "zipcode": null, "telephone": null, "posDate": null, "destineTel": null, "togoTel": null, "trafficWay": null, "signBuilding": null, "businessArea": null, "selfRoom": null, "businessTime": null, "stall": null, "consume": null, "serviceFei": null, "favourable": null, "shopMemo": null, "appraise": null, "website": null, "memo": null, "payTypes": "\u6749\u5fb7\u5361", "shopTypes": "\u9910\u996e", "consumeTypes": null, "cookTypes": null, "orderNum": 1000, "card4no": null, "card4noAcc": null, "district2": 406, "searchScope": null, "status": 1, "address": "\u8679\u6865\u673a\u573aT2\u822a\u7ad9\u697c", "name": "\u9038\u81e3\u9910\u996e \u8679\u6865\u673a\u573a\u5e97", "id": 144449, "pageNo": 0, "pageCount": null, "pageSize": 10, "ids": null, "endTime": null, "startTime": null}, {"cardNumFive": null, "isSupportYj": null, "cityName": null, "districtName": null, "shopinfo": {"mid": "888888880430081", "good_flag": "2", "new_flag": "2", "short_name": "\u4e00\u4ee3\u773c\u955c", "short_name_pinyin": "yidaiyanjing", "status": null, "address": null, "name": null, "id": "33896"}, "mid": "888888880430081", "shopId": "33896", "netid": null, "province": 901, "district": 601, "zipcode": null, "telephone": "54242693", "posDate": null, "destineTel": null, "togoTel": null, "trafficWay": null, "signBuilding": null, "businessArea": null, "selfRoom": null, "businessTime": null, "stall": null, "consume": null, "serviceFei": null, "favourable": null, "shopMemo": null, "appraise": null, "website": null, "memo": null, "payTypes": ",\u6749\u5fb7\u5361", "shopTypes": "\u4e13\u5356", "consumeTypes": null, "cookTypes": null, "orderNum": 1000, "card4no": null, "card4noAcc": null, "district2": 403, "searchScope": null, "status": 1, "address": "\u8087\u5609\u6d5c\u8def1111\u53f7\u7f8e\u7f57\u57ce1\u697cA22", "name": "\u4e00\u4ee3\u773c\u955c \u7f8e\u7f57\u5e97", "id": 144270, "pageNo": 0, "pageCount": null, "pageSize": 10, "ids": null, "endTime": null, "startTime": null}, {"cardNumFive": null, "isSupportYj": null, "cityName": null, "districtName": null, "shopinfo": {"mid": "888002180431097", "good_flag": null, "new_flag": null, "short_name": "\u4e00\u4ee3\u773c\u955c", "short_name_pinyin": "yidaiyanjing", "status": null, "address": null, "name": null, "id": "39283"}, "mid": "888002180431097", "shopId": "39283", "netid": null, "province": 901, "district": 601, "zipcode": null, "telephone": "61157331", "posDate": null, "destineTel": null, "togoTel": null, "trafficWay": null, "signBuilding": null, "businessArea": null, "selfRoom": null, "businessTime": null, "stall": null, "consume": null, "serviceFei": null, "favourable": null, "shopMemo": null, "appraise": null, "website": null, "memo": null, "payTypes": "\u6749\u5fb7\u5361", "shopTypes": "\u4e13\u5356", "consumeTypes": null, "cookTypes": null, "orderNum": 1000, "card4no": null, "card4noAcc": null, "district2": 406, "searchScope": null, "status": 1, "address": "\u957f\u5b81\u8def1018\u53f7\u5730\u4e0b\u4e8c\u5c42", "name": "\u4e00\u4ee3\u773c\u955c \u957f\u5b81\u9f99\u4e4b\u68a6\u5e97", "id": 168513, "pageNo": 0, "pageCount": null, "pageSize": 10, "ids": null, "endTime": null, "startTime": null}, {"cardNumFive": null, "isSupportYj": null, "cityName": null, "districtName": null, "shopinfo": {"mid": "888888856610018", "good_flag": "2", "new_flag": "2", "short_name": "\u610f\u800c\u5eb7\u4e13\u5356\u5e97", "short_name_pinyin": "yierkangzhuanmaidian", "status": null, "address": null, "name": null, "id": "33964"}, "mid": "888888856610018", "shopId": "33964", "netid": null, "province": 901, "district": 601, "zipcode": null, "telephone": "69106989", "posDate": "20090121", "destineTel": null, "togoTel": null, "trafficWay": null, "signBuilding": null, "businessArea": null, "selfRoom": null, "businessTime": "9:00~23:00", "stall": null, "consume": null, "serviceFei": null, "favourable": null, "shopMemo": null, "appraise": null, "website": null, "memo": null, "payTypes": "\u6749\u5fb7\u5361", "shopTypes": "\u4e13\u5356", "consumeTypes": null, "cookTypes": null, "orderNum": 1000, "card4no": null, "card4noAcc": null, "district2": 411, "searchScope": null, "status": 1, "address": "\u66f9\u5b89\u516c\u8def1793\u53f7", "name": "\u610f\u800c\u5eb7\u4e13\u5356\u5e97 \u66f9\u5b89\u516c\u8def\u5e97", "id": 144459, "pageNo": 0, "pageCount": null, "pageSize": 10, "ids": null, "endTime": null, "startTime": null}, {"cardNumFive": null, "isSupportYj": null, "cityName": null, "districtName": null, "shopinfo": {"mid": "888002159120439", "good_flag": "2", "new_flag": "2", "short_name": "\u76ca\u4e30\u5927\u836f\u623f", "short_name_pinyin": "yifengdayaofang", "status": null, "address": null, "name": null, "id": "565224396508102656"}, "mid": "888002159120439", "shopId": "565224396508102656", "netid": null, "province": 901, "district": 601, "zipcode": null, "telephone": null, "posDate": null, "destineTel": null, "togoTel": null, "trafficWay": null, "signBuilding": null, "businessArea": null, "selfRoom": null, "businessTime": null, "stall": null, "consume": null, "serviceFei": null, "favourable": null, "shopMemo": null, "appraise": null, "website": null, "memo": null, "payTypes": "\u6749\u5fb7\u5361,", "shopTypes": null, "consumeTypes": null, "cookTypes": null, "orderNum": null, "card4no": null, "card4noAcc": null, "district2": 418, "searchScope": null, "status": 1, "address": "\u80f6\u4e1c\u8def256\u53f7\u5e95\u5c42", "name": "\u76ca\u4e30\u5927\u836f\u623f\u80f6\u4e1c\u8def\u5e97", "id": 565224394616471552, "pageNo": 0, "pageCount": null, "pageSize": 10, "ids": null, "endTime": null, "startTime": null}, {"cardNumFive": null, "isSupportYj": null, "cityName": null, "districtName": null, "shopinfo": {"mid": "888002159120441", "good_flag": "2", "new_flag": "2", "short_name": "\u76ca\u4e30\u82b8\u5eb7\u5927\u836f\u623f", "short_name_pinyin": "yifengyunkangdayaofang", "status": null, "address": null, "name": null, "id": "565224397724450816"}, "mid": "888002159120441", "shopId": "565224397724450816", "netid": null, "province": 901, "district": 601, "zipcode": null, "telephone": null, "posDate": null, "destineTel": null, "togoTel": null, "trafficWay": null, "signBuilding": null, "businessArea": null, "selfRoom": null, "businessTime": null, "stall": null, "consume": null, "serviceFei": null, "favourable": null, "shopMemo": null, "appraise": null, "website": null, "memo": null, "payTypes": "\u6749\u5fb7\u5361,", "shopTypes": null, "consumeTypes": null, "cookTypes": null, "orderNum": null, "card4no": null, "card4noAcc": null, "district2": 405, "searchScope": null, "status": 1, "address": "\u94dc\u5ddd\u8def1127\u53f7", "name": "\u76ca\u4e30\u82b8\u5eb7\u5927\u836f\u623f", "id": 565224395786682368, "pageNo": 0, "pageCount": null, "pageSize": 10, "ids": null, "endTime": null, "startTime": null}, {"cardNumFive": null, "isSupportYj": null, "cityName": null, "districtName": null, "shopinfo": {"mid": "888888873990039", "good_flag": "2", "new_flag": "2", "short_name": "\u9038\u592b\u821e\u53f0", "short_name_pinyin": "yifuwutai", "status": null, "address": null, "name": null, "id": "33960"}, "mid": "888888873990039", "shopId": "33960", "netid": null, "province": 901, "district": 601, "zipcode": null, "telephone": "63225075", "posDate": null, "destineTel": null, "togoTel": null, "trafficWay": "\u5730\u94c1\u4e8c\u53f7\u7ebf", "signBuilding": null, "businessArea": null, "selfRoom": null, "businessTime": null, "stall": null, "consume": null, "serviceFei": null, "favourable": null, "shopMemo": null, "appraise": null, "website": null, "memo": null, "payTypes": "\u6749\u5fb7\u5361", "shopTypes": "\u4f11\u95f2", "consumeTypes": null, "cookTypes": null, "orderNum": 1000, "card4no": null, "card4noAcc": null, "district2": 401, "searchScope": null, "status": 1, "address": "\u798f\u5dde\u8def701\u53f7", "name": "\u9038\u592b\u821e\u53f0 \u798f\u5dde\u8def", "id": 144450, "pageNo": 0, "pageCount": null, "pageSize": 10, "ids": null, "endTime": null, "startTime": null}, {"cardNumFive": null, "isSupportYj": null, "cityName": null, "districtName": null, "shopinfo": {"mid": "888888854110259", "good_flag": "1", "new_flag": "2", "short_name": "\u6613\u4e70\u5f97", "short_name_pinyin": "yimaide", "status": null, "address": null, "name": null, "id": "33945"}, "mid": "888888854110259", "shopId": "33945", "netid": null, "province": 901, "district": 601, "zipcode": null, "telephone": "61421234*1060", "posDate": "20090324", "destineTel": null, "togoTel": null, "trafficWay": null, "signBuilding": null, "businessArea": null, "selfRoom": null, "businessTime": null, "stall": null, "consume": null, "serviceFei": null, "favourable": null, "shopMemo": null, "appraise": null, "website": null, "memo": null, "payTypes": "\u6749\u5fb7\u5361  \u5361\u62bc\u91d1\u6d88\u8d39", "shopTypes": "\u8d85\u5e02", "consumeTypes": null, "cookTypes": null, "orderNum": 1000, "card4no": null, "card4noAcc": null, "district2": 416, "searchScope": null, "status": 1, "address": "\u957f\u6c5f\u897f\u8def2211\u53f7", "name": "\u6613\u4e70\u5f97 \u957f\u6c5f\u5e97", "id": 144421, "pageNo": 0, "pageCount": null, "pageSize": 10, "ids": null, "endTime": null, "startTime": null}], "pageLimit": 10580, "size": 10}