{"pageCount": 1095, "count": 10942, "pageNo": 1054, "subShopInfo": {"cardNumFive": "", "isSupportYj": "", "cityName": null, "districtName": null, "shopinfo": {"mid": null, "good_flag": null, "new_flag": null, "short_name": null, "short_name_pinyin": null, "status": null, "address": "", "name": "", "id": null}, "mid": null, "shopId": null, "netid": null, "province": 901, "district": null, "zipcode": null, "telephone": null, "posDate": null, "destineTel": null, "togoTel": null, "trafficWay": null, "signBuilding": null, "businessArea": null, "selfRoom": null, "businessTime": null, "stall": null, "consume": null, "serviceFei": null, "favourable": null, "shopMemo": "1", "appraise": null, "website": null, "memo": null, "payTypes": "", "shopTypes": "", "consumeTypes": null, "cookTypes": null, "orderNum": null, "card4no": null, "card4noAcc": null, "district2": null, "searchScope": null, "status": null, "address": "", "name": null, "id": null, "pageNo": 1053, "pageCount": null, "pageSize": 10, "ids": null, "endTime": null, "startTime": null}, "list": [{"cardNumFive": null, "isSupportYj": null, "cityName": null, "districtName": null, "shopinfo": {"mid": "888002158120224", "good_flag": null, "new_flag": "2", "short_name": "\u897f\u5824", "short_name_pinyin": "xiti", "status": null, "address": null, "name": null, "id": "43235"}, "mid": "888002158120224", "shopId": "43235", "netid": null, "province": 901, "district": 601, "zipcode": null, "telephone": null, "posDate": null, "destineTel": null, "togoTel": null, "trafficWay": null, "signBuilding": null, "businessArea": null, "selfRoom": null, "businessTime": null, "stall": null, "consume": null, "serviceFei": null, "favourable": null, "shopMemo": null, "appraise": null, "website": null, "memo": null, "payTypes": "\u6749\u5fb7\u5361,", "shopTypes": "\u9910\u996e", "consumeTypes": null, "cookTypes": null, "orderNum": null, "card4no": null, "card4noAcc": null, "district2": 403, "searchScope": null, "status": 1, "address": "\u8087\u5609\u6d5c\u8def1111\u53f7\u7f8e\u7f57\u57ce\u7b2c4\u5c42A\u6bb5", "name": "\u4e0a\u6d77\u7f8e\u7f57\u57ce\u5e97", "id": 418057355549212672, "pageNo": 0, "pageCount": null, "pageSize": 10, "ids": null, "endTime": null, "startTime": null}, {"cardNumFive": null, "isSupportYj": null, "cityName": null, "districtName": null, "shopinfo": {"mid": "888888859700032", "good_flag": "2", "new_flag": "2", "short_name": "\u70ab\u793c", "short_name_pinyin": "xuanli", "status": null, "address": null, "name": null, "id": "33818"}, "mid": "888888859700032", "shopId": "33818", "netid": null, "province": 901, "district": 601, "zipcode": null, "telephone": "6,299,810,862,998,230", "posDate": null, "destineTel": null, "togoTel": null, "trafficWay": "24\u300136\u300154", "signBuilding": null, "businessArea": null, "selfRoom": null, "businessTime": null, "stall": null, "consume": null, "serviceFei": null, "favourable": null, "shopMemo": null, "appraise": null, "website": null, "memo": null, "payTypes": "\u6749\u5fb7\u5361", "shopTypes": "\u96f6\u552e", "consumeTypes": null, "cookTypes": null, "orderNum": 1000, "card4no": null, "card4noAcc": null, "district2": 404, "searchScope": null, "status": 1, "address": "\u5b89\u8fdc\u8def285\u53f7A104\u5ba4", "name": "\u70ab\u793c \u5b89\u8fdc\u8def\u5e97", "id": 144116, "pageNo": 0, "pageCount": null, "pageSize": 10, "ids": null, "endTime": null, "startTime": null}, {"cardNumFive": null, "isSupportYj": null, "cityName": null, "districtName": null, "shopinfo": {"mid": "888002159771034", "good_flag": "2", "new_flag": "2", "short_name": "\u96c5\u82b3", "short_name_pinyin": "yafang", "status": null, "address": null, "name": null, "id": "33834"}, "mid": "888002159771034", "shopId": "33834", "netid": null, "province": 901, "district": 601, "zipcode": null, "telephone": "13301955263", "posDate": "200909", "destineTel": null, "togoTel": null, "trafficWay": "\u516c\u4ea463\u3001165", "signBuilding": null, "businessArea": null, "selfRoom": null, "businessTime": null, "stall": null, "consume": null, "serviceFei": null, "favourable": null, "shopMemo": null, "appraise": null, "website": null, "memo": null, "payTypes": "\u6749\u5fb7\u5361", "shopTypes": "\u4e13\u5356", "consumeTypes": null, "cookTypes": null, "orderNum": 1000, "card4no": null, "card4noAcc": null, "district2": 405, "searchScope": null, "status": 1, "address": "\u5317\u77f3\u8def400\u5f04", "name": "\u96c5\u82b3 \u5317\u77f3\u8def\u5e97", "id": 144132, "pageNo": 0, "pageCount": null, "pageSize": 10, "ids": null, "endTime": null, "startTime": null}, {"cardNumFive": null, "isSupportYj": null, "cityName": null, "districtName": null, "shopinfo": {"mid": "888888859770060", "good_flag": "2", "new_flag": "2", "short_name": "\u96c5\u82b3", "short_name_pinyin": "yafang", "status": null, "address": null, "name": null, "id": "33836"}, "mid": "888888859770060", "shopId": "33836", "netid": null, "province": 901, "district": 601, "zipcode": null, "telephone": "59796205", "posDate": null, "destineTel": null, "togoTel": null, "trafficWay": "\u9752\u7eaa\u7ebf\u3001\u5609\u677e\u7ebf", "signBuilding": null, "businessArea": null, "selfRoom": null, "businessTime": "8:00~22:00", "stall": null, "consume": null, "serviceFei": null, "favourable": null, "shopMemo": null, "appraise": null, "website": null, "memo": null, "payTypes": "\u6749\u5fb7\u5361", "shopTypes": "\u4e13\u5356", "consumeTypes": null, "cookTypes": null, "orderNum": 1000, "card4no": null, "card4noAcc": null, "district2": 417, "searchScope": null, "status": 1, "address": "\u534e\u65b0\u9547\u534e\u65b0\u8857380\u53f7", "name": "\u96c5\u82b3 \u534e\u65b0\u8857\u5e97", "id": 144134, "pageNo": 0, "pageCount": null, "pageSize": 10, "ids": null, "endTime": null, "startTime": null}, {"cardNumFive": null, "isSupportYj": null, "cityName": null, "districtName": null, "shopinfo": {"mid": "888888856910037", "good_flag": "2", "new_flag": "2", "short_name": "\u96c5\u6208\u5c14", "short_name_pinyin": "yageer", "status": null, "address": null, "name": null, "id": "33840"}, "mid": "888888856910037", "shopId": "33840", "netid": null, "province": 901, "district": 601, "zipcode": "200001", "telephone": null, "posDate": "20070423", "destineTel": null, "togoTel": null, "trafficWay": "\u5730\u94c1\u4e00\u53f7\u7ebf \u5730\u94c1\u4e8c\u53f7\u7ebf \u65c5\u6e38\u5341\u53f7\u7ebf", "signBuilding": null, "businessArea": null, "selfRoom": null, "businessTime": null, "stall": null, "consume": null, "serviceFei": null, "favourable": null, "shopMemo": null, "appraise": null, "website": null, "memo": null, "payTypes": "\u6749\u5fb7\u5361", "shopTypes": "\u670d\u9970\u5bb6\u7eba", "consumeTypes": null, "cookTypes": null, "orderNum": 1000, "card4no": null, "card4noAcc": null, "district2": 401, "searchScope": null, "status": 1, "address": "\u5357\u4eac\u4e1c\u8def328\u53f7", "name": "\u96c5\u6208\u5c14 \u5357\u4eac\u4e1c\u8def\u65d7\u8230\u5e97", "id": 144139, "pageNo": 0, "pageCount": null, "pageSize": 10, "ids": null, "endTime": null, "startTime": null}, {"cardNumFive": null, "isSupportYj": null, "cityName": null, "districtName": null, "shopinfo": {"mid": "888888872980105", "good_flag": "1", "new_flag": "1", "short_name": "\u96c5\u66fc\u59ae", "short_name_pinyin": "yamanni", "status": null, "address": null, "name": null, "id": "33842"}, "mid": "888888872980105", "shopId": "33842", "netid": null, "province": 901, "district": 601, "zipcode": null, "telephone": null, "posDate": "20091221", "destineTel": null, "togoTel": null, "trafficWay": null, "signBuilding": null, "businessArea": null, "selfRoom": null, "businessTime": null, "stall": null, "consume": null, "serviceFei": null, "favourable": null, "shopMemo": null, "appraise": null, "website": null, "memo": null, "payTypes": "\u6749\u5fb7\u5361", "shopTypes": "\u7f8e\u5bb9\u7f8e\u53d1", "consumeTypes": null, "cookTypes": null, "orderNum": 1000, "card4no": null, "card4noAcc": null, "district2": 418, "searchScope": null, "status": 1, "address": "\u7d2b\u69d0\u8def5\u53f7\u300111\u53f7", "name": "\u96c5\u66fc\u59ae \u7d2b\u69d0\u8def\u5e97", "id": 144142, "pageNo": 0, "pageCount": null, "pageSize": 10, "ids": null, "endTime": null, "startTime": null}, {"cardNumFive": null, "isSupportYj": null, "cityName": null, "districtName": null, "shopinfo": {"mid": "888002153111148", "good_flag": null, "new_flag": null, "short_name": "\u5f9c\u7684\u5f95\u767e\u8d27\u5e97", "short_name_pinyin": "yangdelaibaihuodian", "status": null, "address": null, "name": null, "id": "36376"}, "mid": "888002153111148", "shopId": "36376", "netid": null, "province": 901, "district": 601, "zipcode": null, "telephone": null, "posDate": "20100907", "destineTel": null, "togoTel": null, "trafficWay": null, "signBuilding": null, "businessArea": null, "selfRoom": null, "businessTime": null, "stall": null, "consume": null, "serviceFei": null, "favourable": null, "shopMemo": null, "appraise": null, "website": null, "memo": null, "payTypes": "\u6749\u5fb7\u5361", "shopTypes": "\u767e\u8d27", "consumeTypes": null, "cookTypes": null, "orderNum": 1000, "card4no": null, "card4noAcc": null, "district2": 416, "searchScope": null, "status": 1, "address": "\u6708\u57ce\u8def252\u53f7\u4e00\u5c42", "name": "\u5f9c\u7684\u5f95\u767e\u8d27\u5e97 \u6708\u57ce\u8def\u5e97", "id": 151388, "pageNo": 0, "pageCount": null, "pageSize": 10, "ids": null, "endTime": null, "startTime": null}, {"cardNumFive": null, "isSupportYj": null, "cityName": null, "districtName": null, "shopinfo": {"mid": "888888853990191", "good_flag": "2", "new_flag": "2", "short_name": "\u9633\u6d66\u673a\u52a8\u8f66\u9a7e\u9a76\u5458\u57f9\u8bad", "short_name_pinyin": "yangpujidongchejiashiyuanpeixun", "status": null, "address": null, "name": null, "id": "33880"}, "mid": "888888853990191", "shopId": "33880", "netid": null, "province": 901, "district": 601, "zipcode": null, "telephone": "95105188; 51051500?", "posDate": "20090113", "destineTel": null, "togoTel": null, "trafficWay": "\u516c\u4ea4577 813 135\u533a\u95f4", "signBuilding": null, "businessArea": null, "selfRoom": null, "businessTime": null, "stall": null, "consume": null, "serviceFei": null, "favourable": null, "shopMemo": null, "appraise": null, "website": null, "memo": null, "payTypes": "\u6749\u5fb7\u5361", "shopTypes": "\u6559\u80b2\u57f9\u8bad", "consumeTypes": null, "cookTypes": null, "orderNum": 1000, "card4no": null, "card4noAcc": null, "district2": 407, "searchScope": null, "status": 1, "address": "\u9686\u660c\u8def55\u53f7", "name": "\u9633\u6d66\u673a\u52a8\u8f66\u9a7e\u9a76\u5458\u57f9\u8bad \u6768\u6d66\u5e97", "id": 144198, "pageNo": 0, "pageCount": null, "pageSize": 10, "ids": null, "endTime": null, "startTime": null}, {"cardNumFive": null, "isSupportYj": null, "cityName": null, "districtName": null, "shopinfo": {"mid": "888888857340041", "good_flag": "2", "new_flag": "2", "short_name": "\u989c\u8bfa\u6570\u7801\u6e2f", "short_name_pinyin": "yannuoshumagang", "status": null, "address": null, "name": null, "id": "33867"}, "mid": "888888857340041", "shopId": "33867", "netid": null, "province": 901, "district": 601, "zipcode": null, "telephone": "54865654", "posDate": "20090206", "destineTel": null, "togoTel": null, "trafficWay": "\u516c\u4ea4141 825 \u5730\u94c1\u4e8c\u53f7\u7ebf", "signBuilding": null, "businessArea": null, "selfRoom": null, "businessTime": "7:30~20:30", "stall": "\u6709", "consume": null, "serviceFei": null, "favourable": null, "shopMemo": null, "appraise": null, "website": null, "memo": null, "payTypes": "\u6749\u5fb7\u5361", "shopTypes": "\u4e13\u5356", "consumeTypes": null, "cookTypes": null, "orderNum": 1000, "card4no": null, "card4noAcc": null, "district2": 405, "searchScope": null, "status": 1, "address": "\u5929\u5c71\u897f\u8def541\u53f7\u6b63\u5927\u751f\u6d3b\u9986\u4e00\u697c", "name": "\u989c\u8bfa\u6570\u7801\u6e2f \u5929\u5c71\u897f\u8def\u5e97", "id": 144176, "pageNo": 0, "pageCount": null, "pageSize": 10, "ids": null, "endTime": null, "startTime": null}, {"cardNumFive": null, "isSupportYj": null, "cityName": null, "districtName": null, "shopinfo": {"mid": "888888854410173", "good_flag": "1", "new_flag": "1", "short_name": "\u59da\u5eb7\u98df\u54c1", "short_name_pinyin": "yaokangshipin", "status": null, "address": null, "name": null, "id": "33884"}, "mid": "888888854410173", "shopId": "33884", "netid": null, "province": 901, "district": 601, "zipcode": null, "telephone": "15026904089", "posDate": "200910", "destineTel": null, "togoTel": null, "trafficWay": null, "signBuilding": null, "businessArea": null, "selfRoom": null, "businessTime": null, "stall": null, "consume": null, "serviceFei": null, "favourable": null, "shopMemo": null, "appraise": null, "website": null, "memo": null, "payTypes": "\u6749\u5fb7\u5361", "shopTypes": "\u96f6\u552e", "consumeTypes": null, "cookTypes": null, "orderNum": 1000, "card4no": null, "card4noAcc": null, "district2": 417, "searchScope": null, "status": 1, "address": "\u57ce\u4e2d\u4e1c\u8def256\u53f7", "name": "\u59da\u5eb7\u98df\u54c1 \u57ce\u4e2d\u4e1c\u8def\u5e97", "id": 144218, "pageNo": 0, "pageCount": null, "pageSize": 10, "ids": null, "endTime": null, "startTime": null}], "pageLimit": 10530, "size": 10}