{"pageCount": 1095, "count": 10942, "pageNo": 1058, "subShopInfo": {"cardNumFive": "", "isSupportYj": "", "cityName": null, "districtName": null, "shopinfo": {"mid": null, "good_flag": null, "new_flag": null, "short_name": null, "short_name_pinyin": null, "status": null, "address": "", "name": "", "id": null}, "mid": null, "shopId": null, "netid": null, "province": 901, "district": null, "zipcode": null, "telephone": null, "posDate": null, "destineTel": null, "togoTel": null, "trafficWay": null, "signBuilding": null, "businessArea": null, "selfRoom": null, "businessTime": null, "stall": null, "consume": null, "serviceFei": null, "favourable": null, "shopMemo": "1", "appraise": null, "website": null, "memo": null, "payTypes": "", "shopTypes": "", "consumeTypes": null, "cookTypes": null, "orderNum": null, "card4no": null, "card4noAcc": null, "district2": null, "searchScope": null, "status": null, "address": "", "name": null, "id": null, "pageNo": 1057, "pageCount": null, "pageSize": 10, "ids": null, "endTime": null, "startTime": null}, "list": [{"cardNumFive": null, "isSupportYj": null, "cityName": null, "districtName": null, "shopinfo": {"mid": "888888858120395", "good_flag": null, "new_flag": null, "short_name": "\u4e00\u8336\u4e00\u5750", "short_name_pinyin": "yichayizuo", "status": null, "address": null, "name": null, "id": "33888"}, "mid": "888888858120395", "shopId": "33888", "netid": null, "province": 901, "district": 601, "zipcode": null, "telephone": "62170492", "posDate": "20080629", "destineTel": null, "togoTel": null, "trafficWay": "\u516c\u4ea4935 37 \u5730\u94c1\u4e8c\u53f7\u7ebf", "signBuilding": null, "businessArea": null, "selfRoom": null, "businessTime": null, "stall": null, "consume": null, "serviceFei": null, "favourable": null, "shopMemo": null, "appraise": null, "website": null, "memo": null, "payTypes": "\u6749\u5fb7\u5361", "shopTypes": "\u9910\u996e", "consumeTypes": null, "cookTypes": null, "orderNum": 1000, "card4no": null, "card4noAcc": null, "district2": 401, "searchScope": null, "status": 1, "address": "\u5357\u4eac\u897f\u8def996\u53f72\u697c", "name": "\u4e00\u8336\u4e00\u5750 \u5357\u897f\u5e97", "id": 144253, "pageNo": 0, "pageCount": null, "pageSize": 10, "ids": null, "endTime": null, "startTime": null}, {"cardNumFive": null, "isSupportYj": null, "cityName": null, "districtName": null, "shopinfo": {"mid": "888888858120395", "good_flag": null, "new_flag": null, "short_name": "\u4e00\u8336\u4e00\u5750", "short_name_pinyin": "yichayizuo", "status": null, "address": null, "name": null, "id": "33888"}, "mid": "888888858120395", "shopId": "33888", "netid": null, "province": 901, "district": 601, "zipcode": null, "telephone": "61237547", "posDate": "20080629", "destineTel": null, "togoTel": null, "trafficWay": "\u516c\u4ea4145 \u5730\u94c1\u56db\u53f7\u7ebf", "signBuilding": null, "businessArea": null, "selfRoom": null, "businessTime": null, "stall": null, "consume": null, "serviceFei": null, "favourable": null, "shopMemo": null, "appraise": null, "website": null, "memo": null, "payTypes": "\u6749\u5fb7\u5361", "shopTypes": "\u9910\u996e", "consumeTypes": null, "cookTypes": null, "orderNum": 1000, "card4no": null, "card4noAcc": null, "district2": 408, "searchScope": null, "status": 1, "address": "\u4e34\u5e73\u8def123\u53f7\u5357\u5546\u573a1-30&2-20\u5355\u5143", "name": "\u4e00\u8336\u4e00\u5750 \u745e\u8679\u65b0\u57ce\u5e97", "id": 144255, "pageNo": 0, "pageCount": null, "pageSize": 10, "ids": null, "endTime": null, "startTime": null}, {"cardNumFive": null, "isSupportYj": null, "cityName": null, "districtName": null, "shopinfo": {"mid": "888888858120395", "good_flag": null, "new_flag": null, "short_name": "\u4e00\u8336\u4e00\u5750", "short_name_pinyin": "yichayizuo", "status": null, "address": null, "name": null, "id": "33888"}, "mid": "888888858120395", "shopId": "33888", "netid": null, "province": 901, "district": 601, "zipcode": null, "telephone": "62383617", "posDate": "20080629", "destineTel": null, "togoTel": null, "trafficWay": "\u516c\u4ea4808 \u5730\u94c1\u4e8c\u53f7\u7ebf", "signBuilding": null, "businessArea": null, "selfRoom": null, "businessTime": null, "stall": null, "consume": null, "serviceFei": null, "favourable": null, "shopMemo": null, "appraise": null, "website": null, "memo": null, "payTypes": "\u6749\u5fb7\u5361", "shopTypes": "\u9910\u996e", "consumeTypes": null, "cookTypes": null, "orderNum": 1000, "card4no": null, "card4noAcc": null, "district2": 406, "searchScope": null, "status": 1, "address": "\u5929\u5c71\u897f\u8def541\u53f7\u4e00\u5c42\u6b63\u5927\u751f\u6d3b\u9986\u5185A-1\u53f7", "name": "\u4e00\u8336\u4e00\u5750 \u51c7\u8679\u5e97", "id": 144258, "pageNo": 0, "pageCount": null, "pageSize": 10, "ids": null, "endTime": null, "startTime": null}, {"cardNumFive": null, "isSupportYj": null, "cityName": null, "districtName": null, "shopinfo": {"mid": "888888858120395", "good_flag": null, "new_flag": null, "short_name": "\u4e00\u8336\u4e00\u5750", "short_name_pinyin": "yichayizuo", "status": null, "address": null, "name": null, "id": "33888"}, "mid": "888888858120395", "shopId": "33888", "netid": null, "province": 901, "district": 601, "zipcode": null, "telephone": "38231348", "posDate": "200910", "destineTel": null, "togoTel": null, "trafficWay": null, "signBuilding": null, "businessArea": null, "selfRoom": null, "businessTime": null, "stall": null, "consume": null, "serviceFei": null, "favourable": null, "shopMemo": null, "appraise": null, "website": null, "memo": null, "payTypes": "\u6749\u5fb7\u5361", "shopTypes": "\u9910\u996e", "consumeTypes": null, "cookTypes": null, "orderNum": 1000, "card4no": null, "card4noAcc": null, "district2": 418, "searchScope": null, "status": 1, "address": "\u6caa\u5357\u516c\u8def3449\u5f041\u5e62271-2\u5ba4", "name": "\u4e00\u8336\u4e00\u5750 \u5468\u6d66\u4e07\u8fbe\u5e97", "id": 144269, "pageNo": 0, "pageCount": null, "pageSize": 10, "ids": null, "endTime": null, "startTime": null}, {"cardNumFive": null, "isSupportYj": null, "cityName": null, "districtName": null, "shopinfo": {"mid": "888888858120395", "good_flag": null, "new_flag": null, "short_name": "\u4e00\u8336\u4e00\u5750", "short_name_pinyin": "yichayizuo", "status": null, "address": null, "name": null, "id": "36487"}, "mid": "888888858120395", "shopId": "36487", "netid": null, "province": 901, "district": 601, "zipcode": null, "telephone": null, "posDate": "20100914", "destineTel": null, "togoTel": null, "trafficWay": null, "signBuilding": null, "businessArea": null, "selfRoom": null, "businessTime": null, "stall": null, "consume": null, "serviceFei": null, "favourable": null, "shopMemo": null, "appraise": null, "website": null, "memo": null, "payTypes": "\u6749\u5fb7\u5361", "shopTypes": "\u9910\u996e", "consumeTypes": null, "cookTypes": null, "orderNum": 1000, "card4no": null, "card4noAcc": null, "district2": 405, "searchScope": null, "status": 1, "address": "\u4e2d\u5c71\u5317\u8def1855\u53f7N04\u53f7\u94fa\u4f4d", "name": "\u4e00\u8336\u4e00\u5750 \u5149\u65b0\u4e50\u8d2d\u5e97", "id": 151754, "pageNo": 0, "pageCount": null, "pageSize": 10, "ids": null, "endTime": null, "startTime": null}, {"cardNumFive": null, "isSupportYj": null, "cityName": null, "districtName": null, "shopinfo": {"mid": "888888858120395", "good_flag": null, "new_flag": null, "short_name": "\u4e00\u8336\u4e00\u5750", "short_name_pinyin": "yichayizuo", "status": null, "address": null, "name": null, "id": "37452"}, "mid": "888888858120395", "shopId": "37452", "netid": null, "province": 901, "district": 601, "zipcode": null, "telephone": "51925022", "posDate": null, "destineTel": null, "togoTel": null, "trafficWay": null, "signBuilding": null, "businessArea": null, "selfRoom": null, "businessTime": null, "stall": null, "consume": null, "serviceFei": null, "favourable": null, "shopMemo": null, "appraise": null, "website": null, "memo": null, "payTypes": "\u6749\u5fb7\u5361", "shopTypes": "\u9910\u996e", "consumeTypes": null, "cookTypes": null, "orderNum": 1000, "card4no": null, "card4noAcc": null, "district2": 418, "searchScope": null, "status": 1, "address": "\u6d66\u5efa\u8def118\u53f73\u697c84\u53f7\u94fa\u4f4d", "name": "\u4e00\u8336\u4e00\u5750 \u5858\u6865\u5e97", "id": 158823, "pageNo": 0, "pageCount": null, "pageSize": 10, "ids": null, "endTime": null, "startTime": null}, {"cardNumFive": null, "isSupportYj": null, "cityName": null, "districtName": null, "shopinfo": {"mid": "888888858120395", "good_flag": null, "new_flag": null, "short_name": "\u4e00\u8336\u4e00\u5750", "short_name_pinyin": "yichayizuo", "status": null, "address": null, "name": null, "id": "37718"}, "mid": "888888858120395", "shopId": "37718", "netid": null, "province": 901, "district": 601, "zipcode": null, "telephone": null, "posDate": null, "destineTel": null, "togoTel": null, "trafficWay": null, "signBuilding": null, "businessArea": null, "selfRoom": null, "businessTime": null, "stall": null, "consume": null, "serviceFei": null, "favourable": null, "shopMemo": null, "appraise": null, "website": null, "memo": null, "payTypes": "\u6749\u5fb7\u5361", "shopTypes": "\u9910\u996e", "consumeTypes": null, "cookTypes": null, "orderNum": 1000, "card4no": null, "card4noAcc": null, "district2": 411, "searchScope": null, "status": 1, "address": "\u6c5f\u6865\u9547\u534e\u6c5f\u8def988\u53f73038-3039\u94fa\u4f4d", "name": "\u4e00\u8336\u4e00\u5750 \u6c5f\u6865\u4e07\u8fbe\u5e97", "id": 159955, "pageNo": 0, "pageCount": null, "pageSize": 10, "ids": null, "endTime": null, "startTime": null}, {"cardNumFive": null, "isSupportYj": null, "cityName": null, "districtName": null, "shopinfo": {"mid": "888888858120395", "good_flag": null, "new_flag": null, "short_name": "\u4e00\u8336\u4e00\u5750", "short_name_pinyin": "yichayizuo", "status": null, "address": null, "name": null, "id": "38246"}, "mid": "888888858120395", "shopId": "38246", "netid": null, "province": 901, "district": 601, "zipcode": null, "telephone": null, "posDate": null, "destineTel": null, "togoTel": null, "trafficWay": null, "signBuilding": null, "businessArea": null, "selfRoom": null, "businessTime": null, "stall": null, "consume": null, "serviceFei": null, "favourable": null, "shopMemo": null, "appraise": null, "website": null, "memo": null, "payTypes": "\u6749\u5fb7\u5361", "shopTypes": "\u9910\u996e", "consumeTypes": null, "cookTypes": null, "orderNum": 1000, "card4no": null, "card4noAcc": null, "district2": 408, "searchScope": null, "status": 1, "address": "\u897f\u6c5f\u6e7e\u8def388\u53f7", "name": "\u4e00\u8336\u4e00\u5750 \u8679\u53e3\u9f99\u4e4b\u68a6\u5e97", "id": 163224, "pageNo": 0, "pageCount": null, "pageSize": 10, "ids": null, "endTime": null, "startTime": null}, {"cardNumFive": null, "isSupportYj": null, "cityName": null, "districtName": null, "shopinfo": {"mid": "888888858120156", "good_flag": null, "new_flag": null, "short_name": "\u4e00\u8336\u4e00\u5750", "short_name_pinyin": "yichayizuo", "status": null, "address": null, "name": null, "id": "39281"}, "mid": "888888858120156", "shopId": "39281", "netid": null, "province": 901, "district": 601, "zipcode": null, "telephone": "61619791", "posDate": null, "destineTel": null, "togoTel": null, "trafficWay": null, "signBuilding": null, "businessArea": null, "selfRoom": null, "businessTime": null, "stall": null, "consume": null, "serviceFei": null, "favourable": null, "shopMemo": null, "appraise": null, "website": null, "memo": null, "payTypes": "\u6749\u5fb7\u5361", "shopTypes": "\u9910\u996e", "consumeTypes": null, "cookTypes": null, "orderNum": 1000, "card4no": null, "card4noAcc": null, "district2": 403, "searchScope": null, "status": 1, "address": "\u5929\u94a5\u6865\u8def580\u53f72\u697c", "name": "\u4e00\u8336\u4e00\u5750 \u661f\u6e38\u57ce\u5e97", "id": 168511, "pageNo": 0, "pageCount": null, "pageSize": 10, "ids": null, "endTime": null, "startTime": null}, {"cardNumFive": null, "isSupportYj": null, "cityName": null, "districtName": null, "shopinfo": {"mid": "888888858120395", "good_flag": null, "new_flag": null, "short_name": "\u4e00\u8336\u4e00\u5750", "short_name_pinyin": "yichayizuo", "status": null, "address": null, "name": null, "id": "33888"}, "mid": "888888858120395", "shopId": "33888", "netid": null, "province": 901, "district": 601, "zipcode": null, "telephone": null, "posDate": null, "destineTel": null, "togoTel": null, "trafficWay": null, "signBuilding": null, "businessArea": null, "selfRoom": null, "businessTime": null, "stall": null, "consume": null, "serviceFei": null, "favourable": null, "shopMemo": null, "appraise": null, "website": null, "memo": null, "payTypes": "\u6749\u5fb7\u5361", "shopTypes": "\u9910\u996e", "consumeTypes": null, "cookTypes": null, "orderNum": 1000, "card4no": null, "card4noAcc": null, "district2": 411, "searchScope": null, "status": 1, "address": "\u58a8\u7389\u5357\u8def1055\u53f71\u697c122\u5ba4", "name": "\u4e00\u8336\u4e00\u5750 \u5b89\u4ead\u5609\u4ead\u835f\u5e97", "id": 169335, "pageNo": 0, "pageCount": null, "pageSize": 10, "ids": null, "endTime": null, "startTime": null}], "pageLimit": 10570, "size": 10}