{"pageCount": 1095, "count": 10942, "pageNo": 1055, "subShopInfo": {"cardNumFive": "", "isSupportYj": "", "cityName": null, "districtName": null, "shopinfo": {"mid": null, "good_flag": null, "new_flag": null, "short_name": null, "short_name_pinyin": null, "status": null, "address": "", "name": "", "id": null}, "mid": null, "shopId": null, "netid": null, "province": 901, "district": null, "zipcode": null, "telephone": null, "posDate": null, "destineTel": null, "togoTel": null, "trafficWay": null, "signBuilding": null, "businessArea": null, "selfRoom": null, "businessTime": null, "stall": null, "consume": null, "serviceFei": null, "favourable": null, "shopMemo": "1", "appraise": null, "website": null, "memo": null, "payTypes": "", "shopTypes": "", "consumeTypes": null, "cookTypes": null, "orderNum": null, "card4no": null, "card4noAcc": null, "district2": null, "searchScope": null, "status": null, "address": "", "name": null, "id": null, "pageNo": 1054, "pageCount": null, "pageSize": 10, "ids": null, "endTime": null, "startTime": null}, "list": [{"cardNumFive": null, "isSupportYj": null, "cityName": null, "districtName": null, "shopinfo": {"mid": "888888854410173", "good_flag": "1", "new_flag": "1", "short_name": "\u59da\u5eb7\u98df\u54c1", "short_name_pinyin": "yaokangshipin", "status": null, "address": null, "name": null, "id": "33884"}, "mid": "888888854410173", "shopId": "33884", "netid": null, "province": 901, "district": 601, "zipcode": null, "telephone": "15026904089", "posDate": "200910", "destineTel": null, "togoTel": null, "trafficWay": "\u5858\u5ddd\u7ebf\u3001\u5357\u5ddd\u4e13\u7ebf\u3001993\u8def", "signBuilding": null, "businessArea": null, "selfRoom": null, "businessTime": null, "stall": null, "consume": null, "serviceFei": null, "favourable": null, "shopMemo": null, "appraise": null, "website": null, "memo": null, "payTypes": "\u6749\u5fb7\u5361", "shopTypes": "\u96f6\u552e", "consumeTypes": null, "cookTypes": null, "orderNum": 1000, "card4no": null, "card4noAcc": null, "district2": 418, "searchScope": null, "status": 1, "address": "\u5ddd\u6c99\u8def5037-5039\u53f7", "name": "\u59da\u5eb7\u98df\u54c1 \u5ddd\u6c99\u8def\u5e97", "id": 144219, "pageNo": 0, "pageCount": null, "pageSize": 10, "ids": null, "endTime": null, "startTime": null}, {"cardNumFive": null, "isSupportYj": null, "cityName": null, "districtName": null, "shopinfo": {"mid": "888888854410173", "good_flag": "1", "new_flag": "1", "short_name": "\u59da\u5eb7\u98df\u54c1", "short_name_pinyin": "yaokangshipin", "status": null, "address": null, "name": null, "id": "33884"}, "mid": "888888854410173", "shopId": "33884", "netid": null, "province": 901, "district": 601, "zipcode": null, "telephone": "15026904089", "posDate": "200910", "destineTel": null, "togoTel": null, "trafficWay": null, "signBuilding": null, "businessArea": null, "selfRoom": null, "businessTime": null, "stall": null, "consume": null, "serviceFei": null, "favourable": null, "shopMemo": null, "appraise": null, "website": null, "memo": null, "payTypes": "\u6749\u5fb7\u5361", "shopTypes": "\u96f6\u552e", "consumeTypes": null, "cookTypes": null, "orderNum": 1000, "card4no": null, "card4noAcc": null, "district2": 418, "searchScope": null, "status": 1, "address": "\u5fb7\u5e73\u8def30\u53f7", "name": "\u59da\u5eb7\u98df\u54c1 \u5fb7\u5e73\u8def\u5e97", "id": 144220, "pageNo": 0, "pageCount": null, "pageSize": 10, "ids": null, "endTime": null, "startTime": null}, {"cardNumFive": null, "isSupportYj": null, "cityName": null, "districtName": null, "shopinfo": {"mid": "888888854410173", "good_flag": "1", "new_flag": "1", "short_name": "\u59da\u5eb7\u98df\u54c1", "short_name_pinyin": "yaokangshipin", "status": null, "address": null, "name": null, "id": "33884"}, "mid": "888888854410173", "shopId": "33884", "netid": null, "province": 901, "district": 601, "zipcode": null, "telephone": "15026904089", "posDate": "200910", "destineTel": null, "togoTel": null, "trafficWay": null, "signBuilding": null, "businessArea": null, "selfRoom": null, "businessTime": null, "stall": null, "consume": null, "serviceFei": null, "favourable": null, "shopMemo": null, "appraise": null, "website": null, "memo": null, "payTypes": "\u6749\u5fb7\u5361", "shopTypes": "\u96f6\u552e", "consumeTypes": null, "cookTypes": null, "orderNum": 1000, "card4no": null, "card4noAcc": null, "district2": 411, "searchScope": null, "status": 1, "address": "\u4e30\u5e84\u8def350\u53f7", "name": "\u59da\u5eb7\u98df\u54c1 \u4e30\u5e84\u8def\u5e97", "id": 144221, "pageNo": 0, "pageCount": null, "pageSize": 10, "ids": null, "endTime": null, "startTime": null}, {"cardNumFive": null, "isSupportYj": null, "cityName": null, "districtName": null, "shopinfo": {"mid": "888888854410173", "good_flag": "1", "new_flag": "1", "short_name": "\u59da\u5eb7\u98df\u54c1", "short_name_pinyin": "yaokangshipin", "status": null, "address": null, "name": null, "id": "33884"}, "mid": "888888854410173", "shopId": "33884", "netid": null, "province": 901, "district": 601, "zipcode": null, "telephone": "15026904089", "posDate": "200910", "destineTel": null, "togoTel": null, "trafficWay": null, "signBuilding": null, "businessArea": null, "selfRoom": null, "businessTime": null, "stall": null, "consume": null, "serviceFei": null, "favourable": null, "shopMemo": null, "appraise": null, "website": null, "memo": null, "payTypes": "\u6749\u5fb7\u5361", "shopTypes": "\u96f6\u552e", "consumeTypes": null, "cookTypes": null, "orderNum": 1000, "card4no": null, "card4noAcc": null, "district2": 407, "searchScope": null, "status": 1, "address": "\u9756\u5b87\u4e1c\u8def248\u53f7", "name": "\u59da\u5eb7\u98df\u54c1 \u9756\u5b87\u4e1c\u8def\u5e97", "id": 144223, "pageNo": 0, "pageCount": null, "pageSize": 10, "ids": null, "endTime": null, "startTime": null}, {"cardNumFive": null, "isSupportYj": null, "cityName": null, "districtName": null, "shopinfo": {"mid": "888888854410173", "good_flag": "1", "new_flag": "1", "short_name": "\u59da\u5eb7\u98df\u54c1", "short_name_pinyin": "yaokangshipin", "status": null, "address": null, "name": null, "id": "33884"}, "mid": "888888854410173", "shopId": "33884", "netid": null, "province": 901, "district": 601, "zipcode": null, "telephone": "15026904089", "posDate": "200910", "destineTel": null, "togoTel": null, "trafficWay": null, "signBuilding": null, "businessArea": null, "selfRoom": null, "businessTime": null, "stall": null, "consume": null, "serviceFei": null, "favourable": null, "shopMemo": null, "appraise": null, "website": null, "memo": null, "payTypes": "\u6749\u5fb7\u5361", "shopTypes": "\u96f6\u552e", "consumeTypes": null, "cookTypes": null, "orderNum": 1000, "card4no": null, "card4noAcc": null, "district2": 417, "searchScope": null, "status": 1, "address": "\u6d66\u4ed3\u8def330-332\u53f7", "name": "\u59da\u5eb7\u98df\u54c1 \u6d66\u4ed3\u8def\u5e97", "id": 144224, "pageNo": 0, "pageCount": null, "pageSize": 10, "ids": null, "endTime": null, "startTime": null}, {"cardNumFive": null, "isSupportYj": null, "cityName": null, "districtName": null, "shopinfo": {"mid": "888888854410173", "good_flag": "1", "new_flag": "1", "short_name": "\u59da\u5eb7\u98df\u54c1", "short_name_pinyin": "yaokangshipin", "status": null, "address": null, "name": null, "id": "33884"}, "mid": "888888854410173", "shopId": "33884", "netid": null, "province": 901, "district": 601, "zipcode": null, "telephone": "15026904089", "posDate": "200910", "destineTel": null, "togoTel": null, "trafficWay": null, "signBuilding": null, "businessArea": null, "selfRoom": null, "businessTime": null, "stall": null, "consume": null, "serviceFei": null, "favourable": null, "shopMemo": null, "appraise": null, "website": null, "memo": null, "payTypes": "\u6749\u5fb7\u5361", "shopTypes": "\u96f6\u552e", "consumeTypes": null, "cookTypes": null, "orderNum": 1000, "card4no": null, "card4noAcc": null, "district2": 413, "searchScope": null, "status": 1, "address": "\u5357\u6865\u9547\u4eba\u6c11\u4e2d\u8def105\u53f7", "name": "\u59da\u5eb7\u98df\u54c1 \u4eba\u6c11\u4e2d\u8def\u5e97", "id": 144225, "pageNo": 0, "pageCount": null, "pageSize": 10, "ids": null, "endTime": null, "startTime": null}, {"cardNumFive": null, "isSupportYj": null, "cityName": null, "districtName": null, "shopinfo": {"mid": "888888854410173", "good_flag": "1", "new_flag": "1", "short_name": "\u59da\u5eb7\u98df\u54c1", "short_name_pinyin": "yaokangshipin", "status": null, "address": null, "name": null, "id": "33884"}, "mid": "888888854410173", "shopId": "33884", "netid": null, "province": 901, "district": 601, "zipcode": null, "telephone": null, "posDate": "20091214", "destineTel": null, "togoTel": null, "trafficWay": null, "signBuilding": null, "businessArea": null, "selfRoom": null, "businessTime": null, "stall": null, "consume": null, "serviceFei": null, "favourable": null, "shopMemo": null, "appraise": null, "website": null, "memo": null, "payTypes": "\u6749\u5fb7\u5361", "shopTypes": "\u96f6\u552e", "consumeTypes": null, "cookTypes": null, "orderNum": 1000, "card4no": null, "card4noAcc": null, "district2": 418, "searchScope": null, "status": 1, "address": "\u4e07\u7965\u9547\u4e09\u4e09\u516c\u8def1938\u53f7", "name": "\u59da\u5eb7\u98df\u54c1 \u4e09\u4e09\u516c\u8def\u5e97", "id": 144226, "pageNo": 0, "pageCount": null, "pageSize": 10, "ids": null, "endTime": null, "startTime": null}, {"cardNumFive": null, "isSupportYj": null, "cityName": null, "districtName": null, "shopinfo": {"mid": "888888854410173", "good_flag": "1", "new_flag": "1", "short_name": "\u59da\u5eb7\u98df\u54c1", "short_name_pinyin": "yaokangshipin", "status": null, "address": null, "name": null, "id": "33884"}, "mid": "888888854410173", "shopId": "33884", "netid": null, "province": 901, "district": 601, "zipcode": null, "telephone": null, "posDate": "20091214", "destineTel": null, "togoTel": null, "trafficWay": null, "signBuilding": null, "businessArea": null, "selfRoom": null, "businessTime": null, "stall": null, "consume": null, "serviceFei": null, "favourable": null, "shopMemo": null, "appraise": null, "website": null, "memo": null, "payTypes": "\u6749\u5fb7\u5361", "shopTypes": "\u96f6\u552e", "consumeTypes": null, "cookTypes": null, "orderNum": 1000, "card4no": null, "card4noAcc": null, "district2": 412, "searchScope": null, "status": 1, "address": "\u65b0\u6d5c\u9547\u4e2d\u5fc3\u8def85\u53f7", "name": "\u59da\u5eb7\u98df\u54c1 \u65b0\u6d5c\u9547\u4e2d\u5fc3\u8def\u5e97", "id": 144229, "pageNo": 0, "pageCount": null, "pageSize": 10, "ids": null, "endTime": null, "startTime": null}, {"cardNumFive": null, "isSupportYj": null, "cityName": null, "districtName": null, "shopinfo": {"mid": "888888854410173", "good_flag": "1", "new_flag": "1", "short_name": "\u59da\u5eb7\u98df\u54c1", "short_name_pinyin": "yaokangshipin", "status": null, "address": null, "name": null, "id": "33884"}, "mid": "888888854410173", "shopId": "33884", "netid": null, "province": 901, "district": 601, "zipcode": null, "telephone": "15026904089", "posDate": "200910", "destineTel": null, "togoTel": null, "trafficWay": null, "signBuilding": null, "businessArea": null, "selfRoom": null, "businessTime": null, "stall": null, "consume": null, "serviceFei": null, "favourable": null, "shopMemo": null, "appraise": null, "website": null, "memo": null, "payTypes": "\u6749\u5fb7\u5361", "shopTypes": "\u96f6\u552e", "consumeTypes": null, "cookTypes": null, "orderNum": 1000, "card4no": null, "card4noAcc": null, "district2": 411, "searchScope": null, "status": 1, "address": "\u6c5f\u6865\u9547\u661f\u534e\u516c\u8def1648-1650\u53f7", "name": "\u59da\u5eb7\u98df\u54c1 \u661f\u534e\u516c\u8def\u5e97", "id": 144230, "pageNo": 0, "pageCount": null, "pageSize": 10, "ids": null, "endTime": null, "startTime": null}, {"cardNumFive": null, "isSupportYj": null, "cityName": null, "districtName": null, "shopinfo": {"mid": "888888854410173", "good_flag": "1", "new_flag": "1", "short_name": "\u59da\u5eb7\u98df\u54c1", "short_name_pinyin": "yaokangshipin", "status": null, "address": null, "name": null, "id": "33884"}, "mid": "888888854410173", "shopId": "33884", "netid": null, "province": 901, "district": 601, "zipcode": null, "telephone": null, "posDate": "20091214", "destineTel": null, "togoTel": null, "trafficWay": null, "signBuilding": null, "businessArea": null, "selfRoom": null, "businessTime": null, "stall": null, "consume": null, "serviceFei": null, "favourable": null, "shopMemo": null, "appraise": null, "website": null, "memo": null, "payTypes": "\u6749\u5fb7\u5361", "shopTypes": "\u96f6\u552e", "consumeTypes": null, "cookTypes": null, "orderNum": 1000, "card4no": null, "card4noAcc": null, "district2": 412, "searchScope": null, "status": 1, "address": "\u5f20\u6cfd\u9547\u7af9\u4ead\u8def19-3\u53f7", "name": "\u59da\u5eb7\u98df\u54c1 \u7af9\u4ead\u8def\u5e97", "id": 144231, "pageNo": 0, "pageCount": null, "pageSize": 10, "ids": null, "endTime": null, "startTime": null}], "pageLimit": 10540, "size": 10}