{"pageCount": 1095, "count": 10942, "pageNo": 1057, "subShopInfo": {"cardNumFive": "", "isSupportYj": "", "cityName": null, "districtName": null, "shopinfo": {"mid": null, "good_flag": null, "new_flag": null, "short_name": null, "short_name_pinyin": null, "status": null, "address": "", "name": "", "id": null}, "mid": null, "shopId": null, "netid": null, "province": 901, "district": null, "zipcode": null, "telephone": null, "posDate": null, "destineTel": null, "togoTel": null, "trafficWay": null, "signBuilding": null, "businessArea": null, "selfRoom": null, "businessTime": null, "stall": null, "consume": null, "serviceFei": null, "favourable": null, "shopMemo": "1", "appraise": null, "website": null, "memo": null, "payTypes": "", "shopTypes": "", "consumeTypes": null, "cookTypes": null, "orderNum": null, "card4no": null, "card4noAcc": null, "district2": null, "searchScope": null, "status": null, "address": "", "name": null, "id": null, "pageNo": 1056, "pageCount": null, "pageSize": 10, "ids": null, "endTime": null, "startTime": null}, "list": [{"cardNumFive": null, "isSupportYj": null, "cityName": null, "districtName": null, "shopinfo": {"mid": "888888858120401", "good_flag": "1", "new_flag": "2", "short_name": "\u4e00\u8336\u4e00\u5750", "short_name_pinyin": "yichayizuo", "status": null, "address": null, "name": null, "id": "33887"}, "mid": "888888858120401", "shopId": "33887", "netid": null, "province": 901, "district": 601, "zipcode": null, "telephone": "55231028", "posDate": "20080629", "destineTel": null, "togoTel": null, "trafficWay": "\u516c\u4ea4942 133 \u673a\u573a\u56db\u7ebf", "signBuilding": null, "businessArea": null, "selfRoom": null, "businessTime": null, "stall": null, "consume": null, "serviceFei": null, "favourable": null, "shopMemo": null, "appraise": null, "website": null, "memo": null, "payTypes": "\u6749\u5fb7\u5361", "shopTypes": "\u9910\u996e", "consumeTypes": null, "cookTypes": null, "orderNum": 1000, "card4no": null, "card4noAcc": null, "district2": 407, "searchScope": null, "status": 1, "address": "\u51c7\u6caa\u8def8\u53f7", "name": "\u4e00\u8336\u4e00\u5750 \u767e\u8054\u53c8\u4e00\u57ce\u5e97", "id": 144234, "pageNo": 0, "pageCount": null, "pageSize": 10, "ids": null, "endTime": null, "startTime": null}, {"cardNumFive": null, "isSupportYj": null, "cityName": null, "districtName": null, "shopinfo": {"mid": "888888858120395", "good_flag": null, "new_flag": null, "short_name": "\u4e00\u8336\u4e00\u5750", "short_name_pinyin": "yichayizuo", "status": null, "address": null, "name": null, "id": "33888"}, "mid": "888888858120395", "shopId": "33888", "netid": null, "province": 901, "district": 601, "zipcode": null, "telephone": "61392130", "posDate": "20080629", "destineTel": null, "togoTel": null, "trafficWay": "\u516c\u4ea4950 948 947", "signBuilding": null, "businessArea": null, "selfRoom": null, "businessTime": null, "stall": null, "consume": null, "serviceFei": null, "favourable": null, "shopMemo": null, "appraise": null, "website": null, "memo": null, "payTypes": "\u6749\u5fb7\u5361", "shopTypes": "\u9910\u996e", "consumeTypes": null, "cookTypes": null, "orderNum": 1000, "card4no": null, "card4noAcc": null, "district2": 405, "searchScope": null, "status": 1, "address": "\u771f\u5149\u8def1326\u53f7\u767e\u8054\u4e2d\u73af\u8d2d\u7269\u4e2d\u5fc31F-B-03", "name": "\u4e00\u8336\u4e00\u5750 \u767e\u8054\u4e2d\u73af\u5e97", "id": 144235, "pageNo": 0, "pageCount": null, "pageSize": 10, "ids": null, "endTime": null, "startTime": null}, {"cardNumFive": null, "isSupportYj": null, "cityName": null, "districtName": null, "shopinfo": {"mid": "888888858120395", "good_flag": null, "new_flag": null, "short_name": "\u4e00\u8336\u4e00\u5750", "short_name_pinyin": "yichayizuo", "status": null, "address": null, "name": null, "id": "33888"}, "mid": "888888858120395", "shopId": "33888", "netid": null, "province": 901, "district": 601, "zipcode": null, "telephone": "54649520", "posDate": "200910", "destineTel": null, "togoTel": null, "trafficWay": null, "signBuilding": null, "businessArea": null, "selfRoom": null, "businessTime": null, "stall": null, "consume": null, "serviceFei": null, "favourable": null, "shopMemo": null, "appraise": null, "website": null, "memo": null, "payTypes": "\u6749\u5fb7\u5361", "shopTypes": "\u9910\u996e", "consumeTypes": null, "cookTypes": null, "orderNum": 1000, "card4no": null, "card4noAcc": null, "district2": 403, "searchScope": null, "status": 1, "address": "\u767e\u8111\u6c47\u5546\u4e1a\u5e7f\u573a\u66f9\u6eaa\u8def339\u53f7\u4e8c\u697c", "name": "\u4e00\u8336\u4e00\u5750 \u767e\u8111\u6c47\u5e97", "id": 144236, "pageNo": 0, "pageCount": null, "pageSize": 10, "ids": null, "endTime": null, "startTime": null}, {"cardNumFive": null, "isSupportYj": null, "cityName": null, "districtName": null, "shopinfo": {"mid": "888888858120398", "good_flag": "1", "new_flag": "2", "short_name": "\u4e00\u8336\u4e00\u5750", "short_name_pinyin": "yichayizuo", "status": null, "address": null, "name": null, "id": "33889"}, "mid": "888888858120398", "shopId": "33889", "netid": null, "province": 901, "district": 601, "zipcode": null, "telephone": "56101705", "posDate": "20080722", "destineTel": null, "togoTel": null, "trafficWay": "\u516c\u4ea4952 \u5730\u94c1\u4e09\u53f7\u7ebf", "signBuilding": null, "businessArea": null, "selfRoom": null, "businessTime": null, "stall": null, "consume": null, "serviceFei": null, "favourable": null, "shopMemo": null, "appraise": null, "website": null, "memo": null, "payTypes": "\u6749\u5fb7\u5361", "shopTypes": "\u9910\u996e", "consumeTypes": null, "cookTypes": null, "orderNum": 1000, "card4no": null, "card4noAcc": null, "district2": 416, "searchScope": null, "status": 1, "address": "\u7261\u4e39\u6c5f\u8def1258\u53f7\u6613\u4e70\u5f97\u5b9d\u5c71\u5e97\u5185", "name": "\u4e00\u8336\u4e00\u5750 \u5b9d\u5c71\u5e97", "id": 144237, "pageNo": 0, "pageCount": null, "pageSize": 10, "ids": null, "endTime": null, "startTime": null}, {"cardNumFive": null, "isSupportYj": null, "cityName": null, "districtName": null, "shopinfo": {"mid": "888888858120395", "good_flag": null, "new_flag": null, "short_name": "\u4e00\u8336\u4e00\u5750", "short_name_pinyin": "yichayizuo", "status": null, "address": null, "name": null, "id": "33888"}, "mid": "888888858120395", "shopId": "33888", "netid": null, "province": 901, "district": 601, "zipcode": null, "telephone": "66315339", "posDate": "20080629", "destineTel": null, "togoTel": null, "trafficWay": "\u516c\u4ea446 916 \u5730\u94c1\u4e00\u53f7\u7ebf", "signBuilding": null, "businessArea": null, "selfRoom": null, "businessTime": null, "stall": null, "consume": null, "serviceFei": null, "favourable": null, "shopMemo": null, "appraise": null, "website": null, "memo": null, "payTypes": "\u6749\u5fb7\u5361", "shopTypes": "\u9910\u996e", "consumeTypes": null, "cookTypes": null, "orderNum": 1000, "card4no": null, "card4noAcc": null, "district2": 410, "searchScope": null, "status": 1, "address": "\u5171\u548c\u65b0\u8def1898\u53f7\u5927\u5b81\u56fd\u9645\u5546\u4e1a\u5e7f\u573a5(E3)1\u5c42101-104\u5ba4", "name": "\u4e00\u8336\u4e00\u5750 \u5927\u5b81\u56fd\u9645\u5e97", "id": 144239, "pageNo": 0, "pageCount": null, "pageSize": 10, "ids": null, "endTime": null, "startTime": null}, {"cardNumFive": null, "isSupportYj": null, "cityName": null, "districtName": null, "shopinfo": {"mid": "888888858120395", "good_flag": null, "new_flag": null, "short_name": "\u4e00\u8336\u4e00\u5750", "short_name_pinyin": "yichayizuo", "status": null, "address": null, "name": null, "id": "33888"}, "mid": "888888858120395", "shopId": "33888", "netid": null, "province": 901, "district": 601, "zipcode": null, "telephone": null, "posDate": "20091221", "destineTel": null, "togoTel": null, "trafficWay": null, "signBuilding": null, "businessArea": null, "selfRoom": null, "businessTime": null, "stall": null, "consume": null, "serviceFei": null, "favourable": null, "shopMemo": null, "appraise": null, "website": null, "memo": null, "payTypes": "\u6749\u5fb7\u5361", "shopTypes": "\u9910\u996e", "consumeTypes": null, "cookTypes": null, "orderNum": 1000, "card4no": null, "card4noAcc": null, "district2": 418, "searchScope": null, "status": 1, "address": "\u5f20\u6768\u8def3611\u5f047\u53f7101\u3001102\u3001106\u3001107\u3001113", "name": "\u4e00\u8336\u4e00\u5750 \u91d1\u6865\u5e97", "id": 144244, "pageNo": 0, "pageCount": null, "pageSize": 10, "ids": null, "endTime": null, "startTime": null}, {"cardNumFive": null, "isSupportYj": null, "cityName": null, "districtName": null, "shopinfo": {"mid": "888888858120395", "good_flag": null, "new_flag": null, "short_name": "\u4e00\u8336\u4e00\u5750", "short_name_pinyin": "yichayizuo", "status": null, "address": null, "name": null, "id": "33888"}, "mid": "888888858120395", "shopId": "33888", "netid": null, "province": 901, "district": 601, "zipcode": null, "telephone": "52131617", "posDate": "20080805", "destineTel": null, "togoTel": null, "trafficWay": "\u516c\u4ea493 830 824", "signBuilding": null, "businessArea": null, "selfRoom": null, "businessTime": null, "stall": null, "consume": null, "serviceFei": null, "favourable": null, "shopMemo": null, "appraise": null, "website": null, "memo": null, "payTypes": "\u6749\u5fb7\u5361", "shopTypes": "\u9910\u996e", "consumeTypes": null, "cookTypes": null, "orderNum": 1000, "card4no": null, "card4noAcc": null, "district2": 404, "searchScope": null, "status": 1, "address": "\u611a\u56ed\u8def150\u53f7", "name": "\u4e00\u8336\u4e00\u5750 \u9759\u5b89\u5e97", "id": 144245, "pageNo": 0, "pageCount": null, "pageSize": 10, "ids": null, "endTime": null, "startTime": null}, {"cardNumFive": null, "isSupportYj": null, "cityName": null, "districtName": null, "shopinfo": {"mid": "888888858120396", "good_flag": "1", "new_flag": "2", "short_name": "\u4e00\u8336\u4e00\u5750", "short_name_pinyin": "yichayizuo", "status": null, "address": null, "name": null, "id": "33891"}, "mid": "888888858120396", "shopId": "33891", "netid": null, "province": 901, "district": 601, "zipcode": null, "telephone": null, "posDate": "20080629", "destineTel": null, "togoTel": null, "trafficWay": "\u516c\u4ea420 921 \u5730\u94c1\u4e8c\u53f7\u7ebf", "signBuilding": null, "businessArea": null, "selfRoom": null, "businessTime": null, "stall": null, "consume": null, "serviceFei": null, "favourable": null, "shopMemo": null, "appraise": null, "website": null, "memo": null, "payTypes": "\u6749\u5fb7\u5361", "shopTypes": "\u9910\u996e", "consumeTypes": null, "cookTypes": null, "orderNum": 1000, "card4no": null, "card4noAcc": null, "district2": 406, "searchScope": null, "status": 1, "address": "\u957f\u5b81\u8def1018\u53f77\u697c7202B", "name": "\u4e00\u8336\u4e00\u5750 \u9f99\u4e4b\u68a6\u5e97", "id": 144246, "pageNo": 0, "pageCount": null, "pageSize": 10, "ids": null, "endTime": null, "startTime": null}, {"cardNumFive": null, "isSupportYj": null, "cityName": null, "districtName": null, "shopinfo": {"mid": "888888858120395", "good_flag": null, "new_flag": null, "short_name": "\u4e00\u8336\u4e00\u5750", "short_name_pinyin": "yichayizuo", "status": null, "address": null, "name": null, "id": "33888"}, "mid": "888888858120395", "shopId": "33888", "netid": null, "province": 901, "district": 601, "zipcode": null, "telephone": "33580231", "posDate": "20080722", "destineTel": null, "togoTel": null, "trafficWay": "\u516c\u4ea4162 703", "signBuilding": null, "businessArea": null, "selfRoom": null, "businessTime": null, "stall": null, "consume": null, "serviceFei": null, "favourable": null, "shopMemo": null, "appraise": null, "website": null, "memo": null, "payTypes": "\u6749\u5fb7\u5361", "shopTypes": "\u9910\u996e", "consumeTypes": null, "cookTypes": null, "orderNum": 1000, "card4no": null, "card4noAcc": null, "district2": 409, "searchScope": null, "status": 1, "address": "\u6885\u9647\u9547?\u65b0\u90fd\u4f1aMaxMall\u83b2\u82b1\u5357\u8def1500\u5f04\u53f716\u53f7101\u3001102\u5ba4", "name": "\u4e00\u8336\u4e00\u5750 \u6885\u9647\u65b0\u90fd\u4f1a\u5e97", "id": 144248, "pageNo": 0, "pageCount": null, "pageSize": 10, "ids": null, "endTime": null, "startTime": null}, {"cardNumFive": null, "isSupportYj": null, "cityName": null, "districtName": null, "shopinfo": {"mid": "888888858120395", "good_flag": null, "new_flag": null, "short_name": "\u4e00\u8336\u4e00\u5750", "short_name_pinyin": "yichayizuo", "status": null, "address": null, "name": null, "id": "33888"}, "mid": "888888858120395", "shopId": "33888", "netid": null, "province": 901, "district": 601, "zipcode": null, "telephone": "64267236", "posDate": "20090227", "destineTel": null, "togoTel": null, "trafficWay": null, "signBuilding": null, "businessArea": null, "selfRoom": null, "businessTime": null, "stall": null, "consume": null, "serviceFei": null, "favourable": null, "shopMemo": null, "appraise": null, "website": null, "memo": null, "payTypes": ",,\u6749\u5fb7\u5361", "shopTypes": "\u9910\u996e", "consumeTypes": null, "cookTypes": null, "orderNum": 1000, "card4no": null, "card4noAcc": null, "district2": 403, "searchScope": null, "status": 1, "address": "\u8087\u5609\u6d5c\u8def1111\u53f7\u7f8e\u7f57\u57ce\u7b2c\u4e09\u5c42A\u533a3-17\u5355\u5143", "name": "\u4e00\u8336\u4e00\u5750 \u7f8e\u7f57\u4e8c\u5e97", "id": 144250, "pageNo": 0, "pageCount": null, "pageSize": 10, "ids": null, "endTime": null, "startTime": null}], "pageLimit": 10560, "size": 10}