{"pageCount": 1095, "count": 10942, "pageNo": 1056, "subShopInfo": {"cardNumFive": "", "isSupportYj": "", "cityName": null, "districtName": null, "shopinfo": {"mid": null, "good_flag": null, "new_flag": null, "short_name": null, "short_name_pinyin": null, "status": null, "address": "", "name": "", "id": null}, "mid": null, "shopId": null, "netid": null, "province": 901, "district": null, "zipcode": null, "telephone": null, "posDate": null, "destineTel": null, "togoTel": null, "trafficWay": null, "signBuilding": null, "businessArea": null, "selfRoom": null, "businessTime": null, "stall": null, "consume": null, "serviceFei": null, "favourable": null, "shopMemo": "1", "appraise": null, "website": null, "memo": null, "payTypes": "", "shopTypes": "", "consumeTypes": null, "cookTypes": null, "orderNum": null, "card4no": null, "card4noAcc": null, "district2": null, "searchScope": null, "status": null, "address": "", "name": null, "id": null, "pageNo": 1055, "pageCount": null, "pageSize": 10, "ids": null, "endTime": null, "startTime": null}, "list": [{"cardNumFive": null, "isSupportYj": null, "cityName": null, "districtName": null, "shopinfo": {"mid": "888888873990001", "good_flag": "2", "new_flag": "2", "short_name": "\u5c27\u529b\u4f53\u80b2", "short_name_pinyin": "yaolitiyu", "status": null, "address": null, "name": null, "id": "33883"}, "mid": "888888873990001", "shopId": "33883", "netid": null, "province": 901, "district": 601, "zipcode": "200090", "telephone": "65699261", "posDate": "20061106", "destineTel": "65699261", "togoTel": "65699261", "trafficWay": "\u516c\u4ea433,135", "signBuilding": null, "businessArea": null, "selfRoom": "\u65e0", "businessTime": "18:00~~22:00", "stall": "\u65e0", "consume": null, "serviceFei": null, "favourable": null, "shopMemo": null, "appraise": null, "website": null, "memo": null, "payTypes": "\u6749\u5fb7\u5361", "shopTypes": "\u5176\u4ed6", "consumeTypes": null, "cookTypes": null, "orderNum": 1000, "card4no": null, "card4noAcc": null, "district2": 407, "searchScope": null, "status": 1, "address": "\u5468\u5bb6\u5634\u8def4214\u5f0422\u53f7", "name": "\u5c27\u529b\u4f53\u80b2 \u767d\u6d0b\u6dc0\u7fbd\u6bdb\u7403\u9986", "id": 144203, "pageNo": 0, "pageCount": null, "pageSize": 10, "ids": null, "endTime": null, "startTime": null}, {"cardNumFive": null, "isSupportYj": null, "cityName": null, "districtName": null, "shopinfo": {"mid": "888888873990001", "good_flag": "2", "new_flag": "2", "short_name": "\u5c27\u529b\u4f53\u80b2", "short_name_pinyin": "yaolitiyu", "status": null, "address": null, "name": null, "id": "33883"}, "mid": "888888873990001", "shopId": "33883", "netid": null, "province": 901, "district": 601, "zipcode": "201101", "telephone": "64593773", "posDate": "20061102", "destineTel": "64397221", "togoTel": "64397221", "trafficWay": "\u516c\u4ea4953", "signBuilding": null, "businessArea": null, "selfRoom": "\u65e0", "businessTime": "18:00~~22:00", "stall": "\u65e0", "consume": null, "serviceFei": null, "favourable": null, "shopMemo": null, "appraise": null, "website": null, "memo": null, "payTypes": "\u6749\u5fb7\u5361", "shopTypes": "\u5176\u4ed6", "consumeTypes": null, "cookTypes": null, "orderNum": 1000, "card4no": null, "card4noAcc": null, "district2": 409, "searchScope": null, "status": 1, "address": "\u4e2d\u8c0a\u8def860\u5f0411\u53f7", "name": "\u5c27\u529b\u4f53\u80b2 \u78a7\u6797\u6e7e\u8fd0\u52a8\u4f11\u95f2\u4e2d\u5fc3", "id": 144204, "pageNo": 0, "pageCount": null, "pageSize": 10, "ids": null, "endTime": null, "startTime": null}, {"cardNumFive": null, "isSupportYj": null, "cityName": null, "districtName": null, "shopinfo": {"mid": "888888873990001", "good_flag": "2", "new_flag": "2", "short_name": "\u5c27\u529b\u4f53\u80b2", "short_name_pinyin": "yaolitiyu", "status": null, "address": null, "name": null, "id": "33883"}, "mid": "888888873990001", "shopId": "33883", "netid": null, "province": 901, "district": 601, "zipcode": "200001", "telephone": "63507573", "posDate": "20061106", "destineTel": "63507573", "togoTel": "63507573", "trafficWay": "\u5730\u94c1\u4e00\u53f7\u7ebf", "signBuilding": null, "businessArea": null, "selfRoom": "\u65e0", "businessTime": "18:00~~22:00", "stall": "\u65e0", "consume": null, "serviceFei": null, "favourable": null, "shopMemo": null, "appraise": null, "website": null, "memo": null, "payTypes": "\u6749\u5fb7\u5361", "shopTypes": "\u5176\u4ed6", "consumeTypes": null, "cookTypes": null, "orderNum": 1000, "card4no": null, "card4noAcc": null, "district2": 401, "searchScope": null, "status": 1, "address": "\u5317\u6d77\u8def150\u53f7", "name": "\u5c27\u529b\u4f53\u80b2 \u683c\u81f4\u7fbd\u6bdb\u7403\u9986", "id": 144207, "pageNo": 0, "pageCount": null, "pageSize": 10, "ids": null, "endTime": null, "startTime": null}, {"cardNumFive": null, "isSupportYj": null, "cityName": null, "districtName": null, "shopinfo": {"mid": "888888873990001", "good_flag": "2", "new_flag": "2", "short_name": "\u5c27\u529b\u4f53\u80b2", "short_name_pinyin": "yaolitiyu", "status": null, "address": null, "name": null, "id": "33883"}, "mid": "888888873990001", "shopId": "33883", "netid": null, "province": 901, "district": 601, "zipcode": "200083", "telephone": "65522609", "posDate": "20061106", "destineTel": "65522609", "togoTel": "65522609", "trafficWay": "\u516c\u4ea4723 123", "signBuilding": null, "businessArea": null, "selfRoom": "\u65e0", "businessTime": "18:00~~22:00", "stall": "\u65e0", "consume": null, "serviceFei": null, "favourable": null, "shopMemo": null, "appraise": null, "website": null, "memo": null, "payTypes": "\u6749\u5fb7\u5361", "shopTypes": "\u5176\u4ed6", "consumeTypes": null, "cookTypes": null, "orderNum": 1000, "card4no": null, "card4noAcc": null, "district2": 408, "searchScope": null, "status": 1, "address": "\u4e1c\u4f53\u80b2\u4f1a\u8def715\u53f7", "name": "\u5c27\u529b\u4f53\u80b2 \u8679\u53e3\u4f53\u80b2\u9986\u7fbd\u6bdb\u7403\u4e13\u5356", "id": 144209, "pageNo": 0, "pageCount": null, "pageSize": 10, "ids": null, "endTime": null, "startTime": null}, {"cardNumFive": null, "isSupportYj": null, "cityName": null, "districtName": null, "shopinfo": {"mid": "888888873990001", "good_flag": "2", "new_flag": "2", "short_name": "\u5c27\u529b\u4f53\u80b2", "short_name_pinyin": "yaolitiyu", "status": null, "address": null, "name": null, "id": "33883"}, "mid": "888888873990001", "shopId": "33883", "netid": null, "province": 901, "district": 601, "zipcode": "200129", "telephone": "50383111", "posDate": "20061103", "destineTel": "50383111", "togoTel": "50383111", "trafficWay": "\u7533\u5ddd\u7ebf", "signBuilding": null, "businessArea": null, "selfRoom": "\u65e0", "businessTime": "18:00~~22:00", "stall": "\u65e0", "consume": null, "serviceFei": null, "favourable": null, "shopMemo": null, "appraise": null, "website": null, "memo": null, "payTypes": "\u6749\u5fb7\u5361", "shopTypes": "\u5176\u4ed6", "consumeTypes": null, "cookTypes": null, "orderNum": 1000, "card4no": null, "card4noAcc": null, "district2": 418, "searchScope": null, "status": 1, "address": "\u5170\u57ce\u8def290\u53f7", "name": "\u5c27\u529b\u4f53\u80b2 \u6caa\u65b0\u7fbd\u6bdb\u7403\u9986", "id": 144210, "pageNo": 0, "pageCount": null, "pageSize": 10, "ids": null, "endTime": null, "startTime": null}, {"cardNumFive": null, "isSupportYj": null, "cityName": null, "districtName": null, "shopinfo": {"mid": "888888873990001", "good_flag": "2", "new_flag": "2", "short_name": "\u5c27\u529b\u4f53\u80b2", "short_name_pinyin": "yaolitiyu", "status": null, "address": null, "name": null, "id": "33883"}, "mid": "888888873990001", "shopId": "33883", "netid": null, "province": 901, "district": 601, "zipcode": "201600", "telephone": "67739466", "posDate": "20061102", "destineTel": "67739466", "togoTel": "67739466", "trafficWay": "\u677e\u6c5f7", "signBuilding": null, "businessArea": null, "selfRoom": "\u65e0", "businessTime": "18:00~~22:00", "stall": "\u65e0", "consume": null, "serviceFei": null, "favourable": null, "shopMemo": null, "appraise": null, "website": null, "memo": null, "payTypes": "\u6749\u5fb7\u5361", "shopTypes": "\u5176\u4ed6", "consumeTypes": null, "cookTypes": null, "orderNum": 1000, "card4no": null, "card4noAcc": null, "district2": 418, "searchScope": null, "status": 1, "address": "\u534e\u5e08\u5927\u677e\u6c5f\u5b9e\u9a8c\u4e2d\u5b66\u5317\u7fe0\u8def\u8fb9\u95e8", "name": "\u5c27\u529b\u4f53\u80b2 \u534e\u5b9e\u7fbd\u6bdb\u7403\u9986", "id": 144211, "pageNo": 0, "pageCount": null, "pageSize": 10, "ids": null, "endTime": null, "startTime": null}, {"cardNumFive": null, "isSupportYj": null, "cityName": null, "districtName": null, "shopinfo": {"mid": "888888873990001", "good_flag": "2", "new_flag": "2", "short_name": "\u5c27\u529b\u4f53\u80b2", "short_name_pinyin": "yaolitiyu", "status": null, "address": null, "name": null, "id": "33883"}, "mid": "888888873990001", "shopId": "33883", "netid": null, "province": 901, "district": 601, "zipcode": null, "telephone": "67739466", "posDate": "20070618", "destineTel": null, "togoTel": null, "trafficWay": "\u677e\u6c5f7\u8def", "signBuilding": null, "businessArea": null, "selfRoom": null, "businessTime": null, "stall": null, "consume": null, "serviceFei": null, "favourable": null, "shopMemo": null, "appraise": null, "website": null, "memo": null, "payTypes": "\u6749\u5fb7\u5361", "shopTypes": "\u5176\u4ed6", "consumeTypes": null, "cookTypes": null, "orderNum": 1000, "card4no": null, "card4noAcc": null, "district2": 412, "searchScope": null, "status": 1, "address": "\u4e2d\u5c71\u8857\u9053\u8338\u6885\u8def139\u53f7", "name": "\u5c27\u529b\u4f53\u80b2 \u8338\u6885\u8def\u5e97", "id": 144214, "pageNo": 0, "pageCount": null, "pageSize": 10, "ids": null, "endTime": null, "startTime": null}, {"cardNumFive": null, "isSupportYj": null, "cityName": null, "districtName": null, "shopinfo": {"mid": "888888873990001", "good_flag": "2", "new_flag": "2", "short_name": "\u5c27\u529b\u4f53\u80b2", "short_name_pinyin": "yaolitiyu", "status": null, "address": null, "name": null, "id": "33883"}, "mid": "888888873990001", "shopId": "33883", "netid": null, "province": 901, "district": 601, "zipcode": "200125", "telephone": "58394598", "posDate": "20061103", "destineTel": "58394598", "togoTel": "58394598", "trafficWay": "\u516c\u4ea4782\u533a\u95f4", "signBuilding": null, "businessArea": null, "selfRoom": "\u65e0", "businessTime": "18:00~~22:00", "stall": "\u65e0", "consume": null, "serviceFei": null, "favourable": null, "shopMemo": null, "appraise": null, "website": null, "memo": null, "payTypes": "\u6749\u5fb7\u5361", "shopTypes": "\u5176\u4ed6", "consumeTypes": null, "cookTypes": null, "orderNum": 1000, "card4no": null, "card4noAcc": null, "district2": 418, "searchScope": null, "status": 1, "address": "\u4e25\u6c11\u8def219\u53f7", "name": "\u5c27\u529b\u4f53\u80b2 \u7531\u7531\u7fbd\u6bdb\u7403\u9986", "id": 144216, "pageNo": 0, "pageCount": null, "pageSize": 10, "ids": null, "endTime": null, "startTime": null}, {"cardNumFive": null, "isSupportYj": null, "cityName": null, "districtName": null, "shopinfo": {"mid": "888888856910333", "good_flag": "1", "new_flag": "1", "short_name": "\u96c5\u83b9\u670d\u88c5", "short_name_pinyin": "yayingfuzhuang", "status": null, "address": null, "name": null, "id": "33847"}, "mid": "888888856910333", "shopId": "33847", "netid": null, "province": 901, "district": 601, "zipcode": null, "telephone": null, "posDate": "20091228", "destineTel": null, "togoTel": null, "trafficWay": null, "signBuilding": null, "businessArea": null, "selfRoom": null, "businessTime": null, "stall": null, "consume": null, "serviceFei": null, "favourable": null, "shopMemo": null, "appraise": null, "website": null, "memo": null, "payTypes": "\u6749\u5fb7\u5361", "shopTypes": "\u670d\u9970\u5bb6\u7eba", "consumeTypes": null, "cookTypes": null, "orderNum": 1000, "card4no": null, "card4noAcc": null, "district2": 416, "searchScope": null, "status": 1, "address": "\u7261\u4e39\u6c5f\u8def1233\u53f7\u5b89\u4fe1\u5e7f\u573a109\u3001110", "name": "\u96c5\u83b9\u670d\u88c5 \u5b9d\u5c71\u5e97", "id": 144148, "pageNo": 0, "pageCount": null, "pageSize": 10, "ids": null, "endTime": null, "startTime": null}, {"cardNumFive": null, "isSupportYj": null, "cityName": null, "districtName": null, "shopinfo": {"mid": "888888856910334", "good_flag": "1", "new_flag": "1", "short_name": "\u96c5\u83b9\u670d\u88c5", "short_name_pinyin": "yayingfuzhuang", "status": null, "address": null, "name": null, "id": "33850"}, "mid": "888888856910334", "shopId": "33850", "netid": null, "province": 901, "district": 601, "zipcode": null, "telephone": null, "posDate": "20091228", "destineTel": null, "togoTel": null, "trafficWay": null, "signBuilding": null, "businessArea": null, "selfRoom": null, "businessTime": null, "stall": null, "consume": null, "serviceFei": null, "favourable": null, "shopMemo": null, "appraise": null, "website": null, "memo": null, "payTypes": "\u6749\u5fb7\u5361", "shopTypes": "\u670d\u9970\u5bb6\u7eba", "consumeTypes": null, "cookTypes": null, "orderNum": 1000, "card4no": null, "card4noAcc": null, "district2": 413, "searchScope": null, "status": 1, "address": "\u4eba\u6c11\u5357\u8def231\u53f7", "name": "\u96c5\u83b9\u670d\u88c5 \u5949\u8d24\u5e97", "id": 144151, "pageNo": 0, "pageCount": null, "pageSize": 10, "ids": null, "endTime": null, "startTime": null}], "pageLimit": 10550, "size": 10}