{"pageCount": 1095, "count": 10942, "pageNo": 1061, "subShopInfo": {"cardNumFive": "", "isSupportYj": "", "cityName": null, "districtName": null, "shopinfo": {"mid": null, "good_flag": null, "new_flag": null, "short_name": null, "short_name_pinyin": null, "status": null, "address": "", "name": "", "id": null}, "mid": null, "shopId": null, "netid": null, "province": 901, "district": null, "zipcode": null, "telephone": null, "posDate": null, "destineTel": null, "togoTel": null, "trafficWay": null, "signBuilding": null, "businessArea": null, "selfRoom": null, "businessTime": null, "stall": null, "consume": null, "serviceFei": null, "favourable": null, "shopMemo": "1", "appraise": null, "website": null, "memo": null, "payTypes": "", "shopTypes": "", "consumeTypes": null, "cookTypes": null, "orderNum": null, "card4no": null, "card4noAcc": null, "district2": null, "searchScope": null, "status": null, "address": "", "name": null, "id": null, "pageNo": 1060, "pageCount": null, "pageSize": 10, "ids": null, "endTime": null, "startTime": null}, "list": [{"cardNumFive": null, "isSupportYj": null, "cityName": null, "districtName": null, "shopinfo": {"mid": "888888859120168", "good_flag": "2", "new_flag": "1", "short_name": "\u9e70\u57fa", "short_name_pinyin": "yingji", "status": null, "address": null, "name": null, "id": "33985"}, "mid": "888888859120168", "shopId": "33985", "netid": null, "province": 901, "district": 601, "zipcode": null, "telephone": null, "posDate": "20100118", "destineTel": null, "togoTel": null, "trafficWay": null, "signBuilding": null, "businessArea": null, "selfRoom": null, "businessTime": "10:00~22:00", "stall": null, "consume": null, "serviceFei": null, "favourable": null, "shopMemo": null, "appraise": null, "website": null, "memo": null, "payTypes": "\u6749\u5fb7\u5361", "shopTypes": "\u4e13\u5356", "consumeTypes": null, "cookTypes": null, "orderNum": 1000, "card4no": null, "card4noAcc": null, "district2": 418, "searchScope": null, "status": 1, "address": "\u82b3\u7538\u8def185\u53f7", "name": "\u9e70\u57fa \u8054\u6d0b\u5e97", "id": 144504, "pageNo": 0, "pageCount": null, "pageSize": 10, "ids": null, "endTime": null, "startTime": null}, {"cardNumFive": null, "isSupportYj": null, "cityName": null, "districtName": null, "shopinfo": {"mid": "888888859120168", "good_flag": "2", "new_flag": "1", "short_name": "\u9e70\u57fa", "short_name_pinyin": "yingji", "status": null, "address": null, "name": null, "id": "33985"}, "mid": "888888859120168", "shopId": "33985", "netid": null, "province": 901, "district": 601, "zipcode": null, "telephone": "62408067", "posDate": "20090414", "destineTel": null, "togoTel": null, "trafficWay": null, "signBuilding": null, "businessArea": null, "selfRoom": null, "businessTime": "9:00~17:30", "stall": null, "consume": null, "serviceFei": null, "favourable": null, "shopMemo": null, "appraise": null, "website": null, "memo": null, "payTypes": "\u6749\u5fb7\u5361", "shopTypes": "\u4e13\u5356", "consumeTypes": null, "cookTypes": null, "orderNum": 1000, "card4no": null, "card4noAcc": null, "district2": 416, "searchScope": null, "status": 1, "address": "\u7261\u4e39\u6c5f\u8def1258\u53f7\u6d77\u6c5f\u8def\u53e3\uff08\u6613\u4e70\u5f97\u4e09\u697c\uff09", "name": "\u9e70\u57fa \u7261\u4e39\u6c5f\u8def\u5e97", "id": 144505, "pageNo": 0, "pageCount": null, "pageSize": 10, "ids": null, "endTime": null, "startTime": null}, {"cardNumFive": null, "isSupportYj": null, "cityName": null, "districtName": null, "shopinfo": {"mid": "888888859120168", "good_flag": "2", "new_flag": "1", "short_name": "\u9e70\u57fa", "short_name_pinyin": "yingji", "status": null, "address": null, "name": null, "id": "33985"}, "mid": "888888859120168", "shopId": "33985", "netid": null, "province": 901, "district": 601, "zipcode": null, "telephone": "62408067", "posDate": "20090414", "destineTel": null, "togoTel": null, "trafficWay": null, "signBuilding": null, "businessArea": null, "selfRoom": null, "businessTime": "10:00~21:00", "stall": null, "consume": null, "serviceFei": null, "favourable": null, "shopMemo": null, "appraise": null, "website": null, "memo": null, "payTypes": "\u6749\u5fb7\u5361", "shopTypes": "\u4e13\u5356", "consumeTypes": null, "cookTypes": null, "orderNum": 1000, "card4no": null, "card4noAcc": null, "district2": 416, "searchScope": null, "status": 1, "address": "\u6c34\u4ea7\u8def1234\u53f7\u4e00\u697c\uff08\u4e16\u7eaa\u8054\u534e\uff09", "name": "\u9e70\u57fa \u6c34\u4ea7\u8def\u5e97", "id": 144507, "pageNo": 0, "pageCount": null, "pageSize": 10, "ids": null, "endTime": null, "startTime": null}, {"cardNumFive": null, "isSupportYj": null, "cityName": null, "districtName": null, "shopinfo": {"mid": "888888859120168", "good_flag": "2", "new_flag": "1", "short_name": "\u9e70\u57fa", "short_name_pinyin": "yingji", "status": null, "address": null, "name": null, "id": "33985"}, "mid": "888888859120168", "shopId": "33985", "netid": null, "province": 901, "district": 601, "zipcode": null, "telephone": "62408067", "posDate": "20090414", "destineTel": null, "togoTel": null, "trafficWay": null, "signBuilding": null, "businessArea": null, "selfRoom": null, "businessTime": "9:00~21:00", "stall": null, "consume": null, "serviceFei": null, "favourable": null, "shopMemo": null, "appraise": null, "website": null, "memo": null, "payTypes": "\u6749\u5fb7\u5361", "shopTypes": "\u4e13\u5356", "consumeTypes": null, "cookTypes": null, "orderNum": 1000, "card4no": null, "card4noAcc": null, "district2": 409, "searchScope": null, "status": 1, "address": "\u6c34\u6e05\u8def1390\u53f7\u4e00\u697c\uff08\u5927\u6da6\u53d1\uff09", "name": "\u9e70\u57fa \u6c34\u6e05\u5357\u8def\u5e97", "id": 144509, "pageNo": 0, "pageCount": null, "pageSize": 10, "ids": null, "endTime": null, "startTime": null}, {"cardNumFive": null, "isSupportYj": null, "cityName": null, "districtName": null, "shopinfo": {"mid": "888888859120168", "good_flag": "2", "new_flag": "1", "short_name": "\u9e70\u57fa", "short_name_pinyin": "yingji", "status": null, "address": null, "name": null, "id": "33985"}, "mid": "888888859120168", "shopId": "33985", "netid": null, "province": 901, "district": 601, "zipcode": null, "telephone": "62408067", "posDate": "20090424", "destineTel": null, "togoTel": null, "trafficWay": null, "signBuilding": null, "businessArea": null, "selfRoom": null, "businessTime": null, "stall": null, "consume": null, "serviceFei": null, "favourable": null, "shopMemo": null, "appraise": null, "website": null, "memo": null, "payTypes": "\u6749\u5fb7\u5361", "shopTypes": "\u4e13\u5356", "consumeTypes": null, "cookTypes": null, "orderNum": 1000, "card4no": null, "card4noAcc": null, "district2": 406, "searchScope": null, "status": 1, "address": "\u6b66\u5b81\u8def20\u53f7\u4e00\u697c", "name": "\u9e70\u57fa \u6b66\u5b81\u8def\u5e97", "id": 144511, "pageNo": 0, "pageCount": null, "pageSize": 10, "ids": null, "endTime": null, "startTime": null}, {"cardNumFive": null, "isSupportYj": null, "cityName": null, "districtName": null, "shopinfo": {"mid": "888888859120168", "good_flag": "2", "new_flag": "1", "short_name": "\u9e70\u57fa", "short_name_pinyin": "yingji", "status": null, "address": null, "name": null, "id": "33985"}, "mid": "888888859120168", "shopId": "33985", "netid": null, "province": 901, "district": 601, "zipcode": null, "telephone": "62408067/62406098/", "posDate": "20090414", "destineTel": null, "togoTel": null, "trafficWay": null, "signBuilding": null, "businessArea": null, "selfRoom": null, "businessTime": "9:00~18:00", "stall": null, "consume": null, "serviceFei": null, "favourable": null, "shopMemo": null, "appraise": null, "website": null, "memo": null, "payTypes": "\u6749\u5fb7\u5361", "shopTypes": "\u4e13\u5356", "consumeTypes": null, "cookTypes": null, "orderNum": 1000, "card4no": null, "card4noAcc": null, "district2": 405, "searchScope": null, "status": 1, "address": "\u65b0\u6751\u8def1500\u53f7\u4e00\u697c\uff08\u5bb6\u4e50\u798f\uff09", "name": "\u9e70\u57fa \u65b0\u6751\u8def\u5e97", "id": 144512, "pageNo": 0, "pageCount": null, "pageSize": 10, "ids": null, "endTime": null, "startTime": null}, {"cardNumFive": null, "isSupportYj": null, "cityName": null, "districtName": null, "shopinfo": {"mid": "888888880430040", "good_flag": "2", "new_flag": "2", "short_name": "\u82f1\u4f26\u773c\u955c", "short_name_pinyin": "yinglunyanjing", "status": null, "address": null, "name": null, "id": "33979"}, "mid": "888888880430040", "shopId": "33979", "netid": null, "province": 901, "district": 601, "zipcode": null, "telephone": "52720290", "posDate": "20080214", "destineTel": null, "togoTel": null, "trafficWay": "\u516c\u4ea4935 \u7533\u5ddd\u4e13\u7ebf \u5ddd\u6c99\u7ebf", "signBuilding": null, "businessArea": null, "selfRoom": null, "businessTime": null, "stall": null, "consume": null, "serviceFei": null, "favourable": null, "shopMemo": null, "appraise": null, "website": null, "memo": null, "payTypes": "\u6749\u5fb7\u5361", "shopTypes": "\u96f6\u552e,\u4e13\u5356", "consumeTypes": null, "cookTypes": null, "orderNum": 1000, "card4no": null, "card4noAcc": null, "district2": 418, "searchScope": null, "status": 1, "address": "\u91d1\u6865\u9547\u78a7\u4e91\u8def535\u53f7-555\u53f7", "name": "\u82f1\u4f26\u773c\u955c \u78a7\u4e91\u8def\u5e97", "id": 144487, "pageNo": 0, "pageCount": null, "pageSize": 10, "ids": null, "endTime": null, "startTime": null}, {"cardNumFive": null, "isSupportYj": null, "cityName": null, "districtName": null, "shopinfo": {"mid": "888888880430041", "good_flag": "2", "new_flag": "2", "short_name": "\u82f1\u4f26\u773c\u955c", "short_name_pinyin": "yinglunyanjing", "status": null, "address": null, "name": null, "id": "33981"}, "mid": "888888880430041", "shopId": "33981", "netid": null, "province": 901, "district": 601, "zipcode": null, "telephone": "34226642", "posDate": "20080219", "destineTel": null, "togoTel": null, "trafficWay": "\u516c\u4ea4916 \u5730\u94c1\u4e00\u53f7\u7ebf", "signBuilding": null, "businessArea": null, "selfRoom": null, "businessTime": null, "stall": null, "consume": null, "serviceFei": null, "favourable": null, "shopMemo": null, "appraise": null, "website": null, "memo": null, "payTypes": "\u6749\u5fb7\u5361", "shopTypes": "\u96f6\u552e,\u4e13\u5356", "consumeTypes": null, "cookTypes": null, "orderNum": 1000, "card4no": null, "card4noAcc": null, "district2": 407, "searchScope": null, "status": 1, "address": "\u5171\u6c5f\u8def1168\u53f71F", "name": "\u82f1\u4f26\u773c\u955c \u5171\u6c5f\u5e97", "id": 144489, "pageNo": 0, "pageCount": null, "pageSize": 10, "ids": null, "endTime": null, "startTime": null}, {"cardNumFive": null, "isSupportYj": null, "cityName": null, "districtName": null, "shopinfo": {"mid": "888002154990048", "good_flag": null, "new_flag": null, "short_name": "\u5b9c\u5c71\u83dc\u5e02\u573a", "short_name_pinyin": "yishancaishichang", "status": null, "address": null, "name": null, "id": "42358"}, "mid": "888002154990048", "shopId": "42358", "netid": null, "province": 901, "district": 601, "zipcode": null, "telephone": null, "posDate": null, "destineTel": null, "togoTel": null, "trafficWay": null, "signBuilding": null, "businessArea": null, "selfRoom": null, "businessTime": null, "stall": null, "consume": null, "serviceFei": null, "favourable": null, "shopMemo": null, "appraise": null, "website": null, "memo": null, "payTypes": "\u6749\u5fb7\u5361", "shopTypes": "\u9910\u996e", "consumeTypes": null, "cookTypes": null, "orderNum": 1000, "card4no": null, "card4noAcc": null, "district2": 403, "searchScope": null, "status": 1, "address": "\u7530\u6797\u5341\u675137\u53f7 \u644a\u4f4d\u53f71-044\u300145\u300146\u5206\u5272\u79bd", "name": "\u5b9c\u5c71\u83dc\u5e02\u573a \u5b9c\u5c71\u83dc\u5e02\u573a", "id": 188931, "pageNo": 0, "pageCount": null, "pageSize": 10, "ids": null, "endTime": null, "startTime": null}, {"cardNumFive": null, "isSupportYj": null, "cityName": null, "districtName": null, "shopinfo": {"mid": "888888856910264", "good_flag": null, "new_flag": null, "short_name": "\u4f0a\u4e1d\u827e\u62c9", "short_name_pinyin": "yisiaila", "status": null, "address": null, "name": null, "id": "33916"}, "mid": "888888856910264", "shopId": "33916", "netid": null, "province": 901, "district": 601, "zipcode": null, "telephone": "36030780", "posDate": "20090514", "destineTel": null, "togoTel": null, "trafficWay": null, "signBuilding": null, "businessArea": "100", "selfRoom": null, "businessTime": "10:00~22:00", "stall": null, "consume": null, "serviceFei": null, "favourable": null, "shopMemo": null, "appraise": null, "website": null, "memo": null, "payTypes": "\u6749\u5fb7\u5361", "shopTypes": "\u670d\u9970\u5bb6\u7eba", "consumeTypes": null, "cookTypes": null, "orderNum": 1000, "card4no": null, "card4noAcc": null, "district2": 406, "searchScope": null, "status": 1, "address": "\u5317\u6e14\u8def76\u53f7", "name": "\u4f0a\u4e1d\u827e\u62c9 \u5317\u6e14\u8def\u52a0\u76df\u5e97", "id": 144307, "pageNo": 0, "pageCount": null, "pageSize": 10, "ids": null, "endTime": null, "startTime": null}], "pageLimit": 10600, "size": 10}