{"pageCount": 1095, "count": 10942, "pageNo": 1064, "subShopInfo": {"cardNumFive": "", "isSupportYj": "", "cityName": null, "districtName": null, "shopinfo": {"mid": null, "good_flag": null, "new_flag": null, "short_name": null, "short_name_pinyin": null, "status": null, "address": "", "name": "", "id": null}, "mid": null, "shopId": null, "netid": null, "province": 901, "district": null, "zipcode": null, "telephone": null, "posDate": null, "destineTel": null, "togoTel": null, "trafficWay": null, "signBuilding": null, "businessArea": null, "selfRoom": null, "businessTime": null, "stall": null, "consume": null, "serviceFei": null, "favourable": null, "shopMemo": "1", "appraise": null, "website": null, "memo": null, "payTypes": "", "shopTypes": "", "consumeTypes": null, "cookTypes": null, "orderNum": null, "card4no": null, "card4noAcc": null, "district2": null, "searchScope": null, "status": null, "address": "", "name": null, "id": null, "pageNo": 1063, "pageCount": null, "pageSize": 10, "ids": null, "endTime": null, "startTime": null}, "list": [{"cardNumFive": null, "isSupportYj": null, "cityName": null, "districtName": null, "shopinfo": {"mid": "888002154119984", "good_flag": null, "new_flag": null, "short_name": "\u4e00\u4f0d\u4e00\u62fe", "short_name_pinyin": "yiwuyishi", "status": null, "address": null, "name": null, "id": "36472"}, "mid": "888002154119984", "shopId": "36472", "netid": null, "province": 901, "district": 601, "zipcode": null, "telephone": "69765506", "posDate": "20100921", "destineTel": null, "togoTel": null, "trafficWay": null, "signBuilding": null, "businessArea": null, "selfRoom": null, "businessTime": null, "stall": null, "consume": null, "serviceFei": null, "favourable": null, "shopMemo": null, "appraise": null, "website": null, "memo": null, "payTypes": "\u6749\u5fb7\u5361", "shopTypes": "\u96f6\u552e", "consumeTypes": null, "cookTypes": null, "orderNum": 1000, "card4no": null, "card4noAcc": null, "district2": 417, "searchScope": null, "status": 1, "address": "\u5f90\u6cfe\u9547\u534e\u5f90\u516c\u8def888\u53f7\u4e94\u5929\u521b\u610f\u56ed\u529e\u516c\u697c1F", "name": "\u4e00\u4f0d\u4e00\u62fe \u6837\u677f\u5e97", "id": 151810, "pageNo": 0, "pageCount": null, "pageSize": 10, "ids": null, "endTime": null, "startTime": null}, {"cardNumFive": null, "isSupportYj": null, "cityName": null, "districtName": null, "shopinfo": {"mid": "888002154119984", "good_flag": null, "new_flag": null, "short_name": "\u4e00\u4f0d\u4e00\u62fe", "short_name_pinyin": "yiwuyishi", "status": null, "address": null, "name": null, "id": "36472"}, "mid": "888002154119984", "shopId": "36472", "netid": null, "province": 901, "district": 601, "zipcode": null, "telephone": "62532907", "posDate": "20100921", "destineTel": null, "togoTel": null, "trafficWay": null, "signBuilding": null, "businessArea": null, "selfRoom": null, "businessTime": null, "stall": null, "consume": null, "serviceFei": null, "favourable": null, "shopMemo": null, "appraise": null, "website": null, "memo": null, "payTypes": "\u6749\u5fb7\u5361", "shopTypes": "\u96f6\u552e", "consumeTypes": null, "cookTypes": null, "orderNum": 1000, "card4no": null, "card4noAcc": null, "district2": 404, "searchScope": null, "status": 1, "address": "\u534e\u5c71\u8def27\u53f7\u4e00\u53f7\u7ebf\u9759\u5b89\u5bfa\u7ad91\u53f7\u51fa\u53e3", "name": "\u4e00\u4f0d\u4e00\u62fe \u9759\u5b89\u5e97", "id": 151811, "pageNo": 0, "pageCount": null, "pageSize": 10, "ids": null, "endTime": null, "startTime": null}, {"cardNumFive": null, "isSupportYj": null, "cityName": null, "districtName": null, "shopinfo": {"mid": "888002154119984", "good_flag": null, "new_flag": null, "short_name": "\u4e00\u4f0d\u4e00\u62fe", "short_name_pinyin": "yiwuyishi", "status": null, "address": null, "name": null, "id": "37454"}, "mid": "888002154119984", "shopId": "37454", "netid": null, "province": 901, "district": 601, "zipcode": null, "telephone": null, "posDate": null, "destineTel": null, "togoTel": null, "trafficWay": null, "signBuilding": null, "businessArea": null, "selfRoom": null, "businessTime": null, "stall": null, "consume": null, "serviceFei": null, "favourable": null, "shopMemo": null, "appraise": null, "website": null, "memo": null, "payTypes": "\u6749\u5fb7\u5361", "shopTypes": "\u96f6\u552e", "consumeTypes": null, "cookTypes": null, "orderNum": 1000, "card4no": null, "card4noAcc": null, "district2": 416, "searchScope": null, "status": 1, "address": "\u5927\u534e\u8def352\u53f7", "name": "\u4e00\u4f0d\u4e00\u62fe \u5927\u534e\u5e97", "id": 158827, "pageNo": 0, "pageCount": null, "pageSize": 10, "ids": null, "endTime": null, "startTime": null}, {"cardNumFive": null, "isSupportYj": null, "cityName": null, "districtName": null, "shopinfo": {"mid": "888002154119984", "good_flag": null, "new_flag": null, "short_name": "\u4e00\u4f0d\u4e00\u62fe", "short_name_pinyin": "yiwuyishi", "status": null, "address": null, "name": null, "id": "37454"}, "mid": "888002154119984", "shopId": "37454", "netid": null, "province": 901, "district": 601, "zipcode": null, "telephone": null, "posDate": null, "destineTel": null, "togoTel": null, "trafficWay": null, "signBuilding": null, "businessArea": null, "selfRoom": null, "businessTime": null, "stall": null, "consume": null, "serviceFei": null, "favourable": null, "shopMemo": null, "appraise": null, "website": null, "memo": null, "payTypes": "\u6749\u5fb7\u5361", "shopTypes": "\u96f6\u552e", "consumeTypes": null, "cookTypes": null, "orderNum": 1000, "card4no": null, "card4noAcc": null, "district2": 418, "searchScope": null, "status": 1, "address": "\u8f68\u9053\u4ea4\u901a\u516d\u53f7\u7ebf\u4e0a\u5357\u8def\u7ad9B-1003", "name": "\u4e00\u4f0d\u4e00\u62fe \u4e0a\u5357\u5e97", "id": 158830, "pageNo": 0, "pageCount": null, "pageSize": 10, "ids": null, "endTime": null, "startTime": null}, {"cardNumFive": null, "isSupportYj": null, "cityName": null, "districtName": null, "shopinfo": {"mid": "888002154119984", "good_flag": null, "new_flag": null, "short_name": "\u4e00\u4f0d\u4e00\u62fe", "short_name_pinyin": "yiwuyishi", "status": null, "address": null, "name": null, "id": "37723"}, "mid": "888002154119984", "shopId": "37723", "netid": null, "province": 901, "district": 601, "zipcode": null, "telephone": null, "posDate": null, "destineTel": null, "togoTel": null, "trafficWay": null, "signBuilding": null, "businessArea": null, "selfRoom": null, "businessTime": null, "stall": null, "consume": null, "serviceFei": null, "favourable": null, "shopMemo": null, "appraise": null, "website": null, "memo": null, "payTypes": "\u6749\u5fb7\u5361", "shopTypes": "\u96f6\u552e", "consumeTypes": null, "cookTypes": null, "orderNum": 1000, "card4no": null, "card4noAcc": null, "district2": 412, "searchScope": null, "status": 1, "address": "\u4e2d\u5c71\u4e2d\u8def73\u53f7\u5730\u4e0b\u4e00\u5c42B1F-8", "name": "\u4e00\u4f0d\u4e00\u62fe \u5e73\u9ad8\u4e16\u8d38\u5e97", "id": 159975, "pageNo": 0, "pageCount": null, "pageSize": 10, "ids": null, "endTime": null, "startTime": null}, {"cardNumFive": null, "isSupportYj": null, "cityName": null, "districtName": null, "shopinfo": {"mid": "888002154119984", "good_flag": null, "new_flag": null, "short_name": "\u4e00\u4f0d\u4e00\u62fe", "short_name_pinyin": "yiwuyishi", "status": null, "address": null, "name": null, "id": "37723"}, "mid": "888002154119984", "shopId": "37723", "netid": null, "province": 901, "district": 601, "zipcode": null, "telephone": null, "posDate": null, "destineTel": null, "togoTel": null, "trafficWay": null, "signBuilding": null, "businessArea": null, "selfRoom": null, "businessTime": null, "stall": null, "consume": null, "serviceFei": null, "favourable": null, "shopMemo": null, "appraise": null, "website": null, "memo": null, "payTypes": "\u6749\u5fb7\u5361", "shopTypes": "\u96f6\u552e", "consumeTypes": null, "cookTypes": null, "orderNum": 1000, "card4no": null, "card4noAcc": null, "district2": 416, "searchScope": null, "status": 1, "address": "\u7f57\u82ac\u8def1088\u53f7", "name": "\u4e00\u4f0d\u4e00\u62fe \u7f8e\u5170\u6e56\u5e97", "id": 159976, "pageNo": 0, "pageCount": null, "pageSize": 10, "ids": null, "endTime": null, "startTime": null}, {"cardNumFive": null, "isSupportYj": null, "cityName": null, "districtName": null, "shopinfo": {"mid": "888002154119984", "good_flag": null, "new_flag": null, "short_name": "\u4e00\u4f0d\u4e00\u62fe", "short_name_pinyin": "yiwuyishi", "status": null, "address": null, "name": null, "id": "38103"}, "mid": "888002154119984", "shopId": "38103", "netid": null, "province": 901, "district": 601, "zipcode": null, "telephone": null, "posDate": null, "destineTel": null, "togoTel": null, "trafficWay": null, "signBuilding": null, "businessArea": null, "selfRoom": null, "businessTime": null, "stall": null, "consume": null, "serviceFei": null, "favourable": null, "shopMemo": null, "appraise": null, "website": null, "memo": null, "payTypes": "\u6749\u5fb7\u5361", "shopTypes": "\u96f6\u552e", "consumeTypes": null, "cookTypes": null, "orderNum": 1000, "card4no": null, "card4noAcc": null, "district2": 401, "searchScope": null, "status": 1, "address": "\u5357\u4eac\u4e1c\u8def300\u53f7", "name": "\u4e00\u4f0d\u4e00\u62fe \u5357\u4eac\u4e1c\u8def\u5e97", "id": 162101, "pageNo": 0, "pageCount": null, "pageSize": 10, "ids": null, "endTime": null, "startTime": null}, {"cardNumFive": null, "isSupportYj": null, "cityName": null, "districtName": null, "shopinfo": {"mid": "888002153310555", "good_flag": null, "new_flag": null, "short_name": "\u4e00\u5fc3\u739b\u7279", "short_name_pinyin": "yixinmate", "status": null, "address": null, "name": null, "id": "41876"}, "mid": "888002153310555", "shopId": "41876", "netid": null, "province": 901, "district": 601, "zipcode": null, "telephone": null, "posDate": null, "destineTel": null, "togoTel": null, "trafficWay": null, "signBuilding": null, "businessArea": null, "selfRoom": null, "businessTime": null, "stall": null, "consume": null, "serviceFei": null, "favourable": null, "shopMemo": null, "appraise": null, "website": null, "memo": null, "payTypes": "\u6749\u5fb7\u5361", "shopTypes": "\u8d85\u5e02", "consumeTypes": null, "cookTypes": null, "orderNum": 1000, "card4no": null, "card4noAcc": null, "district2": 418, "searchScope": null, "status": 1, "address": "\u5317\u8521\u9547\u6768\u83b2\u8def141-171\u53f7", "name": "\u4e00\u5fc3\u739b\u7279 \u6768\u83b2\u8def\u5e97", "id": 186177, "pageNo": 0, "pageCount": null, "pageSize": 10, "ids": null, "endTime": null, "startTime": null}, {"cardNumFive": null, "isSupportYj": null, "cityName": null, "districtName": null, "shopinfo": {"mid": "888002153310555", "good_flag": null, "new_flag": null, "short_name": "\u4e00\u5fc3\u739b\u7279", "short_name_pinyin": "yixinmate", "status": null, "address": null, "name": null, "id": "41876"}, "mid": "888002153310555", "shopId": "41876", "netid": null, "province": 901, "district": 601, "zipcode": null, "telephone": "68918502", "posDate": null, "destineTel": null, "togoTel": null, "trafficWay": null, "signBuilding": null, "businessArea": null, "selfRoom": null, "businessTime": null, "stall": null, "consume": null, "serviceFei": null, "favourable": null, "shopMemo": null, "appraise": null, "website": null, "memo": null, "payTypes": "\u6749\u5fb7\u5361", "shopTypes": "\u8d85\u5e02", "consumeTypes": null, "cookTypes": null, "orderNum": 1000, "card4no": null, "card4noAcc": null, "district2": 418, "searchScope": null, "status": 1, "address": "\u5468\u6d66\u9547\u6a2a\u6865\u8def88\u53f7", "name": "\u4e00\u5fc3\u739b\u7279 \u6a2a\u6865\u8def\u5e97", "id": 186178, "pageNo": 0, "pageCount": null, "pageSize": 10, "ids": null, "endTime": null, "startTime": null}, {"cardNumFive": null, "isSupportYj": null, "cityName": null, "districtName": null, "shopinfo": {"mid": "888888848120035", "good_flag": "2", "new_flag": "2", "short_name": "\u6c38\u4e1c\u901a\u8baf\u5668\u6750(\u5339\u514b\uff09", "short_name_pinyin": "yongdongtongxunqicai(pike\uff09", "status": null, "address": null, "name": null, "id": "33990"}, "mid": "888888848120035", "shopId": "33990", "netid": null, "province": 901, "district": 601, "zipcode": null, "telephone": "50201007", "posDate": "20080625", "destineTel": null, "togoTel": null, "trafficWay": "\u5730\u94c1\u4e8c\u53f7\u7ebf", "signBuilding": null, "businessArea": "80\u5e73\u65b9\u7c73", "selfRoom": null, "businessTime": "10:30~21:30", "stall": "\u65e0", "consume": "100\u5143", "serviceFei": null, "favourable": null, "shopMemo": null, "appraise": null, "website": null, "memo": null, "payTypes": "\u6749\u5fb7\u5361", "shopTypes": "\u4e13\u5356", "consumeTypes": null, "cookTypes": null, "orderNum": 1000, "card4no": null, "card4noAcc": null, "district2": 418, "searchScope": null, "status": 1, "address": "\u5f20\u6c5f\u9547\u5b59\u6865\u8def208\u53f7", "name": "\u6c38\u4e1c\u901a\u8baf\u5668\u6750(\u5339\u514b\uff09 \u5b59\u6865\u8def\u5e97", "id": 144517, "pageNo": 0, "pageCount": null, "pageSize": 10, "ids": null, "endTime": null, "startTime": null}], "pageLimit": 10630, "size": 10}