{"pageCount": 1095, "count": 10942, "pageNo": 1067, "subShopInfo": {"cardNumFive": "", "isSupportYj": "", "cityName": null, "districtName": null, "shopinfo": {"mid": null, "good_flag": null, "new_flag": null, "short_name": null, "short_name_pinyin": null, "status": null, "address": "", "name": "", "id": null}, "mid": null, "shopId": null, "netid": null, "province": 901, "district": null, "zipcode": null, "telephone": null, "posDate": null, "destineTel": null, "togoTel": null, "trafficWay": null, "signBuilding": null, "businessArea": null, "selfRoom": null, "businessTime": null, "stall": null, "consume": null, "serviceFei": null, "favourable": null, "shopMemo": "1", "appraise": null, "website": null, "memo": null, "payTypes": "", "shopTypes": "", "consumeTypes": null, "cookTypes": null, "orderNum": null, "card4no": null, "card4noAcc": null, "district2": null, "searchScope": null, "status": null, "address": "", "name": null, "id": null, "pageNo": 1066, "pageCount": null, "pageSize": 10, "ids": null, "endTime": null, "startTime": null}, "list": [{"cardNumFive": null, "isSupportYj": null, "cityName": null, "districtName": null, "shopinfo": {"mid": "888888858120469", "good_flag": "2", "new_flag": "2", "short_name": "\u6c38\u548c\u5927\u738b", "short_name_pinyin": "yonghedawang", "status": null, "address": null, "name": null, "id": "33991"}, "mid": "888888858120469", "shopId": "33991", "netid": null, "province": 901, "district": 601, "zipcode": null, "telephone": null, "posDate": null, "destineTel": null, "togoTel": null, "trafficWay": null, "signBuilding": null, "businessArea": null, "selfRoom": null, "businessTime": null, "stall": null, "consume": null, "serviceFei": null, "favourable": null, "shopMemo": null, "appraise": null, "website": null, "memo": null, "payTypes": "\u6749\u5fb7\u5361", "shopTypes": "\u9910\u996e", "consumeTypes": null, "cookTypes": null, "orderNum": 1000, "card4no": null, "card4noAcc": null, "district2": 407, "searchScope": null, "status": 1, "address": "\u63a7\u6c5f\u8def1667\u53f7", "name": "\u6c38\u548c\u5927\u738b \u63a7\u6c5f\u8def\u5e97", "id": 171309, "pageNo": 0, "pageCount": null, "pageSize": 10, "ids": null, "endTime": null, "startTime": null}, {"cardNumFive": null, "isSupportYj": null, "cityName": null, "districtName": null, "shopinfo": {"mid": "888888858120469", "good_flag": "2", "new_flag": "2", "short_name": "\u6c38\u548c\u5927\u738b", "short_name_pinyin": "yonghedawang", "status": null, "address": null, "name": null, "id": "33991"}, "mid": "888888858120469", "shopId": "33991", "netid": null, "province": 901, "district": 601, "zipcode": null, "telephone": null, "posDate": null, "destineTel": null, "togoTel": null, "trafficWay": null, "signBuilding": null, "businessArea": null, "selfRoom": null, "businessTime": null, "stall": null, "consume": null, "serviceFei": null, "favourable": null, "shopMemo": null, "appraise": null, "website": null, "memo": null, "payTypes": "\u6749\u5fb7\u5361", "shopTypes": "\u9910\u996e", "consumeTypes": null, "cookTypes": null, "orderNum": 1000, "card4no": null, "card4noAcc": null, "district2": 404, "searchScope": null, "status": 1, "address": "\u5357\u9633\u8def123\u53f7", "name": "\u6c38\u548c\u5927\u738b \u897f\u5eb7\u8def\u5e97", "id": 171310, "pageNo": 0, "pageCount": null, "pageSize": 10, "ids": null, "endTime": null, "startTime": null}, {"cardNumFive": null, "isSupportYj": null, "cityName": null, "districtName": null, "shopinfo": {"mid": "888888858120469", "good_flag": "2", "new_flag": "2", "short_name": "\u6c38\u548c\u5927\u738b", "short_name_pinyin": "yonghedawang", "status": null, "address": null, "name": null, "id": "33991"}, "mid": "888888858120469", "shopId": "33991", "netid": null, "province": 901, "district": 601, "zipcode": null, "telephone": null, "posDate": null, "destineTel": null, "togoTel": null, "trafficWay": null, "signBuilding": null, "businessArea": null, "selfRoom": null, "businessTime": null, "stall": null, "consume": null, "serviceFei": null, "favourable": null, "shopMemo": null, "appraise": null, "website": null, "memo": null, "payTypes": "\u6749\u5fb7\u5361", "shopTypes": "\u9910\u996e", "consumeTypes": null, "cookTypes": null, "orderNum": 1000, "card4no": null, "card4noAcc": null, "district2": 403, "searchScope": null, "status": 1, "address": "\u6f15\u5b9d\u8def1096\u53f7", "name": "\u6c38\u548c\u5927\u738b \u6f15\u5b9d\u5e97", "id": 171313, "pageNo": 0, "pageCount": null, "pageSize": 10, "ids": null, "endTime": null, "startTime": null}, {"cardNumFive": null, "isSupportYj": null, "cityName": null, "districtName": null, "shopinfo": {"mid": "888888858120469", "good_flag": "2", "new_flag": "2", "short_name": "\u6c38\u548c\u5927\u738b", "short_name_pinyin": "yonghedawang", "status": null, "address": null, "name": null, "id": "33991"}, "mid": "888888858120469", "shopId": "33991", "netid": null, "province": 901, "district": 601, "zipcode": null, "telephone": null, "posDate": null, "destineTel": null, "togoTel": null, "trafficWay": null, "signBuilding": null, "businessArea": null, "selfRoom": null, "businessTime": null, "stall": null, "consume": null, "serviceFei": null, "favourable": null, "shopMemo": null, "appraise": null, "website": null, "memo": null, "payTypes": "\u6749\u5fb7\u5361", "shopTypes": "\u9910\u996e", "consumeTypes": null, "cookTypes": null, "orderNum": 1000, "card4no": null, "card4noAcc": null, "district2": 408, "searchScope": null, "status": 1, "address": "\u56db\u5ddd\u5317\u8def71\u53f7", "name": "\u6c38\u548c\u5927\u738b \u4e03\u6d66\u5e97", "id": 171315, "pageNo": 0, "pageCount": null, "pageSize": 10, "ids": null, "endTime": null, "startTime": null}, {"cardNumFive": null, "isSupportYj": null, "cityName": null, "districtName": null, "shopinfo": {"mid": "888888858120469", "good_flag": "2", "new_flag": "2", "short_name": "\u6c38\u548c\u5927\u738b", "short_name_pinyin": "yonghedawang", "status": null, "address": null, "name": null, "id": "33991"}, "mid": "888888858120469", "shopId": "33991", "netid": null, "province": 901, "district": 601, "zipcode": null, "telephone": null, "posDate": null, "destineTel": null, "togoTel": null, "trafficWay": null, "signBuilding": null, "businessArea": null, "selfRoom": null, "businessTime": null, "stall": null, "consume": null, "serviceFei": null, "favourable": null, "shopMemo": null, "appraise": null, "website": null, "memo": null, "payTypes": "\u6749\u5fb7\u5361", "shopTypes": "\u9910\u996e", "consumeTypes": null, "cookTypes": null, "orderNum": 1000, "card4no": null, "card4noAcc": null, "district2": 408, "searchScope": null, "status": 1, "address": "\u4e2d\u5c71\u5317\u4e8c\u8def1818\u53f7", "name": "\u6c38\u548c\u5927\u738b \u4e2d\u5c71\u5317\u8def\u5e97", "id": 171316, "pageNo": 0, "pageCount": null, "pageSize": 10, "ids": null, "endTime": null, "startTime": null}, {"cardNumFive": null, "isSupportYj": null, "cityName": null, "districtName": null, "shopinfo": {"mid": "888888858120469", "good_flag": "2", "new_flag": "2", "short_name": "\u6c38\u548c\u5927\u738b", "short_name_pinyin": "yonghedawang", "status": null, "address": null, "name": null, "id": "33991"}, "mid": "888888858120469", "shopId": "33991", "netid": null, "province": 901, "district": 601, "zipcode": null, "telephone": null, "posDate": null, "destineTel": null, "togoTel": null, "trafficWay": null, "signBuilding": null, "businessArea": null, "selfRoom": null, "businessTime": null, "stall": null, "consume": null, "serviceFei": null, "favourable": null, "shopMemo": null, "appraise": null, "website": null, "memo": null, "payTypes": "\u6749\u5fb7\u5361", "shopTypes": "\u9910\u996e", "consumeTypes": null, "cookTypes": null, "orderNum": 1000, "card4no": null, "card4noAcc": null, "district2": 403, "searchScope": null, "status": 1, "address": "\u6caa\u95f5\u8def9001-3\u53f7", "name": "\u6c38\u548c\u5927\u738b \u6caa\u95f5\u8def\u5e97", "id": 171318, "pageNo": 0, "pageCount": null, "pageSize": 10, "ids": null, "endTime": null, "startTime": null}, {"cardNumFive": null, "isSupportYj": null, "cityName": null, "districtName": null, "shopinfo": {"mid": "888002158120652", "good_flag": null, "new_flag": "2", "short_name": "\u6c38\u548c\u5927\u738b", "short_name_pinyin": "yonghedawang", "status": null, "address": null, "name": null, "id": "43472"}, "mid": "888002158120652", "shopId": "43472", "netid": null, "province": 901, "district": 601, "zipcode": null, "telephone": null, "posDate": null, "destineTel": null, "togoTel": null, "trafficWay": null, "signBuilding": null, "businessArea": null, "selfRoom": null, "businessTime": null, "stall": null, "consume": null, "serviceFei": null, "favourable": null, "shopMemo": null, "appraise": null, "website": null, "memo": null, "payTypes": "\u6749\u5fb7\u5361,", "shopTypes": "\u9910\u996e", "consumeTypes": null, "cookTypes": null, "orderNum": null, "card4no": null, "card4noAcc": null, "district2": 418, "searchScope": null, "status": 1, "address": "\u9f99\u9633\u8def2000\u53f7101\u5ba4", "name": "\u9f99\u9633\u8def\u5e97", "id": 418057383223230464, "pageNo": 0, "pageCount": null, "pageSize": 10, "ids": null, "endTime": null, "startTime": null}, {"cardNumFive": null, "isSupportYj": null, "cityName": null, "districtName": null, "shopinfo": {"mid": "888002158120652", "good_flag": null, "new_flag": "2", "short_name": "\u6c38\u548c\u5927\u738b", "short_name_pinyin": "yonghedawang", "status": null, "address": null, "name": null, "id": "43472"}, "mid": "888002158120652", "shopId": "43472", "netid": null, "province": 901, "district": 601, "zipcode": null, "telephone": null, "posDate": null, "destineTel": null, "togoTel": null, "trafficWay": null, "signBuilding": null, "businessArea": null, "selfRoom": null, "businessTime": null, "stall": null, "consume": null, "serviceFei": null, "favourable": null, "shopMemo": null, "appraise": null, "website": null, "memo": null, "payTypes": "\u6749\u5fb7\u5361,", "shopTypes": "\u9910\u996e", "consumeTypes": null, "cookTypes": null, "orderNum": null, "card4no": null, "card4noAcc": null, "district2": 418, "searchScope": null, "status": 1, "address": "\u6768\u9ad8\u4e2d\u8def2128 \u53f7L1\u5c42\u6b63\u5927\u751f\u6d3b\u9986\u5185YZI-058-1\u5546\u94fa", "name": "\u6768\u9ad8\u4e2d\u8def\u5e97", "id": 418057383533608960, "pageNo": 0, "pageCount": null, "pageSize": 10, "ids": null, "endTime": null, "startTime": null}, {"cardNumFive": null, "isSupportYj": null, "cityName": null, "districtName": null, "shopinfo": {"mid": "888002158120652", "good_flag": null, "new_flag": "2", "short_name": "\u6c38\u548c\u5927\u738b", "short_name_pinyin": "yonghedawang", "status": null, "address": null, "name": null, "id": "43472"}, "mid": "888002158120652", "shopId": "43472", "netid": null, "province": 901, "district": 601, "zipcode": null, "telephone": null, "posDate": null, "destineTel": null, "togoTel": null, "trafficWay": null, "signBuilding": null, "businessArea": null, "selfRoom": null, "businessTime": null, "stall": null, "consume": null, "serviceFei": null, "favourable": null, "shopMemo": null, "appraise": null, "website": null, "memo": null, "payTypes": "\u6749\u5fb7\u5361,", "shopTypes": "\u9910\u996e", "consumeTypes": null, "cookTypes": null, "orderNum": null, "card4no": null, "card4noAcc": null, "district2": 410, "searchScope": null, "status": 1, "address": "\u6885\u56ed\u8def330\u53f7", "name": "\u4e2d\u4e9a\u5e97", "id": 418057384313749504, "pageNo": 0, "pageCount": null, "pageSize": 10, "ids": null, "endTime": null, "startTime": null}, {"cardNumFive": null, "isSupportYj": null, "cityName": null, "districtName": null, "shopinfo": {"mid": "888002158120652", "good_flag": null, "new_flag": "2", "short_name": "\u6c38\u548c\u5927\u738b", "short_name_pinyin": "yonghedawang", "status": null, "address": null, "name": null, "id": "43472"}, "mid": "888002158120652", "shopId": "43472", "netid": null, "province": 901, "district": 601, "zipcode": null, "telephone": null, "posDate": null, "destineTel": null, "togoTel": null, "trafficWay": null, "signBuilding": null, "businessArea": null, "selfRoom": null, "businessTime": null, "stall": null, "consume": null, "serviceFei": null, "favourable": null, "shopMemo": null, "appraise": null, "website": null, "memo": null, "payTypes": "\u6749\u5fb7\u5361,", "shopTypes": "\u9910\u996e", "consumeTypes": null, "cookTypes": null, "orderNum": null, "card4no": null, "card4noAcc": null, "district2": 406, "searchScope": null, "status": 1, "address": "\u5b9a\u897f\u8def1295\u53f7", "name": "\u516c\u56ed\u5e97", "id": 418057384716402688, "pageNo": 0, "pageCount": null, "pageSize": 10, "ids": null, "endTime": null, "startTime": null}], "pageLimit": 10660, "size": 10}