{"pageCount": 1095, "count": 10942, "pageNo": 1069, "subShopInfo": {"cardNumFive": "", "isSupportYj": "", "cityName": null, "districtName": null, "shopinfo": {"mid": null, "good_flag": null, "new_flag": null, "short_name": null, "short_name_pinyin": null, "status": null, "address": "", "name": "", "id": null}, "mid": null, "shopId": null, "netid": null, "province": 901, "district": null, "zipcode": null, "telephone": null, "posDate": null, "destineTel": null, "togoTel": null, "trafficWay": null, "signBuilding": null, "businessArea": null, "selfRoom": null, "businessTime": null, "stall": null, "consume": null, "serviceFei": null, "favourable": null, "shopMemo": "1", "appraise": null, "website": null, "memo": null, "payTypes": "", "shopTypes": "", "consumeTypes": null, "cookTypes": null, "orderNum": null, "card4no": null, "card4noAcc": null, "district2": null, "searchScope": null, "status": null, "address": "", "name": null, "id": null, "pageNo": 1068, "pageCount": null, "pageSize": 10, "ids": null, "endTime": null, "startTime": null}, "list": [{"cardNumFive": null, "isSupportYj": null, "cityName": null, "districtName": null, "shopinfo": {"mid": "888002158120652", "good_flag": null, "new_flag": "2", "short_name": "\u6c38\u548c\u5927\u738b", "short_name_pinyin": "yonghedawang", "status": null, "address": null, "name": null, "id": "43472"}, "mid": "888002158120652", "shopId": "43472", "netid": null, "province": 901, "district": 601, "zipcode": null, "telephone": null, "posDate": null, "destineTel": null, "togoTel": null, "trafficWay": null, "signBuilding": null, "businessArea": null, "selfRoom": null, "businessTime": null, "stall": null, "consume": null, "serviceFei": null, "favourable": null, "shopMemo": null, "appraise": null, "website": null, "memo": null, "payTypes": "\u6749\u5fb7\u5361,", "shopTypes": "\u9910\u996e\u7c7b", "consumeTypes": null, "cookTypes": null, "orderNum": null, "card4no": null, "card4noAcc": null, "district2": 411, "searchScope": null, "status": 1, "address": "\u5e73\u57ce\u8def1188\u53f7-6", "name": "\u5e73\u57ce\u8def\u5e97", "id": 423171641921503232, "pageNo": 0, "pageCount": null, "pageSize": 10, "ids": null, "endTime": null, "startTime": null}, {"cardNumFive": null, "isSupportYj": null, "cityName": null, "districtName": null, "shopinfo": {"mid": "888002158120652", "good_flag": null, "new_flag": "2", "short_name": "\u6c38\u548c\u5927\u738b", "short_name_pinyin": "yonghedawang", "status": null, "address": null, "name": null, "id": "43472"}, "mid": "888002158120652", "shopId": "43472", "netid": null, "province": 901, "district": 601, "zipcode": null, "telephone": null, "posDate": null, "destineTel": null, "togoTel": null, "trafficWay": null, "signBuilding": null, "businessArea": null, "selfRoom": null, "businessTime": null, "stall": null, "consume": null, "serviceFei": null, "favourable": null, "shopMemo": null, "appraise": null, "website": null, "memo": null, "payTypes": "\u6749\u5fb7\u5361,", "shopTypes": "\u9910\u996e", "consumeTypes": null, "cookTypes": null, "orderNum": null, "card4no": null, "card4noAcc": null, "district2": 411, "searchScope": null, "status": 1, "address": "\u67f3\u6881\u8def155\u5f044\u53f7106", "name": "\u5609\u5b9a\u897f\u7ad9\u5e97", "id": 435789030890668032, "pageNo": 0, "pageCount": null, "pageSize": 10, "ids": null, "endTime": null, "startTime": null}, {"cardNumFive": null, "isSupportYj": null, "cityName": null, "districtName": null, "shopinfo": {"mid": "888002158120652", "good_flag": null, "new_flag": "2", "short_name": "\u6c38\u548c\u5927\u738b", "short_name_pinyin": "yonghedawang", "status": null, "address": null, "name": null, "id": "43472"}, "mid": "888002158120652", "shopId": "43472", "netid": null, "province": 901, "district": 601, "zipcode": null, "telephone": null, "posDate": null, "destineTel": null, "togoTel": null, "trafficWay": null, "signBuilding": null, "businessArea": null, "selfRoom": null, "businessTime": null, "stall": null, "consume": null, "serviceFei": null, "favourable": null, "shopMemo": null, "appraise": null, "website": null, "memo": null, "payTypes": "\u6749\u5fb7\u5361,", "shopTypes": "\u9910\u996e", "consumeTypes": null, "cookTypes": null, "orderNum": null, "card4no": null, "card4noAcc": null, "district2": 412, "searchScope": null, "status": 1, "address": "\u6885\u5bb6\u6d5c\u8def1500\u53f7", "name": "\u6885\u5bb6\u6d5c\u8def\u5e97", "id": 435789033822486528, "pageNo": 0, "pageCount": null, "pageSize": 10, "ids": null, "endTime": null, "startTime": null}, {"cardNumFive": null, "isSupportYj": null, "cityName": null, "districtName": null, "shopinfo": {"mid": "888002158120652", "good_flag": null, "new_flag": "2", "short_name": "\u6c38\u548c\u5927\u738b", "short_name_pinyin": "yonghedawang", "status": null, "address": null, "name": null, "id": "43472"}, "mid": "888002158120652", "shopId": "43472", "netid": null, "province": 901, "district": 601, "zipcode": null, "telephone": null, "posDate": null, "destineTel": null, "togoTel": null, "trafficWay": null, "signBuilding": null, "businessArea": null, "selfRoom": null, "businessTime": null, "stall": null, "consume": null, "serviceFei": null, "favourable": null, "shopMemo": null, "appraise": null, "website": null, "memo": null, "payTypes": "\u6749\u5fb7\u5361,", "shopTypes": "\u9910\u996e", "consumeTypes": null, "cookTypes": null, "orderNum": null, "card4no": null, "card4noAcc": null, "district2": 417, "searchScope": null, "status": 1, "address": "\u516c\u56ed\u4e1c\u8def1289\u5f04\u5bcc\u7ec5\u5546\u4e1a\u4e2d\u5fc3133\u53f7\u4e00\u5c42\u90e8\u5206\u3001135\u53f7\u3001136\u53f7", "name": "\u516c\u56ed\u4e1c\u8def\u5e97", "id": 435789034355163136, "pageNo": 0, "pageCount": null, "pageSize": 10, "ids": null, "endTime": null, "startTime": null}, {"cardNumFive": null, "isSupportYj": null, "cityName": null, "districtName": null, "shopinfo": {"mid": "888888858120471", "good_flag": "1", "new_flag": "2", "short_name": "\u6c38\u548c\u8c46\u6d46", "short_name_pinyin": "yonghedoujiang", "status": null, "address": null, "name": null, "id": "33992"}, "mid": "888888858120471", "shopId": "33992", "netid": null, "province": 901, "district": 601, "zipcode": null, "telephone": "68196375", "posDate": "20080918", "destineTel": null, "togoTel": null, "trafficWay": "\u516c\u4ea4451 572 581", "signBuilding": null, "businessArea": null, "selfRoom": null, "businessTime": null, "stall": null, "consume": null, "serviceFei": null, "favourable": null, "shopMemo": null, "appraise": null, "website": null, "memo": null, "payTypes": "\u6749\u5fb7\u5361", "shopTypes": "\u9910\u996e", "consumeTypes": null, "cookTypes": null, "orderNum": 1000, "card4no": null, "card4noAcc": null, "district2": 418, "searchScope": null, "status": 1, "address": "\u5eb7\u6865\u9547\u79c0\u6cbf\u8def1032-1080\u5927\u6da6\u53d18\u53f7\u94fa", "name": "\u6c38\u548c\u8c46\u6d46 \u5eb7\u6865\u5e97", "id": 144557, "pageNo": 0, "pageCount": null, "pageSize": 10, "ids": null, "endTime": null, "startTime": null}, {"cardNumFive": null, "isSupportYj": null, "cityName": null, "districtName": null, "shopinfo": {"mid": "888888858120471", "good_flag": "1", "new_flag": "2", "short_name": "\u6c38\u548c\u8c46\u6d46", "short_name_pinyin": "yonghedoujiang", "status": null, "address": null, "name": null, "id": "33992"}, "mid": "888888858120471", "shopId": "33992", "netid": null, "province": 901, "district": 601, "zipcode": null, "telephone": "68879059", "posDate": "20080905", "destineTel": null, "togoTel": null, "trafficWay": "\u516c\u4ea4783 584 \u5730\u94c1\u4e8c\u53f7\u7ebf", "signBuilding": null, "businessArea": null, "selfRoom": null, "businessTime": null, "stall": "\u6709", "consume": "\u5b9e\u60e0", "serviceFei": null, "favourable": null, "shopMemo": null, "appraise": null, "website": null, "memo": null, "payTypes": "\u6749\u5fb7\u5361", "shopTypes": "\u9910\u996e", "consumeTypes": null, "cookTypes": null, "orderNum": 1000, "card4no": null, "card4noAcc": null, "district2": 418, "searchScope": null, "status": 1, "address": "\u5357\u6cc9\u5317\u8def400\u53f7", "name": "\u6c38\u548c\u8c46\u6d46 \u4e16\u7eaa\u5e97", "id": 144561, "pageNo": 0, "pageCount": null, "pageSize": 10, "ids": null, "endTime": null, "startTime": null}, {"cardNumFive": null, "isSupportYj": null, "cityName": null, "districtName": null, "shopinfo": {"mid": "888888858120471", "good_flag": "1", "new_flag": "2", "short_name": "\u6c38\u548c\u8c46\u6d46", "short_name_pinyin": "yonghedoujiang", "status": null, "address": null, "name": null, "id": "33992"}, "mid": "888888858120471", "shopId": "33992", "netid": null, "province": 901, "district": 601, "zipcode": null, "telephone": "58301674", "posDate": "20080904", "destineTel": null, "togoTel": null, "trafficWay": "\u516c\u4ea401\u8def 992\u8def 818\u8def", "signBuilding": null, "businessArea": null, "selfRoom": null, "businessTime": null, "stall": null, "consume": null, "serviceFei": null, "favourable": null, "shopMemo": null, "appraise": null, "website": null, "memo": null, "payTypes": "\u6749\u5fb7\u5361", "shopTypes": "\u9910\u996e", "consumeTypes": null, "cookTypes": null, "orderNum": 1000, "card4no": null, "card4noAcc": null, "district2": 418, "searchScope": null, "status": 1, "address": "\u6d66\u4e1c\u5357\u8def1457\u53f7", "name": "\u6c38\u548c\u8c46\u6d46 \u6f4d\u574a\u5e97", "id": 144563, "pageNo": 0, "pageCount": null, "pageSize": 10, "ids": null, "endTime": null, "startTime": null}, {"cardNumFive": null, "isSupportYj": null, "cityName": null, "districtName": null, "shopinfo": {"mid": "888002154110842", "good_flag": "2", "new_flag": "2", "short_name": "\u6c38\u8f89\u751f\u9c9c", "short_name_pinyin": "yonghuishengxian", "status": null, "address": null, "name": null, "id": "469523873604304896"}, "mid": "888002154110842", "shopId": "469523873604304896", "netid": null, "province": 901, "district": 601, "zipcode": null, "telephone": null, "posDate": null, "destineTel": null, "togoTel": null, "trafficWay": null, "signBuilding": null, "businessArea": null, "selfRoom": null, "businessTime": null, "stall": null, "consume": null, "serviceFei": null, "favourable": null, "shopMemo": null, "appraise": null, "website": null, "memo": null, "payTypes": "\u6749\u5fb7\u5361,", "shopTypes": "\u8d85\u5e02", "consumeTypes": null, "cookTypes": null, "orderNum": null, "card4no": null, "card4noAcc": null, "district2": 405, "searchScope": null, "status": 1, "address": "\u65b0\u6751\u8def1966\u53f7", "name": "\u65b0\u6751\u8def\u70b9", "id": 469523872379568128, "pageNo": 0, "pageCount": null, "pageSize": 10, "ids": null, "endTime": null, "startTime": null}, {"cardNumFive": null, "isSupportYj": null, "cityName": null, "districtName": null, "shopinfo": {"mid": "888002153311039", "good_flag": "2", "new_flag": "2", "short_name": "\u6c38\u8f89\u751f\u9c9c\u8d85\u5e02", "short_name_pinyin": "yonghuishengxianchaoshi", "status": null, "address": null, "name": null, "id": "418057318475759616"}, "mid": "888002153311039", "shopId": "418057318475759616", "netid": null, "province": 901, "district": 601, "zipcode": null, "telephone": null, "posDate": null, "destineTel": null, "togoTel": null, "trafficWay": null, "signBuilding": null, "businessArea": null, "selfRoom": null, "businessTime": null, "stall": null, "consume": null, "serviceFei": null, "favourable": null, "shopMemo": null, "appraise": null, "website": null, "memo": null, "payTypes": "\u6749\u5fb7\u5361,", "shopTypes": "\u8d85\u5e02", "consumeTypes": null, "cookTypes": null, "orderNum": null, "card4no": null, "card4noAcc": null, "district2": 401, "searchScope": null, "status": 1, "address": "\u5357\u8f66\u7ad9\u8def175\u53f7\u5730\u4e0b\u4e00\u5c42", "name": "\u56fd\u8d27\u8def\u5e97", "id": 418057317292965888, "pageNo": 0, "pageCount": null, "pageSize": 10, "ids": null, "endTime": null, "startTime": null}, {"cardNumFive": null, "isSupportYj": null, "cityName": null, "districtName": null, "shopinfo": {"mid": "888002153311038", "good_flag": "2", "new_flag": "2", "short_name": "\u6c38\u8f89\u751f\u9c9c\u8d85\u5e02", "short_name_pinyin": "yonghuishengxianchaoshi", "status": null, "address": null, "name": null, "id": "418057321118171136"}, "mid": "888002153311038", "shopId": "418057321118171136", "netid": null, "province": 901, "district": 601, "zipcode": null, "telephone": null, "posDate": null, "destineTel": null, "togoTel": null, "trafficWay": null, "signBuilding": null, "businessArea": null, "selfRoom": null, "businessTime": null, "stall": null, "consume": null, "serviceFei": null, "favourable": null, "shopMemo": null, "appraise": null, "website": null, "memo": null, "payTypes": "\u6749\u5fb7\u5361,", "shopTypes": "\u8d85\u5e02", "consumeTypes": null, "cookTypes": null, "orderNum": null, "card4no": null, "card4noAcc": null, "district2": 409, "searchScope": null, "status": 1, "address": "\u6d66\u6c5f\u9547\u6d66\u9526\u8def309\u5f046\u53f7\u5730\u4e0b\u4e00\u5c4206-A", "name": "\u6d66\u9526\u8def\u5e97", "id": 418057319889240064, "pageNo": 0, "pageCount": null, "pageSize": 10, "ids": null, "endTime": null, "startTime": null}], "pageLimit": 10680, "size": 10}