{"pageCount": 1095, "count": 10942, "pageNo": 1060, "subShopInfo": {"cardNumFive": "", "isSupportYj": "", "cityName": null, "districtName": null, "shopinfo": {"mid": null, "good_flag": null, "new_flag": null, "short_name": null, "short_name_pinyin": null, "status": null, "address": "", "name": "", "id": null}, "mid": null, "shopId": null, "netid": null, "province": 901, "district": null, "zipcode": null, "telephone": null, "posDate": null, "destineTel": null, "togoTel": null, "trafficWay": null, "signBuilding": null, "businessArea": null, "selfRoom": null, "businessTime": null, "stall": null, "consume": null, "serviceFei": null, "favourable": null, "shopMemo": "1", "appraise": null, "website": null, "memo": null, "payTypes": "", "shopTypes": "", "consumeTypes": null, "cookTypes": null, "orderNum": null, "card4no": null, "card4noAcc": null, "district2": null, "searchScope": null, "status": null, "address": "", "name": null, "id": null, "pageNo": 1059, "pageCount": null, "pageSize": 10, "ids": null, "endTime": null, "startTime": null}, "list": [{"cardNumFive": null, "isSupportYj": null, "cityName": null, "districtName": null, "shopinfo": {"mid": "888888854110253", "good_flag": "1", "new_flag": "2", "short_name": "\u6613\u4e70\u5f97", "short_name_pinyin": "yimaide", "status": null, "address": null, "name": null, "id": "33948"}, "mid": "888888854110253", "shopId": "33948", "netid": null, "province": 901, "district": 601, "zipcode": null, "telephone": "61401234*1062", "posDate": "20090325", "destineTel": null, "togoTel": null, "trafficWay": null, "signBuilding": null, "businessArea": null, "selfRoom": null, "businessTime": null, "stall": null, "consume": null, "serviceFei": null, "favourable": null, "shopMemo": null, "appraise": null, "website": null, "memo": null, "payTypes": "\u6749\u5fb7\u5361  \u5361\u62bc\u91d1\u6d88\u8d39", "shopTypes": "\u8d85\u5e02", "consumeTypes": null, "cookTypes": null, "orderNum": 1000, "card4no": null, "card4noAcc": null, "district2": 416, "searchScope": null, "status": 1, "address": "\u7261\u4e39\u6c5f\u8def1258\u53f7", "name": "\u6613\u4e70\u5f97 \u7261\u4e39\u6c5f\u5e97", "id": 144424, "pageNo": 0, "pageCount": null, "pageSize": 10, "ids": null, "endTime": null, "startTime": null}, {"cardNumFive": null, "isSupportYj": null, "cityName": null, "districtName": null, "shopinfo": {"mid": "888888854110256", "good_flag": "1", "new_flag": "2", "short_name": "\u6613\u4e70\u5f97", "short_name_pinyin": "yimaide", "status": null, "address": null, "name": null, "id": "33949"}, "mid": "888888854110256", "shopId": "33949", "netid": null, "province": 901, "district": 601, "zipcode": null, "telephone": "61651234*1060", "posDate": "20090402", "destineTel": null, "togoTel": null, "trafficWay": null, "signBuilding": null, "businessArea": null, "selfRoom": null, "businessTime": null, "stall": null, "consume": null, "serviceFei": null, "favourable": null, "shopMemo": null, "appraise": null, "website": null, "memo": null, "payTypes": "\u6749\u5fb7\u5361  \u5361\u62bc\u91d1\u6d88\u8d39", "shopTypes": "\u8d85\u5e02", "consumeTypes": null, "cookTypes": null, "orderNum": 1000, "card4no": null, "card4noAcc": null, "district2": 413, "searchScope": null, "status": 1, "address": "\u73af\u57ce\u4e1c\u8def891\u53f7-90\u53f7", "name": "\u6613\u4e70\u5f97 \u5357\u6865\u5e97", "id": 144425, "pageNo": 0, "pageCount": null, "pageSize": 10, "ids": null, "endTime": null, "startTime": null}, {"cardNumFive": null, "isSupportYj": null, "cityName": null, "districtName": null, "shopinfo": {"mid": "888002142150009", "good_flag": null, "new_flag": null, "short_name": "\u58f9\u4ea9\u7530", "short_name_pinyin": "yimutian", "status": null, "address": null, "name": null, "id": "41345"}, "mid": "888002142150009", "shopId": "41345", "netid": null, "province": 901, "district": 601, "zipcode": null, "telephone": null, "posDate": null, "destineTel": null, "togoTel": null, "trafficWay": null, "signBuilding": null, "businessArea": null, "selfRoom": null, "businessTime": null, "stall": null, "consume": null, "serviceFei": null, "favourable": null, "shopMemo": null, "appraise": null, "website": null, "memo": null, "payTypes": "\u6749\u5fb7\u5361", "shopTypes": "\u7f51\u4e0a\u8d2d\u7269", "consumeTypes": null, "cookTypes": null, "orderNum": 1000, "card4no": null, "card4noAcc": null, "district2": 409, "searchScope": null, "status": 1, "address": "\u96c6\u5fc3\u8def168\u53f73\u53f7\u697c6\u697c", "name": "\u58f9\u4ea9\u7530 \u914d\u9001\u7ad9", "id": 181791, "pageNo": 0, "pageCount": null, "pageSize": 10, "ids": null, "endTime": null, "startTime": null}, {"cardNumFive": null, "isSupportYj": null, "cityName": null, "districtName": null, "shopinfo": {"mid": "888888859120168", "good_flag": "2", "new_flag": "1", "short_name": "\u9e70\u57fa", "short_name_pinyin": "yingji", "status": null, "address": null, "name": null, "id": "33985"}, "mid": "888888859120168", "shopId": "33985", "netid": null, "province": 901, "district": 601, "zipcode": null, "telephone": null, "posDate": "20100118", "destineTel": null, "togoTel": null, "trafficWay": null, "signBuilding": null, "businessArea": null, "selfRoom": null, "businessTime": "7:00~21:00", "stall": null, "consume": null, "serviceFei": null, "favourable": null, "shopMemo": null, "appraise": null, "website": null, "memo": null, "payTypes": "\u6749\u5fb7\u5361", "shopTypes": "\u4e13\u5356", "consumeTypes": null, "cookTypes": null, "orderNum": 1000, "card4no": null, "card4noAcc": null, "district2": 416, "searchScope": null, "status": 1, "address": "\u534e\u7075\u897f\u8def1051\u53f7", "name": "\u9e70\u57fa \u5927\u534e\u5e97", "id": 144497, "pageNo": 0, "pageCount": null, "pageSize": 10, "ids": null, "endTime": null, "startTime": null}, {"cardNumFive": null, "isSupportYj": null, "cityName": null, "districtName": null, "shopinfo": {"mid": "888888859120168", "good_flag": "2", "new_flag": "1", "short_name": "\u9e70\u57fa", "short_name_pinyin": "yingji", "status": null, "address": null, "name": null, "id": "33985"}, "mid": "888888859120168", "shopId": "33985", "netid": null, "province": 901, "district": 601, "zipcode": null, "telephone": "62406098", "posDate": "20090414", "destineTel": null, "togoTel": null, "trafficWay": null, "signBuilding": null, "businessArea": null, "selfRoom": null, "businessTime": "7:30~20:30", "stall": null, "consume": null, "serviceFei": null, "favourable": null, "shopMemo": null, "appraise": null, "website": null, "memo": null, "payTypes": "\u6749\u5fb7\u5361", "shopTypes": "\u4e13\u5356", "consumeTypes": null, "cookTypes": null, "orderNum": 1000, "card4no": null, "card4noAcc": null, "district2": 408, "searchScope": null, "status": 1, "address": "\u4e1c\u5b9d\u5174\u8def777\u53f7\u4e09\u697c\uff08\u4e16\u7eaa\u8054\u534e\uff09", "name": "\u9e70\u57fa \u4e1c\u5b9d\u5174\u8def\u5e97", "id": 144498, "pageNo": 0, "pageCount": null, "pageSize": 10, "ids": null, "endTime": null, "startTime": null}, {"cardNumFive": null, "isSupportYj": null, "cityName": null, "districtName": null, "shopinfo": {"mid": "888888859120168", "good_flag": "2", "new_flag": "1", "short_name": "\u9e70\u57fa", "short_name_pinyin": "yingji", "status": null, "address": null, "name": null, "id": "33985"}, "mid": "888888859120168", "shopId": "33985", "netid": null, "province": 901, "district": 601, "zipcode": null, "telephone": "62408067/62406098", "posDate": "20090414", "destineTel": null, "togoTel": null, "trafficWay": null, "signBuilding": null, "businessArea": null, "selfRoom": null, "businessTime": "9:00~21:00", "stall": null, "consume": null, "serviceFei": null, "favourable": null, "shopMemo": null, "appraise": null, "website": null, "memo": null, "payTypes": "\u6749\u5fb7\u5361", "shopTypes": "\u4e13\u5356", "consumeTypes": null, "cookTypes": null, "orderNum": 1000, "card4no": null, "card4noAcc": null, "district2": 416, "searchScope": null, "status": 1, "address": "\u5171\u6c5f\u8def1208\u53f7\u4e8c\u697c\uff08\u5bb6\u4e50\u798f\uff09", "name": "\u9e70\u57fa \u5171\u6c5f\u8def\u5e97", "id": 144499, "pageNo": 0, "pageCount": null, "pageSize": 10, "ids": null, "endTime": null, "startTime": null}, {"cardNumFive": null, "isSupportYj": null, "cityName": null, "districtName": null, "shopinfo": {"mid": "888888859120168", "good_flag": "2", "new_flag": "1", "short_name": "\u9e70\u57fa", "short_name_pinyin": "yingji", "status": null, "address": null, "name": null, "id": "33985"}, "mid": "888888859120168", "shopId": "33985", "netid": null, "province": 901, "district": 601, "zipcode": null, "telephone": "62408067", "posDate": "20090414", "destineTel": null, "togoTel": null, "trafficWay": null, "signBuilding": null, "businessArea": null, "selfRoom": null, "businessTime": "9:00~18:00", "stall": null, "consume": null, "serviceFei": null, "favourable": null, "shopMemo": null, "appraise": null, "website": null, "memo": null, "payTypes": "\u6749\u5fb7\u5361", "shopTypes": "\u4e13\u5356", "consumeTypes": null, "cookTypes": null, "orderNum": 1000, "card4no": null, "card4noAcc": null, "district2": 403, "searchScope": null, "status": 1, "address": "\u6842\u6797\u8def402\u53f7\u4e00\u697c\uff08\u597d\u53c8\u591a\uff09", "name": "\u9e70\u57fa \u6842\u6797\u8def\u5e97", "id": 144500, "pageNo": 0, "pageCount": null, "pageSize": 10, "ids": null, "endTime": null, "startTime": null}, {"cardNumFive": null, "isSupportYj": null, "cityName": null, "districtName": null, "shopinfo": {"mid": "888888859120168", "good_flag": "2", "new_flag": "1", "short_name": "\u9e70\u57fa", "short_name_pinyin": "yingji", "status": null, "address": null, "name": null, "id": "33985"}, "mid": "888888859120168", "shopId": "33985", "netid": null, "province": 901, "district": 601, "zipcode": null, "telephone": "62408067", "posDate": "20090414", "destineTel": null, "togoTel": null, "trafficWay": null, "signBuilding": null, "businessArea": null, "selfRoom": null, "businessTime": "8:00~21:00", "stall": null, "consume": null, "serviceFei": null, "favourable": null, "shopMemo": null, "appraise": null, "website": null, "memo": null, "payTypes": "\u6749\u5fb7\u5361", "shopTypes": "\u4e13\u5356", "consumeTypes": null, "cookTypes": null, "orderNum": 1000, "card4no": null, "card4noAcc": null, "district2": 407, "searchScope": null, "status": 1, "address": "\u9ec4\u5174\u8def1618\u53f7\u4e00\u697c\uff08\u5927\u6da6\u53d1\uff09", "name": "\u9e70\u57fa \u9ec4\u5174\u8def\u5e97", "id": 144501, "pageNo": 0, "pageCount": null, "pageSize": 10, "ids": null, "endTime": null, "startTime": null}, {"cardNumFive": null, "isSupportYj": null, "cityName": null, "districtName": null, "shopinfo": {"mid": "888888859120168", "good_flag": "2", "new_flag": "1", "short_name": "\u9e70\u57fa", "short_name_pinyin": "yingji", "status": null, "address": null, "name": null, "id": "33985"}, "mid": "888888859120168", "shopId": "33985", "netid": null, "province": 901, "district": 601, "zipcode": null, "telephone": null, "posDate": "20100118", "destineTel": null, "togoTel": null, "trafficWay": null, "signBuilding": null, "businessArea": null, "selfRoom": null, "businessTime": null, "stall": null, "consume": null, "serviceFei": null, "favourable": null, "shopMemo": null, "appraise": null, "website": null, "memo": null, "payTypes": "\u6749\u5fb7\u5361", "shopTypes": "\u4e13\u5356", "consumeTypes": null, "cookTypes": null, "orderNum": 1000, "card4no": null, "card4noAcc": null, "district2": 418, "searchScope": null, "status": 1, "address": "\u5eb7\u6865\u79c0\u6cbf\u8def1163\u53f7", "name": "\u9e70\u57fa \u5eb7\u6865\u5e97", "id": 144502, "pageNo": 0, "pageCount": null, "pageSize": 10, "ids": null, "endTime": null, "startTime": null}, {"cardNumFive": null, "isSupportYj": null, "cityName": null, "districtName": null, "shopinfo": {"mid": "888888859120168", "good_flag": "2", "new_flag": "1", "short_name": "\u9e70\u57fa", "short_name_pinyin": "yingji", "status": null, "address": null, "name": null, "id": "33985"}, "mid": "888888859120168", "shopId": "33985", "netid": null, "province": 901, "district": 601, "zipcode": null, "telephone": "62408067", "posDate": "20090414", "destineTel": null, "togoTel": null, "trafficWay": null, "signBuilding": null, "businessArea": null, "selfRoom": null, "businessTime": "9:00~21:00", "stall": null, "consume": null, "serviceFei": null, "favourable": null, "shopMemo": null, "appraise": null, "website": null, "memo": null, "payTypes": "\u6749\u5fb7\u5361", "shopTypes": "\u4e13\u5356", "consumeTypes": null, "cookTypes": null, "orderNum": 1000, "card4no": null, "card4noAcc": null, "district2": 403, "searchScope": null, "status": 1, "address": "\u8001\u6caa\u95f5\u8def809\u53f73\u697c", "name": "\u9e70\u57fa \u8001\u6caa\u95f5\u8def\u5e97", "id": 144503, "pageNo": 0, "pageCount": null, "pageSize": 10, "ids": null, "endTime": null, "startTime": null}], "pageLimit": 10590, "size": 10}