{"pageCount": 1095, "count": 10942, "pageNo": 1065, "subShopInfo": {"cardNumFive": "", "isSupportYj": "", "cityName": null, "districtName": null, "shopinfo": {"mid": null, "good_flag": null, "new_flag": null, "short_name": null, "short_name_pinyin": null, "status": null, "address": "", "name": "", "id": null}, "mid": null, "shopId": null, "netid": null, "province": 901, "district": null, "zipcode": null, "telephone": null, "posDate": null, "destineTel": null, "togoTel": null, "trafficWay": null, "signBuilding": null, "businessArea": null, "selfRoom": null, "businessTime": null, "stall": null, "consume": null, "serviceFei": null, "favourable": null, "shopMemo": "1", "appraise": null, "website": null, "memo": null, "payTypes": "", "shopTypes": "", "consumeTypes": null, "cookTypes": null, "orderNum": null, "card4no": null, "card4noAcc": null, "district2": null, "searchScope": null, "status": null, "address": "", "name": null, "id": null, "pageNo": 1064, "pageCount": null, "pageSize": 10, "ids": null, "endTime": null, "startTime": null}, "list": [{"cardNumFive": null, "isSupportYj": null, "cityName": null, "districtName": null, "shopinfo": {"mid": "888888858120478", "good_flag": "2", "new_flag": "2", "short_name": "\u96cd\u4e30\u9152\u5bb6", "short_name_pinyin": "yongfengjiujia", "status": null, "address": null, "name": null, "id": "33989"}, "mid": "888888858120478", "shopId": "33989", "netid": null, "province": 901, "district": 601, "zipcode": null, "telephone": "66303777", "posDate": "20080908", "destineTel": null, "togoTel": null, "trafficWay": "\u516c\u4ea446 916 \u5730\u94c1\u4e00\u53f7\u7ebf", "signBuilding": null, "businessArea": "3000", "selfRoom": null, "businessTime": "10:00~21:00", "stall": null, "consume": null, "serviceFei": null, "favourable": null, "shopMemo": null, "appraise": null, "website": null, "memo": null, "payTypes": "\u6749\u5fb7\u5361", "shopTypes": "\u9910\u996e", "consumeTypes": null, "cookTypes": null, "orderNum": 1000, "card4no": null, "card4noAcc": null, "district2": 410, "searchScope": null, "status": 1, "address": "\u5171\u548c\u65b0\u8def2008\u53f76\u697c", "name": "\u96cd\u4e30\u9152\u5bb6 \u5171\u548c\u65b0\u8def\u5e97", "id": 144516, "pageNo": 0, "pageCount": null, "pageSize": 10, "ids": null, "endTime": null, "startTime": null}, {"cardNumFive": null, "isSupportYj": null, "cityName": null, "districtName": null, "shopinfo": {"mid": "888888858120469", "good_flag": "2", "new_flag": "2", "short_name": "\u6c38\u548c\u5927\u738b", "short_name_pinyin": "yonghedawang", "status": null, "address": null, "name": null, "id": "33991"}, "mid": "888888858120469", "shopId": "33991", "netid": null, "province": 901, "district": 601, "zipcode": null, "telephone": "64042069", "posDate": "20100525", "destineTel": null, "togoTel": null, "trafficWay": null, "signBuilding": null, "businessArea": null, "selfRoom": null, "businessTime": null, "stall": null, "consume": null, "serviceFei": null, "favourable": null, "shopMemo": null, "appraise": null, "website": null, "memo": null, "payTypes": ",\u6749\u5fb7\u5361", "shopTypes": "\u9910\u996e", "consumeTypes": null, "cookTypes": null, "orderNum": 1000, "card4no": null, "card4noAcc": null, "district2": 403, "searchScope": null, "status": 1, "address": "\u4e1c\u5b89\u8def263-1\u53f7", "name": "\u6c38\u548c\u5927\u738b \u4e1c\u5b89\u8def\u5e97", "id": 144522, "pageNo": 0, "pageCount": null, "pageSize": 10, "ids": null, "endTime": null, "startTime": null}, {"cardNumFive": null, "isSupportYj": null, "cityName": null, "districtName": null, "shopinfo": {"mid": "888888858120469", "good_flag": "2", "new_flag": "2", "short_name": "\u6c38\u548c\u5927\u738b", "short_name_pinyin": "yonghedawang", "status": null, "address": null, "name": null, "id": "33991"}, "mid": "888888858120469", "shopId": "33991", "netid": null, "province": 901, "district": 601, "zipcode": null, "telephone": "37190881", "posDate": null, "destineTel": null, "togoTel": null, "trafficWay": "\u897f\u4e94\u7ebf\u3001\u5357\u68655\u8def", "signBuilding": null, "businessArea": null, "selfRoom": null, "businessTime": null, "stall": null, "consume": null, "serviceFei": null, "favourable": null, "shopMemo": null, "appraise": null, "website": null, "memo": null, "payTypes": "\u6749\u5fb7\u5361", "shopTypes": "\u9910\u996e", "consumeTypes": null, "cookTypes": null, "orderNum": 1000, "card4no": null, "card4noAcc": null, "district2": 413, "searchScope": null, "status": 1, "address": "\u767e\u9f50\u8def588\u53f7\u4e1c\u65b9\u5546\u53a6\u5e95\u697c", "name": "\u6c38\u548c\u5927\u738b \u5949\u8d24\u5e97", "id": 144524, "pageNo": 0, "pageCount": null, "pageSize": 10, "ids": null, "endTime": null, "startTime": null}, {"cardNumFive": null, "isSupportYj": null, "cityName": null, "districtName": null, "shopinfo": {"mid": "888888858120469", "good_flag": "2", "new_flag": "2", "short_name": "\u6c38\u548c\u5927\u738b", "short_name_pinyin": "yonghedawang", "status": null, "address": null, "name": null, "id": "33991"}, "mid": "888888858120469", "shopId": "33991", "netid": null, "province": 901, "district": 601, "zipcode": null, "telephone": "64073508", "posDate": null, "destineTel": null, "togoTel": null, "trafficWay": null, "signBuilding": null, "businessArea": null, "selfRoom": null, "businessTime": null, "stall": null, "consume": null, "serviceFei": null, "favourable": null, "shopMemo": null, "appraise": null, "website": null, "memo": null, "payTypes": ",\u6749\u5fb7\u5361", "shopTypes": "\u9910\u996e", "consumeTypes": null, "cookTypes": null, "orderNum": 1000, "card4no": null, "card4noAcc": null, "district2": 403, "searchScope": null, "status": 1, "address": "\u5e7f\u5143\u897f\u8def98\u53f7", "name": "\u6c38\u548c\u5927\u738b \u5e7f\u5143\u897f\u8def\u5e97", "id": 144527, "pageNo": 0, "pageCount": null, "pageSize": 10, "ids": null, "endTime": null, "startTime": null}, {"cardNumFive": null, "isSupportYj": null, "cityName": null, "districtName": null, "shopinfo": {"mid": "888888858120469", "good_flag": "2", "new_flag": "2", "short_name": "\u6c38\u548c\u5927\u738b", "short_name_pinyin": "yonghedawang", "status": null, "address": null, "name": null, "id": "33991"}, "mid": "888888858120469", "shopId": "33991", "netid": null, "province": 901, "district": 601, "zipcode": null, "telephone": "62432634", "posDate": null, "destineTel": null, "togoTel": null, "trafficWay": "63\u300194\u3001948", "signBuilding": null, "businessArea": null, "selfRoom": null, "businessTime": null, "stall": null, "consume": null, "serviceFei": null, "favourable": null, "shopMemo": null, "appraise": null, "website": null, "memo": null, "payTypes": "\u6749\u5fb7\u5361", "shopTypes": "\u9910\u996e", "consumeTypes": null, "cookTypes": null, "orderNum": 1000, "card4no": null, "card4noAcc": null, "district2": 407, "searchScope": null, "status": 1, "address": "\u5170\u6eaa\u8def141\u53f7", "name": "\u6c38\u548c\u5927\u738b \u5170\u6eaa\u8def\u5e97", "id": 144532, "pageNo": 0, "pageCount": null, "pageSize": 10, "ids": null, "endTime": null, "startTime": null}, {"cardNumFive": null, "isSupportYj": null, "cityName": null, "districtName": null, "shopinfo": {"mid": "888888858120469", "good_flag": "2", "new_flag": "2", "short_name": "\u6c38\u548c\u5927\u738b", "short_name_pinyin": "yonghedawang", "status": null, "address": null, "name": null, "id": "33991"}, "mid": "888888858120469", "shopId": "33991", "netid": null, "province": 901, "district": 601, "zipcode": null, "telephone": "63460009/13764541661", "posDate": null, "destineTel": null, "togoTel": null, "trafficWay": null, "signBuilding": null, "businessArea": null, "selfRoom": null, "businessTime": null, "stall": null, "consume": null, "serviceFei": null, "favourable": null, "shopMemo": null, "appraise": null, "website": null, "memo": null, "payTypes": ",\u6749\u5fb7\u5361", "shopTypes": "\u9910\u996e", "consumeTypes": null, "cookTypes": null, "orderNum": 1000, "card4no": null, "card4noAcc": null, "district2": 401, "searchScope": null, "status": 1, "address": "\u9646\u5bb6\u6d5c\u8def1329\u53f7\u8fd1\u65b9\u659c\u8def\u7ea2\u623f\u5b50\u533b\u9662", "name": "\u6c38\u548c\u5927\u738b \u9646\u5bb6\u6d5c\u8def\u5e97", "id": 144534, "pageNo": 0, "pageCount": null, "pageSize": 10, "ids": null, "endTime": null, "startTime": null}, {"cardNumFive": null, "isSupportYj": null, "cityName": null, "districtName": null, "shopinfo": {"mid": "888888858120469", "good_flag": "2", "new_flag": "2", "short_name": "\u6c38\u548c\u5927\u738b", "short_name_pinyin": "yonghedawang", "status": null, "address": null, "name": null, "id": "33991"}, "mid": "888888858120469", "shopId": "33991", "netid": null, "province": 901, "district": 601, "zipcode": null, "telephone": "58370825", "posDate": null, "destineTel": null, "togoTel": null, "trafficWay": null, "signBuilding": null, "businessArea": null, "selfRoom": null, "businessTime": null, "stall": null, "consume": null, "serviceFei": null, "favourable": null, "shopMemo": null, "appraise": null, "website": null, "memo": null, "payTypes": ",\u6749\u5fb7\u5361", "shopTypes": "\u9910\u996e", "consumeTypes": null, "cookTypes": null, "orderNum": 1000, "card4no": null, "card4noAcc": null, "district2": 418, "searchScope": null, "status": 1, "address": "\u5999\u5883\u8def1118\u53f7\u5bb6\u4e50\u798f\u4e00\u697c", "name": "\u6c38\u548c\u5927\u738b \u5999\u5883\u5e97", "id": 144535, "pageNo": 0, "pageCount": null, "pageSize": 10, "ids": null, "endTime": null, "startTime": null}, {"cardNumFive": null, "isSupportYj": null, "cityName": null, "districtName": null, "shopinfo": {"mid": "888888858120469", "good_flag": "2", "new_flag": "2", "short_name": "\u6c38\u548c\u5927\u738b", "short_name_pinyin": "yonghedawang", "status": null, "address": null, "name": null, "id": "33991"}, "mid": "888888858120469", "shopId": "33991", "netid": null, "province": 901, "district": 601, "zipcode": null, "telephone": null, "posDate": "20100713", "destineTel": null, "togoTel": null, "trafficWay": null, "signBuilding": null, "businessArea": null, "selfRoom": null, "businessTime": null, "stall": null, "consume": null, "serviceFei": null, "favourable": null, "shopMemo": null, "appraise": null, "website": null, "memo": null, "payTypes": "\u6749\u5fb7\u5361", "shopTypes": "\u9910\u996e", "consumeTypes": null, "cookTypes": null, "orderNum": 1000, "card4no": null, "card4noAcc": null, "district2": 409, "searchScope": null, "status": 1, "address": "\u6caa\u95f5\u8def7388\u53f7\u83b2\u82b1\u8def\u5730\u94c1\u7ad9\uff08\u5357\u65b9\u5546\u57ce\u91cc\u9762\uff09", "name": "\u6c38\u548c\u5927\u738b \u5357\u65b9\u5e97", "id": 144537, "pageNo": 0, "pageCount": null, "pageSize": 10, "ids": null, "endTime": null, "startTime": null}, {"cardNumFive": null, "isSupportYj": null, "cityName": null, "districtName": null, "shopinfo": {"mid": "888888858120469", "good_flag": "2", "new_flag": "2", "short_name": "\u6c38\u548c\u5927\u738b", "short_name_pinyin": "yonghedawang", "status": null, "address": null, "name": null, "id": "33991"}, "mid": "888888858120469", "shopId": "33991", "netid": null, "province": 901, "district": 601, "zipcode": null, "telephone": "51507796", "posDate": null, "destineTel": null, "togoTel": null, "trafficWay": "141\u3001876", "signBuilding": null, "businessArea": null, "selfRoom": null, "businessTime": null, "stall": null, "consume": null, "serviceFei": null, "favourable": null, "shopMemo": null, "appraise": null, "website": null, "memo": null, "payTypes": ",\u6749\u5fb7\u5361", "shopTypes": "\u9910\u996e", "consumeTypes": null, "cookTypes": null, "orderNum": 1000, "card4no": null, "card4noAcc": null, "district2": 406, "searchScope": null, "status": 1, "address": "\u5929\u5c71\u897f\u8def541\u53f7\uff0c\u8fd1\u6dde\u8679\u8def\uff0c\u535c\u8702\u83b2\u82b1\u8d85\u5e021F\u6b63\u5927\u751f\u6d3b\u9986\u5185", "name": "\u6c38\u548c\u5927\u738b \u5929\u5c71\u897f\u8def\u5e97", "id": 144540, "pageNo": 0, "pageCount": null, "pageSize": 10, "ids": null, "endTime": null, "startTime": null}, {"cardNumFive": null, "isSupportYj": null, "cityName": null, "districtName": null, "shopinfo": {"mid": "888888858120469", "good_flag": "2", "new_flag": "2", "short_name": "\u6c38\u548c\u5927\u738b", "short_name_pinyin": "yonghedawang", "status": null, "address": null, "name": null, "id": "33991"}, "mid": "888888858120469", "shopId": "33991", "netid": null, "province": 901, "district": 601, "zipcode": null, "telephone": "56359127", "posDate": null, "destineTel": null, "togoTel": null, "trafficWay": null, "signBuilding": null, "businessArea": null, "selfRoom": null, "businessTime": null, "stall": null, "consume": null, "serviceFei": null, "favourable": null, "shopMemo": null, "appraise": null, "website": null, "memo": null, "payTypes": ",\u6749\u5fb7\u5361", "shopTypes": "\u9910\u996e", "consumeTypes": null, "cookTypes": null, "orderNum": 1000, "card4no": null, "card4noAcc": null, "district2": 405, "searchScope": null, "status": 1, "address": "\u65b0\u6751\u8def1500\u53f7", "name": "\u6c38\u548c\u5927\u738b \u4e07\u91cc\u5e97", "id": 144542, "pageNo": 0, "pageCount": null, "pageSize": 10, "ids": null, "endTime": null, "startTime": null}], "pageLimit": 10640, "size": 10}