{"pageCount": 1095, "count": 10942, "pageNo": 1062, "subShopInfo": {"cardNumFive": "", "isSupportYj": "", "cityName": null, "districtName": null, "shopinfo": {"mid": null, "good_flag": null, "new_flag": null, "short_name": null, "short_name_pinyin": null, "status": null, "address": "", "name": "", "id": null}, "mid": null, "shopId": null, "netid": null, "province": 901, "district": null, "zipcode": null, "telephone": null, "posDate": null, "destineTel": null, "togoTel": null, "trafficWay": null, "signBuilding": null, "businessArea": null, "selfRoom": null, "businessTime": null, "stall": null, "consume": null, "serviceFei": null, "favourable": null, "shopMemo": "1", "appraise": null, "website": null, "memo": null, "payTypes": "", "shopTypes": "", "consumeTypes": null, "cookTypes": null, "orderNum": null, "card4no": null, "card4noAcc": null, "district2": null, "searchScope": null, "status": null, "address": "", "name": null, "id": null, "pageNo": 1061, "pageCount": null, "pageSize": 10, "ids": null, "endTime": null, "startTime": null}, "list": [{"cardNumFive": null, "isSupportYj": null, "cityName": null, "districtName": null, "shopinfo": {"mid": "888888856910264", "good_flag": null, "new_flag": null, "short_name": "\u4f0a\u4e1d\u827e\u62c9", "short_name_pinyin": "yisiaila", "status": null, "address": null, "name": null, "id": "33916"}, "mid": "888888856910264", "shopId": "33916", "netid": null, "province": 901, "district": 601, "zipcode": null, "telephone": "36030780", "posDate": "20090514", "destineTel": null, "togoTel": null, "trafficWay": null, "signBuilding": null, "businessArea": "100", "selfRoom": null, "businessTime": "10:00~22:00", "stall": null, "consume": null, "serviceFei": null, "favourable": null, "shopMemo": null, "appraise": null, "website": null, "memo": null, "payTypes": "\u6749\u5fb7\u5361", "shopTypes": "\u670d\u9970\u5bb6\u7eba", "consumeTypes": null, "cookTypes": null, "orderNum": 1000, "card4no": null, "card4noAcc": null, "district2": 416, "searchScope": null, "status": 1, "address": "\u5171\u6c5f\u8def1288\u53f7", "name": "\u4f0a\u4e1d\u827e\u62c9 \u5bb6\u4e50\u798f\u5171\u6c5f\u5e97", "id": 144313, "pageNo": 0, "pageCount": null, "pageSize": 10, "ids": null, "endTime": null, "startTime": null}, {"cardNumFive": null, "isSupportYj": null, "cityName": null, "districtName": null, "shopinfo": {"mid": "888888856910264", "good_flag": null, "new_flag": null, "short_name": "\u4f0a\u4e1d\u827e\u62c9", "short_name_pinyin": "yisiaila", "status": null, "address": null, "name": null, "id": "33916"}, "mid": "888888856910264", "shopId": "33916", "netid": null, "province": 901, "district": 601, "zipcode": null, "telephone": "36030780", "posDate": "20090514", "destineTel": null, "togoTel": null, "trafficWay": null, "signBuilding": null, "businessArea": "100", "selfRoom": null, "businessTime": "10:00~22:00", "stall": null, "consume": null, "serviceFei": null, "favourable": null, "shopMemo": null, "appraise": null, "website": null, "memo": null, "payTypes": "\u6749\u5fb7\u5361", "shopTypes": "\u670d\u9970\u5bb6\u7eba", "consumeTypes": null, "cookTypes": null, "orderNum": 1000, "card4no": null, "card4noAcc": null, "district2": 416, "searchScope": null, "status": 1, "address": "\u4e30\u7fd4\u8def383\u53f7", "name": "\u4f0a\u4e1d\u827e\u62c9 \u5357\u7fd4\u5bb6\u4e50\u798f\u5e97", "id": 144317, "pageNo": 0, "pageCount": null, "pageSize": 10, "ids": null, "endTime": null, "startTime": null}, {"cardNumFive": null, "isSupportYj": null, "cityName": null, "districtName": null, "shopinfo": {"mid": "888888856910264", "good_flag": null, "new_flag": null, "short_name": "\u4f0a\u4e1d\u827e\u62c9", "short_name_pinyin": "yisiaila", "status": null, "address": null, "name": null, "id": "33916"}, "mid": "888888856910264", "shopId": "33916", "netid": null, "province": 901, "district": 601, "zipcode": null, "telephone": "36030780", "posDate": "20090514", "destineTel": null, "togoTel": null, "trafficWay": null, "signBuilding": null, "businessArea": "100", "selfRoom": null, "businessTime": "10:00~22:00", "stall": null, "consume": null, "serviceFei": null, "favourable": null, "shopMemo": null, "appraise": null, "website": null, "memo": null, "payTypes": "\u6749\u5fb7\u5361", "shopTypes": "\u670d\u9970\u5bb6\u7eba", "consumeTypes": null, "cookTypes": null, "orderNum": 1000, "card4no": null, "card4noAcc": null, "district2": 418, "searchScope": null, "status": 1, "address": "\u6816\u971e\u8def43\u53f7", "name": "\u4f0a\u4e1d\u827e\u62c9 \u6816\u971e\u8def\u4e13\u5356\u5e97", "id": 144318, "pageNo": 0, "pageCount": null, "pageSize": 10, "ids": null, "endTime": null, "startTime": null}, {"cardNumFive": null, "isSupportYj": null, "cityName": null, "districtName": null, "shopinfo": {"mid": "888888856910264", "good_flag": null, "new_flag": null, "short_name": "\u4f0a\u4e1d\u827e\u62c9", "short_name_pinyin": "yisiaila", "status": null, "address": null, "name": null, "id": "33916"}, "mid": "888888856910264", "shopId": "33916", "netid": null, "province": 901, "district": 601, "zipcode": null, "telephone": "36030780", "posDate": "20090514", "destineTel": null, "togoTel": null, "trafficWay": null, "signBuilding": null, "businessArea": "100", "selfRoom": null, "businessTime": "10:00~22:00", "stall": null, "consume": null, "serviceFei": null, "favourable": null, "shopMemo": null, "appraise": null, "website": null, "memo": null, "payTypes": "\u6749\u5fb7\u5361", "shopTypes": "\u670d\u9970\u5bb6\u7eba", "consumeTypes": null, "cookTypes": null, "orderNum": 1000, "card4no": null, "card4noAcc": null, "district2": 406, "searchScope": null, "status": 1, "address": "\u9075\u4e49\u8def100\u53f7", "name": "\u4f0a\u4e1d\u827e\u62c9 \u4e0a\u6d77\u57ce\u5e97", "id": 144319, "pageNo": 0, "pageCount": null, "pageSize": 10, "ids": null, "endTime": null, "startTime": null}, {"cardNumFive": null, "isSupportYj": null, "cityName": null, "districtName": null, "shopinfo": {"mid": "888888856910264", "good_flag": null, "new_flag": null, "short_name": "\u4f0a\u4e1d\u827e\u62c9", "short_name_pinyin": "yisiaila", "status": null, "address": null, "name": null, "id": "33916"}, "mid": "888888856910264", "shopId": "33916", "netid": null, "province": 901, "district": 601, "zipcode": null, "telephone": null, "posDate": "20090312", "destineTel": null, "togoTel": null, "trafficWay": null, "signBuilding": null, "businessArea": null, "selfRoom": null, "businessTime": null, "stall": null, "consume": null, "serviceFei": null, "favourable": null, "shopMemo": null, "appraise": null, "website": null, "memo": null, "payTypes": "\u6749\u5fb7\u5361", "shopTypes": "\u670d\u9970\u5bb6\u7eba", "consumeTypes": null, "cookTypes": null, "orderNum": 1000, "card4no": null, "card4noAcc": null, "district2": 410, "searchScope": null, "status": 1, "address": "\u65b0\u95f8\u8def1220-11\u53f7", "name": "\u4f0a\u4e1d\u827e\u62c9 \u65b0\u95f8\u8def\u5e97", "id": 144327, "pageNo": 0, "pageCount": null, "pageSize": 10, "ids": null, "endTime": null, "startTime": null}, {"cardNumFive": null, "isSupportYj": null, "cityName": null, "districtName": null, "shopinfo": {"mid": "888888856910264", "good_flag": null, "new_flag": null, "short_name": "\u4f0a\u4e1d\u827e\u62c9", "short_name_pinyin": "yisiaila", "status": null, "address": null, "name": null, "id": "36228"}, "mid": "888888856910264", "shopId": "36228", "netid": null, "province": 901, "district": 601, "zipcode": null, "telephone": null, "posDate": "20100817", "destineTel": null, "togoTel": null, "trafficWay": null, "signBuilding": null, "businessArea": null, "selfRoom": null, "businessTime": null, "stall": null, "consume": null, "serviceFei": null, "favourable": null, "shopMemo": null, "appraise": null, "website": null, "memo": null, "payTypes": "\u6749\u5fb7\u5361", "shopTypes": "\u96f6\u552e", "consumeTypes": null, "cookTypes": null, "orderNum": 1000, "card4no": null, "card4noAcc": null, "district2": 418, "searchScope": null, "status": 1, "address": "\u5999\u5883\u8def1118\u53f7\u5bb6\u4e50\u798f1\u697c", "name": "\u4f0a\u4e1d\u827e\u62c9 \u5bb6\u4e50\u798f\u5ddd\u6c99\u5e97", "id": 150964, "pageNo": 0, "pageCount": null, "pageSize": 10, "ids": null, "endTime": null, "startTime": null}, {"cardNumFive": null, "isSupportYj": null, "cityName": null, "districtName": null, "shopinfo": {"mid": "888888856910264", "good_flag": null, "new_flag": null, "short_name": "\u4f0a\u4e1d\u827e\u62c9", "short_name_pinyin": "yisiaila", "status": null, "address": null, "name": null, "id": "36228"}, "mid": "888888856910264", "shopId": "36228", "netid": null, "province": 901, "district": 601, "zipcode": null, "telephone": null, "posDate": "20100817", "destineTel": null, "togoTel": null, "trafficWay": null, "signBuilding": null, "businessArea": null, "selfRoom": null, "businessTime": null, "stall": null, "consume": null, "serviceFei": null, "favourable": null, "shopMemo": null, "appraise": null, "website": null, "memo": null, "payTypes": "\u6749\u5fb7\u5361", "shopTypes": "\u96f6\u552e", "consumeTypes": null, "cookTypes": null, "orderNum": 1000, "card4no": null, "card4noAcc": null, "district2": 409, "searchScope": null, "status": 1, "address": "\u95f5\u884c\u533a\u6caa\u9752\u5e73\u516c\u8def1829\u53f7\u5bb6\u4e50\u798f2\u697c", "name": "\u4f0a\u4e1d\u827e\u62c9 \u5bb6\u4e50\u798f\u5f90\u6cfe\u5e97", "id": 150965, "pageNo": 0, "pageCount": null, "pageSize": 10, "ids": null, "endTime": null, "startTime": null}, {"cardNumFive": null, "isSupportYj": null, "cityName": null, "districtName": null, "shopinfo": {"mid": "888888856910264", "good_flag": null, "new_flag": null, "short_name": "\u4f0a\u4e1d\u827e\u62c9", "short_name_pinyin": "yisiaila", "status": null, "address": null, "name": null, "id": "36228"}, "mid": "888888856910264", "shopId": "36228", "netid": null, "province": 901, "district": 601, "zipcode": null, "telephone": null, "posDate": "20100817", "destineTel": null, "togoTel": null, "trafficWay": null, "signBuilding": null, "businessArea": null, "selfRoom": null, "businessTime": null, "stall": null, "consume": null, "serviceFei": null, "favourable": null, "shopMemo": null, "appraise": null, "website": null, "memo": null, "payTypes": "\u6749\u5fb7\u5361", "shopTypes": "\u96f6\u552e", "consumeTypes": null, "cookTypes": null, "orderNum": 1000, "card4no": null, "card4noAcc": null, "district2": 418, "searchScope": null, "status": 1, "address": "\u6d66\u4e1c\u65b0\u533a\u9ad8\u9752\u8def2671\u53f71\u697c", "name": "\u4f0a\u4e1d\u827e\u62c9 \u5bb6\u4e50\u798f\u65b0\u91cc\u7a0b\u5e97", "id": 150966, "pageNo": 0, "pageCount": null, "pageSize": 10, "ids": null, "endTime": null, "startTime": null}, {"cardNumFive": null, "isSupportYj": null, "cityName": null, "districtName": null, "shopinfo": {"mid": "888888856910264", "good_flag": null, "new_flag": null, "short_name": "\u4f0a\u4e1d\u827e\u62c9", "short_name_pinyin": "yisiaila", "status": null, "address": null, "name": null, "id": "36332"}, "mid": "888888856910264", "shopId": "36332", "netid": null, "province": 901, "district": 601, "zipcode": null, "telephone": null, "posDate": "20100818", "destineTel": null, "togoTel": null, "trafficWay": null, "signBuilding": null, "businessArea": null, "selfRoom": null, "businessTime": null, "stall": null, "consume": null, "serviceFei": null, "favourable": null, "shopMemo": null, "appraise": null, "website": null, "memo": null, "payTypes": "\u6749\u5fb7\u5361", "shopTypes": "\u670d\u9970\u5bb6\u7eba", "consumeTypes": null, "cookTypes": null, "orderNum": 1000, "card4no": null, "card4noAcc": null, "district2": 418, "searchScope": null, "status": 1, "address": "\u6d66\u4e1c\u65b0\u533a\u9ad8\u79d1\u8def2860\u53f7\u5bb6\u4e50\u798f1\u697c", "name": "\u4f0a\u4e1d\u827e\u62c9 \u5999\u5883\u5e97", "id": 151245, "pageNo": 0, "pageCount": null, "pageSize": 10, "ids": null, "endTime": null, "startTime": null}, {"cardNumFive": null, "isSupportYj": null, "cityName": null, "districtName": null, "shopinfo": {"mid": "888888858120463", "good_flag": "1", "new_flag": "2", "short_name": "\u4f0a\u85e4\u5bb6", "short_name_pinyin": "yitengjia", "status": null, "address": null, "name": null, "id": "33918"}, "mid": "888888858120463", "shopId": "33918", "netid": null, "province": 901, "district": 601, "zipcode": null, "telephone": "62194854", "posDate": "20080826", "destineTel": null, "togoTel": null, "trafficWay": "\u516c\u4ea4806 827 931", "signBuilding": null, "businessArea": null, "selfRoom": null, "businessTime": "11:00~23:00", "stall": "\u6709", "consume": null, "serviceFei": null, "favourable": null, "shopMemo": null, "appraise": null, "website": null, "memo": null, "payTypes": "\u6749\u5fb7\u5361", "shopTypes": "\u9910\u996e", "consumeTypes": null, "cookTypes": null, "orderNum": 1000, "card4no": null, "card4noAcc": null, "district2": 406, "searchScope": null, "status": 1, "address": "\u8363\u534e\u897f\u905319\u5f04\u91d1\u72ee\u8fd8\u539f6\u53f7101\u5ba4", "name": "\u4f0a\u85e4\u5bb6 \u53e4\u5317\u5e97", "id": 144331, "pageNo": 0, "pageCount": null, "pageSize": 10, "ids": null, "endTime": null, "startTime": null}], "pageLimit": 10610, "size": 10}