{"pageCount": 1095, "count": 10942, "pageNo": 1063, "subShopInfo": {"cardNumFive": "", "isSupportYj": "", "cityName": null, "districtName": null, "shopinfo": {"mid": null, "good_flag": null, "new_flag": null, "short_name": null, "short_name_pinyin": null, "status": null, "address": "", "name": "", "id": null}, "mid": null, "shopId": null, "netid": null, "province": 901, "district": null, "zipcode": null, "telephone": null, "posDate": null, "destineTel": null, "togoTel": null, "trafficWay": null, "signBuilding": null, "businessArea": null, "selfRoom": null, "businessTime": null, "stall": null, "consume": null, "serviceFei": null, "favourable": null, "shopMemo": "1", "appraise": null, "website": null, "memo": null, "payTypes": "", "shopTypes": "", "consumeTypes": null, "cookTypes": null, "orderNum": null, "card4no": null, "card4noAcc": null, "district2": null, "searchScope": null, "status": null, "address": "", "name": null, "id": null, "pageNo": 1062, "pageCount": null, "pageSize": 10, "ids": null, "endTime": null, "startTime": null}, "list": [{"cardNumFive": null, "isSupportYj": null, "cityName": null, "districtName": null, "shopinfo": {"mid": "888888858120465", "good_flag": "1", "new_flag": "2", "short_name": "\u4f0a\u85e4\u5bb6", "short_name_pinyin": "yitengjia", "status": null, "address": null, "name": null, "id": "33917"}, "mid": "888888858120465", "shopId": "33917", "netid": null, "province": 901, "district": 601, "zipcode": null, "telephone": "64810177", "posDate": "20080825", "destineTel": null, "togoTel": null, "trafficWay": "\u516c\u4ea4920 926 \u5730\u94c1\u4e00\u53f7\u7ebf", "signBuilding": null, "businessArea": null, "selfRoom": null, "businessTime": "11:00~23:00", "stall": "\u6709", "consume": null, "serviceFei": null, "favourable": null, "shopMemo": null, "appraise": null, "website": null, "memo": null, "payTypes": "\u6749\u5fb7\u5361", "shopTypes": "\u9910\u996e", "consumeTypes": null, "cookTypes": null, "orderNum": 1000, "card4no": null, "card4noAcc": null, "district2": 403, "searchScope": null, "status": 1, "address": "\u6f15\u6eaa\u5317\u8def439\u53f7\u5efa\u56fd\u5bbe\u99863\u697c", "name": "\u4f0a\u85e4\u5bb6 \u5efa\u56fd\u5e97", "id": 144334, "pageNo": 0, "pageCount": null, "pageSize": 10, "ids": null, "endTime": null, "startTime": null}, {"cardNumFive": null, "isSupportYj": null, "cityName": null, "districtName": null, "shopinfo": {"mid": "888002154119984", "good_flag": null, "new_flag": null, "short_name": "\u4e00\u4f0d\u4e00\u62fe", "short_name_pinyin": "yiwuyishi", "status": null, "address": null, "name": null, "id": "36472"}, "mid": "888002154119984", "shopId": "36472", "netid": null, "province": 901, "district": 601, "zipcode": null, "telephone": "22057281", "posDate": "20100919", "destineTel": null, "togoTel": null, "trafficWay": null, "signBuilding": null, "businessArea": null, "selfRoom": null, "businessTime": null, "stall": null, "consume": null, "serviceFei": null, "favourable": null, "shopMemo": null, "appraise": null, "website": null, "memo": null, "payTypes": "\u6749\u5fb7\u5361", "shopTypes": "\u96f6\u552e", "consumeTypes": null, "cookTypes": null, "orderNum": 1000, "card4no": null, "card4noAcc": null, "district2": 409, "searchScope": null, "status": 1, "address": "\u6caa\u95f5\u8def8075\u5730\u94c12F", "name": "\u4e00\u4f0d\u4e00\u62fe \u9526\u6c5f\u4e50\u56ed\u5e97", "id": 151684, "pageNo": 0, "pageCount": null, "pageSize": 10, "ids": null, "endTime": null, "startTime": null}, {"cardNumFive": null, "isSupportYj": null, "cityName": null, "districtName": null, "shopinfo": {"mid": "888002154119984", "good_flag": null, "new_flag": null, "short_name": "\u4e00\u4f0d\u4e00\u62fe", "short_name_pinyin": "yiwuyishi", "status": null, "address": null, "name": null, "id": "36472"}, "mid": "888002154119984", "shopId": "36472", "netid": null, "province": 901, "district": 601, "zipcode": null, "telephone": "62080608", "posDate": "20100920", "destineTel": null, "togoTel": null, "trafficWay": null, "signBuilding": null, "businessArea": null, "selfRoom": null, "businessTime": null, "stall": null, "consume": null, "serviceFei": null, "favourable": null, "shopMemo": null, "appraise": null, "website": null, "memo": null, "payTypes": "\u6749\u5fb7\u5361", "shopTypes": "\u96f6\u552e", "consumeTypes": null, "cookTypes": null, "orderNum": 1000, "card4no": null, "card4noAcc": null, "district2": 406, "searchScope": null, "status": 1, "address": "\u6c34\u57ce\u8def26\u53f7", "name": "\u4e00\u4f0d\u4e00\u62fe \u6c34\u57ce\u5e97", "id": 151689, "pageNo": 0, "pageCount": null, "pageSize": 10, "ids": null, "endTime": null, "startTime": null}, {"cardNumFive": null, "isSupportYj": null, "cityName": null, "districtName": null, "shopinfo": {"mid": "888002154119984", "good_flag": null, "new_flag": null, "short_name": "\u4e00\u4f0d\u4e00\u62fe", "short_name_pinyin": "yiwuyishi", "status": null, "address": null, "name": null, "id": "36472"}, "mid": "888002154119984", "shopId": "36472", "netid": null, "province": 901, "district": 601, "zipcode": null, "telephone": "63756049", "posDate": "20100919", "destineTel": null, "togoTel": null, "trafficWay": null, "signBuilding": null, "businessArea": null, "selfRoom": null, "businessTime": null, "stall": null, "consume": null, "serviceFei": null, "favourable": null, "shopMemo": null, "appraise": null, "website": null, "memo": null, "payTypes": "\u6749\u5fb7\u5361", "shopTypes": "\u96f6\u552e", "consumeTypes": null, "cookTypes": null, "orderNum": 1000, "card4no": null, "card4noAcc": null, "district2": 401, "searchScope": null, "status": 1, "address": "\u6dee\u6d77\u8def138\u53f7\u65e0\u9650\u5ea6\u5e7f\u573a3F", "name": "\u4e00\u4f0d\u4e00\u62fe \u65e0\u9650\u5ea6\u5e97", "id": 151690, "pageNo": 0, "pageCount": null, "pageSize": 10, "ids": null, "endTime": null, "startTime": null}, {"cardNumFive": null, "isSupportYj": null, "cityName": null, "districtName": null, "shopinfo": {"mid": "888002154119984", "good_flag": null, "new_flag": null, "short_name": "\u4e00\u4f0d\u4e00\u62fe", "short_name_pinyin": "yiwuyishi", "status": null, "address": null, "name": null, "id": "36472"}, "mid": "888002154119984", "shopId": "36472", "netid": null, "province": 901, "district": 601, "zipcode": null, "telephone": "22056005", "posDate": "20100919", "destineTel": null, "togoTel": null, "trafficWay": null, "signBuilding": null, "businessArea": null, "selfRoom": null, "businessTime": null, "stall": null, "consume": null, "serviceFei": null, "favourable": null, "shopMemo": null, "appraise": null, "website": null, "memo": null, "payTypes": "\u6749\u5fb7\u5361", "shopTypes": "\u96f6\u552e", "consumeTypes": null, "cookTypes": null, "orderNum": 1000, "card4no": null, "card4noAcc": null, "district2": 403, "searchScope": null, "status": 1, "address": "\u6caa\u95f5\u8def9001\u53f7\u5730\u94c1\u4e00\u53f7\u7ebf\u4e0a\u6d77\u5357\u7ad9\u7ad9\u5385\u5e95", "name": "\u4e00\u4f0d\u4e00\u62fe \u5357\u7ad9\u5e97", "id": 151695, "pageNo": 0, "pageCount": null, "pageSize": 10, "ids": null, "endTime": null, "startTime": null}, {"cardNumFive": null, "isSupportYj": null, "cityName": null, "districtName": null, "shopinfo": {"mid": "888002154119984", "good_flag": null, "new_flag": null, "short_name": "\u4e00\u4f0d\u4e00\u62fe", "short_name_pinyin": "yiwuyishi", "status": null, "address": null, "name": null, "id": "36472"}, "mid": "888002154119984", "shopId": "36472", "netid": null, "province": 901, "district": 601, "zipcode": null, "telephone": "32520315", "posDate": "20100920", "destineTel": null, "togoTel": null, "trafficWay": null, "signBuilding": null, "businessArea": null, "selfRoom": null, "businessTime": null, "stall": null, "consume": null, "serviceFei": null, "favourable": null, "shopMemo": null, "appraise": null, "website": null, "memo": null, "payTypes": "\u6749\u5fb7\u5361", "shopTypes": "\u96f6\u552e", "consumeTypes": null, "cookTypes": null, "orderNum": 1000, "card4no": null, "card4noAcc": null, "district2": 405, "searchScope": null, "status": 1, "address": "\u6b66\u5b81\u8def99-101\u53f7\u6211\u683c\u5e7f\u573aB1F", "name": "\u4e00\u4f0d\u4e00\u62fe \u6b66\u5b81\u5e97", "id": 151697, "pageNo": 0, "pageCount": null, "pageSize": 10, "ids": null, "endTime": null, "startTime": null}, {"cardNumFive": null, "isSupportYj": null, "cityName": null, "districtName": null, "shopinfo": {"mid": "888002154119984", "good_flag": null, "new_flag": null, "short_name": "\u4e00\u4f0d\u4e00\u62fe", "short_name_pinyin": "yiwuyishi", "status": null, "address": null, "name": null, "id": "36472"}, "mid": "888002154119984", "shopId": "36472", "netid": null, "province": 901, "district": 601, "zipcode": null, "telephone": "60941485", "posDate": "20100920", "destineTel": null, "togoTel": null, "trafficWay": null, "signBuilding": null, "businessArea": null, "selfRoom": null, "businessTime": null, "stall": null, "consume": null, "serviceFei": null, "favourable": null, "shopMemo": null, "appraise": null, "website": null, "memo": null, "payTypes": "\u6749\u5fb7\u5361", "shopTypes": "\u96f6\u552e", "consumeTypes": null, "cookTypes": null, "orderNum": 1000, "card4no": null, "card4noAcc": null, "district2": 401, "searchScope": null, "status": 1, "address": "\u65b0\u95f8\u8def213\u53f7\u5730\u94c11\u53f7\u7ebf5\u53f7\u51fa\u53e3", "name": "\u4e00\u4f0d\u4e00\u62fe \u65b0\u95f8\u5e97", "id": 151699, "pageNo": 0, "pageCount": null, "pageSize": 10, "ids": null, "endTime": null, "startTime": null}, {"cardNumFive": null, "isSupportYj": null, "cityName": null, "districtName": null, "shopinfo": {"mid": "888002154119984", "good_flag": null, "new_flag": null, "short_name": "\u4e00\u4f0d\u4e00\u62fe", "short_name_pinyin": "yiwuyishi", "status": null, "address": null, "name": null, "id": "36472"}, "mid": "888002154119984", "shopId": "36472", "netid": null, "province": 901, "district": 601, "zipcode": null, "telephone": "60941485", "posDate": "20100920", "destineTel": null, "togoTel": null, "trafficWay": null, "signBuilding": null, "businessArea": null, "selfRoom": null, "businessTime": null, "stall": null, "consume": null, "serviceFei": null, "favourable": null, "shopMemo": null, "appraise": null, "website": null, "memo": null, "payTypes": "\u6749\u5fb7\u5361", "shopTypes": "\u96f6\u552e", "consumeTypes": null, "cookTypes": null, "orderNum": 1000, "card4no": null, "card4noAcc": null, "district2": 405, "searchScope": null, "status": 1, "address": "\u771f\u5149\u8def1288\u53f7\u767e\u8054\u4e2d\u73af\u5e7f\u573aB1F", "name": "\u4e00\u4f0d\u4e00\u62fe \u4e2d\u73af\u5e97", "id": 151702, "pageNo": 0, "pageCount": null, "pageSize": 10, "ids": null, "endTime": null, "startTime": null}, {"cardNumFive": null, "isSupportYj": null, "cityName": null, "districtName": null, "shopinfo": {"mid": "888002154119984", "good_flag": null, "new_flag": null, "short_name": "\u4e00\u4f0d\u4e00\u62fe", "short_name_pinyin": "yiwuyishi", "status": null, "address": null, "name": null, "id": "36472"}, "mid": "888002154119984", "shopId": "36472", "netid": null, "province": 901, "district": 601, "zipcode": null, "telephone": "38230911", "posDate": "20100921", "destineTel": null, "togoTel": null, "trafficWay": null, "signBuilding": null, "businessArea": null, "selfRoom": null, "businessTime": null, "stall": null, "consume": null, "serviceFei": null, "favourable": null, "shopMemo": null, "appraise": null, "website": null, "memo": null, "payTypes": "\u6749\u5fb7\u5361", "shopTypes": "\u96f6\u552e", "consumeTypes": null, "cookTypes": null, "orderNum": 1000, "card4no": null, "card4noAcc": null, "district2": 418, "searchScope": null, "status": 1, "address": "\u6caa\u5357\u516c\u8def3459\u53f7\u4e07\u8fbe\u5e7f\u573a1F", "name": "\u4e00\u4f0d\u4e00\u62fe \u5468\u6d66\u5e97", "id": 151807, "pageNo": 0, "pageCount": null, "pageSize": 10, "ids": null, "endTime": null, "startTime": null}, {"cardNumFive": null, "isSupportYj": null, "cityName": null, "districtName": null, "shopinfo": {"mid": "888002154119984", "good_flag": null, "new_flag": null, "short_name": "\u4e00\u4f0d\u4e00\u62fe", "short_name_pinyin": "yiwuyishi", "status": null, "address": null, "name": null, "id": "36472"}, "mid": "888002154119984", "shopId": "36472", "netid": null, "province": 901, "district": 601, "zipcode": null, "telephone": "61053121", "posDate": "20100921", "destineTel": null, "togoTel": null, "trafficWay": null, "signBuilding": null, "businessArea": null, "selfRoom": null, "businessTime": null, "stall": null, "consume": null, "serviceFei": null, "favourable": null, "shopMemo": null, "appraise": null, "website": null, "memo": null, "payTypes": "\u6749\u5fb7\u5361", "shopTypes": "\u96f6\u552e", "consumeTypes": null, "cookTypes": null, "orderNum": 1000, "card4no": null, "card4noAcc": null, "district2": 418, "searchScope": null, "status": 1, "address": "\u4e1c\u65b9\u8def796\u53f796\u5e7f\u573a1F", "name": "\u4e00\u4f0d\u4e00\u62fe 96\u5e7f\u573a\u5e97", "id": 151809, "pageNo": 0, "pageCount": null, "pageSize": 10, "ids": null, "endTime": null, "startTime": null}], "pageLimit": 10620, "size": 10}