{"pageCount": 1095, "count": 10942, "pageNo": 1066, "subShopInfo": {"cardNumFive": "", "isSupportYj": "", "cityName": null, "districtName": null, "shopinfo": {"mid": null, "good_flag": null, "new_flag": null, "short_name": null, "short_name_pinyin": null, "status": null, "address": "", "name": "", "id": null}, "mid": null, "shopId": null, "netid": null, "province": 901, "district": null, "zipcode": null, "telephone": null, "posDate": null, "destineTel": null, "togoTel": null, "trafficWay": null, "signBuilding": null, "businessArea": null, "selfRoom": null, "businessTime": null, "stall": null, "consume": null, "serviceFei": null, "favourable": null, "shopMemo": "1", "appraise": null, "website": null, "memo": null, "payTypes": "", "shopTypes": "", "consumeTypes": null, "cookTypes": null, "orderNum": null, "card4no": null, "card4noAcc": null, "district2": null, "searchScope": null, "status": null, "address": "", "name": null, "id": null, "pageNo": 1065, "pageCount": null, "pageSize": 10, "ids": null, "endTime": null, "startTime": null}, "list": [{"cardNumFive": null, "isSupportYj": null, "cityName": null, "districtName": null, "shopinfo": {"mid": "888888858120469", "good_flag": "2", "new_flag": "2", "short_name": "\u6c38\u548c\u5927\u738b", "short_name_pinyin": "yonghedawang", "status": null, "address": null, "name": null, "id": "33991"}, "mid": "888888858120469", "shopId": "33991", "netid": null, "province": 901, "district": 601, "zipcode": null, "telephone": "59769291", "posDate": null, "destineTel": null, "togoTel": null, "trafficWay": "\u6caa\u9752\u4e13\u7ebf", "signBuilding": null, "businessArea": null, "selfRoom": null, "businessTime": null, "stall": null, "consume": null, "serviceFei": null, "favourable": null, "shopMemo": null, "appraise": null, "website": null, "memo": null, "payTypes": "\u6749\u5fb7\u5361", "shopTypes": "\u9910\u996e", "consumeTypes": null, "cookTypes": null, "orderNum": 1000, "card4no": null, "card4noAcc": null, "district2": 417, "searchScope": null, "status": 1, "address": "\u6caa\u9752\u5e73\u516c\u8def1829\u53f7", "name": "\u6c38\u548c\u5927\u738b \u5f90\u6cfe\u5e97", "id": 144549, "pageNo": 0, "pageCount": null, "pageSize": 10, "ids": null, "endTime": null, "startTime": null}, {"cardNumFive": null, "isSupportYj": null, "cityName": null, "districtName": null, "shopinfo": {"mid": "888888858120469", "good_flag": "2", "new_flag": "2", "short_name": "\u6c38\u548c\u5927\u738b", "short_name_pinyin": "yonghedawang", "status": null, "address": null, "name": null, "id": "33991"}, "mid": "888888858120469", "shopId": "33991", "netid": null, "province": 901, "district": 601, "zipcode": null, "telephone": "63132886", "posDate": null, "destineTel": null, "togoTel": null, "trafficWay": null, "signBuilding": null, "businessArea": null, "selfRoom": null, "businessTime": null, "stall": null, "consume": null, "serviceFei": null, "favourable": null, "shopMemo": null, "appraise": null, "website": null, "memo": null, "payTypes": ",\u6749\u5fb7\u5361", "shopTypes": "\u9910\u996e", "consumeTypes": null, "cookTypes": null, "orderNum": 1000, "card4no": null, "card4noAcc": null, "district2": 401, "searchScope": null, "status": 1, "address": "\u5236\u9020\u5c40\u8def516\u53f7", "name": "\u6c38\u548c\u5927\u738b \u5236\u9020\u5c40\u8def\u5e97", "id": 144551, "pageNo": 0, "pageCount": null, "pageSize": 10, "ids": null, "endTime": null, "startTime": null}, {"cardNumFive": null, "isSupportYj": null, "cityName": null, "districtName": null, "shopinfo": {"mid": "888888858120469", "good_flag": "2", "new_flag": "2", "short_name": "\u6c38\u548c\u5927\u738b", "short_name_pinyin": "yonghedawang", "status": null, "address": null, "name": null, "id": "33991"}, "mid": "888888858120469", "shopId": "33991", "netid": null, "province": 901, "district": 601, "zipcode": null, "telephone": "56987727", "posDate": null, "destineTel": null, "togoTel": null, "trafficWay": null, "signBuilding": null, "businessArea": null, "selfRoom": null, "businessTime": null, "stall": null, "consume": null, "serviceFei": null, "favourable": null, "shopMemo": null, "appraise": null, "website": null, "memo": null, "payTypes": ",\u6749\u5fb7\u5361", "shopTypes": "\u9910\u996e", "consumeTypes": null, "cookTypes": null, "orderNum": 1000, "card4no": null, "card4noAcc": null, "district2": 401, "searchScope": null, "status": 1, "address": "\u4e2d\u534e\u65b0\u8def619\u53f7", "name": "\u6c38\u548c\u5927\u738b \u4e2d\u534e\u65b0\u8def\u5e97", "id": 144552, "pageNo": 0, "pageCount": null, "pageSize": 10, "ids": null, "endTime": null, "startTime": null}, {"cardNumFive": null, "isSupportYj": null, "cityName": null, "districtName": null, "shopinfo": {"mid": "888888858120469", "good_flag": "2", "new_flag": "2", "short_name": "\u6c38\u548c\u5927\u738b", "short_name_pinyin": "yonghedawang", "status": null, "address": null, "name": null, "id": "33991"}, "mid": "888888858120469", "shopId": "33991", "netid": null, "province": 901, "district": 601, "zipcode": null, "telephone": "56630369", "posDate": "20100713", "destineTel": null, "togoTel": null, "trafficWay": null, "signBuilding": null, "businessArea": null, "selfRoom": null, "businessTime": null, "stall": null, "consume": null, "serviceFei": null, "favourable": null, "shopMemo": null, "appraise": null, "website": null, "memo": null, "payTypes": ",\u6749\u5fb7\u5361", "shopTypes": "\u9910\u996e", "consumeTypes": null, "cookTypes": null, "orderNum": 1000, "card4no": null, "card4noAcc": null, "district2": 408, "searchScope": null, "status": 1, "address": "\u4e2d\u5174\u8def1666\u53f7\u897f\u4fa7", "name": "\u6c38\u548c\u5927\u738b \u4e2d\u5174\u8def\u5e97", "id": 144553, "pageNo": 0, "pageCount": null, "pageSize": 10, "ids": null, "endTime": null, "startTime": null}, {"cardNumFive": null, "isSupportYj": null, "cityName": null, "districtName": null, "shopinfo": {"mid": "888888858120469", "good_flag": null, "new_flag": null, "short_name": "\u6c38\u548c\u5927\u738b", "short_name_pinyin": "yonghedawang", "status": null, "address": null, "name": null, "id": "39222"}, "mid": "888888858120469", "shopId": "39222", "netid": null, "province": 901, "district": 601, "zipcode": null, "telephone": null, "posDate": null, "destineTel": null, "togoTel": null, "trafficWay": null, "signBuilding": null, "businessArea": null, "selfRoom": null, "businessTime": null, "stall": null, "consume": null, "serviceFei": null, "favourable": null, "shopMemo": null, "appraise": null, "website": null, "memo": null, "payTypes": "\u6749\u5fb7\u5361", "shopTypes": "\u9910\u996e", "consumeTypes": null, "cookTypes": null, "orderNum": 1000, "card4no": null, "card4noAcc": null, "district2": 418, "searchScope": null, "status": 1, "address": "\u4e94\u83b2\u8def593\u5f0445\u53f71\u697c", "name": "\u6c38\u548c\u5927\u738b \u4e94\u83b2\u8def\u5e97", "id": 167372, "pageNo": 0, "pageCount": null, "pageSize": 10, "ids": null, "endTime": null, "startTime": null}, {"cardNumFive": null, "isSupportYj": null, "cityName": null, "districtName": null, "shopinfo": {"mid": "888888858120469", "good_flag": "2", "new_flag": "2", "short_name": "\u6c38\u548c\u5927\u738b", "short_name_pinyin": "yonghedawang", "status": null, "address": null, "name": null, "id": "33991"}, "mid": "888888858120469", "shopId": "33991", "netid": null, "province": 901, "district": 601, "zipcode": null, "telephone": "50302308", "posDate": null, "destineTel": null, "togoTel": null, "trafficWay": null, "signBuilding": null, "businessArea": null, "selfRoom": null, "businessTime": null, "stall": null, "consume": null, "serviceFei": null, "favourable": null, "shopMemo": null, "appraise": null, "website": null, "memo": null, "payTypes": "\u6749\u5fb7\u5361", "shopTypes": "\u9910\u996e", "consumeTypes": null, "cookTypes": null, "orderNum": 1000, "card4no": null, "card4noAcc": null, "district2": 418, "searchScope": null, "status": 1, "address": "\u78a7\u4e91\u8def555\u53f71\u697c", "name": "\u6c38\u548c\u5927\u738b \u78a7\u4e91\u5e97", "id": 170713, "pageNo": 0, "pageCount": null, "pageSize": 10, "ids": null, "endTime": null, "startTime": null}, {"cardNumFive": null, "isSupportYj": null, "cityName": null, "districtName": null, "shopinfo": {"mid": "888888858120469", "good_flag": "2", "new_flag": "2", "short_name": "\u6c38\u548c\u5927\u738b", "short_name_pinyin": "yonghedawang", "status": null, "address": null, "name": null, "id": "33991"}, "mid": "888888858120469", "shopId": "33991", "netid": null, "province": 901, "district": 601, "zipcode": null, "telephone": "33782557", "posDate": null, "destineTel": null, "togoTel": null, "trafficWay": null, "signBuilding": null, "businessArea": null, "selfRoom": null, "businessTime": null, "stall": null, "consume": null, "serviceFei": null, "favourable": null, "shopMemo": null, "appraise": null, "website": null, "memo": null, "payTypes": "\u6749\u5fb7\u5361", "shopTypes": "\u9910\u996e", "consumeTypes": null, "cookTypes": null, "orderNum": 1000, "card4no": null, "card4noAcc": null, "district2": 418, "searchScope": null, "status": 1, "address": "\u4e1c\u9756\u8def1881\u53f71\u697c", "name": "\u6c38\u548c\u5927\u738b \u4e1c\u9756\u8def\u5e97", "id": 170715, "pageNo": 0, "pageCount": null, "pageSize": 10, "ids": null, "endTime": null, "startTime": null}, {"cardNumFive": null, "isSupportYj": null, "cityName": null, "districtName": null, "shopinfo": {"mid": "888888858120469", "good_flag": "2", "new_flag": "2", "short_name": "\u6c38\u548c\u5927\u738b", "short_name_pinyin": "yonghedawang", "status": null, "address": null, "name": null, "id": "33991"}, "mid": "888888858120469", "shopId": "33991", "netid": null, "province": 901, "district": 601, "zipcode": null, "telephone": "50177387", "posDate": null, "destineTel": null, "togoTel": null, "trafficWay": null, "signBuilding": null, "businessArea": null, "selfRoom": null, "businessTime": null, "stall": null, "consume": null, "serviceFei": null, "favourable": null, "shopMemo": null, "appraise": null, "website": null, "memo": null, "payTypes": "\u6749\u5fb7\u5361", "shopTypes": "\u9910\u996e", "consumeTypes": null, "cookTypes": null, "orderNum": 1000, "card4no": null, "card4noAcc": null, "district2": 418, "searchScope": null, "status": 1, "address": "\u82d7\u5703\u8def212-216\u53f7", "name": "\u6c38\u548c\u5927\u738b \u82d7\u5703\u5e97", "id": 170716, "pageNo": 0, "pageCount": null, "pageSize": 10, "ids": null, "endTime": null, "startTime": null}, {"cardNumFive": null, "isSupportYj": null, "cityName": null, "districtName": null, "shopinfo": {"mid": "888888858120469", "good_flag": "2", "new_flag": "2", "short_name": "\u6c38\u548c\u5927\u738b", "short_name_pinyin": "yonghedawang", "status": null, "address": null, "name": null, "id": "33991"}, "mid": "888888858120469", "shopId": "33991", "netid": null, "province": 901, "district": 601, "zipcode": null, "telephone": "63593970", "posDate": null, "destineTel": null, "togoTel": null, "trafficWay": null, "signBuilding": null, "businessArea": null, "selfRoom": null, "businessTime": null, "stall": null, "consume": null, "serviceFei": null, "favourable": null, "shopMemo": null, "appraise": null, "website": null, "memo": null, "payTypes": "\u6749\u5fb7\u5361", "shopTypes": "\u9910\u996e", "consumeTypes": null, "cookTypes": null, "orderNum": 1000, "card4no": null, "card4noAcc": null, "district2": 401, "searchScope": null, "status": 1, "address": "\u5357\u4eac\u897f\u8def2\u53f7\u5730\u4e0b\u4e00\u697c", "name": "\u6c38\u548c\u5927\u738b \u5357\u4eac\u897f\u8def\u5e97", "id": 170717, "pageNo": 0, "pageCount": null, "pageSize": 10, "ids": null, "endTime": null, "startTime": null}, {"cardNumFive": null, "isSupportYj": null, "cityName": null, "districtName": null, "shopinfo": {"mid": "888888858120469", "good_flag": "2", "new_flag": "2", "short_name": "\u6c38\u548c\u5927\u738b", "short_name_pinyin": "yonghedawang", "status": null, "address": null, "name": null, "id": "33991"}, "mid": "888888858120469", "shopId": "33991", "netid": null, "province": 901, "district": 601, "zipcode": null, "telephone": "64719969", "posDate": null, "destineTel": null, "togoTel": null, "trafficWay": null, "signBuilding": null, "businessArea": null, "selfRoom": null, "businessTime": null, "stall": null, "consume": null, "serviceFei": null, "favourable": null, "shopMemo": null, "appraise": null, "website": null, "memo": null, "payTypes": "\u6749\u5fb7\u5361", "shopTypes": "\u9910\u996e", "consumeTypes": null, "cookTypes": null, "orderNum": 1000, "card4no": null, "card4noAcc": null, "district2": 401, "searchScope": null, "status": 1, "address": "\u745e\u91d1\u4e8c\u8def120\u53f7", "name": "\u6c38\u548c\u5927\u738b \u745e\u91d1\u5e97", "id": 170718, "pageNo": 0, "pageCount": null, "pageSize": 10, "ids": null, "endTime": null, "startTime": null}], "pageLimit": 10650, "size": 10}