{"pageCount": 1095, "count": 10942, "pageNo": 1079, "subShopInfo": {"cardNumFive": "", "isSupportYj": "", "cityName": null, "districtName": null, "shopinfo": {"mid": null, "good_flag": null, "new_flag": null, "short_name": null, "short_name_pinyin": null, "status": null, "address": "", "name": "", "id": null}, "mid": null, "shopId": null, "netid": null, "province": 901, "district": null, "zipcode": null, "telephone": null, "posDate": null, "destineTel": null, "togoTel": null, "trafficWay": null, "signBuilding": null, "businessArea": null, "selfRoom": null, "businessTime": null, "stall": null, "consume": null, "serviceFei": null, "favourable": null, "shopMemo": "1", "appraise": null, "website": null, "memo": null, "payTypes": "", "shopTypes": "", "consumeTypes": null, "cookTypes": null, "orderNum": null, "card4no": null, "card4noAcc": null, "district2": null, "searchScope": null, "status": null, "address": "", "name": null, "id": null, "pageNo": 1078, "pageCount": null, "pageSize": 10, "ids": null, "endTime": null, "startTime": null}, "list": [{"cardNumFive": null, "isSupportYj": null, "cityName": null, "districtName": null, "shopinfo": {"mid": "888888859120192", "good_flag": "2", "new_flag": "2", "short_name": "\u4f59\u5929\u6210", "short_name_pinyin": "yutiancheng", "status": null, "address": null, "name": null, "id": "34015"}, "mid": "888888859120192", "shopId": "34015", "netid": null, "province": 901, "district": 601, "zipcode": null, "telephone": "57738027", "posDate": "200908", "destineTel": null, "togoTel": null, "trafficWay": "\u516c\u4ea4\u5f6d\u7f57\u4e13\u7ebf\u3001701\u8def", "signBuilding": null, "businessArea": null, "selfRoom": null, "businessTime": null, "stall": null, "consume": null, "serviceFei": null, "favourable": null, "shopMemo": null, "appraise": null, "website": null, "memo": null, "payTypes": "\u6749\u5fb7\u5361", "shopTypes": "\u836f\u5e97", "consumeTypes": null, "cookTypes": null, "orderNum": 1000, "card4no": null, "card4noAcc": null, "district2": 412, "searchScope": null, "status": 1, "address": "\u7965\u548c\u8def416\u53f7", "name": "\u4f59\u5929\u6210 \u7965\u548c\u836f\u5e97", "id": 144708, "pageNo": 0, "pageCount": null, "pageSize": 10, "ids": null, "endTime": null, "startTime": null}, {"cardNumFive": null, "isSupportYj": null, "cityName": null, "districtName": null, "shopinfo": {"mid": "888888859120192", "good_flag": "2", "new_flag": "2", "short_name": "\u4f59\u5929\u6210", "short_name_pinyin": "yutiancheng", "status": null, "address": null, "name": null, "id": "34015"}, "mid": "888888859120192", "shopId": "34015", "netid": null, "province": 901, "district": 601, "zipcode": null, "telephone": "57891283", "posDate": "200908", "destineTel": null, "togoTel": null, "trafficWay": "\u516c\u4ea4\u91d1\u6f15\u7ebf \u77f3\u80e1\u4e13\u7ebf", "signBuilding": null, "businessArea": null, "selfRoom": null, "businessTime": null, "stall": null, "consume": null, "serviceFei": null, "favourable": null, "shopMemo": null, "appraise": null, "website": null, "memo": null, "payTypes": "\u6749\u5fb7\u5361", "shopTypes": "\u836f\u5e97", "consumeTypes": null, "cookTypes": null, "orderNum": 1000, "card4no": null, "card4noAcc": null, "district2": 412, "searchScope": null, "status": 1, "address": "\u65b0\u6d5c\u9547\u4e2d\u5fc3\u885715~17\u53f7", "name": "\u4f59\u5929\u6210 \u65b0\u6d5c\u836f\u5e97", "id": 144710, "pageNo": 0, "pageCount": null, "pageSize": 10, "ids": null, "endTime": null, "startTime": null}, {"cardNumFive": null, "isSupportYj": null, "cityName": null, "districtName": null, "shopinfo": {"mid": "888888859120192", "good_flag": "2", "new_flag": "2", "short_name": "\u4f59\u5929\u6210", "short_name_pinyin": "yutiancheng", "status": null, "address": null, "name": null, "id": "34015"}, "mid": "888888859120192", "shopId": "34015", "netid": null, "province": 901, "district": 601, "zipcode": null, "telephone": "57647314", "posDate": "200908", "destineTel": null, "togoTel": null, "trafficWay": "\u516c\u4ea4\u8398\u6625\u7ebf\u3001\u677e\u6c5f50\u8def", "signBuilding": null, "businessArea": null, "selfRoom": null, "businessTime": null, "stall": null, "consume": null, "serviceFei": null, "favourable": null, "shopMemo": null, "appraise": null, "website": null, "memo": null, "payTypes": "\u6749\u5fb7\u5361", "shopTypes": "\u836f\u5e97", "consumeTypes": null, "cookTypes": null, "orderNum": 1000, "card4no": null, "card4noAcc": null, "district2": 412, "searchScope": null, "status": 1, "address": "\u65b0\u6865\u9547\u65b0\u5357\u8857236~238\u53f7", "name": "\u4f59\u5929\u6210 \u65b0\u5357\u836f\u5e97", "id": 144712, "pageNo": 0, "pageCount": null, "pageSize": 10, "ids": null, "endTime": null, "startTime": null}, {"cardNumFive": null, "isSupportYj": null, "cityName": null, "districtName": null, "shopinfo": {"mid": "888888859120192", "good_flag": "2", "new_flag": "2", "short_name": "\u4f59\u5929\u6210", "short_name_pinyin": "yutiancheng", "status": null, "address": null, "name": null, "id": "34015"}, "mid": "888888859120192", "shopId": "34015", "netid": null, "province": 901, "district": 601, "zipcode": null, "telephone": "67689405", "posDate": "200908", "destineTel": null, "togoTel": null, "trafficWay": "\u516c\u4ea4\u4e5d\u4ead\u4e8c\u8def", "signBuilding": null, "businessArea": null, "selfRoom": null, "businessTime": null, "stall": null, "consume": null, "serviceFei": null, "favourable": null, "shopMemo": null, "appraise": null, "website": null, "memo": null, "payTypes": "\u6749\u5fb7\u5361", "shopTypes": "\u836f\u5e97", "consumeTypes": null, "cookTypes": null, "orderNum": 1000, "card4no": null, "card4noAcc": null, "district2": 412, "searchScope": null, "status": 1, "address": "\u65b0\u6865\u9547\u65b0\u5357\u8857369\u53f7~375\u53f7", "name": "\u4f59\u5929\u6210 \u65b0\u6865\u836f\u5e97", "id": 144713, "pageNo": 0, "pageCount": null, "pageSize": 10, "ids": null, "endTime": null, "startTime": null}, {"cardNumFive": null, "isSupportYj": null, "cityName": null, "districtName": null, "shopinfo": {"mid": "888888859120192", "good_flag": "2", "new_flag": "2", "short_name": "\u4f59\u5929\u6210", "short_name_pinyin": "yutiancheng", "status": null, "address": null, "name": null, "id": "34015"}, "mid": "888888859120192", "shopId": "34015", "netid": null, "province": 901, "district": 601, "zipcode": null, "telephone": "57642359", "posDate": "200908", "destineTel": null, "togoTel": null, "trafficWay": "\u516c\u4ea4\u677e\u6c5f16\u8def\u3001\u6caa\u6606\u7ebf", "signBuilding": null, "businessArea": null, "selfRoom": null, "businessTime": null, "stall": null, "consume": null, "serviceFei": null, "favourable": null, "shopMemo": null, "appraise": null, "website": null, "memo": null, "payTypes": "\u6749\u5fb7\u5361", "shopTypes": "\u836f\u5e97", "consumeTypes": null, "cookTypes": null, "orderNum": 1000, "card4no": null, "card4noAcc": null, "district2": 412, "searchScope": null, "status": 1, "address": "\u65b0\u6865\u9547\u4e2d\u5fc3\u8def56\u53f7", "name": "\u4f59\u5929\u6210 \u65b0\u5347\u836f\u5e97", "id": 144714, "pageNo": 0, "pageCount": null, "pageSize": 10, "ids": null, "endTime": null, "startTime": null}, {"cardNumFive": null, "isSupportYj": null, "cityName": null, "districtName": null, "shopinfo": {"mid": "888888859120192", "good_flag": "2", "new_flag": "2", "short_name": "\u4f59\u5929\u6210", "short_name_pinyin": "yutiancheng", "status": null, "address": null, "name": null, "id": "34015"}, "mid": "888888859120192", "shopId": "34015", "netid": null, "province": 901, "district": 601, "zipcode": null, "telephone": "57871115", "posDate": "200908", "destineTel": null, "togoTel": null, "trafficWay": "\u516c\u4ea4", "signBuilding": null, "businessArea": null, "selfRoom": null, "businessTime": null, "stall": null, "consume": null, "serviceFei": null, "favourable": null, "shopMemo": null, "appraise": null, "website": null, "memo": null, "payTypes": "\u6749\u5fb7\u5361", "shopTypes": "\u836f\u5e97", "consumeTypes": null, "cookTypes": null, "orderNum": 1000, "card4no": null, "card4noAcc": null, "district2": 412, "searchScope": null, "status": 1, "address": "\u4e94\u538d\u9547\u5927\u885778\u53f7", "name": "\u4f59\u5929\u6210 \u65b0\u4e94\u836f\u5e97", "id": 144715, "pageNo": 0, "pageCount": null, "pageSize": 10, "ids": null, "endTime": null, "startTime": null}, {"cardNumFive": null, "isSupportYj": null, "cityName": null, "districtName": null, "shopinfo": {"mid": "888888859120192", "good_flag": "2", "new_flag": "2", "short_name": "\u4f59\u5929\u6210", "short_name_pinyin": "yutiancheng", "status": null, "address": null, "name": null, "id": "34015"}, "mid": "888888859120192", "shopId": "34015", "netid": null, "province": 901, "district": 601, "zipcode": null, "telephone": "57640667", "posDate": "200908", "destineTel": null, "togoTel": null, "trafficWay": "\u516c\u4ea4\u677e\u8398\u7ebf\u3001\u677e\u6c5f50\u8def", "signBuilding": null, "businessArea": null, "selfRoom": null, "businessTime": null, "stall": null, "consume": null, "serviceFei": null, "favourable": null, "shopMemo": null, "appraise": null, "website": null, "memo": null, "payTypes": "\u6749\u5fb7\u5361", "shopTypes": "\u836f\u5e97", "consumeTypes": null, "cookTypes": null, "orderNum": 1000, "card4no": null, "card4noAcc": null, "district2": 412, "searchScope": null, "status": 1, "address": "\u65b0\u6865\u9547\u65b0\u5317\u8857212~214\u53f7", "name": "\u4f59\u5929\u6210 \u65b0\u80b2\u836f\u5e97", "id": 144716, "pageNo": 0, "pageCount": null, "pageSize": 10, "ids": null, "endTime": null, "startTime": null}, {"cardNumFive": null, "isSupportYj": null, "cityName": null, "districtName": null, "shopinfo": {"mid": "888888859120192", "good_flag": "2", "new_flag": "2", "short_name": "\u4f59\u5929\u6210", "short_name_pinyin": "yutiancheng", "status": null, "address": null, "name": null, "id": "34015"}, "mid": "888888859120192", "shopId": "34015", "netid": null, "province": 901, "district": 601, "zipcode": null, "telephone": "57800078", "posDate": "200908", "destineTel": null, "togoTel": null, "trafficWay": "\u516c\u4ea4\u5357\u9752\u4e13\u7ebf\u3001\u8398\u91d1\u4e13\u7ebf", "signBuilding": null, "businessArea": null, "selfRoom": null, "businessTime": null, "stall": null, "consume": null, "serviceFei": null, "favourable": null, "shopMemo": null, "appraise": null, "website": null, "memo": null, "payTypes": "\u6749\u5fb7\u5361", "shopTypes": "\u836f\u5e97", "consumeTypes": null, "cookTypes": null, "orderNum": 1000, "card4no": null, "card4noAcc": null, "district2": 412, "searchScope": null, "status": 1, "address": "\u53f6\u69ad\u9547\u53f6\u5927\u516c\u8def95\u53f7", "name": "\u4f59\u5929\u6210 \u53f6\u65b0\u836f\u5e97", "id": 144719, "pageNo": 0, "pageCount": null, "pageSize": 10, "ids": null, "endTime": null, "startTime": null}, {"cardNumFive": null, "isSupportYj": null, "cityName": null, "districtName": null, "shopinfo": {"mid": "888888859120192", "good_flag": "2", "new_flag": "2", "short_name": "\u4f59\u5929\u6210", "short_name_pinyin": "yutiancheng", "status": null, "address": null, "name": null, "id": "34015"}, "mid": "888888859120192", "shopId": "34015", "netid": null, "province": 901, "district": 601, "zipcode": null, "telephone": "57634571", "posDate": "200908", "destineTel": null, "togoTel": null, "trafficWay": "\u516c\u4ea4\u4e5d\u4ead\u4e00\u8def", "signBuilding": null, "businessArea": null, "selfRoom": null, "businessTime": null, "stall": null, "consume": null, "serviceFei": null, "favourable": null, "shopMemo": null, "appraise": null, "website": null, "memo": null, "payTypes": "\u6749\u5fb7\u5361", "shopTypes": "\u836f\u5e97", "consumeTypes": null, "cookTypes": null, "orderNum": 1000, "card4no": null, "card4noAcc": null, "district2": 412, "searchScope": null, "status": 1, "address": "\u4e5d\u4ead\u9547\u4e5d\u65b0\u516c\u8def184\u53f7", "name": "\u4f59\u5929\u6210 \u4e91\u6da6\u836f\u5e97", "id": 144720, "pageNo": 0, "pageCount": null, "pageSize": 10, "ids": null, "endTime": null, "startTime": null}, {"cardNumFive": null, "isSupportYj": null, "cityName": null, "districtName": null, "shopinfo": {"mid": "888888859120192", "good_flag": "2", "new_flag": "2", "short_name": "\u4f59\u5929\u6210", "short_name_pinyin": "yutiancheng", "status": null, "address": null, "name": null, "id": "34015"}, "mid": "888888859120192", "shopId": "34015", "netid": null, "province": 901, "district": 601, "zipcode": null, "telephone": "57881154", "posDate": "200908", "destineTel": null, "togoTel": null, "trafficWay": "\u516c\u4ea4\u677e\u5f20\u7ebf", "signBuilding": null, "businessArea": null, "selfRoom": null, "businessTime": null, "stall": null, "consume": null, "serviceFei": null, "favourable": null, "shopMemo": null, "appraise": null, "website": null, "memo": null, "payTypes": "\u6749\u5fb7\u5361", "shopTypes": "\u836f\u5e97", "consumeTypes": null, "cookTypes": null, "orderNum": 1000, "card4no": null, "card4noAcc": null, "district2": 412, "searchScope": null, "status": 1, "address": "\u5f20\u6cfd\u9547\u8f95\u95e8\u8def167\u53f7", "name": "\u4f59\u5929\u6210 \u5f20\u6cfd\u836f\u5e97", "id": 144721, "pageNo": 0, "pageCount": null, "pageSize": 10, "ids": null, "endTime": null, "startTime": null}], "pageLimit": 10780, "size": 10}