{"pageCount": 1095, "count": 10942, "pageNo": 1070, "subShopInfo": {"cardNumFive": "", "isSupportYj": "", "cityName": null, "districtName": null, "shopinfo": {"mid": null, "good_flag": null, "new_flag": null, "short_name": null, "short_name_pinyin": null, "status": null, "address": "", "name": "", "id": null}, "mid": null, "shopId": null, "netid": null, "province": 901, "district": null, "zipcode": null, "telephone": null, "posDate": null, "destineTel": null, "togoTel": null, "trafficWay": null, "signBuilding": null, "businessArea": null, "selfRoom": null, "businessTime": null, "stall": null, "consume": null, "serviceFei": null, "favourable": null, "shopMemo": "1", "appraise": null, "website": null, "memo": null, "payTypes": "", "shopTypes": "", "consumeTypes": null, "cookTypes": null, "orderNum": null, "card4no": null, "card4noAcc": null, "district2": null, "searchScope": null, "status": null, "address": "", "name": null, "id": null, "pageNo": 1069, "pageCount": null, "pageSize": 10, "ids": null, "endTime": null, "startTime": null}, "list": [{"cardNumFive": null, "isSupportYj": null, "cityName": null, "districtName": null, "shopinfo": {"mid": "888002153311042", "good_flag": "2", "new_flag": "2", "short_name": "\u6c38\u8f89\u751f\u9c9c\u8d85\u5e02", "short_name_pinyin": "yonghuishengxianchaoshi", "status": null, "address": null, "name": null, "id": "418057363329646592"}, "mid": "888002153311042", "shopId": "418057363329646592", "netid": null, "province": 901, "district": 601, "zipcode": null, "telephone": null, "posDate": null, "destineTel": null, "togoTel": null, "trafficWay": null, "signBuilding": null, "businessArea": null, "selfRoom": null, "businessTime": null, "stall": null, "consume": null, "serviceFei": null, "favourable": null, "shopMemo": null, "appraise": null, "website": null, "memo": null, "payTypes": "\u6749\u5fb7\u5361,", "shopTypes": "\u8d85\u5e02", "consumeTypes": null, "cookTypes": null, "orderNum": null, "card4no": null, "card4noAcc": null, "district2": 416, "searchScope": null, "status": 1, "address": "\u771f\u534e\u8def1781\u53f7", "name": "\u771f\u534e\u8def\u5e97", "id": 418057362096521216, "pageNo": 0, "pageCount": null, "pageSize": 10, "ids": null, "endTime": null, "startTime": null}, {"cardNumFive": null, "isSupportYj": null, "cityName": null, "districtName": null, "shopinfo": {"mid": "888002153311049", "good_flag": "2", "new_flag": "2", "short_name": "\u6c38\u8f89\u751f\u9c9c\u8d85\u5e02", "short_name_pinyin": "yonghuishengxianchaoshi", "status": null, "address": null, "name": null, "id": "418057398041706496"}, "mid": "888002153311049", "shopId": "418057398041706496", "netid": null, "province": 901, "district": 601, "zipcode": null, "telephone": null, "posDate": null, "destineTel": null, "togoTel": null, "trafficWay": null, "signBuilding": null, "businessArea": null, "selfRoom": null, "businessTime": null, "stall": null, "consume": null, "serviceFei": null, "favourable": null, "shopMemo": null, "appraise": null, "website": null, "memo": null, "payTypes": "\u6749\u5fb7\u5361,", "shopTypes": "\u8d85\u5e02", "consumeTypes": null, "cookTypes": null, "orderNum": null, "card4no": null, "card4noAcc": null, "district2": 407, "searchScope": null, "status": 1, "address": "\u63a7\u6c5f\u8def1807\u53f7", "name": "\u63a7\u6c5f\u8def\u5e97", "id": 418057396816969728, "pageNo": 0, "pageCount": null, "pageSize": 10, "ids": null, "endTime": null, "startTime": null}, {"cardNumFive": null, "isSupportYj": null, "cityName": null, "districtName": null, "shopinfo": {"mid": "888002153311053", "good_flag": "2", "new_flag": "2", "short_name": "\u6c38\u8f89\u751f\u9c9c\u8d85\u5e02", "short_name_pinyin": "yonghuishengxianchaoshi", "status": null, "address": null, "name": null, "id": "418057398746349568"}, "mid": "888002153311053", "shopId": "418057398746349568", "netid": null, "province": 901, "district": 601, "zipcode": null, "telephone": null, "posDate": null, "destineTel": null, "togoTel": null, "trafficWay": null, "signBuilding": null, "businessArea": null, "selfRoom": null, "businessTime": null, "stall": null, "consume": null, "serviceFei": null, "favourable": null, "shopMemo": null, "appraise": null, "website": null, "memo": null, "payTypes": "\u6749\u5fb7\u5361,", "shopTypes": "\u8d85\u5e02", "consumeTypes": null, "cookTypes": null, "orderNum": null, "card4no": null, "card4noAcc": null, "district2": 417, "searchScope": null, "status": 1, "address": "\u76c8\u6e2f\u8def1688\u5f0436\u53f7107\u5ba4-205\u5ba4", "name": "\u76c8\u6e2f\u8def\u5e97", "id": 418057397517418496, "pageNo": 0, "pageCount": null, "pageSize": 10, "ids": null, "endTime": null, "startTime": null}, {"cardNumFive": null, "isSupportYj": null, "cityName": null, "districtName": null, "shopinfo": {"mid": "888888857320007", "good_flag": "1", "new_flag": "2", "short_name": "\u6c38\u4e50", "short_name_pinyin": "yongle", "status": null, "address": null, "name": null, "id": "33993"}, "mid": "888888857320007", "shopId": "33993", "netid": null, "province": 901, "district": 601, "zipcode": null, "telephone": "\u5168\u56fd\u670d\u52a1\u70ed\u7ebf\uff1a4008-11-3336", "posDate": "20071107", "destineTel": null, "togoTel": null, "trafficWay": "\u65c5\u6e386B\u7ebf \u5317\u5b89\u7ebf", "signBuilding": null, "businessArea": null, "selfRoom": null, "businessTime": "9:00~22:00", "stall": "\u6709", "consume": null, "serviceFei": null, "favourable": null, "shopMemo": null, "appraise": null, "website": null, "memo": null, "payTypes": "\u6749\u5fb7\u5361", "shopTypes": "\u4e13\u5356", "consumeTypes": null, "cookTypes": null, "orderNum": 1000, "card4no": null, "card4noAcc": null, "district2": 411, "searchScope": null, "status": 1, "address": "\u58a8\u7389\u8def328\u53f7", "name": "\u6c38\u4e50 \u5b89\u4ead\u5e97", "id": 144566, "pageNo": 0, "pageCount": null, "pageSize": 10, "ids": null, "endTime": null, "startTime": null}, {"cardNumFive": null, "isSupportYj": null, "cityName": null, "districtName": null, "shopinfo": {"mid": "888888857320007", "good_flag": "1", "new_flag": "2", "short_name": "\u6c38\u4e50", "short_name_pinyin": "yongle", "status": null, "address": null, "name": null, "id": "33993"}, "mid": "888888857320007", "shopId": "33993", "netid": null, "province": 901, "district": 601, "zipcode": null, "telephone": "\u5168\u56fd\u670d\u52a1\u70ed\u7ebf\uff1a4008-11-3336", "posDate": "20071107", "destineTel": null, "togoTel": null, "trafficWay": "\u65c5\u6e385\u53f7\u7ebf \u5b9d\u6768\u7801\u5934\u4e13\u7ebf", "signBuilding": null, "businessArea": null, "selfRoom": null, "businessTime": "9:00~22:00", "stall": "\u6709", "consume": null, "serviceFei": null, "favourable": null, "shopMemo": null, "appraise": null, "website": null, "memo": null, "payTypes": "\u6749\u5fb7\u5361", "shopTypes": "\u4e13\u5356", "consumeTypes": null, "cookTypes": null, "orderNum": 1000, "card4no": null, "card4noAcc": null, "district2": 418, "searchScope": null, "status": 1, "address": "\u5821\u9547\u4e2d\u8def377-379\u53f7", "name": "\u6c38\u4e50 \u5821\u9547\u5e97", "id": 144568, "pageNo": 0, "pageCount": null, "pageSize": 10, "ids": null, "endTime": null, "startTime": null}, {"cardNumFive": null, "isSupportYj": null, "cityName": null, "districtName": null, "shopinfo": {"mid": "888888857320007", "good_flag": "1", "new_flag": "2", "short_name": "\u6c38\u4e50", "short_name_pinyin": "yongle", "status": null, "address": null, "name": null, "id": "33993"}, "mid": "888888857320007", "shopId": "33993", "netid": null, "province": 901, "district": 601, "zipcode": null, "telephone": "\u5168\u56fd\u670d\u52a1\u70ed\u7ebf\uff1a4008-11-3336", "posDate": "20071109", "destineTel": null, "togoTel": null, "trafficWay": "\u516c\u4ea4717 947", "signBuilding": null, "businessArea": null, "selfRoom": null, "businessTime": "9:00~22:00", "stall": "\u6709", "consume": null, "serviceFei": null, "favourable": null, "shopMemo": null, "appraise": null, "website": null, "memo": null, "payTypes": "\u6749\u5fb7\u5361", "shopTypes": "\u4e13\u5356", "consumeTypes": null, "cookTypes": null, "orderNum": 1000, "card4no": null, "card4noAcc": null, "district2": 405, "searchScope": null, "status": 1, "address": "\u66f9\u5b89\u8def1583\u53f7", "name": "\u6c38\u4e50 \u66f9\u5b89\u5e97", "id": 144569, "pageNo": 0, "pageCount": null, "pageSize": 10, "ids": null, "endTime": null, "startTime": null}, {"cardNumFive": null, "isSupportYj": null, "cityName": null, "districtName": null, "shopinfo": {"mid": "888888857320007", "good_flag": "1", "new_flag": "2", "short_name": "\u6c38\u4e50", "short_name_pinyin": "yongle", "status": null, "address": null, "name": null, "id": "33993"}, "mid": "888888857320007", "shopId": "33993", "netid": null, "province": 901, "district": 601, "zipcode": null, "telephone": "\u5168\u56fd\u670d\u52a1\u70ed\u7ebf\uff1a4008-11-3336", "posDate": "20071112", "destineTel": null, "togoTel": null, "trafficWay": "\u516c\u4ea444 \u5730\u94c1\u56db\u53f7\u7ebf", "signBuilding": null, "businessArea": null, "selfRoom": null, "businessTime": "9:00~22:00", "stall": "\u6709", "consume": null, "serviceFei": null, "favourable": null, "shopMemo": null, "appraise": null, "website": null, "memo": null, "payTypes": "\u6749\u5fb7\u5361", "shopTypes": "\u4e13\u5356", "consumeTypes": null, "cookTypes": null, "orderNum": 1000, "card4no": null, "card4noAcc": null, "district2": 405, "searchScope": null, "status": 1, "address": "\u66f9\u6768\u8def777\u53f7", "name": "\u6c38\u4e50 \u66f9\u6768\u5e97", "id": 144570, "pageNo": 0, "pageCount": null, "pageSize": 10, "ids": null, "endTime": null, "startTime": null}, {"cardNumFive": null, "isSupportYj": null, "cityName": null, "districtName": null, "shopinfo": {"mid": "888888857320007", "good_flag": "1", "new_flag": "2", "short_name": "\u6c38\u4e50", "short_name_pinyin": "yongle", "status": null, "address": null, "name": null, "id": "33993"}, "mid": "888888857320007", "shopId": "33993", "netid": null, "province": 901, "district": 601, "zipcode": null, "telephone": "\u5168\u56fd\u670d\u52a1\u70ed\u7ebf\uff1a4008-11-3336", "posDate": "20071026", "destineTel": null, "togoTel": null, "trafficWay": "\u516c\u4ea4506 205 548", "signBuilding": null, "businessArea": null, "selfRoom": null, "businessTime": "9:00~22:00", "stall": "\u6709", "consume": null, "serviceFei": null, "favourable": null, "shopMemo": null, "appraise": null, "website": null, "memo": null, "payTypes": "\u6749\u5fb7\u5361", "shopTypes": "\u4e13\u5356", "consumeTypes": null, "cookTypes": null, "orderNum": 1000, "card4no": null, "card4noAcc": null, "district2": 403, "searchScope": null, "status": 1, "address": "\u6f15\u5b9d\u8def1243\u53f7", "name": "\u6c38\u4e50 \u6f15\u5b9d\u5e97", "id": 144571, "pageNo": 0, "pageCount": null, "pageSize": 10, "ids": null, "endTime": null, "startTime": null}, {"cardNumFive": null, "isSupportYj": null, "cityName": null, "districtName": null, "shopinfo": {"mid": "888888857320007", "good_flag": "1", "new_flag": "2", "short_name": "\u6c38\u4e50", "short_name_pinyin": "yongle", "status": null, "address": null, "name": null, "id": "33993"}, "mid": "888888857320007", "shopId": "33993", "netid": null, "province": 901, "district": 601, "zipcode": null, "telephone": "\u5168\u56fd\u670d\u52a1\u70ed\u7ebf\uff1a4008-11-3336", "posDate": "20071220", "destineTel": null, "togoTel": null, "trafficWay": "\u516c\u4ea4830 824 506", "signBuilding": null, "businessArea": null, "selfRoom": null, "businessTime": null, "stall": "\u6709", "consume": null, "serviceFei": null, "favourable": null, "shopMemo": null, "appraise": null, "website": null, "memo": null, "payTypes": "\u6749\u5fb7\u5361", "shopTypes": "\u4e13\u5356", "consumeTypes": null, "cookTypes": null, "orderNum": 1000, "card4no": null, "card4noAcc": null, "district2": 405, "searchScope": null, "status": 1, "address": "\u957f\u5bff\u8def285\u53f71-3\u697c", "name": "\u6c38\u4e50 \u957f\u5bff\u5e97", "id": 144573, "pageNo": 0, "pageCount": null, "pageSize": 10, "ids": null, "endTime": null, "startTime": null}, {"cardNumFive": null, "isSupportYj": null, "cityName": null, "districtName": null, "shopinfo": {"mid": "888888857320007", "good_flag": "1", "new_flag": "2", "short_name": "\u6c38\u4e50", "short_name_pinyin": "yongle", "status": null, "address": null, "name": null, "id": "33993"}, "mid": "888888857320007", "shopId": "33993", "netid": null, "province": 901, "district": 601, "zipcode": null, "telephone": "\u5168\u56fd\u670d\u52a1\u70ed\u7ebf\uff1a4008-11-3336", "posDate": "20071119", "destineTel": null, "togoTel": null, "trafficWay": "\u6caa\u5357\u7ebf \u5357\u65b0\u4e13\u7ebf", "signBuilding": null, "businessArea": null, "selfRoom": null, "businessTime": "9:00~22:00", "stall": "\u6709", "consume": null, "serviceFei": null, "favourable": null, "shopMemo": null, "appraise": null, "website": null, "memo": null, "payTypes": "\u6749\u5fb7\u5361", "shopTypes": "\u4e13\u5356", "consumeTypes": null, "cookTypes": null, "orderNum": 1000, "card4no": null, "card4noAcc": null, "district2": 418, "searchScope": null, "status": 1, "address": "\u57ce\u6865\u9547\u5357\u95e8\u8def113-137\u53f7", "name": "\u6c38\u4e50 \u5d07\u660e\u5e97", "id": 144575, "pageNo": 0, "pageCount": null, "pageSize": 10, "ids": null, "endTime": null, "startTime": null}], "pageLimit": 10690, "size": 10}