{"pageCount": 1095, "count": 10942, "pageNo": 1078, "subShopInfo": {"cardNumFive": "", "isSupportYj": "", "cityName": null, "districtName": null, "shopinfo": {"mid": null, "good_flag": null, "new_flag": null, "short_name": null, "short_name_pinyin": null, "status": null, "address": "", "name": "", "id": null}, "mid": null, "shopId": null, "netid": null, "province": 901, "district": null, "zipcode": null, "telephone": null, "posDate": null, "destineTel": null, "togoTel": null, "trafficWay": null, "signBuilding": null, "businessArea": null, "selfRoom": null, "businessTime": null, "stall": null, "consume": null, "serviceFei": null, "favourable": null, "shopMemo": "1", "appraise": null, "website": null, "memo": null, "payTypes": "", "shopTypes": "", "consumeTypes": null, "cookTypes": null, "orderNum": null, "card4no": null, "card4noAcc": null, "district2": null, "searchScope": null, "status": null, "address": "", "name": null, "id": null, "pageNo": 1077, "pageCount": null, "pageSize": 10, "ids": null, "endTime": null, "startTime": null}, "list": [{"cardNumFive": null, "isSupportYj": null, "cityName": null, "districtName": null, "shopinfo": {"mid": "888888859120192", "good_flag": "2", "new_flag": "2", "short_name": "\u4f59\u5929\u6210", "short_name_pinyin": "yutiancheng", "status": null, "address": null, "name": null, "id": "34015"}, "mid": "888888859120192", "shopId": "34015", "netid": null, "province": 901, "district": 601, "zipcode": null, "telephone": "57861479", "posDate": "200908", "destineTel": null, "togoTel": null, "trafficWay": "\u516c\u4ea4\u677e\u6c5f70\u8def\u3001\u677e\u6cd6\u7ebf", "signBuilding": null, "businessArea": null, "selfRoom": null, "businessTime": null, "stall": null, "consume": null, "serviceFei": null, "favourable": null, "shopMemo": null, "appraise": null, "website": null, "memo": null, "payTypes": "\u6749\u5fb7\u5361", "shopTypes": "\u836f\u5e97", "consumeTypes": null, "cookTypes": null, "orderNum": 1000, "card4no": null, "card4noAcc": null, "district2": 412, "searchScope": null, "status": 1, "address": "\u6cd6\u6e2f\u9547\u4e2d\u5357\u8def49\u53f7", "name": "\u4f59\u5929\u6210 \u6cd6\u6e2f\u836f\u5e97", "id": 144694, "pageNo": 0, "pageCount": null, "pageSize": 10, "ids": null, "endTime": null, "startTime": null}, {"cardNumFive": null, "isSupportYj": null, "cityName": null, "districtName": null, "shopinfo": {"mid": "888888859120199", "good_flag": "1", "new_flag": "1", "short_name": "\u4f59\u5929\u6210", "short_name_pinyin": "yutiancheng", "status": null, "address": null, "name": null, "id": "34016"}, "mid": "888888859120199", "shopId": "34016", "netid": null, "province": 901, "district": 601, "zipcode": null, "telephone": null, "posDate": "20091214", "destineTel": null, "togoTel": null, "trafficWay": null, "signBuilding": null, "businessArea": null, "selfRoom": null, "businessTime": null, "stall": null, "consume": null, "serviceFei": null, "favourable": null, "shopMemo": null, "appraise": null, "website": null, "memo": null, "payTypes": "\u6749\u5fb7\u5361", "shopTypes": "\u836f\u5e97", "consumeTypes": null, "cookTypes": null, "orderNum": 1000, "card4no": null, "card4noAcc": null, "district2": 412, "searchScope": null, "status": 1, "address": "\u8f66\u58a9\u9547\u5317\u677e\u516c\u8def7169\u53f7A\u680b", "name": "\u4f59\u5929\u6210 \u7f8e\u5fb7\u9686\u836f\u5e97", "id": 144695, "pageNo": 0, "pageCount": null, "pageSize": 10, "ids": null, "endTime": null, "startTime": null}, {"cardNumFive": null, "isSupportYj": null, "cityName": null, "districtName": null, "shopinfo": {"mid": "888888859120192", "good_flag": "2", "new_flag": "2", "short_name": "\u4f59\u5929\u6210", "short_name_pinyin": "yutiancheng", "status": null, "address": null, "name": null, "id": "34015"}, "mid": "888888859120192", "shopId": "34015", "netid": null, "province": 901, "district": 601, "zipcode": null, "telephone": "57601394", "posDate": "200908", "destineTel": null, "togoTel": null, "trafficWay": "\u516c\u4ea4\u8398\u91d1\u4e13\u7ebf\u3001\u6caa\u91d1\u7ebf", "signBuilding": null, "businessArea": null, "selfRoom": null, "businessTime": null, "stall": null, "consume": null, "serviceFei": null, "favourable": null, "shopMemo": null, "appraise": null, "website": null, "memo": null, "payTypes": "\u6749\u5fb7\u5361", "shopTypes": "\u836f\u5e97", "consumeTypes": null, "cookTypes": null, "orderNum": 1000, "card4no": null, "card4noAcc": null, "district2": 412, "searchScope": null, "status": 1, "address": "\u8f66\u58a9\u9547\u866c\u957f\u8def338~340\u53f7", "name": "\u4f59\u5929\u6210 \u866c\u957f\u836f\u5e97", "id": 144698, "pageNo": 0, "pageCount": null, "pageSize": 10, "ids": null, "endTime": null, "startTime": null}, {"cardNumFive": null, "isSupportYj": null, "cityName": null, "districtName": null, "shopinfo": {"mid": "888888859120192", "good_flag": "2", "new_flag": "2", "short_name": "\u4f59\u5929\u6210", "short_name_pinyin": "yutiancheng", "status": null, "address": null, "name": null, "id": "34015"}, "mid": "888888859120192", "shopId": "34015", "netid": null, "province": 901, "district": 601, "zipcode": null, "telephone": "37601181", "posDate": "200908", "destineTel": null, "togoTel": null, "trafficWay": "\u516c\u4ea4\u677e\u6c5f6\u8def\u3001\u677e\u6c5f10\u8def\u533a\u95f4", "signBuilding": null, "businessArea": null, "selfRoom": null, "businessTime": null, "stall": null, "consume": null, "serviceFei": null, "favourable": null, "shopMemo": null, "appraise": null, "website": null, "memo": null, "payTypes": "\u6749\u5fb7\u5361", "shopTypes": "\u836f\u5e97", "consumeTypes": null, "cookTypes": null, "orderNum": 1000, "card4no": null, "card4noAcc": null, "district2": 412, "searchScope": null, "status": 1, "address": "\u8338\u6c5f\u8def930\u5f041\u53f7", "name": "\u4f59\u5929\u6210 \u8338\u6c5f\u8def\u5e97", "id": 144699, "pageNo": 0, "pageCount": null, "pageSize": 10, "ids": null, "endTime": null, "startTime": null}, {"cardNumFive": null, "isSupportYj": null, "cityName": null, "districtName": null, "shopinfo": {"mid": "888002159121178", "good_flag": "2", "new_flag": "2", "short_name": "\u4f59\u5929\u6210", "short_name_pinyin": "yutiancheng", "status": null, "address": null, "name": null, "id": "34018"}, "mid": "888002159121178", "shopId": "34018", "netid": null, "province": 901, "district": 601, "zipcode": null, "telephone": "37705531", "posDate": "200911", "destineTel": null, "togoTel": null, "trafficWay": null, "signBuilding": null, "businessArea": null, "selfRoom": null, "businessTime": null, "stall": null, "consume": null, "serviceFei": null, "favourable": null, "shopMemo": null, "appraise": null, "website": null, "memo": null, "payTypes": "\u6749\u5fb7\u5361", "shopTypes": "\u836f\u5e97", "consumeTypes": null, "cookTypes": null, "orderNum": 1000, "card4no": null, "card4noAcc": null, "district2": 412, "searchScope": null, "status": 1, "address": "\u6d9e\u574a\u8def1039\u53f7", "name": "\u4f59\u5929\u6210 \u5c1a\u4e1c\u836f\u5e97", "id": 144701, "pageNo": 0, "pageCount": null, "pageSize": 10, "ids": null, "endTime": null, "startTime": null}, {"cardNumFive": null, "isSupportYj": null, "cityName": null, "districtName": null, "shopinfo": {"mid": "888002159121180", "good_flag": "1", "new_flag": "1", "short_name": "\u4f59\u5929\u6210", "short_name_pinyin": "yutiancheng", "status": null, "address": null, "name": null, "id": "34019"}, "mid": "888002159121180", "shopId": "34019", "netid": null, "province": 901, "district": 601, "zipcode": null, "telephone": null, "posDate": "20091207", "destineTel": null, "togoTel": null, "trafficWay": null, "signBuilding": null, "businessArea": null, "selfRoom": null, "businessTime": null, "stall": null, "consume": null, "serviceFei": null, "favourable": null, "shopMemo": null, "appraise": null, "website": null, "memo": null, "payTypes": "\u6749\u5fb7\u5361", "shopTypes": "\u836f\u5e97", "consumeTypes": null, "cookTypes": null, "orderNum": 1000, "card4no": null, "card4noAcc": null, "district2": 412, "searchScope": null, "status": 1, "address": "\u4e5d\u4ead\u9547\u4e5d\u65b0\u516c\u8def23.25\u53f7", "name": "\u4f59\u5929\u6210 \u76db\u5927\u836f\u623f", "id": 144702, "pageNo": 0, "pageCount": null, "pageSize": 10, "ids": null, "endTime": null, "startTime": null}, {"cardNumFive": null, "isSupportYj": null, "cityName": null, "districtName": null, "shopinfo": {"mid": "888888859120192", "good_flag": "2", "new_flag": "2", "short_name": "\u4f59\u5929\u6210", "short_name_pinyin": "yutiancheng", "status": null, "address": null, "name": null, "id": "34015"}, "mid": "888888859120192", "shopId": "34015", "netid": null, "province": 901, "district": 601, "zipcode": null, "telephone": "57752202", "posDate": "200908", "destineTel": null, "togoTel": null, "trafficWay": "\u516c\u4ea4\u6caa\u536b\u7ebf\u3001\u6731\u536b\u4e13\u7ebf", "signBuilding": null, "businessArea": null, "selfRoom": null, "businessTime": null, "stall": null, "consume": null, "serviceFei": null, "favourable": null, "shopMemo": null, "appraise": null, "website": null, "memo": null, "payTypes": "\u6749\u5fb7\u5361", "shopTypes": "\u836f\u5e97", "consumeTypes": null, "cookTypes": null, "orderNum": 1000, "card4no": null, "card4noAcc": null, "district2": 412, "searchScope": null, "status": 1, "address": "\u77f3\u6e56\u8361\u9547\u5b66\u5e9c\u8def122\u53f7", "name": "\u4f59\u5929\u6210 \u77f3\u6e56\u8361\u836f\u5e97", "id": 144703, "pageNo": 0, "pageCount": null, "pageSize": 10, "ids": null, "endTime": null, "startTime": null}, {"cardNumFive": null, "isSupportYj": null, "cityName": null, "districtName": null, "shopinfo": {"mid": "888888859120192", "good_flag": "2", "new_flag": "2", "short_name": "\u4f59\u5929\u6210", "short_name_pinyin": "yutiancheng", "status": null, "address": null, "name": null, "id": "34015"}, "mid": "888888859120192", "shopId": "34015", "netid": null, "province": 901, "district": 601, "zipcode": null, "telephone": "57610031", "posDate": "200908", "destineTel": null, "togoTel": null, "trafficWay": "\u516c\u4ea4\u677e\u6c5f47\u8def\u3001\u6caa\u9648\u7ebf", "signBuilding": null, "businessArea": null, "selfRoom": null, "businessTime": null, "stall": null, "consume": null, "serviceFei": null, "favourable": null, "shopMemo": null, "appraise": null, "website": null, "memo": null, "payTypes": "\u6749\u5fb7\u5361", "shopTypes": "\u836f\u5e97", "consumeTypes": null, "cookTypes": null, "orderNum": 1000, "card4no": null, "card4noAcc": null, "district2": 412, "searchScope": null, "status": 1, "address": "\u6cd7\u6cfe\u9547\u6c5f\u5ddd\u5317\u8def127-129\u53f7", "name": "\u4f59\u5929\u6210 \u6cd7\u6cfe\u836f\u5e97", "id": 144704, "pageNo": 0, "pageCount": null, "pageSize": 10, "ids": null, "endTime": null, "startTime": null}, {"cardNumFive": null, "isSupportYj": null, "cityName": null, "districtName": null, "shopinfo": {"mid": "888888859120192", "good_flag": "2", "new_flag": "2", "short_name": "\u4f59\u5929\u6210", "short_name_pinyin": "yutiancheng", "status": null, "address": null, "name": null, "id": "34015"}, "mid": "888888859120192", "shopId": "34015", "netid": null, "province": 901, "district": 601, "zipcode": null, "telephone": "57841304", "posDate": "200908", "destineTel": null, "togoTel": null, "trafficWay": "\u516c\u4ea4\u677e\u6cd6\u7ebf", "signBuilding": null, "businessArea": null, "selfRoom": null, "businessTime": null, "stall": null, "consume": null, "serviceFei": null, "favourable": null, "shopMemo": null, "appraise": null, "website": null, "memo": null, "payTypes": "\u6749\u5fb7\u5361", "shopTypes": "\u836f\u5e97", "consumeTypes": null, "cookTypes": null, "orderNum": 1000, "card4no": null, "card4noAcc": null, "district2": 412, "searchScope": null, "status": 1, "address": "\u5854\u6c47\u9547\u674e\u5854\u6c47\u8857186\u53f7", "name": "\u4f59\u5929\u6210 \u5854\u6c47\u836f\u5e97", "id": 144706, "pageNo": 0, "pageCount": null, "pageSize": 10, "ids": null, "endTime": null, "startTime": null}, {"cardNumFive": null, "isSupportYj": null, "cityName": null, "districtName": null, "shopinfo": {"mid": "888888859120192", "good_flag": "2", "new_flag": "2", "short_name": "\u4f59\u5929\u6210", "short_name_pinyin": "yutiancheng", "status": null, "address": null, "name": null, "id": "34015"}, "mid": "888888859120192", "shopId": "34015", "netid": null, "province": 901, "district": 601, "zipcode": null, "telephone": "67708522", "posDate": "200908", "destineTel": null, "togoTel": null, "trafficWay": "\u516c\u4ea4", "signBuilding": null, "businessArea": null, "selfRoom": null, "businessTime": null, "stall": null, "consume": null, "serviceFei": null, "favourable": null, "shopMemo": null, "appraise": null, "website": null, "memo": null, "payTypes": "\u6749\u5fb7\u5361", "shopTypes": "\u836f\u5e97", "consumeTypes": null, "cookTypes": null, "orderNum": 1000, "card4no": null, "card4noAcc": null, "district2": 412, "searchScope": null, "status": 1, "address": "\u6587\u6c47\u8def\u5b66\u751f\u8857\u4e5d\u53f7\u5730\u5757\u5e95\u697c4\u53f7\u5e97\u94fa", "name": "\u4f59\u5929\u6210 \u6587\u6c47\u836f\u5e97", "id": 144707, "pageNo": 0, "pageCount": null, "pageSize": 10, "ids": null, "endTime": null, "startTime": null}], "pageLimit": 10770, "size": 10}