{"pageCount": 1095, "count": 10942, "pageNo": 1073, "subShopInfo": {"cardNumFive": "", "isSupportYj": "", "cityName": null, "districtName": null, "shopinfo": {"mid": null, "good_flag": null, "new_flag": null, "short_name": null, "short_name_pinyin": null, "status": null, "address": "", "name": "", "id": null}, "mid": null, "shopId": null, "netid": null, "province": 901, "district": null, "zipcode": null, "telephone": null, "posDate": null, "destineTel": null, "togoTel": null, "trafficWay": null, "signBuilding": null, "businessArea": null, "selfRoom": null, "businessTime": null, "stall": null, "consume": null, "serviceFei": null, "favourable": null, "shopMemo": "1", "appraise": null, "website": null, "memo": null, "payTypes": "", "shopTypes": "", "consumeTypes": null, "cookTypes": null, "orderNum": null, "card4no": null, "card4noAcc": null, "district2": null, "searchScope": null, "status": null, "address": "", "name": null, "id": null, "pageNo": 1072, "pageCount": null, "pageSize": 10, "ids": null, "endTime": null, "startTime": null}, "list": [{"cardNumFive": null, "isSupportYj": null, "cityName": null, "districtName": null, "shopinfo": {"mid": "888888857320007", "good_flag": "1", "new_flag": "2", "short_name": "\u6c38\u4e50", "short_name_pinyin": "yongle", "status": null, "address": null, "name": null, "id": "33993"}, "mid": "888888857320007", "shopId": "33993", "netid": null, "province": 901, "district": 601, "zipcode": null, "telephone": "\u5168\u56fd\u670d\u52a1\u70ed\u7ebf\uff1a4008-11-3336", "posDate": "20071107", "destineTel": null, "togoTel": null, "trafficWay": "\u4e0a\u6731\u7ebf \u65c5\u6e384\u53f7\u7ebf", "signBuilding": null, "businessArea": null, "selfRoom": null, "businessTime": "9:00~22:00", "stall": "\u6709", "consume": null, "serviceFei": null, "favourable": null, "shopMemo": null, "appraise": null, "website": null, "memo": null, "payTypes": "\u6749\u5fb7\u5361", "shopTypes": "\u4e13\u5356", "consumeTypes": null, "cookTypes": null, "orderNum": 1000, "card4no": null, "card4noAcc": null, "district2": 417, "searchScope": null, "status": 1, "address": "\u73af\u57ce\u4e1c\u8def158\u53f7", "name": "\u6c38\u4e50 \u9752\u6d66\u5e97", "id": 144604, "pageNo": 0, "pageCount": null, "pageSize": 10, "ids": null, "endTime": null, "startTime": null}, {"cardNumFive": null, "isSupportYj": null, "cityName": null, "districtName": null, "shopinfo": {"mid": "888888857320007", "good_flag": "1", "new_flag": "2", "short_name": "\u6c38\u4e50", "short_name_pinyin": "yongle", "status": null, "address": null, "name": null, "id": "33993"}, "mid": "888888857320007", "shopId": "33993", "netid": null, "province": 901, "district": 601, "zipcode": null, "telephone": "\u5168\u56fd\u670d\u52a1\u70ed\u7ebf\uff1a4008-11-3336", "posDate": "20071105", "destineTel": "50139632", "togoTel": null, "trafficWay": "\u4e07\u91ce\u7ebf \u6caa\u6d77\u7ebf \u516c\u4ea4955", "signBuilding": null, "businessArea": null, "selfRoom": null, "businessTime": "9:00~22:00", "stall": "\u6709", "consume": null, "serviceFei": null, "favourable": null, "shopMemo": null, "appraise": null, "website": null, "memo": null, "payTypes": "\u6749\u5fb7\u5361", "shopTypes": "\u4e13\u5356", "consumeTypes": null, "cookTypes": null, "orderNum": 1000, "card4no": null, "card4noAcc": null, "district2": 418, "searchScope": null, "status": 1, "address": "\u4e09\u6797\u8def478\u53f7", "name": "\u6c38\u4e50 \u4e09\u6797\u5e97", "id": 144608, "pageNo": 0, "pageCount": null, "pageSize": 10, "ids": null, "endTime": null, "startTime": null}, {"cardNumFive": null, "isSupportYj": null, "cityName": null, "districtName": null, "shopinfo": {"mid": "888888857320007", "good_flag": "1", "new_flag": "2", "short_name": "\u6c38\u4e50", "short_name_pinyin": "yongle", "status": null, "address": null, "name": null, "id": "33993"}, "mid": "888888857320007", "shopId": "33993", "netid": null, "province": 901, "district": 601, "zipcode": null, "telephone": "\u5168\u56fd\u670d\u52a1\u70ed\u7ebf\uff1a4008-11-3336", "posDate": "20071105", "destineTel": null, "togoTel": null, "trafficWay": "\u4e07\u91ce\u7ebf \u6caa\u6d77\u7ebf \u516c\u4ea4955", "signBuilding": null, "businessArea": null, "selfRoom": null, "businessTime": "9:00~22:00", "stall": "\u6709", "consume": null, "serviceFei": null, "favourable": null, "shopMemo": null, "appraise": null, "website": null, "memo": null, "payTypes": "\u6749\u5fb7\u5361", "shopTypes": "\u4e13\u5356", "consumeTypes": null, "cookTypes": null, "orderNum": 1000, "card4no": null, "card4noAcc": null, "district2": 418, "searchScope": null, "status": 1, "address": "\u4e0a\u5357\u8def2954\u53f7", "name": "\u6c38\u4e50 \u4e0a\u5357\u5e97", "id": 144609, "pageNo": 0, "pageCount": null, "pageSize": 10, "ids": null, "endTime": null, "startTime": null}, {"cardNumFive": null, "isSupportYj": null, "cityName": null, "districtName": null, "shopinfo": {"mid": "888888857320007", "good_flag": "1", "new_flag": "2", "short_name": "\u6c38\u4e50", "short_name_pinyin": "yongle", "status": null, "address": null, "name": null, "id": "33993"}, "mid": "888888857320007", "shopId": "33993", "netid": null, "province": 901, "district": 601, "zipcode": null, "telephone": "\u5168\u56fd\u670d\u52a1\u70ed\u7ebf\uff1a4008-11-3336", "posDate": "20071109", "destineTel": null, "togoTel": null, "trafficWay": "\u65c5\u6e381A\u7ebf \u677e\u6885\u7ebf", "signBuilding": null, "businessArea": null, "selfRoom": null, "businessTime": "9:00~22:00", "stall": "\u6709", "consume": null, "serviceFei": null, "favourable": null, "shopMemo": null, "appraise": null, "website": null, "memo": null, "payTypes": "\u6749\u5fb7\u5361", "shopTypes": "\u4e13\u5356", "consumeTypes": null, "cookTypes": null, "orderNum": 1000, "card4no": null, "card4noAcc": null, "district2": 412, "searchScope": null, "status": 1, "address": "\u4eba\u6c11\u5317\u8def\u62db\u5546\u5e02\u573a\u5185", "name": "\u6c38\u4e50 \u677e\u6c5f\u5e97", "id": 144611, "pageNo": 0, "pageCount": null, "pageSize": 10, "ids": null, "endTime": null, "startTime": null}, {"cardNumFive": null, "isSupportYj": null, "cityName": null, "districtName": null, "shopinfo": {"mid": "888888857320007", "good_flag": "1", "new_flag": "2", "short_name": "\u6c38\u4e50", "short_name_pinyin": "yongle", "status": null, "address": null, "name": null, "id": "33993"}, "mid": "888888857320007", "shopId": "33993", "netid": null, "province": 901, "district": 601, "zipcode": null, "telephone": "\u5168\u56fd\u670d\u52a1\u70ed\u7ebf\uff1a4008-11-3336", "posDate": "20071112", "destineTel": null, "togoTel": null, "trafficWay": "\u516c\u4ea4101 \u5730\u94c1\u4e09\u53f7\u7ebf", "signBuilding": null, "businessArea": null, "selfRoom": null, "businessTime": "9:00~22:00", "stall": "\u6709", "consume": null, "serviceFei": null, "favourable": null, "shopMemo": null, "appraise": null, "website": null, "memo": null, "payTypes": "\u6749\u5fb7\u5361", "shopTypes": "\u4e13\u5356", "consumeTypes": null, "cookTypes": null, "orderNum": 1000, "card4no": null, "card4noAcc": null, "district2": 416, "searchScope": null, "status": 1, "address": "\u957f\u9038\u8def15\u53f7", "name": "\u6c38\u4e50 \u51c7\u5357\u5e97", "id": 144612, "pageNo": 0, "pageCount": null, "pageSize": 10, "ids": null, "endTime": null, "startTime": null}, {"cardNumFive": null, "isSupportYj": null, "cityName": null, "districtName": null, "shopinfo": {"mid": "888888857320007", "good_flag": "1", "new_flag": "2", "short_name": "\u6c38\u4e50", "short_name_pinyin": "yongle", "status": null, "address": null, "name": null, "id": "33993"}, "mid": "888888857320007", "shopId": "33993", "netid": null, "province": 901, "district": 601, "zipcode": null, "telephone": "\u5168\u56fd\u670d\u52a1\u70ed\u7ebf\uff1a4008-11-3336", "posDate": "20080130", "destineTel": null, "togoTel": null, "trafficWay": "\u516c\u4ea443 931", "signBuilding": null, "businessArea": null, "selfRoom": null, "businessTime": "9:00~22:00", "stall": "\u6709", "consume": null, "serviceFei": null, "favourable": null, "shopMemo": null, "appraise": null, "website": null, "memo": null, "payTypes": "\u6749\u5fb7\u5361", "shopTypes": "\u4e13\u5356", "consumeTypes": null, "cookTypes": null, "orderNum": 1000, "card4no": null, "card4noAcc": null, "district2": 401, "searchScope": null, "status": 1, "address": "\u897f\u85cf\u5357\u8def666\u5f04", "name": "\u6c38\u4e50 \u897f\u95e8\u5e97", "id": 144618, "pageNo": 0, "pageCount": null, "pageSize": 10, "ids": null, "endTime": null, "startTime": null}, {"cardNumFive": null, "isSupportYj": null, "cityName": null, "districtName": null, "shopinfo": {"mid": "888888857320007", "good_flag": "1", "new_flag": "2", "short_name": "\u6c38\u4e50", "short_name_pinyin": "yongle", "status": null, "address": null, "name": null, "id": "33993"}, "mid": "888888857320007", "shopId": "33993", "netid": null, "province": 901, "district": 601, "zipcode": null, "telephone": "\u5168\u56fd\u670d\u52a1\u70ed\u7ebf\uff1a4008-11-3336", "posDate": "20071108", "destineTel": null, "togoTel": null, "trafficWay": "\u516c\u4ea4836 855 808", "signBuilding": null, "businessArea": null, "selfRoom": null, "businessTime": "9:00~22:00", "stall": "\u6709", "consume": null, "serviceFei": null, "favourable": null, "shopMemo": null, "appraise": null, "website": null, "memo": null, "payTypes": "\u6749\u5fb7\u5361", "shopTypes": "\u4e13\u5356", "consumeTypes": null, "cookTypes": null, "orderNum": 1000, "card4no": null, "card4noAcc": null, "district2": 406, "searchScope": null, "status": 1, "address": "\u4ed9\u971e\u897f\u8def88\u53f7\u767e\u8054\u897f\u90ca\u8d2d\u7269\u4e2d\u5fc3\u5185\u7b2c\u4e09\u5c42", "name": "\u6c38\u4e50 \u4ed9\u971e\u5e97", "id": 144619, "pageNo": 0, "pageCount": null, "pageSize": 10, "ids": null, "endTime": null, "startTime": null}, {"cardNumFive": null, "isSupportYj": null, "cityName": null, "districtName": null, "shopinfo": {"mid": "888888857320007", "good_flag": "1", "new_flag": "2", "short_name": "\u6c38\u4e50", "short_name_pinyin": "yongle", "status": null, "address": null, "name": null, "id": "33993"}, "mid": "888888857320007", "shopId": "33993", "netid": null, "province": 901, "district": 601, "zipcode": null, "telephone": "\u5168\u56fd\u670d\u52a1\u70ed\u7ebf\uff1a4008-11-3336", "posDate": "20071112", "destineTel": null, "togoTel": null, "trafficWay": "\u516c\u4ea4145 220", "signBuilding": null, "businessArea": null, "selfRoom": null, "businessTime": "9:00~22:00", "stall": "\u6709", "consume": null, "serviceFei": null, "favourable": null, "shopMemo": null, "appraise": null, "website": null, "memo": null, "payTypes": "\u6749\u5fb7\u5361", "shopTypes": "\u4e13\u5356", "consumeTypes": null, "cookTypes": null, "orderNum": 1000, "card4no": null, "card4noAcc": null, "district2": 407, "searchScope": null, "status": 1, "address": "\u63a7\u6c5f\u8def1211\u53f7", "name": "\u6c38\u4e50 \u6768\u6d66\u5e97", "id": 144623, "pageNo": 0, "pageCount": null, "pageSize": 10, "ids": null, "endTime": null, "startTime": null}, {"cardNumFive": null, "isSupportYj": null, "cityName": null, "districtName": null, "shopinfo": {"mid": "888888857320007", "good_flag": "1", "new_flag": "2", "short_name": "\u6c38\u4e50", "short_name_pinyin": "yongle", "status": null, "address": null, "name": null, "id": "33993"}, "mid": "888888857320007", "shopId": "33993", "netid": null, "province": 901, "district": 601, "zipcode": null, "telephone": "\u5168\u56fd\u670d\u52a1\u70ed\u7ebf\uff1a4008-11-3336", "posDate": "20071025", "destineTel": null, "togoTel": null, "trafficWay": "\u516c\u4ea4 946 754 \u5730\u94c1\u56db\u53f7\u7ebf", "signBuilding": null, "businessArea": null, "selfRoom": null, "businessTime": "9:00~22:00", "stall": "\u6709", "consume": null, "serviceFei": null, "favourable": null, "shopMemo": null, "appraise": null, "website": null, "memo": null, "payTypes": "\u6749\u5fb7\u5361", "shopTypes": "\u4e13\u5356", "consumeTypes": null, "cookTypes": null, "orderNum": 1000, "card4no": null, "card4noAcc": null, "district2": 406, "searchScope": null, "status": 1, "address": "\u957f\u5b81\u8def1018\u53f7B1-B2", "name": "\u6c38\u4e50 \u4e2d\u5c71\u516c\u56ed\u5e97", "id": 144625, "pageNo": 0, "pageCount": null, "pageSize": 10, "ids": null, "endTime": null, "startTime": null}, {"cardNumFive": null, "isSupportYj": null, "cityName": null, "districtName": null, "shopinfo": {"mid": "888888857320007", "good_flag": "1", "new_flag": "2", "short_name": "\u6c38\u4e50", "short_name_pinyin": "yongle", "status": null, "address": null, "name": null, "id": "33993"}, "mid": "888888857320007", "shopId": "33993", "netid": null, "province": 901, "district": 601, "zipcode": null, "telephone": "\u5168\u56fd\u670d\u52a1\u70ed\u7ebf\uff1a4008-11-3336", "posDate": "20071109", "destineTel": null, "togoTel": null, "trafficWay": "\u83b2\u6731\u7ebf \u8398\u91d1\u7ebf", "signBuilding": null, "businessArea": null, "selfRoom": null, "businessTime": "9:00~22:00", "stall": "\u6709", "consume": null, "serviceFei": null, "favourable": null, "shopMemo": null, "appraise": null, "website": null, "memo": null, "payTypes": "\u6749\u5fb7\u5361", "shopTypes": "\u4e13\u5356", "consumeTypes": null, "cookTypes": null, "orderNum": 1000, "card4no": null, "card4noAcc": null, "district2": 414, "searchScope": null, "status": 1, "address": "\u6731\u6cfe\u9547\u4e07\u8857845\u53f7", "name": "\u6c38\u4e50 \u6731\u6cfe\u5e97", "id": 144628, "pageNo": 0, "pageCount": null, "pageSize": 10, "ids": null, "endTime": null, "startTime": null}], "pageLimit": 10720, "size": 10}