{"pageCount": 1095, "count": 10942, "pageNo": 1075, "subShopInfo": {"cardNumFive": "", "isSupportYj": "", "cityName": null, "districtName": null, "shopinfo": {"mid": null, "good_flag": null, "new_flag": null, "short_name": null, "short_name_pinyin": null, "status": null, "address": "", "name": "", "id": null}, "mid": null, "shopId": null, "netid": null, "province": 901, "district": null, "zipcode": null, "telephone": null, "posDate": null, "destineTel": null, "togoTel": null, "trafficWay": null, "signBuilding": null, "businessArea": null, "selfRoom": null, "businessTime": null, "stall": null, "consume": null, "serviceFei": null, "favourable": null, "shopMemo": "1", "appraise": null, "website": null, "memo": null, "payTypes": "", "shopTypes": "", "consumeTypes": null, "cookTypes": null, "orderNum": null, "card4no": null, "card4noAcc": null, "district2": null, "searchScope": null, "status": null, "address": "", "name": null, "id": null, "pageNo": 1074, "pageCount": null, "pageSize": 10, "ids": null, "endTime": null, "startTime": null}, "list": [{"cardNumFive": null, "isSupportYj": null, "cityName": null, "districtName": null, "shopinfo": {"mid": "888888850940035", "good_flag": null, "new_flag": null, "short_name": "\u6709\u91d1\u4eba\u5bb6", "short_name_pinyin": "youjinrenjia", "status": null, "address": null, "name": null, "id": "34010"}, "mid": "888888850940035", "shopId": "34010", "netid": null, "province": 901, "district": 601, "zipcode": null, "telephone": "63914775", "posDate": "20090514", "destineTel": null, "togoTel": null, "trafficWay": null, "signBuilding": null, "businessArea": "300", "selfRoom": null, "businessTime": "9:30~21:30", "stall": null, "consume": null, "serviceFei": null, "favourable": null, "shopMemo": null, "appraise": null, "website": null, "memo": null, "payTypes": "\u6749\u5fb7\u5361", "shopTypes": "\u670d\u9970\u5bb6\u7eba", "consumeTypes": null, "cookTypes": null, "orderNum": 1000, "card4no": null, "card4noAcc": null, "district2": 401, "searchScope": null, "status": 1, "address": "\u798f\u5dde\u8def465\u53f7", "name": "\u6709\u91d1\u4eba\u5bb6 \u798f\u5dde\u8def\u5e97", "id": 144668, "pageNo": 0, "pageCount": null, "pageSize": 10, "ids": null, "endTime": null, "startTime": null}, {"cardNumFive": null, "isSupportYj": null, "cityName": null, "districtName": null, "shopinfo": {"mid": "888888856910094", "good_flag": "2", "new_flag": "2", "short_name": "Young\u751f\u6d3b\u9986", "short_name_pinyin": "youngshenghuoguan", "status": null, "address": null, "name": null, "id": "31102"}, "mid": "888888856910094", "shopId": "31102", "netid": null, "province": 901, "district": 601, "zipcode": null, "telephone": "64356807/54166674", "posDate": "20090203", "destineTel": null, "togoTel": null, "trafficWay": "\u516c\u4ea4171 753 946", "signBuilding": null, "businessArea": null, "selfRoom": null, "businessTime": null, "stall": null, "consume": null, "serviceFei": null, "favourable": null, "shopMemo": null, "appraise": null, "website": null, "memo": null, "payTypes": "\u6749\u5fb7\u5361", "shopTypes": "\u4e13\u5356", "consumeTypes": null, "cookTypes": null, "orderNum": 1000, "card4no": null, "card4noAcc": null, "district2": 409, "searchScope": null, "status": 1, "address": "\u987e\u6234\u8def1216\u53f7", "name": "Young\u751f\u6d3b\u9986 \u987e\u6234\u5e97", "id": 132145, "pageNo": 0, "pageCount": null, "pageSize": 10, "ids": null, "endTime": null, "startTime": null}, {"cardNumFive": null, "isSupportYj": null, "cityName": null, "districtName": null, "shopinfo": {"mid": "888888853110071", "good_flag": "2", "new_flag": "2", "short_name": "\u53cb\u8c0a\u767e\u8d27", "short_name_pinyin": "youyibaihuo", "status": null, "address": null, "name": null, "id": "34005"}, "mid": "888888853110071", "shopId": "34005", "netid": null, "province": 901, "district": 601, "zipcode": null, "telephone": "62586310", "posDate": "20090304", "destineTel": null, "togoTel": null, "trafficWay": null, "signBuilding": null, "businessArea": null, "selfRoom": null, "businessTime": null, "stall": null, "consume": null, "serviceFei": null, "favourable": null, "shopMemo": null, "appraise": null, "website": null, "memo": null, "payTypes": "\u6749\u5fb7\u5361", "shopTypes": "\u767e\u8d27", "consumeTypes": null, "cookTypes": null, "orderNum": 1000, "card4no": null, "card4noAcc": null, "district2": 404, "searchScope": null, "status": 1, "address": "\u534e\u5c71\u8def9\u53f7", "name": "\u53cb\u8c0a\u767e\u8d27 \u534e\u5c71\u5e97", "id": 144657, "pageNo": 0, "pageCount": null, "pageSize": 10, "ids": null, "endTime": null, "startTime": null}, {"cardNumFive": null, "isSupportYj": null, "cityName": null, "districtName": null, "shopinfo": {"mid": "888002153110188", "good_flag": "2", "new_flag": "2", "short_name": "\u53c8\u4e00\u57ce", "short_name_pinyin": "youyicheng", "status": null, "address": null, "name": null, "id": "439449392890511360"}, "mid": "888002153110188", "shopId": "439449392890511360", "netid": null, "province": 901, "district": 601, "zipcode": null, "telephone": null, "posDate": null, "destineTel": null, "togoTel": null, "trafficWay": null, "signBuilding": null, "businessArea": null, "selfRoom": null, "businessTime": null, "stall": null, "consume": null, "serviceFei": null, "favourable": null, "shopMemo": null, "appraise": null, "website": null, "memo": null, "payTypes": "\u6749\u5fb7\u5361,", "shopTypes": "\u767e\u8d27", "consumeTypes": null, "cookTypes": null, "orderNum": null, "card4no": null, "card4noAcc": null, "district2": 407, "searchScope": null, "status": 1, "address": "\u6dde\u6caa\u8def8\u53f7", "name": "\u53c8\u4e00\u57ce", "id": 439449391565111296, "pageNo": 0, "pageCount": null, "pageSize": 10, "ids": null, "endTime": null, "startTime": null}, {"cardNumFive": null, "isSupportYj": null, "cityName": null, "districtName": null, "shopinfo": {"mid": "888002154110693", "good_flag": "2", "new_flag": "2", "short_name": "\u4f18\u5b9c\u5bb6", "short_name_pinyin": "youyijia", "status": null, "address": null, "name": null, "id": "476799497993715712"}, "mid": "888002154110693", "shopId": "476799497993715712", "netid": null, "province": 901, "district": 601, "zipcode": null, "telephone": null, "posDate": null, "destineTel": null, "togoTel": null, "trafficWay": null, "signBuilding": null, "businessArea": null, "selfRoom": null, "businessTime": null, "stall": null, "consume": null, "serviceFei": null, "favourable": null, "shopMemo": null, "appraise": null, "website": null, "memo": null, "payTypes": "", "shopTypes": null, "consumeTypes": null, "cookTypes": null, "orderNum": null, "card4no": null, "card4noAcc": null, "district2": 418, "searchScope": null, "status": 1, "address": "\u4e09\u6797\u9547\u4e09\u6797\u8def744\u53f7", "name": "\u4f18\u5b9c\u5bb6\u4e09\u6797\u5e97", "id": 476799496446017536, "pageNo": 0, "pageCount": null, "pageSize": 10, "ids": null, "endTime": null, "startTime": null}, {"cardNumFive": null, "isSupportYj": null, "cityName": null, "districtName": null, "shopinfo": {"mid": "888002153310264", "good_flag": null, "new_flag": null, "short_name": "\u5143\u534e\u98df\u54c1", "short_name_pinyin": "yuanhuashipin", "status": null, "address": null, "name": null, "id": "38790"}, "mid": "888002153310264", "shopId": "38790", "netid": null, "province": 901, "district": 601, "zipcode": null, "telephone": null, "posDate": null, "destineTel": null, "togoTel": null, "trafficWay": null, "signBuilding": null, "businessArea": null, "selfRoom": null, "businessTime": null, "stall": null, "consume": null, "serviceFei": null, "favourable": null, "shopMemo": null, "appraise": null, "website": null, "memo": null, "payTypes": "\u6749\u5fb7\u5361", "shopTypes": "\u96f6\u552e", "consumeTypes": null, "cookTypes": null, "orderNum": 1000, "card4no": null, "card4noAcc": null, "district2": 409, "searchScope": null, "status": 1, "address": "\u822a\u5317\u8def208\u53f7", "name": "\u5143\u534e\u98df\u54c1 \u822a\u5317\u5e97", "id": 164439, "pageNo": 0, "pageCount": null, "pageSize": 10, "ids": null, "endTime": null, "startTime": null}, {"cardNumFive": null, "isSupportYj": null, "cityName": null, "districtName": null, "shopinfo": {"mid": "888002153310264", "good_flag": null, "new_flag": null, "short_name": "\u5143\u534e\u98df\u54c1", "short_name_pinyin": "yuanhuashipin", "status": null, "address": null, "name": null, "id": "38790"}, "mid": "888002153310264", "shopId": "38790", "netid": null, "province": 901, "district": 601, "zipcode": null, "telephone": null, "posDate": null, "destineTel": null, "togoTel": null, "trafficWay": null, "signBuilding": null, "businessArea": null, "selfRoom": null, "businessTime": null, "stall": null, "consume": null, "serviceFei": null, "favourable": null, "shopMemo": null, "appraise": null, "website": null, "memo": null, "payTypes": "\u6749\u5fb7\u5361", "shopTypes": "\u96f6\u552e", "consumeTypes": null, "cookTypes": null, "orderNum": 1000, "card4no": null, "card4noAcc": null, "district2": 418, "searchScope": null, "status": 1, "address": "\u4e73\u5c71\u8def136\u53f7", "name": "\u5143\u534e\u98df\u54c1 \u4e73\u5c71\u5e97", "id": 164440, "pageNo": 0, "pageCount": null, "pageSize": 10, "ids": null, "endTime": null, "startTime": null}, {"cardNumFive": null, "isSupportYj": null, "cityName": null, "districtName": null, "shopinfo": {"mid": "888002154110383", "good_flag": null, "new_flag": null, "short_name": "\u5143\u534e\u98df\u54c1", "short_name_pinyin": "yuanhuashipin", "status": null, "address": null, "name": null, "id": "38957"}, "mid": "888002154110383", "shopId": "38957", "netid": null, "province": 901, "district": 601, "zipcode": null, "telephone": null, "posDate": null, "destineTel": null, "togoTel": null, "trafficWay": null, "signBuilding": null, "businessArea": null, "selfRoom": null, "businessTime": null, "stall": null, "consume": null, "serviceFei": null, "favourable": null, "shopMemo": null, "appraise": null, "website": null, "memo": null, "payTypes": "\u6749\u5fb7\u5361", "shopTypes": "\u96f6\u552e", "consumeTypes": null, "cookTypes": null, "orderNum": 1000, "card4no": null, "card4noAcc": null, "district2": 410, "searchScope": null, "status": 1, "address": "\u4e09\u6cc9\u8def871\u53f7", "name": "\u5143\u534e\u98df\u54c1 \u5c71\u6cc9\u5e97", "id": 164896, "pageNo": 0, "pageCount": null, "pageSize": 10, "ids": null, "endTime": null, "startTime": null}, {"cardNumFive": null, "isSupportYj": null, "cityName": null, "districtName": null, "shopinfo": {"mid": "888002153310264", "good_flag": null, "new_flag": null, "short_name": "\u5143\u534e\u98df\u54c1", "short_name_pinyin": "yuanhuashipin", "status": null, "address": null, "name": null, "id": "38790"}, "mid": "888002153310264", "shopId": "38790", "netid": null, "province": 901, "district": 601, "zipcode": null, "telephone": null, "posDate": null, "destineTel": null, "togoTel": null, "trafficWay": null, "signBuilding": null, "businessArea": null, "selfRoom": null, "businessTime": null, "stall": null, "consume": null, "serviceFei": null, "favourable": null, "shopMemo": null, "appraise": null, "website": null, "memo": null, "payTypes": "\u6749\u5fb7\u5361", "shopTypes": "\u96f6\u552e", "consumeTypes": null, "cookTypes": null, "orderNum": 1000, "card4no": null, "card4noAcc": null, "district2": 407, "searchScope": null, "status": 1, "address": "\u6bb7\u884c\u8def300\u53f7", "name": "\u5143\u534e\u98df\u54c1 \u6bb7\u884c\u5e97", "id": 182690, "pageNo": 0, "pageCount": null, "pageSize": 10, "ids": null, "endTime": null, "startTime": null}, {"cardNumFive": null, "isSupportYj": null, "cityName": null, "districtName": null, "shopinfo": {"mid": "888002153310264", "good_flag": null, "new_flag": null, "short_name": "\u5143\u534e\u98df\u54c1", "short_name_pinyin": "yuanhuashipin", "status": null, "address": null, "name": null, "id": "38790"}, "mid": "888002153310264", "shopId": "38790", "netid": null, "province": 901, "district": 601, "zipcode": null, "telephone": null, "posDate": null, "destineTel": null, "togoTel": null, "trafficWay": null, "signBuilding": null, "businessArea": null, "selfRoom": null, "businessTime": null, "stall": null, "consume": null, "serviceFei": null, "favourable": null, "shopMemo": null, "appraise": null, "website": null, "memo": null, "payTypes": "\u6749\u5fb7\u5361", "shopTypes": "\u96f6\u552e", "consumeTypes": null, "cookTypes": null, "orderNum": 1000, "card4no": null, "card4noAcc": null, "district2": 418, "searchScope": null, "status": 1, "address": "\u4e1c\u4e09\u91cc\u6865\u8def79\u5f041-6\u53f7", "name": "\u5143\u534e\u98df\u54c1 \u4e1c\u4e09\u91cc\u6865\u5e97", "id": 182691, "pageNo": 0, "pageCount": null, "pageSize": 10, "ids": null, "endTime": null, "startTime": null}], "pageLimit": 10740, "size": 10}