{"pageCount": 1095, "count": 10942, "pageNo": 1072, "subShopInfo": {"cardNumFive": "", "isSupportYj": "", "cityName": null, "districtName": null, "shopinfo": {"mid": null, "good_flag": null, "new_flag": null, "short_name": null, "short_name_pinyin": null, "status": null, "address": "", "name": "", "id": null}, "mid": null, "shopId": null, "netid": null, "province": 901, "district": null, "zipcode": null, "telephone": null, "posDate": null, "destineTel": null, "togoTel": null, "trafficWay": null, "signBuilding": null, "businessArea": null, "selfRoom": null, "businessTime": null, "stall": null, "consume": null, "serviceFei": null, "favourable": null, "shopMemo": "1", "appraise": null, "website": null, "memo": null, "payTypes": "", "shopTypes": "", "consumeTypes": null, "cookTypes": null, "orderNum": null, "card4no": null, "card4noAcc": null, "district2": null, "searchScope": null, "status": null, "address": "", "name": null, "id": null, "pageNo": 1071, "pageCount": null, "pageSize": 10, "ids": null, "endTime": null, "startTime": null}, "list": [{"cardNumFive": null, "isSupportYj": null, "cityName": null, "districtName": null, "shopinfo": {"mid": "888888857320007", "good_flag": "1", "new_flag": "2", "short_name": "\u6c38\u4e50", "short_name_pinyin": "yongle", "status": null, "address": null, "name": null, "id": "33993"}, "mid": "888888857320007", "shopId": "33993", "netid": null, "province": 901, "district": 601, "zipcode": null, "telephone": "\u5168\u56fd\u670d\u52a1\u70ed\u7ebf\uff1a4008-11-3336", "posDate": "20071108", "destineTel": null, "togoTel": null, "trafficWay": "\u5f90\u95f5\u7ebf \u516c\u4ea4712 \u5730\u94c1\u4e00\u53f7\u7ebf", "signBuilding": null, "businessArea": null, "selfRoom": null, "businessTime": "9:00~22:00", "stall": "\u6709", "consume": null, "serviceFei": null, "favourable": null, "shopMemo": null, "appraise": null, "website": null, "memo": null, "payTypes": "\u6749\u5fb7\u5361", "shopTypes": "\u4e13\u5356", "consumeTypes": null, "cookTypes": null, "orderNum": 1000, "card4no": null, "card4noAcc": null, "district2": 403, "searchScope": null, "status": 1, "address": "\u6caa\u95f5\u8def7388\u53f75\u697c", "name": "\u6c38\u4e50 \u6caa\u95f5\u5e97", "id": 144589, "pageNo": 0, "pageCount": null, "pageSize": 10, "ids": null, "endTime": null, "startTime": null}, {"cardNumFive": null, "isSupportYj": null, "cityName": null, "districtName": null, "shopinfo": {"mid": "888888857320007", "good_flag": "1", "new_flag": "2", "short_name": "\u6c38\u4e50", "short_name_pinyin": "yongle", "status": null, "address": null, "name": null, "id": "33993"}, "mid": "888888857320007", "shopId": "33993", "netid": null, "province": 901, "district": 601, "zipcode": null, "telephone": "\u5168\u56fd\u670d\u52a1\u70ed\u7ebf\uff1a4008-11-3336", "posDate": "20071114", "destineTel": null, "togoTel": null, "trafficWay": "\u516c\u4ea4923 737 \u5317\u534e\u7ebf", "signBuilding": null, "businessArea": null, "selfRoom": null, "businessTime": "9:00~22:00", "stall": "\u6709", "consume": null, "serviceFei": null, "favourable": null, "shopMemo": null, "appraise": null, "website": null, "memo": null, "payTypes": "\u6749\u5fb7\u5361", "shopTypes": "\u4e13\u5356", "consumeTypes": null, "cookTypes": null, "orderNum": 1000, "card4no": null, "card4noAcc": null, "district2": 410, "searchScope": null, "status": 1, "address": "\u6caa\u592a\u8def1598-1608\u53f7", "name": "\u6c38\u4e50 \u6caa\u592a\u5e97", "id": 144590, "pageNo": 0, "pageCount": null, "pageSize": 10, "ids": null, "endTime": null, "startTime": null}, {"cardNumFive": null, "isSupportYj": null, "cityName": null, "districtName": null, "shopinfo": {"mid": "888888857320007", "good_flag": "1", "new_flag": "2", "short_name": "\u6c38\u4e50", "short_name_pinyin": "yongle", "status": null, "address": null, "name": null, "id": "33993"}, "mid": "888888857320007", "shopId": "33993", "netid": null, "province": 901, "district": 601, "zipcode": null, "telephone": "\u5168\u56fd\u670d\u52a1\u70ed\u7ebf\uff1a4008-11-3336", "posDate": "20080626", "destineTel": null, "togoTel": null, "trafficWay": "\u516c\u4ea4974 741 58", "signBuilding": null, "businessArea": null, "selfRoom": null, "businessTime": "9:00~22:00", "stall": "\u6709", "consume": null, "serviceFei": null, "favourable": null, "shopMemo": null, "appraise": null, "website": null, "memo": null, "payTypes": "\u6749\u5fb7\u5361", "shopTypes": "\u4e13\u5356", "consumeTypes": null, "cookTypes": null, "orderNum": 1000, "card4no": null, "card4noAcc": null, "district2": 410, "searchScope": null, "status": 1, "address": "\u6caa\u592a\u8def655\u5f042-3\u53f71F-3F", "name": "\u6c38\u4e50 \u6caa\u592a\u65d7\u8230\u5e97", "id": 144591, "pageNo": 0, "pageCount": null, "pageSize": 10, "ids": null, "endTime": null, "startTime": null}, {"cardNumFive": null, "isSupportYj": null, "cityName": null, "districtName": null, "shopinfo": {"mid": "888888857320007", "good_flag": "1", "new_flag": "2", "short_name": "\u6c38\u4e50", "short_name_pinyin": "yongle", "status": null, "address": null, "name": null, "id": "33993"}, "mid": "888888857320007", "shopId": "33993", "netid": null, "province": 901, "district": 601, "zipcode": null, "telephone": "\u5168\u56fd\u670d\u52a1\u70ed\u7ebf\uff1a4008-11-3336", "posDate": "20071224", "destineTel": null, "togoTel": null, "trafficWay": "\u65b0\u5609\u7ebf \u5317\u5609\u7ebf \u4e0a\u5609\u7ebf", "signBuilding": null, "businessArea": null, "selfRoom": null, "businessTime": null, "stall": null, "consume": null, "serviceFei": null, "favourable": null, "shopMemo": null, "appraise": null, "website": null, "memo": null, "payTypes": "\u6749\u5fb7\u5361", "shopTypes": "\u4e13\u5356", "consumeTypes": null, "cookTypes": null, "orderNum": 1000, "card4no": null, "card4noAcc": null, "district2": 411, "searchScope": null, "status": 1, "address": "\u6caa\u5b9c\u516c\u8def3158\u53f7", "name": "\u6c38\u4e50 \u5609\u5b9a\u5e97", "id": 144592, "pageNo": 0, "pageCount": null, "pageSize": 10, "ids": null, "endTime": null, "startTime": null}, {"cardNumFive": null, "isSupportYj": null, "cityName": null, "districtName": null, "shopinfo": {"mid": "888888857320007", "good_flag": "1", "new_flag": "2", "short_name": "\u6c38\u4e50", "short_name_pinyin": "yongle", "status": null, "address": null, "name": null, "id": "33993"}, "mid": "888888857320007", "shopId": "33993", "netid": null, "province": 901, "district": 601, "zipcode": null, "telephone": "\u5168\u56fd\u670d\u52a1\u70ed\u7ebf\uff1a4008-11-3336", "posDate": "20071109", "destineTel": null, "togoTel": null, "trafficWay": "\u536b\u6885\u7ebf \u83b2\u77f3\u7ebf", "signBuilding": null, "businessArea": null, "selfRoom": null, "businessTime": "9:00~22:00", "stall": "\u6709", "consume": null, "serviceFei": null, "favourable": null, "shopMemo": null, "appraise": null, "website": null, "memo": null, "payTypes": "\u6749\u5fb7\u5361", "shopTypes": "\u4e13\u5356", "consumeTypes": null, "cookTypes": null, "orderNum": 1000, "card4no": null, "card4noAcc": null, "district2": 418, "searchScope": null, "status": 1, "address": "\u8499\u5c71\u8def1098\u53f7", "name": "\u6c38\u4e50 \u91d1\u5c71\u5e97", "id": 144593, "pageNo": 0, "pageCount": null, "pageSize": 10, "ids": null, "endTime": null, "startTime": null}, {"cardNumFive": null, "isSupportYj": null, "cityName": null, "districtName": null, "shopinfo": {"mid": "888888857320007", "good_flag": "1", "new_flag": "2", "short_name": "\u6c38\u4e50", "short_name_pinyin": "yongle", "status": null, "address": null, "name": null, "id": "33993"}, "mid": "888888857320007", "shopId": "33993", "netid": null, "province": 901, "district": 601, "zipcode": null, "telephone": "\u5168\u56fd\u670d\u52a1\u70ed\u7ebf\uff1a4008-11-3336", "posDate": "20071105", "destineTel": null, "togoTel": null, "trafficWay": "\u6caa\u5357\u7ebf \u9f99\u5927\u7ebf \u516c\u4ea4451", "signBuilding": null, "businessArea": null, "selfRoom": null, "businessTime": "9:00~22:00", "stall": "\u6709", "consume": null, "serviceFei": null, "favourable": null, "shopMemo": null, "appraise": null, "website": null, "memo": null, "payTypes": "\u6749\u5fb7\u5361", "shopTypes": "\u4e13\u5356", "consumeTypes": null, "cookTypes": null, "orderNum": 1000, "card4no": null, "card4noAcc": null, "district2": 418, "searchScope": null, "status": 1, "address": "\u5eb7\u6c88\u8def1028\u53f7", "name": "\u6c38\u4e50 \u5eb7\u6865\u5e97", "id": 144595, "pageNo": 0, "pageCount": null, "pageSize": 10, "ids": null, "endTime": null, "startTime": null}, {"cardNumFive": null, "isSupportYj": null, "cityName": null, "districtName": null, "shopinfo": {"mid": "888888857320007", "good_flag": "1", "new_flag": "2", "short_name": "\u6c38\u4e50", "short_name_pinyin": "yongle", "status": null, "address": null, "name": null, "id": "33993"}, "mid": "888888857320007", "shopId": "33993", "netid": null, "province": 901, "district": 601, "zipcode": null, "telephone": "\u5168\u56fd\u670d\u52a1\u70ed\u7ebf\uff1a4008-11-3336", "posDate": "20071112", "destineTel": null, "togoTel": null, "trafficWay": "\u516c\u4ea4220 910", "signBuilding": null, "businessArea": null, "selfRoom": null, "businessTime": "9:00~22:00", "stall": "\u6709", "consume": null, "serviceFei": null, "favourable": null, "shopMemo": null, "appraise": null, "website": null, "memo": null, "payTypes": "\u6749\u5fb7\u5361", "shopTypes": "\u4e13\u5356", "consumeTypes": null, "cookTypes": null, "orderNum": 1000, "card4no": null, "card4noAcc": null, "district2": 407, "searchScope": null, "status": 1, "address": "\u672c\u6eaa\u8def191\u53f7", "name": "\u6c38\u4e50 \u63a7\u6c5f\u5e97", "id": 144596, "pageNo": 0, "pageCount": null, "pageSize": 10, "ids": null, "endTime": null, "startTime": null}, {"cardNumFive": null, "isSupportYj": null, "cityName": null, "districtName": null, "shopinfo": {"mid": "888888857320007", "good_flag": "1", "new_flag": "2", "short_name": "\u6c38\u4e50", "short_name_pinyin": "yongle", "status": null, "address": null, "name": null, "id": "33993"}, "mid": "888888857320007", "shopId": "33993", "netid": null, "province": 901, "district": 601, "zipcode": null, "telephone": "\u5168\u56fd\u670d\u52a1\u70ed\u7ebf\uff1a4008-11-3336", "posDate": "20071112", "destineTel": null, "togoTel": null, "trafficWay": "\u516c\u4ea443 931", "signBuilding": null, "businessArea": null, "selfRoom": null, "businessTime": "9:00~22:00", "stall": "\u6709", "consume": null, "serviceFei": null, "favourable": null, "shopMemo": null, "appraise": null, "website": null, "memo": null, "payTypes": "\u6749\u5fb7\u5361", "shopTypes": "\u4e13\u5356", "consumeTypes": null, "cookTypes": null, "orderNum": 1000, "card4no": null, "card4noAcc": null, "district2": 401, "searchScope": null, "status": 1, "address": "\u4e2d\u534e\u8def1415\u53f7", "name": "\u6c38\u4e50 \u8001\u897f\u95e8\u5e97", "id": 144597, "pageNo": 0, "pageCount": null, "pageSize": 10, "ids": null, "endTime": null, "startTime": null}, {"cardNumFive": null, "isSupportYj": null, "cityName": null, "districtName": null, "shopinfo": {"mid": "888888857320007", "good_flag": "1", "new_flag": "2", "short_name": "\u6c38\u4e50", "short_name_pinyin": "yongle", "status": null, "address": null, "name": null, "id": "33993"}, "mid": "888888857320007", "shopId": "33993", "netid": null, "province": 901, "district": 601, "zipcode": null, "telephone": "\u5168\u56fd\u670d\u52a1\u70ed\u7ebf\uff1a4008-11-3336", "posDate": "20071107", "destineTel": null, "togoTel": null, "trafficWay": "\u5858\u56db\u7ebf \u4e0a\u90b5\u7ebf", "signBuilding": null, "businessArea": null, "selfRoom": null, "businessTime": "9:00~22:00", "stall": "\u6709", "consume": null, "serviceFei": null, "favourable": null, "shopMemo": null, "appraise": null, "website": null, "memo": null, "payTypes": "\u6749\u5fb7\u5361", "shopTypes": "\u4e13\u5356", "consumeTypes": null, "cookTypes": null, "orderNum": 1000, "card4no": null, "card4noAcc": null, "district2": 418, "searchScope": null, "status": 1, "address": "\u57ce\u4e1c\u8def88\u53f7", "name": "\u6c38\u4e50 \u5357\u6c47\u4e8c\u5e97", "id": 144599, "pageNo": 0, "pageCount": null, "pageSize": 10, "ids": null, "endTime": null, "startTime": null}, {"cardNumFive": null, "isSupportYj": null, "cityName": null, "districtName": null, "shopinfo": {"mid": "888888857320007", "good_flag": "1", "new_flag": "2", "short_name": "\u6c38\u4e50", "short_name_pinyin": "yongle", "status": null, "address": null, "name": null, "id": "33993"}, "mid": "888888857320007", "shopId": "33993", "netid": null, "province": 901, "district": 601, "zipcode": null, "telephone": "\u5168\u56fd\u670d\u52a1\u70ed\u7ebf\uff1a4008-11-3336", "posDate": "20071221", "destineTel": null, "togoTel": null, "trafficWay": "\u6caa\u677e\u7ebf \u5357\u4f58\u7ebf \u5730\u94c1\u4e5d\u53f7\u7ebf", "signBuilding": null, "businessArea": null, "selfRoom": null, "businessTime": null, "stall": null, "consume": null, "serviceFei": null, "favourable": null, "shopMemo": null, "appraise": null, "website": null, "memo": null, "payTypes": "\u6749\u5fb7\u5361", "shopTypes": "\u4e13\u5356", "consumeTypes": null, "cookTypes": null, "orderNum": 1000, "card4no": null, "card4noAcc": null, "district2": 409, "searchScope": null, "status": 1, "address": "\u4e03\u8398\u8def3011-3021\u53f7", "name": "\u6c38\u4e50 \u4e03\u5b9d\u5e97", "id": 144603, "pageNo": 0, "pageCount": null, "pageSize": 10, "ids": null, "endTime": null, "startTime": null}], "pageLimit": 10710, "size": 10}