{"pageCount": 1095, "count": 10942, "pageNo": 1074, "subShopInfo": {"cardNumFive": "", "isSupportYj": "", "cityName": null, "districtName": null, "shopinfo": {"mid": null, "good_flag": null, "new_flag": null, "short_name": null, "short_name_pinyin": null, "status": null, "address": "", "name": "", "id": null}, "mid": null, "shopId": null, "netid": null, "province": 901, "district": null, "zipcode": null, "telephone": null, "posDate": null, "destineTel": null, "togoTel": null, "trafficWay": null, "signBuilding": null, "businessArea": null, "selfRoom": null, "businessTime": null, "stall": null, "consume": null, "serviceFei": null, "favourable": null, "shopMemo": "1", "appraise": null, "website": null, "memo": null, "payTypes": "", "shopTypes": "", "consumeTypes": null, "cookTypes": null, "orderNum": null, "card4no": null, "card4noAcc": null, "district2": null, "searchScope": null, "status": null, "address": "", "name": null, "id": null, "pageNo": 1073, "pageCount": null, "pageSize": 10, "ids": null, "endTime": null, "startTime": null}, "list": [{"cardNumFive": null, "isSupportYj": null, "cityName": null, "districtName": null, "shopinfo": {"mid": "888002157220025", "good_flag": null, "new_flag": null, "short_name": "\u6c38\u4e50", "short_name_pinyin": "yongle", "status": null, "address": null, "name": null, "id": "42364"}, "mid": "888002157220025", "shopId": "42364", "netid": null, "province": 901, "district": 601, "zipcode": null, "telephone": null, "posDate": null, "destineTel": null, "togoTel": null, "trafficWay": null, "signBuilding": null, "businessArea": null, "selfRoom": null, "businessTime": null, "stall": null, "consume": null, "serviceFei": null, "favourable": null, "shopMemo": null, "appraise": null, "website": null, "memo": null, "payTypes": "\u6749\u5fb7\u5361", "shopTypes": "\u4fbf\u5229\u5e97", "consumeTypes": null, "cookTypes": null, "orderNum": 1000, "card4no": null, "card4noAcc": null, "district2": 417, "searchScope": null, "status": 1, "address": "\u9752\u6d66\u516c\u56ed\u8def416\u53f7", "name": "\u6c38\u4e50 \u516c\u56ed\u8def\u5e97", "id": 188976, "pageNo": 0, "pageCount": null, "pageSize": 10, "ids": null, "endTime": null, "startTime": null}, {"cardNumFive": null, "isSupportYj": null, "cityName": null, "districtName": null, "shopinfo": {"mid": "888002157320013", "good_flag": null, "new_flag": null, "short_name": "\u6c38\u4e50", "short_name_pinyin": "yongle", "status": null, "address": null, "name": null, "id": "42366"}, "mid": "888002157320013", "shopId": "42366", "netid": null, "province": 901, "district": 601, "zipcode": null, "telephone": null, "posDate": null, "destineTel": null, "togoTel": null, "trafficWay": null, "signBuilding": null, "businessArea": null, "selfRoom": null, "businessTime": null, "stall": null, "consume": null, "serviceFei": null, "favourable": null, "shopMemo": null, "appraise": null, "website": null, "memo": null, "payTypes": "\u6749\u5fb7\u5361", "shopTypes": "\u4fbf\u5229\u5e97", "consumeTypes": null, "cookTypes": null, "orderNum": 1000, "card4no": null, "card4noAcc": null, "district2": 414, "searchScope": null, "status": 1, "address": "\u536b\u96f6\u8def133\u53f7-137\u53f7F1-F3", "name": "\u6c38\u4e50 \u91d1\u5c71\u4e8c\u5e97", "id": 188982, "pageNo": 0, "pageCount": null, "pageSize": 10, "ids": null, "endTime": null, "startTime": null}, {"cardNumFive": null, "isSupportYj": null, "cityName": null, "districtName": null, "shopinfo": {"mid": "888002157320007", "good_flag": null, "new_flag": null, "short_name": "\u6c38\u4e50", "short_name_pinyin": "yongle", "status": null, "address": null, "name": null, "id": "43233"}, "mid": "888002157320007", "shopId": "43233", "netid": null, "province": 901, "district": 601, "zipcode": null, "telephone": null, "posDate": null, "destineTel": null, "togoTel": null, "trafficWay": null, "signBuilding": null, "businessArea": null, "selfRoom": null, "businessTime": null, "stall": null, "consume": null, "serviceFei": null, "favourable": null, "shopMemo": null, "appraise": null, "website": null, "memo": null, "payTypes": "\u6749\u5fb7\u5361", "shopTypes": "\u96f6\u552e", "consumeTypes": null, "cookTypes": null, "orderNum": 1000, "card4no": null, "card4noAcc": null, "district2": 418, "searchScope": null, "status": 1, "address": "\u5357\u6cc9\u5317\u8def588\u53f7", "name": "\u6c38\u4e50 \u65b0\u5927\u9646\u5e97", "id": 193540, "pageNo": 0, "pageCount": null, "pageSize": 10, "ids": null, "endTime": null, "startTime": null}, {"cardNumFive": null, "isSupportYj": null, "cityName": null, "districtName": null, "shopinfo": {"mid": "888888857320007", "good_flag": "1", "new_flag": "2", "short_name": "\u6c38\u4e50", "short_name_pinyin": "yongle", "status": null, "address": null, "name": null, "id": "33993"}, "mid": "888888857320007", "shopId": "33993", "netid": null, "province": 901, "district": 601, "zipcode": null, "telephone": "\u5168\u56fd\u670d\u52a1\u70ed\u7ebf\uff1a4008-11-3336", "posDate": "20071108", "destineTel": "021-56176544", "togoTel": null, "trafficWay": null, "signBuilding": null, "businessArea": null, "selfRoom": null, "businessTime": "9:00~22:00", "stall": "\u6709", "consume": null, "serviceFei": null, "favourable": null, "shopMemo": null, "appraise": null, "website": null, "memo": null, "payTypes": "\u6749\u5fb7\u5361", "shopTypes": "\u4e13\u5356", "consumeTypes": null, "cookTypes": null, "orderNum": 1000, "card4no": null, "card4noAcc": null, "district2": 416, "searchScope": null, "status": 1, "address": "\u5b9d\u5c71\u533a\u53cb\u8c0a\u8def211\u53f7", "name": "\u6c38\u4e50 \u5b9d\u94a2\u5546\u573a\u5e97", "id": 197341, "pageNo": 0, "pageCount": null, "pageSize": 10, "ids": null, "endTime": null, "startTime": null}, {"cardNumFive": null, "isSupportYj": null, "cityName": null, "districtName": null, "shopinfo": {"mid": "888888854410176", "good_flag": "2", "new_flag": "2", "short_name": "\u6c38\u795e\u4e13\u5356", "short_name_pinyin": "yongshenzhuanmai", "status": null, "address": null, "name": null, "id": "33994"}, "mid": "888888854410176", "shopId": "33994", "netid": null, "province": 901, "district": 601, "zipcode": null, "telephone": null, "posDate": "200908", "destineTel": null, "togoTel": null, "trafficWay": "\u516c\u4ea474", "signBuilding": null, "businessArea": null, "selfRoom": null, "businessTime": null, "stall": null, "consume": null, "serviceFei": null, "favourable": null, "shopMemo": null, "appraise": null, "website": null, "memo": null, "payTypes": "\u6749\u5fb7\u5361", "shopTypes": "\u4e13\u5356", "consumeTypes": null, "cookTypes": null, "orderNum": 1000, "card4no": null, "card4noAcc": null, "district2": 409, "searchScope": null, "status": 1, "address": "\u5357\u534e\u885725\u53f7", "name": "\u6c38\u795e\u4e13\u5356 \u519c\u79d1\u9662\u5e97", "id": 144630, "pageNo": 0, "pageCount": null, "pageSize": 10, "ids": null, "endTime": null, "startTime": null}, {"cardNumFive": null, "isSupportYj": null, "cityName": null, "districtName": null, "shopinfo": {"mid": "888888854410176", "good_flag": "2", "new_flag": "2", "short_name": "\u6c38\u795e\u4e13\u5356", "short_name_pinyin": "yongshenzhuanmai", "status": null, "address": null, "name": null, "id": "33994"}, "mid": "888888854410176", "shopId": "33994", "netid": null, "province": 901, "district": 601, "zipcode": null, "telephone": null, "posDate": "200908", "destineTel": null, "togoTel": null, "trafficWay": "\u516c\u4ea4119\u3001785", "signBuilding": null, "businessArea": null, "selfRoom": null, "businessTime": null, "stall": null, "consume": null, "serviceFei": null, "favourable": null, "shopMemo": null, "appraise": null, "website": null, "memo": null, "payTypes": "\u6749\u5fb7\u5361", "shopTypes": "\u4e13\u5356", "consumeTypes": null, "cookTypes": null, "orderNum": 1000, "card4no": null, "card4noAcc": null, "district2": 418, "searchScope": null, "status": 1, "address": "\u6d66\u4e09\u8def229\u53f7", "name": "\u6c38\u795e\u4e13\u5356 \u6d66\u4e09\u8def\u5e97", "id": 144631, "pageNo": 0, "pageCount": null, "pageSize": 10, "ids": null, "endTime": null, "startTime": null}, {"cardNumFive": null, "isSupportYj": null, "cityName": null, "districtName": null, "shopinfo": {"mid": "888888854410176", "good_flag": "2", "new_flag": "2", "short_name": "\u6c38\u795e\u4e13\u5356", "short_name_pinyin": "yongshenzhuanmai", "status": null, "address": null, "name": null, "id": "33994"}, "mid": "888888854410176", "shopId": "33994", "netid": null, "province": 901, "district": 601, "zipcode": null, "telephone": "65170259", "posDate": "200908", "destineTel": null, "togoTel": null, "trafficWay": "\u516c\u4ea4723\u3001933", "signBuilding": null, "businessArea": null, "selfRoom": null, "businessTime": null, "stall": null, "consume": null, "serviceFei": null, "favourable": null, "shopMemo": null, "appraise": null, "website": null, "memo": null, "payTypes": "\u6749\u5fb7\u5361", "shopTypes": "\u4e13\u5356", "consumeTypes": null, "cookTypes": null, "orderNum": 1000, "card4no": null, "card4noAcc": null, "district2": 408, "searchScope": null, "status": 1, "address": "\u4e1c\u4f53\u80b2\u4f1a\u8def980\u53f7", "name": "\u6c38\u795e\u4e13\u5356 \u66f2\u9633\u516c\u56ed\u5e97", "id": 144632, "pageNo": 0, "pageCount": null, "pageSize": 10, "ids": null, "endTime": null, "startTime": null}, {"cardNumFive": null, "isSupportYj": null, "cityName": null, "districtName": null, "shopinfo": {"mid": "888888854410176", "good_flag": "2", "new_flag": "2", "short_name": "\u6c38\u795e\u4e13\u5356", "short_name_pinyin": "yongshenzhuanmai", "status": null, "address": null, "name": null, "id": "33994"}, "mid": "888888854410176", "shopId": "33994", "netid": null, "province": 901, "district": 601, "zipcode": null, "telephone": "63270199", "posDate": "200908", "destineTel": null, "togoTel": null, "trafficWay": "\u516c\u4ea449\u3001109", "signBuilding": null, "businessArea": null, "selfRoom": null, "businessTime": null, "stall": null, "consume": null, "serviceFei": null, "favourable": null, "shopMemo": null, "appraise": null, "website": null, "memo": null, "payTypes": "\u6749\u5fb7\u5361", "shopTypes": "\u4e13\u5356", "consumeTypes": null, "cookTypes": null, "orderNum": 1000, "card4no": null, "card4noAcc": null, "district2": 401, "searchScope": null, "status": 1, "address": "\u5a01\u6d77\u8def20\u53f7", "name": "\u6c38\u795e\u4e13\u5356 \u4eba\u6c11\u5e7f\u573a\u5e97", "id": 144633, "pageNo": 0, "pageCount": null, "pageSize": 10, "ids": null, "endTime": null, "startTime": null}, {"cardNumFive": null, "isSupportYj": null, "cityName": null, "districtName": null, "shopinfo": {"mid": "888888854410176", "good_flag": "2", "new_flag": "2", "short_name": "\u6c38\u795e\u4e13\u5356", "short_name_pinyin": "yongshenzhuanmai", "status": null, "address": null, "name": null, "id": "33994"}, "mid": "888888854410176", "shopId": "33994", "netid": null, "province": 901, "district": 601, "zipcode": null, "telephone": "56383553", "posDate": "200908", "destineTel": null, "togoTel": null, "trafficWay": "\u516c\u4ea4518\u3001108", "signBuilding": null, "businessArea": null, "selfRoom": null, "businessTime": null, "stall": null, "consume": null, "serviceFei": null, "favourable": null, "shopMemo": null, "appraise": null, "website": null, "memo": null, "payTypes": "\u6749\u5fb7\u5361", "shopTypes": "\u4e13\u5356", "consumeTypes": null, "cookTypes": null, "orderNum": 1000, "card4no": null, "card4noAcc": null, "district2": 410, "searchScope": null, "status": 1, "address": "\u5e73\u578b\u5173\u8def372\u53f7", "name": "\u6c38\u795e\u4e13\u5356 \u95f8\u5317\u516c\u56ed\u5e97", "id": 144635, "pageNo": 0, "pageCount": null, "pageSize": 10, "ids": null, "endTime": null, "startTime": null}, {"cardNumFive": null, "isSupportYj": null, "cityName": null, "districtName": null, "shopinfo": {"mid": "888888854410186", "good_flag": "2", "new_flag": "1", "short_name": "\u52c7\u7f18\u98df\u54c1", "short_name_pinyin": "yongyuanshipin", "status": null, "address": null, "name": null, "id": "33997"}, "mid": "888888854410186", "shopId": "33997", "netid": null, "province": 901, "district": 601, "zipcode": null, "telephone": null, "posDate": "20100118", "destineTel": null, "togoTel": null, "trafficWay": null, "signBuilding": null, "businessArea": null, "selfRoom": null, "businessTime": null, "stall": null, "consume": null, "serviceFei": null, "favourable": null, "shopMemo": null, "appraise": null, "website": null, "memo": null, "payTypes": "\u6749\u5fb7\u5361", "shopTypes": "\u96f6\u552e", "consumeTypes": null, "cookTypes": null, "orderNum": 1000, "card4no": null, "card4noAcc": null, "district2": 409, "searchScope": null, "status": 1, "address": "\u4e03\u661f\u8def3655\u53f7\u5609\u8d38\u5e7f\u573aK8", "name": "\u52c7\u7f18\u98df\u54c1 \u4e03\u661f\u8def\u5e97", "id": 144641, "pageNo": 0, "pageCount": null, "pageSize": 10, "ids": null, "endTime": null, "startTime": null}], "pageLimit": 10730, "size": 10}