{"pageCount": 1095, "count": 10942, "pageNo": 1076, "subShopInfo": {"cardNumFive": "", "isSupportYj": "", "cityName": null, "districtName": null, "shopinfo": {"mid": null, "good_flag": null, "new_flag": null, "short_name": null, "short_name_pinyin": null, "status": null, "address": "", "name": "", "id": null}, "mid": null, "shopId": null, "netid": null, "province": 901, "district": null, "zipcode": null, "telephone": null, "posDate": null, "destineTel": null, "togoTel": null, "trafficWay": null, "signBuilding": null, "businessArea": null, "selfRoom": null, "businessTime": null, "stall": null, "consume": null, "serviceFei": null, "favourable": null, "shopMemo": "1", "appraise": null, "website": null, "memo": null, "payTypes": "", "shopTypes": "", "consumeTypes": null, "cookTypes": null, "orderNum": null, "card4no": null, "card4noAcc": null, "district2": null, "searchScope": null, "status": null, "address": "", "name": null, "id": null, "pageNo": 1075, "pageCount": null, "pageSize": 10, "ids": null, "endTime": null, "startTime": null}, "list": [{"cardNumFive": null, "isSupportYj": null, "cityName": null, "districtName": null, "shopinfo": {"mid": "888002159121190", "good_flag": "2", "new_flag": "2", "short_name": "\u5143\u6cf0\u5927\u836f\u5e97", "short_name_pinyin": "yuantaidayaodian", "status": null, "address": null, "name": null, "id": "34035"}, "mid": "888002159121190", "shopId": "34035", "netid": null, "province": 901, "district": 601, "zipcode": null, "telephone": null, "posDate": "200911", "destineTel": null, "togoTel": null, "trafficWay": null, "signBuilding": null, "businessArea": null, "selfRoom": null, "businessTime": "9:00~18:00", "stall": null, "consume": null, "serviceFei": null, "favourable": null, "shopMemo": null, "appraise": null, "website": null, "memo": null, "payTypes": "\u6749\u5fb7\u5361", "shopTypes": "\u836f\u5e97", "consumeTypes": null, "cookTypes": null, "orderNum": 1000, "card4no": null, "card4noAcc": null, "district2": 412, "searchScope": null, "status": 1, "address": "\u8d75\u5df7\u9547\u8d75\u5174\u8def54\u53f7", "name": "\u5143\u6cf0\u5927\u836f\u5e97 \u8d75\u5174\u8def\u5e97", "id": 144740, "pageNo": 0, "pageCount": null, "pageSize": 10, "ids": null, "endTime": null, "startTime": null}, {"cardNumFive": null, "isSupportYj": null, "cityName": null, "districtName": null, "shopinfo": {"mid": "888888858120132", "good_flag": "2", "new_flag": "2", "short_name": "\u5706\u82d1", "short_name_pinyin": "yuanyuan", "status": null, "address": null, "name": null, "id": "34046"}, "mid": "888888858120132", "shopId": "34046", "netid": null, "province": 901, "district": 601, "zipcode": "200041", "telephone": "62726972", "posDate": "20070404", "destineTel": "62726972", "togoTel": null, "trafficWay": "\u5730\u94c1\u4e8c\u53f7\u7ebf \u516c\u4ea4128 41 104 955", "signBuilding": "\u6052\u9686\u5e7f\u573a", "businessArea": null, "selfRoom": "\u6709", "businessTime": "11:00~22:30", "stall": null, "consume": "100\u5143", "serviceFei": null, "favourable": null, "shopMemo": "\u8bdd\u6885\u8349\u867e \u7ea2\u70e7\u8089 \u756a\u8304\u7092\u591c\u5f00\u82b1", "appraise": null, "website": null, "memo": null, "payTypes": ",,\u6749\u5fb7\u5361", "shopTypes": "\u9910\u996e", "consumeTypes": "\u5bb6\u4eba\u56e2\u805a,\u597d\u53cb\u5c0f\u805a,\u6d6a\u6f2b\u7ea6\u4f1a,\u4f11\u95f2\u5c31\u9910", "cookTypes": "\u672c\u5e2e\u83dc", "orderNum": 1000, "card4no": null, "card4noAcc": null, "district2": 404, "searchScope": null, "status": 1, "address": "\u5357\u4eac\u897f\u8def1038\u53f7\u6885\u9f99\u9547\u5e7f\u573a4\u697c", "name": "\u5706\u82d1 \u5357\u4eac\u897f\u8def\u5e97", "id": 144752, "pageNo": 0, "pageCount": null, "pageSize": 10, "ids": null, "endTime": null, "startTime": null}, {"cardNumFive": null, "isSupportYj": null, "cityName": null, "districtName": null, "shopinfo": {"mid": "888888859120207", "good_flag": "2", "new_flag": "1", "short_name": "\u5143\u5143\u836f\u623f", "short_name_pinyin": "yuanyuanyaofang", "status": null, "address": null, "name": null, "id": "34037"}, "mid": "888888859120207", "shopId": "34037", "netid": null, "province": 901, "district": 601, "zipcode": null, "telephone": null, "posDate": "20100118", "destineTel": null, "togoTel": null, "trafficWay": null, "signBuilding": null, "businessArea": null, "selfRoom": null, "businessTime": null, "stall": null, "consume": null, "serviceFei": null, "favourable": null, "shopMemo": null, "appraise": null, "website": null, "memo": null, "payTypes": "\u6749\u5fb7\u5361", "shopTypes": "\u836f\u5e97", "consumeTypes": null, "cookTypes": null, "orderNum": 1000, "card4no": null, "card4noAcc": null, "district2": 409, "searchScope": null, "status": 1, "address": "\u7530\u6797\u8def1396\u53f7\u30011398\u53f7", "name": "\u5143\u5143\u836f\u623f \u7530\u6797\u8def\u5e97", "id": 144742, "pageNo": 0, "pageCount": null, "pageSize": 10, "ids": null, "endTime": null, "startTime": null}, {"cardNumFive": null, "isSupportYj": null, "cityName": null, "districtName": null, "shopinfo": {"mid": "888888853990017", "good_flag": "2", "new_flag": "2", "short_name": "\u6708\u8fb0\u82b1\u5349", "short_name_pinyin": "yuechenhuahui", "status": null, "address": null, "name": null, "id": "34054"}, "mid": "888888853990017", "shopId": "34054", "netid": null, "province": 901, "district": 601, "zipcode": null, "telephone": "63591990", "posDate": "20070927", "destineTel": null, "togoTel": null, "trafficWay": "\u516c\u4ea402 26 \u5730\u94c1\u4e00\u53f7\u7ebf", "signBuilding": null, "businessArea": "30\u5e73\u65b9\u7c73", "selfRoom": null, "businessTime": "10:00~20:00", "stall": null, "consume": "30\u5143", "serviceFei": null, "favourable": "\u6301\u5dcd\u5eb7\u5361\u6d88\u8d39\u53ef\u4eab\u53d78\u6298\u4f18\u60e0", "shopMemo": "\u54c1\u79cd\u9f50\u5168,\u9c9c\u82b1\u8d29\u552e,\u5730\u6bb5\u4f73,\u9001\u82b1\u4e0a\u95e8", "appraise": null, "website": null, "memo": null, "payTypes": "\u6749\u5fb7\u5361", "shopTypes": "\u4e13\u5356", "consumeTypes": null, "cookTypes": null, "orderNum": 1000, "card4no": null, "card4noAcc": null, "district2": 401, "searchScope": null, "status": 1, "address": "\u91cd\u5e86\u5317\u8def171\u53f7", "name": "\u6708\u8fb0\u82b1\u5349 \u91cd\u5e86\u5317\u8def\u5e97", "id": 144761, "pageNo": 0, "pageCount": null, "pageSize": 10, "ids": null, "endTime": null, "startTime": null}, {"cardNumFive": null, "isSupportYj": null, "cityName": null, "districtName": null, "shopinfo": {"mid": "888888858120289", "good_flag": "2", "new_flag": "2", "short_name": "\u7ca4\u73cd\u8f69", "short_name_pinyin": "yuezhenxuan", "status": null, "address": null, "name": null, "id": "34060"}, "mid": "888888858120289", "shopId": "34060", "netid": null, "province": 901, "district": 601, "zipcode": null, "telephone": "50588277", "posDate": "20080114", "destineTel": null, "togoTel": null, "trafficWay": "\u516c\u4ea4814 984 \u5730\u94c1\u56db\u53f7\u7ebf", "signBuilding": null, "businessArea": null, "selfRoom": null, "businessTime": null, "stall": null, "consume": null, "serviceFei": null, "favourable": null, "shopMemo": null, "appraise": null, "website": null, "memo": null, "payTypes": "\u6749\u5fb7\u5361", "shopTypes": "\u9910\u996e", "consumeTypes": null, "cookTypes": null, "orderNum": 1000, "card4no": null, "card4noAcc": null, "district2": 418, "searchScope": null, "status": 1, "address": "\u798f\u5c71\u8def500\u53f7", "name": "\u7ca4\u73cd\u8f69 \u798f\u5c71\u8def\u5e97", "id": 144769, "pageNo": 0, "pageCount": null, "pageSize": 10, "ids": null, "endTime": null, "startTime": null}, {"cardNumFive": null, "isSupportYj": null, "cityName": null, "districtName": null, "shopinfo": {"mid": "888888858120749", "good_flag": "2", "new_flag": "2", "short_name": "\u7ca4\u73cd\u8f69", "short_name_pinyin": "yuezhenxuan", "status": null, "address": null, "name": null, "id": "34062"}, "mid": "888888858120749", "shopId": "34062", "netid": null, "province": 901, "district": 601, "zipcode": null, "telephone": "60904793", "posDate": "200911", "destineTel": null, "togoTel": null, "trafficWay": null, "signBuilding": null, "businessArea": null, "selfRoom": null, "businessTime": null, "stall": null, "consume": null, "serviceFei": null, "favourable": null, "shopMemo": null, "appraise": null, "website": null, "memo": null, "payTypes": "\u6749\u5fb7\u5361", "shopTypes": "\u9910\u996e", "consumeTypes": null, "cookTypes": null, "orderNum": 1000, "card4no": null, "card4noAcc": null, "district2": 403, "searchScope": null, "status": 1, "address": "\u9f99\u534e\u8def2557\u53f74\u53f7\u697c", "name": "\u7ca4\u73cd\u8f69 \u9f99\u534e\u5e97", "id": 144771, "pageNo": 0, "pageCount": null, "pageSize": 10, "ids": null, "endTime": null, "startTime": null}, {"cardNumFive": null, "isSupportYj": null, "cityName": null, "districtName": null, "shopinfo": {"mid": "888888858120286", "good_flag": "2", "new_flag": "2", "short_name": "\u7ca4\u73cd\u8f69", "short_name_pinyin": "yuezhenxuan", "status": null, "address": null, "name": null, "id": "34063"}, "mid": "888888858120286", "shopId": "34063", "netid": null, "province": 901, "district": 601, "zipcode": null, "telephone": "54972208", "posDate": "20080111", "destineTel": null, "togoTel": null, "trafficWay": "\u516c\u4ea443 927", "signBuilding": null, "businessArea": "400\u5e73\u65b9\u7c73", "selfRoom": null, "businessTime": "10:30~22:30", "stall": "\u6709", "consume": null, "serviceFei": null, "favourable": null, "shopMemo": null, "appraise": null, "website": null, "memo": null, "payTypes": "\u6749\u5fb7\u5361", "shopTypes": "\u9910\u996e", "consumeTypes": "\u5bb6\u4eba\u56e2\u805a,\u597d\u53cb\u5c0f\u805a,\u6d6a\u6f2b\u7ea6\u4f1a,\u5546\u52a1\u5bb4\u8bf7", "cookTypes": null, "orderNum": 1000, "card4no": null, "card4noAcc": null, "district2": 403, "searchScope": null, "status": 1, "address": "\u94a6\u5dde\u8def688\u53f7", "name": "\u7ca4\u73cd\u8f69 \u7530\u6797\u5e97", "id": 144772, "pageNo": 0, "pageCount": null, "pageSize": 10, "ids": null, "endTime": null, "startTime": null}, {"cardNumFive": null, "isSupportYj": null, "cityName": null, "districtName": null, "shopinfo": {"mid": "888888872300130", "good_flag": "2", "new_flag": "2", "short_name": "\u4f59\u548c\u7f8e\u5bb9\u7f8e\u53d1\u9662", "short_name_pinyin": "yuhemeirongmeifayuan", "status": null, "address": null, "name": null, "id": "34014"}, "mid": "888888872300130", "shopId": "34014", "netid": null, "province": 901, "district": 601, "zipcode": null, "telephone": null, "posDate": "20080513", "destineTel": null, "togoTel": null, "trafficWay": "\u516c\u4ea4112 822 \u5317\u5609\u4e13\u7ebf", "signBuilding": null, "businessArea": null, "selfRoom": null, "businessTime": "8:30~23:00", "stall": null, "consume": null, "serviceFei": null, "favourable": null, "shopMemo": null, "appraise": null, "website": null, "memo": null, "payTypes": "\u6749\u5fb7\u5361", "shopTypes": "\u7f8e\u5bb9\u7f8e\u53d1", "consumeTypes": null, "cookTypes": null, "orderNum": 1000, "card4no": null, "card4noAcc": null, "district2": 405, "searchScope": null, "status": 1, "address": "\u5bcc\u5e73\u8def849\u53f7", "name": "\u4f59\u548c\u7f8e\u5bb9\u7f8e\u53d1\u9662 \u5bcc\u5e73\u8def\u7b2c\u4e8c\u5206\u9662", "id": 144680, "pageNo": 0, "pageCount": null, "pageSize": 10, "ids": null, "endTime": null, "startTime": null}, {"cardNumFive": null, "isSupportYj": null, "cityName": null, "districtName": null, "shopinfo": {"mid": "888888856910255", "good_flag": "2", "new_flag": "2", "short_name": "\u88d5\u534e\u767e\u8d27", "short_name_pinyin": "yuhuabaihuo", "status": null, "address": null, "name": null, "id": "34031"}, "mid": "888888856910255", "shopId": "34031", "netid": null, "province": 901, "district": 601, "zipcode": null, "telephone": "13901856255\u300164667364", "posDate": "200909", "destineTel": null, "togoTel": null, "trafficWay": "\u516c\u4ea442\u300145\u3001911", "signBuilding": null, "businessArea": null, "selfRoom": null, "businessTime": null, "stall": null, "consume": null, "serviceFei": null, "favourable": null, "shopMemo": null, "appraise": null, "website": null, "memo": null, "payTypes": "\u6749\u5fb7\u5361", "shopTypes": "\u4e13\u5356", "consumeTypes": null, "cookTypes": null, "orderNum": 1000, "card4no": null, "card4noAcc": null, "district2": 403, "searchScope": null, "status": 1, "address": "\u8944\u9633\u5357\u8def155\u5f041\u53f7", "name": "\u88d5\u534e\u767e\u8d27 \u8944\u9633\u5357\u8def\u7efc\u5408\u5546\u5e97", "id": 144736, "pageNo": 0, "pageCount": null, "pageSize": 10, "ids": null, "endTime": null, "startTime": null}, {"cardNumFive": null, "isSupportYj": null, "cityName": null, "districtName": null, "shopinfo": {"mid": "888002159121156", "good_flag": "2", "new_flag": "1", "short_name": "\u4e91\u96c6\u9152\u574a", "short_name_pinyin": "yunjijiufang", "status": null, "address": null, "name": null, "id": "34069"}, "mid": "888002159121156", "shopId": "34069", "netid": null, "province": 901, "district": 601, "zipcode": null, "telephone": "66255026", "posDate": "20100202", "destineTel": null, "togoTel": null, "trafficWay": null, "signBuilding": null, "businessArea": null, "selfRoom": null, "businessTime": null, "stall": null, "consume": null, "serviceFei": null, "favourable": null, "shopMemo": null, "appraise": null, "website": null, "memo": null, "payTypes": "\u6749\u5fb7\u5361", "shopTypes": "\u96f6\u552e", "consumeTypes": null, "cookTypes": null, "orderNum": 1000, "card4no": null, "card4noAcc": null, "district2": 405, "searchScope": null, "status": 1, "address": "\u65b0\u6751\u8def429\u53f7", "name": "\u4e91\u96c6\u9152\u574a \u65b0\u6751\u8def\u5e97", "id": 144778, "pageNo": 0, "pageCount": null, "pageSize": 10, "ids": null, "endTime": null, "startTime": null}], "pageLimit": 10750, "size": 10}