{"pageCount": 1095, "count": 10942, "pageNo": 1071, "subShopInfo": {"cardNumFive": "", "isSupportYj": "", "cityName": null, "districtName": null, "shopinfo": {"mid": null, "good_flag": null, "new_flag": null, "short_name": null, "short_name_pinyin": null, "status": null, "address": "", "name": "", "id": null}, "mid": null, "shopId": null, "netid": null, "province": 901, "district": null, "zipcode": null, "telephone": null, "posDate": null, "destineTel": null, "togoTel": null, "trafficWay": null, "signBuilding": null, "businessArea": null, "selfRoom": null, "businessTime": null, "stall": null, "consume": null, "serviceFei": null, "favourable": null, "shopMemo": "1", "appraise": null, "website": null, "memo": null, "payTypes": "", "shopTypes": "", "consumeTypes": null, "cookTypes": null, "orderNum": null, "card4no": null, "card4noAcc": null, "district2": null, "searchScope": null, "status": null, "address": "", "name": null, "id": null, "pageNo": 1070, "pageCount": null, "pageSize": 10, "ids": null, "endTime": null, "startTime": null}, "list": [{"cardNumFive": null, "isSupportYj": null, "cityName": null, "districtName": null, "shopinfo": {"mid": "888888857320007", "good_flag": "1", "new_flag": "2", "short_name": "\u6c38\u4e50", "short_name_pinyin": "yongle", "status": null, "address": null, "name": null, "id": "33993"}, "mid": "888888857320007", "shopId": "33993", "netid": null, "province": 901, "district": 601, "zipcode": null, "telephone": "\u5168\u56fd\u670d\u52a1\u70ed\u7ebf\uff1a4008-11-3336", "posDate": "20071107", "destineTel": null, "togoTel": null, "trafficWay": "\u5f90\u5ddd\u7ebf \u4e0a\u5ddd\u7ebf \u7533\u6c5f\u7ebf", "signBuilding": null, "businessArea": null, "selfRoom": null, "businessTime": "9:00~22:00", "stall": "\u6709", "consume": null, "serviceFei": null, "favourable": null, "shopMemo": null, "appraise": null, "website": null, "memo": null, "payTypes": "\u6749\u5fb7\u5361", "shopTypes": "\u4e13\u5356", "consumeTypes": null, "cookTypes": null, "orderNum": 1000, "card4no": null, "card4noAcc": null, "district2": 418, "searchScope": null, "status": 1, "address": "\u65b0\u5ddd\u8def401\u53f7", "name": "\u6c38\u4e50 \u5ddd\u6c99\u5e97", "id": 144576, "pageNo": 0, "pageCount": null, "pageSize": 10, "ids": null, "endTime": null, "startTime": null}, {"cardNumFive": null, "isSupportYj": null, "cityName": null, "districtName": null, "shopinfo": {"mid": "888888857320007", "good_flag": "1", "new_flag": "2", "short_name": "\u6c38\u4e50", "short_name_pinyin": "yongle", "status": null, "address": null, "name": null, "id": "33993"}, "mid": "888888857320007", "shopId": "33993", "netid": null, "province": 901, "district": 601, "zipcode": null, "telephone": "\u5168\u56fd\u670d\u52a1\u70ed\u7ebf\uff1a4008-11-3336", "posDate": "20071226", "destineTel": null, "togoTel": null, "trafficWay": "\u516c\u4ea4814 \u65b0\u5ddd\u7ebf \u4e0a\u5ddd\u7ebf", "signBuilding": null, "businessArea": null, "selfRoom": null, "businessTime": null, "stall": null, "consume": null, "serviceFei": null, "favourable": null, "shopMemo": null, "appraise": null, "website": null, "memo": null, "payTypes": "\u6749\u5fb7\u5361", "shopTypes": "\u4e13\u5356", "consumeTypes": null, "cookTypes": null, "orderNum": 1000, "card4no": null, "card4noAcc": null, "district2": 418, "searchScope": null, "status": 1, "address": "\u6d66\u4e1c\u5927\u90532525\u53f7", "name": "\u6c38\u4e50 \u5fb7\u5e73\u5e97", "id": 144578, "pageNo": 0, "pageCount": null, "pageSize": 10, "ids": null, "endTime": null, "startTime": null}, {"cardNumFive": null, "isSupportYj": null, "cityName": null, "districtName": null, "shopinfo": {"mid": "888888857320007", "good_flag": "1", "new_flag": "2", "short_name": "\u6c38\u4e50", "short_name_pinyin": "yongle", "status": null, "address": null, "name": null, "id": "33993"}, "mid": "888888857320007", "shopId": "33993", "netid": null, "province": 901, "district": 601, "zipcode": null, "telephone": "\u5168\u56fd\u670d\u52a1\u70ed\u7ebf\uff1a4008-11-3336", "posDate": "20071112", "destineTel": null, "togoTel": null, "trafficWay": "\u5f90\u95f5\u7ebf \u7533\u95f5\u7ebf \u4e1c\u576a\u7ebf", "signBuilding": null, "businessArea": null, "selfRoom": null, "businessTime": "9:00~22:00", "stall": "\u6709", "consume": null, "serviceFei": null, "favourable": null, "shopMemo": null, "appraise": null, "website": null, "memo": null, "payTypes": "\u6749\u5fb7\u5361", "shopTypes": "\u4e13\u5356", "consumeTypes": null, "cookTypes": null, "orderNum": 1000, "card4no": null, "card4noAcc": null, "district2": 413, "searchScope": null, "status": 1, "address": "\u4e1c\u5ddd\u8def2098\u53f7-1", "name": "\u6c38\u4e50 \u4e1c\u5ddd\u5e97", "id": 144579, "pageNo": 0, "pageCount": null, "pageSize": 10, "ids": null, "endTime": null, "startTime": null}, {"cardNumFive": null, "isSupportYj": null, "cityName": null, "districtName": null, "shopinfo": {"mid": "888888857320007", "good_flag": "1", "new_flag": "2", "short_name": "\u6c38\u4e50", "short_name_pinyin": "yongle", "status": null, "address": null, "name": null, "id": "33993"}, "mid": "888888857320007", "shopId": "33993", "netid": null, "province": 901, "district": 601, "zipcode": null, "telephone": "\u5168\u56fd\u670d\u52a1\u70ed\u7ebf\uff1a4008-11-3336", "posDate": "20100608", "destineTel": null, "togoTel": null, "trafficWay": null, "signBuilding": null, "businessArea": null, "selfRoom": null, "businessTime": null, "stall": null, "consume": null, "serviceFei": null, "favourable": null, "shopMemo": null, "appraise": null, "website": null, "memo": null, "payTypes": "\u6749\u5fb7\u5361", "shopTypes": "\u4e13\u5356", "consumeTypes": null, "cookTypes": null, "orderNum": 1000, "card4no": null, "card4noAcc": null, "district2": 413, "searchScope": null, "status": 1, "address": "\u5949\u57ce\u9547\u5ddd\u5357\u5949\u516c\u8def9718\u53f7", "name": "\u6c38\u4e50 \u5949\u57ce\u4e8c\u5e97", "id": 144582, "pageNo": 0, "pageCount": null, "pageSize": 10, "ids": null, "endTime": null, "startTime": null}, {"cardNumFive": null, "isSupportYj": null, "cityName": null, "districtName": null, "shopinfo": {"mid": "888888857320007", "good_flag": "1", "new_flag": "2", "short_name": "\u6c38\u4e50", "short_name_pinyin": "yongle", "status": null, "address": null, "name": null, "id": "33993"}, "mid": "888888857320007", "shopId": "33993", "netid": null, "province": 901, "district": 601, "zipcode": null, "telephone": "\u5168\u56fd\u670d\u52a1\u70ed\u7ebf\uff1a4008-11-3336", "posDate": "20071108", "destineTel": "021-57104740", "togoTel": null, "trafficWay": null, "signBuilding": null, "businessArea": null, "selfRoom": null, "businessTime": "9:00~22:00", "stall": "\u6709", "consume": null, "serviceFei": null, "favourable": null, "shopMemo": null, "appraise": null, "website": null, "memo": null, "payTypes": "\u6749\u5fb7\u5361", "shopTypes": "\u4e13\u5356", "consumeTypes": null, "cookTypes": null, "orderNum": 1000, "card4no": null, "card4noAcc": null, "district2": 413, "searchScope": null, "status": 1, "address": "\u5357\u6865\u9547\u5357\u5949\u516c\u8def9299\u53f7\uff08\u8fd1\u53e4\u534e\u533b\u9662\uff09", "name": "\u6c38\u4e50 \u5949\u8d24\u5e97", "id": 144583, "pageNo": 0, "pageCount": null, "pageSize": 10, "ids": null, "endTime": null, "startTime": null}, {"cardNumFive": null, "isSupportYj": null, "cityName": null, "districtName": null, "shopinfo": {"mid": "888888857320007", "good_flag": "1", "new_flag": "2", "short_name": "\u6c38\u4e50", "short_name_pinyin": "yongle", "status": null, "address": null, "name": null, "id": "33993"}, "mid": "888888857320007", "shopId": "33993", "netid": null, "province": 901, "district": 601, "zipcode": null, "telephone": "\u5168\u56fd\u670d\u52a1\u70ed\u7ebf\uff1a4008-11-3336", "posDate": "20071108", "destineTel": null, "togoTel": null, "trafficWay": "\u516c\u4ea4936 996", "signBuilding": null, "businessArea": null, "selfRoom": null, "businessTime": "9:00~22:00", "stall": "\u6709", "consume": null, "serviceFei": null, "favourable": null, "shopMemo": null, "appraise": null, "website": null, "memo": null, "payTypes": "\u6749\u5fb7\u5361", "shopTypes": "\u4e13\u5356", "consumeTypes": null, "cookTypes": null, "orderNum": 1000, "card4no": null, "card4noAcc": null, "district2": 418, "searchScope": null, "status": 1, "address": "\u5916\u9ad8\u6865\u4fdd\u7a0e\u533a\u590f\u78a7\u8def345\u53f7355\u53f7367\u53f7379\u53f7", "name": "\u6c38\u4e50 \u9ad8\u6865\u5e97", "id": 144584, "pageNo": 0, "pageCount": null, "pageSize": 10, "ids": null, "endTime": null, "startTime": null}, {"cardNumFive": null, "isSupportYj": null, "cityName": null, "districtName": null, "shopinfo": {"mid": "888888857320007", "good_flag": "1", "new_flag": "2", "short_name": "\u6c38\u4e50", "short_name_pinyin": "yongle", "status": null, "address": null, "name": null, "id": "33993"}, "mid": "888888857320007", "shopId": "33993", "netid": null, "province": 901, "district": 601, "zipcode": null, "telephone": "\u5168\u56fd\u670d\u52a1\u70ed\u7ebf\uff1a4008-11-3336", "posDate": "20071115", "destineTel": null, "togoTel": null, "trafficWay": "\u516c\u4ea4916 114 \u5730\u94c1\u4e00\u53f7\u7ebf", "signBuilding": null, "businessArea": null, "selfRoom": null, "businessTime": "9:00~22:00", "stall": "\u6709", "consume": null, "serviceFei": null, "favourable": null, "shopMemo": null, "appraise": null, "website": null, "memo": null, "payTypes": "\u6749\u5fb7\u5361", "shopTypes": "\u4e13\u5356", "consumeTypes": null, "cookTypes": null, "orderNum": 1000, "card4no": null, "card4noAcc": null, "district2": 410, "searchScope": null, "status": 1, "address": "\u5171\u548c\u65b0\u8def4928\u53f7", "name": "\u6c38\u4e50 \u5171\u548c\u5e97", "id": 144585, "pageNo": 0, "pageCount": null, "pageSize": 10, "ids": null, "endTime": null, "startTime": null}, {"cardNumFive": null, "isSupportYj": null, "cityName": null, "districtName": null, "shopinfo": {"mid": "888888857320007", "good_flag": "1", "new_flag": "2", "short_name": "\u6c38\u4e50", "short_name_pinyin": "yongle", "status": null, "address": null, "name": null, "id": "33993"}, "mid": "888888857320007", "shopId": "33993", "netid": null, "province": 901, "district": 601, "zipcode": null, "telephone": "\u5168\u56fd\u670d\u52a1\u70ed\u7ebf\uff1a4008-11-3336", "posDate": "20071108", "destineTel": null, "togoTel": null, "trafficWay": "\u516c\u4ea4855 836 72", "signBuilding": null, "businessArea": null, "selfRoom": null, "businessTime": "9:00~22:00", "stall": "\u6709", "consume": null, "serviceFei": null, "favourable": null, "shopMemo": null, "appraise": null, "website": null, "memo": null, "payTypes": "\u6749\u5fb7\u5361", "shopTypes": "\u4e13\u5356", "consumeTypes": null, "cookTypes": null, "orderNum": 1000, "card4no": null, "card4noAcc": null, "district2": 406, "searchScope": null, "status": 1, "address": "\u53e4\u5317\u8def505\u53f7", "name": "\u6c38\u4e50 \u53e4\u5317\u5e97", "id": 144586, "pageNo": 0, "pageCount": null, "pageSize": 10, "ids": null, "endTime": null, "startTime": null}, {"cardNumFive": null, "isSupportYj": null, "cityName": null, "districtName": null, "shopinfo": {"mid": "888888857320007", "good_flag": "1", "new_flag": "2", "short_name": "\u6c38\u4e50", "short_name_pinyin": "yongle", "status": null, "address": null, "name": null, "id": "33993"}, "mid": "888888857320007", "shopId": "33993", "netid": null, "province": 901, "district": 601, "zipcode": null, "telephone": "\u5168\u56fd\u670d\u52a1\u70ed\u7ebf\uff1a4008-11-3336", "posDate": "20071220", "destineTel": null, "togoTel": null, "trafficWay": "\u516c\u4ea4830 \u5730\u94c1\u4e09\u53f7\u7ebf 923", "signBuilding": null, "businessArea": null, "selfRoom": null, "businessTime": null, "stall": "\u6709", "consume": null, "serviceFei": null, "favourable": null, "shopMemo": null, "appraise": null, "website": null, "memo": null, "payTypes": "\u6749\u5fb7\u5361", "shopTypes": "\u4e13\u5356", "consumeTypes": null, "cookTypes": null, "orderNum": 1000, "card4no": null, "card4noAcc": null, "district2": 405, "searchScope": null, "status": 1, "address": "\u5149\u65b0\u8def132\u3001140\u3001144\u53f7", "name": "\u6c38\u4e50 \u5149\u65b0\u5e97", "id": 144587, "pageNo": 0, "pageCount": null, "pageSize": 10, "ids": null, "endTime": null, "startTime": null}, {"cardNumFive": null, "isSupportYj": null, "cityName": null, "districtName": null, "shopinfo": {"mid": "888888857320007", "good_flag": "1", "new_flag": "2", "short_name": "\u6c38\u4e50", "short_name_pinyin": "yongle", "status": null, "address": null, "name": null, "id": "33993"}, "mid": "888888857320007", "shopId": "33993", "netid": null, "province": 901, "district": 601, "zipcode": null, "telephone": "\u5168\u56fd\u670d\u52a1\u70ed\u7ebf\uff1a4008-11-3336", "posDate": "20071107", "destineTel": null, "togoTel": null, "trafficWay": "\u65c5\u6e382\u53f7\u7ebf \u6d66\u536b\u7ebf", "signBuilding": null, "businessArea": null, "selfRoom": null, "businessTime": "9:00~22:00", "stall": "\u6709", "consume": null, "serviceFei": null, "favourable": null, "shopMemo": null, "appraise": null, "website": null, "memo": null, "payTypes": "\u6749\u5fb7\u5361", "shopTypes": "\u4e13\u5356", "consumeTypes": null, "cookTypes": null, "orderNum": 1000, "card4no": null, "card4noAcc": null, "district2": 418, "searchScope": null, "status": 1, "address": "\u822a\u5934\u9547\u5bcc\u822a\u8def17-19\u53f7", "name": "\u6c38\u4e50 \u822a\u5934\u5e97", "id": 144588, "pageNo": 0, "pageCount": null, "pageSize": 10, "ids": null, "endTime": null, "startTime": null}], "pageLimit": 10700, "size": 10}