{"pageCount": 1095, "count": 10942, "pageNo": 1077, "subShopInfo": {"cardNumFive": "", "isSupportYj": "", "cityName": null, "districtName": null, "shopinfo": {"mid": null, "good_flag": null, "new_flag": null, "short_name": null, "short_name_pinyin": null, "status": null, "address": "", "name": "", "id": null}, "mid": null, "shopId": null, "netid": null, "province": 901, "district": null, "zipcode": null, "telephone": null, "posDate": null, "destineTel": null, "togoTel": null, "trafficWay": null, "signBuilding": null, "businessArea": null, "selfRoom": null, "businessTime": null, "stall": null, "consume": null, "serviceFei": null, "favourable": null, "shopMemo": "1", "appraise": null, "website": null, "memo": null, "payTypes": "", "shopTypes": "", "consumeTypes": null, "cookTypes": null, "orderNum": null, "card4no": null, "card4noAcc": null, "district2": null, "searchScope": null, "status": null, "address": "", "name": null, "id": null, "pageNo": 1076, "pageCount": null, "pageSize": 10, "ids": null, "endTime": null, "startTime": null}, "list": [{"cardNumFive": null, "isSupportYj": null, "cityName": null, "districtName": null, "shopinfo": {"mid": "888002172981126", "good_flag": null, "new_flag": null, "short_name": "\u82b8\u6960\u5065\u53d1\u4e2d\u5fc3", "short_name_pinyin": "yunnanjianfazhongxin", "status": null, "address": null, "name": null, "id": "36370"}, "mid": "888002172981126", "shopId": "36370", "netid": null, "province": 901, "district": 601, "zipcode": null, "telephone": "58733232", "posDate": "20100830", "destineTel": null, "togoTel": null, "trafficWay": null, "signBuilding": null, "businessArea": null, "selfRoom": null, "businessTime": null, "stall": null, "consume": null, "serviceFei": null, "favourable": null, "shopMemo": null, "appraise": null, "website": null, "memo": null, "payTypes": "\u6749\u5fb7\u5361", "shopTypes": "\u7f8e\u5bb9\u7f8e\u53d1", "consumeTypes": null, "cookTypes": null, "orderNum": 1000, "card4no": null, "card4noAcc": null, "district2": 406, "searchScope": null, "status": 1, "address": "\u957f\u5b81\u8def1018\u53f7\u9f99\u4e4b\u68a6\u8d2d\u7269\u5e7f\u573aB2027\u5ba4", "name": "\u82b8\u6960\u5065\u53d1\u4e2d\u5fc3 LA\u9f99\u4e4b\u68a6\u5e97", "id": 151367, "pageNo": 0, "pageCount": null, "pageSize": 10, "ids": null, "endTime": null, "startTime": null}, {"cardNumFive": null, "isSupportYj": null, "cityName": null, "districtName": null, "shopinfo": {"mid": "888888859120192", "good_flag": "2", "new_flag": "2", "short_name": "\u4f59\u5929\u6210", "short_name_pinyin": "yutiancheng", "status": null, "address": null, "name": null, "id": "34015"}, "mid": "888888859120192", "shopId": "34015", "netid": null, "province": 901, "district": 601, "zipcode": null, "telephone": "57601499", "posDate": "200908", "destineTel": null, "togoTel": null, "trafficWay": "\u516c\u4ea4\u8398\u677e\u4e13\u7ebf\u3001\u8398\u91d1\u4e13\u7ebf", "signBuilding": null, "businessArea": null, "selfRoom": null, "businessTime": null, "stall": null, "consume": null, "serviceFei": null, "favourable": null, "shopMemo": null, "appraise": null, "website": null, "memo": null, "payTypes": "\u6749\u5fb7\u5361", "shopTypes": "\u836f\u5e97", "consumeTypes": null, "cookTypes": null, "orderNum": 1000, "card4no": null, "card4noAcc": null, "district2": 412, "searchScope": null, "status": 1, "address": "\u8f66\u58a9\u9547\u866c\u957f\u8def64\u53f7", "name": "\u4f59\u5929\u6210 \u8f66\u58a9\u836f\u5e97", "id": 144683, "pageNo": 0, "pageCount": null, "pageSize": 10, "ids": null, "endTime": null, "startTime": null}, {"cardNumFive": null, "isSupportYj": null, "cityName": null, "districtName": null, "shopinfo": {"mid": "888888859120192", "good_flag": "2", "new_flag": "2", "short_name": "\u4f59\u5929\u6210", "short_name_pinyin": "yutiancheng", "status": null, "address": null, "name": null, "id": "34015"}, "mid": "888888859120192", "shopId": "34015", "netid": null, "province": 901, "district": 601, "zipcode": null, "telephone": "57601406", "posDate": "200908", "destineTel": null, "togoTel": null, "trafficWay": "\u516c\u4ea4\u8398\u91d1\u4e13\u7ebf\u3001\u6caa\u91d1\u7ebf", "signBuilding": null, "businessArea": null, "selfRoom": null, "businessTime": null, "stall": null, "consume": null, "serviceFei": null, "favourable": null, "shopMemo": null, "appraise": null, "website": null, "memo": null, "payTypes": "\u6749\u5fb7\u5361", "shopTypes": "\u836f\u5e97", "consumeTypes": null, "cookTypes": null, "orderNum": 1000, "card4no": null, "card4noAcc": null, "district2": 412, "searchScope": null, "status": 1, "address": "\u8f66\u58a9\u9547\u5f71\u89c6\u8def3\u53f7", "name": "\u4f59\u5929\u6210 \u8f66\u65b0\u836f\u5e97", "id": 144684, "pageNo": 0, "pageCount": null, "pageSize": 10, "ids": null, "endTime": null, "startTime": null}, {"cardNumFive": null, "isSupportYj": null, "cityName": null, "districtName": null, "shopinfo": {"mid": "888888859120192", "good_flag": "2", "new_flag": "2", "short_name": "\u4f59\u5929\u6210", "short_name_pinyin": "yutiancheng", "status": null, "address": null, "name": null, "id": "34015"}, "mid": "888888859120192", "shopId": "34015", "netid": null, "province": 901, "district": 601, "zipcode": null, "telephone": "57853626", "posDate": "200908", "destineTel": null, "togoTel": null, "trafficWay": "\u516c\u4ea414\u3001863", "signBuilding": null, "businessArea": null, "selfRoom": null, "businessTime": null, "stall": null, "consume": null, "serviceFei": null, "favourable": null, "shopMemo": null, "appraise": null, "website": null, "memo": null, "payTypes": "\u6749\u5fb7\u5361", "shopTypes": "\u836f\u5e97", "consumeTypes": null, "cookTypes": null, "orderNum": 1000, "card4no": null, "card4noAcc": null, "district2": 412, "searchScope": null, "status": 1, "address": "\u5927\u6e2f\u9547\u65b0\u6e2f\u8def132\u53f7", "name": "\u4f59\u5929\u6210 \u5927\u6e2f\u836f\u5e97", "id": 144685, "pageNo": 0, "pageCount": null, "pageSize": 10, "ids": null, "endTime": null, "startTime": null}, {"cardNumFive": null, "isSupportYj": null, "cityName": null, "districtName": null, "shopinfo": {"mid": "888888859120192", "good_flag": "2", "new_flag": "2", "short_name": "\u4f59\u5929\u6210", "short_name_pinyin": "yutiancheng", "status": null, "address": null, "name": null, "id": "34015"}, "mid": "888888859120192", "shopId": "34015", "netid": null, "province": 901, "district": 601, "zipcode": null, "telephone": "37793697", "posDate": "200908", "destineTel": null, "togoTel": null, "trafficWay": "\u516c\u4ea4\u677e\u6c5f14\u8def\u3001\u677e\u6c5f3\u8def", "signBuilding": null, "businessArea": null, "selfRoom": null, "businessTime": null, "stall": null, "consume": null, "serviceFei": null, "favourable": null, "shopMemo": null, "appraise": null, "website": null, "memo": null, "payTypes": "\u6749\u5fb7\u5361", "shopTypes": "\u836f\u5e97", "consumeTypes": null, "cookTypes": null, "orderNum": 1000, "card4no": null, "card4noAcc": null, "district2": 412, "searchScope": null, "status": 1, "address": "\u65b0\u677e\u6c5f\u8def1292\u53f71-8", "name": "\u4f59\u5929\u6210 \u4e1c\u660e\u836f\u5e97", "id": 144687, "pageNo": 0, "pageCount": null, "pageSize": 10, "ids": null, "endTime": null, "startTime": null}, {"cardNumFive": null, "isSupportYj": null, "cityName": null, "districtName": null, "shopinfo": {"mid": "888888859120192", "good_flag": "2", "new_flag": "2", "short_name": "\u4f59\u5929\u6210", "short_name_pinyin": "yutiancheng", "status": null, "address": null, "name": null, "id": "34015"}, "mid": "888888859120192", "shopId": "34015", "netid": null, "province": 901, "district": 601, "zipcode": null, "telephone": "57832286", "posDate": "200908", "destineTel": null, "togoTel": null, "trafficWay": "\u516c\u4ea4\u677e\u6c5f11\u8def\u3001\u677e\u6c5f17\u8def", "signBuilding": null, "businessArea": null, "selfRoom": null, "businessTime": null, "stall": null, "consume": null, "serviceFei": null, "favourable": null, "shopMemo": null, "appraise": null, "website": null, "memo": null, "payTypes": "\u6749\u5fb7\u5361", "shopTypes": "\u836f\u5e97", "consumeTypes": null, "cookTypes": null, "orderNum": 1000, "card4no": null, "card4noAcc": null, "district2": 412, "searchScope": null, "status": 1, "address": "\u4e2d\u5c71\u4e1c\u8def170\u53f7", "name": "\u4f59\u5929\u6210 \u65b9\u5854\u836f\u5e97", "id": 144688, "pageNo": 0, "pageCount": null, "pageSize": 10, "ids": null, "endTime": null, "startTime": null}, {"cardNumFive": null, "isSupportYj": null, "cityName": null, "districtName": null, "shopinfo": {"mid": "888888859120192", "good_flag": "2", "new_flag": "2", "short_name": "\u4f59\u5929\u6210", "short_name_pinyin": "yutiancheng", "status": null, "address": null, "name": null, "id": "34015"}, "mid": "888888859120192", "shopId": "34015", "netid": null, "province": 901, "district": 601, "zipcode": null, "telephone": "57611967", "posDate": "200908", "destineTel": null, "togoTel": null, "trafficWay": "\u516c\u4ea4\u6caa\u9648\u7ebf\u3001\u677e\u6c5f46\u8def", "signBuilding": null, "businessArea": null, "selfRoom": null, "businessTime": null, "stall": null, "consume": null, "serviceFei": null, "favourable": null, "shopMemo": null, "appraise": null, "website": null, "memo": null, "payTypes": "\u6749\u5fb7\u5361", "shopTypes": "\u836f\u5e97", "consumeTypes": null, "cookTypes": null, "orderNum": 1000, "card4no": null, "card4noAcc": null, "district2": 412, "searchScope": null, "status": 1, "address": "\u6cd7\u6cfe\u9f13\u6d6a\u8def356~358\u53f7", "name": "\u4f59\u5929\u6210 \u9f13\u6d6a\u836f\u5e97", "id": 144689, "pageNo": 0, "pageCount": null, "pageSize": 10, "ids": null, "endTime": null, "startTime": null}, {"cardNumFive": null, "isSupportYj": null, "cityName": null, "districtName": null, "shopinfo": {"mid": "888888859120192", "good_flag": "2", "new_flag": "2", "short_name": "\u4f59\u5929\u6210", "short_name_pinyin": "yutiancheng", "status": null, "address": null, "name": null, "id": "34015"}, "mid": "888888859120192", "shopId": "34015", "netid": null, "province": 901, "district": 601, "zipcode": null, "telephone": "57630906", "posDate": "200908", "destineTel": null, "togoTel": null, "trafficWay": "\u516c\u4ea4\u677e\u6c5f42\u8def\u673a\u52a8\u3001\u5730\u94c1\u4e5d\u53f7\u7ebf", "signBuilding": null, "businessArea": null, "selfRoom": null, "businessTime": null, "stall": null, "consume": null, "serviceFei": null, "favourable": null, "shopMemo": null, "appraise": null, "website": null, "memo": null, "payTypes": "\u6749\u5fb7\u5361", "shopTypes": "\u836f\u5e97", "consumeTypes": null, "cookTypes": null, "orderNum": 1000, "card4no": null, "card4noAcc": null, "district2": 412, "searchScope": null, "status": 1, "address": "\u4e5d\u4ead\u9547\u6caa\u4ead\u5357\u8def12-14\u53f7", "name": "\u4f59\u5929\u6210 \u4e5d\u4ead\u65b0\u533a\u836f\u5e97", "id": 144691, "pageNo": 0, "pageCount": null, "pageSize": 10, "ids": null, "endTime": null, "startTime": null}, {"cardNumFive": null, "isSupportYj": null, "cityName": null, "districtName": null, "shopinfo": {"mid": "888888859120192", "good_flag": "2", "new_flag": "2", "short_name": "\u4f59\u5929\u6210", "short_name_pinyin": "yutiancheng", "status": null, "address": null, "name": null, "id": "34015"}, "mid": "888888859120192", "shopId": "34015", "netid": null, "province": 901, "district": 601, "zipcode": null, "telephone": "57633912", "posDate": "200908", "destineTel": null, "togoTel": null, "trafficWay": "\u516c\u4ea4759\u300192B", "signBuilding": null, "businessArea": null, "selfRoom": null, "businessTime": null, "stall": null, "consume": null, "serviceFei": null, "favourable": null, "shopMemo": null, "appraise": null, "website": null, "memo": null, "payTypes": "\u6749\u5fb7\u5361", "shopTypes": "\u836f\u5e97", "consumeTypes": null, "cookTypes": null, "orderNum": 1000, "card4no": null, "card4noAcc": null, "district2": 412, "searchScope": null, "status": 1, "address": "\u4e5d\u4ead\u9547\u4e5d\u4ead\u5927\u8857605\u53f7~607\u53f7", "name": "\u4f59\u5929\u6210 \u4e5d\u4ead\u836f\u5e97", "id": 144692, "pageNo": 0, "pageCount": null, "pageSize": 10, "ids": null, "endTime": null, "startTime": null}, {"cardNumFive": null, "isSupportYj": null, "cityName": null, "districtName": null, "shopinfo": {"mid": "888888859120192", "good_flag": "2", "new_flag": "2", "short_name": "\u4f59\u5929\u6210", "short_name_pinyin": "yutiancheng", "status": null, "address": null, "name": null, "id": "34015"}, "mid": "888888859120192", "shopId": "34015", "netid": null, "province": 901, "district": 601, "zipcode": null, "telephone": "57634645", "posDate": "200908", "destineTel": null, "togoTel": null, "trafficWay": "\u516c\u4ea4\u4e5d\u4ead\u4e8c\u8def", "signBuilding": null, "businessArea": null, "selfRoom": null, "businessTime": null, "stall": null, "consume": null, "serviceFei": null, "favourable": null, "shopMemo": null, "appraise": null, "website": null, "memo": null, "payTypes": "\u6749\u5fb7\u5361", "shopTypes": "\u836f\u5e97", "consumeTypes": null, "cookTypes": null, "orderNum": 1000, "card4no": null, "card4noAcc": null, "district2": 412, "searchScope": null, "status": 1, "address": "\u4e5d\u4ead\u9547\u4e5d\u4ead\u5927\u88571176\u53f7", "name": "\u4f59\u5929\u6210 \u9f99\u4ead\u836f\u5e97", "id": 144693, "pageNo": 0, "pageCount": null, "pageSize": 10, "ids": null, "endTime": null, "startTime": null}], "pageLimit": 10760, "size": 10}