{"pageCount": 1095, "count": 10942, "pageNo": 1085, "subShopInfo": {"cardNumFive": "", "isSupportYj": "", "cityName": null, "districtName": null, "shopinfo": {"mid": null, "good_flag": null, "new_flag": null, "short_name": null, "short_name_pinyin": null, "status": null, "address": "", "name": "", "id": null}, "mid": null, "shopId": null, "netid": null, "province": 901, "district": null, "zipcode": null, "telephone": null, "posDate": null, "destineTel": null, "togoTel": null, "trafficWay": null, "signBuilding": null, "businessArea": null, "selfRoom": null, "businessTime": null, "stall": null, "consume": null, "serviceFei": null, "favourable": null, "shopMemo": "1", "appraise": null, "website": null, "memo": null, "payTypes": "", "shopTypes": "", "consumeTypes": null, "cookTypes": null, "orderNum": null, "card4no": null, "card4noAcc": null, "district2": null, "searchScope": null, "status": null, "address": "", "name": null, "id": null, "pageNo": 1084, "pageCount": null, "pageSize": 10, "ids": null, "endTime": null, "startTime": null}, "list": [{"cardNumFive": null, "isSupportYj": null, "cityName": null, "districtName": null, "shopinfo": {"mid": "888888872210004", "good_flag": "2", "new_flag": "2", "short_name": "\u771f\u793c\u4eea", "short_name_pinyin": "zhenliyi", "status": null, "address": null, "name": null, "id": "34116"}, "mid": "888888872210004", "shopId": "34116", "netid": null, "province": 901, "district": 601, "zipcode": "200060", "telephone": null, "posDate": "20070309", "destineTel": null, "togoTel": null, "trafficWay": "\u516c\u4ea4830", "signBuilding": "\u7ef4\u591a\u5229\u5e7f\u573a", "businessArea": null, "selfRoom": "\u65e0", "businessTime": null, "stall": "\u65e0", "consume": null, "serviceFei": null, "favourable": null, "shopMemo": null, "appraise": null, "website": null, "memo": null, "payTypes": "\u6749\u5fb7\u5361", "shopTypes": "\u5176\u4ed6", "consumeTypes": null, "cookTypes": null, "orderNum": 1000, "card4no": null, "card4noAcc": null, "district2": 404, "searchScope": null, "status": 1, "address": "\u897f\u5eb7\u8def1068\u53f7\u7ef4\u591a\u5229\u5e7f\u573aA\u680b5\u697cE\u5ea7", "name": "\u771f\u793c\u4eea \u897f\u5eb7\u8def\u5e97", "id": 144900, "pageNo": 0, "pageCount": null, "pageSize": 10, "ids": null, "endTime": null, "startTime": null}, {"cardNumFive": null, "isSupportYj": null, "cityName": null, "districtName": null, "shopinfo": {"mid": "888888872300005", "good_flag": "2", "new_flag": "2", "short_name": "\u81fb\u7f8e\u7f8e\u5bb9", "short_name_pinyin": "zhenmeimeirong", "status": null, "address": null, "name": null, "id": "34121"}, "mid": "888888872300005", "shopId": "34121", "netid": null, "province": 901, "district": 601, "zipcode": "200081", "telephone": "56712268", "posDate": "20070124", "destineTel": "56712268", "togoTel": "56712268", "trafficWay": "937 959 123\u533a\u95f4", "signBuilding": "\u5e90\u8fc5\u5927\u53a6", "businessArea": "120\u5e73\u7c73\u5de6\u53f3", "selfRoom": "\u65e0", "businessTime": null, "stall": "\u65e0", "consume": null, "serviceFei": null, "favourable": null, "shopMemo": null, "appraise": null, "website": null, "memo": null, "payTypes": "\u6749\u5fb7\u5361", "shopTypes": "\u7f8e\u5bb9\u7f8e\u53d1", "consumeTypes": null, "cookTypes": null, "orderNum": 1000, "card4no": null, "card4noAcc": null, "district2": 408, "searchScope": null, "status": 1, "address": "\u6b27\u9633\u8def568\u53f7\u5e90\u8fc5\u5927\u53a6608H", "name": "\u81fb\u7f8e\u7f8e\u5bb9 \u8679\u53e3\u5e97", "id": 144948, "pageNo": 0, "pageCount": null, "pageSize": 10, "ids": null, "endTime": null, "startTime": null}, {"cardNumFive": null, "isSupportYj": null, "cityName": null, "districtName": null, "shopinfo": {"mid": "888002156911387", "good_flag": null, "new_flag": null, "short_name": "\u771f\u4e1d\u5546\u53a6", "short_name_pinyin": "zhensishangsha", "status": null, "address": null, "name": null, "id": "36341"}, "mid": "888002156911387", "shopId": "36341", "netid": null, "province": 901, "district": 601, "zipcode": null, "telephone": "64373370", "posDate": "20100819", "destineTel": null, "togoTel": null, "trafficWay": null, "signBuilding": null, "businessArea": null, "selfRoom": null, "businessTime": null, "stall": null, "consume": null, "serviceFei": null, "favourable": null, "shopMemo": null, "appraise": null, "website": null, "memo": null, "payTypes": "\u6749\u5fb7\u5361", "shopTypes": "\u96f6\u552e", "consumeTypes": null, "cookTypes": null, "orderNum": 1000, "card4no": null, "card4noAcc": null, "district2": 403, "searchScope": null, "status": 1, "address": "\u5f90\u6c47\u533a\u6dee\u6d77\u4e2d\u8def1226\u53f7", "name": "\u771f\u4e1d\u5546\u53a6 \u6dee\u6d77\u4e2d\u8def\u5e97", "id": 151270, "pageNo": 0, "pageCount": null, "pageSize": 10, "ids": null, "endTime": null, "startTime": null}, {"cardNumFive": null, "isSupportYj": null, "cityName": null, "districtName": null, "shopinfo": {"mid": "888002156911387", "good_flag": null, "new_flag": null, "short_name": "\u771f\u4e1d\u5546\u53a6", "short_name_pinyin": "zhensishangsha", "status": null, "address": null, "name": null, "id": "36341"}, "mid": "888002156911387", "shopId": "36341", "netid": null, "province": 901, "district": 601, "zipcode": null, "telephone": "53830561", "posDate": "20100819", "destineTel": null, "togoTel": null, "trafficWay": null, "signBuilding": null, "businessArea": null, "selfRoom": null, "businessTime": null, "stall": null, "consume": null, "serviceFei": null, "favourable": null, "shopMemo": null, "appraise": null, "website": null, "memo": null, "payTypes": "\u6749\u5fb7\u5361", "shopTypes": "\u96f6\u552e", "consumeTypes": null, "cookTypes": null, "orderNum": 1000, "card4no": null, "card4noAcc": null, "district2": 401, "searchScope": null, "status": 1, "address": "\u5362\u6e7e\u533a\u6dee\u6d77\u4e2d\u8def588\u53f7", "name": "\u771f\u4e1d\u5546\u53a6 \u6dee\u6d77\u4e2d\u8def\u4e8c\u5e97", "id": 151271, "pageNo": 0, "pageCount": null, "pageSize": 10, "ids": null, "endTime": null, "startTime": null}, {"cardNumFive": null, "isSupportYj": null, "cityName": null, "districtName": null, "shopinfo": {"mid": "888002156911387", "good_flag": null, "new_flag": null, "short_name": "\u771f\u4e1d\u5546\u53a6", "short_name_pinyin": "zhensishangsha", "status": null, "address": null, "name": null, "id": "36341"}, "mid": "888002156911387", "shopId": "36341", "netid": null, "province": 901, "district": 601, "zipcode": null, "telephone": "62150706", "posDate": "20100819", "destineTel": null, "togoTel": null, "trafficWay": null, "signBuilding": null, "businessArea": null, "selfRoom": null, "businessTime": null, "stall": null, "consume": null, "serviceFei": null, "favourable": null, "shopMemo": null, "appraise": null, "website": null, "memo": null, "payTypes": "\u6749\u5fb7\u5361", "shopTypes": "\u96f6\u552e", "consumeTypes": null, "cookTypes": null, "orderNum": 1000, "card4no": null, "card4noAcc": null, "district2": 401, "searchScope": null, "status": 1, "address": "\u9ec4\u6d66\u533a\u5357\u4eac\u897f\u8def776\u53f7", "name": "\u771f\u4e1d\u5546\u53a6 \u5357\u4eac\u4e1c\u8def\u5e97", "id": 151273, "pageNo": 0, "pageCount": null, "pageSize": 10, "ids": null, "endTime": null, "startTime": null}, {"cardNumFive": null, "isSupportYj": null, "cityName": null, "districtName": null, "shopinfo": {"mid": "888002156911387", "good_flag": null, "new_flag": null, "short_name": "\u771f\u4e1d\u5546\u53a6", "short_name_pinyin": "zhensishangsha", "status": null, "address": null, "name": null, "id": "36341"}, "mid": "888002156911387", "shopId": "36341", "netid": null, "province": 901, "district": 601, "zipcode": null, "telephone": "63522398", "posDate": "20100819", "destineTel": null, "togoTel": null, "trafficWay": null, "signBuilding": null, "businessArea": null, "selfRoom": null, "businessTime": null, "stall": null, "consume": null, "serviceFei": null, "favourable": null, "shopMemo": null, "appraise": null, "website": null, "memo": null, "payTypes": "\u6749\u5fb7\u5361", "shopTypes": "\u96f6\u552e", "consumeTypes": null, "cookTypes": null, "orderNum": 1000, "card4no": null, "card4noAcc": null, "district2": 401, "searchScope": null, "status": 1, "address": "\u9ec4\u6d66\u533a\u5357\u4eac\u4e1c\u8def588\u53f7", "name": "\u771f\u4e1d\u5546\u53a6 \u5357\u4eac\u4e1c\u8def\u4e8c\u5e97", "id": 151274, "pageNo": 0, "pageCount": null, "pageSize": 10, "ids": null, "endTime": null, "startTime": null}, {"cardNumFive": null, "isSupportYj": null, "cityName": null, "districtName": null, "shopinfo": {"mid": "888002156911387", "good_flag": null, "new_flag": null, "short_name": "\u771f\u4e1d\u5546\u53a6", "short_name_pinyin": "zhensishangsha", "status": null, "address": null, "name": null, "id": "36341"}, "mid": "888002156911387", "shopId": "36341", "netid": null, "province": 901, "district": 601, "zipcode": null, "telephone": "63213145", "posDate": "20100819", "destineTel": null, "togoTel": null, "trafficWay": null, "signBuilding": null, "businessArea": null, "selfRoom": null, "businessTime": null, "stall": null, "consume": null, "serviceFei": null, "favourable": null, "shopMemo": null, "appraise": null, "website": null, "memo": null, "payTypes": "\u6749\u5fb7\u5361", "shopTypes": "\u96f6\u552e", "consumeTypes": null, "cookTypes": null, "orderNum": 1000, "card4no": null, "card4noAcc": null, "district2": 401, "searchScope": null, "status": 1, "address": "\u9ec4\u6d66\u533a\u5357\u4eac\u4e1c\u8def136\u53f7", "name": "\u771f\u4e1d\u5546\u53a6 \u5357\u4eac\u4e1c\u8def\u56db\u5e97", "id": 151276, "pageNo": 0, "pageCount": null, "pageSize": 10, "ids": null, "endTime": null, "startTime": null}, {"cardNumFive": null, "isSupportYj": null, "cityName": null, "districtName": null, "shopinfo": {"mid": "888002156911387", "good_flag": null, "new_flag": null, "short_name": "\u771f\u4e1d\u5546\u53a6", "short_name_pinyin": "zhensishangsha", "status": null, "address": null, "name": null, "id": "36341"}, "mid": "888002156911387", "shopId": "36341", "netid": null, "province": 901, "district": 601, "zipcode": null, "telephone": "53751799", "posDate": "20100819", "destineTel": null, "togoTel": null, "trafficWay": null, "signBuilding": null, "businessArea": null, "selfRoom": null, "businessTime": null, "stall": null, "consume": null, "serviceFei": null, "favourable": null, "shopMemo": null, "appraise": null, "website": null, "memo": null, "payTypes": "\u6749\u5fb7\u5361", "shopTypes": "\u96f6\u552e", "consumeTypes": null, "cookTypes": null, "orderNum": 1000, "card4no": null, "card4noAcc": null, "district2": 401, "searchScope": null, "status": 1, "address": "\u9ec4\u6d66\u533a\u5357\u4eac\u897f\u8def150\u53f7", "name": "\u771f\u4e1d\u5546\u53a6 \u5357\u4eac\u897f\u8def\u5e97", "id": 151277, "pageNo": 0, "pageCount": null, "pageSize": 10, "ids": null, "endTime": null, "startTime": null}, {"cardNumFive": null, "isSupportYj": null, "cityName": null, "districtName": null, "shopinfo": {"mid": "888002156911387", "good_flag": null, "new_flag": null, "short_name": "\u771f\u4e1d\u5546\u53a6", "short_name_pinyin": "zhensishangsha", "status": null, "address": null, "name": null, "id": "36341"}, "mid": "888002156911387", "shopId": "36341", "netid": null, "province": 901, "district": 601, "zipcode": null, "telephone": "64701132", "posDate": "20100819", "destineTel": null, "togoTel": null, "trafficWay": null, "signBuilding": null, "businessArea": null, "selfRoom": null, "businessTime": null, "stall": null, "consume": null, "serviceFei": null, "favourable": null, "shopMemo": null, "appraise": null, "website": null, "memo": null, "payTypes": "\u6749\u5fb7\u5361", "shopTypes": "\u96f6\u552e", "consumeTypes": null, "cookTypes": null, "orderNum": 1000, "card4no": null, "card4noAcc": null, "district2": 403, "searchScope": null, "status": 1, "address": "\u5f90\u6c47\u533a\u7530\u6797\u8def40\u53f7", "name": "\u771f\u4e1d\u5546\u53a6 \u7530\u6797\u8def\u5e97", "id": 151279, "pageNo": 0, "pageCount": null, "pageSize": 10, "ids": null, "endTime": null, "startTime": null}, {"cardNumFive": null, "isSupportYj": null, "cityName": null, "districtName": null, "shopinfo": {"mid": "888002156911387", "good_flag": null, "new_flag": null, "short_name": "\u771f\u4e1d\u5546\u53a6", "short_name_pinyin": "zhensishangsha", "status": null, "address": null, "name": null, "id": "36341"}, "mid": "888002156911387", "shopId": "36341", "netid": null, "province": 901, "district": 601, "zipcode": null, "telephone": "64031784", "posDate": "20100819", "destineTel": null, "togoTel": null, "trafficWay": null, "signBuilding": null, "businessArea": null, "selfRoom": null, "businessTime": null, "stall": null, "consume": null, "serviceFei": null, "favourable": null, "shopMemo": null, "appraise": null, "website": null, "memo": null, "payTypes": "\u6749\u5fb7\u5361", "shopTypes": "\u96f6\u552e", "consumeTypes": null, "cookTypes": null, "orderNum": 1000, "card4no": null, "card4noAcc": null, "district2": 403, "searchScope": null, "status": 1, "address": "\u5f90\u6c47\u533a\u659c\u571f\u8def1404\u53f7", "name": "\u771f\u4e1d\u5546\u53a6 \u659c\u571f\u8def\u5e97", "id": 151280, "pageNo": 0, "pageCount": null, "pageSize": 10, "ids": null, "endTime": null, "startTime": null}], "pageLimit": 10840, "size": 10}