{"pageCount": 1095, "count": 10942, "pageNo": 1084, "subShopInfo": {"cardNumFive": "", "isSupportYj": "", "cityName": null, "districtName": null, "shopinfo": {"mid": null, "good_flag": null, "new_flag": null, "short_name": null, "short_name_pinyin": null, "status": null, "address": "", "name": "", "id": null}, "mid": null, "shopId": null, "netid": null, "province": 901, "district": null, "zipcode": null, "telephone": null, "posDate": null, "destineTel": null, "togoTel": null, "trafficWay": null, "signBuilding": null, "businessArea": null, "selfRoom": null, "businessTime": null, "stall": null, "consume": null, "serviceFei": null, "favourable": null, "shopMemo": "1", "appraise": null, "website": null, "memo": null, "payTypes": "", "shopTypes": "", "consumeTypes": null, "cookTypes": null, "orderNum": null, "card4no": null, "card4noAcc": null, "district2": null, "searchScope": null, "status": null, "address": "", "name": null, "id": null, "pageNo": 1083, "pageCount": null, "pageSize": 10, "ids": null, "endTime": null, "startTime": null}, "list": [{"cardNumFive": null, "isSupportYj": null, "cityName": null, "districtName": null, "shopinfo": {"mid": "888888853990162", "good_flag": "2", "new_flag": "2", "short_name": "\u5f20\u5c0f\u6cc9", "short_name_pinyin": "zhangxiaoquan", "status": null, "address": null, "name": null, "id": "34084"}, "mid": "888888853990162", "shopId": "34084", "netid": null, "province": 901, "district": 601, "zipcode": null, "telephone": null, "posDate": "20081031", "destineTel": null, "togoTel": null, "trafficWay": "\u516c\u4ea4837 947 \u5317\u5b89\u7ebf", "signBuilding": null, "businessArea": null, "selfRoom": null, "businessTime": "11:00~23:00", "stall": null, "consume": null, "serviceFei": null, "favourable": null, "shopMemo": null, "appraise": null, "website": null, "memo": null, "payTypes": "\u6749\u5fb7\u5361", "shopTypes": "\u4e13\u5356", "consumeTypes": null, "cookTypes": null, "orderNum": 1000, "card4no": null, "card4noAcc": null, "district2": 411, "searchScope": null, "status": 1, "address": "\u66f9\u5b89\u516c\u8def1488\u53f7\u4e09\u697c", "name": "\u5f20\u5c0f\u6cc9 \u6613\u4e70\u5f97\u66f9\u5b89\u5e97", "id": 144832, "pageNo": 0, "pageCount": null, "pageSize": 10, "ids": null, "endTime": null, "startTime": null}, {"cardNumFive": null, "isSupportYj": null, "cityName": null, "districtName": null, "shopinfo": {"mid": "888888853990162", "good_flag": "2", "new_flag": "2", "short_name": "\u5f20\u5c0f\u6cc9", "short_name_pinyin": "zhangxiaoquan", "status": null, "address": null, "name": null, "id": "34084"}, "mid": "888888853990162", "shopId": "34084", "netid": null, "province": 901, "district": 601, "zipcode": null, "telephone": null, "posDate": "20081112", "destineTel": null, "togoTel": null, "trafficWay": "\u516c\u4ea4916 \u5730\u94c1\u4e00\u53f7\u7ebf", "signBuilding": null, "businessArea": null, "selfRoom": null, "businessTime": "10:00~22:00", "stall": null, "consume": null, "serviceFei": null, "favourable": null, "shopMemo": null, "appraise": null, "website": null, "memo": null, "payTypes": "\u6749\u5fb7\u5361", "shopTypes": "\u4e13\u5356", "consumeTypes": null, "cookTypes": null, "orderNum": 1000, "card4no": null, "card4noAcc": null, "district2": 416, "searchScope": null, "status": 1, "address": "\u957f\u6c5f\u897f\u8def2211\u53f7A-41\u53f7", "name": "\u5f20\u5c0f\u6cc9 \u6613\u4e70\u5f97\u957f\u6c5f\u5e97", "id": 144833, "pageNo": 0, "pageCount": null, "pageSize": 10, "ids": null, "endTime": null, "startTime": null}, {"cardNumFive": null, "isSupportYj": null, "cityName": null, "districtName": null, "shopinfo": {"mid": "888888853990162", "good_flag": "2", "new_flag": "2", "short_name": "\u5f20\u5c0f\u6cc9", "short_name_pinyin": "zhangxiaoquan", "status": null, "address": null, "name": null, "id": "34084"}, "mid": "888888853990162", "shopId": "34084", "netid": null, "province": 901, "district": 601, "zipcode": null, "telephone": null, "posDate": "20081103", "destineTel": null, "togoTel": null, "trafficWay": "\u516c\u4ea4\u8398\u5357\u4e13\u7ebf \u83b2\u5e84\u4e13\u7ebf", "signBuilding": null, "businessArea": null, "selfRoom": null, "businessTime": "10:00~21:30", "stall": null, "consume": null, "serviceFei": null, "favourable": null, "shopMemo": null, "appraise": null, "website": null, "memo": null, "payTypes": "\u6749\u5fb7\u5361", "shopTypes": "\u4e13\u5356", "consumeTypes": null, "cookTypes": null, "orderNum": 1000, "card4no": null, "card4noAcc": null, "district2": 413, "searchScope": null, "status": 1, "address": "\u5357\u6865\u73af\u57ce\u4e1c\u8def891\u53f7-921\u53f7\u4e8c\u697c", "name": "\u5f20\u5c0f\u6cc9 \u6613\u4e70\u5f97\u5357\u6865\u5e97", "id": 144834, "pageNo": 0, "pageCount": null, "pageSize": 10, "ids": null, "endTime": null, "startTime": null}, {"cardNumFive": null, "isSupportYj": null, "cityName": null, "districtName": null, "shopinfo": {"mid": "888888859120014", "good_flag": "2", "new_flag": "2", "short_name": "\u5146\u6d32\u836f\u54c1", "short_name_pinyin": "zhaozhouyaopin", "status": null, "address": null, "name": null, "id": "34092"}, "mid": "888888859120014", "shopId": "34092", "netid": null, "province": 901, "district": 601, "zipcode": "200135", "telephone": "58337951", "posDate": "20070131", "destineTel": "58337951", "togoTel": "58337951", "trafficWay": "984 936", "signBuilding": null, "businessArea": null, "selfRoom": "\u65e0", "businessTime": null, "stall": "\u65e0", "consume": null, "serviceFei": null, "favourable": null, "shopMemo": null, "appraise": null, "website": null, "memo": null, "payTypes": "\u6749\u5fb7\u5361", "shopTypes": "\u836f\u5e97", "consumeTypes": null, "cookTypes": null, "orderNum": 1000, "card4no": null, "card4noAcc": null, "district2": 418, "searchScope": null, "status": 1, "address": "\u4e01\u9999\u8def1177\u53f7", "name": "\u5146\u6d32\u836f\u54c1 \u4e01\u9999\u8def\u5e97", "id": 144850, "pageNo": 0, "pageCount": null, "pageSize": 10, "ids": null, "endTime": null, "startTime": null}, {"cardNumFive": null, "isSupportYj": null, "cityName": null, "districtName": null, "shopinfo": {"mid": "888002155330007", "good_flag": null, "new_flag": null, "short_name": "\u5f81\u9a70\u6c7d\u914d", "short_name_pinyin": "zhengchiqipei", "status": null, "address": null, "name": null, "id": "36329"}, "mid": "888002155330007", "shopId": "36329", "netid": null, "province": 901, "district": 601, "zipcode": null, "telephone": "56797008", "posDate": "20100820", "destineTel": null, "togoTel": null, "trafficWay": null, "signBuilding": null, "businessArea": null, "selfRoom": null, "businessTime": null, "stall": null, "consume": null, "serviceFei": null, "favourable": null, "shopMemo": null, "appraise": null, "website": null, "memo": null, "payTypes": "\u6749\u5fb7\u5361", "shopTypes": "\u6c7d\u8f66", "consumeTypes": null, "cookTypes": null, "orderNum": 1000, "card4no": null, "card4noAcc": null, "district2": 408, "searchScope": null, "status": 1, "address": "\u4e30\u9547\u8def155\u53f7", "name": "\u5f81\u9a70\u6c7d\u914d \u4e30\u9547\u8def\u5e97", "id": 151242, "pageNo": 0, "pageCount": null, "pageSize": 10, "ids": null, "endTime": null, "startTime": null}, {"cardNumFive": null, "isSupportYj": null, "cityName": null, "districtName": null, "shopinfo": {"mid": "888002159990073", "good_flag": null, "new_flag": null, "short_name": "\u6b63\u5927\u4f18\u9c9c", "short_name_pinyin": "zhengdayouxian", "status": null, "address": null, "name": null, "id": "43237"}, "mid": "888002159990073", "shopId": "43237", "netid": null, "province": 901, "district": 601, "zipcode": null, "telephone": null, "posDate": null, "destineTel": null, "togoTel": null, "trafficWay": null, "signBuilding": null, "businessArea": null, "selfRoom": null, "businessTime": null, "stall": null, "consume": null, "serviceFei": null, "favourable": null, "shopMemo": null, "appraise": null, "website": null, "memo": null, "payTypes": "\u6749\u5fb7\u5361", "shopTypes": "\u8d85\u5e02", "consumeTypes": null, "cookTypes": null, "orderNum": 1000, "card4no": null, "card4noAcc": null, "district2": 404, "searchScope": null, "status": 1, "address": "\u4f59\u59da\u8def440\u53f7", "name": "\u6b63\u5927\u4f18\u9c9c \u4f59\u59da\u8def\u5e97", "id": 193553, "pageNo": 0, "pageCount": null, "pageSize": 10, "ids": null, "endTime": null, "startTime": null}, {"cardNumFive": null, "isSupportYj": null, "cityName": null, "districtName": null, "shopinfo": {"mid": "888002159990073", "good_flag": null, "new_flag": null, "short_name": "\u6b63\u5927\u4f18\u9c9c", "short_name_pinyin": "zhengdayouxian", "status": null, "address": null, "name": null, "id": "43237"}, "mid": "888002159990073", "shopId": "43237", "netid": null, "province": 901, "district": 601, "zipcode": null, "telephone": null, "posDate": null, "destineTel": null, "togoTel": null, "trafficWay": null, "signBuilding": null, "businessArea": null, "selfRoom": null, "businessTime": null, "stall": null, "consume": null, "serviceFei": null, "favourable": null, "shopMemo": null, "appraise": null, "website": null, "memo": null, "payTypes": "\u6749\u5fb7\u5361", "shopTypes": "\u8d85\u5e02", "consumeTypes": null, "cookTypes": null, "orderNum": 1000, "card4no": null, "card4noAcc": null, "district2": 405, "searchScope": null, "status": 1, "address": "\u771f\u5317\u8def4288\u53f71\u5c42L118\u5ba4", "name": "\u6b63\u5927\u4f18\u9c9c \u4e0a\u6d77\u771f\u5317\u8def\u5e97", "id": 198000, "pageNo": 0, "pageCount": null, "pageSize": 10, "ids": null, "endTime": null, "startTime": null}, {"cardNumFive": null, "isSupportYj": null, "cityName": null, "districtName": null, "shopinfo": {"mid": "888888858120250", "good_flag": "1", "new_flag": "2", "short_name": "\u771f\u9505\u5496\u5561", "short_name_pinyin": "zhenguokafei", "status": null, "address": null, "name": null, "id": "34111"}, "mid": "888888858120250", "shopId": "34111", "netid": null, "province": 901, "district": 601, "zipcode": null, "telephone": "62806022", "posDate": "20071011", "destineTel": null, "togoTel": null, "trafficWay": "\u516c\u4ea4946 44", "signBuilding": null, "businessArea": "100\u5e73\u65b9\u7c73", "selfRoom": null, "businessTime": "8:00~24:00", "stall": null, "consume": null, "serviceFei": null, "favourable": null, "shopMemo": null, "appraise": null, "website": null, "memo": null, "payTypes": "\u6749\u5fb7\u5361", "shopTypes": "\u9910\u996e", "consumeTypes": null, "cookTypes": null, "orderNum": 1000, "card4no": null, "card4noAcc": null, "district2": 406, "searchScope": null, "status": 1, "address": "\u756a\u79ba\u8def420\u53f7", "name": "\u771f\u9505\u5496\u5561 \u5f71\u57ce\u5e97", "id": 144895, "pageNo": 0, "pageCount": null, "pageSize": 10, "ids": null, "endTime": null, "startTime": null}, {"cardNumFive": null, "isSupportYj": null, "cityName": null, "districtName": null, "shopinfo": {"mid": "888888872990002", "good_flag": "2", "new_flag": "2", "short_name": "\u6b63\u7ae0\u6d17\u8863", "short_name_pinyin": "zhengzhangxiyi", "status": null, "address": null, "name": null, "id": "34126"}, "mid": "888888872990002", "shopId": "34126", "netid": null, "province": 901, "district": 601, "zipcode": "200020", "telephone": "53063315", "posDate": "20070119", "destineTel": "53063315", "togoTel": "53063315", "trafficWay": "\u6caa\u6606\u7ebf \u516c\u4ea402 945", "signBuilding": null, "businessArea": "30~50\u5e73\u7c73", "selfRoom": "\u65e0", "businessTime": null, "stall": "\u65e0", "consume": null, "serviceFei": null, "favourable": null, "shopMemo": null, "appraise": null, "website": null, "memo": null, "payTypes": "\u6749\u5fb7\u5361", "shopTypes": "\u5176\u4ed6", "consumeTypes": null, "cookTypes": null, "orderNum": 1000, "card4no": null, "card4noAcc": null, "district2": 401, "searchScope": null, "status": 1, "address": "\u6dee\u6d77\u4e2d\u8def600\u53f72\u697c", "name": "\u6b63\u7ae0\u6d17\u8863 \u6dee\u6d77\u4e2d\u8def\u603b\u5e97", "id": 144957, "pageNo": 0, "pageCount": null, "pageSize": 10, "ids": null, "endTime": null, "startTime": null}, {"cardNumFive": null, "isSupportYj": null, "cityName": null, "districtName": null, "shopinfo": {"mid": "888888854410135", "good_flag": "2", "new_flag": "2", "short_name": "\u771f\u8001\u5927\u623f\u98df\u54c1", "short_name_pinyin": "zhenlaodafangshipin", "status": null, "address": null, "name": null, "id": "34115"}, "mid": "888888854410135", "shopId": "34115", "netid": null, "province": 901, "district": 601, "zipcode": null, "telephone": "63223086", "posDate": "20081222", "destineTel": null, "togoTel": null, "trafficWay": "\u516c\u4ea420 37 921", "signBuilding": null, "businessArea": "150", "selfRoom": null, "businessTime": "9:00~22:00", "stall": null, "consume": null, "serviceFei": null, "favourable": null, "shopMemo": null, "appraise": null, "website": null, "memo": null, "payTypes": "\u6749\u5fb7\u5361", "shopTypes": "\u96f6\u552e", "consumeTypes": null, "cookTypes": null, "orderNum": 1000, "card4no": null, "card4noAcc": null, "district2": 401, "searchScope": null, "status": 1, "address": "\u5357\u4eac\u4e1c\u8def536\u53f7", "name": "\u771f\u8001\u5927\u623f\u98df\u54c1 \u5357\u4eac\u4e1c\u8def\u5e97", "id": 144899, "pageNo": 0, "pageCount": null, "pageSize": 10, "ids": null, "endTime": null, "startTime": null}], "pageLimit": 10830, "size": 10}