{"pageCount": 1095, "count": 10942, "pageNo": 1089, "subShopInfo": {"cardNumFive": "", "isSupportYj": "", "cityName": null, "districtName": null, "shopinfo": {"mid": null, "good_flag": null, "new_flag": null, "short_name": null, "short_name_pinyin": null, "status": null, "address": "", "name": "", "id": null}, "mid": null, "shopId": null, "netid": null, "province": 901, "district": null, "zipcode": null, "telephone": null, "posDate": null, "destineTel": null, "togoTel": null, "trafficWay": null, "signBuilding": null, "businessArea": null, "selfRoom": null, "businessTime": null, "stall": null, "consume": null, "serviceFei": null, "favourable": null, "shopMemo": "1", "appraise": null, "website": null, "memo": null, "payTypes": "", "shopTypes": "", "consumeTypes": null, "cookTypes": null, "orderNum": null, "card4no": null, "card4noAcc": null, "district2": null, "searchScope": null, "status": null, "address": "", "name": null, "id": null, "pageNo": 1088, "pageCount": null, "pageSize": 10, "ids": null, "endTime": null, "startTime": null}, "list": [{"cardNumFive": null, "isSupportYj": null, "cityName": null, "districtName": null, "shopinfo": {"mid": "888002159121223", "good_flag": "2", "new_flag": "1", "short_name": "\u829d\u6797\u5927\u836f\u623f", "short_name_pinyin": "zhilindayaofang", "status": null, "address": null, "name": null, "id": "34128"}, "mid": "888002159121223", "shopId": "34128", "netid": null, "province": 901, "district": 601, "zipcode": null, "telephone": null, "posDate": null, "destineTel": null, "togoTel": null, "trafficWay": null, "signBuilding": null, "businessArea": null, "selfRoom": null, "businessTime": null, "stall": null, "consume": null, "serviceFei": null, "favourable": null, "shopMemo": null, "appraise": null, "website": null, "memo": null, "payTypes": "\u6749\u5fb7\u5361", "shopTypes": "\u836f\u5e97", "consumeTypes": null, "cookTypes": null, "orderNum": 1000, "card4no": null, "card4noAcc": null, "district2": 407, "searchScope": null, "status": 1, "address": "\u5468\u5bb6\u5634\u8def936\u53f7\u7532\u5ba4", "name": "\u829d\u6797\u5927\u836f\u623f \u5468\u5bb6\u5634\u8def\u5e97", "id": 144967, "pageNo": 0, "pageCount": null, "pageSize": 10, "ids": null, "endTime": null, "startTime": null}, {"cardNumFive": null, "isSupportYj": null, "cityName": null, "districtName": null, "shopinfo": {"mid": "888002153311202", "good_flag": "2", "new_flag": "2", "short_name": "\u81f4\u4f18\u7cbe\u9009\u8d85\u5e02", "short_name_pinyin": "zhiyoujingxuanchaoshi", "status": null, "address": null, "name": null, "id": "565224398303264768"}, "mid": "888002153311202", "shopId": "565224398303264768", "netid": null, "province": 901, "district": 601, "zipcode": null, "telephone": null, "posDate": null, "destineTel": null, "togoTel": null, "trafficWay": null, "signBuilding": null, "businessArea": null, "selfRoom": null, "businessTime": null, "stall": null, "consume": null, "serviceFei": null, "favourable": null, "shopMemo": null, "appraise": null, "website": null, "memo": null, "payTypes": "\u6749\u5fb7\u5361,", "shopTypes": null, "consumeTypes": null, "cookTypes": null, "orderNum": null, "card4no": null, "card4noAcc": null, "district2": 418, "searchScope": null, "status": 1, "address": "\u62f1\u6781\u8def3028\u53f71\u5c42", "name": "\u81f4\u4f18\u7cbe\u9009\u8d85\u5e02", "id": 565224396365496320, "pageNo": 0, "pageCount": null, "pageSize": 10, "ids": null, "endTime": null, "startTime": null}, {"cardNumFive": null, "isSupportYj": null, "cityName": null, "districtName": null, "shopinfo": {"mid": "888888853110058", "good_flag": "2", "new_flag": "2", "short_name": "\u4e2d\u5b89\u5546\u4e1a", "short_name_pinyin": "zhonganshangye", "status": null, "address": null, "name": null, "id": "35568"}, "mid": "888888853110058", "shopId": "35568", "netid": null, "province": 901, "district": 601, "zipcode": null, "telephone": null, "posDate": "20081217", "destineTel": null, "togoTel": null, "trafficWay": "\u516c\u4ea423 49 \u5730\u94c1\u4e8c\u53f7\u7ebf", "signBuilding": null, "businessArea": null, "selfRoom": null, "businessTime": null, "stall": null, "consume": null, "serviceFei": null, "favourable": null, "shopMemo": null, "appraise": null, "website": null, "memo": null, "payTypes": "\u6749\u5fb7\u5361", "shopTypes": "\u96f6\u552e,\u4e13\u5356", "consumeTypes": null, "cookTypes": null, "orderNum": 1000, "card4no": null, "card4noAcc": null, "district2": 404, "searchScope": null, "status": 1, "address": "\u5357\u4eac\u897f\u8def1147\u53f7", "name": "\u4e2d\u5b89\u5546\u4e1a FANCL_\u5357\u4eac\u897f\u8def\u5e97", "id": 148895, "pageNo": 0, "pageCount": null, "pageSize": 10, "ids": null, "endTime": null, "startTime": null}, {"cardNumFive": null, "isSupportYj": null, "cityName": null, "districtName": null, "shopinfo": {"mid": "888888853110058", "good_flag": "2", "new_flag": "2", "short_name": "\u4e2d\u5b89\u5546\u4e1a", "short_name_pinyin": "zhonganshangye", "status": null, "address": null, "name": null, "id": "35568"}, "mid": "888888853110058", "shopId": "35568", "netid": null, "province": 901, "district": 601, "zipcode": null, "telephone": null, "posDate": "20081217", "destineTel": null, "togoTel": null, "trafficWay": "\u516c\u4ea423 49 \u5730\u94c1\u4e8c\u53f7\u7ebf", "signBuilding": null, "businessArea": null, "selfRoom": null, "businessTime": null, "stall": null, "consume": null, "serviceFei": null, "favourable": null, "shopMemo": null, "appraise": null, "website": null, "memo": null, "payTypes": "\u6749\u5fb7\u5361", "shopTypes": "\u96f6\u552e,\u4e13\u5356", "consumeTypes": null, "cookTypes": null, "orderNum": 1000, "card4no": null, "card4noAcc": null, "district2": 404, "searchScope": null, "status": 1, "address": "\u5357\u4eac\u897f\u8def1147\u53f7", "name": "\u4e2d\u5b89\u5546\u4e1a FOLLIFOLLIE_\u5357\u4eac\u897f\u8def\u5e97", "id": 148896, "pageNo": 0, "pageCount": null, "pageSize": 10, "ids": null, "endTime": null, "startTime": null}, {"cardNumFive": null, "isSupportYj": null, "cityName": null, "districtName": null, "shopinfo": {"mid": "888888853110058", "good_flag": "2", "new_flag": "2", "short_name": "\u4e2d\u5b89\u5546\u4e1a", "short_name_pinyin": "zhonganshangye", "status": null, "address": null, "name": null, "id": "35568"}, "mid": "888888853110058", "shopId": "35568", "netid": null, "province": 901, "district": 601, "zipcode": null, "telephone": null, "posDate": "20081217", "destineTel": null, "togoTel": null, "trafficWay": "\u516c\u4ea423 49 \u5730\u94c1\u4e8c\u53f7\u7ebf", "signBuilding": null, "businessArea": null, "selfRoom": null, "businessTime": null, "stall": null, "consume": null, "serviceFei": null, "favourable": null, "shopMemo": null, "appraise": null, "website": null, "memo": null, "payTypes": "\u6749\u5fb7\u5361", "shopTypes": "\u96f6\u552e,\u4e13\u5356", "consumeTypes": null, "cookTypes": null, "orderNum": 1000, "card4no": null, "card4noAcc": null, "district2": 404, "searchScope": null, "status": 1, "address": "\u5357\u4eac\u897f\u8def1147\u53f7", "name": "\u4e2d\u5b89\u5546\u4e1a IDO_\u5357\u4eac\u897f\u8def\u5e97", "id": 148897, "pageNo": 0, "pageCount": null, "pageSize": 10, "ids": null, "endTime": null, "startTime": null}, {"cardNumFive": null, "isSupportYj": null, "cityName": null, "districtName": null, "shopinfo": {"mid": "888888853110058", "good_flag": "2", "new_flag": "2", "short_name": "\u4e2d\u5b89\u5546\u4e1a", "short_name_pinyin": "zhonganshangye", "status": null, "address": null, "name": null, "id": "35568"}, "mid": "888888853110058", "shopId": "35568", "netid": null, "province": 901, "district": 601, "zipcode": null, "telephone": null, "posDate": "20081217", "destineTel": null, "togoTel": null, "trafficWay": "\u516c\u4ea423 49 \u5730\u94c1\u4e8c\u53f7\u7ebf", "signBuilding": null, "businessArea": null, "selfRoom": null, "businessTime": null, "stall": null, "consume": null, "serviceFei": null, "favourable": null, "shopMemo": null, "appraise": null, "website": null, "memo": null, "payTypes": "\u6749\u5fb7\u5361", "shopTypes": "\u96f6\u552e,\u4e13\u5356", "consumeTypes": null, "cookTypes": null, "orderNum": 1000, "card4no": null, "card4noAcc": null, "district2": 404, "searchScope": null, "status": 1, "address": "\u5357\u4eac\u897f\u8def1147\u53f7", "name": "\u4e2d\u5b89\u5546\u4e1a \u83ab\u745e\u62c9\u6258_\u5357\u4eac\u897f\u8def\u5e97", "id": 148902, "pageNo": 0, "pageCount": null, "pageSize": 10, "ids": null, "endTime": null, "startTime": null}, {"cardNumFive": null, "isSupportYj": null, "cityName": null, "districtName": null, "shopinfo": {"mid": "888888853110059", "good_flag": "2", "new_flag": "2", "short_name": "\u4e2d\u5b89\u5546\u4e1a", "short_name_pinyin": "zhonganshangye", "status": null, "address": null, "name": null, "id": "35570"}, "mid": "888888853110059", "shopId": "35570", "netid": null, "province": 901, "district": 601, "zipcode": null, "telephone": "62172675", "posDate": "20081218", "destineTel": null, "togoTel": null, "trafficWay": "\u516c\u4ea423 49 \u5730\u94c1\u4e8c\u53f7\u7ebf", "signBuilding": null, "businessArea": null, "selfRoom": null, "businessTime": null, "stall": null, "consume": null, "serviceFei": null, "favourable": null, "shopMemo": null, "appraise": null, "website": null, "memo": null, "payTypes": "\u6749\u5fb7\u5361", "shopTypes": "\u96f6\u552e,\u4e13\u5356", "consumeTypes": null, "cookTypes": null, "orderNum": 1000, "card4no": null, "card4noAcc": null, "district2": 404, "searchScope": null, "status": 1, "address": "\u5357\u4eac\u897f\u8def1147\u53f7", "name": "\u4e2d\u5b89\u5546\u4e1a \u6258\u65af_\u5357\u4eac\u897f\u8def\u5e97", "id": 148904, "pageNo": 0, "pageCount": null, "pageSize": 10, "ids": null, "endTime": null, "startTime": null}, {"cardNumFive": null, "isSupportYj": null, "cityName": null, "districtName": null, "shopinfo": {"mid": "888888853110059", "good_flag": "2", "new_flag": "2", "short_name": "\u4e2d\u5b89\u5546\u4e1a", "short_name_pinyin": "zhonganshangye", "status": null, "address": null, "name": null, "id": "35570"}, "mid": "888888853110059", "shopId": "35570", "netid": null, "province": 901, "district": 601, "zipcode": null, "telephone": null, "posDate": "20081217", "destineTel": null, "togoTel": null, "trafficWay": "\u516c\u4ea423 49 \u5730\u94c1\u4e8c\u53f7\u7ebf", "signBuilding": null, "businessArea": null, "selfRoom": null, "businessTime": null, "stall": null, "consume": null, "serviceFei": null, "favourable": null, "shopMemo": null, "appraise": null, "website": null, "memo": null, "payTypes": "\u6749\u5fb7\u5361", "shopTypes": "\u96f6\u552e,\u4e13\u5356", "consumeTypes": null, "cookTypes": null, "orderNum": 1000, "card4no": null, "card4noAcc": null, "district2": 404, "searchScope": null, "status": 1, "address": "\u5357\u4eac\u897f\u8def1147\u53f7", "name": "\u4e2d\u5b89\u5546\u4e1a \u65b0\u79c0\u4e3d_\u5357\u4eac\u897f\u8def\u5e97", "id": 148905, "pageNo": 0, "pageCount": null, "pageSize": 10, "ids": null, "endTime": null, "startTime": null}, {"cardNumFive": null, "isSupportYj": null, "cityName": null, "districtName": null, "shopinfo": {"mid": "888888853110058", "good_flag": "2", "new_flag": "2", "short_name": "\u4e2d\u5b89\u5546\u4e1a", "short_name_pinyin": "zhonganshangye", "status": null, "address": null, "name": null, "id": "35568"}, "mid": "888888853110058", "shopId": "35568", "netid": null, "province": 901, "district": 601, "zipcode": null, "telephone": null, "posDate": "20081217", "destineTel": null, "togoTel": null, "trafficWay": "\u516c\u4ea423 49 \u5730\u94c1\u4e8c\u53f7\u7ebf", "signBuilding": null, "businessArea": null, "selfRoom": null, "businessTime": null, "stall": null, "consume": null, "serviceFei": null, "favourable": null, "shopMemo": null, "appraise": null, "website": null, "memo": null, "payTypes": "\u6749\u5fb7\u5361", "shopTypes": "\u96f6\u552e,\u4e13\u5356", "consumeTypes": null, "cookTypes": null, "orderNum": 1000, "card4no": null, "card4noAcc": null, "district2": 404, "searchScope": null, "status": 1, "address": "\u5357\u4eac\u897f\u8def1147\u53f7", "name": "\u4e2d\u5b89\u5546\u4e1a \u771f\u89c6\u70b9_\u5357\u4eac\u897f\u8def\u5e97", "id": 148907, "pageNo": 0, "pageCount": null, "pageSize": 10, "ids": null, "endTime": null, "startTime": null}, {"cardNumFive": null, "isSupportYj": null, "cityName": null, "districtName": null, "shopinfo": {"mid": "888002153110185", "good_flag": null, "new_flag": null, "short_name": "\u4e2d\u623f\u91d1\u8c0a\u5e7f\u573a", "short_name_pinyin": "zhongfangjinyiguangchang", "status": null, "address": null, "name": null, "id": "39915"}, "mid": "888002153110185", "shopId": "39915", "netid": null, "province": 901, "district": 601, "zipcode": null, "telephone": "50181818", "posDate": null, "destineTel": null, "togoTel": null, "trafficWay": null, "signBuilding": null, "businessArea": null, "selfRoom": null, "businessTime": null, "stall": null, "consume": null, "serviceFei": null, "favourable": null, "shopMemo": null, "appraise": null, "website": null, "memo": null, "payTypes": "\u6749\u5fb7\u5361", "shopTypes": "\u767e\u8d27", "consumeTypes": null, "cookTypes": null, "orderNum": 1000, "card4no": null, "card4noAcc": null, "district2": 418, "searchScope": null, "status": 1, "address": "\u4e0a\u5357\u8def4467\u53f7", "name": "\u4e2d\u623f\u91d1\u8c0a\u5e7f\u573a \u6d66\u4e1c\u5e97", "id": 172371, "pageNo": 0, "pageCount": null, "pageSize": 10, "ids": null, "endTime": null, "startTime": null}], "pageLimit": 10880, "size": 10}