{"pageCount": 1095, "count": 10942, "pageNo": 1088, "subShopInfo": {"cardNumFive": "", "isSupportYj": "", "cityName": null, "districtName": null, "shopinfo": {"mid": null, "good_flag": null, "new_flag": null, "short_name": null, "short_name_pinyin": null, "status": null, "address": "", "name": "", "id": null}, "mid": null, "shopId": null, "netid": null, "province": 901, "district": null, "zipcode": null, "telephone": null, "posDate": null, "destineTel": null, "togoTel": null, "trafficWay": null, "signBuilding": null, "businessArea": null, "selfRoom": null, "businessTime": null, "stall": null, "consume": null, "serviceFei": null, "favourable": null, "shopMemo": "1", "appraise": null, "website": null, "memo": null, "payTypes": "", "shopTypes": "", "consumeTypes": null, "cookTypes": null, "orderNum": null, "card4no": null, "card4noAcc": null, "district2": null, "searchScope": null, "status": null, "address": "", "name": null, "id": null, "pageNo": 1087, "pageCount": null, "pageSize": 10, "ids": null, "endTime": null, "startTime": null}, "list": [{"cardNumFive": null, "isSupportYj": null, "cityName": null, "districtName": null, "shopinfo": {"mid": "888002156911359", "good_flag": "2", "new_flag": "1", "short_name": "\u73cd\u7fbd\u670d\u9970\uff08\u4eba\u95f4\u56db\u6708\u5929\uff09", "short_name_pinyin": "zhenyufushirenjiansiyuetian", "status": null, "address": null, "name": null, "id": "34093"}, "mid": "888002156911359", "shopId": "34093", "netid": null, "province": 901, "district": 601, "zipcode": null, "telephone": "68117122", "posDate": null, "destineTel": null, "togoTel": null, "trafficWay": null, "signBuilding": null, "businessArea": null, "selfRoom": null, "businessTime": null, "stall": null, "consume": null, "serviceFei": null, "favourable": null, "shopMemo": null, "appraise": null, "website": null, "memo": null, "payTypes": "\u6749\u5fb7\u5361", "shopTypes": "\u670d\u9970\u5bb6\u7eba", "consumeTypes": null, "cookTypes": null, "orderNum": 1000, "card4no": null, "card4noAcc": null, "district2": 418, "searchScope": null, "status": 1, "address": "\u5468\u6d66\u9547\u4e2d\u5927\u8857136\u53f7", "name": "\u73cd\u7fbd\u670d\u9970\uff08\u4eba\u95f4\u56db\u6708\u5929\uff09 \u4e2d\u5927\u8857\u5e97", "id": 144874, "pageNo": 0, "pageCount": null, "pageSize": 10, "ids": null, "endTime": null, "startTime": null}, {"cardNumFive": null, "isSupportYj": null, "cityName": null, "districtName": null, "shopinfo": {"mid": "888888854110120", "good_flag": "2", "new_flag": "2", "short_name": "\u5fd7\u535a\u4fbf\u5229\u5e97", "short_name_pinyin": "zhibobianlidian", "status": null, "address": null, "name": null, "id": "31741"}, "mid": "888888854110120", "shopId": "31741", "netid": null, "province": 901, "district": 601, "zipcode": null, "telephone": "55493167", "posDate": "20080725", "destineTel": null, "togoTel": null, "trafficWay": "\u516c\u4ea4966 \u5730\u94c1\u516b\u53f7\u7ebf", "signBuilding": null, "businessArea": null, "selfRoom": null, "businessTime": null, "stall": null, "consume": null, "serviceFei": null, "favourable": null, "shopMemo": null, "appraise": null, "website": null, "memo": null, "payTypes": ",,\u6749\u5fb7\u5361", "shopTypes": "\u8d85\u5e02", "consumeTypes": null, "cookTypes": null, "orderNum": 1000, "card4no": null, "card4noAcc": null, "district2": 407, "searchScope": null, "status": 1, "address": "\u56fd\u548c\u8def1374\u53f7-1", "name": "\u5fd7\u535a\u4fbf\u5229 \u56fd\u548c\u8def\u5e97", "id": 135142, "pageNo": 0, "pageCount": null, "pageSize": 10, "ids": null, "endTime": null, "startTime": null}, {"cardNumFive": null, "isSupportYj": null, "cityName": null, "districtName": null, "shopinfo": {"mid": "888888853110014", "good_flag": "1", "new_flag": "2", "short_name": "\u7f6e\u5730\u5e7f\u573a", "short_name_pinyin": "zhidiguangchang", "status": null, "address": null, "name": null, "id": "35567"}, "mid": "888888853110014", "shopId": "35567", "netid": null, "province": 901, "district": 601, "zipcode": "200001", "telephone": "63513828", "posDate": "20070123", "destineTel": "63513828", "togoTel": "63513828", "trafficWay": "\u5730\u94c1\u4e00\u53f7\u7ebf", "signBuilding": null, "businessArea": null, "selfRoom": "\u65e0", "businessTime": null, "stall": "\u65e0", "consume": null, "serviceFei": null, "favourable": null, "shopMemo": null, "appraise": null, "website": null, "memo": null, "payTypes": "\u6749\u5fb7\u5361", "shopTypes": "\u767e\u8d27", "consumeTypes": null, "cookTypes": null, "orderNum": 1000, "card4no": null, "card4noAcc": null, "district2": 401, "searchScope": null, "status": 1, "address": "\u5357\u4eac\u4e1c\u8def409\u53f7-459\u53f7", "name": "\u7f6e\u5730\u5e7f\u573a \u5357\u4eac\u4e1c\u8def\u5e97", "id": 148894, "pageNo": 0, "pageCount": null, "pageSize": 10, "ids": null, "endTime": null, "startTime": null}, {"cardNumFive": null, "isSupportYj": null, "cityName": null, "districtName": null, "shopinfo": {"mid": "888002159121223", "good_flag": "2", "new_flag": "1", "short_name": "\u829d\u6797\u5927\u836f\u623f", "short_name_pinyin": "zhilindayaofang", "status": null, "address": null, "name": null, "id": "34128"}, "mid": "888002159121223", "shopId": "34128", "netid": null, "province": 901, "district": 601, "zipcode": null, "telephone": null, "posDate": null, "destineTel": null, "togoTel": null, "trafficWay": null, "signBuilding": null, "businessArea": null, "selfRoom": null, "businessTime": null, "stall": null, "consume": null, "serviceFei": null, "favourable": null, "shopMemo": null, "appraise": null, "website": null, "memo": null, "payTypes": "\u6749\u5fb7\u5361", "shopTypes": "\u836f\u5e97", "consumeTypes": null, "cookTypes": null, "orderNum": 1000, "card4no": null, "card4noAcc": null, "district2": 407, "searchScope": null, "status": 1, "address": "\u4f73\u6728\u65af\u8def319-2\u53f7", "name": "\u829d\u6797\u5927\u836f\u623f \u4f73\u6728\u65af\u8def\u5e97", "id": 144960, "pageNo": 0, "pageCount": null, "pageSize": 10, "ids": null, "endTime": null, "startTime": null}, {"cardNumFive": null, "isSupportYj": null, "cityName": null, "districtName": null, "shopinfo": {"mid": "888002159121223", "good_flag": "2", "new_flag": "1", "short_name": "\u829d\u6797\u5927\u836f\u623f", "short_name_pinyin": "zhilindayaofang", "status": null, "address": null, "name": null, "id": "34128"}, "mid": "888002159121223", "shopId": "34128", "netid": null, "province": 901, "district": 601, "zipcode": null, "telephone": null, "posDate": null, "destineTel": null, "togoTel": null, "trafficWay": null, "signBuilding": null, "businessArea": null, "selfRoom": null, "businessTime": null, "stall": null, "consume": null, "serviceFei": null, "favourable": null, "shopMemo": null, "appraise": null, "website": null, "memo": null, "payTypes": "\u6749\u5fb7\u5361", "shopTypes": "\u836f\u5e97", "consumeTypes": null, "cookTypes": null, "orderNum": 1000, "card4no": null, "card4noAcc": null, "district2": 408, "searchScope": null, "status": 1, "address": "\u664b\u57ce\u8def697\u53f7", "name": "\u829d\u6797\u5927\u836f\u623f \u664b\u57ce\u8def\u5e97", "id": 144961, "pageNo": 0, "pageCount": null, "pageSize": 10, "ids": null, "endTime": null, "startTime": null}, {"cardNumFive": null, "isSupportYj": null, "cityName": null, "districtName": null, "shopinfo": {"mid": "888002159121223", "good_flag": "2", "new_flag": "1", "short_name": "\u829d\u6797\u5927\u836f\u623f", "short_name_pinyin": "zhilindayaofang", "status": null, "address": null, "name": null, "id": "34128"}, "mid": "888002159121223", "shopId": "34128", "netid": null, "province": 901, "district": 601, "zipcode": null, "telephone": null, "posDate": null, "destineTel": null, "togoTel": null, "trafficWay": null, "signBuilding": null, "businessArea": null, "selfRoom": null, "businessTime": null, "stall": null, "consume": null, "serviceFei": null, "favourable": null, "shopMemo": null, "appraise": null, "website": null, "memo": null, "payTypes": "\u6749\u5fb7\u5361", "shopTypes": "\u836f\u5e97", "consumeTypes": null, "cookTypes": null, "orderNum": 1000, "card4no": null, "card4noAcc": null, "district2": 408, "searchScope": null, "status": 1, "address": "\u594e\u7167\u8def637\u53f7", "name": "\u829d\u6797\u5927\u836f\u623f \u594e\u7167\u8def\u5e97", "id": 144962, "pageNo": 0, "pageCount": null, "pageSize": 10, "ids": null, "endTime": null, "startTime": null}, {"cardNumFive": null, "isSupportYj": null, "cityName": null, "districtName": null, "shopinfo": {"mid": "888002159121223", "good_flag": "2", "new_flag": "1", "short_name": "\u829d\u6797\u5927\u836f\u623f", "short_name_pinyin": "zhilindayaofang", "status": null, "address": null, "name": null, "id": "34128"}, "mid": "888002159121223", "shopId": "34128", "netid": null, "province": 901, "district": 601, "zipcode": null, "telephone": null, "posDate": null, "destineTel": null, "togoTel": null, "trafficWay": null, "signBuilding": null, "businessArea": null, "selfRoom": null, "businessTime": null, "stall": null, "consume": null, "serviceFei": null, "favourable": null, "shopMemo": null, "appraise": null, "website": null, "memo": null, "payTypes": "\u6749\u5fb7\u5361", "shopTypes": "\u836f\u5e97", "consumeTypes": null, "cookTypes": null, "orderNum": 1000, "card4no": null, "card4noAcc": null, "district2": 410, "searchScope": null, "status": 1, "address": "\u4e03\u6d66\u8def537\u53f7", "name": "\u829d\u6797\u5927\u836f\u623f \u4e03\u6d66\u8def\u5e97", "id": 144963, "pageNo": 0, "pageCount": null, "pageSize": 10, "ids": null, "endTime": null, "startTime": null}, {"cardNumFive": null, "isSupportYj": null, "cityName": null, "districtName": null, "shopinfo": {"mid": "888002159121223", "good_flag": "2", "new_flag": "1", "short_name": "\u829d\u6797\u5927\u836f\u623f", "short_name_pinyin": "zhilindayaofang", "status": null, "address": null, "name": null, "id": "34128"}, "mid": "888002159121223", "shopId": "34128", "netid": null, "province": 901, "district": 601, "zipcode": null, "telephone": null, "posDate": null, "destineTel": null, "togoTel": null, "trafficWay": null, "signBuilding": null, "businessArea": null, "selfRoom": null, "businessTime": null, "stall": null, "consume": null, "serviceFei": null, "favourable": null, "shopMemo": null, "appraise": null, "website": null, "memo": null, "payTypes": "\u6749\u5fb7\u5361", "shopTypes": "\u836f\u5e97", "consumeTypes": null, "cookTypes": null, "orderNum": 1000, "card4no": null, "card4noAcc": null, "district2": 405, "searchScope": null, "status": 1, "address": "\u8c08\u5bb6\u5ea6\u8def132-134\u53f7", "name": "\u829d\u6797\u5927\u836f\u623f \u8c08\u5bb6\u5ea6\u8def\u5e97", "id": 144964, "pageNo": 0, "pageCount": null, "pageSize": 10, "ids": null, "endTime": null, "startTime": null}, {"cardNumFive": null, "isSupportYj": null, "cityName": null, "districtName": null, "shopinfo": {"mid": "888002159121223", "good_flag": "2", "new_flag": "1", "short_name": "\u829d\u6797\u5927\u836f\u623f", "short_name_pinyin": "zhilindayaofang", "status": null, "address": null, "name": null, "id": "34128"}, "mid": "888002159121223", "shopId": "34128", "netid": null, "province": 901, "district": 601, "zipcode": null, "telephone": null, "posDate": null, "destineTel": null, "togoTel": null, "trafficWay": null, "signBuilding": null, "businessArea": null, "selfRoom": null, "businessTime": null, "stall": null, "consume": null, "serviceFei": null, "favourable": null, "shopMemo": null, "appraise": null, "website": null, "memo": null, "payTypes": "\u6749\u5fb7\u5361", "shopTypes": "\u836f\u5e97", "consumeTypes": null, "cookTypes": null, "orderNum": 1000, "card4no": null, "card4noAcc": null, "district2": 408, "searchScope": null, "status": 1, "address": "\u5cb3\u5dde\u8def58\u53f7", "name": "\u829d\u6797\u5927\u836f\u623f \u5cb3\u5dde\u8def\u5e97", "id": 144965, "pageNo": 0, "pageCount": null, "pageSize": 10, "ids": null, "endTime": null, "startTime": null}, {"cardNumFive": null, "isSupportYj": null, "cityName": null, "districtName": null, "shopinfo": {"mid": "888002159121223", "good_flag": "2", "new_flag": "1", "short_name": "\u829d\u6797\u5927\u836f\u623f", "short_name_pinyin": "zhilindayaofang", "status": null, "address": null, "name": null, "id": "34128"}, "mid": "888002159121223", "shopId": "34128", "netid": null, "province": 901, "district": 601, "zipcode": null, "telephone": null, "posDate": null, "destineTel": null, "togoTel": null, "trafficWay": null, "signBuilding": null, "businessArea": null, "selfRoom": null, "businessTime": null, "stall": null, "consume": null, "serviceFei": null, "favourable": null, "shopMemo": null, "appraise": null, "website": null, "memo": null, "payTypes": "\u6749\u5fb7\u5361", "shopTypes": "\u836f\u5e97", "consumeTypes": null, "cookTypes": null, "orderNum": 1000, "card4no": null, "card4noAcc": null, "district2": 408, "searchScope": null, "status": 1, "address": "\u4e2d\u5c71\u5317\u4e00\u8def191\u53f71\u680b108\u5ba4", "name": "\u829d\u6797\u5927\u836f\u623f \u4e2d\u5c71\u5317\u4e00\u8def\u5e97", "id": 144966, "pageNo": 0, "pageCount": null, "pageSize": 10, "ids": null, "endTime": null, "startTime": null}], "pageLimit": 10870, "size": 10}