{"pageCount": 1095, "count": 10942, "pageNo": 1080, "subShopInfo": {"cardNumFive": "", "isSupportYj": "", "cityName": null, "districtName": null, "shopinfo": {"mid": null, "good_flag": null, "new_flag": null, "short_name": null, "short_name_pinyin": null, "status": null, "address": "", "name": "", "id": null}, "mid": null, "shopId": null, "netid": null, "province": 901, "district": null, "zipcode": null, "telephone": null, "posDate": null, "destineTel": null, "togoTel": null, "trafficWay": null, "signBuilding": null, "businessArea": null, "selfRoom": null, "businessTime": null, "stall": null, "consume": null, "serviceFei": null, "favourable": null, "shopMemo": "1", "appraise": null, "website": null, "memo": null, "payTypes": "", "shopTypes": "", "consumeTypes": null, "cookTypes": null, "orderNum": null, "card4no": null, "card4noAcc": null, "district2": null, "searchScope": null, "status": null, "address": "", "name": null, "id": null, "pageNo": 1079, "pageCount": null, "pageSize": 10, "ids": null, "endTime": null, "startTime": null}, "list": [{"cardNumFive": null, "isSupportYj": null, "cityName": null, "districtName": null, "shopinfo": {"mid": "888888859120192", "good_flag": null, "new_flag": null, "short_name": "\u4f59\u5929\u6210", "short_name_pinyin": "yutiancheng", "status": null, "address": null, "name": null, "id": "39229"}, "mid": "888888859120192", "shopId": "39229", "netid": null, "province": 901, "district": 601, "zipcode": null, "telephone": "57822368", "posDate": null, "destineTel": null, "togoTel": null, "trafficWay": null, "signBuilding": null, "businessArea": null, "selfRoom": null, "businessTime": null, "stall": null, "consume": null, "serviceFei": null, "favourable": null, "shopMemo": null, "appraise": null, "website": null, "memo": null, "payTypes": "\u6749\u5fb7\u5361", "shopTypes": "\u836f\u5e97", "consumeTypes": null, "cookTypes": null, "orderNum": 1000, "card4no": null, "card4noAcc": null, "district2": 412, "searchScope": null, "status": 1, "address": "\u4e2d\u5c71\u4e2d\u8def61\u53f7", "name": "\u4f59\u5929\u6210 \u4e1c\u53f7\u836f\u5e97", "id": 167403, "pageNo": 0, "pageCount": null, "pageSize": 10, "ids": null, "endTime": null, "startTime": null}, {"cardNumFive": null, "isSupportYj": null, "cityName": null, "districtName": null, "shopinfo": {"mid": "888888859120192", "good_flag": null, "new_flag": null, "short_name": "\u4f59\u5929\u6210", "short_name_pinyin": "yutiancheng", "status": null, "address": null, "name": null, "id": "39229"}, "mid": "888888859120192", "shopId": "39229", "netid": null, "province": 901, "district": 601, "zipcode": null, "telephone": "57811483", "posDate": null, "destineTel": null, "togoTel": null, "trafficWay": null, "signBuilding": null, "businessArea": null, "selfRoom": null, "businessTime": null, "stall": null, "consume": null, "serviceFei": null, "favourable": null, "shopMemo": null, "appraise": null, "website": null, "memo": null, "payTypes": "\u6749\u5fb7\u5361", "shopTypes": "\u836f\u5e97", "consumeTypes": null, "cookTypes": null, "orderNum": 1000, "card4no": null, "card4noAcc": null, "district2": 412, "searchScope": null, "status": 1, "address": "\u4ed3\u6865\u9547\u5411\u9633\u4e00\u67517\u53f7", "name": "\u4f59\u5929\u6210 \u897f\u53f7\u836f\u5e97", "id": 167405, "pageNo": 0, "pageCount": null, "pageSize": 10, "ids": null, "endTime": null, "startTime": null}, {"cardNumFive": null, "isSupportYj": null, "cityName": null, "districtName": null, "shopinfo": {"mid": "888888859120192", "good_flag": null, "new_flag": null, "short_name": "\u4f59\u5929\u6210", "short_name_pinyin": "yutiancheng", "status": null, "address": null, "name": null, "id": "39229"}, "mid": "888888859120192", "shopId": "39229", "netid": null, "province": 901, "district": 601, "zipcode": null, "telephone": "57822897", "posDate": null, "destineTel": null, "togoTel": null, "trafficWay": null, "signBuilding": null, "businessArea": null, "selfRoom": null, "businessTime": null, "stall": null, "consume": null, "serviceFei": null, "favourable": null, "shopMemo": null, "appraise": null, "website": null, "memo": null, "payTypes": "\u6749\u5fb7\u5361", "shopTypes": "\u836f\u5e97", "consumeTypes": null, "cookTypes": null, "orderNum": 1000, "card4no": null, "card4noAcc": null, "district2": 412, "searchScope": null, "status": 1, "address": "\u677e\u4e50\u8def494\u53f7", "name": "\u4f59\u5929\u6210 \u4eba\u4e50\u836f\u5e97", "id": 167406, "pageNo": 0, "pageCount": null, "pageSize": 10, "ids": null, "endTime": null, "startTime": null}, {"cardNumFive": null, "isSupportYj": null, "cityName": null, "districtName": null, "shopinfo": {"mid": "888888859120192", "good_flag": null, "new_flag": null, "short_name": "\u4f59\u5929\u6210", "short_name_pinyin": "yutiancheng", "status": null, "address": null, "name": null, "id": "39229"}, "mid": "888888859120192", "shopId": "39229", "netid": null, "province": 901, "district": 601, "zipcode": null, "telephone": "57672529", "posDate": null, "destineTel": null, "togoTel": null, "trafficWay": null, "signBuilding": null, "businessArea": null, "selfRoom": null, "businessTime": null, "stall": null, "consume": null, "serviceFei": null, "favourable": null, "shopMemo": null, "appraise": null, "website": null, "memo": null, "payTypes": "\u6749\u5fb7\u5361", "shopTypes": "\u836f\u5e97", "consumeTypes": null, "cookTypes": null, "orderNum": 1000, "card4no": null, "card4noAcc": null, "district2": 412, "searchScope": null, "status": 1, "address": "\u6d1e\u6cfe\u9547\u6d1e\u8398\u8def264-266\u53f7", "name": "\u4f59\u5929\u6210 \u6d1e\u6cfe\u836f\u5e97", "id": 167407, "pageNo": 0, "pageCount": null, "pageSize": 10, "ids": null, "endTime": null, "startTime": null}, {"cardNumFive": null, "isSupportYj": null, "cityName": null, "districtName": null, "shopinfo": {"mid": "888888859120192", "good_flag": null, "new_flag": null, "short_name": "\u4f59\u5929\u6210", "short_name_pinyin": "yutiancheng", "status": null, "address": null, "name": null, "id": "39229"}, "mid": "888888859120192", "shopId": "39229", "netid": null, "province": 901, "district": 601, "zipcode": null, "telephone": "67814831", "posDate": null, "destineTel": null, "togoTel": null, "trafficWay": null, "signBuilding": null, "businessArea": null, "selfRoom": null, "businessTime": null, "stall": null, "consume": null, "serviceFei": null, "favourable": null, "shopMemo": null, "appraise": null, "website": null, "memo": null, "payTypes": "\u6749\u5fb7\u5361", "shopTypes": "\u836f\u5e97", "consumeTypes": null, "cookTypes": null, "orderNum": 1000, "card4no": null, "card4noAcc": null, "district2": 412, "searchScope": null, "status": 1, "address": "\u4ed3\u6c47\u8def495\u53f7", "name": "\u4f59\u5929\u6210 \u4e09\u65b0\u836f\u5e97", "id": 167408, "pageNo": 0, "pageCount": null, "pageSize": 10, "ids": null, "endTime": null, "startTime": null}, {"cardNumFive": null, "isSupportYj": null, "cityName": null, "districtName": null, "shopinfo": {"mid": "888888859120192", "good_flag": null, "new_flag": null, "short_name": "\u4f59\u5929\u6210", "short_name_pinyin": "yutiancheng", "status": null, "address": null, "name": null, "id": "39229"}, "mid": "888888859120192", "shopId": "39229", "netid": null, "province": 901, "district": 601, "zipcode": null, "telephone": "57761124", "posDate": null, "destineTel": null, "togoTel": null, "trafficWay": null, "signBuilding": null, "businessArea": null, "selfRoom": null, "businessTime": null, "stall": null, "consume": null, "serviceFei": null, "favourable": null, "shopMemo": null, "appraise": null, "website": null, "memo": null, "payTypes": "\u6749\u5fb7\u5361", "shopTypes": "\u836f\u5e97", "consumeTypes": null, "cookTypes": null, "orderNum": 1000, "card4no": null, "card4noAcc": null, "district2": 412, "searchScope": null, "status": 1, "address": "\u6606\u5c97\u9547\u6e05\u6cb3\u885794\u53f7", "name": "\u4f59\u5929\u6210 \u6606\u5c97\u836f\u5e97", "id": 167409, "pageNo": 0, "pageCount": null, "pageSize": 10, "ids": null, "endTime": null, "startTime": null}, {"cardNumFive": null, "isSupportYj": null, "cityName": null, "districtName": null, "shopinfo": {"mid": "888888859120192", "good_flag": null, "new_flag": null, "short_name": "\u4f59\u5929\u6210", "short_name_pinyin": "yutiancheng", "status": null, "address": null, "name": null, "id": "39229"}, "mid": "888888859120192", "shopId": "39229", "netid": null, "province": 901, "district": 601, "zipcode": null, "telephone": "57651376", "posDate": null, "destineTel": null, "togoTel": null, "trafficWay": null, "signBuilding": null, "businessArea": null, "selfRoom": null, "businessTime": null, "stall": null, "consume": null, "serviceFei": null, "favourable": null, "shopMemo": null, "appraise": null, "website": null, "memo": null, "payTypes": "\u6749\u5fb7\u5361", "shopTypes": "\u836f\u5e97", "consumeTypes": null, "cookTypes": null, "orderNum": 1000, "card4no": null, "card4noAcc": null, "district2": 412, "searchScope": null, "status": 1, "address": "\u4f58\u5c71\u9547\u9648\u574a\u6865\u897f\u971e\u8def51\u53f7", "name": "\u4f59\u5929\u6210 \u4f58\u5c71\u836f\u5e97", "id": 167411, "pageNo": 0, "pageCount": null, "pageSize": 10, "ids": null, "endTime": null, "startTime": null}, {"cardNumFive": null, "isSupportYj": null, "cityName": null, "districtName": null, "shopinfo": {"mid": "888888859120192", "good_flag": null, "new_flag": null, "short_name": "\u4f59\u5929\u6210", "short_name_pinyin": "yutiancheng", "status": null, "address": null, "name": null, "id": "39229"}, "mid": "888888859120192", "shopId": "39229", "netid": null, "province": 901, "district": 601, "zipcode": null, "telephone": "57832653", "posDate": null, "destineTel": null, "togoTel": null, "trafficWay": null, "signBuilding": null, "businessArea": null, "selfRoom": null, "businessTime": null, "stall": null, "consume": null, "serviceFei": null, "favourable": null, "shopMemo": null, "appraise": null, "website": null, "memo": null, "payTypes": "\u6749\u5fb7\u5361", "shopTypes": "\u836f\u5e97", "consumeTypes": null, "cookTypes": null, "orderNum": 1000, "card4no": null, "card4noAcc": null, "district2": 412, "searchScope": null, "status": 1, "address": "\u4e2d\u5c71\u4e1c\u8def49\u53f7", "name": "\u4f59\u5929\u6210 \u8338\u57ce\u836f\u5e97", "id": 167412, "pageNo": 0, "pageCount": null, "pageSize": 10, "ids": null, "endTime": null, "startTime": null}, {"cardNumFive": null, "isSupportYj": null, "cityName": null, "districtName": null, "shopinfo": {"mid": "888888859120192", "good_flag": null, "new_flag": null, "short_name": "\u4f59\u5929\u6210", "short_name_pinyin": "yutiancheng", "status": null, "address": null, "name": null, "id": "39229"}, "mid": "888888859120192", "shopId": "39229", "netid": null, "province": 901, "district": 601, "zipcode": null, "telephone": "57813352", "posDate": null, "destineTel": null, "togoTel": null, "trafficWay": null, "signBuilding": null, "businessArea": null, "selfRoom": null, "businessTime": null, "stall": null, "consume": null, "serviceFei": null, "favourable": null, "shopMemo": null, "appraise": null, "website": null, "memo": null, "payTypes": "\u6749\u5fb7\u5361", "shopTypes": "\u836f\u5e97", "consumeTypes": null, "cookTypes": null, "orderNum": 1000, "card4no": null, "card4noAcc": null, "district2": 412, "searchScope": null, "status": 1, "address": "\u4e2d\u5c71\u897f\u8def57\u53f7", "name": "\u4f59\u5929\u6210 \u79c0\u91ce\u6865\u836f\u5e97", "id": 167413, "pageNo": 0, "pageCount": null, "pageSize": 10, "ids": null, "endTime": null, "startTime": null}, {"cardNumFive": null, "isSupportYj": null, "cityName": null, "districtName": null, "shopinfo": {"mid": "888888859120192", "good_flag": null, "new_flag": null, "short_name": "\u4f59\u5929\u6210", "short_name_pinyin": "yutiancheng", "status": null, "address": null, "name": null, "id": "39229"}, "mid": "888888859120192", "shopId": "39229", "netid": null, "province": 901, "district": 601, "zipcode": null, "telephone": "57747710", "posDate": null, "destineTel": null, "togoTel": null, "trafficWay": null, "signBuilding": null, "businessArea": null, "selfRoom": null, "businessTime": null, "stall": null, "consume": null, "serviceFei": null, "favourable": null, "shopMemo": null, "appraise": null, "website": null, "memo": null, "payTypes": "\u6749\u5fb7\u5361", "shopTypes": "\u836f\u5e97", "consumeTypes": null, "cookTypes": null, "orderNum": 1000, "card4no": null, "card4noAcc": null, "district2": 412, "searchScope": null, "status": 1, "address": "\u8363\u4e50\u4e1c\u8def3\u5f04134\u53f7", "name": "\u4f59\u5929\u6210 \u4e1c\u51ef\u836f\u5e97", "id": 167414, "pageNo": 0, "pageCount": null, "pageSize": 10, "ids": null, "endTime": null, "startTime": null}], "pageLimit": 10790, "size": 10}