{"pageCount": 1095, "count": 10942, "pageNo": 1081, "subShopInfo": {"cardNumFive": "", "isSupportYj": "", "cityName": null, "districtName": null, "shopinfo": {"mid": null, "good_flag": null, "new_flag": null, "short_name": null, "short_name_pinyin": null, "status": null, "address": "", "name": "", "id": null}, "mid": null, "shopId": null, "netid": null, "province": 901, "district": null, "zipcode": null, "telephone": null, "posDate": null, "destineTel": null, "togoTel": null, "trafficWay": null, "signBuilding": null, "businessArea": null, "selfRoom": null, "businessTime": null, "stall": null, "consume": null, "serviceFei": null, "favourable": null, "shopMemo": "1", "appraise": null, "website": null, "memo": null, "payTypes": "", "shopTypes": "", "consumeTypes": null, "cookTypes": null, "orderNum": null, "card4no": null, "card4noAcc": null, "district2": null, "searchScope": null, "status": null, "address": "", "name": null, "id": null, "pageNo": 1080, "pageCount": null, "pageSize": 10, "ids": null, "endTime": null, "startTime": null}, "list": [{"cardNumFive": null, "isSupportYj": null, "cityName": null, "districtName": null, "shopinfo": {"mid": "888888859120192", "good_flag": null, "new_flag": null, "short_name": "\u4f59\u5929\u6210", "short_name_pinyin": "yutiancheng", "status": null, "address": null, "name": null, "id": "39229"}, "mid": "888888859120192", "shopId": "39229", "netid": null, "province": 901, "district": 601, "zipcode": null, "telephone": "67721867", "posDate": null, "destineTel": null, "togoTel": null, "trafficWay": null, "signBuilding": null, "businessArea": null, "selfRoom": null, "businessTime": null, "stall": null, "consume": null, "serviceFei": null, "favourable": null, "shopMemo": null, "appraise": null, "website": null, "memo": null, "payTypes": "\u6749\u5fb7\u5361", "shopTypes": "\u836f\u5e97", "consumeTypes": null, "cookTypes": null, "orderNum": 1000, "card4no": null, "card4noAcc": null, "district2": 412, "searchScope": null, "status": 1, "address": "\u4eba\u6c11\u5317\u8def175\u53f7", "name": "\u4f59\u5929\u6210 \u60e0\u6c11\u5927\u836f\u623f", "id": 167415, "pageNo": 0, "pageCount": null, "pageSize": 10, "ids": null, "endTime": null, "startTime": null}, {"cardNumFive": null, "isSupportYj": null, "cityName": null, "districtName": null, "shopinfo": {"mid": "888888859120192", "good_flag": null, "new_flag": null, "short_name": "\u4f59\u5929\u6210", "short_name_pinyin": "yutiancheng", "status": null, "address": null, "name": null, "id": "39229"}, "mid": "888888859120192", "shopId": "39229", "netid": null, "province": 901, "district": 601, "zipcode": null, "telephone": "57737034", "posDate": null, "destineTel": null, "togoTel": null, "trafficWay": null, "signBuilding": null, "businessArea": null, "selfRoom": null, "businessTime": null, "stall": null, "consume": null, "serviceFei": null, "favourable": null, "shopMemo": null, "appraise": null, "website": null, "memo": null, "payTypes": "\u6749\u5fb7\u5361", "shopTypes": "\u836f\u5e97", "consumeTypes": null, "cookTypes": null, "orderNum": 1000, "card4no": null, "card4noAcc": null, "district2": 412, "searchScope": null, "status": 1, "address": "\u4e50\u90fd\u8def102\u5f0413\u53f7", "name": "\u4f59\u5929\u6210 \u901a\u6ce2\u836f\u5e97", "id": 167417, "pageNo": 0, "pageCount": null, "pageSize": 10, "ids": null, "endTime": null, "startTime": null}, {"cardNumFive": null, "isSupportYj": null, "cityName": null, "districtName": null, "shopinfo": {"mid": "888888859120192", "good_flag": null, "new_flag": null, "short_name": "\u4f59\u5929\u6210", "short_name_pinyin": "yutiancheng", "status": null, "address": null, "name": null, "id": "39229"}, "mid": "888888859120192", "shopId": "39229", "netid": null, "province": 901, "district": 601, "zipcode": null, "telephone": "57659749", "posDate": null, "destineTel": null, "togoTel": null, "trafficWay": null, "signBuilding": null, "businessArea": null, "selfRoom": null, "businessTime": null, "stall": null, "consume": null, "serviceFei": null, "favourable": null, "shopMemo": null, "appraise": null, "website": null, "memo": null, "payTypes": "\u6749\u5fb7\u5361", "shopTypes": "\u836f\u5e97", "consumeTypes": null, "cookTypes": null, "orderNum": 1000, "card4no": null, "card4noAcc": null, "district2": 412, "searchScope": null, "status": 1, "address": "\u4f58\u5c71\u9547\u6843\u6e90\u8def365-367\u53f7", "name": "\u4f59\u5929\u6210 \u6843\u6e90\u897f\u8def\u5e97", "id": 167418, "pageNo": 0, "pageCount": null, "pageSize": 10, "ids": null, "endTime": null, "startTime": null}, {"cardNumFive": null, "isSupportYj": null, "cityName": null, "districtName": null, "shopinfo": {"mid": "888888859120192", "good_flag": null, "new_flag": null, "short_name": "\u4f59\u5929\u6210", "short_name_pinyin": "yutiancheng", "status": null, "address": null, "name": null, "id": "39229"}, "mid": "888888859120192", "shopId": "39229", "netid": null, "province": 901, "district": 601, "zipcode": null, "telephone": "67751795", "posDate": null, "destineTel": null, "togoTel": null, "trafficWay": null, "signBuilding": null, "businessArea": null, "selfRoom": null, "businessTime": null, "stall": null, "consume": null, "serviceFei": null, "favourable": null, "shopMemo": null, "appraise": null, "website": null, "memo": null, "payTypes": "\u6749\u5fb7\u5361", "shopTypes": "\u836f\u5e97", "consumeTypes": null, "cookTypes": null, "orderNum": 1000, "card4no": null, "card4noAcc": null, "district2": 412, "searchScope": null, "status": 1, "address": "\u4e09\u65b0\u5317\u8def900\u5f04617\u53f7", "name": "\u4f59\u5929\u6210 \u82f1\u8c8c\u836f\u5e97", "id": 167420, "pageNo": 0, "pageCount": null, "pageSize": 10, "ids": null, "endTime": null, "startTime": null}, {"cardNumFive": null, "isSupportYj": null, "cityName": null, "districtName": null, "shopinfo": {"mid": "888888859120192", "good_flag": null, "new_flag": null, "short_name": "\u4f59\u5929\u6210", "short_name_pinyin": "yutiancheng", "status": null, "address": null, "name": null, "id": "39229"}, "mid": "888888859120192", "shopId": "39229", "netid": null, "province": 901, "district": 601, "zipcode": null, "telephone": "67715349", "posDate": null, "destineTel": null, "togoTel": null, "trafficWay": null, "signBuilding": null, "businessArea": null, "selfRoom": null, "businessTime": null, "stall": null, "consume": null, "serviceFei": null, "favourable": null, "shopMemo": null, "appraise": null, "website": null, "memo": null, "payTypes": "\u6749\u5fb7\u5361", "shopTypes": "\u836f\u5e97", "consumeTypes": null, "cookTypes": null, "orderNum": 1000, "card4no": null, "card4noAcc": null, "district2": 412, "searchScope": null, "status": 1, "address": "\u8363\u4e50\u4e2d\u8def204\u53f7", "name": "\u4f59\u5929\u6210 \u8363\u4e50\u836f\u5e97", "id": 167421, "pageNo": 0, "pageCount": null, "pageSize": 10, "ids": null, "endTime": null, "startTime": null}, {"cardNumFive": null, "isSupportYj": null, "cityName": null, "districtName": null, "shopinfo": {"mid": "888888859120192", "good_flag": null, "new_flag": null, "short_name": "\u4f59\u5929\u6210", "short_name_pinyin": "yutiancheng", "status": null, "address": null, "name": null, "id": "39229"}, "mid": "888888859120192", "shopId": "39229", "netid": null, "province": 901, "district": 601, "zipcode": null, "telephone": "57671167", "posDate": null, "destineTel": null, "togoTel": null, "trafficWay": null, "signBuilding": null, "businessArea": null, "selfRoom": null, "businessTime": null, "stall": null, "consume": null, "serviceFei": null, "favourable": null, "shopMemo": null, "appraise": null, "website": null, "memo": null, "payTypes": "\u6749\u5fb7\u5361", "shopTypes": "\u836f\u5e97", "consumeTypes": null, "cookTypes": null, "orderNum": 1000, "card4no": null, "card4noAcc": null, "district2": 412, "searchScope": null, "status": 1, "address": "\u6d1e\u6cfe\u9547\u957f\u5174\u8def640-642\u53f7", "name": "\u4f59\u5929\u6210 \u6d77\u5174\u836f\u5e97", "id": 167423, "pageNo": 0, "pageCount": null, "pageSize": 10, "ids": null, "endTime": null, "startTime": null}, {"cardNumFive": null, "isSupportYj": null, "cityName": null, "districtName": null, "shopinfo": {"mid": "888888859120192", "good_flag": null, "new_flag": null, "short_name": "\u4f59\u5929\u6210", "short_name_pinyin": "yutiancheng", "status": null, "address": null, "name": null, "id": "39229"}, "mid": "888888859120192", "shopId": "39229", "netid": null, "province": 901, "district": 601, "zipcode": null, "telephone": "67710449", "posDate": null, "destineTel": null, "togoTel": null, "trafficWay": null, "signBuilding": null, "businessArea": null, "selfRoom": null, "businessTime": null, "stall": null, "consume": null, "serviceFei": null, "favourable": null, "shopMemo": null, "appraise": null, "website": null, "memo": null, "payTypes": "\u6749\u5fb7\u5361", "shopTypes": "\u836f\u5e97", "consumeTypes": null, "cookTypes": null, "orderNum": 1000, "card4no": null, "card4noAcc": null, "district2": 412, "searchScope": null, "status": 1, "address": "\u4e50\u90fd\u8def650-652\u53f7", "name": "\u4f59\u5929\u6210 \u7389\u6811\u836f\u5e97", "id": 167424, "pageNo": 0, "pageCount": null, "pageSize": 10, "ids": null, "endTime": null, "startTime": null}, {"cardNumFive": null, "isSupportYj": null, "cityName": null, "districtName": null, "shopinfo": {"mid": "888888859120192", "good_flag": null, "new_flag": null, "short_name": "\u4f59\u5929\u6210", "short_name_pinyin": "yutiancheng", "status": null, "address": null, "name": null, "id": "39229"}, "mid": "888888859120192", "shopId": "39229", "netid": null, "province": 901, "district": 601, "zipcode": null, "telephone": null, "posDate": null, "destineTel": null, "togoTel": null, "trafficWay": null, "signBuilding": null, "businessArea": null, "selfRoom": null, "businessTime": null, "stall": null, "consume": null, "serviceFei": null, "favourable": null, "shopMemo": null, "appraise": null, "website": null, "memo": null, "payTypes": "\u6749\u5fb7\u5361", "shopTypes": "\u836f\u5e97", "consumeTypes": null, "cookTypes": null, "orderNum": 1000, "card4no": null, "card4noAcc": null, "district2": 412, "searchScope": null, "status": 1, "address": "\u6caa\u677e\u8def15\u20144\u53f7", "name": "\u4f59\u5929\u6210 \u8363\u90fd\u836f\u5e97", "id": 167426, "pageNo": 0, "pageCount": null, "pageSize": 10, "ids": null, "endTime": null, "startTime": null}, {"cardNumFive": null, "isSupportYj": null, "cityName": null, "districtName": null, "shopinfo": {"mid": "888888859120192", "good_flag": null, "new_flag": null, "short_name": "\u4f59\u5929\u6210", "short_name_pinyin": "yutiancheng", "status": null, "address": null, "name": null, "id": "39229"}, "mid": "888888859120192", "shopId": "39229", "netid": null, "province": 901, "district": 601, "zipcode": null, "telephone": "57781958", "posDate": null, "destineTel": null, "togoTel": null, "trafficWay": null, "signBuilding": null, "businessArea": null, "selfRoom": null, "businessTime": null, "stall": null, "consume": null, "serviceFei": null, "favourable": null, "shopMemo": null, "appraise": null, "website": null, "memo": null, "payTypes": "\u6749\u5fb7\u5361", "shopTypes": "\u836f\u5e97", "consumeTypes": null, "cookTypes": null, "orderNum": 1000, "card4no": null, "card4noAcc": null, "district2": 412, "searchScope": null, "status": 1, "address": "\u8338\u6885\u8def145\u53f7", "name": "\u4f59\u5929\u6210 \u8338\u65b0\u836f\u5e97", "id": 167427, "pageNo": 0, "pageCount": null, "pageSize": 10, "ids": null, "endTime": null, "startTime": null}, {"cardNumFive": null, "isSupportYj": null, "cityName": null, "districtName": null, "shopinfo": {"mid": "888002159121246", "good_flag": null, "new_flag": null, "short_name": "\u4f59\u5929\u6210\u5f18\u7fd4\u836f\u5e97", "short_name_pinyin": "yutianchenghongxiangyaodian", "status": null, "address": null, "name": null, "id": "36488"}, "mid": "888002159121246", "shopId": "36488", "netid": null, "province": 901, "district": 601, "zipcode": null, "telephone": "37824345", "posDate": "20100910", "destineTel": null, "togoTel": null, "trafficWay": null, "signBuilding": null, "businessArea": null, "selfRoom": null, "businessTime": null, "stall": null, "consume": null, "serviceFei": null, "favourable": null, "shopMemo": null, "appraise": null, "website": null, "memo": null, "payTypes": "\u6749\u5fb7\u5361", "shopTypes": "\u836f\u5e97", "consumeTypes": null, "cookTypes": null, "orderNum": 1000, "card4no": null, "card4noAcc": null, "district2": 412, "searchScope": null, "status": 1, "address": "\u5f18\u7fd4\u8def129\u53f7", "name": "\u4f59\u5929\u6210\u5f18\u7fd4\u836f\u5e97 \u5f18\u7fd4\u8def\u5e97", "id": 151755, "pageNo": 0, "pageCount": null, "pageSize": 10, "ids": null, "endTime": null, "startTime": null}], "pageLimit": 10800, "size": 10}