{"pageCount": 1095, "count": 10942, "pageNo": 1086, "subShopInfo": {"cardNumFive": "", "isSupportYj": "", "cityName": null, "districtName": null, "shopinfo": {"mid": null, "good_flag": null, "new_flag": null, "short_name": null, "short_name_pinyin": null, "status": null, "address": "", "name": "", "id": null}, "mid": null, "shopId": null, "netid": null, "province": 901, "district": null, "zipcode": null, "telephone": null, "posDate": null, "destineTel": null, "togoTel": null, "trafficWay": null, "signBuilding": null, "businessArea": null, "selfRoom": null, "businessTime": null, "stall": null, "consume": null, "serviceFei": null, "favourable": null, "shopMemo": "1", "appraise": null, "website": null, "memo": null, "payTypes": "", "shopTypes": "", "consumeTypes": null, "cookTypes": null, "orderNum": null, "card4no": null, "card4noAcc": null, "district2": null, "searchScope": null, "status": null, "address": "", "name": null, "id": null, "pageNo": 1085, "pageCount": null, "pageSize": 10, "ids": null, "endTime": null, "startTime": null}, "list": [{"cardNumFive": null, "isSupportYj": null, "cityName": null, "districtName": null, "shopinfo": {"mid": "888002156911387", "good_flag": null, "new_flag": null, "short_name": "\u771f\u4e1d\u5546\u53a6", "short_name_pinyin": "zhensishangsha", "status": null, "address": null, "name": null, "id": "36341"}, "mid": "888002156911387", "shopId": "36341", "netid": null, "province": 901, "district": 601, "zipcode": null, "telephone": "62532497", "posDate": "20100823", "destineTel": null, "togoTel": null, "trafficWay": null, "signBuilding": null, "businessArea": null, "selfRoom": null, "businessTime": null, "stall": null, "consume": null, "serviceFei": null, "favourable": null, "shopMemo": null, "appraise": null, "website": null, "memo": null, "payTypes": "\u6749\u5fb7\u5361", "shopTypes": "\u96f6\u552e", "consumeTypes": null, "cookTypes": null, "orderNum": 1000, "card4no": null, "card4noAcc": null, "district2": 404, "searchScope": null, "status": 1, "address": "\u9759\u5b89\u533a\u611a\u56ed\u8def228\u53f7", "name": "\u771f\u4e1d\u5546\u53a6 \u611a\u56ed\u8def\u5e97", "id": 151302, "pageNo": 0, "pageCount": null, "pageSize": 10, "ids": null, "endTime": null, "startTime": null}, {"cardNumFive": null, "isSupportYj": null, "cityName": null, "districtName": null, "shopinfo": {"mid": "888888856910048", "good_flag": "1", "new_flag": "1", "short_name": "\u771f\u7ef4\u65af", "short_name_pinyin": "zhenweisi", "status": null, "address": null, "name": null, "id": "34118"}, "mid": "888888856910048", "shopId": "34118", "netid": null, "province": 901, "district": 601, "zipcode": null, "telephone": "56842044", "posDate": "20070614", "destineTel": null, "togoTel": null, "trafficWay": "\u5730\u94c1\u4e09\u53f7\u7ebf\u3000\u5b9d\u5c711\u8def", "signBuilding": null, "businessArea": null, "selfRoom": "\u65e0", "businessTime": "9:30~22:30", "stall": null, "consume": null, "serviceFei": null, "favourable": null, "shopMemo": null, "appraise": null, "website": null, "memo": null, "payTypes": "\u6749\u5fb7\u5361", "shopTypes": "\u670d\u9970\u5bb6\u7eba", "consumeTypes": null, "cookTypes": null, "orderNum": 1000, "card4no": null, "card4noAcc": null, "district2": 416, "searchScope": null, "status": 1, "address": "\u6c34\u4ea7\u8def1234\u53f7\u4e16\u7eaa\u8054\u534e\u5b9d\u5c71\u5e97\u4e00\u697cA4\u94fa\u4f4d", "name": "\u771f\u7ef4\u65af \u5b9d\u5c71\u7eaa\u8054\u534e\u5e97", "id": 144902, "pageNo": 0, "pageCount": null, "pageSize": 10, "ids": null, "endTime": null, "startTime": null}, {"cardNumFive": null, "isSupportYj": null, "cityName": null, "districtName": null, "shopinfo": {"mid": "888888856910048", "good_flag": "1", "new_flag": "1", "short_name": "\u771f\u7ef4\u65af", "short_name_pinyin": "zhenweisi", "status": null, "address": null, "name": null, "id": "34118"}, "mid": "888888856910048", "shopId": "34118", "netid": null, "province": 901, "district": 601, "zipcode": null, "telephone": "59731386", "posDate": "20080718", "destineTel": null, "togoTel": null, "trafficWay": null, "signBuilding": null, "businessArea": null, "selfRoom": null, "businessTime": null, "stall": null, "consume": null, "serviceFei": null, "favourable": null, "shopMemo": null, "appraise": null, "website": null, "memo": null, "payTypes": "\u6749\u5fb7\u5361", "shopTypes": "\u670d\u9970\u5bb6\u7eba", "consumeTypes": null, "cookTypes": null, "orderNum": 1000, "card4no": null, "card4noAcc": null, "district2": 417, "searchScope": null, "status": 1, "address": "\u57ce\u4e2d\u4e1c\u8def659\u53f7", "name": "\u771f\u7ef4\u65af \u57ce\u4e2d\u4e1c\u8def\u5e97", "id": 144906, "pageNo": 0, "pageCount": null, "pageSize": 10, "ids": null, "endTime": null, "startTime": null}, {"cardNumFive": null, "isSupportYj": null, "cityName": null, "districtName": null, "shopinfo": {"mid": "888888856910048", "good_flag": "1", "new_flag": "1", "short_name": "\u771f\u7ef4\u65af", "short_name_pinyin": "zhenweisi", "status": null, "address": null, "name": null, "id": "34118"}, "mid": "888888856910048", "shopId": "34118", "netid": null, "province": 901, "district": 601, "zipcode": null, "telephone": "57414519", "posDate": "20070619", "destineTel": null, "togoTel": null, "trafficWay": "\u5357\u6885\u7ebf", "signBuilding": null, "businessArea": "73\u5e73\u65b9\u7c73", "selfRoom": "\u65e0", "businessTime": "9:30~22:30", "stall": null, "consume": null, "serviceFei": null, "favourable": null, "shopMemo": null, "appraise": null, "website": null, "memo": null, "payTypes": "\u6749\u5fb7\u5361", "shopTypes": "\u670d\u9970\u5bb6\u7eba", "consumeTypes": null, "cookTypes": null, "orderNum": 1000, "card4no": null, "card4noAcc": null, "district2": 413, "searchScope": null, "status": 1, "address": "\u5949\u8d24\u5357\u6865\u9547\u89e3\u653e\u4e2d\u8def307\u53f7", "name": "\u771f\u7ef4\u65af \u5949\u8d24\u89e3\u653e\u4e2d\u8def\u5e97", "id": 144913, "pageNo": 0, "pageCount": null, "pageSize": 10, "ids": null, "endTime": null, "startTime": null}, {"cardNumFive": null, "isSupportYj": null, "cityName": null, "districtName": null, "shopinfo": {"mid": "888888856910048", "good_flag": "1", "new_flag": "1", "short_name": "\u771f\u7ef4\u65af", "short_name_pinyin": "zhenweisi", "status": null, "address": null, "name": null, "id": "34118"}, "mid": "888888856910048", "shopId": "34118", "netid": null, "province": 901, "district": 601, "zipcode": null, "telephone": null, "posDate": "20091228", "destineTel": null, "togoTel": null, "trafficWay": null, "signBuilding": null, "businessArea": null, "selfRoom": null, "businessTime": null, "stall": null, "consume": null, "serviceFei": null, "favourable": null, "shopMemo": null, "appraise": null, "website": null, "memo": null, "payTypes": "\u6749\u5fb7\u5361", "shopTypes": "\u670d\u9970\u5bb6\u7eba", "consumeTypes": null, "cookTypes": null, "orderNum": 1000, "card4no": null, "card4noAcc": null, "district2": 418, "searchScope": null, "status": 1, "address": "\u5ddd\u6c99\u534e\u590f\u4e1c\u8def2239\u53f7", "name": "\u771f\u7ef4\u65af \u534e\u590f\u4e1c\u8def\u5e97", "id": 144916, "pageNo": 0, "pageCount": null, "pageSize": 10, "ids": null, "endTime": null, "startTime": null}, {"cardNumFive": null, "isSupportYj": null, "cityName": null, "districtName": null, "shopinfo": {"mid": "888888856910209", "good_flag": "2", "new_flag": "2", "short_name": "\u771f\u7ef4\u65af", "short_name_pinyin": "zhenweisi", "status": null, "address": null, "name": null, "id": "34119"}, "mid": "888888856910209", "shopId": "34119", "netid": null, "province": 901, "district": 601, "zipcode": null, "telephone": null, "posDate": "20081211", "destineTel": null, "togoTel": null, "trafficWay": "\u516c\u4ea4\u6caa\u536b\u7ebf", "signBuilding": null, "businessArea": null, "selfRoom": null, "businessTime": null, "stall": null, "consume": null, "serviceFei": null, "favourable": null, "shopMemo": null, "appraise": null, "website": null, "memo": null, "payTypes": "\u6749\u5fb7\u5361", "shopTypes": "\u670d\u9970\u5bb6\u7eba", "consumeTypes": null, "cookTypes": null, "orderNum": 1000, "card4no": null, "card4noAcc": null, "district2": 413, "searchScope": null, "status": 1, "address": "\u6c47\u4e2d\u8857159\u53f7", "name": "\u771f\u7ef4\u65af \u6c47\u4e2d\u8857\u5e97", "id": 144917, "pageNo": 0, "pageCount": null, "pageSize": 10, "ids": null, "endTime": null, "startTime": null}, {"cardNumFive": null, "isSupportYj": null, "cityName": null, "districtName": null, "shopinfo": {"mid": "888888856910048", "good_flag": "1", "new_flag": "1", "short_name": "\u771f\u7ef4\u65af", "short_name_pinyin": "zhenweisi", "status": null, "address": null, "name": null, "id": "34118"}, "mid": "888888856910048", "shopId": "34118", "netid": null, "province": 901, "district": 601, "zipcode": null, "telephone": "59912561", "posDate": "20070619", "destineTel": null, "togoTel": null, "trafficWay": "\u5609\u725b\u4e13\u7ebf\u3000\u5609\u94b1\u7ebf", "signBuilding": null, "businessArea": "80\u5e73\u65b9\u7c73", "selfRoom": "\u65e0", "businessTime": "9:30~22:30", "stall": null, "consume": null, "serviceFei": null, "favourable": null, "shopMemo": null, "appraise": null, "website": null, "memo": null, "payTypes": "\u6749\u5fb7\u5361", "shopTypes": "\u670d\u9970\u5bb6\u7eba", "consumeTypes": null, "cookTypes": null, "orderNum": 1000, "card4no": null, "card4noAcc": null, "district2": 411, "searchScope": null, "status": 1, "address": "\u5609\u5b9a\u57ce\u4e2d\u8def49\u53f7", "name": "\u771f\u7ef4\u65af \u5609\u5b9a\u57ce\u4e2d\u8def\u5e97", "id": 144918, "pageNo": 0, "pageCount": null, "pageSize": 10, "ids": null, "endTime": null, "startTime": null}, {"cardNumFive": null, "isSupportYj": null, "cityName": null, "districtName": null, "shopinfo": {"mid": "888888856910048", "good_flag": "1", "new_flag": "1", "short_name": "\u771f\u7ef4\u65af", "short_name_pinyin": "zhenweisi", "status": null, "address": null, "name": null, "id": "34118"}, "mid": "888888856910048", "shopId": "34118", "netid": null, "province": 901, "district": 601, "zipcode": null, "telephone": "57972031", "posDate": "20070717", "destineTel": null, "togoTel": null, "trafficWay": "\u77f3\u6885\u7ebf", "signBuilding": null, "businessArea": null, "selfRoom": null, "businessTime": null, "stall": null, "consume": null, "serviceFei": null, "favourable": null, "shopMemo": null, "appraise": null, "website": null, "memo": null, "payTypes": "\u6749\u5fb7\u5361", "shopTypes": "\u670d\u9970\u5bb6\u7eba", "consumeTypes": null, "cookTypes": null, "orderNum": 1000, "card4no": null, "card4noAcc": null, "district2": 414, "searchScope": null, "status": 1, "address": "\u77f3\u5316\u91d1\u4e00\u4e1c\u8def263\u53f7", "name": "\u771f\u7ef4\u65af \u91d1\u4e00\u4e1c\u8def\u5e97", "id": 144920, "pageNo": 0, "pageCount": null, "pageSize": 10, "ids": null, "endTime": null, "startTime": null}, {"cardNumFive": null, "isSupportYj": null, "cityName": null, "districtName": null, "shopinfo": {"mid": "888888856910048", "good_flag": "1", "new_flag": "1", "short_name": "\u771f\u7ef4\u65af", "short_name_pinyin": "zhenweisi", "status": null, "address": null, "name": null, "id": "34118"}, "mid": "888888856910048", "shopId": "34118", "netid": null, "province": 901, "district": 601, "zipcode": null, "telephone": "68005543", "posDate": "20070613", "destineTel": null, "togoTel": null, "trafficWay": "\u5ddd\u5357\u7ebf \u60e0\u677e\u7ebf", "signBuilding": null, "businessArea": "77\u5e73\u65b9\u7c73", "selfRoom": "\u65e0", "businessTime": "9:30~22:30", "stall": "\u65e0", "consume": null, "serviceFei": null, "favourable": null, "shopMemo": null, "appraise": null, "website": null, "memo": null, "payTypes": "\u6749\u5fb7\u5361", "shopTypes": "\u670d\u9970\u5bb6\u7eba", "consumeTypes": null, "cookTypes": null, "orderNum": 1000, "card4no": null, "card4noAcc": null, "district2": 418, "searchScope": null, "status": 1, "address": "\u60e0\u5357?\u57ce\u4e1c\u8def378-392\u53f7", "name": "\u771f\u7ef4\u65af \u5357\u6c47\u4e16\u7eaa\u8054\u534e\u5e97", "id": 144925, "pageNo": 0, "pageCount": null, "pageSize": 10, "ids": null, "endTime": null, "startTime": null}, {"cardNumFive": null, "isSupportYj": null, "cityName": null, "districtName": null, "shopinfo": {"mid": "888888856910048", "good_flag": "1", "new_flag": "1", "short_name": "\u771f\u7ef4\u65af", "short_name_pinyin": "zhenweisi", "status": null, "address": null, "name": null, "id": "34118"}, "mid": "888888856910048", "shopId": "34118", "netid": null, "province": 901, "district": 601, "zipcode": null, "telephone": "63213730", "posDate": "20070611", "destineTel": null, "togoTel": null, "trafficWay": "\u516c\u4ea449 20 \u5730\u94c1\u4e8c\u53f7\u7ebf", "signBuilding": null, "businessArea": "150", "selfRoom": "\u65e0", "businessTime": "9:30~22:30", "stall": "\u65e0", "consume": null, "serviceFei": null, "favourable": null, "shopMemo": null, "appraise": null, "website": null, "memo": null, "payTypes": "\u6749\u5fb7\u5361", "shopTypes": "\u670d\u9970\u5bb6\u7eba", "consumeTypes": null, "cookTypes": null, "orderNum": 1000, "card4no": null, "card4noAcc": null, "district2": 401, "searchScope": null, "status": 1, "address": "\u5357\u4eac\u4e1c\u8def114\u53f7", "name": "\u771f\u7ef4\u65af \u5357\u4eac\u4e1c\u8def\u5e97", "id": 144926, "pageNo": 0, "pageCount": null, "pageSize": 10, "ids": null, "endTime": null, "startTime": null}], "pageLimit": 10850, "size": 10}