{"pageCount": 1095, "count": 10942, "pageNo": 1087, "subShopInfo": {"cardNumFive": "", "isSupportYj": "", "cityName": null, "districtName": null, "shopinfo": {"mid": null, "good_flag": null, "new_flag": null, "short_name": null, "short_name_pinyin": null, "status": null, "address": "", "name": "", "id": null}, "mid": null, "shopId": null, "netid": null, "province": 901, "district": null, "zipcode": null, "telephone": null, "posDate": null, "destineTel": null, "togoTel": null, "trafficWay": null, "signBuilding": null, "businessArea": null, "selfRoom": null, "businessTime": null, "stall": null, "consume": null, "serviceFei": null, "favourable": null, "shopMemo": "1", "appraise": null, "website": null, "memo": null, "payTypes": "", "shopTypes": "", "consumeTypes": null, "cookTypes": null, "orderNum": null, "card4no": null, "card4noAcc": null, "district2": null, "searchScope": null, "status": null, "address": "", "name": null, "id": null, "pageNo": 1086, "pageCount": null, "pageSize": 10, "ids": null, "endTime": null, "startTime": null}, "list": [{"cardNumFive": null, "isSupportYj": null, "cityName": null, "districtName": null, "shopinfo": {"mid": "888888856910048", "good_flag": "1", "new_flag": "1", "short_name": "\u771f\u7ef4\u65af", "short_name_pinyin": "zhenweisi", "status": null, "address": null, "name": null, "id": "34118"}, "mid": "888888856910048", "shopId": "34118", "netid": null, "province": 901, "district": 601, "zipcode": null, "telephone": "69725057", "posDate": "20070618", "destineTel": null, "togoTel": null, "trafficWay": "\u4e0a\u6731\u7ebf\u533a\u95f4", "signBuilding": null, "businessArea": "88\u5e73\u65b9\u7c73", "selfRoom": "\u65e0", "businessTime": "9:30~22:30", "stall": null, "consume": null, "serviceFei": null, "favourable": null, "shopMemo": null, "appraise": null, "website": null, "memo": null, "payTypes": "\u6749\u5fb7\u5361", "shopTypes": "\u670d\u9970\u5bb6\u7eba", "consumeTypes": null, "cookTypes": null, "orderNum": 1000, "card4no": null, "card4noAcc": null, "district2": 417, "searchScope": null, "status": 1, "address": "\u9752\u6d66\u76c8\u6e2f\u8def555\u53f7\u4e16\u7eaa\u8054\u534e\u9752\u6d66\u5e97\u4e8c\u697c", "name": "\u771f\u7ef4\u65af \u9752\u6d66\u4e16\u7eaa\u8054\u534e\u5e97", "id": 144932, "pageNo": 0, "pageCount": null, "pageSize": 10, "ids": null, "endTime": null, "startTime": null}, {"cardNumFive": null, "isSupportYj": null, "cityName": null, "districtName": null, "shopinfo": {"mid": "888888856910048", "good_flag": "1", "new_flag": "1", "short_name": "\u771f\u7ef4\u65af", "short_name_pinyin": "zhenweisi", "status": null, "address": null, "name": null, "id": "34118"}, "mid": "888888856910048", "shopId": "34118", "netid": null, "province": 901, "district": 601, "zipcode": null, "telephone": "63561739", "posDate": "20070611", "destineTel": null, "togoTel": null, "trafficWay": "\u516c\u4ea4537 18 \u65c5\u6e38\u5341\u53f7\u7ebf", "signBuilding": null, "businessArea": "53", "selfRoom": "\u65e0", "businessTime": "9:30~22:30", "stall": "\u65e0", "consume": null, "serviceFei": null, "favourable": null, "shopMemo": null, "appraise": null, "website": null, "memo": null, "payTypes": "\u6749\u5fb7\u5361", "shopTypes": "\u670d\u9970\u5bb6\u7eba", "consumeTypes": null, "cookTypes": null, "orderNum": 1000, "card4no": null, "card4noAcc": null, "district2": 408, "searchScope": null, "status": 1, "address": "\u56db\u5ddd\u5317\u8def1571\u53f7", "name": "\u771f\u7ef4\u65af \u56db\u5ddd\u5317\u8def\u4e8c\u5e97", "id": 144934, "pageNo": 0, "pageCount": null, "pageSize": 10, "ids": null, "endTime": null, "startTime": null}, {"cardNumFive": null, "isSupportYj": null, "cityName": null, "districtName": null, "shopinfo": {"mid": "888888856910048", "good_flag": "1", "new_flag": "1", "short_name": "\u771f\u7ef4\u65af", "short_name_pinyin": "zhenweisi", "status": null, "address": null, "name": null, "id": "34118"}, "mid": "888888856910048", "shopId": "34118", "netid": null, "province": 901, "district": 601, "zipcode": null, "telephone": "57714847", "posDate": "20070615", "destineTel": null, "togoTel": null, "trafficWay": "\u677e\u6c5f\uff17\u7ebf", "signBuilding": null, "businessArea": "64\u5e73\u65b9\u7c73", "selfRoom": "\u65e0", "businessTime": "9:30~22:30", "stall": null, "consume": null, "serviceFei": null, "favourable": null, "shopMemo": null, "appraise": null, "website": null, "memo": null, "payTypes": "\u6749\u5fb7\u5361", "shopTypes": "\u670d\u9970\u5bb6\u7eba", "consumeTypes": null, "cookTypes": null, "orderNum": 1000, "card4no": null, "card4noAcc": null, "district2": 412, "searchScope": null, "status": 1, "address": "\u677e\u6c5f\u4e2d\u5c71\u4e2d\u8def111\u53f7\u5e95\u697c", "name": "\u771f\u7ef4\u65af \u677e\u6c5f\u4e2d\u5c71\u4e2d\u8def\u5e97", "id": 144939, "pageNo": 0, "pageCount": null, "pageSize": 10, "ids": null, "endTime": null, "startTime": null}, {"cardNumFive": null, "isSupportYj": null, "cityName": null, "districtName": null, "shopinfo": {"mid": "888888856910048", "good_flag": "1", "new_flag": "1", "short_name": "\u771f\u7ef4\u65af", "short_name_pinyin": "zhenweisi", "status": null, "address": null, "name": null, "id": "34118"}, "mid": "888888856910048", "shopId": "34118", "netid": null, "province": 901, "district": 601, "zipcode": null, "telephone": "52066810", "posDate": "20070611", "destineTel": null, "togoTel": null, "trafficWay": "\u516c\u4ea4808 855", "signBuilding": null, "businessArea": "214", "selfRoom": "\u65e0", "businessTime": "9:30~22:30", "stall": "\u65e0", "consume": null, "serviceFei": null, "favourable": null, "shopMemo": null, "appraise": null, "website": null, "memo": null, "payTypes": "\u6749\u5fb7\u5361", "shopTypes": "\u670d\u9970\u5bb6\u7eba", "consumeTypes": null, "cookTypes": null, "orderNum": 1000, "card4no": null, "card4noAcc": null, "district2": 406, "searchScope": null, "status": 1, "address": "\u5929\u5c71\u8def924\u53f7", "name": "\u771f\u7ef4\u65af \u5929\u5c71\u5e97", "id": 144940, "pageNo": 0, "pageCount": null, "pageSize": 10, "ids": null, "endTime": null, "startTime": null}, {"cardNumFive": null, "isSupportYj": null, "cityName": null, "districtName": null, "shopinfo": {"mid": "888888856910048", "good_flag": "1", "new_flag": "1", "short_name": "\u771f\u7ef4\u65af", "short_name_pinyin": "zhenweisi", "status": null, "address": null, "name": null, "id": "34118"}, "mid": "888888856910048", "shopId": "34118", "netid": null, "province": 901, "district": 601, "zipcode": null, "telephone": "58622841", "posDate": "20070717", "destineTel": null, "togoTel": null, "trafficWay": "\u516c\u4ea4936", "signBuilding": null, "businessArea": null, "selfRoom": null, "businessTime": null, "stall": null, "consume": null, "serviceFei": null, "favourable": null, "shopMemo": null, "appraise": null, "website": null, "memo": null, "payTypes": "\u6749\u5fb7\u5361", "shopTypes": "\u670d\u9970\u5bb6\u7eba", "consumeTypes": null, "cookTypes": null, "orderNum": 1000, "card4no": null, "card4noAcc": null, "district2": 418, "searchScope": null, "status": 1, "address": "\u590f\u78a7\u8def261\u53f7\u5916\u9ad8\u6865\u4e16\u7eaa\u8054\u534e\u4e00\u697c", "name": "\u771f\u7ef4\u65af \u590f\u78a7\u8def\u5e97", "id": 144942, "pageNo": 0, "pageCount": null, "pageSize": 10, "ids": null, "endTime": null, "startTime": null}, {"cardNumFive": null, "isSupportYj": null, "cityName": null, "districtName": null, "shopinfo": {"mid": "888888856910048", "good_flag": "1", "new_flag": "1", "short_name": "\u771f\u7ef4\u65af", "short_name_pinyin": "zhenweisi", "status": null, "address": null, "name": null, "id": "34118"}, "mid": "888888856910048", "shopId": "34118", "netid": null, "province": 901, "district": 601, "zipcode": null, "telephone": "56645646", "posDate": "20070614", "destineTel": null, "togoTel": null, "trafficWay": "\u5f6d\u77f3\u7ebf \u5f6d\u6c5f\u7ebf \u5f6d\u6cfe\u7ebf", "signBuilding": null, "businessArea": "46\u5e73\u65b9\u7c73", "selfRoom": null, "businessTime": null, "stall": null, "consume": null, "serviceFei": null, "favourable": null, "shopMemo": null, "appraise": null, "website": null, "memo": null, "payTypes": "\u6749\u5fb7\u5361", "shopTypes": "\u670d\u9970\u5bb6\u7eba", "consumeTypes": null, "cookTypes": null, "orderNum": 1000, "card4no": null, "card4noAcc": null, "district2": 416, "searchScope": null, "status": 1, "address": "\u6708\u6d66\u9f99\u9547\u8def112\u53f7", "name": "\u771f\u7ef4\u65af \u6708\u6d66\u5e97", "id": 144943, "pageNo": 0, "pageCount": null, "pageSize": 10, "ids": null, "endTime": null, "startTime": null}, {"cardNumFive": null, "isSupportYj": null, "cityName": null, "districtName": null, "shopinfo": {"mid": "888888856910048", "good_flag": "1", "new_flag": "1", "short_name": "\u771f\u7ef4\u65af", "short_name_pinyin": "zhenweisi", "status": null, "address": null, "name": null, "id": "34118"}, "mid": "888888856910048", "shopId": "34118", "netid": null, "province": 901, "district": 601, "zipcode": null, "telephone": "57319082", "posDate": "20070618", "destineTel": null, "togoTel": null, "trafficWay": "\u4e0a\u6731\u7ebf\u533a\u95f4", "signBuilding": null, "businessArea": "60\u5e73\u65b9\u7c73", "selfRoom": "\u65e0", "businessTime": "9:30~22:30", "stall": null, "consume": null, "serviceFei": null, "favourable": null, "shopMemo": null, "appraise": null, "website": null, "memo": null, "payTypes": "\u6749\u5fb7\u5361", "shopTypes": "\u670d\u9970\u5bb6\u7eba", "consumeTypes": null, "cookTypes": null, "orderNum": 1000, "card4no": null, "card4noAcc": null, "district2": 414, "searchScope": null, "status": 1, "address": "\u6731\u6cfe\u9547\u516c\u56ed\u8def288\u53f7", "name": "\u771f\u7ef4\u65af \u6731\u6cfe\u5e97", "id": 144946, "pageNo": 0, "pageCount": null, "pageSize": 10, "ids": null, "endTime": null, "startTime": null}, {"cardNumFive": null, "isSupportYj": null, "cityName": null, "districtName": null, "shopinfo": {"mid": "888888856910048", "good_flag": null, "new_flag": null, "short_name": "\u771f\u7ef4\u65af", "short_name_pinyin": "zhenweisi", "status": null, "address": null, "name": null, "id": "38965"}, "mid": "888888856910048", "shopId": "38965", "netid": null, "province": 901, "district": 601, "zipcode": null, "telephone": "65335191", "posDate": null, "destineTel": null, "togoTel": null, "trafficWay": null, "signBuilding": null, "businessArea": null, "selfRoom": null, "businessTime": null, "stall": null, "consume": null, "serviceFei": null, "favourable": null, "shopMemo": null, "appraise": null, "website": null, "memo": null, "payTypes": "\u6749\u5fb7\u5361", "shopTypes": "\u670d\u9970\u5bb6\u7eba", "consumeTypes": null, "cookTypes": null, "orderNum": 1000, "card4no": null, "card4noAcc": null, "district2": 407, "searchScope": null, "status": 1, "address": "\u9756\u5b87\u4e1c\u8def220\u53f7", "name": "\u771f\u7ef4\u65af \u9756\u5b87\u4e1c\u8def\u5e97", "id": 164915, "pageNo": 0, "pageCount": null, "pageSize": 10, "ids": null, "endTime": null, "startTime": null}, {"cardNumFive": null, "isSupportYj": null, "cityName": null, "districtName": null, "shopinfo": {"mid": "888002156911359", "good_flag": "2", "new_flag": "1", "short_name": "\u73cd\u7fbd\u670d\u9970\uff08\u4eba\u95f4\u56db\u6708\u5929\uff09", "short_name_pinyin": "zhenyufushirenjiansiyuetian", "status": null, "address": null, "name": null, "id": "34093"}, "mid": "888002156911359", "shopId": "34093", "netid": null, "province": 901, "district": 601, "zipcode": null, "telephone": null, "posDate": null, "destineTel": null, "togoTel": null, "trafficWay": null, "signBuilding": null, "businessArea": null, "selfRoom": null, "businessTime": null, "stall": null, "consume": null, "serviceFei": null, "favourable": null, "shopMemo": null, "appraise": null, "website": null, "memo": null, "payTypes": "\u6749\u5fb7\u5361", "shopTypes": "\u670d\u9970\u5bb6\u7eba", "consumeTypes": null, "cookTypes": null, "orderNum": 1000, "card4no": null, "card4noAcc": null, "district2": 410, "searchScope": null, "status": 1, "address": "\u5171\u6c5f\u8def1208\u53f7\u5bb6\u4e50\u798f", "name": "\u73cd\u7fbd\u670d\u9970\uff08\u4eba\u95f4\u56db\u6708\u5929\uff09 \u5171\u6c5f\u5bb6\u4e50\u798f\u5e97", "id": 144852, "pageNo": 0, "pageCount": null, "pageSize": 10, "ids": null, "endTime": null, "startTime": null}, {"cardNumFive": null, "isSupportYj": null, "cityName": null, "districtName": null, "shopinfo": {"mid": "888002156911359", "good_flag": "2", "new_flag": "1", "short_name": "\u73cd\u7fbd\u670d\u9970\uff08\u4eba\u95f4\u56db\u6708\u5929\uff09", "short_name_pinyin": "zhenyufushirenjiansiyuetian", "status": null, "address": null, "name": null, "id": "34093"}, "mid": "888002156911359", "shopId": "34093", "netid": null, "province": 901, "district": 601, "zipcode": null, "telephone": "58400499", "posDate": null, "destineTel": null, "togoTel": null, "trafficWay": null, "signBuilding": null, "businessArea": null, "selfRoom": null, "businessTime": null, "stall": null, "consume": null, "serviceFei": null, "favourable": null, "shopMemo": null, "appraise": null, "website": null, "memo": null, "payTypes": "\u6749\u5fb7\u5361", "shopTypes": "\u670d\u9970\u5bb6\u7eba", "consumeTypes": null, "cookTypes": null, "orderNum": 1000, "card4no": null, "card4noAcc": null, "district2": 418, "searchScope": null, "status": 1, "address": "\u4e73\u5c71\u8def69\u53f7", "name": "\u73cd\u7fbd\u670d\u9970\uff08\u4eba\u95f4\u56db\u6708\u5929\uff09 \u4e73\u5c71\u8def\u5e97", "id": 144868, "pageNo": 0, "pageCount": null, "pageSize": 10, "ids": null, "endTime": null, "startTime": null}], "pageLimit": 10860, "size": 10}