{"pageCount": 1095, "count": 10942, "pageNo": 1083, "subShopInfo": {"cardNumFive": "", "isSupportYj": "", "cityName": null, "districtName": null, "shopinfo": {"mid": null, "good_flag": null, "new_flag": null, "short_name": null, "short_name_pinyin": null, "status": null, "address": "", "name": "", "id": null}, "mid": null, "shopId": null, "netid": null, "province": 901, "district": null, "zipcode": null, "telephone": null, "posDate": null, "destineTel": null, "togoTel": null, "trafficWay": null, "signBuilding": null, "businessArea": null, "selfRoom": null, "businessTime": null, "stall": null, "consume": null, "serviceFei": null, "favourable": null, "shopMemo": "1", "appraise": null, "website": null, "memo": null, "payTypes": "", "shopTypes": "", "consumeTypes": null, "cookTypes": null, "orderNum": null, "card4no": null, "card4noAcc": null, "district2": null, "searchScope": null, "status": null, "address": "", "name": null, "id": null, "pageNo": 1082, "pageCount": null, "pageSize": 10, "ids": null, "endTime": null, "startTime": null}, "list": [{"cardNumFive": null, "isSupportYj": null, "cityName": null, "districtName": null, "shopinfo": {"mid": "888002159771044", "good_flag": "2", "new_flag": "1", "short_name": "\u7ae0\u5149101", "short_name_pinyin": "zhangguang101", "status": null, "address": null, "name": null, "id": "34086"}, "mid": "888002159771044", "shopId": "34086", "netid": null, "province": 901, "district": 601, "zipcode": null, "telephone": null, "posDate": null, "destineTel": null, "togoTel": null, "trafficWay": null, "signBuilding": null, "businessArea": null, "selfRoom": null, "businessTime": null, "stall": null, "consume": null, "serviceFei": null, "favourable": null, "shopMemo": null, "appraise": null, "website": null, "memo": null, "payTypes": "\u6749\u5fb7\u5361", "shopTypes": "\u96f6\u552e", "consumeTypes": null, "cookTypes": null, "orderNum": 1000, "card4no": null, "card4noAcc": null, "district2": 418, "searchScope": null, "status": 1, "address": "\u82b3\u534e\u8def327\u53f7", "name": "\u7ae0\u5149101 \u82b3\u534e\u8def\u5e97", "id": 144837, "pageNo": 0, "pageCount": null, "pageSize": 10, "ids": null, "endTime": null, "startTime": null}, {"cardNumFive": null, "isSupportYj": null, "cityName": null, "districtName": null, "shopinfo": {"mid": "888002159771044", "good_flag": "2", "new_flag": "1", "short_name": "\u7ae0\u5149101", "short_name_pinyin": "zhangguang101", "status": null, "address": null, "name": null, "id": "34086"}, "mid": "888002159771044", "shopId": "34086", "netid": null, "province": 901, "district": 601, "zipcode": null, "telephone": null, "posDate": null, "destineTel": null, "togoTel": null, "trafficWay": null, "signBuilding": null, "businessArea": null, "selfRoom": null, "businessTime": null, "stall": null, "consume": null, "serviceFei": null, "favourable": null, "shopMemo": null, "appraise": null, "website": null, "memo": null, "payTypes": "\u6749\u5fb7\u5361", "shopTypes": "\u96f6\u552e", "consumeTypes": null, "cookTypes": null, "orderNum": 1000, "card4no": null, "card4noAcc": null, "district2": 418, "searchScope": null, "status": 1, "address": "\u9ad8\u79d1\u897f\u8def2923\u53f7", "name": "\u7ae0\u5149101 \u9ad8\u79d1\u897f\u8def\u5e97", "id": 144838, "pageNo": 0, "pageCount": null, "pageSize": 10, "ids": null, "endTime": null, "startTime": null}, {"cardNumFive": null, "isSupportYj": null, "cityName": null, "districtName": null, "shopinfo": {"mid": "888002159771044", "good_flag": "2", "new_flag": "1", "short_name": "\u7ae0\u5149101", "short_name_pinyin": "zhangguang101", "status": null, "address": null, "name": null, "id": "34086"}, "mid": "888002159771044", "shopId": "34086", "netid": null, "province": 901, "district": 601, "zipcode": null, "telephone": null, "posDate": null, "destineTel": null, "togoTel": null, "trafficWay": null, "signBuilding": null, "businessArea": null, "selfRoom": null, "businessTime": null, "stall": null, "consume": null, "serviceFei": null, "favourable": null, "shopMemo": null, "appraise": null, "website": null, "memo": null, "payTypes": "\u6749\u5fb7\u5361", "shopTypes": "\u96f6\u552e", "consumeTypes": null, "cookTypes": null, "orderNum": 1000, "card4no": null, "card4noAcc": null, "district2": 418, "searchScope": null, "status": 1, "address": "\u6caa\u5357\u516c\u8def1101\u53f7", "name": "\u7ae0\u5149101 \u6caa\u5357\u516c\u8def\u5e97", "id": 144839, "pageNo": 0, "pageCount": null, "pageSize": 10, "ids": null, "endTime": null, "startTime": null}, {"cardNumFive": null, "isSupportYj": null, "cityName": null, "districtName": null, "shopinfo": {"mid": "888888859770040", "good_flag": "2", "new_flag": "2", "short_name": "\u7ae0\u5149101", "short_name_pinyin": "zhangguang101", "status": null, "address": null, "name": null, "id": "34085"}, "mid": "888888859770040", "shopId": "34085", "netid": null, "province": 901, "district": 601, "zipcode": null, "telephone": "67635104", "posDate": "20081108", "destineTel": null, "togoTel": null, "trafficWay": "\u516c\u4ea492B 759", "signBuilding": null, "businessArea": null, "selfRoom": null, "businessTime": null, "stall": null, "consume": null, "serviceFei": null, "favourable": null, "shopMemo": null, "appraise": null, "website": null, "memo": null, "payTypes": "\u6749\u5fb7\u5361", "shopTypes": "\u96f6\u552e", "consumeTypes": null, "cookTypes": null, "orderNum": 1000, "card4no": null, "card4noAcc": null, "district2": 412, "searchScope": null, "status": 1, "address": "\u4e5d\u4ead\u5927\u8857290\u53f7", "name": "\u7ae0\u5149101 \u4e5d\u4ead\u5927\u8857\u5e97", "id": 144840, "pageNo": 0, "pageCount": null, "pageSize": 10, "ids": null, "endTime": null, "startTime": null}, {"cardNumFive": null, "isSupportYj": null, "cityName": null, "districtName": null, "shopinfo": {"mid": "888002159771044", "good_flag": "2", "new_flag": "1", "short_name": "\u7ae0\u5149101", "short_name_pinyin": "zhangguang101", "status": null, "address": null, "name": null, "id": "34086"}, "mid": "888002159771044", "shopId": "34086", "netid": null, "province": 901, "district": 601, "zipcode": null, "telephone": null, "posDate": null, "destineTel": null, "togoTel": null, "trafficWay": null, "signBuilding": null, "businessArea": null, "selfRoom": null, "businessTime": null, "stall": null, "consume": null, "serviceFei": null, "favourable": null, "shopMemo": null, "appraise": null, "website": null, "memo": null, "payTypes": "\u6749\u5fb7\u5361", "shopTypes": "\u96f6\u552e", "consumeTypes": null, "cookTypes": null, "orderNum": 1000, "card4no": null, "card4noAcc": null, "district2": 418, "searchScope": null, "status": 1, "address": "\u6885\u82b1\u8def2\u53f7", "name": "\u7ae0\u5149101 \u6885\u82b1\u8def\u5e97", "id": 144842, "pageNo": 0, "pageCount": null, "pageSize": 10, "ids": null, "endTime": null, "startTime": null}, {"cardNumFive": null, "isSupportYj": null, "cityName": null, "districtName": null, "shopinfo": {"mid": "888002159771044", "good_flag": "2", "new_flag": "1", "short_name": "\u7ae0\u5149101", "short_name_pinyin": "zhangguang101", "status": null, "address": null, "name": null, "id": "34086"}, "mid": "888002159771044", "shopId": "34086", "netid": null, "province": 901, "district": 601, "zipcode": null, "telephone": null, "posDate": null, "destineTel": null, "togoTel": null, "trafficWay": null, "signBuilding": null, "businessArea": null, "selfRoom": null, "businessTime": null, "stall": null, "consume": null, "serviceFei": null, "favourable": null, "shopMemo": null, "appraise": null, "website": null, "memo": null, "payTypes": "\u6749\u5fb7\u5361", "shopTypes": "\u96f6\u552e", "consumeTypes": null, "cookTypes": null, "orderNum": 1000, "card4no": null, "card4noAcc": null, "district2": 418, "searchScope": null, "status": 1, "address": "\u5fa1\u9752\u8def283\u53f7", "name": "\u7ae0\u5149101 \u5fa1\u9752\u8def\u5e97", "id": 144844, "pageNo": 0, "pageCount": null, "pageSize": 10, "ids": null, "endTime": null, "startTime": null}, {"cardNumFive": null, "isSupportYj": null, "cityName": null, "districtName": null, "shopinfo": {"mid": "888888859770028", "good_flag": "2", "new_flag": "2", "short_name": "\u7ae0\u5149101", "short_name_pinyin": "zhangguang101", "status": null, "address": null, "name": null, "id": "34087"}, "mid": "888888859770028", "shopId": "34087", "netid": null, "province": 901, "district": 601, "zipcode": null, "telephone": "57717099", "posDate": "20080202", "destineTel": null, "togoTel": null, "trafficWay": "\u516c\u4ea4 \u677e\u9f99\u7ebf \u6caa\u677e\u7ebf \u65c5\u6e381\u53f7\u7ebf", "signBuilding": "\u5cb3\u9633\u516c\u56ed", "businessArea": "200\u5e73\u65b9\u7c73", "selfRoom": null, "businessTime": "7:00~20:00", "stall": "\u65e0", "consume": "2000\u5143", "serviceFei": null, "favourable": null, "shopMemo": null, "appraise": null, "website": null, "memo": null, "payTypes": "\u6749\u5fb7\u5361", "shopTypes": "\u96f6\u552e", "consumeTypes": null, "cookTypes": null, "orderNum": 1000, "card4no": null, "card4noAcc": null, "district2": 412, "searchScope": null, "status": 1, "address": "\u4e2d\u5c71\u4e8c\u8def533\u53f7", "name": "\u7ae0\u5149101 \u4e2d\u5c71\u4e8c\u8def\u670d\u52a1\u4e2d\u5fc3", "id": 144845, "pageNo": 0, "pageCount": null, "pageSize": 10, "ids": null, "endTime": null, "startTime": null}, {"cardNumFive": null, "isSupportYj": null, "cityName": null, "districtName": null, "shopinfo": {"mid": "888888858120049", "good_flag": "1", "new_flag": "2", "short_name": "\u5f20\u751f\u8bb0", "short_name_pinyin": "zhangshengji", "status": null, "address": null, "name": null, "id": "34082"}, "mid": "888888858120049", "shopId": "34082", "netid": null, "province": 901, "district": 601, "zipcode": "200031", "telephone": "64455777", "posDate": "20070125", "destineTel": "64455777", "togoTel": "64455777", "trafficWay": "\u516c\u4ea4218,43", "signBuilding": null, "businessArea": "3500\u5e73\u65b9\u7c73", "selfRoom": "\u6709", "businessTime": "09:00~21:00", "stall": "\u6709", "consume": "91\u5143", "serviceFei": null, "favourable": null, "shopMemo": "\u677e\u9f20\u6842\u9c7c \u8001\u9e2d\u6c64 \u9f99\u4e95\u867e\u4ec1 \u814a\u9e2d\u820c \u897f\u6e56\u918b\u9c7c", "appraise": null, "website": null, "memo": null, "payTypes": "\u6749\u5fb7\u5361", "shopTypes": "\u9910\u996e", "consumeTypes": "\u5bb6\u4eba\u56e2\u805a \u597d\u53cb\u5c0f\u805a \u4f11\u95f2\u5c31\u9910 \u5546\u52a1\u5bb4\u8bf7 \u6d6a\u6f2b\u7ea6\u4f1a", "cookTypes": "\u676d\u5e2e\u83dc", "orderNum": 1000, "card4no": null, "card4noAcc": null, "district2": 403, "searchScope": null, "status": 1, "address": "\u8087\u5609\u6d5c\u8def446\u53f73F", "name": "\u5f20\u751f\u8bb0 \u5f90\u6c47\u5e97", "id": 144822, "pageNo": 0, "pageCount": null, "pageSize": 10, "ids": null, "endTime": null, "startTime": null}, {"cardNumFive": null, "isSupportYj": null, "cityName": null, "districtName": null, "shopinfo": {"mid": "888888853990162", "good_flag": "2", "new_flag": "2", "short_name": "\u5f20\u5c0f\u6cc9", "short_name_pinyin": "zhangxiaoquan", "status": null, "address": null, "name": null, "id": "34084"}, "mid": "888888853990162", "shopId": "34084", "netid": null, "province": 901, "district": 601, "zipcode": null, "telephone": null, "posDate": "20081031", "destineTel": null, "togoTel": null, "trafficWay": "\u516c\u4ea4112 58 78", "signBuilding": null, "businessArea": null, "selfRoom": null, "businessTime": "9:30~22:30", "stall": null, "consume": null, "serviceFei": null, "favourable": null, "shopMemo": null, "appraise": null, "website": null, "memo": null, "payTypes": "\u6749\u5fb7\u5361", "shopTypes": "\u4e13\u5356", "consumeTypes": null, "cookTypes": null, "orderNum": 1000, "card4no": null, "card4noAcc": null, "district2": 405, "searchScope": null, "status": 1, "address": "\u534e\u7075\u8def1051\u53f7\u4e8c\u697c", "name": "\u5f20\u5c0f\u6cc9 \u5927\u6da6\u53d1\u4e5d\u767e\u5e97", "id": 144824, "pageNo": 0, "pageCount": null, "pageSize": 10, "ids": null, "endTime": null, "startTime": null}, {"cardNumFive": null, "isSupportYj": null, "cityName": null, "districtName": null, "shopinfo": {"mid": "888888853990162", "good_flag": "2", "new_flag": "2", "short_name": "\u5f20\u5c0f\u6cc9", "short_name_pinyin": "zhangxiaoquan", "status": null, "address": null, "name": null, "id": "34084"}, "mid": "888888853990162", "shopId": "34084", "netid": null, "province": 901, "district": 601, "zipcode": null, "telephone": null, "posDate": "20081031", "destineTel": null, "togoTel": null, "trafficWay": "\u516c\u4ea4\u6caa\u6d77\u7ebf\u533a\u95f4 \u5357\u6885\u7ebf", "signBuilding": null, "businessArea": null, "selfRoom": null, "businessTime": "9:30~22:30", "stall": null, "consume": null, "serviceFei": null, "favourable": null, "shopMemo": null, "appraise": null, "website": null, "memo": null, "payTypes": "\u6749\u5fb7\u5361", "shopTypes": "\u4e13\u5356", "consumeTypes": null, "cookTypes": null, "orderNum": 1000, "card4no": null, "card4noAcc": null, "district2": 413, "searchScope": null, "status": 1, "address": "\u5357\u5949\u516c\u8def8891\u53f7\u4e00\u697c", "name": "\u5f20\u5c0f\u6cc9 \u6613\u521d\u83b2\u82b1\u5357\u5949\u5e97", "id": 144830, "pageNo": 0, "pageCount": null, "pageSize": 10, "ids": null, "endTime": null, "startTime": null}], "pageLimit": 10820, "size": 10}