{"pageCount": 1095, "count": 10942, "pageNo": 1082, "subShopInfo": {"cardNumFive": "", "isSupportYj": "", "cityName": null, "districtName": null, "shopinfo": {"mid": null, "good_flag": null, "new_flag": null, "short_name": null, "short_name_pinyin": null, "status": null, "address": "", "name": "", "id": null}, "mid": null, "shopId": null, "netid": null, "province": 901, "district": null, "zipcode": null, "telephone": null, "posDate": null, "destineTel": null, "togoTel": null, "trafficWay": null, "signBuilding": null, "businessArea": null, "selfRoom": null, "businessTime": null, "stall": null, "consume": null, "serviceFei": null, "favourable": null, "shopMemo": "1", "appraise": null, "website": null, "memo": null, "payTypes": "", "shopTypes": "", "consumeTypes": null, "cookTypes": null, "orderNum": null, "card4no": null, "card4noAcc": null, "district2": null, "searchScope": null, "status": null, "address": "", "name": null, "id": null, "pageNo": 1081, "pageCount": null, "pageSize": 10, "ids": null, "endTime": null, "startTime": null}, "list": [{"cardNumFive": null, "isSupportYj": null, "cityName": null, "districtName": null, "shopinfo": {"mid": "888888859410020", "good_flag": "2", "new_flag": "2", "short_name": "\u5bb0\u8303\u9ad8\u5c14\u592b\u7403\u5177\u5de5\u623f", "short_name_pinyin": "zaifangaoerfuqiujugongfang", "status": null, "address": null, "name": null, "id": "34074"}, "mid": "888888859410020", "shopId": "34074", "netid": null, "province": 901, "district": 601, "zipcode": null, "telephone": "60909208", "posDate": "20090209", "destineTel": null, "togoTel": null, "trafficWay": "\u516c\u4ea4804", "signBuilding": null, "businessArea": null, "selfRoom": null, "businessTime": "10:00~18:00", "stall": null, "consume": null, "serviceFei": null, "favourable": null, "shopMemo": null, "appraise": null, "website": null, "memo": null, "payTypes": "\u6749\u5fb7\u5361", "shopTypes": "\u4e13\u5356", "consumeTypes": null, "cookTypes": null, "orderNum": 1000, "card4no": null, "card4noAcc": null, "district2": 409, "searchScope": null, "status": 1, "address": "\u8679\u4e2d\u8def335\u5f04448\u53f7402\u5ba4", "name": "\u5bb0\u8303\u9ad8\u5c14\u592b\u7403\u5177\u5de5\u623f \u8679\u4e2d\u8def\u5e97", "id": 144783, "pageNo": 0, "pageCount": null, "pageSize": 10, "ids": null, "endTime": null, "startTime": null}, {"cardNumFive": null, "isSupportYj": null, "cityName": null, "districtName": null, "shopinfo": {"mid": "888888858120496", "good_flag": "2", "new_flag": "2", "short_name": "\u65e9\u5b89\u5df4\u9ece", "short_name_pinyin": "zaoanbali", "status": null, "address": null, "name": null, "id": "34075"}, "mid": "888888858120496", "shopId": "34075", "netid": null, "province": 901, "district": 601, "zipcode": null, "telephone": "64711002*188\u3001122\u3001178", "posDate": "20081111", "destineTel": null, "togoTel": null, "trafficWay": "\u516c\u4ea4921 37 \u5730\u94c1\u4e8c\u53f7\u7ebf", "signBuilding": null, "businessArea": null, "selfRoom": null, "businessTime": "8:00~22:00", "stall": null, "consume": null, "serviceFei": null, "favourable": null, "shopMemo": null, "appraise": null, "website": null, "memo": null, "payTypes": "\u6749\u5fb7\u5361", "shopTypes": "\u9910\u996e", "consumeTypes": null, "cookTypes": null, "orderNum": 1000, "card4no": null, "card4noAcc": null, "district2": 404, "searchScope": null, "status": 1, "address": "\u5434\u6c5f\u8def169\u53f7\u56db\u5b63\u574a114\u53f7\u5355\u5143", "name": "\u65e9\u5b89\u5df4\u9ece \u5434\u6c5f\u5e97", "id": 144784, "pageNo": 0, "pageCount": null, "pageSize": 10, "ids": null, "endTime": null, "startTime": null}, {"cardNumFive": null, "isSupportYj": null, "cityName": null, "districtName": null, "shopinfo": {"mid": "888888854410117", "good_flag": "2", "new_flag": "1", "short_name": "\u65e9\u82d7\u70d8\u7119", "short_name_pinyin": "zaomiaohongbei", "status": null, "address": null, "name": null, "id": "34076"}, "mid": "888888854410117", "shopId": "34076", "netid": null, "province": 901, "district": 601, "zipcode": null, "telephone": null, "posDate": "20100223", "destineTel": null, "togoTel": null, "trafficWay": null, "signBuilding": null, "businessArea": null, "selfRoom": null, "businessTime": null, "stall": null, "consume": null, "serviceFei": null, "favourable": null, "shopMemo": null, "appraise": null, "website": null, "memo": null, "payTypes": "\u6749\u5fb7\u5361", "shopTypes": "\u9762\u5305\u897f\u997c", "consumeTypes": null, "cookTypes": null, "orderNum": 1000, "card4no": null, "card4noAcc": null, "district2": 418, "searchScope": null, "status": 1, "address": "\u5468\u6d66\u9547\u4e07\u8fbe\u5e7f\u573a109\u94fa\u4f4d", "name": "\u65e9\u82d7\u70d8\u7119 \u4e07\u8fbe\u5e97", "id": 144795, "pageNo": 0, "pageCount": null, "pageSize": 10, "ids": null, "endTime": null, "startTime": null}, {"cardNumFive": null, "isSupportYj": null, "cityName": null, "districtName": null, "shopinfo": {"mid": "888888856910164", "good_flag": "2", "new_flag": "2", "short_name": "\u67a3\u67a3\u767e\u8d27", "short_name_pinyin": "zaozaobaihuo", "status": null, "address": null, "name": null, "id": "34077"}, "mid": "888888856910164", "shopId": "34077", "netid": null, "province": 901, "district": 601, "zipcode": null, "telephone": null, "posDate": "20080523", "destineTel": null, "togoTel": null, "trafficWay": "\u516c\u4ea492B 748", "signBuilding": null, "businessArea": null, "selfRoom": null, "businessTime": null, "stall": null, "consume": null, "serviceFei": null, "favourable": null, "shopMemo": null, "appraise": null, "website": null, "memo": null, "payTypes": "\u6749\u5fb7\u5361", "shopTypes": "\u767e\u8d27", "consumeTypes": null, "cookTypes": null, "orderNum": 1000, "card4no": null, "card4noAcc": null, "district2": 412, "searchScope": null, "status": 1, "address": "\u4e5d\u4ead\u5927\u8857308\u53f7", "name": "\u67a3\u67a3\u767e\u8d27 \u4e5d\u4ead\u5e97", "id": 144800, "pageNo": 0, "pageCount": null, "pageSize": 10, "ids": null, "endTime": null, "startTime": null}, {"cardNumFive": null, "isSupportYj": null, "cityName": null, "districtName": null, "shopinfo": {"mid": "888888856910164", "good_flag": "2", "new_flag": "2", "short_name": "\u67a3\u67a3\u767e\u8d27", "short_name_pinyin": "zaozaobaihuo", "status": null, "address": null, "name": null, "id": "34077"}, "mid": "888888856910164", "shopId": "34077", "netid": null, "province": 901, "district": 601, "zipcode": null, "telephone": "58810848", "posDate": "20080521", "destineTel": null, "togoTel": null, "trafficWay": "\u516c\u4ea401 454 \u5730\u94c1\u56db\u53f7\u7ebf", "signBuilding": null, "businessArea": null, "selfRoom": null, "businessTime": null, "stall": null, "consume": null, "serviceFei": null, "favourable": null, "shopMemo": null, "appraise": null, "website": null, "memo": null, "payTypes": "\u6749\u5fb7\u5361", "shopTypes": "\u767e\u8d27", "consumeTypes": null, "cookTypes": null, "orderNum": 1000, "card4no": null, "card4noAcc": null, "district2": 418, "searchScope": null, "status": 1, "address": "\u6d66\u4e1c\u5357\u8def2012\u53f7", "name": "\u67a3\u67a3\u767e\u8d27 \u6d66\u4e1c\u5357\u8def\u5e97", "id": 144803, "pageNo": 0, "pageCount": null, "pageSize": 10, "ids": null, "endTime": null, "startTime": null}, {"cardNumFive": null, "isSupportYj": null, "cityName": null, "districtName": null, "shopinfo": {"mid": "888888856910164", "good_flag": "2", "new_flag": "2", "short_name": "\u67a3\u67a3\u767e\u8d27", "short_name_pinyin": "zaozaobaihuo", "status": null, "address": null, "name": null, "id": "34077"}, "mid": "888888856910164", "shopId": "34077", "netid": null, "province": 901, "district": 601, "zipcode": null, "telephone": null, "posDate": "20080523", "destineTel": null, "togoTel": null, "trafficWay": "\u516c\u4ea4846 \u5730\u94c1\u4e8c\u53f7\u7ebf", "signBuilding": null, "businessArea": null, "selfRoom": null, "businessTime": null, "stall": null, "consume": null, "serviceFei": null, "favourable": null, "shopMemo": null, "appraise": null, "website": null, "memo": null, "payTypes": "\u6749\u5fb7\u5361", "shopTypes": "\u767e\u8d27", "consumeTypes": null, "cookTypes": null, "orderNum": 1000, "card4no": null, "card4noAcc": null, "district2": 406, "searchScope": null, "status": 1, "address": "\u5929\u5c71\u897f\u8def404\u53f7", "name": "\u67a3\u67a3\u767e\u8d27 \u5929\u5c71\u5e97", "id": 144807, "pageNo": 0, "pageCount": null, "pageSize": 10, "ids": null, "endTime": null, "startTime": null}, {"cardNumFive": null, "isSupportYj": null, "cityName": null, "districtName": null, "shopinfo": {"mid": "888888856910164", "good_flag": "2", "new_flag": "2", "short_name": "\u67a3\u67a3\u767e\u8d27", "short_name_pinyin": "zaozaobaihuo", "status": null, "address": null, "name": null, "id": "34077"}, "mid": "888888856910164", "shopId": "34077", "netid": null, "province": 901, "district": 601, "zipcode": null, "telephone": "52663047", "posDate": "20080522", "destineTel": null, "togoTel": null, "trafficWay": "\u516c\u4ea444 837", "signBuilding": null, "businessArea": null, "selfRoom": null, "businessTime": null, "stall": null, "consume": null, "serviceFei": null, "favourable": null, "shopMemo": null, "appraise": null, "website": null, "memo": null, "payTypes": "\u6749\u5fb7\u5361", "shopTypes": "\u767e\u8d27", "consumeTypes": null, "cookTypes": null, "orderNum": 1000, "card4no": null, "card4noAcc": null, "district2": 405, "searchScope": null, "status": 1, "address": "\u67a3\u9633\u8def179", "name": "\u67a3\u67a3\u767e\u8d27 \u67a3\u9633\u5e97", "id": 144816, "pageNo": 0, "pageCount": null, "pageSize": 10, "ids": null, "endTime": null, "startTime": null}, {"cardNumFive": null, "isSupportYj": null, "cityName": null, "districtName": null, "shopinfo": {"mid": "888888856910164", "good_flag": "2", "new_flag": "2", "short_name": "\u67a3\u67a3\u767e\u8d27", "short_name_pinyin": "zaozaobaihuo", "status": null, "address": null, "name": null, "id": "34077"}, "mid": "888888856910164", "shopId": "34077", "netid": null, "province": 901, "district": 601, "zipcode": null, "telephone": null, "posDate": "20080522", "destineTel": null, "togoTel": null, "trafficWay": "\u516c\u4ea4\u83b2\u6731\u4e13\u7ebf \u6731\u6cfe\u4e8c\u8def", "signBuilding": null, "businessArea": null, "selfRoom": null, "businessTime": null, "stall": null, "consume": null, "serviceFei": null, "favourable": null, "shopMemo": null, "appraise": null, "website": null, "memo": null, "payTypes": "\u6749\u5fb7\u5361", "shopTypes": "\u767e\u8d27", "consumeTypes": null, "cookTypes": null, "orderNum": 1000, "card4no": null, "card4noAcc": null, "district2": 414, "searchScope": null, "status": 1, "address": "\u7f57\u661f\u8def152\u53f7", "name": "\u67a3\u67a3\u767e\u8d27 \u6731\u6cfe\u5e97", "id": 144817, "pageNo": 0, "pageCount": null, "pageSize": 10, "ids": null, "endTime": null, "startTime": null}, {"cardNumFive": null, "isSupportYj": null, "cityName": null, "districtName": null, "shopinfo": {"mid": "888888880210005", "good_flag": "2", "new_flag": "2", "short_name": "\u5f20\u6df3\u840c\u79c1\u7acb\u53e3\u8154\u8bca\u6240", "short_name_pinyin": "zhangchunmengsilikouqiangzhensuo", "status": null, "address": null, "name": null, "id": "34079"}, "mid": "888888880210005", "shopId": "34079", "netid": null, "province": 901, "district": 601, "zipcode": "200092", "telephone": "65753373", "posDate": "20061204", "destineTel": "65753373", "togoTel": "65753373", "trafficWay": "\u516c\u4ea4123\u533a\u95f4", "signBuilding": null, "businessArea": null, "selfRoom": "\u65e0", "businessTime": null, "stall": "\u65e0", "consume": null, "serviceFei": null, "favourable": null, "shopMemo": null, "appraise": null, "website": null, "memo": null, "payTypes": "\u6749\u5fb7\u5361", "shopTypes": "\u5176\u4ed6", "consumeTypes": null, "cookTypes": null, "orderNum": 1000, "card4no": null, "card4noAcc": null, "district2": 408, "searchScope": null, "status": 1, "address": "\u56db\u5e73\u8def555\u53f7301\u5ba4", "name": "\u5f20\u6df3\u840c\u79c1\u7acb\u53e3\u8154\u8bca\u6240 \u56db\u5e73\u8def\u8bca\u6240", "id": 144819, "pageNo": 0, "pageCount": null, "pageSize": 10, "ids": null, "endTime": null, "startTime": null}, {"cardNumFive": null, "isSupportYj": null, "cityName": null, "districtName": null, "shopinfo": {"mid": "888888859770040", "good_flag": "2", "new_flag": "2", "short_name": "\u7ae0\u5149101", "short_name_pinyin": "zhangguang101", "status": null, "address": null, "name": null, "id": "34085"}, "mid": "888888859770040", "shopId": "34085", "netid": null, "province": 901, "district": 601, "zipcode": null, "telephone": "66824101", "posDate": "20081110", "destineTel": null, "togoTel": null, "trafficWay": "\u516c\u4ea446 812 912", "signBuilding": null, "businessArea": "80", "selfRoom": null, "businessTime": "8:00~20:00", "stall": "\u65e0", "consume": null, "serviceFei": null, "favourable": null, "shopMemo": null, "appraise": null, "website": null, "memo": null, "payTypes": "\u6749\u5fb7\u5361", "shopTypes": "\u96f6\u552e", "consumeTypes": null, "cookTypes": null, "orderNum": 1000, "card4no": null, "card4noAcc": null, "district2": 410, "searchScope": null, "status": 1, "address": "\u4fdd\u5fb7\u8def345\u53f7", "name": "\u7ae0\u5149101 \u4fdd\u5fb7\u5e97", "id": 144836, "pageNo": 0, "pageCount": null, "pageSize": 10, "ids": null, "endTime": null, "startTime": null}], "pageLimit": 10810, "size": 10}