{"pageCount": 1095, "count": 10942, "pageNo": 1095, "subShopInfo": {"cardNumFive": "", "isSupportYj": "", "cityName": null, "districtName": null, "shopinfo": {"mid": null, "good_flag": null, "new_flag": null, "short_name": null, "short_name_pinyin": null, "status": null, "address": "", "name": "", "id": null}, "mid": null, "shopId": null, "netid": null, "province": 901, "district": null, "zipcode": null, "telephone": null, "posDate": null, "destineTel": null, "togoTel": null, "trafficWay": null, "signBuilding": null, "businessArea": null, "selfRoom": null, "businessTime": null, "stall": null, "consume": null, "serviceFei": null, "favourable": null, "shopMemo": "1", "appraise": null, "website": null, "memo": null, "payTypes": "", "shopTypes": "", "consumeTypes": null, "cookTypes": null, "orderNum": null, "card4no": null, "card4noAcc": null, "district2": null, "searchScope": null, "status": null, "address": "", "name": null, "id": null, "pageNo": 1094, "pageCount": null, "pageSize": 10, "ids": null, "endTime": null, "startTime": null}, "list": [{"cardNumFive": null, "isSupportYj": null, "cityName": null, "districtName": null, "shopinfo": {"mid": "888888872300169", "good_flag": "1", "new_flag": "2", "short_name": "\u4f50\u767b\u59ae\u4e1d", "short_name_pinyin": "zuodengnisi", "status": null, "address": null, "name": null, "id": "35636"}, "mid": "888888872300169", "shopId": "35636", "netid": null, "province": 901, "district": 601, "zipcode": null, "telephone": "64723627", "posDate": "20081113", "destineTel": null, "togoTel": null, "trafficWay": "\u516c\u4ea4253 \u96a7\u9053\u516b\u7ebf \u5730\u94c1\u56db\u53f7\u7ebf", "signBuilding": "\u4e16\u7eaa\u8054\u534e", "businessArea": "700\u5e73\u65b9\u7c73", "selfRoom": null, "businessTime": "10:00~22:00", "stall": "\u6709", "consume": null, "serviceFei": null, "favourable": null, "shopMemo": null, "appraise": null, "website": null, "memo": null, "payTypes": "\u6749\u5fb7\u5361", "shopTypes": "\u7f8e\u5bb9\u7f8e\u53d1", "consumeTypes": null, "cookTypes": null, "orderNum": 1000, "card4no": null, "card4noAcc": null, "district2": 401, "searchScope": null, "status": 1, "address": "\u659c\u571f\u8def612\u53f7", "name": "\u4f50\u767b\u59ae\u4e1d \u659c\u571f\u5e97", "id": 149142, "pageNo": 0, "pageCount": null, "pageSize": 10, "ids": null, "endTime": null, "startTime": null}, {"cardNumFive": null, "isSupportYj": null, "cityName": null, "districtName": null, "shopinfo": {"mid": "888888872300173", "good_flag": "1", "new_flag": "2", "short_name": "\u4f50\u767b\u59ae\u4e1d", "short_name_pinyin": "zuodengnisi", "status": null, "address": null, "name": null, "id": "35649"}, "mid": "888888872300173", "shopId": "35649", "netid": null, "province": 901, "district": 601, "zipcode": null, "telephone": "65177207\u300164735265", "posDate": "20081126", "destineTel": null, "togoTel": null, "trafficWay": "\u516c\u4ea4\u8f7b\u8f68\u4e09\u53f7\u7ebf", "signBuilding": null, "businessArea": "700", "selfRoom": null, "businessTime": "10:00~22:00", "stall": "\u6709", "consume": null, "serviceFei": null, "favourable": null, "shopMemo": null, "appraise": null, "website": null, "memo": null, "payTypes": "\u6749\u5fb7\u5361", "shopTypes": "\u7f8e\u5bb9\u7f8e\u53d1", "consumeTypes": null, "cookTypes": null, "orderNum": 1000, "card4no": null, "card4noAcc": null, "district2": 407, "searchScope": null, "status": 1, "address": "\u5b66\u5e9c\u8def\u6b65\u884c\u8857\u897f\u53e375\u53f7", "name": "\u4f50\u767b\u59ae\u4e1d \u9038\u4ed9\u5e97", "id": 149147, "pageNo": 0, "pageCount": null, "pageSize": 10, "ids": null, "endTime": null, "startTime": null}], "pageLimit": 10940, "size": 10}