{"pageCount": 1095, "count": 10942, "pageNo": 1090, "subShopInfo": {"cardNumFive": "", "isSupportYj": "", "cityName": null, "districtName": null, "shopinfo": {"mid": null, "good_flag": null, "new_flag": null, "short_name": null, "short_name_pinyin": null, "status": null, "address": "", "name": "", "id": null}, "mid": null, "shopId": null, "netid": null, "province": 901, "district": null, "zipcode": null, "telephone": null, "posDate": null, "destineTel": null, "togoTel": null, "trafficWay": null, "signBuilding": null, "businessArea": null, "selfRoom": null, "businessTime": null, "stall": null, "consume": null, "serviceFei": null, "favourable": null, "shopMemo": "1", "appraise": null, "website": null, "memo": null, "payTypes": "", "shopTypes": "", "consumeTypes": null, "cookTypes": null, "orderNum": null, "card4no": null, "card4noAcc": null, "district2": null, "searchScope": null, "status": null, "address": "", "name": null, "id": null, "pageNo": 1089, "pageCount": null, "pageSize": 10, "ids": null, "endTime": null, "startTime": null}, "list": [{"cardNumFive": null, "isSupportYj": null, "cityName": null, "districtName": null, "shopinfo": {"mid": "888888848120045", "good_flag": "2", "new_flag": "2", "short_name": "\u4e2d\u56fd\u79fb\u52a8", "short_name_pinyin": "zhongguoyidong", "status": null, "address": null, "name": null, "id": "35575"}, "mid": "888888848120045", "shopId": "35575", "netid": null, "province": 901, "district": 601, "zipcode": null, "telephone": "69615226", "posDate": "20090205", "destineTel": null, "togoTel": null, "trafficWay": "\u516c\u4ea4\u5357\u98ce\u7ebf \u5357\u6d77\u7ebf", "signBuilding": null, "businessArea": null, "selfRoom": null, "businessTime": "9:00~02:00", "stall": null, "consume": null, "serviceFei": null, "favourable": null, "shopMemo": null, "appraise": null, "website": null, "memo": null, "payTypes": "\u6749\u5fb7\u5361", "shopTypes": "\u4e13\u5356", "consumeTypes": null, "cookTypes": null, "orderNum": 1000, "card4no": null, "card4noAcc": null, "district2": 415, "searchScope": null, "status": 1, "address": "\u516b\u4e00\u8def395-397\u53f7", "name": "\u4e2d\u56fd\u79fb\u52a8 \u597d\u4e00\u5bb6\u7ecf\u9500\u90e8", "id": 148922, "pageNo": 0, "pageCount": null, "pageSize": 10, "ids": null, "endTime": null, "startTime": null}, {"cardNumFive": null, "isSupportYj": null, "cityName": null, "districtName": null, "shopinfo": {"mid": "888888855420011", "good_flag": null, "new_flag": null, "short_name": "\u4e2d\u77f3\u5316", "short_name_pinyin": "zhongshihua", "status": null, "address": null, "name": null, "id": "36552"}, "mid": "888888855420011", "shopId": "36552", "netid": null, "province": 901, "district": 601, "zipcode": null, "telephone": "62105252-1075", "posDate": null, "destineTel": null, "togoTel": null, "trafficWay": null, "signBuilding": null, "businessArea": null, "selfRoom": null, "businessTime": null, "stall": null, "consume": null, "serviceFei": null, "favourable": null, "shopMemo": null, "appraise": null, "website": null, "memo": null, "payTypes": "\u6749\u5fb7\u5361", "shopTypes": "\u5176\u4ed6", "consumeTypes": null, "cookTypes": null, "orderNum": 1000, "card4no": null, "card4noAcc": null, "district2": 406, "searchScope": null, "status": 1, "address": "\u6b66\u5937\u8def562\u53f7", "name": "\u4e2d\u77f3\u5316 \u5e02\u533a\u5206\u4e2d\u5fc3", "id": 152001, "pageNo": 0, "pageCount": null, "pageSize": 10, "ids": null, "endTime": null, "startTime": null}, {"cardNumFive": null, "isSupportYj": null, "cityName": null, "districtName": null, "shopinfo": {"mid": "888888855420011", "good_flag": null, "new_flag": null, "short_name": "\u4e2d\u77f3\u5316", "short_name_pinyin": "zhongshihua", "status": null, "address": null, "name": null, "id": "36552"}, "mid": "888888855420011", "shopId": "36552", "netid": null, "province": 901, "district": 601, "zipcode": null, "telephone": "33658217", "posDate": null, "destineTel": null, "togoTel": null, "trafficWay": null, "signBuilding": null, "businessArea": null, "selfRoom": null, "businessTime": null, "stall": null, "consume": null, "serviceFei": null, "favourable": null, "shopMemo": null, "appraise": null, "website": null, "memo": null, "payTypes": "\u6749\u5fb7\u5361", "shopTypes": "\u5176\u4ed6", "consumeTypes": null, "cookTypes": null, "orderNum": 1000, "card4no": null, "card4noAcc": null, "district2": 413, "searchScope": null, "status": 1, "address": "\u6caa\u676d\u516c\u8def1807\u53f7", "name": "\u4e2d\u77f3\u5316 \u5949\u8d24\u5206\u4e2d\u5fc3", "id": 152003, "pageNo": 0, "pageCount": null, "pageSize": 10, "ids": null, "endTime": null, "startTime": null}, {"cardNumFive": null, "isSupportYj": null, "cityName": null, "districtName": null, "shopinfo": {"mid": "888888855420011", "good_flag": null, "new_flag": null, "short_name": "\u4e2d\u77f3\u5316", "short_name_pinyin": "zhongshihua", "status": null, "address": null, "name": null, "id": "36552"}, "mid": "888888855420011", "shopId": "36552", "netid": null, "province": 901, "district": 601, "zipcode": null, "telephone": "68124764", "posDate": null, "destineTel": null, "togoTel": null, "trafficWay": null, "signBuilding": null, "businessArea": null, "selfRoom": null, "businessTime": null, "stall": null, "consume": null, "serviceFei": null, "favourable": null, "shopMemo": null, "appraise": null, "website": null, "memo": null, "payTypes": "\u6749\u5fb7\u5361", "shopTypes": "\u5176\u4ed6", "consumeTypes": null, "cookTypes": null, "orderNum": 1000, "card4no": null, "card4noAcc": null, "district2": 418, "searchScope": null, "status": 1, "address": "\u6caa\u5357\u8def3651\u53f7", "name": "\u4e2d\u77f3\u5316 \u5468\u6d66\u52a0\u6cb9\u7ad9", "id": 152004, "pageNo": 0, "pageCount": null, "pageSize": 10, "ids": null, "endTime": null, "startTime": null}, {"cardNumFive": null, "isSupportYj": null, "cityName": null, "districtName": null, "shopinfo": {"mid": "888888855420011", "good_flag": null, "new_flag": null, "short_name": "\u4e2d\u77f3\u5316", "short_name_pinyin": "zhongshihua", "status": null, "address": null, "name": null, "id": "36552"}, "mid": "888888855420011", "shopId": "36552", "netid": null, "province": 901, "district": 601, "zipcode": null, "telephone": "59913692", "posDate": null, "destineTel": null, "togoTel": null, "trafficWay": null, "signBuilding": null, "businessArea": null, "selfRoom": null, "businessTime": null, "stall": null, "consume": null, "serviceFei": null, "favourable": null, "shopMemo": null, "appraise": null, "website": null, "memo": null, "payTypes": "\u6749\u5fb7\u5361", "shopTypes": "\u5176\u4ed6", "consumeTypes": null, "cookTypes": null, "orderNum": 1000, "card4no": null, "card4noAcc": null, "district2": 411, "searchScope": null, "status": 1, "address": "\u5854\u57ce\u8def575\u53f7", "name": "\u4e2d\u77f3\u5316 \u5609\u5b9a\u5206\u4e2d\u5fc3", "id": 152005, "pageNo": 0, "pageCount": null, "pageSize": 10, "ids": null, "endTime": null, "startTime": null}, {"cardNumFive": null, "isSupportYj": null, "cityName": null, "districtName": null, "shopinfo": {"mid": "888888855420011", "good_flag": null, "new_flag": null, "short_name": "\u4e2d\u77f3\u5316", "short_name_pinyin": "zhongshihua", "status": null, "address": null, "name": null, "id": "36552"}, "mid": "888888855420011", "shopId": "36552", "netid": null, "province": 901, "district": 601, "zipcode": "", "telephone": "021-69713315", "posDate": "", "destineTel": "", "togoTel": "", "trafficWay": "", "signBuilding": "", "businessArea": "", "selfRoom": "", "businessTime": "", "stall": "", "consume": "", "serviceFei": null, "favourable": "", "shopMemo": "", "appraise": "", "website": "", "memo": "", "payTypes": "\u6749\u5fb7\u5361", "shopTypes": "\u5176\u4ed6", "consumeTypes": null, "cookTypes": null, "orderNum": 1000, "card4no": null, "card4noAcc": null, "district2": 417, "searchScope": null, "status": 1, "address": "\u6caa\u9752\u5e73\u516c\u8def5980\u53f7", "name": "\u4e2d\u77f3\u5316 \u9752\u6d66\u5206\u4e2d\u5fc3", "id": 152006, "pageNo": 0, "pageCount": null, "pageSize": 10, "ids": null, "endTime": null, "startTime": null}, {"cardNumFive": null, "isSupportYj": null, "cityName": null, "districtName": null, "shopinfo": {"mid": "888888855420011", "good_flag": null, "new_flag": null, "short_name": "\u4e2d\u77f3\u5316", "short_name_pinyin": "zhongshihua", "status": null, "address": null, "name": null, "id": "36552"}, "mid": "888888855420011", "shopId": "36552", "netid": null, "province": 901, "district": 601, "zipcode": null, "telephone": "63813660", "posDate": null, "destineTel": null, "togoTel": null, "trafficWay": null, "signBuilding": null, "businessArea": null, "selfRoom": null, "businessTime": null, "stall": null, "consume": null, "serviceFei": null, "favourable": null, "shopMemo": null, "appraise": null, "website": null, "memo": null, "payTypes": "\u6749\u5fb7\u5361", "shopTypes": "\u5176\u4ed6", "consumeTypes": null, "cookTypes": null, "orderNum": 1000, "card4no": null, "card4noAcc": null, "district2": 410, "searchScope": null, "status": 1, "address": "\u5929\u76ee\u4e2d\u8def620\u53f7", "name": "\u4e2d\u77f3\u5316 \u7b2c\u5341\u52a0\u6cb9\u7ad9", "id": 152007, "pageNo": 0, "pageCount": null, "pageSize": 10, "ids": null, "endTime": null, "startTime": null}, {"cardNumFive": null, "isSupportYj": null, "cityName": null, "districtName": null, "shopinfo": {"mid": "888888855420011", "good_flag": null, "new_flag": null, "short_name": "\u4e2d\u77f3\u5316", "short_name_pinyin": "zhongshihua", "status": null, "address": null, "name": null, "id": "36552"}, "mid": "888888855420011", "shopId": "36552", "netid": null, "province": 901, "district": 601, "zipcode": null, "telephone": "64820320", "posDate": null, "destineTel": null, "togoTel": null, "trafficWay": null, "signBuilding": null, "businessArea": null, "selfRoom": null, "businessTime": null, "stall": null, "consume": null, "serviceFei": null, "favourable": null, "shopMemo": null, "appraise": null, "website": null, "memo": null, "payTypes": "\u6749\u5fb7\u5361", "shopTypes": "\u5176\u4ed6", "consumeTypes": null, "cookTypes": null, "orderNum": 1000, "card4no": null, "card4noAcc": null, "district2": 403, "searchScope": null, "status": 1, "address": "\u5b9c\u5c71\u8def771\u53f7", "name": "\u4e2d\u77f3\u5316 \u5b9c\u5c71\u52a0\u6cb9\u7ad9", "id": 152009, "pageNo": 0, "pageCount": null, "pageSize": 10, "ids": null, "endTime": null, "startTime": null}, {"cardNumFive": null, "isSupportYj": null, "cityName": null, "districtName": null, "shopinfo": {"mid": "888888855420011", "good_flag": null, "new_flag": null, "short_name": "\u4e2d\u77f3\u5316", "short_name_pinyin": "zhongshihua", "status": null, "address": null, "name": null, "id": "36552"}, "mid": "888888855420011", "shopId": "36552", "netid": null, "province": 901, "district": 601, "zipcode": null, "telephone": "64365551", "posDate": null, "destineTel": null, "togoTel": null, "trafficWay": null, "signBuilding": null, "businessArea": null, "selfRoom": null, "businessTime": null, "stall": null, "consume": null, "serviceFei": null, "favourable": null, "shopMemo": null, "appraise": null, "website": null, "memo": null, "payTypes": "\u6749\u5fb7\u5361", "shopTypes": "\u5176\u4ed6", "consumeTypes": null, "cookTypes": null, "orderNum": 1000, "card4no": null, "card4noAcc": null, "district2": 409, "searchScope": null, "status": 1, "address": "\u6caa\u95f5\u8def9501\u53f7", "name": "\u4e2d\u77f3\u5316 \u95f5\u884c\u5206\u4e2d\u5fc3", "id": 152010, "pageNo": 0, "pageCount": null, "pageSize": 10, "ids": null, "endTime": null, "startTime": null}, {"cardNumFive": null, "isSupportYj": null, "cityName": null, "districtName": null, "shopinfo": {"mid": "888888855420011", "good_flag": null, "new_flag": null, "short_name": "\u4e2d\u77f3\u5316", "short_name_pinyin": "zhongshihua", "status": null, "address": null, "name": null, "id": "36552"}, "mid": "888888855420011", "shopId": "36552", "netid": null, "province": 901, "district": 601, "zipcode": null, "telephone": "63270872", "posDate": null, "destineTel": null, "togoTel": null, "trafficWay": null, "signBuilding": null, "businessArea": null, "selfRoom": null, "businessTime": null, "stall": null, "consume": null, "serviceFei": null, "favourable": null, "shopMemo": null, "appraise": null, "website": null, "memo": null, "payTypes": "\u6749\u5fb7\u5361", "shopTypes": "\u5176\u4ed6", "consumeTypes": null, "cookTypes": null, "orderNum": 1000, "card4no": null, "card4noAcc": null, "district2": 401, "searchScope": null, "status": 1, "address": "\u9999\u6e2f\u8def60\u53f7", "name": "\u4e2d\u77f3\u5316 \u9999\u6e2f\u8def\u670d\u52a1\u90e8", "id": 152012, "pageNo": 0, "pageCount": null, "pageSize": 10, "ids": null, "endTime": null, "startTime": null}], "pageLimit": 10890, "size": 10}