{"pageCount": 1095, "count": 10942, "pageNo": 1093, "subShopInfo": {"cardNumFive": "", "isSupportYj": "", "cityName": null, "districtName": null, "shopinfo": {"mid": null, "good_flag": null, "new_flag": null, "short_name": null, "short_name_pinyin": null, "status": null, "address": "", "name": "", "id": null}, "mid": null, "shopId": null, "netid": null, "province": 901, "district": null, "zipcode": null, "telephone": null, "posDate": null, "destineTel": null, "togoTel": null, "trafficWay": null, "signBuilding": null, "businessArea": null, "selfRoom": null, "businessTime": null, "stall": null, "consume": null, "serviceFei": null, "favourable": null, "shopMemo": "1", "appraise": null, "website": null, "memo": null, "payTypes": "", "shopTypes": "", "consumeTypes": null, "cookTypes": null, "orderNum": null, "card4no": null, "card4noAcc": null, "district2": null, "searchScope": null, "status": null, "address": "", "name": null, "id": null, "pageNo": 1092, "pageCount": null, "pageSize": 10, "ids": null, "endTime": null, "startTime": null}, "list": [{"cardNumFive": null, "isSupportYj": null, "cityName": null, "districtName": null, "shopinfo": {"mid": "888002156911402", "good_flag": null, "new_flag": null, "short_name": "\u94bb\u5947\u5973\u88c5", "short_name_pinyin": "zuanqinvzhuang", "status": null, "address": null, "name": null, "id": "36330"}, "mid": "888002156911402", "shopId": "36330", "netid": null, "province": 901, "district": 601, "zipcode": null, "telephone": "37831190", "posDate": "20100818", "destineTel": null, "togoTel": null, "trafficWay": null, "signBuilding": null, "businessArea": null, "selfRoom": null, "businessTime": null, "stall": null, "consume": null, "serviceFei": null, "favourable": null, "shopMemo": null, "appraise": null, "website": null, "memo": null, "payTypes": "\u6749\u5fb7\u5361", "shopTypes": "\u96f6\u552e", "consumeTypes": null, "cookTypes": null, "orderNum": 1000, "card4no": null, "card4noAcc": null, "district2": 412, "searchScope": null, "status": 1, "address": "\u677e\u6c5f\u533a\u65b9\u677e\u8857\u9053\u65b0\u677e\u6c5f\u8def925\u5f04\u5f00\u5143\u5730\u4e2d\u6d77\u5546\u4e1a\u5e7f\u573a1\u5c421084\u5ba4\u53f7\u5546\u94fa", "name": "\u94bb\u5947\u5973\u88c5 \u65b0\u677e\u6c5f\u8def\u5e97", "id": 151243, "pageNo": 0, "pageCount": null, "pageSize": 10, "ids": null, "endTime": null, "startTime": null}, {"cardNumFive": null, "isSupportYj": null, "cityName": null, "districtName": null, "shopinfo": {"mid": "888888872300165", "good_flag": "1", "new_flag": "2", "short_name": "\u4f50\u767b\u59ae\u4e1d", "short_name_pinyin": "zuodengnisi", "status": null, "address": null, "name": null, "id": "35626"}, "mid": "888888872300165", "shopId": "35626", "netid": null, "province": 901, "district": 601, "zipcode": null, "telephone": "52399033", "posDate": "20081113", "destineTel": null, "togoTel": null, "trafficWay": "\u516c\u4ea420 921 \u5730\u94c1\u4e8c\u53f7\u7ebf", "signBuilding": "\u5146\u4e30\u5927\u53a6", "businessArea": "700\u5e73\u65b9\u7c73", "selfRoom": null, "businessTime": "10:00~22:00", "stall": "\u6709", "consume": null, "serviceFei": null, "favourable": null, "shopMemo": null, "appraise": null, "website": null, "memo": null, "payTypes": ",,\u6749\u5fb7\u5361", "shopTypes": "\u7f8e\u5bb9\u7f8e\u53d1", "consumeTypes": null, "cookTypes": null, "orderNum": 1000, "card4no": null, "card4noAcc": null, "district2": 406, "searchScope": null, "status": 1, "address": "\u957f\u5b81\u8def468\u53f7", "name": "\u4f50\u767b\u59ae\u4e1d \u957f\u5b81\u5e97", "id": 149108, "pageNo": 0, "pageCount": null, "pageSize": 10, "ids": null, "endTime": null, "startTime": null}, {"cardNumFive": null, "isSupportYj": null, "cityName": null, "districtName": null, "shopinfo": {"mid": "888888872300163", "good_flag": "1", "new_flag": "2", "short_name": "\u4f50\u767b\u59ae\u4e1d", "short_name_pinyin": "zuodengnisi", "status": null, "address": null, "name": null, "id": "35629"}, "mid": "888888872300163", "shopId": "35629", "netid": null, "province": 901, "district": 601, "zipcode": null, "telephone": "64723627", "posDate": "20081113", "destineTel": null, "togoTel": null, "trafficWay": "\u516c\u4ea471 946 \u8f7b\u8f68\u4e09\u3001\u56db\u53f7\u7ebf", "signBuilding": "\u6c38\u742a\u7f8e\u5bb9\u7f8e\u53d1\u5e97", "businessArea": "700\u5e73\u65b9\u7c73", "selfRoom": null, "businessTime": "10:00~22:00", "stall": "\u6709", "consume": null, "serviceFei": null, "favourable": null, "shopMemo": null, "appraise": null, "website": null, "memo": null, "payTypes": "\u6749\u5fb7\u5361", "shopTypes": "\u7f8e\u5bb9\u7f8e\u53d1", "consumeTypes": null, "cookTypes": null, "orderNum": 1000, "card4no": null, "card4noAcc": null, "district2": 406, "searchScope": null, "status": 1, "address": "\u5b9a\u897f\u8def655\u53f7", "name": "\u4f50\u767b\u59ae\u4e1d \u5b9a\u897f\u5e97", "id": 149111, "pageNo": 0, "pageCount": null, "pageSize": 10, "ids": null, "endTime": null, "startTime": null}, {"cardNumFive": null, "isSupportYj": null, "cityName": null, "districtName": null, "shopinfo": {"mid": "888888872300197", "good_flag": "1", "new_flag": "2", "short_name": "\u4f50\u767b\u59ae\u4e1d", "short_name_pinyin": "zuodengnisi", "status": null, "address": null, "name": null, "id": "35631"}, "mid": "888888872300197", "shopId": "35631", "netid": null, "province": 901, "district": 601, "zipcode": null, "telephone": "50596314", "posDate": "20090313", "destineTel": null, "togoTel": null, "trafficWay": null, "signBuilding": null, "businessArea": "400", "selfRoom": null, "businessTime": null, "stall": null, "consume": null, "serviceFei": null, "favourable": null, "shopMemo": null, "appraise": null, "website": null, "memo": null, "payTypes": "\u6749\u5fb7\u5361", "shopTypes": "\u7f8e\u5bb9\u7f8e\u53d1", "consumeTypes": null, "cookTypes": null, "orderNum": 1000, "card4no": null, "card4noAcc": null, "district2": 418, "searchScope": null, "status": 1, "address": "\u82b1\u6728\u9547\u4e1c\u7ee3\u8def1403\u53f7", "name": "\u4f50\u767b\u59ae\u4e1d \u4e1c\u7ee3\u5e97", "id": 149113, "pageNo": 0, "pageCount": null, "pageSize": 10, "ids": null, "endTime": null, "startTime": null}, {"cardNumFive": null, "isSupportYj": null, "cityName": null, "districtName": null, "shopinfo": {"mid": "888888872300172", "good_flag": "1", "new_flag": "2", "short_name": "\u4f50\u767b\u59ae\u4e1d", "short_name_pinyin": "zuodengnisi", "status": null, "address": null, "name": null, "id": "35632"}, "mid": "888888872300172", "shopId": "35632", "netid": null, "province": 901, "district": 601, "zipcode": null, "telephone": "64723627", "posDate": "20081107", "destineTel": null, "togoTel": null, "trafficWay": "\u516c\u4ea437 20 \u5730\u94c1\u4e00\u53f7\u7ebf", "signBuilding": "\u6765\u798f\u58eb\u5e7f\u573a", "businessArea": "700\u5e73\u65b9\u7c73", "selfRoom": null, "businessTime": "10:00~22:00", "stall": "\u6709", "consume": null, "serviceFei": null, "favourable": null, "shopMemo": null, "appraise": null, "website": null, "memo": null, "payTypes": "\u6749\u5fb7\u5361", "shopTypes": "\u7f8e\u5bb9\u7f8e\u53d1", "consumeTypes": null, "cookTypes": null, "orderNum": 1000, "card4no": null, "card4noAcc": null, "district2": 401, "searchScope": null, "status": 1, "address": "\u798f\u5efa\u4e2d\u8def176\u53f7", "name": "\u4f50\u767b\u59ae\u4e1d \u798f\u5dde\u8def\u5e97", "id": 149114, "pageNo": 0, "pageCount": null, "pageSize": 10, "ids": null, "endTime": null, "startTime": null}, {"cardNumFive": null, "isSupportYj": null, "cityName": null, "districtName": null, "shopinfo": {"mid": "888888872300160", "good_flag": "1", "new_flag": "2", "short_name": "\u4f50\u767b\u59ae\u4e1d", "short_name_pinyin": "zuodengnisi", "status": null, "address": null, "name": null, "id": "35637"}, "mid": "888888872300160", "shopId": "35637", "netid": null, "province": 901, "district": 601, "zipcode": null, "telephone": "64723627", "posDate": "20081113", "destineTel": null, "togoTel": null, "trafficWay": "\u516c\u4ea4220 14 103 \u5730\u94c1\u516b\u53f7\u7ebf", "signBuilding": "\u6c38\u4e50\u5bb6\u7535 \u5047\u65e5\u767e\u8d27", "businessArea": "700\u5e73\u65b9\u7c73", "selfRoom": null, "businessTime": "10:00~22:00", "stall": "\u6709", "consume": null, "serviceFei": null, "favourable": null, "shopMemo": null, "appraise": null, "website": null, "memo": null, "payTypes": "\u6749\u5fb7\u5361", "shopTypes": "\u7f8e\u5bb9\u7f8e\u53d1", "consumeTypes": null, "cookTypes": null, "orderNum": 1000, "card4no": null, "card4noAcc": null, "district2": 407, "searchScope": null, "status": 1, "address": "\u672c\u6eaa\u8def268\u53f7", "name": "\u4f50\u767b\u59ae\u4e1d \u63a7\u6c5f\u5e97", "id": 149120, "pageNo": 0, "pageCount": null, "pageSize": 10, "ids": null, "endTime": null, "startTime": null}, {"cardNumFive": null, "isSupportYj": null, "cityName": null, "districtName": null, "shopinfo": {"mid": "888888872300167", "good_flag": "1", "new_flag": "2", "short_name": "\u4f50\u767b\u59ae\u4e1d", "short_name_pinyin": "zuodengnisi", "status": null, "address": null, "name": null, "id": "35638"}, "mid": "888888872300167", "shopId": "35638", "netid": null, "province": 901, "district": 601, "zipcode": null, "telephone": "64723627", "posDate": "20081113", "destineTel": null, "togoTel": null, "trafficWay": "\u516c\u4ea443 218 985", "signBuilding": "\u5927\u540c\u82b1\u56ed", "businessArea": "700\u5e73\u65b9\u7c73", "selfRoom": null, "businessTime": "10:00~22:00", "stall": "\u6709", "consume": null, "serviceFei": null, "favourable": null, "shopMemo": null, "appraise": null, "website": null, "memo": null, "payTypes": "\u6749\u5fb7\u5361", "shopTypes": "\u7f8e\u5bb9\u7f8e\u53d1", "consumeTypes": null, "cookTypes": null, "orderNum": 1000, "card4no": null, "card4noAcc": null, "district2": 401, "searchScope": null, "status": 1, "address": "\u5f90\u5bb6\u6c47\u8def579\u53f7\u4e8c\u697c", "name": "\u4f50\u767b\u59ae\u4e1d \u4e3d\u56ed\u5e97", "id": 149121, "pageNo": 0, "pageCount": null, "pageSize": 10, "ids": null, "endTime": null, "startTime": null}, {"cardNumFive": null, "isSupportYj": null, "cityName": null, "districtName": null, "shopinfo": {"mid": "888888872300165", "good_flag": "1", "new_flag": "2", "short_name": "\u4f50\u767b\u59ae\u4e1d", "short_name_pinyin": "zuodengnisi", "status": null, "address": null, "name": null, "id": "35626"}, "mid": "888888872300165", "shopId": "35626", "netid": null, "province": 901, "district": 601, "zipcode": null, "telephone": "64723627", "posDate": "20081113", "destineTel": null, "togoTel": null, "trafficWay": "\u516c\u4ea4112 78", "signBuilding": "\u62db\u5546\u94f6\u884c", "businessArea": "700\u5e73\u65b9\u7c73", "selfRoom": null, "businessTime": "10:00~22:00", "stall": "\u6709", "consume": null, "serviceFei": null, "favourable": null, "shopMemo": null, "appraise": null, "website": null, "memo": null, "payTypes": "\u6749\u5fb7\u5361", "shopTypes": "\u7f8e\u5bb9\u7f8e\u53d1", "consumeTypes": null, "cookTypes": null, "orderNum": 1000, "card4no": null, "card4noAcc": null, "district2": 410, "searchScope": null, "status": 1, "address": "\u7075\u77f3\u8def1263\u53f7", "name": "\u4f50\u767b\u59ae\u4e1d \u7075\u77f3\u5e97", "id": 149122, "pageNo": 0, "pageCount": null, "pageSize": 10, "ids": null, "endTime": null, "startTime": null}, {"cardNumFive": null, "isSupportYj": null, "cityName": null, "districtName": null, "shopinfo": {"mid": "888888872300176", "good_flag": "1", "new_flag": "2", "short_name": "\u4f50\u767b\u59ae\u4e1d", "short_name_pinyin": "zuodengnisi", "status": null, "address": null, "name": null, "id": "35639"}, "mid": "888888872300176", "shopId": "35639", "netid": null, "province": 901, "district": 601, "zipcode": null, "telephone": "64723627", "posDate": "20081116", "destineTel": null, "togoTel": null, "trafficWay": "\u516c\u4ea454 88 \u5730\u94c1\u4e8c\u3001\u4e09\u53f7\u7ebf", "signBuilding": "\u5929\u5c71\u5546\u53a6", "businessArea": "700\u5e73\u65b9\u7c73", "selfRoom": null, "businessTime": "10:00~22:00", "stall": "\u6709", "consume": null, "serviceFei": null, "favourable": null, "shopMemo": null, "appraise": null, "website": null, "memo": null, "payTypes": "\u6749\u5fb7\u5361", "shopTypes": "\u7f8e\u5bb9\u7f8e\u53d1", "consumeTypes": null, "cookTypes": null, "orderNum": 1000, "card4no": null, "card4noAcc": null, "district2": 406, "searchScope": null, "status": 1, "address": "\u5a04\u5c71\u5173\u8def1050\u53f7", "name": "\u4f50\u767b\u59ae\u4e1d \u5a04\u5c71\u5173\u5e97", "id": 149123, "pageNo": 0, "pageCount": null, "pageSize": 10, "ids": null, "endTime": null, "startTime": null}, {"cardNumFive": null, "isSupportYj": null, "cityName": null, "districtName": null, "shopinfo": {"mid": "888888872300178", "good_flag": "1", "new_flag": "2", "short_name": "\u4f50\u767b\u59ae\u4e1d", "short_name_pinyin": "zuodengnisi", "status": null, "address": null, "name": null, "id": "35640"}, "mid": "888888872300178", "shopId": "35640", "netid": null, "province": 901, "district": 601, "zipcode": null, "telephone": "64723627", "posDate": "20081114", "destineTel": null, "togoTel": null, "trafficWay": "\u516c\u4ea4\u96a7\u9053\u4e09\u7ebf \u5730\u94c1\u56db\u53f7\u7ebf", "signBuilding": "\u88d5\u666f\u5927\u9152\u5e97", "businessArea": "700\u5e73\u65b9\u7c73", "selfRoom": null, "businessTime": "10:00~22:00", "stall": "\u6709", "consume": null, "serviceFei": null, "favourable": null, "shopMemo": null, "appraise": null, "website": null, "memo": null, "payTypes": "\u6749\u5fb7\u5361", "shopTypes": "\u7f8e\u5bb9\u7f8e\u53d1", "consumeTypes": null, "cookTypes": null, "orderNum": 1000, "card4no": null, "card4noAcc": null, "district2": 418, "searchScope": null, "status": 1, "address": "\u660c\u9091\u8def538\u53f7", "name": "\u4f50\u767b\u59ae\u4e1d \u9646\u5bb6\u5634\u5e97", "id": 149124, "pageNo": 0, "pageCount": null, "pageSize": 10, "ids": null, "endTime": null, "startTime": null}], "pageLimit": 10920, "size": 10}