{"pageCount": 1095, "count": 10942, "pageNo": 1094, "subShopInfo": {"cardNumFive": "", "isSupportYj": "", "cityName": null, "districtName": null, "shopinfo": {"mid": null, "good_flag": null, "new_flag": null, "short_name": null, "short_name_pinyin": null, "status": null, "address": "", "name": "", "id": null}, "mid": null, "shopId": null, "netid": null, "province": 901, "district": null, "zipcode": null, "telephone": null, "posDate": null, "destineTel": null, "togoTel": null, "trafficWay": null, "signBuilding": null, "businessArea": null, "selfRoom": null, "businessTime": null, "stall": null, "consume": null, "serviceFei": null, "favourable": null, "shopMemo": "1", "appraise": null, "website": null, "memo": null, "payTypes": "", "shopTypes": "", "consumeTypes": null, "cookTypes": null, "orderNum": null, "card4no": null, "card4noAcc": null, "district2": null, "searchScope": null, "status": null, "address": "", "name": null, "id": null, "pageNo": 1093, "pageCount": null, "pageSize": 10, "ids": null, "endTime": null, "startTime": null}, "list": [{"cardNumFive": null, "isSupportYj": null, "cityName": null, "districtName": null, "shopinfo": {"mid": "888888872300231", "good_flag": "2", "new_flag": "1", "short_name": "\u4f50\u767b\u59ae\u4e1d", "short_name_pinyin": "zuodengnisi", "status": null, "address": null, "name": null, "id": "35641"}, "mid": "888888872300231", "shopId": "35641", "netid": null, "province": 901, "district": 601, "zipcode": null, "telephone": null, "posDate": null, "destineTel": null, "togoTel": null, "trafficWay": null, "signBuilding": null, "businessArea": null, "selfRoom": null, "businessTime": null, "stall": null, "consume": null, "serviceFei": null, "favourable": null, "shopMemo": null, "appraise": null, "website": null, "memo": null, "payTypes": "\u6749\u5fb7\u5361", "shopTypes": "\u7f8e\u5bb9\u7f8e\u53d1", "consumeTypes": null, "cookTypes": null, "orderNum": 1000, "card4no": null, "card4noAcc": null, "district2": 404, "searchScope": null, "status": 1, "address": "\u8302\u540d\u5317\u8def148\u53f72\u697c", "name": "\u4f50\u767b\u59ae\u4e1d \u8302\u540d\u5317\u8def\u5e97", "id": 149125, "pageNo": 0, "pageCount": null, "pageSize": 10, "ids": null, "endTime": null, "startTime": null}, {"cardNumFive": null, "isSupportYj": null, "cityName": null, "districtName": null, "shopinfo": {"mid": "888888872300165", "good_flag": "1", "new_flag": "2", "short_name": "\u4f50\u767b\u59ae\u4e1d", "short_name_pinyin": "zuodengnisi", "status": null, "address": null, "name": null, "id": "35626"}, "mid": "888888872300165", "shopId": "35626", "netid": null, "province": 901, "district": 601, "zipcode": null, "telephone": "64723627", "posDate": "20081113", "destineTel": null, "togoTel": null, "trafficWay": "\u516c\u4ea449 925B \u5730\u94c1\u4e8c\u53f7\u7ebf", "signBuilding": "85\u00b0\u9762\u5305\u623f", "businessArea": "700\u5e73\u65b9\u7c73", "selfRoom": null, "businessTime": "10:00~22:00", "stall": "\u6709", "consume": null, "serviceFei": null, "favourable": null, "shopMemo": null, "appraise": null, "website": null, "memo": null, "payTypes": "\u6749\u5fb7\u5361", "shopTypes": "\u7f8e\u5bb9\u7f8e\u53d1", "consumeTypes": null, "cookTypes": null, "orderNum": 1000, "card4no": null, "card4noAcc": null, "district2": 404, "searchScope": null, "status": 1, "address": "\u8302\u540d\u5317\u8def148\u53f72\u697c", "name": "\u4f50\u767b\u59ae\u4e1d \u8302\u540d\u5e97", "id": 149126, "pageNo": 0, "pageCount": null, "pageSize": 10, "ids": null, "endTime": null, "startTime": null}, {"cardNumFive": null, "isSupportYj": null, "cityName": null, "districtName": null, "shopinfo": {"mid": "888888872300169", "good_flag": "1", "new_flag": "2", "short_name": "\u4f50\u767b\u59ae\u4e1d", "short_name_pinyin": "zuodengnisi", "status": null, "address": null, "name": null, "id": "35636"}, "mid": "888888872300169", "shopId": "35636", "netid": null, "province": 901, "district": 601, "zipcode": null, "telephone": "64723627", "posDate": "20081114", "destineTel": null, "togoTel": null, "trafficWay": "\u516c\u4ea4837 948", "signBuilding": null, "businessArea": "700\u5e73\u65b9\u7c73", "selfRoom": null, "businessTime": "10:00~22:00", "stall": "\u6709", "consume": null, "serviceFei": null, "favourable": null, "shopMemo": null, "appraise": null, "website": null, "memo": null, "payTypes": "\u6749\u5fb7\u5361", "shopTypes": "\u7f8e\u5bb9\u7f8e\u53d1", "consumeTypes": null, "cookTypes": null, "orderNum": 1000, "card4no": null, "card4noAcc": null, "district2": 411, "searchScope": null, "status": 1, "address": "\u6885\u5ddd\u8def4181-5\u53f7", "name": "\u4f50\u767b\u59ae\u4e1d \u6885\u5ddd\u5e97", "id": 149127, "pageNo": 0, "pageCount": null, "pageSize": 10, "ids": null, "endTime": null, "startTime": null}, {"cardNumFive": null, "isSupportYj": null, "cityName": null, "districtName": null, "shopinfo": {"mid": "888888872300162", "good_flag": "1", "new_flag": "2", "short_name": "\u4f50\u767b\u59ae\u4e1d", "short_name_pinyin": "zuodengnisi", "status": null, "address": null, "name": null, "id": "35642"}, "mid": "888888872300162", "shopId": "35642", "netid": null, "province": 901, "district": 601, "zipcode": null, "telephone": "64723627", "posDate": "20081113", "destineTel": null, "togoTel": null, "trafficWay": "\u516c\u4ea4169 783 \u5730\u94c1\u516d\u53f7\u7ebf", "signBuilding": "\u6d77\u4e8b\u5927\u5b66", "businessArea": "700\u5e73\u65b9\u7c73", "selfRoom": null, "businessTime": "10:00~22:00", "stall": "\u6709", "consume": null, "serviceFei": null, "favourable": null, "shopMemo": null, "appraise": null, "website": null, "memo": null, "payTypes": "\u6749\u5fb7\u5361", "shopTypes": "\u7f8e\u5bb9\u7f8e\u53d1", "consumeTypes": null, "cookTypes": null, "orderNum": 1000, "card4no": null, "card4noAcc": null, "district2": 418, "searchScope": null, "status": 1, "address": "\u6c11\u751f\u8def632\u53f7", "name": "\u4f50\u767b\u59ae\u4e1d \u6c11\u751f\u5e97", "id": 149129, "pageNo": 0, "pageCount": null, "pageSize": 10, "ids": null, "endTime": null, "startTime": null}, {"cardNumFive": null, "isSupportYj": null, "cityName": null, "districtName": null, "shopinfo": {"mid": "888888872300172", "good_flag": "1", "new_flag": "2", "short_name": "\u4f50\u767b\u59ae\u4e1d", "short_name_pinyin": "zuodengnisi", "status": null, "address": null, "name": null, "id": "35632"}, "mid": "888888872300172", "shopId": "35632", "netid": null, "province": 901, "district": 601, "zipcode": null, "telephone": "64723627", "posDate": "20081108", "destineTel": null, "togoTel": null, "trafficWay": "\u516c\u4ea4952B \u5730\u94c1\u4e09\u53f7\u7ebf", "signBuilding": "\u7261\u4e39\u9152\u5bb6", "businessArea": "700\u5e73\u65b9\u7c73", "selfRoom": null, "businessTime": "10:00~22:00", "stall": "\u6709", "consume": null, "serviceFei": null, "favourable": null, "shopMemo": null, "appraise": null, "website": null, "memo": null, "payTypes": "\u6749\u5fb7\u5361", "shopTypes": "\u7f8e\u5bb9\u7f8e\u53d1", "consumeTypes": null, "cookTypes": null, "orderNum": 1000, "card4no": null, "card4noAcc": null, "district2": 416, "searchScope": null, "status": 1, "address": "\u7261\u4e39\u6c5f\u8def1784-2\u53f7", "name": "\u4f50\u767b\u59ae\u4e1d \u7261\u4e39\u6c5f\u5e97", "id": 149130, "pageNo": 0, "pageCount": null, "pageSize": 10, "ids": null, "endTime": null, "startTime": null}, {"cardNumFive": null, "isSupportYj": null, "cityName": null, "districtName": null, "shopinfo": {"mid": "888888872300169", "good_flag": "1", "new_flag": "2", "short_name": "\u4f50\u767b\u59ae\u4e1d", "short_name_pinyin": "zuodengnisi", "status": null, "address": null, "name": null, "id": "35636"}, "mid": "888888872300169", "shopId": "35636", "netid": null, "province": 901, "district": 601, "zipcode": null, "telephone": "58404796", "posDate": "20081113", "destineTel": null, "togoTel": null, "trafficWay": "\u516c\u4ea4798 985 \u96a7\u9053\u56db\u7ebf", "signBuilding": "\u56fd\u5bb6\u7535\u7f51", "businessArea": "700\u5e73\u65b9\u7c73", "selfRoom": null, "businessTime": "10:00~22:00", "stall": "\u6709", "consume": null, "serviceFei": null, "favourable": null, "shopMemo": null, "appraise": null, "website": null, "memo": null, "payTypes": ",,\u6749\u5fb7\u5361", "shopTypes": "\u7f8e\u5bb9\u7f8e\u53d1", "consumeTypes": null, "cookTypes": null, "orderNum": 1000, "card4no": null, "card4noAcc": null, "district2": 418, "searchScope": null, "status": 1, "address": "\u6d66\u7535\u8def126\u53f7", "name": "\u4f50\u767b\u59ae\u4e1d \u6d66\u7535\u5e97", "id": 149131, "pageNo": 0, "pageCount": null, "pageSize": 10, "ids": null, "endTime": null, "startTime": null}, {"cardNumFive": null, "isSupportYj": null, "cityName": null, "districtName": null, "shopinfo": {"mid": "888888872300161", "good_flag": "1", "new_flag": "2", "short_name": "\u4f50\u767b\u59ae\u4e1d", "short_name_pinyin": "zuodengnisi", "status": null, "address": null, "name": null, "id": "35643"}, "mid": "888888872300161", "shopId": "35643", "netid": null, "province": 901, "district": 601, "zipcode": null, "telephone": "64723627", "posDate": "20081113", "destineTel": null, "togoTel": null, "trafficWay": "\u516c\u4ea4985 796 \u96a7\u9053\u56db\u7ebf", "signBuilding": "\u4e16\u8d38\u6ee8\u6c5f\u82b1\u56ed", "businessArea": "700\u5e73\u65b9\u7c73", "selfRoom": null, "businessTime": "10:00~22:00", "stall": "\u6709", "consume": null, "serviceFei": null, "favourable": null, "shopMemo": null, "appraise": null, "website": null, "memo": null, "payTypes": "\u6749\u5fb7\u5361", "shopTypes": "\u7f8e\u5bb9\u7f8e\u53d1", "consumeTypes": null, "cookTypes": null, "orderNum": 1000, "card4no": null, "card4noAcc": null, "district2": 418, "searchScope": null, "status": 1, "address": "\u6f4d\u574a\u897f\u8def132\u53f7", "name": "\u4f50\u767b\u59ae\u4e1d \u6d66\u4e1c\u5357\u8def\u5e97", "id": 149132, "pageNo": 0, "pageCount": null, "pageSize": 10, "ids": null, "endTime": null, "startTime": null}, {"cardNumFive": null, "isSupportYj": null, "cityName": null, "districtName": null, "shopinfo": {"mid": "888888872300166", "good_flag": "1", "new_flag": "2", "short_name": "\u4f50\u767b\u59ae\u4e1d", "short_name_pinyin": "zuodengnisi", "status": null, "address": null, "name": null, "id": "35644"}, "mid": "888888872300166", "shopId": "35644", "netid": null, "province": 901, "district": 601, "zipcode": null, "telephone": "64723627", "posDate": "20081113", "destineTel": null, "togoTel": null, "trafficWay": "\u516c\u4ea413 36 112 837", "signBuilding": "\u534e\u8054\u5409\u4e70\u76db", "businessArea": "700\u5e73\u65b9\u7c73", "selfRoom": null, "businessTime": "10:00~22:00", "stall": "\u6709", "consume": null, "serviceFei": null, "favourable": null, "shopMemo": null, "appraise": null, "website": null, "memo": null, "payTypes": "\u6749\u5fb7\u5361", "shopTypes": "\u7f8e\u5bb9\u7f8e\u53d1", "consumeTypes": null, "cookTypes": null, "orderNum": 1000, "card4no": null, "card4noAcc": null, "district2": 405, "searchScope": null, "status": 1, "address": "\u9655\u897f\u5317\u8def1751\u53f7", "name": "\u4f50\u767b\u59ae\u4e1d \u9655\u897f\u5317\u8def\u5e97", "id": 149135, "pageNo": 0, "pageCount": null, "pageSize": 10, "ids": null, "endTime": null, "startTime": null}, {"cardNumFive": null, "isSupportYj": null, "cityName": null, "districtName": null, "shopinfo": {"mid": "888888872300174", "good_flag": "1", "new_flag": "2", "short_name": "\u4f50\u767b\u59ae\u4e1d", "short_name_pinyin": "zuodengnisi", "status": null, "address": null, "name": null, "id": "35633"}, "mid": "888888872300174", "shopId": "35633", "netid": null, "province": 901, "district": 601, "zipcode": null, "telephone": "64723627", "posDate": "20081114", "destineTel": null, "togoTel": null, "trafficWay": "\u516c\u4ea419 65", "signBuilding": "\u65b0\u4e9a\u5927\u9152\u5e97", "businessArea": "700\u5e73\u65b9\u7c73", "selfRoom": null, "businessTime": "10:00~22:00", "stall": "\u6709", "consume": null, "serviceFei": null, "favourable": null, "shopMemo": null, "appraise": null, "website": null, "memo": null, "payTypes": "\u6749\u5fb7\u5361", "shopTypes": "\u7f8e\u5bb9\u7f8e\u53d1", "consumeTypes": null, "cookTypes": null, "orderNum": 1000, "card4no": null, "card4noAcc": null, "district2": 408, "searchScope": null, "status": 1, "address": "\u56db\u5ddd\u5317\u8def8-10\u53f7", "name": "\u4f50\u767b\u59ae\u4e1d \u56db\u5ddd\u5317\u8def\u5e97", "id": 149136, "pageNo": 0, "pageCount": null, "pageSize": 10, "ids": null, "endTime": null, "startTime": null}, {"cardNumFive": null, "isSupportYj": null, "cityName": null, "districtName": null, "shopinfo": {"mid": "888888872300175", "good_flag": "1", "new_flag": "2", "short_name": "\u4f50\u767b\u59ae\u4e1d", "short_name_pinyin": "zuodengnisi", "status": null, "address": null, "name": null, "id": "35646"}, "mid": "888888872300175", "shopId": "35646", "netid": null, "province": 901, "district": 601, "zipcode": null, "telephone": "65177207\u300164735265\u300164723627", "posDate": "20081114", "destineTel": null, "togoTel": null, "trafficWay": "\u516c\u4ea4817 991 \u5927\u68655\u7ebf", "signBuilding": "\u590d\u65e6\u5927\u5b66", "businessArea": "700\u5e73\u65b9\u7c73", "selfRoom": null, "businessTime": "10:00~22:30", "stall": "\u6709", "consume": null, "serviceFei": null, "favourable": null, "shopMemo": null, "appraise": null, "website": null, "memo": null, "payTypes": "\u6749\u5fb7\u5361", "shopTypes": "\u7f8e\u5bb9\u7f8e\u53d1", "consumeTypes": null, "cookTypes": null, "orderNum": 1000, "card4no": null, "card4noAcc": null, "district2": 407, "searchScope": null, "status": 1, "address": "\u90af\u90f8\u8def585\u53f7\u75322\u697c", "name": "\u4f50\u767b\u59ae\u4e1d \u4e94\u89d2\u573a\u5e97", "id": 149140, "pageNo": 0, "pageCount": null, "pageSize": 10, "ids": null, "endTime": null, "startTime": null}], "pageLimit": 10930, "size": 10}